[
  {
    "label": "Fire",
    "text": "Potencia"
  },
  {
    "label": "Fire_Explanation",
    "text": "Los cromochips con tonalidad de potencia\nmejoran parámetros de ataque como el daño\ninfligido y la cadencia de disparo. ¡A la carga!"
  },
  {
    "label": "Continuity",
    "text": "Apoyo"
  },
  {
    "label": "Continuity_Explanation",
    "text": "Los cromochips con tonalidad de apoyo mejoran\npropiedades de las armas como el gasto de tinta\ny la precisión. ¡Así no tendrás puntos flacos!"
  },
  {
    "label": "Range",
    "text": "Alcance"
  },
  {
    "label": "Range_Explanation",
    "text": "Los cromochips con tonalidad de alcance ayudan\na entintar territorio y a disparar más lejos o\na través de rivales. ¡Entinta sin que te entinten!"
  },
  {
    "label": "Move",
    "text": "Movilidad"
  },
  {
    "label": "Move_Explanation",
    "text": "Los cromochips con tonalidad de movilidad\npermiten moverse más rápido, infligir daño con\ntus movimientos y más. ¡Que no te acorralen!"
  },
  {
    "label": "Luck",
    "text": "Fortuna"
  },
  {
    "label": "Luck_Explanation",
    "text": "Los cromochips con tonalidad de fortuna hacen\nque aparezcan más armaduras, botellas de\ntinta, bombas, etc. ¡Que el destino te sonría!"
  },
  {
    "label": "Auto",
    "text": "Dron"
  },
  {
    "label": "Auto_Explanation",
    "text": "Los cromochips con tonalidad de dron permiten\nque Perla ejecute acciones mejoradas y con\nmás facilidad. ¡No tendrás mejor compañera!"
  }
]