[
  {
    "label": "Unknown",
    "text": "(?)"
  },
  {
    "label": "ZakoSmall",
    "text": "cualquier lugar"
  },
  {
    "label": "ZakoStandard",
    "text": "cualquier lugar"
  },
  {
    "label": "ZakoLarge",
    "text": "cualquier lugar"
  },
  {
    "label": "Escape",
    "text": "zonas sin octarianos"
  },
  {
    "label": "Tree",
    "text": "sitios imponentes"
  },
  {
    "label": "TreeMissile",
    "text": "cerca de accordo germinales"
  },
  {
    "label": "Hopper",
    "text": "donde se pueda brincar"
  },
  {
    "label": "BombBlow",
    "text": "donde se lancen cosas"
  },
  {
    "label": "ChargerTower",
    "text": "sitios imponentes"
  },
  {
    "label": "Shell",
    "text": "donde se rebote"
  },
  {
    "label": "Sprinkler",
    "text": "sitios bien entintables"
  },
  {
    "label": "ExplodeSpawner",
    "text": "donde hay esquealetas"
  },
  {
    "label": "RivalKing",
    "text": "pisos finales"
  },
  {
    "label": "TowerKing",
    "text": "pisos finales"
  },
  {
    "label": "BallKing",
    "text": "pisos finales"
  },
  {
    "label": "BarrierKingIida",
    "text": "niveles superiores"
  },
  {
    "label": "BarrierKingOdako",
    "text": "niveles superiores"
  }
]