[
  {
    "label": "RivalKing_Name",
    "text": "Canon irreal"
  },
  {
    "label": "TowerKing_Name",
    "text": "Rondo circundante"
  },
  {
    "label": "BallKing_Name",
    "text": "Marzia rodante"
  },
  {
    "label": "BarrierKingIida_Name",
    "text": "Agitazione marínica"
  },
  {
    "label": "BarrierKingOdako_Name",
    "text": "Ordominio"
  },
  {
    "label": "RivalKing_Sub",
    "text": "Armonía in crescendo"
  },
  {
    "label": "TowerKing_Sub",
    "text": "Rotación por niveles"
  },
  {
    "label": "BallKing_Sub",
    "text": "Hurañía rebotadora"
  },
  {
    "label": "BarrierKingIida_Sub",
    "text": "Orden en aplicación"
  },
  {
    "label": "BarrierKingOdako_Sub_00",
    "text": "Guardián del orden"
  },
  {
    "label": "BarrierKingOdako_Sub_01",
    "text": "La primera no se espera"
  },
  {
    "label": "BarrierKingOdako_Sub_02",
    "text": "Acto segundo, más iracundo"
  },
  {
    "label": "BarrierKingOdako_Sub_03",
    "text": "Se acumula el es-trés"
  },
  {
    "label": "BarrierKingOdako_Sub_04",
    "text": "Sin cuartel a la cuarta"
  },
  {
    "label": "BarrierKingOdako_Sub_05",
    "text": "Quinta con inquina"
  },
  {
    "label": "BarrierKingOdako_Sub_06",
    "text": "A la sexta, rechazo extra"
  },
  {
    "label": "BarrierKingOdako_Sub_07",
    "text": "La séptima sepia"
  },
  {
    "label": "BarrierKingOdako_Sub_08",
    "text": "Octava a la desesperada"
  },
  {
    "label": "BarrierKingOdako_Sub_09",
    "text": "El nueve todo lo mueve"
  },
  {
    "label": "BarrierKingOdako_Sub_10",
    "text": "Decálogo de tentáculos"
  },
  {
    "label": "BarrierKingOdako_Sub_11",
    "text": "Orden final"
  },
  {
    "label": "BarrierKingOdako_Sub_12",
    "text": "Objetivo obstructivo"
  }
]