[
  {
    "label": "000",
    "text": "You won a 10x Conch Clash! Congrats!"
  },
  {
    "label": "001",
    "text": "Thanks to your brilliant play, you get to board\na {{color id=\"1\"}}Splatfest Float {{color id=\"65535\"}}in Splatsville square!{{pageBreak}}Head to the {{color id=\"1\"}}Splatfest Pledge Box {{color id=\"65535\"}}to climb\naboard. And be sure to get some selfies!"
  },
  {
    "label": "002",
    "text": "Thanks to your brilliant play, you get to {{color id=\"1\"}}take\nthe stage{{color id=\"65535\"}} and snap some pictures!{{pageBreak}}Head to the {{color id=\"1\"}}Splatfest Pledge Box{{color id=\"65535\"}} for access to\nthe platform. And be sure to get some selfies!"
  }
]