[
  {
    "label": "000",
    "text": "Phew! You've made it pretty far, huh?"
  },
  {
    "label": "001",
    "text": "Looks like you can get to another site from there."
  },
  {
    "label": "002",
    "text": "Aha! There's even a pipe on the other side!"
  },
  {
    "label": "003",
    "text": "Still no sign of Gramps though..."
  },
  {
    "label": "004",
    "text": "Well, let's see what we can find here. Good luck!"
  },
  {
    "label": "100",
    "text": "Phew! You've made it pretty far, huh?"
  },
  {
    "label": "101",
    "text": "Looks like you can get to another site from there."
  },
  {
    "label": "102",
    "text": "That pipe must be the way back."
  },
  {
    "label": "103",
    "text": "Hm... Still no response from Gramps. Figures."
  },
  {
    "label": "104",
    "text": "Well, let's see what we can find here. Good luck!"
  }
]