[
  {
    "label": "000",
    "text": "We're in!"
  },
  {
    "label": "001",
    "text": "Looks like we've got more climbing to do."
  },
  {
    "label": "002",
    "text": "Ay, ay!{{string value=\"5\"}} (We'll be rooting for you! Safely...from the\nground far, far below...){{fun_000F_0004 arg=\"0x0500\"}}"
  }
]