[
  {
    "label": "000",
    "text": "Gah! {{color id=\"1\"}}Octotrooper{{color id=\"65535\"}} ahead! It's a real live enemy!"
  },
  {
    "label": "001",
    "text": "Get ready to splat it with {{icon id=\"12\" arg=\"0x0000803F00000000\"}}, Agent 3!"
  }
]