[
  {
    "label": "000",
    "text": "NOT SO FAST!"
  },
  {
    "label": "001",
    "text": "You're pretty tough. I can tell!"
  },
  {
    "label": "002",
    "text": "How 'bout this.{{delay frames=\"30\"}} You call it quits, join my crew,\nand we split the treasure!"
  },
  {
    "label": "003",
    "text": "Bah. {{delay frames=\"15\"}}You wanna resolve this Splatlands-style, huh?"
  },
  {
    "label": "004",
    "text": "Fine by me! {{delay frames=\"15\"}}DANCE BATTLE TO THE DEATH!"
  },
  {
    "label": "005",
    "text": "Eels, get your wriggly butts out here!"
  },
  {
    "label": "006",
    "text": "HUP, HUP, HUP!"
  },
  {
    "label": "007",
    "text": "LET'S DANCE!"
  },
  {
    "label": "101",
    "text": "'Bout time! Sheesh!"
  },
  {
    "label": "102",
    "text": "I got a li'l problem, see?{{delay frames=\"30\"}} When I get beat,\nI just can't let it go!"
  },
  {
    "label": "103",
    "text": "Ohhh, that's right. {{delay frames=\"15\"}}Almost forgot."
  },
  {
    "label": "104",
    "text": "You and me?{{delay frames=\"15\"}} We've got deadly dance moves."
  },
  {
    "label": "105",
    "text": "Eels, get back out here!"
  },
  {
    "label": "106",
    "text": "YES, YES, YES!"
  },
  {
    "label": "107",
    "text": "REMATCH, BABY!"
  }
]