[
  {
    "label": "000",
    "text": "Ay! Ay!{{string value=\"5\"}} (Special report! Fresh news,\nnever frozen!){{fun_000F_0004 arg=\"0x0500\"}}"
  },
  {
    "label": "001",
    "text": "Ooo! Gimme, gimme, gimme!"
  },
  {
    "label": "002",
    "text": "Ay.{{string value=\"5\"}} (I'm being told that the Salmonids that\ninvaded Wahoo World have been driven out.){{fun_000F_0004 arg=\"0x0500\"}}"
  },
  {
    "label": "003",
    "text": "Are you serious, Big Man?"
  },
  {
    "label": "004",
    "text": "Not that I had any doubt. Another win for\nus in the books. Well done, team!"
  },
  {
    "label": "005",
    "text": "Haha! Yeah, we rule!"
  },
  {
    "label": "006",
    "text": "So where's the thank-you gift? Are they\nmailing it directly, or..."
  },
  {
    "label": "007",
    "text": "Ay!{{string value=\"5\"}} (Ah! It sounds like Grizzco is checking\nthe job logs. Hold on to your seahorses!){{fun_000F_0004 arg=\"0x0500\"}}"
  },
  {
    "label": "008",
    "text": "Ay! {{string value=\"5\"}}(The Salmonids that invaded Inkblot\nArt Academy have been sent back to sea!){{fun_000F_0004 arg=\"0x0500\"}}"
  },
  {
    "label": "009",
    "text": "Ay! {{string value=\"5\"}}(The Salmonids that invaded Undertow\nSpillway have been sent back to sea!){{fun_000F_0004 arg=\"0x0500\"}}"
  },
  {
    "label": "010",
    "text": "Ay! {{string value=\"5\"}}(The Salmonids that invaded Um'ami\nRuins have been sent back to sea!){{fun_000F_0004 arg=\"0x0500\"}}"
  },
  {
    "label": "100",
    "text": "Ay! {{string value=\"5\"}}(The Salmonids marching on the Grand\nFestival venue have returned to the sea!){{fun_000F_0004 arg=\"0x0500\"}}"
  },
  {
    "label": "101",
    "text": "Are you serious, Big Man?"
  },
  {
    "label": "102",
    "text": "Not that I had any doubt. Another win for\nus in the books. Well done, team!"
  },
  {
    "label": "103",
    "text": "Haha! Yeah, we rule!"
  },
  {
    "label": "104",
    "text": "How'd we do on that Golden Egg quota?"
  },
  {
    "label": "105",
    "text": "Ay! {{string value=\"5\"}}(Grizzco's still checking the numbers,\nbut the announcement should be soon!){{fun_000F_0004 arg=\"0x0500\"}}"
  }
]