[
  {
    "label": "000",
    "text": "The Splatfest Main Event is underway, so\nlet's see the {{color id=\"1\"}}Splatfest Sneak Peek {{color id=\"65535\"}}results!"
  },
  {
    "label": "001",
    "text": "Which team won? I gotta know!"
  },
  {
    "label": "002",
    "text": "Now, which team got the most {{color id=\"1\"}}conch shells{{color id=\"65535\"}}\nduring the Splatfest Sneak Peek?"
  },
  {
    "label": "003",
    "text": "Tsss-tt-tsss-tt-tsssh..."
  },
  {
    "label": "004",
    "text": "Ayayayayayaaay..."
  },
  {
    "label": "005",
    "text": "{{size value=\"130\"}}POW! HAHA!{{size value=\"100\"}}"
  },
  {
    "label": "006",
    "text": "{{size value=\"130\"}}AY!{{size value=\"100\"}}"
  },
  {
    "label": "007",
    "text": "Great work on the Splatfest Sneak Peek,\neveryone. But the real deal starts now!"
  },
  {
    "label": "008",
    "text": "Ay! {{string value=\"5\"}}(Good luck, everyone!){{fun_000F_0004 arg=\"0x0500\"}}"
  }
]