[
  {
    "label": "000",
    "text": "Ooo, important reminder. The season is\nnearly over!"
  },
  {
    "label": "001",
    "text": "Ay!{{string value=\"5\"}} (And you know what that means... You\ncan earn more {{color id=\"1\"}}Catalog Points{{color id=\"65535\"}} than normal!){{fun_000F_0004 arg=\"0x0500\"}}"
  },
  {
    "label": "002",
    "text": "Right. So if there's something you've had\nyour eye on, now's the time to make a push!"
  },
  {
    "label": "003",
    "text": "Yeah! Get it!"
  }
]