[
  {
    "label": "000",
    "text": "Ay! Ay! {{string value=\"5\"}}(Yes! The {{color id=\"1\"}}new season{{color id=\"65535\"}} has started!){{fun_000F_0004 arg=\"0x0500\"}}"
  },
  {
    "label": "001",
    "text": "Ahahaha! Yes! I'm here for it."
  },
  {
    "label": "002",
    "text": "Well, well! Let's see what Frye is here\nfor, shall we?"
  }
]