[
  {
    "label": "000",
    "text": "Huh? {{delay frames=\"30\"}}Do we get something extra on the next floor?"
  },
  {
    "label": "001",
    "text": "Ah! {{delay frames=\"15\"}}You found a {{color id=\"4\"}}bonus {{color id=\"65535\"}}floor!{{pageBreak}}On floors like this, {{delay frames=\"15\"}}you get either a {{color id=\"4\"}}Color-Chip\nSaturation {{color id=\"65535\"}}or a {{color id=\"4\"}}Bonus Challenge{{color id=\"65535\"}}."
  },
  {
    "label": "002",
    "text": "A Color-Chip Saturation sets color chips to {{color id=\"4\"}}all empty\nslots{{color id=\"65535\"}} in your Palette. Only for that floor though.{{pageBreak}}The color chips you get are randomly picked. All they\nhave in common is their tone."
  },
  {
    "label": "003",
    "text": "Whereas a Bonus Challenge gives you an {{color id=\"4\"}}extra\nobjective {{color id=\"65535\"}}separate from the main one on the floor.{{pageBreak}}You don't have to do it. {{delay frames=\"15\"}}But if you do, it'll earn you\nsome bonus {{icon id=\"63\" arg=\"0x0000803F00000000\"}}Membux!"
  },
  {
    "label": "004",
    "text": "Not seeing a downside here. {{delay frames=\"30\"}}What do you think, Eight?{{delay frames=\"15\"}}\nWanna give it a go?"
  }
]