[
  {
    "label": "000",
    "text": "Aw man! {{delay frames=\"15\"}}Not THOSE things again!"
  },
  {
    "label": "001",
    "text": "'Fraid so. You're going to have to get the {{color id=\"4\"}}{{icon id=\"59\" arg=\"0x0000803F00000000\"}}∞-balls{{color id=\"65535\"}}\nover to the goals.{{pageBreak}}There's good news though. The ∞-balls won't ever\nfall off the stage, {{delay frames=\"15\"}}so knock them around as much as\nyou need."
  },
  {
    "label": "002",
    "text": "Yesss! {{delay frames=\"15\"}}Hear that, Eight? You don't need to hold back!"
  },
  {
    "label": "003",
    "text": "The new color chip is {{color id=\"4\"}}Dodge Roll Attack{{color id=\"65535\"}}, {{delay frames=\"15\"}}which puts a\nlittle bite in your dualies' Dodge Roll.{{pageBreak}}If you really want, you could push the ∞-balls\naround using only those."
  },
  {
    "label": "004",
    "text": "In case you forgot, you do Dodge Rolls by tilting {{icon id=\"75\" arg=\"0xEC51383FFEFFFFFF\"}}\nand pressing {{icon id=\"71\" arg=\"0x0000803F00000000\"}} while you're shooting ink! {{delay frames=\"30\"}}Give it\na whirl by Dodge Rolling over to that target."
  }
]