[
  {
    "label": "000",
    "text": "What gives? {{delay frames=\"15\"}}I'm not seeing any portals."
  },
  {
    "label": "001",
    "text": "Different objective. This time, you need to ink that\n{{color id=\"4\"}}{{icon id=\"57\" arg=\"0x0000803F00000000\"}}zone {{color id=\"65535\"}}and guard it until time's up."
  },
  {
    "label": "002",
    "text": "Ahhh, kinda like Splat Zones?"
  },
  {
    "label": "003",
    "text": "Yep. {{delay frames=\"15\"}}But I don't see a way to get to the high ground\nwith the zone. {{delay frames=\"30\"}}The wall by it looks inkproof."
  },
  {
    "label": "004",
    "text": "Probably just need to {{color id=\"4\"}}glide{{color id=\"65535\"}} from somewhere high up.{{delay frames=\"30\"}}\nThat's where I come in!"
  },
  {
    "label": "005",
    "text": "Eight, if you ever wanna slow your fall, press {{icon id=\"71\" arg=\"0x0000803F00000000\"}}\nwhile in midair to hang on to me.{{pageBreak}}You can move while hanging on to land a good distance\naway. {{delay frames=\"30\"}}Though it'll only work in {{color id=\"4\"}}Octoling form{{color id=\"65535\"}}!"
  }
]