[
  {
    "label": "000",
    "text": "Whoa! {{delay frames=\"30\"}}Even the foyer looks different now."
  },
  {
    "label": "001",
    "text": "There's a bunch more stuff in here. {{delay frames=\"15\"}}May as well\npractice on it before going up the Spire."
  },
  {
    "label": "002",
    "text": "Oh, and did Marina say something about Palettes?{{delay frames=\"15\"}}\nLike, you {{color id=\"4\"}}can't change 'em while in the Spire{{color id=\"65535\"}}?{{pageBreak}}We better be cool with what we got before boarding\nthe elevator, huh. {{delay frames=\"30\"}}Check your Palette with {{icon id=\"74\" arg=\"0x0000803F00000000\"}}!"
  }
]