[
  {
    "label": "000",
    "text": "So far, we've gotten a new locker key every time we\nbeat a boss with a new Palette.{{pageBreak}}On our next Spire of Order run,{{delay frames=\"15\"}} why not try out a\n{{color id=\"4\"}}Palette we don't have any keys for yet{{color id=\"65535\"}}?"
  }
]