[
  {
    "label": "002",
    "text": "A perfect world is a stable world. {{delay frames=\"30\"}}It has no need for\nchange. For variation."
  },
  {
    "label": "003",
    "text": "It has no need for desire. {{delay frames=\"30\"}}For conflict."
  },
  {
    "label": "004",
    "text": "In this world, none desire what might be. {{delay frames=\"15\"}}They embrace\nwhat is. {{delay frames=\"30\"}}Their lives are peaceful ones."
  },
  {
    "label": "005",
    "text": "I will achieve a quiet and peaceful world. {{delay frames=\"15\"}}Reasons to\noppose this include: {{string value=\"5\"}}.{{delay frames=\"5\"}}.{{delay frames=\"5\"}}. {{fun_000F_0004 arg=\"0x0500\"}}ERROR:{{delay frames=\"30\"}} no reasons found."
  },
  {
    "label": "006",
    "text": "I can't deny that a chaotic world is an unstable one.{{delay frames=\"15\"}}\nThat uncertainty can tire you out or make you scared\nof what tomorrow might bring."
  },
  {
    "label": "007",
    "text": "There've been times when I wished everything could\nstay the same forever."
  },
  {
    "label": "008",
    "text": "Sometimes when colors clash and mix,{{delay frames=\"15\"}} you end up\nwith mud. {{delay frames=\"30\"}}But every now and then, you get to see\na beautiful rainbow!"
  },
  {
    "label": "009",
    "text": "And in the end...{{delay frames=\"15\"}}that's a gamble I'm willing to take!\nWith Pearl, and Eight, and Acht, and everyone else!"
  },
  {
    "label": "010",
    "text": "This world's architect...{{delay frames=\"15\"}}my creator...{{delay frames=\"15\"}}would deny me.{{delay frames=\"30\"}}\nIllogical. Irrational. ERROR."
  },
  {
    "label": "011",
    "text": "ERROR.{{delay frames=\"15\"}} ERROR.{{delay frames=\"15\"}} ERROR.{{delay frames=\"5\"}} ERROR.{{delay frames=\"5\"}} ERROR. An unrecoverable\nmentality error has occurred."
  },
  {
    "label": "012",
    "text": "The sentence for interruption of order is eradication."
  }
]