[
  {
    "label": "000",
    "text": "No sign of Marina on this floor either."
  },
  {
    "label": "001",
    "text": "I hope she's doing alright. {{delay frames=\"30\"}}She's seemed a little\nburned out lately."
  },
  {
    "label": "002",
    "text": "I guess we've still got a world tour to finish...{{delay frames=\"15\"}}but after\nthat, I promised her we could find a quiet spot together\nand take it easy for a while. {{delay frames=\"30\"}}So we gotta save her, fast!"
  },
  {
    "label": "003",
    "text": "Sounds like Marina met the right people after she\ngot free. {{delay frames=\"30\"}}But this is Marina we're talking about,{{delay frames=\"15\"}}\nso I expected as much."
  },
  {
    "label": "004",
    "text": "Well, y'know what they say...{{delay frames=\"15\"}}no one knows you like the\nfolks you grew up with.{{pageBreak}}Plus, Marina had to learn the language when she got\nto Greater Inkopolis, so you gotta figure she struggled\nat least a LITTLE."
  },
  {
    "label": "005",
    "text": "I'd love to sit down and swap Marina stories, but this\nain't the time! {{delay frames=\"30\"}}Every second we spend chewing the fat\nis a second we're not finding her!"
  }
]