{
  "version": 7,
  "rootNode": {
    "Actors": [
      {
        "Gyaml": "NpcIdolNewsA",
        "Hash": 14170281755012204753,
        "InstanceID": "ddd97798-c41d-75aa-49ff-6a1b30300cb1",
        "Name": "NpcIdolNewsA",
        "Phive": {
          "Placement": {
            "ID": 14170281755012204753
          }
        },
        "Rotate": [0.0,-0.46459645,0.0],
        "SRTHash": 819274528,
        "TeamCmp": {
          "Team": "Neutral"
        },
        "Translate": [0.15121853,-0.1998921,1.6716933],
        "game__EventPerformerBancParam": {}
      },
      {
        "Gyaml": "NpcIdolNewsB",
        "Hash": 14127355013753077087,
        "InstanceID": "58760099-b179-1327-c6fd-e3a2f1c329d7",
        "Name": "NpcIdolNewsB",
        "Phive": {
          "Placement": {
            "ID": 14127355013753077087
          }
        },
        "Rotate": [0.0,-0.4772224,0.0],
        "SRTHash": 1538993616,
        "TeamCmp": {
          "Team": "Neutral"
        },
        "Translate": [0.88456917,-0.25717247,2.0525105],
        "game__EventPerformerBancParam": {}
      },
      {
        "Gyaml": "EventNewsDirector",
        "Hash": 8555692995975265420,
        "InstanceID": "e901c00d-8a90-998e-81fc-66c1e36735ef",
        "Name": "EventNewsDirector",
        "Phive": {
          "Placement": {
            "ID": 8555692995975265420
          }
        },
        "SRTHash": 1481123779,
        "TeamCmp": {
          "Team": "Neutral"
        },
        "game__EventPerformerBancParam": {}
      },
      {
        "Gyaml": "NpcIdolNewsC",
        "Hash": 868773488861430048,
        "InstanceID": "2b002eca-f068-88c7-eaef-dcb28a70c984",
        "Name": "NpcIdolNewsC",
        "Phive": {
          "Placement": {
            "ID": 868773488861430048
          }
        },
        "Rotate": [0.0,-1.2504153,0.0],
        "SRTHash": 1889385175,
        "Scale": [1.05,1.05,1.05],
        "TeamCmp": {
          "Team": "Neutral"
        },
        "Translate": [3.4516177,-0.38514042,2.9566786],
        "game__EventPerformerBancParam": {}
      },
      {
        "Gyaml": "DObj_SurimiTVscreen",
        "Hash": 15625971042342659672,
        "InstanceID": "e945893d-61aa-4b26-656f-1a6875f8fc93",
        "Name": "DObj_SurimiTVscreen",
        "Phive": {
          "Placement": {
            "ID": 15625971042342659672
          }
        },
        "SRTHash": 688570283,
        "TeamCmp": {
          "Team": "Neutral"
        },
        "Translate": [1.974093,0.0,3.91255],
        "game__EventPerformerBancParam": {}
      },
      {
        "Gyaml": "ObjIdolNewsFoldingFan",
        "Hash": 2853269945577389311,
        "InstanceID": "8117a4a2-7f54-78ee-5d98-6773b1a6765f",
        "Name": "ObjIdolNewsFoldingFan",
        "Phive": {
          "Placement": {
            "ID": 2853269945577389311
          }
        },
        "SRTHash": 1481123779,
        "TeamCmp": {
          "Team": "Neutral"
        }
      }
    ],
    "FilePath": "Work/Banc/Scene/NewsStudio.bcett.json"
  }
}