{
  "version": 7,
  "rootNode": {
    "AutoCalc": {
      "Axis": {
        "X": 0.0,
        "Y": 0.0,
        "Z": 0.0
      },
      "Center": {
        "X": 0.0,
        "Y": 0.0,
        "Z": 0.0
      },
      "Max": {
        "X": 3.882813,
        "Y": 4.382813,
        "Z": 6.724609
      },
      "Min": {
        "X": -3.304688,
        "Y": -0.369141,
        "Z": 0.0
      },
      "Tensor": {
        "X": 0.0,
        "Y": 0.0,
        "Z": 0.0
      },
      "Volume": 0.0
    },
    "PhshMesh": [
      {
        "PhshMeshPath": "Work/Phive/Shape/Dcc/Fld_Room_Gear.phsh"
      }
    ]
  }
}