{
  "version": 7,
  "rootNode": {
    "AutoCalc": {
      "Axis": {
        "X": 0.0,
        "Y": 0.0,
        "Z": 0.0
      },
      "Center": {
        "X": 0.0,
        "Y": 0.0,
        "Z": 0.0
      },
      "Max": {
        "X": 9.0,
        "Y": 13.5,
        "Z": 7.5
      },
      "Min": {
        "X": -9.0,
        "Y": 6.0,
        "Z": -7.5
      },
      "Tensor": {
        "X": 0.0,
        "Y": 0.0,
        "Z": 0.0
      },
      "Volume": 0.0
    },
    "PhshMesh": [
      {
        "PhshMeshPath": "Work/Phive/Shape/Dcc/Fld_Spider00_VarCenterFence.phsh"
      }
    ]
  }
}