{
  "version": 7,
  "rootNode": {
    "AutoCalc": {
      "Axis": {
        "X": 0.0,
        "Y": 0.0,
        "Z": 0.0
      },
      "Center": {
        "X": 0.0,
        "Y": 0.0,
        "Z": 0.0
      },
      "Max": {
        "X": 15.0,
        "Y": 11.0,
        "Z": 46.0
      },
      "Min": {
        "X": -15.0,
        "Y": 8.0,
        "Z": -46.0
      },
      "Tensor": {
        "X": 0.0,
        "Y": 0.0,
        "Z": 0.0
      },
      "Volume": 0.0
    },
    "PhshMesh": [
      {
        "PhshMeshPath": "Work/Phive/Shape/Dcc/FldObj_Pillar_Wall.phsh"
      }
    ]
  }
}