{
  "version": 7,
  "rootNode": {
    "AutoCalc": {
      "Axis": {
        "X": 0.0,
        "Y": 0.0,
        "Z": 0.0
      },
      "Center": {
        "X": 0.0,
        "Y": 0.0,
        "Z": 0.0
      },
      "Max": {
        "X": 17.0,
        "Y": 15.5,
        "Z": 24.5
      },
      "Min": {
        "X": -17.0,
        "Y": 11.0,
        "Z": -24.5
      },
      "Tensor": {
        "X": 0.0,
        "Y": 0.0,
        "Z": 0.0
      },
      "Volume": 0.0
    },
    "PhshMesh": [
      {
        "PhshMeshPath": "Work/Phive/Shape/Dcc/FldObj_Pillar_HokoRightBox.phsh"
      }
    ]
  }
}