{
  "version": 7,
  "rootNode": {
    "AutoCalc": {
      "Axis": {
        "X": 0.0,
        "Y": 0.0,
        "Z": 0.0
      },
      "Center": {
        "X": 0.0,
        "Y": 0.0,
        "Z": 0.0
      },
      "Max": {
        "X": 27.0,
        "Y": 77.25,
        "Z": 93.5
      },
      "Min": {
        "X": -27.0,
        "Y": -10.0,
        "Z": -93.5
      },
      "Tensor": {
        "X": 0.0,
        "Y": 0.0,
        "Z": 0.0
      },
      "Volume": 0.0
    },
    "PhshMesh": [
      {
        "PhshMeshPath": "Work/Phive/Shape/Dcc/FldObj_District.phsh"
      }
    ]
  }
}