[
  {
    "label": "000",
    "text": "Squid Squad"
  },
  {
    "label": "001",
    "text": "Chirpy Chips"
  },
  {
    "label": "002",
    "text": "Hightide Era"
  },
  {
    "label": "003",
    "text": "Wet Floor"
  },
  {
    "label": "004",
    "text": "Bottom Feeders"
  },
  {
    "label": "005",
    "text": "Ink Theory"
  },
  {
    "label": "006",
    "text": "SashiMori"
  },
  {
    "label": "007",
    "text": "Diss-Pair"
  },
  {
    "label": "008",
    "text": "Sœurs Ventouse"
  },
  {
    "label": "009",
    "text": "Tentacool"
  },
  {
    "label": "010",
    "text": "Tridenfer"
  },
  {
    "label": "011",
    "text": "C-Side"
  },
  {
    "label": "012",
    "text": "Front Roe"
  },
  {
    "label": "013",
    "text": "Damp Socks avec Tentacool"
  },
  {
    "label": "014",
    "text": "Turquoise October"
  },
  {
    "label": "015",
    "text": "DJ Octave"
  },
  {
    "label": "016",
    "text": "M. Ours"
  },
  {
    "label": "017",
    "text": "Tridenfer x Soeurs Ventouse"
  },
  {
    "label": "018",
    "text": "ω-3"
  },
  {
    "label": "019",
    "text": "Seven Seas Crew"
  },
  {
    "label": "020",
    "text": "Ancho-V Games"
  },
  {
    "label": "021",
    "text": "Stars in the Deep"
  },
  {
    "label": "022",
    "text": "Mimicry"
  },
  {
    "label": "023",
    "text": "Wash Out"
  },
  {
    "label": "024",
    "text": "Firefly"
  },
  {
    "label": "025",
    "text": "On the Clock"
  },
  {
    "label": "026",
    "text": "Anxiety Society"
  },
  {
    "label": "027",
    "text": "Backwash"
  },
  {
    "label": "028",
    "text": "Turf Love"
  },
  {
    "label": "029",
    "text": "Wading Room"
  },
  {
    "label": "030",
    "text": "New Shores"
  },
  {
    "label": "031",
    "text": "Bonfire"
  },
  {
    "label": "032",
    "text": "All Swell"
  },
  {
    "label": "033",
    "text": "Coral Kiss"
  },
  {
    "label": "034",
    "text": "Crevasse"
  },
  {
    "label": "035",
    "text": "Aquariyum"
  },
  {
    "label": "036",
    "text": "Pianissimo"
  },
  {
    "label": "037",
    "text": "Missing Ink"
  },
  {
    "label": "038",
    "text": "Anglerfish"
  },
  {
    "label": "039",
    "text": "Ayo"
  },
  {
    "label": "040",
    "text": "Oly"
  },
  {
    "label": "041",
    "text": "DJ Octave et Ayo"
  },
  {
    "label": "042",
    "text": "DJ Octave et Ayo c. Oly"
  },
  {
    "label": "043",
    "text": "Pasquale"
  },
  {
    "label": "044",
    "text": "Angie"
  },
  {
    "label": "045",
    "text": "Raimi"
  },
  {
    "label": "046",
    "text": " "
  },
  {
    "label": "047",
    "text": "Octoplush"
  },
  {
    "label": "048",
    "text": "Sœurs Ventouse avec Mirai"
  },
  {
    "label": "049",
    "text": "Yoko & the Gold Bazookas"
  },
  {
    "label": "050",
    "text": "Chroma Chaos"
  },
  {
    "label": "051",
    "text": "Medusa"
  },
  {
    "label": "052",
    "text": "Nothing in my Wave"
  },
  {
    "label": "053",
    "text": "H2Whoa"
  },
  {
    "label": "054",
    "text": "Bloody Hook"
  },
  {
    "label": "055",
    "text": "Decksterity"
  },
  {
    "label": "056",
    "text": "Free Association"
  },
  {
    "label": "057",
    "text": "Riot Act"
  },
  {
    "label": "058",
    "text": "Coralie"
  },
  {
    "label": "059",
    "text": "Dedf1sh"
  },
  {
    "label": "060",
    "text": "Tentacool avec Dedf1sh"
  },
  {
    "label": "061",
    "text": "Dedf1sh avec Tentacool"
  },
  {
    "label": "062",
    "text": "Tentacool c. Feu & Glace"
  },
  {
    "label": "063",
    "text": "Saplings"
  },
  {
    "label": "064",
    "text": "Reel Deel"
  },
  {
    "label": "065",
    "text": "Now or Never Seven"
  },
  {
    "label": "066",
    "text": "M. Ours avec Tridenfer"
  },
  {
    "label": "067",
    "text": "Anglerfish avec Cory"
  }
]