{
  "version": 7,
  "rootNode": {
    "AutoCalc": {
      "Axis": {
        "X": 0.0,
        "Y": 0.0,
        "Z": 0.0
      },
      "Center": {
        "X": 0.0,
        "Y": 0.0,
        "Z": 0.0
      },
      "Max": {
        "X": 1.0,
        "Y": 1.0,
        "Z": 1.0
      },
      "Min": {
        "X": -1.0,
        "Y": -1.0,
        "Z": -1.0
      },
      "Tensor": {
        "X": 0.666667,
        "Y": 0.666667,
        "Z": 0.666667
      },
      "Volume": 4.202175
    },
    "Box": [
      {
        "HalfExtents": {
          "X": 0.085,
          "Y": 0.05,
          "Z": 0.26
        },
        "MaterialPresets": ["LockerMaterial_Cloth"],
        "Name": "Main",
        "OffsetTranslation": {
          "X": 0.0,
          "Y": 0.0,
          "Z": 0.0
        }
      },
      {
        "HalfExtents": {
          "X": 0.06,
          "Y": 0.13,
          "Z": 0.07
        },
        "MaterialPresets": ["LockerMaterial_Cloth"],
        "Name": "Ankle",
        "OffsetTranslation": {
          "X": 0.0,
          "Y": 0.0,
          "Z": 0.0
        }
      }
    ],
    "Sphere": [
      {
        "MaterialPresets": ["LockerMaterial_Cloth"],
        "Name": "Instep"
      }
    ]
  }
}