{
  "version": 7,
  "rootNode": {
    "$parent": "Work/Phive/ShapeParam/LObjParent_Shoes.phive__ShapeParam.gyml",
    "AutoCalc": {
      "Axis": {
        "X": 0.0,
        "Y": 0.0,
        "Z": 0.0
      },
      "Center": {
        "X": 0.0,
        "Y": 0.0,
        "Z": 0.0
      },
      "Max": {
        "X": 1.0,
        "Y": 1.0,
        "Z": 1.0
      },
      "Min": {
        "X": -1.0,
        "Y": -1.0,
        "Z": -1.0
      },
      "Tensor": {
        "X": 0.666667,
        "Y": 0.666667,
        "Z": 0.666667
      },
      "Volume": 4.202175
    }
  }
}