[
  {
    "label": "ZakoSmall_UnlockComment_00",
    "text": "まだわかんねー敵だな"
  },
  {
    "label": "ZakoSmall_UnlockComment_02",
    "text": "敵のインクで地面を塗って、他の敵の\n道を作るノカ… ハチも動きづらくなるし、\n早めに片づけたいナ"
  },
  {
    "label": "ZakoSmall_UnlockComment_03",
    "text": "それに、出現してから時間がたつと、\n興奮して移動が速くなります 放っておくと\nキケンですね～ 体力が少ないのが幸いです"
  },
  {
    "label": "ZakoSmall_UnlockComment_04",
    "text": "ちっさくて弱そうだけど、あぶねーヤツだ！\nサクッと やっちまえ、ハチ！"
  },
  {
    "label": "ZakoSmall_UnlockComment_Conclusion",
    "text": "早めに倒せ"
  },
  {
    "label": "ZakoStandard_UnlockComment_00",
    "text": "まだわかんねー敵だな"
  },
  {
    "label": "ZakoStandard_UnlockComment_02",
    "text": "こっちのインクに乗ると、ダメージを受ける\nみたいだネ でも、少しずつ 敵のインクで\n塗り返してくるから注意ダ"
  },
  {
    "label": "ZakoStandard_UnlockComment_03",
    "text": "エントランスやエレベーター前にあるマトと\n体力が同じです マトで練習しておくと\n感覚がつかめるかもです～"
  },
  {
    "label": "ZakoStandard_UnlockComment_04",
    "text": "囲まれるとウゼーんだよな！\nマトだと思って やっちまえ、ハチ！"
  },
  {
    "label": "ZakoStandard_UnlockComment_Conclusion",
    "text": "マトで練習"
  },
  {
    "label": "ZakoLarge_UnlockComment_00",
    "text": "まだわかんねー敵だな"
  },
  {
    "label": "ZakoLarge_UnlockComment_02",
    "text": "近づくと、キケンな一撃をくり出してくるネ\nでも、自分では地面を塗れないから、こっちの\nインクに乗せて、弱ったところをねらうとイイ"
  },
  {
    "label": "ZakoLarge_UnlockComment_03",
    "text": "背中に別の敵を乗せたり、他の敵を\nつき飛ばしたり、仲がいいのか わるいのか…\nあと、ボールが好きみたいですね～"
  },
  {
    "label": "ZakoLarge_UnlockComment_04",
    "text": "こいつの頭つき、チョー痛ェんだ！\nま、地面塗っとけば こわくねーけどな！"
  },
  {
    "label": "ZakoLarge_UnlockComment_Conclusion",
    "text": "近づくべからず"
  },
  {
    "label": "Escape_UnlockComment_00",
    "text": "まだわかんねー敵だな"
  },
  {
    "label": "Escape_UnlockComment_02",
    "text": "ハチが近づくと にげ出すオクビョウものダ\nインクの上だと動きがにぶるから、にげる先を\n塗っておくと倒しやすいヨ"
  },
  {
    "label": "Escape_UnlockComment_03",
    "text": "ボムを投げても にげ出しますから、\n動きをコントロールして、こちらのナワバリに\n追いこみましょう"
  },
  {
    "label": "Escape_UnlockComment_04",
    "text": "追いかけても にげられるダケだし、\nアタマ使えってことか… ハチ、まかせたぞ！"
  },
  {
    "label": "Escape_UnlockComment_Conclusion",
    "text": "頭を使え"
  },
  {
    "label": "Shell_UnlockComment_00",
    "text": "まだわかんねー敵だな"
  },
  {
    "label": "Shell_UnlockComment_02",
    "text": "頭が弱点ダネ 頭を出しているときに撃てば\n倒せル 頭をかくして はね回っているときは \nよけるしかないナ"
  },
  {
    "label": "Shell_UnlockComment_03",
    "text": "頭を撃って倒すと ぬけガラが残ります\nぬけガラにさわると、こちらのインクで塗り\nながら、はね回って敵を攻撃してくれます～"
  },
  {
    "label": "Shell_UnlockComment_04",
    "text": "倒した後は、こっちのブキみてーなもんか！\n真っ先に倒して けっとばせ、ハチ！"
  },
  {
    "label": "Shell_UnlockComment_Conclusion",
    "text": "倒してからが本番"
  },
  {
    "label": "Sprinkler_UnlockComment_00",
    "text": "まだわかんねー敵だな"
  },
  {
    "label": "Sprinkler_UnlockComment_02",
    "text": "上空から敵のインクをまき散らす\nやっかいなヤツだ 放っておくと地面が\n敵のインクだらけにナル"
  },
  {
    "label": "Sprinkler_UnlockComment_03",
    "text": "早めに倒せばヒガイをおさえられます\n体力は少な目なので、見つけたら\nすぐに倒しちゃいましょう！"
  },
  {
    "label": "Sprinkler_UnlockComment_04",
    "text": "ういてるから気づかないんだよなー！\nハチ！ 頭上に注意だ！"
  },
  {
    "label": "Sprinkler_UnlockComment_Conclusion",
    "text": "塗られる前に倒せ"
  },
  {
    "label": "BombBlow_UnlockComment_00",
    "text": "まだわかんねー敵だな"
  },
  {
    "label": "BombBlow_UnlockComment_02",
    "text": "吹き上げているカプセルを撃ち落とすと\n自爆して、勝手にやられてくれるネ"
  },
  {
    "label": "BombBlow_UnlockComment_03",
    "text": "投げてくるカプセルも、撃ち落とせば\nこちらのインクになって攻撃に使えますよ\n中身はボムやポイズンミストです～"
  },
  {
    "label": "BombBlow_UnlockComment_04",
    "text": "ん？！ あのうぜースプラッシュボム、\nこいつが投げてたんか！"
  },
  {
    "label": "BombBlow_UnlockComment_Conclusion",
    "text": "カプセルを撃て"
  },
  {
    "label": "Hopper_UnlockComment_00",
    "text": "まだわかんねー敵だな"
  },
  {
    "label": "Hopper_UnlockComment_02",
    "text": "近づくとチャクチ攻撃してくるから、\n上を向いてチャクチ前に撃ち落とソウ"
  },
  {
    "label": "Hopper_UnlockComment_03",
    "text": "倒した後に残るジャンプ台にさわると\n大ジャンプできますよ 敵に囲まれたときに\n大ジャンプからの滑空で切りぬけましょう"
  },
  {
    "label": "Hopper_UnlockComment_04",
    "text": "意味なく大ジャンプしても楽しーよな！\nハチは高いとこ好きか？ アタシは大好き！"
  },
  {
    "label": "Hopper_UnlockComment_Conclusion",
    "text": "倒して大ジャンプ"
  },
  {
    "label": "Tree_UnlockComment_00",
    "text": "まだわかんねー敵だな"
  },
  {
    "label": "Tree_UnlockComment_02",
    "text": "頭に生えている実が育つとミサイルに\nなって飛んでクル 根っこが本体だけど、\n実を全部壊して自爆させるとイイ"
  },
  {
    "label": "Tree_UnlockComment_03",
    "text": "育つ前に実を壊して、ミサイルを減らしたい\nですね 放っておくとミサイルが次々飛んで\nきますよ～"
  },
  {
    "label": "Tree_UnlockComment_04",
    "text": "めんどーだし、本体倒せばいーんじゃね？\nって、ダメだ！ 本体めっちゃ体力あんぞ！"
  },
  {
    "label": "Tree_UnlockComment_Conclusion",
    "text": "実をねらえ"
  },
  {
    "label": "TreeMissile_UnlockComment_00",
    "text": "まだわかんねー敵だな"
  },
  {
    "label": "TreeMissile_UnlockComment_02",
    "text": "植物みたいな敵が飛ばすミサイルだネ\nハチに向かってゆっくり飛んでくるから\n撃ち落とソウ"
  },
  {
    "label": "TreeMissile_UnlockComment_03",
    "text": "ハチさんがにげても追ってきますし、\n地面に当たると爆発して、敵のインクで\n塗られちゃいます～"
  },
  {
    "label": "TreeMissile_UnlockComment_04",
    "text": "直撃するとチョー痛ぇぞ！\n当たる前にやっちまえ、ハチ！"
  },
  {
    "label": "TreeMissile_UnlockComment_Conclusion",
    "text": "当たる前に撃て"
  },
  {
    "label": "ChargerTower_UnlockComment_00",
    "text": "まだわかんねー敵だな"
  },
  {
    "label": "ChargerTower_UnlockComment_02",
    "text": "てっぺんの頭が弱点ダ 頭を倒すと\n残った体が爆発して、周りの敵にダメージを\nあたえるヨ"
  },
  {
    "label": "ChargerTower_UnlockComment_03",
    "text": "頭をねらえないときは、体を壊しましょう\n放っておくと、壊した体がまた生えてきますし、\n攻撃もだんだん激しくなるので注意です～"
  },
  {
    "label": "ChargerTower_UnlockComment_04",
    "text": "チャージャーみてーな攻撃してくんのな！\nマジうぜー！ スキをついてけ、ハチ！"
  },
  {
    "label": "ChargerTower_UnlockComment_Conclusion",
    "text": "頭をねらえ"
  },
  {
    "label": "ExplodeSpawner_UnlockComment_00",
    "text": "まだわかんねー敵だな"
  },
  {
    "label": "ExplodeSpawner_UnlockComment_02",
    "text": "ダメージをあたえても、放っておくと\n回復してしまうノカ…\n攻撃し続けて、一気に破壊しよウ"
  },
  {
    "label": "ExplodeSpawner_UnlockComment_03",
    "text": "根元の地面を塗れば、回復しないようです\n逆にインクパチパチで、じわじわダメージを\nあたえます～"
  },
  {
    "label": "ExplodeSpawner_UnlockComment_04",
    "text": "壊したときの爆発、気持ちイーよな！\n周りの敵もまとめてドカンだ！"
  },
  {
    "label": "ExplodeSpawner_UnlockComment_Conclusion",
    "text": "根元を塗れ"
  },
  {
    "label": "RivalKing_UnlockComment_00",
    "text": "まだわかんねー敵だな"
  },
  {
    "label": "RivalKing_UnlockComment_02",
    "text": "ハチによく似た強敵ダネ\nこっちのパレットの強化に合わせて、\nヤツらも強くなるらしイ"
  },
  {
    "label": "RivalKing_UnlockComment_03",
    "text": "囲まれるとキケンです 中央の高台を\n利用して、１体ずつ倒しましょう"
  },
  {
    "label": "RivalKing_UnlockComment_04",
    "text": "うぉっ！ いきなりウルトラチャクチ？！\nなんだアイツ、気になるな…！"
  },
  {
    "label": "RivalKing_UnlockComment_Conclusion",
    "text": "１体ずつ倒せ"
  },
  {
    "label": "TowerKing_UnlockComment_00",
    "text": "まだわかんねー敵だな"
  },
  {
    "label": "TowerKing_UnlockComment_02",
    "text": "顔みたいな出っ張りが弱点ダ\nサーチライトに見つかると攻撃されるから\nかくれるか、センプクしてやりすごそウ"
  },
  {
    "label": "TowerKing_UnlockComment_03",
    "text": "ハデに光る層を全部壊せば倒せます\n下層から順に壊してもいいですし、長射程の\nブキなら上層もねらえますね！"
  },
  {
    "label": "TowerKing_UnlockComment_04",
    "text": "ん？ サーチライトの下にマークがあるな！\nあれ、攻撃の種類っぽいぞ！"
  },
  {
    "label": "TowerKing_UnlockComment_Conclusion",
    "text": "サーチライトに見つかるな"
  },
  {
    "label": "BallKing_UnlockComment_00",
    "text": "まだわかんねー敵だな"
  },
  {
    "label": "BallKing_UnlockComment_02",
    "text": "弱点はカラの中身ダ ころがして中身を\nねらおウ バンパーに当たると、はね返って\nサカナの群れを出すから注意シロ"
  },
  {
    "label": "BallKing_UnlockComment_03",
    "text": "でも、バンパーではね返ると、カラが開いて\n弱点が広がるので、チャンスも生まれます\nブキに合わせて戦い方を選びましょう"
  },
  {
    "label": "BallKing_UnlockComment_04",
    "text": "ゲッ！ 急にトッシンしてきた！\nハチ、よけろー！"
  },
  {
    "label": "BallKing_UnlockComment_Conclusion",
    "text": "戦い方を選べ"
  },
  {
    "label": "BarrierKingIida_UnlockComment_02",
    "text": "とにかく、イイダが無事でよかっタ\nハチとヒメに感謝しないとネ"
  },
  {
    "label": "BarrierKingIida_UnlockComment_03",
    "text": "みなさん、ありがとうございました！\nこれからは、ハッキングでお手伝いします\nいっしょにオーダを止めましょう"
  },
  {
    "label": "BarrierKingIida_UnlockComment_04",
    "text": "イイダをひでー目にあわせやがって！\nオーダ！ 許せねえ！"
  },
  {
    "label": "BarrierKingIida_UnlockComment_Conclusion",
    "text": "オーダを止めよう"
  },
  {
    "label": "BarrierKingOdako_UnlockComment_02",
    "text": "強敵だったけど、なんとか打ち勝ったネ\nさすが、ハチとヒメだ みんな現実世界に\nもどれて、めでたしメデタシ"
  },
  {
    "label": "BarrierKingOdako_UnlockComment_03",
    "text": "ちっちゃいオーダ、かわいかったですね～\nあの子、どこ行っちゃったんでしょう？"
  },
  {
    "label": "BarrierKingOdako_UnlockComment_04",
    "text": "ま、アイツも もーわるさできねーだろ！\nなんかあったら、アタシとハチ、イイダ、\nミズタで、またとっちめてやんぞ！"
  },
  {
    "label": "BarrierKingOdako_UnlockComment_Conclusion",
    "text": "秩序の世界も ぬりたく～る テンタクル！！"
  }
]