[
  {
    "label": "Unknown",
    "text": "？？？"
  },
  {
    "label": "ZakoSmall",
    "text": "どこでも"
  },
  {
    "label": "ZakoStandard",
    "text": "どこでも"
  },
  {
    "label": "ZakoLarge",
    "text": "どこでも"
  },
  {
    "label": "Escape",
    "text": "タコがいないところ"
  },
  {
    "label": "Tree",
    "text": "見晴らしのいいところ"
  },
  {
    "label": "TreeMissile",
    "text": "産み出すアッコルドの近く"
  },
  {
    "label": "Hopper",
    "text": "ピョンピョンできるところ"
  },
  {
    "label": "BombBlow",
    "text": "ピューピューできるところ"
  },
  {
    "label": "ChargerTower",
    "text": "見晴らしのいいところ"
  },
  {
    "label": "Shell",
    "text": "はね回れるところ"
  },
  {
    "label": "Sprinkler",
    "text": "よく塗れるところ"
  },
  {
    "label": "ExplodeSpawner",
    "text": "スケルトーンが集まるところ"
  },
  {
    "label": "RivalKing",
    "text": "ボスフロア"
  },
  {
    "label": "TowerKing",
    "text": "ボスフロア"
  },
  {
    "label": "BallKing",
    "text": "ボスフロア"
  },
  {
    "label": "BarrierKingIida",
    "text": "最上階"
  },
  {
    "label": "BarrierKingOdako",
    "text": "最上階"
  }
]