[
  {
    "label": "ShotDamageUp_UnlockComment_00",
    "text": "まだわかんねーカラーチップだな"
  },
  {
    "label": "ShotDamageUp_UnlockComment_02",
    "text": "メインウェポンだけでなく、サブウェポンや\nスペシャルウェポンの攻撃力もアップするヨ\n複数セットするとさらに強くなるネ"
  },
  {
    "label": "ShotDamageUp_UnlockComment_03",
    "text": "９枚までセットできますし、迷ったらコレ\n選べばよさそうです～"
  },
  {
    "label": "ShotDamageUp_UnlockComment_04",
    "text": "一種類のチップで色々強まるのか！\nあんま考えずにコレ集めてくのもアリだな！"
  },
  {
    "label": "BlastDamageUp_UnlockComment_00",
    "text": "まだわかんねーカラーチップだな"
  },
  {
    "label": "BlastDamageUp_UnlockComment_02",
    "text": "ボムやブラスターのイリョクが上がるネ\nポータルを壊したときや、敵を倒したときの\n爆発にも効果があるヨ"
  },
  {
    "label": "BlastDamageUp_UnlockComment_03",
    "text": "「爆発サイズ」のチップと合わせると\n強力ですね～ センパイが投げるボムも\n強化されますよ♪"
  },
  {
    "label": "BlastDamageUp_UnlockComment_04",
    "text": "爆発が爆発を呼んで大爆発だな！\nすげー気持ちよさそーだ！"
  },
  {
    "label": "WaveDamageUp_UnlockComment_00",
    "text": "まだわかんねーカラーチップだな"
  },
  {
    "label": "WaveDamageUp_UnlockComment_02",
    "text": "音波による攻撃は種類が少なめだけど、\nチップ１枚あたりの強化は大きいヨ"
  },
  {
    "label": "WaveDamageUp_UnlockComment_03",
    "text": "音波といえばセンパイですね！\nセンパイのメガホンレーザーも強化されます♪"
  },
  {
    "label": "WaveDamageUp_UnlockComment_04",
    "text": "アタシのメガホンレーザー？\nあっ、「ドローンメガホンレーザー」のチップか！"
  },
  {
    "label": "MainShotRateUp_UnlockComment_00",
    "text": "まだわかんねーカラーチップだな"
  },
  {
    "label": "MainShotRateUp_UnlockComment_02",
    "text": "連射が速くなるから、攻撃力と塗り性能が\n上がるけど、インク消費も増えるから注意ダ"
  },
  {
    "label": "MainShotRateUp_UnlockComment_03",
    "text": "「インク効率（メイン）」や「インク回復速度」\nと合わせると安心です\n「インクボトル確率」もオススメですよ～"
  },
  {
    "label": "MainShotRateUp_UnlockComment_04",
    "text": "インク切れ前に倒せばいーんじゃね？\n連射力アップでドドドドだっ！"
  },
  {
    "label": "WeakSwingRateUp_UnlockComment_00",
    "text": "まだわかんねーカラーチップだな"
  },
  {
    "label": "WeakSwingRateUp_UnlockComment_02",
    "text": "ヨコ斬りを連続してくり出せるから、\n近くの敵に一気にダメージをあたえられるナ"
  },
  {
    "label": "WeakSwingRateUp_UnlockComment_03",
    "text": "インク消費も増えるので注意です\nズバババッて倒せば、インク気にしなくて\nオッケー！ ってセンパイは言いそうですけど"
  },
  {
    "label": "WeakSwingRateUp_UnlockComment_04",
    "text": "ズバババッて… あっ\nインク切れに注意だぞ、ハチ！"
  },
  {
    "label": "LoadingBulletUp_UnlockComment_00",
    "text": "まだわかんねーカラーチップだな"
  },
  {
    "label": "LoadingBulletUp_UnlockComment_02",
    "text": "一回のチャージで長時間、撃ち続けられるノカ\nインク消費量は増えないし… お得ダナ"
  },
  {
    "label": "LoadingBulletUp_UnlockComment_03",
    "text": "「メインショット貫通」と組み合わせれば\n貫通するインク弾をたっぷり撃てますね♪"
  },
  {
    "label": "LoadingBulletUp_UnlockComment_04",
    "text": "敵をまとめてハチの巣にできるな、ハチ！\nあっ！ ダジャレじゃねーから！"
  },
  {
    "label": "NearDamageRatioUp_UnlockComment_00",
    "text": "まだわかんねーカラーチップだな"
  },
  {
    "label": "NearDamageRatioUp_UnlockComment_02",
    "text": "サブやスペシャルには効果がないけど、\nチップ１枚あたりの強化は\n「インクショットダメージ」より大きいネ"
  },
  {
    "label": "NearDamageRatioUp_UnlockComment_03",
    "text": "敵につめ寄られてピンチ！ ってときに、\n効果を実感できそうです～"
  },
  {
    "label": "NearDamageRatioUp_UnlockComment_04",
    "text": "こっちから敵につっこんでズドンだ！\n近接戦はサイコーだよなー！"
  },
  {
    "label": "FarDamageRatioUp_UnlockComment_00",
    "text": "まだわかんねーカラーチップだな"
  },
  {
    "label": "FarDamageRatioUp_UnlockComment_02",
    "text": "遠くからねらうチャージャーやスピナーとの\n相性はバツグンだネ"
  },
  {
    "label": "FarDamageRatioUp_UnlockComment_03",
    "text": "「メイン射程」のチップと合わせれば、\n遠くから一方的に攻撃できますね～\nあっ、センパイはチャージャー、苦手でしたね"
  },
  {
    "label": "FarDamageRatioUp_UnlockComment_04",
    "text": "チャージャーって、当たんねーんだよなー\nでも、なぜかこっちには当たるんだよ！"
  },
  {
    "label": "ShotBiasRatio_UnlockComment_00",
    "text": "まだわかんねーカラーチップだな"
  },
  {
    "label": "ShotBiasRatio_UnlockComment_02",
    "text": "撃ったインクが飛び散るのをおさえて、\nねらった場所に当てやすくなるネ"
  },
  {
    "label": "ShotBiasRatio_UnlockComment_03",
    "text": "飛び散ると攻撃範囲が広がりますし、\nブレが小さいほどイイとは限りませんが、\nねらうのが得意な方にオススメです♪"
  },
  {
    "label": "ShotBiasRatio_UnlockComment_04",
    "text": "イイダ、なんかブキチみてーだぞ…\nまっ、ザツに攻撃すんならナシ！\nしっかりねらって撃つんならアリだな！"
  },
  {
    "label": "HomingShot_UnlockComment_00",
    "text": "まだわかんねーカラーチップだな"
  },
  {
    "label": "HomingShot_UnlockComment_02",
    "text": "勝手に敵をねらってくれるんダネ\nねらっている敵にはマークがつくヨ\nクセがあるから好みが分かれるカナ？"
  },
  {
    "label": "HomingShot_UnlockComment_03",
    "text": "ねらうのが苦手な方にぴったりです\nただ、敵が近くにいるとまっすぐ飛ばず、\nうまく塗れないってこともあります～"
  },
  {
    "label": "HomingShot_UnlockComment_04",
    "text": "テキトーに撃っても当たるとか、楽でいーな！\nいや、アタシはちゃんとねらってっから！"
  },
  {
    "label": "Recharge_UnlockComment_00",
    "text": "まだわかんねーカラーチップだな"
  },
  {
    "label": "Recharge_UnlockComment_02",
    "text": "連射中に{{icon id=\"80\" arg=\"0x0000803F00000000\"}}を押すとすぐに再チャージが\n始まるヨ もちろん再チャージ中は撃てナイ"
  },
  {
    "label": "Recharge_UnlockComment_03",
    "text": "「スピナー弾数」と合わせたいですね\n敵の切れ目に再チャージすれば、\nずっと撃ち続けられそうです～♪"
  },
  {
    "label": "Recharge_UnlockComment_04",
    "text": "スピナー撃ち放題とかサイコーだな！\n相手にチャージャーいねーよな？！"
  },
  {
    "label": "PoisonInk_UnlockComment_00",
    "text": "まだわかんねーカラーチップだな"
  },
  {
    "label": "PoisonInk_UnlockComment_02",
    "text": "大きいサカナが勝手にやられてくれそうダ\n「メインショット塗り」とかの、塗り性能が\n上がるチップとの相性がいいナ"
  },
  {
    "label": "PoisonInk_UnlockComment_03",
    "text": "小さいサカナには効果がないので\n注意です 敵のインクで塗りながら\n移動するので…"
  },
  {
    "label": "PoisonInk_UnlockComment_04",
    "text": "やっぱ、小さいヤツはあぶねーな！\n…何こっち見てんだ、イイダ！"
  },
  {
    "label": "MainInkSave_UnlockComment_00",
    "text": "まだわかんねーカラーチップだな"
  },
  {
    "label": "MainInkSave_UnlockComment_02",
    "text": "「メイン連射速度」とかの、インク消費が\n増えがちなチップと合わせると安心ダ"
  },
  {
    "label": "MainInkSave_UnlockComment_03",
    "text": "攻撃力が上がると気持ちよくなって\nインク切れを気にしなくなっちゃいますから\nね、センパイ♪"
  },
  {
    "label": "MainInkSave_UnlockComment_04",
    "text": "なんでアタシなんだよ！\nハチに言えよ、ハチに！"
  },
  {
    "label": "SubInkSave_UnlockComment_00",
    "text": "まだわかんねーカラーチップだな"
  },
  {
    "label": "SubInkSave_UnlockComment_02",
    "text": "最大までセットすると、サブウェポンの\nインク消費量が４分の１まで減るノカ…\n連続でボムを投げられるネ"
  },
  {
    "label": "SubInkSave_UnlockComment_03",
    "text": "集めがいがありますね！\n「爆発ダメージ」とかも合わせれば、\nボムだけで攻略できちゃうかもです♪"
  },
  {
    "label": "SubInkSave_UnlockComment_04",
    "text": "よっし！ {{icon id=\"80\" arg=\"0x0000803F00000000\"}}禁止な、ハチ！\n{{icon id=\"78\" arg=\"0x0000803F00000000\"}}だけでクリアすんぞ！"
  },
  {
    "label": "KnockBackUp_UnlockComment_00",
    "text": "まだわかんねーカラーチップだな"
  },
  {
    "label": "KnockBackUp_UnlockComment_02",
    "text": "メインの攻撃で、敵を押しもどせるネ\nたくさんセットして強化すれば、フロア外に\n押し出して倒せるカモ？"
  },
  {
    "label": "KnockBackUp_UnlockComment_03",
    "text": "敵につめ寄られても、押しもどしながら\n倒せますね～ あっ、でも…"
  },
  {
    "label": "KnockBackUp_UnlockComment_04",
    "text": "インク切れには注意ですよ、センパイ♪\nだろ？"
  },
  {
    "label": "BlastBrushAwayUp_UnlockComment_00",
    "text": "まだわかんねーカラーチップだな"
  },
  {
    "label": "BlastBrushAwayUp_UnlockComment_02",
    "text": "ボムやブラスターの爆発で、もっと大きく\nふき飛ばせるヨ フロア外に敵を落とせば\n楽に倒せるネ"
  },
  {
    "label": "BlastBrushAwayUp_UnlockComment_03",
    "text": "センパイのボムにも効果がありますよ\n「ドローンクイックボム」とかをセットしましょう"
  },
  {
    "label": "BlastBrushAwayUp_UnlockComment_04",
    "text": "そんで、「撃破ドローンゲージ」もセットすれば\n…ってそんな都合よく集まんのか？！"
  },
  {
    "label": "ShelterNakedTimeSave_UnlockComment_00",
    "text": "まだわかんねーカラーチップだな"
  },
  {
    "label": "ShelterNakedTimeSave_UnlockComment_02",
    "text": "シェルターで、カサがない状態が短くなるヨ\nカサを壊されても安心ダナ"
  },
  {
    "label": "ShelterNakedTimeSave_UnlockComment_03",
    "text": "パージで敵を押しのけつつ、手元のカサで\nガードもできますね～"
  },
  {
    "label": "ShelterNakedTimeSave_UnlockComment_04",
    "text": "まちがってパージしても安心だな！\n夢中で連射してたらパージしちゃうの\nアタシだけじゃねーよな…？"
  },
  {
    "label": "DisableCanopyShot_UnlockComment_00",
    "text": "まだわかんねーカラーチップだな"
  },
  {
    "label": "DisableCanopyShot_UnlockComment_02",
    "text": "{{icon id=\"80\" arg=\"0x0000803F00000000\"}}押し続けてもパージしなくなるから、\nカサでガードしながら撃ちつづけられるネ"
  },
  {
    "label": "DisableCanopyShot_UnlockComment_03",
    "text": "まちがってパージすることもなくなりますし、\nセンパイも安心ですね♪"
  },
  {
    "label": "DisableCanopyShot_UnlockComment_04",
    "text": "安心だな、ハチ！\nあと、インク切れには注意だぞ！"
  },
  {
    "label": "ChargeTimeSave_UnlockComment_00",
    "text": "まだわかんねーカラーチップだな"
  },
  {
    "label": "ChargeTimeSave_UnlockComment_02",
    "text": "チャージ中のスキを減らせるのはうれしいナ\nたくさん集めて効果を上げたいチップだ"
  },
  {
    "label": "ChargeTimeSave_UnlockComment_03",
    "text": "チャージャーやスピナーが使いやすくなります♪\nでも、インク消費量は変わらないので…"
  },
  {
    "label": "ChargeTimeSave_UnlockComment_04",
    "text": "インク切れに注意ですよぉ～～ハチさん♪\nイイダのマネっ！"
  },
  {
    "label": "SpecialIncreaseUp_UnlockComment_00",
    "text": "まだわかんねーカラーチップだな"
  },
  {
    "label": "SpecialIncreaseUp_UnlockComment_02",
    "text": "「メインショット塗り」と合わせれば、\nさらに効果が上がりそうダ\n気軽にスペシャルを使えるネ"
  },
  {
    "label": "SpecialIncreaseUp_UnlockComment_03",
    "text": "スペシャルを使うとインクが回復するので、\nピンチに備えてためておくのもアリです～"
  },
  {
    "label": "SpecialIncreaseUp_UnlockComment_04",
    "text": "えっ！ スペシャルって、ゲージたまったら\nすぐ使うもんじゃねーの？"
  },
  {
    "label": "InkRecoveryUp_UnlockComment_00",
    "text": "まだわかんねーカラーチップだな"
  },
  {
    "label": "InkRecoveryUp_UnlockComment_02",
    "text": "センプク中はもちろん、ヒト状態での\n回復速度もアップするノカ…"
  },
  {
    "label": "InkRecoveryUp_UnlockComment_03",
    "text": "インク不足の解消が早まるので、\n追いこまれても なんとかなりそうです"
  },
  {
    "label": "InkRecoveryUp_UnlockComment_04",
    "text": "これ集めとけばインク切れまで\n撃ち切っても安心だな！"
  },
  {
    "label": "MainShotRangeUp_UnlockComment_00",
    "text": "まだわかんねーカラーチップだな"
  },
  {
    "label": "MainShotRangeUp_UnlockComment_02",
    "text": "敵を遠くから一方的に攻撃できるネ\n「メインショットダメージ（遠）」と合わせたいナ"
  },
  {
    "label": "MainShotRangeUp_UnlockComment_03",
    "text": "ブキによっては遠距離で大きくブレるので、\n「ブレ軽減」を合わせてもイイですね"
  },
  {
    "label": "MainShotRangeUp_UnlockComment_04",
    "text": "でも、アタシは近接戦が好きだな！\n相手が遠いと当たんねーから！"
  },
  {
    "label": "MainPaintUp_UnlockComment_00",
    "text": "まだわかんねーカラーチップだな"
  },
  {
    "label": "MainPaintUp_UnlockComment_02",
    "text": "広く塗れば有利に戦えるし、スペシャルゲージ\nも増えるネ 集めたいチップだナ"
  },
  {
    "label": "MainPaintUp_UnlockComment_03",
    "text": "「インクパチパチ」でダメージをあたえ、\n「インクネバネバ」で足止めできますね～\n塗りはバトルの基本です♪"
  },
  {
    "label": "MainPaintUp_UnlockComment_04",
    "text": "パチパチ…？ ネバネバ…？\nま、塗っときゃ勝てるってことだな！"
  },
  {
    "label": "BulletCorePaintUp_UnlockComment_00",
    "text": "まだわかんねーカラーチップだな"
  },
  {
    "label": "BulletCorePaintUp_UnlockComment_02",
    "text": "ローラーやフデで塗り進むときや、シェルターで\nカサをパージしたときの塗りが大きくなるヨ"
  },
  {
    "label": "BulletCorePaintUp_UnlockComment_03",
    "text": "一部のチップは、そうび中のブキで出る出ない\nが決まります このチップもそのひとつです～"
  },
  {
    "label": "BulletCorePaintUp_UnlockComment_04",
    "text": "フデでスィーって進むの、気持ちイーよな！\nハチ！ 気持ちよく塗りまくんぞ！"
  },
  {
    "label": "BlastSizeUp_UnlockComment_00",
    "text": "まだわかんねーカラーチップだな"
  },
  {
    "label": "BlastSizeUp_UnlockComment_02",
    "text": "「爆発ダメージ」のチップを合わせると、\n大きくなった爆発で大ダメージを出せるネ"
  },
  {
    "label": "BlastSizeUp_UnlockComment_03",
    "text": "トリプルトルネードやナイスダマにも効果が\nあるので、敵をまとめて巻きこめます～"
  },
  {
    "label": "BlastSizeUp_UnlockComment_04",
    "text": "ポータルの爆発にも効果あんのか？！\nあのデカい爆発がもっとデカく！ すげーな！"
  },
  {
    "label": "PenetrateNumUp_UnlockComment_00",
    "text": "まだわかんねーカラーチップだな"
  },
  {
    "label": "PenetrateNumUp_UnlockComment_02",
    "text": "貫通して後ろの敵にも攻撃が当たるノカ\n「メイン射程」と合わせて、大きい敵の後ろの\nヤツにも当てたいネ"
  },
  {
    "label": "PenetrateNumUp_UnlockComment_03",
    "text": "敵の群れをまとめて倒せますね！\nラッキーコンボのコンボ数も増やせそうです♪"
  },
  {
    "label": "PenetrateNumUp_UnlockComment_04",
    "text": "貫通数増やせるのはやべーな！\n敵が一列に並んでくれたら楽しそーだ！"
  },
  {
    "label": "BulletSizeUp_UnlockComment_00",
    "text": "まだわかんねーカラーチップだな"
  },
  {
    "label": "BulletSizeUp_UnlockComment_02",
    "text": "ねらうのが苦手なヒトにぴったりダネ\n１枚セットするだけでも、効果が大きいヨ"
  },
  {
    "label": "BulletSizeUp_UnlockComment_03",
    "text": "インクショットを囲う多面体がサイズです\nチップをセットすると見えますよ～"
  },
  {
    "label": "BulletSizeUp_UnlockComment_04",
    "text": "チャージャーの弾もデカくなんの？！\nナワバリバトルで使いてー！"
  },
  {
    "label": "WeakenEnemyDamageRateUp_UnlockComment_00",
    "text": "まだわかんねーカラーチップだな"
  },
  {
    "label": "WeakenEnemyDamageRateUp_UnlockComment_02",
    "text": "「メインショット塗り」で塗りを\n広げておきたいネ\n「インクネバネバ」でねらいやすくするのもイイ"
  },
  {
    "label": "WeakenEnemyDamageRateUp_UnlockComment_03",
    "text": "ポイズンミストでおそくした敵にも効果が\nあるので、自販機でサブを変更しちゃうのも\nアリですね～"
  },
  {
    "label": "WeakenEnemyDamageRateUp_UnlockComment_04",
    "text": "動きにくくした敵に大ダメージとか、\nちょっとイジワルなチップだな！"
  },
  {
    "label": "SquidMoveUp_UnlockComment_00",
    "text": "まだわかんねーカラーチップだな"
  },
  {
    "label": "SquidMoveUp_UnlockComment_02",
    "text": "イカダッシュが速くなれば、有利に戦えるネ\nピンチのときも にげやすくなるヨ"
  },
  {
    "label": "SquidMoveUp_UnlockComment_03",
    "text": "興奮したサカナから にげるの大変ですよね\nカベぎわに追い詰められたら、囲まれて…"
  },
  {
    "label": "SquidMoveUp_UnlockComment_04",
    "text": "こえーぞ、イイダ…\nでも、セットしときてーチップだな！"
  },
  {
    "label": "HumanMoveUp_UnlockComment_00",
    "text": "まだわかんねーカラーチップだな"
  },
  {
    "label": "HumanMoveUp_UnlockComment_02",
    "text": "塗れない地面は泳げないから、走るしかナイ\nヒト状態の移動速度も上げておきたいネ\n射撃中の移動速度もアップするヨ"
  },
  {
    "label": "HumanMoveUp_UnlockComment_03",
    "text": "にげるときは、塗って泳いでをくり返すので、\n塗るときの移動速度も速めたいですね～\nにげ切れないと、追い詰められて…"
  },
  {
    "label": "HumanMoveUp_UnlockComment_04",
    "text": "こえーって、イイダ！\nでも、撃ちながら速く動けるのはイイな！"
  },
  {
    "label": "EnemySinkUp_UnlockComment_00",
    "text": "まだわかんねーカラーチップだな"
  },
  {
    "label": "EnemySinkUp_UnlockComment_02",
    "text": "こっちのインクに乗った敵をおそくすれば、\n「インクパチパチ」でたっぷりダメージを\nあたえられるネ"
  },
  {
    "label": "EnemySinkUp_UnlockComment_03",
    "text": "「おそくした敵ダメージ」も有効なので、\n合わせてセットしたいですね～"
  },
  {
    "label": "EnemySinkUp_UnlockComment_04",
    "text": "インクがネバネバ…\nハチの足はおそくなんねーよな？"
  },
  {
    "label": "SquidSomersaultAttack_UnlockComment_00",
    "text": "まだわかんねーカラーチップだな"
  },
  {
    "label": "SquidSomersaultAttack_UnlockComment_02",
    "text": "小さいサカナくらいならイカロールを当てて\n一撃で倒せるヨ 敵をふき飛ばす効果も\nあるようダ"
  },
  {
    "label": "SquidSomersaultAttack_UnlockComment_03",
    "text": "エレベーター前のマトにイカロールしてみましょう\nダメージをあたえる範囲がわかりますよ"
  },
  {
    "label": "SquidSomersaultAttack_UnlockComment_04",
    "text": "ブキにたよらず、身ひとつで戦うとか\nカッコイーな、ハチ！"
  },
  {
    "label": "ChargeKeepTimeUp_UnlockComment_00",
    "text": "まだわかんねーカラーチップだな"
  },
  {
    "label": "ChargeKeepTimeUp_UnlockComment_02",
    "text": "チャージャー、スピナー、ストリンガーが\nチャージキープできるようになるヨ"
  },
  {
    "label": "ChargeKeepTimeUp_UnlockComment_03",
    "text": "フルチャージしたまま、泳いで移動できます～\nねらいやすい場所に移動してズドン！ です"
  },
  {
    "label": "ChargeKeepTimeUp_UnlockComment_04",
    "text": "前、センプクしてたチャージャーに一撃で\nやられたけど、あれチャージキープだったんか！"
  },
  {
    "label": "ManeuverSlideAttack_UnlockComment_00",
    "text": "まだわかんねーカラーチップだな"
  },
  {
    "label": "ManeuverSlideAttack_UnlockComment_02",
    "text": "敵に囲まれたときに、反撃しながら\nスライドアタックで突破できるカモ？"
  },
  {
    "label": "ManeuverSlideAttack_UnlockComment_03",
    "text": "エレベーター前のマトで試してみましょう\n{{icon id=\"80\" arg=\"0x0000803F00000000\"}}でマニューバーを撃ちながら{{icon id=\"75\" arg=\"0x48E13A3FFEFFFFFF\"}}\n倒して{{icon id=\"71\" arg=\"0x0000803F00000000\"}}です"
  },
  {
    "label": "ManeuverSlideAttack_UnlockComment_04",
    "text": "スライドで体当たり？！ アタシもやりてー！\nハチがうらやましーな！"
  },
  {
    "label": "SaberStepAttack_UnlockComment_00",
    "text": "まだわかんねーカラーチップだな"
  },
  {
    "label": "SaberStepAttack_UnlockComment_02",
    "text": "ふみこみ攻撃で、ハチの周りにダメージを\nあたえるヨ タメ斬りで{{icon id=\"80\" arg=\"0x0000803F00000000\"}}をはなすとき、\n{{icon id=\"75\" arg=\"0x48E13A3FFEFFFFFF\"}}を前に倒しておくんダ"
  },
  {
    "label": "SaberStepAttack_UnlockComment_03",
    "text": "インクショットとワイパー直撃、\nふみこみアタックで、３回攻撃ですね～\nポータルのようなカタい相手に有効です"
  },
  {
    "label": "SaberStepAttack_UnlockComment_04",
    "text": "ふみこみって、当たると気持ちイーよな！\nおっし！ マトで練習すんぞ、ハチ！"
  },
  {
    "label": "DirectAttackUp_UnlockComment_00",
    "text": "まだわかんねーカラーチップだな"
  },
  {
    "label": "DirectAttackUp_UnlockComment_02",
    "text": "「イカロールアタック」や「スライドアタック」\nなどのイリョクまで全部アップするから、\nお得ダネ"
  },
  {
    "label": "DirectAttackUp_UnlockComment_03",
    "text": "逆に言うと、トツゲキする攻撃がないと\n意味ないです～ はね回る敵のぬけガラも\nトツゲキ攻撃になるので有効です"
  },
  {
    "label": "DirectAttackUp_UnlockComment_04",
    "text": "体当たりが強まるんだな！\nよーし、ハチ！ トツゲキだーっ！"
  },
  {
    "label": "DirectAttackBrushAwayUp_UnlockComment_00",
    "text": "まだわかんねーカラーチップだな"
  },
  {
    "label": "DirectAttackBrushAwayUp_UnlockComment_02",
    "text": "「イカロールアタック」や「スライドアタック」\nなど、トツゲキを有効にするチップを\n合わせたいナ"
  },
  {
    "label": "DirectAttackBrushAwayUp_UnlockComment_03",
    "text": "トツゲキで、敵をフロアの外にふき飛ばせば\nダメージが足りなくても倒せますね～"
  },
  {
    "label": "DirectAttackBrushAwayUp_UnlockComment_04",
    "text": "ピンポン玉みてーに\n敵をふっ飛ばしてやれ、ハチ！"
  },
  {
    "label": "RollerDashUp_UnlockComment_00",
    "text": "まだわかんねーカラーチップだな"
  },
  {
    "label": "RollerDashUp_UnlockComment_02",
    "text": "最大で２倍まで速くなるみたいダ\n気持ちよく塗り進めそうだネ"
  },
  {
    "label": "RollerDashUp_UnlockComment_03",
    "text": "イカダッシュより速そう！ ハチさん、スピード\n出しすぎでコースアウトしないようご注意を～"
  },
  {
    "label": "RollerDashUp_UnlockComment_04",
    "text": "ドローンのアタシとハチ、\nどっちが速いか競争すっか？"
  },
  {
    "label": "ManeuverSlideUp_UnlockComment_00",
    "text": "まだわかんねーカラーチップだな"
  },
  {
    "label": "ManeuverSlideUp_UnlockComment_02",
    "text": "続けてスライドすれば、素早く移動できるネ\n「スライドアタック」と合わせるのもイイ"
  },
  {
    "label": "ManeuverSlideUp_UnlockComment_03",
    "text": "センパイも大好きなスライドですね\n最大６回まで増やせますよ～♪"
  },
  {
    "label": "ManeuverSlideUp_UnlockComment_04",
    "text": "ハチ！ アタシの代わりに\n思う存分スライドしてくれ！"
  },
  {
    "label": "MoveSpecialIncreaseUp_UnlockComment_00",
    "text": "まだわかんねーカラーチップだな"
  },
  {
    "label": "MoveSpecialIncreaseUp_UnlockComment_02",
    "text": "走っても泳いでもいいけど、移動距離で\nゲージが増えるから、泳いだ方が早いネ"
  },
  {
    "label": "MoveSpecialIncreaseUp_UnlockComment_03",
    "text": "センパイの滑空で移動しても効果が\nありますよ～♪"
  },
  {
    "label": "MoveSpecialIncreaseUp_UnlockComment_04",
    "text": "ハチ！ 空中でスペシャルためて\n降りてすぐ発動だ！"
  },
  {
    "label": "MoveInkRecoverUp_UnlockComment_00",
    "text": "まだわかんねーカラーチップだな"
  },
  {
    "label": "MoveInkRecoverUp_UnlockComment_02",
    "text": "インク切れの心配が減るネ\n歩きながらずっと撃ち続けられるカモ？"
  },
  {
    "label": "MoveInkRecoverUp_UnlockComment_03",
    "text": "「チャージキープ」のチップと合わせれば、\nチャージキープ中にインク回復できそうです"
  },
  {
    "label": "MoveInkRecoverUp_UnlockComment_04",
    "text": "マニューバーならスライドでも回復するのか！\nインク気にせず撃ち放題だな！"
  },
  {
    "label": "DroneCadenceMoveUp_UnlockComment_00",
    "text": "まだわかんねーカラーチップだな"
  },
  {
    "label": "DroneCadenceMoveUp_UnlockComment_02",
    "text": "走ったり泳いだり、ハチが移動すると\nヒメのドローンゲージが増えるヨ"
  },
  {
    "label": "DroneCadenceMoveUp_UnlockComment_03",
    "text": "「ヒト移動速度」や「イカダッシュ速度」と\n合わせると効果的ですね～"
  },
  {
    "label": "DroneCadenceMoveUp_UnlockComment_04",
    "text": "ハチが走るとアタシのゲージがたまる？！\nなんか、ハチが発電機みてーだ！"
  },
  {
    "label": "ComboGraceTimeUp_UnlockComment_00",
    "text": "まだわかんねーカラーチップだな"
  },
  {
    "label": "ComboGraceTimeUp_UnlockComment_02",
    "text": "コンボをつなげやすくなるネ\nコンボ数が大きいときに敵を倒すと\nアイテムが出る確率が上がるヨ"
  },
  {
    "label": "ComboGraceTimeUp_UnlockComment_03",
    "text": "「ラッキーコンボ最大数」をセットすれば、\nもっと確率アップできそうです！"
  },
  {
    "label": "ComboGraceTimeUp_UnlockComment_04",
    "text": "ラッキーコンボ…？ 敵を倒し続けたら\nアイテム出てラッキーってことか！"
  },
  {
    "label": "DefeatEnemyBlastFreqUp_UnlockComment_00",
    "text": "まだわかんねーカラーチップだな"
  },
  {
    "label": "DefeatEnemyBlastFreqUp_UnlockComment_02",
    "text": "群れで攻めてくる敵は、ラッキーボムの\n爆発に巻きこみやすいナ"
  },
  {
    "label": "DefeatEnemyBlastFreqUp_UnlockComment_03",
    "text": "ラッキーボムで倒した敵がラッキーボムを\n出せば、続けざまに敵を倒せますね"
  },
  {
    "label": "DefeatEnemyBlastFreqUp_UnlockComment_04",
    "text": "ラッキーボム…？ 敵から出たボムで\nさらに敵を倒せてラッキーってことか！"
  },
  {
    "label": "DefeatEnemyItemDropSpecialUp_UnlockComment_00",
    "text": "まだわかんねーカラーチップだな"
  },
  {
    "label": "DefeatEnemyItemDropSpecialUp_UnlockComment_02",
    "text": "スペシャルカンヅメで一気にゲージをためて、\nピンチを逆転できるカモ？ もうダメか…って\nときの希望の光だネ"
  },
  {
    "label": "DefeatEnemyItemDropSpecialUp_UnlockComment_03",
    "text": "スペシャルを使うとインクも回復しますし、\nスペシャルからの大逆転はありそうです～"
  },
  {
    "label": "DefeatEnemyItemDropSpecialUp_UnlockComment_04",
    "text": "攻撃的なスペシャルがイイな！\nサメライドでつっこめ、ハチ！"
  },
  {
    "label": "DefeatEnemyItemDropInkUp_UnlockComment_00",
    "text": "まだわかんねーカラーチップだな"
  },
  {
    "label": "DefeatEnemyItemDropInkUp_UnlockComment_02",
    "text": "インクがたっぷり残っていたら、サブとかで\n減らしてからインクボトルを取るとお得ダナ"
  },
  {
    "label": "DefeatEnemyItemDropInkUp_UnlockComment_03",
    "text": "ミズタって意外とケチ…？\nインクが残っているならムリに取らなくても\nいいですよ、ハチさん"
  },
  {
    "label": "DefeatEnemyItemDropInkUp_UnlockComment_04",
    "text": "敵を倒しまくればインクボトルが出まくる？\nなら、インク切れにビビんなくていいな！"
  },
  {
    "label": "DefeatEnemyItemDropDroneActiveUp_UnlockComment_00",
    "text": "まだわかんねーカラーチップだな"
  },
  {
    "label": "DefeatEnemyItemDropDroneActiveUp_UnlockComment_02",
    "text": "ヒメのドローンゲージが一気に増えるネ\nスロットにいろいろセットしておくといいヨ"
  },
  {
    "label": "DefeatEnemyItemDropDroneActiveUp_UnlockComment_03",
    "text": "ワタシもハッキングでお手伝いできます～♪\nセンパイのスロットを増やしたり、チップが\n出るように設定したり…"
  },
  {
    "label": "DefeatEnemyItemDropDroneActiveUp_UnlockComment_04",
    "text": "そんで、「ドローントルネード」とかセットしたら\nスロットにアタシの行動が追加されるぞ！"
  },
  {
    "label": "DefeatEnemyItemDropArmor_UnlockComment_00",
    "text": "まだわかんねーカラーチップだな"
  },
  {
    "label": "DefeatEnemyItemDropArmor_UnlockComment_02",
    "text": "イイダにハッキングしてもらって、\n最大追加アーマー数を増やしておくとイイ"
  },
  {
    "label": "DefeatEnemyItemDropArmor_UnlockComment_03",
    "text": "はい、おまかせください！ 塔に入る前に\nワタシのところに来てくださいね、ハチさん♪"
  },
  {
    "label": "DefeatEnemyItemDropArmor_UnlockComment_04",
    "text": "アーマーって、ハチの周りくるくるするアレか！\nアタシみてーだな！"
  },
  {
    "label": "DefeatEnemyItemStunBomb_UnlockComment_00",
    "text": "まだわかんねーカラーチップだな"
  },
  {
    "label": "DefeatEnemyItemStunBomb_UnlockComment_02",
    "text": "サウンドバーストはヒメの必殺技ダネ\nディスクパーツを３つ集めたらすぐに発動する\nから、３つ目を取るタイミングに注意ダ"
  },
  {
    "label": "DefeatEnemyItemStunBomb_UnlockComment_03",
    "text": "センパイがポータルの動きを止めてくれます\nフロア攻略のチャンスですよ、ハチさん"
  },
  {
    "label": "DefeatEnemyItemStunBomb_UnlockComment_04",
    "text": "ハチがディスクパーツ集めまくったら\nサウンドバースト出し放題だな！"
  },
  {
    "label": "DefeatEnemyInkRecover_UnlockComment_00",
    "text": "まだわかんねーカラーチップだな"
  },
  {
    "label": "DefeatEnemyInkRecover_UnlockComment_02",
    "text": "小さいサカナの群れに有効だネ センプクで\nインク回復しなくても倒し切れそうダ"
  },
  {
    "label": "DefeatEnemyInkRecover_UnlockComment_03",
    "text": "どの敵を倒しても回復量は同じなので、\n体力少な目の敵が多いときに有効です～"
  },
  {
    "label": "DefeatEnemyInkRecover_UnlockComment_04",
    "text": "ボムでまとめてやっつければ、\nインクタンクが満タンになりそーだ！"
  },
  {
    "label": "ComboItemDropUp_UnlockComment_00",
    "text": "まだわかんねーカラーチップだな"
  },
  {
    "label": "ComboItemDropUp_UnlockComment_02",
    "text": "アイテムが出る確率は、１０コンボで２倍、\n２０コンボで３倍に上がるヨ"
  },
  {
    "label": "ComboItemDropUp_UnlockComment_03",
    "text": "「ラッキーコンボ時間」でラッキーコンボを\nつなぎやすくして、コンボ数を上げましょう！"
  },
  {
    "label": "ComboItemDropUp_UnlockComment_04",
    "text": "９９コンボまで増やせるって、マジか！\nそんなたくさん敵が出るってこと？！"
  },
  {
    "label": "PaintCombo_UnlockComment_00",
    "text": "まだわかんねーカラーチップだな"
  },
  {
    "label": "PaintCombo_UnlockComment_02",
    "text": "ラッキーコンボが切れそうなとき、\n地面を塗ってつなげられるネ"
  },
  {
    "label": "PaintCombo_UnlockComment_03",
    "text": "コンボがつながっても、敵を倒さないと\nアイテムは出ないのでご注意を～"
  },
  {
    "label": "PaintCombo_UnlockComment_04",
    "text": "塗りまくってコンボ数を増やしてから、\n敵倒せばいーな！"
  },
  {
    "label": "DroneCadenceTimeUp_UnlockComment_00",
    "text": "まだわかんねーカラーチップだな"
  },
  {
    "label": "DroneCadenceTimeUp_UnlockComment_02",
    "text": "複数枚セットすると、目に見えてヒメの\nドローンゲージ増加が速まるヨ"
  },
  {
    "label": "DroneCadenceTimeUp_UnlockComment_03",
    "text": "「移動ドローンゲージ」とかと合わせれば、\nセンパイの行動が出まくりです～♪"
  },
  {
    "label": "DroneCadenceTimeUp_UnlockComment_04",
    "text": "アタシの行動を追加するチップがないと\n意味ねーから、そのへんたのむぞ、ハチ！"
  },
  {
    "label": "DroneCadencePaintUp_UnlockComment_00",
    "text": "まだわかんねーカラーチップだな"
  },
  {
    "label": "DroneCadencePaintUp_UnlockComment_02",
    "text": "塗りが強いブキにぴったりだネ\n「メインショット塗り」のチップと\n合わせるのもイイ"
  },
  {
    "label": "DroneCadencePaintUp_UnlockComment_03",
    "text": "「ドローンスプリンクラー」と合わせれば、\nセンパイが塗りながらセンパイのゲージが\nたまりますね♪"
  },
  {
    "label": "DroneCadencePaintUp_UnlockComment_04",
    "text": "自家発電ってことか！\nハチのサポートがはかどりそうだ！"
  },
  {
    "label": "DroneCadenceDefeatEnemyUp_UnlockComment_00",
    "text": "まだわかんねーカラーチップだな"
  },
  {
    "label": "DroneCadenceDefeatEnemyUp_UnlockComment_02",
    "text": "群れで攻めてくる敵を倒しまくれば\nヒメのゲージがグングン増えるネ"
  },
  {
    "label": "DroneCadenceDefeatEnemyUp_UnlockComment_03",
    "text": "「撃破インク回復」も敵を倒すと効果が\n出るので、合わせてセットすれば倒すたびに\n二つイイことがありますよ～"
  },
  {
    "label": "DroneCadenceDefeatEnemyUp_UnlockComment_04",
    "text": "アタシの攻撃で倒しても効果あんのな！\nハチ、いっしょに倒しまくんぞ！"
  },
  {
    "label": "DroneActionBombSplash_UnlockComment_00",
    "text": "まだわかんねーカラーチップだな"
  },
  {
    "label": "DroneActionBombSplash_UnlockComment_02",
    "text": "ヒメが敵にスプラッシュボムを投げるヨ\n少し転がってから爆発するボムだネ"
  },
  {
    "label": "DroneActionBombSplash_UnlockComment_03",
    "text": "ハチさんの周りに敵がいないと、\nセンパイのゲージはたまったままです\n投げたい敵に近づきましょう"
  },
  {
    "label": "DroneActionBombSplash_UnlockComment_04",
    "text": "敵を見つけるまでガマンだ！\nやっぱ、イザってときに備えとかねーとな！"
  },
  {
    "label": "DroneActionTrap_UnlockComment_00",
    "text": "まだわかんねーカラーチップだな"
  },
  {
    "label": "DroneActionTrap_UnlockComment_02",
    "text": "ヒメが自分の真下にトラップを設置するヨ\n敵の通り道に設置しておきたいネ"
  },
  {
    "label": "DroneActionTrap_UnlockComment_03",
    "text": "「爆発サイズ」と「爆発ダメージ」でトラップを\n強化できるので、合わせてセットしましょう！"
  },
  {
    "label": "DroneActionTrap_UnlockComment_04",
    "text": "これで、後ろから敵にせまられて\nはさみ撃ちされる心配はねーな！"
  },
  {
    "label": "DroneActionSprinkler_UnlockComment_00",
    "text": "まだわかんねーカラーチップだな"
  },
  {
    "label": "DroneActionSprinkler_UnlockComment_02",
    "text": "ヒメがインクをまき散らして、攻撃や塗りを\nサポートするヨ"
  },
  {
    "label": "DroneActionSprinkler_UnlockComment_03",
    "text": "このチップと「時間ドローンゲージ」をたくさん\n集めると、センパイからインクがあふれ出ます"
  },
  {
    "label": "DroneActionSprinkler_UnlockComment_04",
    "text": "アタシがスプリンクラーになんのか！\nスプリンクラーを投げるんじゃねーの？！"
  },
  {
    "label": "DroneActionBombQuick_UnlockComment_00",
    "text": "まだわかんねーカラーチップだな"
  },
  {
    "label": "DroneActionBombQuick_UnlockComment_02",
    "text": "クイックボムはイリョクはひかえめだけど、\nねらった敵に直撃しやすいネ"
  },
  {
    "label": "DroneActionBombQuick_UnlockComment_03",
    "text": "「爆発ダメージ」や「時間ドローンゲージ」など\nも集めると、センパイがオニのように攻撃して\nくれますよ♪"
  },
  {
    "label": "DroneActionBombQuick_UnlockComment_04",
    "text": "おし！ オニになってやんぞー！\nチップ集めはたのんだぞ、ハチ！"
  },
  {
    "label": "DroneActionSuperLaser_UnlockComment_00",
    "text": "まだわかんねーカラーチップだな"
  },
  {
    "label": "DroneActionSuperLaser_UnlockComment_02",
    "text": "メガホンレーザーはスペシャルだから、\nサブのボムより必要なゲージは多めだナ"
  },
  {
    "label": "DroneActionSuperLaser_UnlockComment_03",
    "text": "「音波ダメージ」で強化できるので、\n合わせて大ダメージを出したいですね～"
  },
  {
    "label": "DroneActionSuperLaser_UnlockComment_04",
    "text": "5.1chじゃねーのか… モノラルだけど\nしつこく追撃してやんぞ！"
  },
  {
    "label": "DroneActionTornado_UnlockComment_00",
    "text": "まだわかんねーカラーチップだな"
  },
  {
    "label": "DroneActionTornado_UnlockComment_02",
    "text": "必要なゲージが多いから、同じチップや\n「塗りドローンゲージ」などを集めたいナ"
  },
  {
    "label": "DroneActionTornado_UnlockComment_03",
    "text": "「爆発サイズ」でトルネードを大きくして、\n敵をまとめて巻きこみましょう！"
  },
  {
    "label": "DroneActionTornado_UnlockComment_04",
    "text": "トリプルじゃねーのか… ま、シングルでも\nしっかりねらえば問題ねーか！"
  },
  {
    "label": "DroneActionItemDrop_UnlockComment_00",
    "text": "まだわかんねーカラーチップだな"
  },
  {
    "label": "DroneActionItemDrop_UnlockComment_02",
    "text": "ヒメが生成するアイテムはランダムだけど、\nドローンバッテリーは出ないらしイ"
  },
  {
    "label": "DroneActionItemDrop_UnlockComment_03",
    "text": "アイテムはセンパイの真下に出るので、\n見のがさないようご注意ください、ハチさん"
  },
  {
    "label": "DroneActionItemDrop_UnlockComment_04",
    "text": "アイテムまで作れるとか、\nなんでもアリだなドローンのアタシ！"
  }
]