[
  {
    "label": "Phase2_00F_First00",
    "text": "みなさん、{{delay frames=\"15\"}}この先キビシイ戦いになるかもしれませんが\nどうかよろしくお願いします"
  },
  {
    "label": "Phase2_00F_First01",
    "text": "いっちょ やってやるか！"
  },
  {
    "label": "Phase2_00F_First02",
    "text": "ま、こうなったら最後まで付き合うヨ"
  },
  {
    "label": "Phase2_00F_First03",
    "text": "あっ、{{delay frames=\"15\"}}{{icon id=\"56\" arg=\"0xCDCC8C3F02000000\"}}パレットが 空っぽになってんな"
  },
  {
    "label": "Phase2_00F_First04",
    "text": "前の塔で持ってたカラーチップは {{icon id=\"64\" arg=\"0x0000803F00000000\"}}シンジュに変わったカラネ{{delay frames=\"30\"}}\nカラーチップによる強化も すべて失われていルヨ"
  },
  {
    "label": "Phase2_00F_First05",
    "text": "ハチさん、{{delay frames=\"5\"}}{{color id=\"4\"}}ライフ{{color id=\"65535\"}}の数も 前より少なくなっています{{pageBreak}}ライフをすべて失うと 塔の外に追い出されて{{color id=\"4\"}}１Ｆからやり直し{{color id=\"65535\"}}に\nなってしまいますので、{{delay frames=\"15\"}}気をつけていきましょう！"
  },
  {
    "label": "Phase2_00F_Rnd00_00",
    "text": "何度でもチャレンジしましょう！"
  },
  {
    "label": "Phase2_00F_Rnd00_01",
    "text": "待ってろよ、オーダ！！"
  },
  {
    "label": "Phase2_00F_Rnd01_00",
    "text": "ヨシッ、{{delay frames=\"15\"}} 気合い入れてくぞー！"
  },
  {
    "label": "Phase2_00F_Rnd01_01",
    "text": "無理しないくらいが ちょうどイイと思うケド"
  },
  {
    "label": "Phase2_00F_Rnd02_00",
    "text": "さて、{{delay frames=\"15\"}}今回はドコまで行けるカナ"
  },
  {
    "label": "Phase2_00F_Rnd02_01",
    "text": "今度こそオーダを止めなくちゃ…！{{delay frames=\"15\"}} がんばりましょう！"
  },
  {
    "label": "PhaseX_00F_After5FClear00",
    "text": "そうそう、{{delay frames=\"15\"}}前回のチャレンジで ５Ｆをクリアしていたので{{delay frames=\"15\"}}\n今回は最初に{{icon id=\"63\" arg=\"0x0000803F00000000\"}}{{color id=\"4\"}}５００ネリコイン{{color id=\"65535\"}}がもらえますよ♪"
  },
  {
    "label": "PhaseX_00F_After5FClear01",
    "text": "それに、{{delay frames=\"15\"}}５Ｆで必ず{{color id=\"4\"}}自販機コーナーが出る{{color id=\"65535\"}}って話だったナ"
  },
  {
    "label": "PhaseX_00F_After5FClear02",
    "text": "５Ｆクリアしとくと お得って話、{{delay frames=\"15\"}}マジなんだなー！"
  },
  {
    "label": "PhaseX_00F_After5FClear03",
    "text": "今回はいい感じに スタートダッシュ決められそーだ！{{delay frames=\"30\"}}\nやってやろーぜ、ハチ！"
  },
  {
    "label": "Phase2_05F_First00",
    "text": "ヨッシ！{{delay frames=\"5\"}} まずは５Ｆ突破だー！"
  },
  {
    "label": "Phase2_05F_First01",
    "text": "クリアしたときに {{icon id=\"64\" arg=\"0x0000803F00000000\"}}シンジュがもらえましたね{{delay frames=\"30\"}}\nこの塔、{{delay frames=\"15\"}}５Ｆをクリアすると いろいろ特典があるんです"
  },
  {
    "label": "Phase2_05F_First02",
    "text": "５Ｆをクリアしていれば、{{delay frames=\"15\"}}そのあと塔の外に追い出されても\n次チャレンジするとき 最初に{{icon id=\"63\" arg=\"0x0000803F00000000\"}}{{color id=\"4\"}}５００ネリコイン{{color id=\"65535\"}}がもらえますよ{{pageBreak}}さらに、{{delay frames=\"15\"}}５Ｆで必ず{{color id=\"4\"}}自販機コーナーが出る{{color id=\"65535\"}}ようになるんです"
  },
  {
    "label": "Phase2_05F_First03",
    "text": "自販機コーナーか！{{delay frames=\"15\"}} ひと息つけそーじゃん！"
  },
  {
    "label": "Phase2_05F_First04",
    "text": "それなら、{{delay frames=\"15\"}}なるべく毎回 ５Ｆは突破しておきたいネ"
  },
  {
    "label": "Phase2_05F_First05",
    "text": "このままオーダをブッ飛ばしちまえば関係ねーけどな！{{delay frames=\"30\"}}\nなぁ、ハチ！"
  },
  {
    "label": "Phase2_09F_First00",
    "text": "…次のフロアだケド、{{delay frames=\"15\"}}明らかにこれまでと様子がチガウ{{delay frames=\"30\"}}\nなんだかイヤな感じがするヨ"
  },
  {
    "label": "Phase2_09F_First01",
    "text": "もしワタシの設計が この塔に反映されているなら、{{delay frames=\"15\"}}\n次の１０Ｆでは いわゆる{{color id=\"4\"}}ボス{{color id=\"65535\"}}が現れるはずです"
  },
  {
    "label": "Phase2_09F_First02",
    "text": "強えーヤツがいるってコトか…{{delay frames=\"30\"}}\n無理はすんなよ、ハチ！"
  },
  {
    "label": "Phase2_09F_Rnd00_00",
    "text": "おつかれさまでした！{{delay frames=\"30\"}}\nいい感じで来てますね～♪"
  },
  {
    "label": "Phase2_09F_Rnd00_01",
    "text": "次は 強えーヤツと戦うフロアだな？{{delay frames=\"30\"}}\nッシャ、気合い入れてくゾ！"
  },
  {
    "label": "Phase2_09F_Rnd01_00",
    "text": "今んとこ ヨユーだな、ハチ！"
  },
  {
    "label": "Phase2_09F_Rnd01_01",
    "text": "次は１０Ｆか…{{delay frames=\"15\"}} キケンな相手が待っているハズダ{{delay frames=\"30\"}}\nムチャなコトをするナヨ"
  },
  {
    "label": "Phase2_09F_Rnd02_00",
    "text": "とりあえず ココまでは順調ダネ"
  },
  {
    "label": "Phase2_09F_Rnd02_01",
    "text": "次のフロアは ボスとの戦いです{{delay frames=\"30\"}}\n相手の動きを見ながら シンチョウにいきましょう！"
  },
  {
    "label": "Phase2_10F_First00",
    "text": "ふー、なんとかなったな ハチ！{{delay frames=\"30\"}}\nなんだったんだアレ？"
  },
  {
    "label": "Phase2_10F_First01",
    "text": "他のスケルトーンとは比べモノにならない強敵だっタナ{{delay frames=\"30\"}}\nヤツが落としたのは{{icon id=\"62\" arg=\"0x0000803F00000000\"}}{{color id=\"4\"}}ロッカーのカギ{{color id=\"65535\"}}か？"
  },
  {
    "label": "Phase2_10F_First02",
    "text": "なるほど…{{delay frames=\"30\"}} 各パレットで特定のフロアを初めてクリアすると{{delay frames=\"15\"}}\nそのパレットに対応するカギが出現するようですね"
  },
  {
    "label": "Phase2_10F_First03",
    "text": "じゃ、{{delay frames=\"15\"}}他のパレットで １０Ｆをクリアしたら\nまたカギが出てくんのか？"
  },
  {
    "label": "Phase2_10F_First04",
    "text": "その通りです センパイ！{{delay frames=\"30\"}}\nただ、{{delay frames=\"15\"}}このパレットでも まだカギをゲットできそうですよ"
  },
  {
    "label": "Phase2_10F_First05",
    "text": "ま、{{delay frames=\"15\"}}そっちは先へ進めば そのうち見つかるダロ"
  },
  {
    "label": "Phase2_10F_Rnd00_00",
    "text": "ハチさん、{{delay frames=\"15\"}}この先には さらに多くのスケルトーンがいるようです{{delay frames=\"30\"}}\n気をつけてくださいね"
  },
  {
    "label": "Phase2_10F_Rnd00_01",
    "text": "セイゼイ油断しないコトダ"
  },
  {
    "label": "Phase2_10F_Rnd00_02",
    "text": "敵さんの出方が変わろうが、やるコトは変わんねーよ{{delay frames=\"30\"}}\nだろ？{{delay frames=\"15\"}} ハチ！"
  },
  {
    "label": "Phase2_10F_Rnd01_00",
    "text": "まずは１０Ｆ突破ですね～！"
  },
  {
    "label": "Phase2_10F_Rnd01_01",
    "text": "フウ…{{delay frames=\"15\"}}とりあえず ひと区切りダナ"
  },
  {
    "label": "Phase2_10F_Rnd01_02",
    "text": "つっても まだまだこっからだ！{{delay frames=\"30\"}}\nテンションアゲてくぞ、{{delay frames=\"15\"}}ハチ！"
  },
  {
    "label": "Phase2_10F_Rnd02_00",
    "text": "よしよし、{{delay frames=\"15\"}}ここまでいい感じだよなー！"
  },
  {
    "label": "Phase2_10F_Rnd02_01",
    "text": "この調子なら きっと最上階まで行けますよ～♪"
  },
  {
    "label": "Phase2_10F_Rnd02_02",
    "text": "この先、スケルトーンたちは警カイを強めるダロウ{{delay frames=\"30\"}}\nあまり相手を あまく見ないコトダネ"
  },
  {
    "label": "Phase2_15F_First00",
    "text": "これで塔の半分を突破できたみたいダ{{delay frames=\"30\"}}\nヤレヤレ、まったくヤッカイな塔ダナ"
  },
  {
    "label": "Phase2_15F_First01",
    "text": "ハチ、つかれてねーか？{{delay frames=\"30\"}}\n次のフロアへ行く前に ちょっと休んどけよ"
  },
  {
    "label": "Phase2_15F_First02",
    "text": "ご負担をおかけしてしまって ホントにごめんなさい、{{delay frames=\"15\"}}\nワタシがオーダに乗っ取られたりしなければ…"
  },
  {
    "label": "Phase2_15F_First03",
    "text": "何言ってんだよ！{{delay frames=\"30\"}} イイダはなんも悪くねーじゃん！"
  },
  {
    "label": "Phase2_15F_First04",
    "text": "でも、{{delay frames=\"15\"}}ワタシが心のどこかで 何も変わらない静かな世界を\n望んでしまっていたのは本当なんです{{pageBreak}}きっとオーダは そんなワタシの心の弱さにつけこんで…"
  },
  {
    "label": "Phase2_15F_First05",
    "text": "変わるのがコワイなんて、べつにフツーの感情ダロ{{delay frames=\"30\"}}\n…ボクだって そんなふうに思うコトはあるしネ"
  },
  {
    "label": "Phase2_15F_First06",
    "text": "ミズタ…"
  },
  {
    "label": "Phase2_15F_First07",
    "text": "アタシにはそーゆーの よくわかんないけどさ…{{pageBreak}}イイダが まちがったコトしてないってのは確かだし、{{delay frames=\"15\"}}\nだれにも謝る必要なんかねーんだ"
  },
  {
    "label": "Phase2_15F_First08",
    "text": "だから景気悪そーな顔すんなって！{{delay frames=\"30\"}}\nアタシとハチで オーダを止めてやるから、まかせとけ！"
  },
  {
    "label": "Phase2_15F_First09",
    "text": "センパイ… {{delay frames=\"15\"}}ハチさん…"
  },
  {
    "label": "Phase2_15F_First10",
    "text": "いえ、{{delay frames=\"15\"}}おふたりだけには まかせません！{{delay frames=\"30\"}}\nワタシも精いっぱい 力をつくします！！"
  },
  {
    "label": "Phase2_15F_First11",
    "text": "アア、{{delay frames=\"15\"}}その意気ダ"
  },
  {
    "label": "Phase2_19F_First00",
    "text": "ハチさん、{{delay frames=\"15\"}}おそらく次のフロアは{{color id=\"4\"}}ボス{{color id=\"65535\"}}との戦いになります{{delay frames=\"30\"}}\nここは シンチョウにシンチョウを重ねて…"
  },
  {
    "label": "Phase2_19F_First01",
    "text": "イイダ 心配しすぎ！{{delay frames=\"30\"}}\nアタシもいるし、ハチならダイジョーブだって！"
  },
  {
    "label": "Phase2_19F_First02",
    "text": "セ、{{delay frames=\"15\"}}センパイ…"
  },
  {
    "label": "Phase2_19F_First03",
    "text": "おせっかいなトコは ムカシと変わらナイネ"
  },
  {
    "label": "Phase2_19F_First04",
    "text": "カワイイにカッコいいを重ねるヒメセンパイ…！{{delay frames=\"30\"}}\n尊すぎます～～っ！！"
  },
  {
    "label": "Phase2_19F_First05",
    "text": "ムカシとチガウトコも あるみたいダネ"
  },
  {
    "label": "Phase2_19F_Rnd00_00",
    "text": "次は２０Ｆか、{{delay frames=\"15\"}}ヤベーのが出てきそーだな"
  },
  {
    "label": "Phase2_19F_Rnd00_01",
    "text": "センパイとハチさんなら きっとダイジョウブです！{{delay frames=\"30\"}}\nでも…{{delay frames=\"15\"}}無理はしないでくださいね"
  },
  {
    "label": "Phase2_19F_Rnd01_00",
    "text": "もう２０Ｆまで来ましたね！{{delay frames=\"30\"}}\nこの調子で どんどん行きましょう～♪"
  },
  {
    "label": "Phase2_19F_Rnd01_01",
    "text": "ケド、{{delay frames=\"15\"}}次の相手は おそらくかなりの強敵ダ{{delay frames=\"30\"}}\n気をつけたほうがイイ"
  },
  {
    "label": "Phase2_19F_Rnd02_00",
    "text": "次はボスのフロアか…{{delay frames=\"30\"}}\nキビシイ戦いになるかもしれないナ"
  },
  {
    "label": "Phase2_19F_Rnd02_01",
    "text": "どんなヤツが相手でも やるっきゃねーんだろ？{{delay frames=\"30\"}}\n行くぞ、ハチ！"
  },
  {
    "label": "Phase2_20F_First00",
    "text": "やったな、ハチ！{{delay frames=\"30\"}}\nこのフロアでも {{icon id=\"62\" arg=\"0x0000803F00000000\"}}{{color id=\"4\"}}ロッカーのカギ{{color id=\"65535\"}}ゲットだ！"
  },
  {
    "label": "Phase2_20F_First01",
    "text": "にしてもオーダのやつ、{{delay frames=\"15\"}}あんなヤバイのよこしやがって…"
  },
  {
    "label": "Phase2_20F_First02",
    "text": "ネリバースを「色のない秩序の世界」にするために\nジャマはさせない、{{delay frames=\"15\"}}ということですね"
  },
  {
    "label": "Phase2_20F_First03",
    "text": "ダレも自分の意思を持たない世界か…{{delay frames=\"30\"}}\nココへ来る前にいた場所が まさにそんな感じダッタ"
  },
  {
    "label": "Phase2_20F_First04",
    "text": "ミズタ、{{delay frames=\"15\"}}もしかしてアナタは深海メトロに…？"
  },
  {
    "label": "Phase2_20F_First05",
    "text": "深海メトロって ハチがいたトコじゃん！！"
  },
  {
    "label": "Phase2_20F_First06",
    "text": "ボクは 深海メトロで何者かに意思をうばわれ、{{delay frames=\"15\"}}\nDJとして 音楽をかける作業をさせられていたンダ"
  },
  {
    "label": "Phase2_20F_First07",
    "text": "といっても、アソコでのキオクは ほとんどナイんだケド{{delay frames=\"15\"}}\nそういえば ダレカの声を聞いたヨウナ…？"
  },
  {
    "label": "Phase2_20F_First08",
    "text": "マアとにかく、{{delay frames=\"15\"}}あんな世界は二度とゴメンダヨ"
  },
  {
    "label": "Phase2_20F_First09",
    "text": "アナタが そんな目にあっていたなんて…"
  },
  {
    "label": "Phase2_20F_First10",
    "text": "じつはネリバースは、{{delay frames=\"15\"}}深海メトロで「消毒」され 操られてしまった\nオクタリアンの心を修復するために 開発したものなんです{{pageBreak}}ミズタが自分の意思を取りもどせたのは、{{delay frames=\"15\"}}\nその修復機能が うまく働いたからかもしれませんね"
  },
  {
    "label": "Phase2_20F_First11",
    "text": "ナルホド、{{delay frames=\"15\"}}イイダのおかげだったってワケ…{{delay frames=\"30\"}}\nずいぶんデカい借りができてしまっタナ"
  },
  {
    "label": "Phase2_20F_First12",
    "text": "おっしゃ！{{delay frames=\"30\"}} ネリバースをオーダから取りもどして{{delay frames=\"15\"}}\n他のタコたちも助けてやんねーとな！"
  },
  {
    "label": "Phase2_20F_Rnd00_00",
    "text": "あー勝った勝った！{{delay frames=\"30\"}}\n最上階まで もうひと息ってトコか？"
  },
  {
    "label": "Phase2_20F_Rnd00_01",
    "text": "ソウダネ、{{delay frames=\"15\"}}まだ気はぬけないケド"
  },
  {
    "label": "Phase2_20F_Rnd00_02",
    "text": "ネリバースが 「色のない秩序の世界」になってしまう前に{{delay frames=\"15\"}}\nワタシたちで必ず オーダを止めましょう！"
  },
  {
    "label": "Phase2_20F_Rnd01_00",
    "text": "センパイもハチさんも カッコよかったです～♪"
  },
  {
    "label": "Phase2_20F_Rnd01_01",
    "text": "さーて、{{delay frames=\"15\"}}とっととオーダのやつをブッ飛ばして\nイイダの大事なネリバースを取り返さねーとな！"
  },
  {
    "label": "Phase2_20F_Rnd01_02",
    "text": "そしたら、この戦いも終わり…{{delay frames=\"30\"}}ってワケ"
  },
  {
    "label": "Phase2_20F_Rnd02_00",
    "text": "センパイ、ハチさん、{{delay frames=\"15\"}}おかえりなさい～♪"
  },
  {
    "label": "Phase2_20F_Rnd02_01",
    "text": "ケガは…{{delay frames=\"15\"}}なさそうダネ"
  },
  {
    "label": "Phase2_20F_Rnd02_02",
    "text": "オーダのいる最上階まで もーちょいだよな？{{delay frames=\"30\"}}\nハチ！{{delay frames=\"15\"}} この感じで ガンガン攻めてくゾ！"
  },
  {
    "label": "Phase2_25F_First00",
    "text": "いい感じだな、ハチ！{{delay frames=\"30\"}}\nもうかなり上の方まで来たんじゃね？"
  },
  {
    "label": "Phase2_25F_First01",
    "text": "はい、{{delay frames=\"15\"}}最上階まであと少しです！"
  },
  {
    "label": "Phase2_25F_First02",
    "text": "ヨッシャー！{{delay frames=\"15\"}} このまま全部解決して\nさっさとワールドツアーにもどるゾ！"
  },
  {
    "label": "Phase2_25F_First03",
    "text": "「テンタクルズ」か…{{delay frames=\"30\"}}\nココから出て キミたちの音楽を聞くのが楽しみダ"
  },
  {
    "label": "Phase2_25F_First04",
    "text": "Yo！ Yo！{{delay frames=\"15\"}} 聞いてこしぬかすんじゃねーゾ？"
  },
  {
    "label": "Phase2_25F_First05",
    "text": "まだツアーの日程も少し残ってるし、{{delay frames=\"15\"}}よかったらミズタも\nハチさんといっしょに ライブに来てね♪"
  },
  {
    "label": "Phase2_25F_First06",
    "text": "アア、考えとくヨ{{delay frames=\"30\"}}\n…ヒコウキとか 乗ったコトないケド"
  },
  {
    "label": "Phase2_29F_First00",
    "text": "いよいよ最上階か…"
  },
  {
    "label": "Phase2_29F_First01",
    "text": "次のフロアには、きっとオーダがいるはず…"
  },
  {
    "label": "Phase2_29F_First02",
    "text": "ハチさん、{{delay frames=\"15\"}}ワタシもいっしょに行きます{{delay frames=\"30\"}}\nこんなコトになった原因は ワタシにもあるんですから"
  },
  {
    "label": "Phase2_29F_First03",
    "text": "イイダはブキ持ってねーんだぞ？！{{delay frames=\"15\"}} あぶねーじゃん！"
  },
  {
    "label": "Phase2_29F_First04",
    "text": "それでも、{{delay frames=\"15\"}}ワタシが行かなきゃいけないんです！"
  },
  {
    "label": "Phase2_29F_First05",
    "text": "…言い出したら聞かないんだヨナ"
  },
  {
    "label": "Phase2_29F_First06",
    "text": "イイダなら ブキなしでも自分の身くらい守れるダロ{{delay frames=\"30\"}}\n問題ないんじゃナイカ？"
  },
  {
    "label": "Phase2_29F_First07",
    "text": "ミズタ、ありがとう…！"
  },
  {
    "label": "Phase2_29F_First08",
    "text": "しゃーねーなー…{{delay frames=\"30\"}}\nあんまムチャすんなよ？"
  },
  {
    "label": "Phase2_29F_First09",
    "text": "はい、センパイ！！"
  },
  {
    "label": "Phase2_29F_First10",
    "text": "ミズタは来ねーんだな？"
  },
  {
    "label": "Phase2_29F_First11",
    "text": "足手マトイになるのはゴメンダ{{delay frames=\"30\"}}\nボクはココで キミたちの戦いをモニターしているヨ"
  },
  {
    "label": "Phase2_29F_First12",
    "text": "わかった、{{delay frames=\"15\"}}ならバッチリ見ててくれよな！{{delay frames=\"30\"}}\nいざとなったら イイダをたのむぞ！"
  },
  {
    "label": "Phase2_29F_First13",
    "text": "ヨッシャー準備はいいか？！{{delay frames=\"30\"}}\nハチ！{{delay frames=\"15\"}} イイダ！{{delay frames=\"15\"}} 決着をつけに行くぞ！！"
  },
  {
    "label": "Phase2_29F_Rnd00_00",
    "text": "フウ、{{delay frames=\"15\"}}ようやく最上階まで来タナ"
  },
  {
    "label": "Phase2_29F_Rnd00_01",
    "text": "オーダのやつめー！{{delay frames=\"30\"}}\n今度は おくれを取ったりしねーかんな！"
  },
  {
    "label": "Phase2_29F_Rnd00_02",
    "text": "ワタシも またハチさんたちと行きます！{{delay frames=\"30\"}}\n絶対にオーダを止めましょう！！"
  },
  {
    "label": "Phase2_29F_Rnd00_03",
    "text": "ボクはココで キミたちの戦いをモニターしていルヨ{{delay frames=\"30\"}}\n…あまり無理はしないようニネ"
  },
  {
    "label": "Phase2_29F_Rnd00_04",
    "text": "ッシャオラー！{{delay frames=\"30\"}} 今度こそ決着をつけるぞ！！"
  },
  {
    "label": "Phase2_29F_Rnd01_00",
    "text": "次は最上階…{{delay frames=\"30\"}} またオーダと戦うことになりますね"
  },
  {
    "label": "Phase2_29F_Rnd01_01",
    "text": "今回も いっしょに行かせてください！{{delay frames=\"30\"}}\nワタシにも 何かできるコトがあるかもしれませんし…"
  },
  {
    "label": "Phase2_29F_Rnd01_02",
    "text": "わかってるって、イイダ！{{delay frames=\"30\"}}\n巻きこまれねーようにだけ 気をつけろよ？"
  },
  {
    "label": "Phase2_29F_Rnd01_03",
    "text": "ボクは、行ったトコロで役に立てないシナ{{delay frames=\"30\"}}\nココで キミたちの戦いをモニターしていルヨ"
  },
  {
    "label": "Phase2_29F_Rnd01_04",
    "text": "ヨシッ！{{delay frames=\"30\"}} そんじゃ終わらせに行くか、ハチ！！"
  },
  {
    "label": "Phase2_ProgressMiddle_00_00",
    "text": "イイダ、{{delay frames=\"15\"}}エレベーターの中でも しょっちゅう\nパソコンいじってるけど何してんだ？"
  },
  {
    "label": "Phase2_ProgressMiddle_00_01",
    "text": "じつは、{{delay frames=\"15\"}}ハッキング可能な状態を保つために{{delay frames=\"15\"}}\nずっと塔のシステムを オーダとうばい合っているんです"
  },
  {
    "label": "Phase2_ProgressMiddle_00_02",
    "text": "さっきもパスを変えられそうになって…{{delay frames=\"30\"}}権限を分散管理するシステムは\n管理者側を取られると権限の伝播がうまくいかなくなっ…{{size value=\"75\"}}ブツブツ…{{size value=\"100\"}}"
  },
  {
    "label": "Phase2_ProgressMiddle_00_03",
    "text": "あー…{{delay frames=\"30\"}} そっとしといたほうがイイヨ"
  },
  {
    "label": "Phase2_ProgressMiddle_01_00",
    "text": "たっだいまー！！"
  },
  {
    "label": "Phase2_ProgressMiddle_01_01",
    "text": "おかえりなさ～い♪"
  },
  {
    "label": "Phase2_ProgressMiddle_01_02",
    "text": "なんか いつもの調子出てきた気がすんなー{{delay frames=\"30\"}}\nやっぱイイダがもどってきたからか？"
  },
  {
    "label": "Phase2_ProgressMiddle_01_03",
    "text": "助けてもらって ホント～～にありがとうございました！！{{delay frames=\"30\"}}\nハチさんもミズタも、{{delay frames=\"15\"}}今度何かお礼させてくださいね～"
  },
  {
    "label": "Phase2_ProgressMiddle_01_04",
    "text": "…べつにイイヨ{{delay frames=\"30\"}}\nボクはココから出られれば、{{delay frames=\"15\"}}それだけデ"
  },
  {
    "label": "Phase2_ProgressMiddle_01_05",
    "text": "た、{{delay frames=\"15\"}}たしかに まずはオーダをどうにかして 帰らないとだけど…{{delay frames=\"30\"}}\nそのあと絶対 お礼させてもらいますからっ！"
  },
  {
    "label": "Phase2_ProgressMiddle_02_00",
    "text": "それにしても ホントに久しぶり、{{delay frames=\"15\"}}ミズタ"
  },
  {
    "label": "Phase2_ProgressMiddle_02_01",
    "text": "何ダヨ、改まっテ…{{delay frames=\"30\"}} 最後に会ったのは、{{delay frames=\"15\"}}キミが\nタコワサ将軍の部隊に配属される前だったカ？"
  },
  {
    "label": "Phase2_ProgressMiddle_02_02",
    "text": "まだイイダが タコの世界にいたころ、{{delay frames=\"15\"}}ってコトだよな？"
  },
  {
    "label": "Phase2_ProgressMiddle_02_03",
    "text": "ハイ、{{delay frames=\"15\"}}もう８年ほど前の話ですね"
  },
  {
    "label": "Phase2_ProgressMiddle_02_04",
    "text": "８年？{{delay frames=\"30\"}} そんなに たってたんダナ…"
  },
  {
    "label": "Phase2_ProgressMiddle_02_05",
    "text": "アタシの知らないイイダのおもしれー話、{{delay frames=\"15\"}}いっぱいあんだろ？{{delay frames=\"30\"}}\nいろいろ聞かせてもらうぜ、ミズタ！"
  },
  {
    "label": "Phase2_ProgressMiddle_02_06",
    "text": "セ、{{delay frames=\"15\"}}センパイ～～～！"
  },
  {
    "label": "Phase2_ProgressUpper_00_00",
    "text": "ミズタ、{{delay frames=\"15\"}}ずっとエレベーターの中にいて ヒマじゃねーの？"
  },
  {
    "label": "Phase2_ProgressUpper_00_01",
    "text": "そうでもないサ、{{delay frames=\"15\"}}このエレベーターは放っておくと\n勝手にドコカへ行こうとするンダ"
  },
  {
    "label": "Phase2_ProgressUpper_00_02",
    "text": "ダレカが中にいて見張っておかないと、{{delay frames=\"15\"}}キミたちは\nフロアに閉じこめられて ジ・エンドってワケ"
  },
  {
    "label": "Phase2_ProgressUpper_00_03",
    "text": "えっ、マジかよ？！{{delay frames=\"30\"}} 気づかなかったわ…"
  },
  {
    "label": "Phase2_ProgressUpper_00_04",
    "text": "それはそれとして、{{delay frames=\"15\"}}ミズタって昔から\nカベ際とかせまい所とか 好きだったでしょ？"
  },
  {
    "label": "Phase2_ProgressUpper_00_05",
    "text": "そんなコトは…{{delay frames=\"30\"}}イヤ、{{delay frames=\"15\"}}たしかに\nこういう場所は 落ち着くような気もスルナ…"
  },
  {
    "label": "Phase2_ProgressUpper_01_00",
    "text": "ところでヒメ、{{delay frames=\"15\"}}キミとは前に ドコカで会ってたりしナイカ？"
  },
  {
    "label": "Phase2_ProgressUpper_01_01",
    "text": "え？！{{delay frames=\"30\"}} ちょっミズタ、{{delay frames=\"15\"}}まさかセンパイをナンパするつもりじゃ…"
  },
  {
    "label": "Phase2_ProgressUpper_01_02",
    "text": "イヤ、チガウから落ち着ケ{{delay frames=\"30\"}}\nなんとなくヒメの声に 聞き覚えがあるような気がシテサ"
  },
  {
    "label": "Phase2_ProgressUpper_01_03",
    "text": "さぁなー、{{delay frames=\"15\"}}アタシは覚えてねーけど{{delay frames=\"30\"}}\nどっかで昔のアタシの音源でも聞いたんじゃねーの？"
  },
  {
    "label": "Phase2_ProgressUpper_01_04",
    "text": "そうかもしれナイ{{delay frames=\"30\"}}\nケド、{{delay frames=\"15\"}}なんか引っかかるんだヨナ…"
  },
  {
    "label": "Phase2_ProgressUpper_02_00",
    "text": "そういえばイイダ、{{delay frames=\"15\"}}よくボクのコトがワカったナ？{{delay frames=\"30\"}}\nムカシとは だいぶ見た目がチガウダロ"
  },
  {
    "label": "Phase2_ProgressUpper_02_01",
    "text": "えっ？{{delay frames=\"30\"}} うん…でも、{{delay frames=\"15\"}}声とかフンイキですぐにわかったかな"
  },
  {
    "label": "Phase2_ProgressUpper_02_02",
    "text": "フーン、{{delay frames=\"15\"}}そんなもんカ"
  },
  {
    "label": "Phase2_ProgressUpper_02_03",
    "text": "写真とかねーの？{{delay frames=\"30\"}} 昔のイイダとミズタ、見てみてぇ！"
  },
  {
    "label": "Phase2_ProgressUpper_02_04",
    "text": "じつは、タコの世界を出る時に{{delay frames=\"15\"}}\n荷物はほとんど 置いてきてしまいまして…"
  },
  {
    "label": "Phase2_ProgressUpper_02_05",
    "text": "…さすがにキミの荷物は{{delay frames=\"15\"}} もう処分されてるだろうネ"
  },
  {
    "label": "Phase2_ProgressUpper_02_06",
    "text": "ううっ、{{delay frames=\"15\"}}思い出の品だけでも持って行けばよかった…"
  },
  {
    "label": "Phase3_00F_First00",
    "text": "Yo！ ミズタ、{{delay frames=\"15\"}}待たせたな！"
  },
  {
    "label": "Phase3_00F_First01",
    "text": "HEY、ハチにヒメ{{delay frames=\"30\"}}\n準備はできてるみたいダナ"
  },
  {
    "label": "Phase3_00F_First02",
    "text": "また このメンバーで塔を上れるのは\nちょっとうれしいかもです～♪"
  },
  {
    "label": "Phase3_00F_First03",
    "text": "目指すは最上階、{{delay frames=\"15\"}}コントロールルームだ！{{delay frames=\"30\"}}\nエレベーターで ビューンと行くゾッ！"
  },
  {
    "label": "Phase3_00F_First04",
    "text": "いちおう言っとくケド、{{delay frames=\"15\"}}１階ずつしか上がれナイヨ…"
  },
  {
    "label": "Phase3_00F_Rnd00_00",
    "text": "イイダ！{{delay frames=\"15\"}} 気合い注入のひとこと、{{delay frames=\"15\"}}よろしく！"
  },
  {
    "label": "Phase3_00F_Rnd00_01",
    "text": "あっ ハイ！{{delay frames=\"30\"}} え～と、{{delay frames=\"15\"}}ガンバです！"
  },
  {
    "label": "Phase3_00F_Rnd01_00",
    "text": "ハチ！{{delay frames=\"15\"}} 今回もたのんだゾ！"
  },
  {
    "label": "Phase3_00F_Rnd01_01",
    "text": "ヒメも {{delay frames=\"15\"}}ハチのサポートはまかせタヨ"
  },
  {
    "label": "Phase3_00F_Rnd02_00",
    "text": "準備はイイナ？{{delay frames=\"15\"}} それじゃ、行くとするカ"
  },
  {
    "label": "Phase3_00F_Rnd02_01",
    "text": "上へ参りま～す♪"
  },
  {
    "label": "Phase3_05F_First00",
    "text": "ッシャオラー ５Ｆ突破ぁ！{{delay frames=\"30\"}}\nシンジュもゲットだぜー！！"
  },
  {
    "label": "Phase3_05F_First01",
    "text": "ヒメセンパイ、ノリノリですね～♪"
  },
  {
    "label": "Phase3_05F_First02",
    "text": "ツアーは無事終わったけど、まだイイダとの約束があるかんな！{{delay frames=\"30\"}}\n早いとこ全部片づけて 遊びに行くゾ！"
  },
  {
    "label": "Phase3_05F_First03",
    "text": "セ、{{delay frames=\"15\"}}センパァァイ…！！"
  },
  {
    "label": "Phase3_05F_First04",
    "text": "…ハチ、{{delay frames=\"15\"}}このふたりはいつも こんなカンジなのカ？"
  },
  {
    "label": "Phase3_09F_First00",
    "text": "次って １０Ｆだよな{{delay frames=\"30\"}}\nてコトは、{{delay frames=\"15\"}}やっぱアレ？"
  },
  {
    "label": "Phase3_09F_First01",
    "text": "ボス、{{delay frames=\"15\"}}ですね"
  },
  {
    "label": "Phase3_09F_First02",
    "text": "オーダを倒しても 塔のシステムは変わらないようダナ"
  },
  {
    "label": "Phase3_09F_First03",
    "text": "そうなんです…{{delay frames=\"30\"}} パレットに問題があるとわかった今、{{delay frames=\"15\"}}\nヘタにシステムを修正するわけにもいかなくて…"
  },
  {
    "label": "Phase3_09F_First04",
    "text": "ま、{{delay frames=\"15\"}}ラクじゃなさそーだけど なんとかなるっしょ！{{delay frames=\"30\"}}\nやってやろうぜ、ハチ！"
  },
  {
    "label": "Phase3_10F_First00",
    "text": "ハチ、おつかれ！{{delay frames=\"30\"}}\nそのパレットのあつかいも 慣れたもんだな！"
  },
  {
    "label": "Phase3_10F_First01",
    "text": "そ－いや アタシとイイダのパレットがあったってことはさ、{{delay frames=\"15\"}}\nハチとミズタのパレットもあんのかな？"
  },
  {
    "label": "Phase3_10F_First02",
    "text": "ハチさんのは それらしい反応がありましたよ！{{delay frames=\"30\"}}\nただ、{{delay frames=\"15\"}}ミズタのパレットは無いようですね{{pageBreak}}おそらく タマシイがネリバースに取りこまれたとき、{{delay frames=\"15\"}}\nパレットに変わるよりも先に ミズタ自身に定着したのでしょう"
  },
  {
    "label": "Phase3_10F_First03",
    "text": "ラッキーだったのカナ？{{delay frames=\"30\"}} よくワカらないケド"
  },
  {
    "label": "Phase3_10F_First04",
    "text": "とりま、{{delay frames=\"15\"}}ハチのパレットは 例のロッカー開けてけば\nそのうち回収できるってコトだろ？"
  },
  {
    "label": "Phase3_10F_First05",
    "text": "ハチのタマシイを ほっとくワケにはいかねーし、{{delay frames=\"15\"}}\nロッカーのカギも集めてかないとな！"
  },
  {
    "label": "Phase3_15F_First00",
    "text": "そーいやオーダ…{{delay frames=\"15\"}} 今はコダコだっけ、{{delay frames=\"30\"}}\nアイツあれから どーしてんの？"
  },
  {
    "label": "Phase3_15F_First01",
    "text": "ワタシも気になって調べてみたのですが、{{delay frames=\"15\"}}\nネリバースから出たりは していないようです"
  },
  {
    "label": "Phase3_15F_First02",
    "text": "そして塔の外には反応がナカッタ{{delay frames=\"30\"}}\nつまり、{{delay frames=\"15\"}}この塔にいる可能性が高いってワケ"
  },
  {
    "label": "Phase3_15F_First03",
    "text": "現実世界に手を出せるほどの力はありませんし、{{delay frames=\"15\"}}\n放っておいても 心配はないと思うんですけど…"
  },
  {
    "label": "Phase3_15F_First04",
    "text": "なんかたくらんでやがったら めんどくせーな…"
  },
  {
    "label": "Phase3_15F_First05",
    "text": "ま、{{delay frames=\"15\"}}コダコの居場所は 引き続き探ってみるカラ\nボクたちにまかせるとイイ"
  },
  {
    "label": "Phase3_15F_First06",
    "text": "センパイとハチさんは フロアの攻略をお願いします！"
  },
  {
    "label": "Phase3_15F_First07",
    "text": "オッケー！{{delay frames=\"30\"}} んじゃ、次行くか ハチ！"
  },
  {
    "label": "Phase3_19F_First00",
    "text": "おつかれさまです、ハチさん！{{delay frames=\"30\"}}\n次はボスとの戦いですので 気をつけてくださいね"
  },
  {
    "label": "Phase3_19F_First01",
    "text": "イイダ！{{delay frames=\"15\"}} ボスを一発で倒せる ひっさつワザとかねーの？"
  },
  {
    "label": "Phase3_19F_First02",
    "text": "そうですね…{{delay frames=\"30\"}} ネリバースの開発中に試作していた\n「きらめいて☆スターライトボム」、{{delay frames=\"15\"}}使ってみますか？"
  },
  {
    "label": "Phase3_19F_First03",
    "text": "いいじゃん！{{delay frames=\"15\"}} そいつでボスをブッ飛ばそーぜ！！"
  },
  {
    "label": "Phase3_19F_First04",
    "text": "ただ少しイリョクがありすぎまして、{{delay frames=\"15\"}}シミュレーションの結果 \n８８.８％の確率で 塔が倒壊します"
  },
  {
    "label": "Phase3_19F_First05",
    "text": "フウインしといてクレ…"
  },
  {
    "label": "Phase3_20F_First00",
    "text": "たいしたものダネ、ハチ{{delay frames=\"30\"}}\nその強さは 一体どこから来るのヤラ…"
  },
  {
    "label": "Phase3_20F_First01",
    "text": "そーいやミズタ、{{delay frames=\"15\"}}なんか確かめたいコトがあって\nネリバースにもどってきたとか言ってたよな{{pageBreak}}確かめたいコトって、{{delay frames=\"15\"}}まさかハチの強さのヒミツとか？"
  },
  {
    "label": "Phase3_20F_First02",
    "text": "まさか！{{delay frames=\"15\"}} ボクはウデっぷしの強さには\nあんまりキョーミないンダ"
  },
  {
    "label": "Phase3_20F_First03",
    "text": "ふふふ…{{delay frames=\"30\"}} 戦いの訓練、{{delay frames=\"15\"}}よくサボってたもんね"
  },
  {
    "label": "Phase3_20F_First04",
    "text": "じゃー何が気になってんだよ？"
  },
  {
    "label": "Phase3_20F_First05",
    "text": "べつに ちょっとしたコトなんだケド…{{delay frames=\"30\"}}\nヒメ、{{delay frames=\"15\"}}キミは深海メトロに行ったコトは？"
  },
  {
    "label": "Phase3_20F_First06",
    "text": "えっ何だよ急に？{{delay frames=\"30\"}} 深海メトロには行ったことねーな、{{delay frames=\"15\"}}\nスグ近くまでは行ったけど…{{delay frames=\"15\"}} ５年くらい前？"
  },
  {
    "label": "Phase3_20F_First07",
    "text": "ハチさんを むかえに行った時ですよね！{{delay frames=\"30\"}}\nあの日のセンパイのシャウト、{{delay frames=\"15\"}}シビれちゃいました～♪"
  },
  {
    "label": "Phase3_20F_First08",
    "text": "ナルホド、{{delay frames=\"15\"}}やはりボクが聞いたアノ声は ヒメの…"
  },
  {
    "label": "Phase3_20F_First09",
    "text": "それってオマエの気になってるコトと なんか関係あんの？"
  },
  {
    "label": "Phase3_20F_First10",
    "text": "アア これでワカッタヨ{{delay frames=\"30\"}}\n…サンキュー、{{delay frames=\"15\"}}ヒメ"
  },
  {
    "label": "Phase3_20F_First11",
    "text": "ウン？{{delay frames=\"15\"}} よくわかんねーけど…{{delay frames=\"30\"}}\nどーいたしまして？"
  },
  {
    "label": "Phase3_25F_First00",
    "text": "ふー…{{delay frames=\"15\"}} だいぶ上ってきたな{{delay frames=\"30\"}}\nそろそろ最上階か？"
  },
  {
    "label": "Phase3_25F_First01",
    "text": "ハチさん、センパイ、{{delay frames=\"15\"}}おかえりなさい！{{delay frames=\"30\"}}\n聞いてください、{{delay frames=\"15\"}}コダコの居場所がわかったんです！"
  },
  {
    "label": "Phase3_25F_First02",
    "text": "マジか！{{delay frames=\"15\"}} あーでも、ここまでいなかったってコトは…{{delay frames=\"30\"}}\nなんとなく想像ついちまうな"
  },
  {
    "label": "Phase3_25F_First03",
    "text": "タブン ご想像の通りダヨ{{delay frames=\"30\"}}\nコダコは最上階のコントロールルームだ"
  },
  {
    "label": "Phase3_25F_First04",
    "text": "やっぱりかよー！"
  },
  {
    "label": "Phase3_25F_First05",
    "text": "なんかヤな予感するけど 行ってみるしかねーな{{delay frames=\"30\"}}\nハチ、{{delay frames=\"15\"}}とにかく上りきるぞ！"
  },
  {
    "label": "Phase3_29F_NotClr00_00",
    "text": "やっと最上階に着いたな{{delay frames=\"30\"}}\nコダコのやつは ここにいるんだっけ？"
  },
  {
    "label": "Phase3_29F_NotClr00_01",
    "text": "はい、{{delay frames=\"15\"}}やはりコントロールルームに 立てこもっているようです"
  },
  {
    "label": "Phase3_29F_NotClr00_02",
    "text": "大人しくパレットを再設定させてくれればイイケド…{{delay frames=\"30\"}}\nあまり期待できそうにナイネ"
  },
  {
    "label": "Phase3_29F_NotClr00_03",
    "text": "またアイツと戦うことになるかもしんねー{{delay frames=\"30\"}}\n気をつけろよ、ハチ！"
  },
  {
    "label": "Phase3_29F_NotClr01_00",
    "text": "次は最上階ダナ{{delay frames=\"30\"}}\nきっとまたコダコが ジャマしてくるダロウ"
  },
  {
    "label": "Phase3_29F_NotClr01_01",
    "text": "アイツ、{{delay frames=\"15\"}}なんであんなに 秩序の世界ってやつにこだわるんだ？"
  },
  {
    "label": "Phase3_29F_NotClr01_02",
    "text": "コダコ、{{delay frames=\"15\"}}というより オーダが生まれた理由がわかれば\n何かつかめると思うのですが…"
  },
  {
    "label": "Phase3_29F_NotClr01_03",
    "text": "ヤツが素直に教えてくれるとは思えナイヨ"
  },
  {
    "label": "Phase3_29F_NotClr01_04",
    "text": "とにかく今はパレットを再設定しねーとだな{{delay frames=\"30\"}}\n今度もたのむぞ、ハチ！"
  },
  {
    "label": "Phase3_29F_NotClr02_00",
    "text": "え～と、{{delay frames=\"15\"}}次は最上階なわけですが…"
  },
  {
    "label": "Phase3_29F_NotClr02_01",
    "text": "またコダコのやつと戦えってか…{{pageBreak}}この流れ、{{delay frames=\"15\"}}全部のパレット再設定するまで続くのかなー"
  },
  {
    "label": "Phase3_29F_NotClr02_02",
    "text": "コダコがあきらめない限りはネ"
  },
  {
    "label": "Phase3_29F_NotClr02_03",
    "text": "だーもう めんどくせー！{{delay frames=\"30\"}} なぁハチ、{{delay frames=\"15\"}}今度はオマエが\nコダコを説得してみてくれよー！"
  },
  {
    "label": "Phase3_29F_NotClr03_00",
    "text": "なぁ、{{delay frames=\"15\"}}前にコダコのやつ\n「ネリバースはみんなが作った」って言ってたよな？{{pageBreak}}ネリバースはイイダが作ったんだろ？{{delay frames=\"30\"}}\n「みんなが作った」って どゆコトだ？"
  },
  {
    "label": "Phase3_29F_NotClr03_01",
    "text": "ネリバースの開発は タコの技術者たちに手伝ってもらいましたが…{{delay frames=\"30\"}}\nもしかして、その方たちのことを言っているのでしょうか？"
  },
  {
    "label": "Phase3_29F_NotClr03_02",
    "text": "コダコと ネリバース開発者たちの間には{{delay frames=\"15\"}}\n何かツナガリがあるのかもしれないナ"
  },
  {
    "label": "Phase3_29F_NotClr03_03",
    "text": "てっとり早く コダコに聞いてみっか！"
  },
  {
    "label": "Phase3_29F_NotClr04_00",
    "text": "たしか オーダが生まれたのは、{{delay frames=\"15\"}}ネリバースの開発者たちが\n「変わらない世界」を望んだカラ {{delay frames=\"15\"}}って話だっタネ"
  },
  {
    "label": "Phase3_29F_NotClr04_01",
    "text": "なんでンなもん望んじまったんだかなー"
  },
  {
    "label": "Phase3_29F_NotClr04_02",
    "text": "もう少しコダコから 話を聞けるといいのですが…"
  },
  {
    "label": "Phase3_29F_NotClr04_03",
    "text": "コダコとは まだ何度も顔を合わせるコトになりそうダ{{delay frames=\"30\"}}\nそのうち 話すチャンスもあるかもナ"
  },
  {
    "label": "Phase3_29F_NotClr05_00",
    "text": "コダコは ワタシに裏切られたと思ってるみたいでしたね…"
  },
  {
    "label": "Phase3_29F_NotClr05_01",
    "text": "コダコが ネリバース開発者の願いから生まれたのナラ、{{delay frames=\"15\"}}\nネリバースを生み出したイイダも 親みたいなモノダ{{pageBreak}}フム…{{delay frames=\"30\"}} そのイイダに 自分の願望を理解してもらえなくテ{{delay frames=\"15\"}}\nカンシャクを起こしているのかもナ"
  },
  {
    "label": "Phase3_29F_NotClr05_02",
    "text": "なんにせよ、{{delay frames=\"15\"}}アイツの好きにはさせらんねーけどな"
  },
  {
    "label": "Phase3_29F_NotClr05_03",
    "text": "とにかくアタシたちは パレットを再設定するだけだ！{{delay frames=\"30\"}}\n行こうぜ、ハチ！"
  },
  {
    "label": "Phase3_29F_NotClr06_00",
    "text": "コダコの言っていた通り、{{delay frames=\"15\"}}たしかにタコの世界は\nこの数年で急速に変わりました"
  },
  {
    "label": "Phase3_29F_NotClr06_01",
    "text": "ネリバースの開発者たちは ソレを\n受け入れるコトができなかったんダナ"
  },
  {
    "label": "Phase3_29F_NotClr06_02",
    "text": "大切な場所やヒトの変化に とまどうキモチ、{{delay frames=\"15\"}}\nワタシには少しわかる気がします"
  },
  {
    "label": "Phase3_29F_NotClr06_03",
    "text": "いいほうに変わってんなら それでいーじゃん！{{delay frames=\"30\"}}\nって アタシは思うけどなー"
  },
  {
    "label": "Phase3_29F_NotClr06_04",
    "text": "なぁ、{{delay frames=\"15\"}}ハチはどう思う？"
  },
  {
    "label": "Phase3_29F_NotClr07_00",
    "text": "パレットの再設定、{{delay frames=\"15\"}}かなり進んだんじゃね？"
  },
  {
    "label": "Phase3_29F_NotClr07_01",
    "text": "はい、{{delay frames=\"15\"}}おかげさまで！"
  },
  {
    "label": "Phase3_29F_NotClr07_02",
    "text": "ネリバースにあるパレットのうち、{{delay frames=\"15\"}}\n半分以上は もう再設定できたはずです！"
  },
  {
    "label": "Phase3_29F_NotClr07_03",
    "text": "ッシャー！{{delay frames=\"15\"}} この調子で次もやってやろうぜ、ハチ！"
  },
  {
    "label": "Phase3_29F_NotClr08_00",
    "text": "ここまで いい感じですね♪{{delay frames=\"30\"}}\nいよいよ最上階です！"
  },
  {
    "label": "Phase3_29F_NotClr08_01",
    "text": "あとはコダコを押さえて パレットを再設定するだけダナ"
  },
  {
    "label": "Phase3_29F_NotClr08_02",
    "text": "もうアイツと何回バトったか覚えてねーぞ…{{delay frames=\"30\"}}\nそろそろ観念してくんねーかなー"
  },
  {
    "label": "Phase3_29F_NotClr08_03",
    "text": "ウーン、{{delay frames=\"15\"}}あまり期待しないほうがイイと思うケド…"
  },
  {
    "label": "Phase3_29F_NotClr09_00",
    "text": "コダコのやつ、{{delay frames=\"15\"}}意地でもパレットの再設定を\nさせないつもりっぽいよな"
  },
  {
    "label": "Phase3_29F_NotClr09_01",
    "text": "パレットの再設定が進んだところで{{delay frames=\"15\"}}\nコダコには何の関係もないはずなのですが…"
  },
  {
    "label": "Phase3_29F_NotClr09_02",
    "text": "じゃーなんで アタシらのジャマすんだ？{{delay frames=\"30\"}}\nもしかして腹いせってやつか？！"
  },
  {
    "label": "Phase3_29F_NotClr09_03",
    "text": "…フッ"
  },
  {
    "label": "Phase3_29F_NotClr09_04",
    "text": "おいミズタ、{{delay frames=\"15\"}}なんでソコで笑うんだよ"
  },
  {
    "label": "Phase3_29F_NotClr09_05",
    "text": "イヤ…{{delay frames=\"30\"}} コダコ本人に聞いてみたらイイんじゃナイカ？"
  },
  {
    "label": "Phase3_29F_NotClr10_00",
    "text": "さて…{{delay frames=\"15\"}} いよいよダネ"
  },
  {
    "label": "Phase3_29F_NotClr10_01",
    "text": "ハチさんのパレットの再設定が終われば もう安心です！"
  },
  {
    "label": "Phase3_29F_NotClr10_02",
    "text": "ハチさんも センパイも ミズタも、{{delay frames=\"15\"}}\n本当にありがとうございました！！"
  },
  {
    "label": "Phase3_29F_NotClr10_03",
    "text": "そーいうのは 全部終わってからでいーんだよ！"
  },
  {
    "label": "Phase3_29F_NotClr10_04",
    "text": "大事なハチのパレット、{{delay frames=\"15\"}}きっちり再設定しねーとな！{{delay frames=\"30\"}}\nッシャー行くぞ、ハチ！！"
  },
  {
    "label": "Phase3_29F_ClearedPlt00_00",
    "text": "よし、{{delay frames=\"15\"}}あとは最上階だけだな！"
  },
  {
    "label": "Phase3_29F_ClearedPlt00_01",
    "text": "デ、{{delay frames=\"15\"}}またコダコと戦うってワケ"
  },
  {
    "label": "Phase3_29F_ClearedPlt00_02",
    "text": "そうですね…{{delay frames=\"30\"}}でも、{{delay frames=\"15\"}}きっと何とかなりますよ！{{delay frames=\"30\"}}\nいっしょにガンバりましょう！"
  },
  {
    "label": "Phase3_29F_ClearedPlt01_00",
    "text": "おつかれさまでした！{{delay frames=\"30\"}}\nいよいよ 次は最上階ですね～"
  },
  {
    "label": "Phase3_29F_ClearedPlt01_01",
    "text": "またコダコのやつに ジャマされそーだけど、{{delay frames=\"15\"}}\nまーなんとかなるっしょ！"
  },
  {
    "label": "Phase3_29F_ClearedPlt01_02",
    "text": "自信があるのはイイケド、{{delay frames=\"15\"}}最後まで気をぬくナヨ"
  },
  {
    "label": "Phase3_29F_ClearedPlt02_00",
    "text": "そろそろ最上階に着くヨ"
  },
  {
    "label": "Phase3_29F_ClearedPlt02_01",
    "text": "コダコ、{{delay frames=\"15\"}}やっぱり今回も 戦いをいどんでくるでしょうか…"
  },
  {
    "label": "Phase3_29F_ClearedPlt02_02",
    "text": "あっちがやる気なら 受けて立つしかねーだろ{{delay frames=\"30\"}}\nやってやろーぜ、{{delay frames=\"15\"}}ハチ！"
  },
  {
    "label": "Phase3_29F_Complete00_00",
    "text": "よしよし、{{delay frames=\"15\"}}最上階にとーちゃくだな！"
  },
  {
    "label": "Phase3_29F_Complete00_01",
    "text": "ボクらはイッタイ 何回この塔を上ったんダロウ…"
  },
  {
    "label": "Phase3_29F_Complete00_02",
    "text": "とちゅうで数えるの やめちゃいましたね～…"
  },
  {
    "label": "Phase3_29F_Complete01_00",
    "text": "HEY、{{delay frames=\"15\"}}あとはコントロールルームを残すだけダヨ"
  },
  {
    "label": "Phase3_29F_Complete01_01",
    "text": "コダコのやつ、今いんのかなー？"
  },
  {
    "label": "Phase3_29F_Complete01_02",
    "text": "ず～っと コントロールルームにいるみたいですよ{{delay frames=\"30\"}}\n居心地がいいのかもしれませんね～"
  },
  {
    "label": "Phase3_29F_Complete02_00",
    "text": "あっ！{{delay frames=\"15\"}} もう次が最上階なんですね～"
  },
  {
    "label": "Phase3_29F_Complete02_01",
    "text": "きっとコダコが 首を長くして待っていルヨ"
  },
  {
    "label": "Phase3_29F_Complete02_02",
    "text": "アイツの首って どこ…？"
  },
  {
    "label": "Phase3_PreBoss_00_00",
    "text": "次は強敵との戦いになります{{delay frames=\"30\"}}\nハチさんもセンパイも どうか気をつけて…！"
  },
  {
    "label": "Phase3_PreBoss_00_01",
    "text": "油断するナヨ"
  },
  {
    "label": "Phase3_PreBoss_00_02",
    "text": "わかってるって！{{delay frames=\"15\"}} 準備できたら行くぞ、ハチ！"
  },
  {
    "label": "Phase3_PreBoss_01_00",
    "text": "次はボスとやんのかー{{delay frames=\"30\"}}\nつっても、{{delay frames=\"15\"}}アタシらにかかれば ヨユウっしょ！"
  },
  {
    "label": "Phase3_PreBoss_01_01",
    "text": "センパイ、カッコいい…"
  },
  {
    "label": "Phase3_PreBoss_01_02",
    "text": "ま、{{delay frames=\"15\"}}ガンバレ"
  },
  {
    "label": "Phase3_PreBoss_02_00",
    "text": "次のフロアは 強敵が相手ダ{{delay frames=\"30\"}}\nムヤミにつっこむナヨ"
  },
  {
    "label": "Phase3_PreBoss_02_01",
    "text": "あまり無理はしないでくださいね～"
  },
  {
    "label": "Phase3_PreBoss_02_02",
    "text": "ったく 心配すんなって！{{delay frames=\"30\"}} このアタシとハチが\nンな簡単に負けるわけねーだろ？"
  },
  {
    "label": "Phase3_PostBoss_00_00",
    "text": "センパイもハチさんも 無事でよかったです～！"
  },
  {
    "label": "Phase3_PostBoss_00_01",
    "text": "イイ動きしてたナ、{{delay frames=\"15\"}}さすがダヨ"
  },
  {
    "label": "Phase3_PostBoss_00_02",
    "text": "ッシャー！{{delay frames=\"15\"}} この感じ忘れずにいこーぜ、ハチ！"
  },
  {
    "label": "Phase3_PostBoss_01_00",
    "text": "わはは！{{delay frames=\"30\"}} どんなボスもアタシらの敵じゃねーなっ！"
  },
  {
    "label": "Phase3_PostBoss_01_01",
    "text": "ハチさんもセンパイも スゴイです～♪"
  },
  {
    "label": "Phase3_PostBoss_01_02",
    "text": "まったく、{{delay frames=\"15\"}}キミたちは敵に回したくないナ"
  },
  {
    "label": "Phase3_PostBoss_02_00",
    "text": "スゴイナ、ハチ{{delay frames=\"30\"}}\nやるヤツとは思ってたケド{{delay frames=\"15\"}} まさかコレホドとはネ"
  },
  {
    "label": "Phase3_PostBoss_02_01",
    "text": "お、やっとわかったか？{{delay frames=\"30\"}} ハチはスゲーだろ！"
  },
  {
    "label": "Phase3_PostBoss_02_02",
    "text": "センパイだって すっごくすっごくスゴイですよ！{{delay frames=\"30\"}}\nね、{{delay frames=\"15\"}}ミズタ！！"
  },
  {
    "label": "Phase3_PostBoss_02_03",
    "text": "あー{{delay frames=\"15\"}}ウン、{{delay frames=\"15\"}}ソウダネ"
  },
  {
    "label": "Phase3_PostBoss_03_00",
    "text": "ソレにしても、{{delay frames=\"15\"}}よくあんなのと戦えるヨナ{{delay frames=\"30\"}}\nコワイとは思わないノカ？"
  },
  {
    "label": "Phase3_PostBoss_03_01",
    "text": "ウゼェけど こわくはねーな{{delay frames=\"30\"}}\n最初の塔で戦った時の{{delay frames=\"15\"}} イイダのほうがこわかったし"
  },
  {
    "label": "Phase3_PostBoss_03_02",
    "text": "エッ？！{{delay frames=\"30\"}} そ、{{delay frames=\"15\"}}そうですか～～？"
  },
  {
    "label": "Phase3_PostBoss_03_03",
    "text": "そーだよ！{{delay frames=\"30\"}} あのままイイダが元にもどらなかったら\nとか考えるとさぁ…{{delay frames=\"30\"}}なんかこえーじゃん"
  },
  {
    "label": "Phase3_PostBoss_03_04",
    "text": "センパイ………！！！"
  },
  {
    "label": "Phase3_PostBoss_03_05",
    "text": "エート……{{delay frames=\"30\"}}なんていうか{{delay frames=\"15\"}}\nハチ、{{delay frames=\"15\"}}キミがいてくれてヨカッタヨ"
  },
  {
    "label": "Phase3_Chat_00_00",
    "text": "そのブキ、{{delay frames=\"15\"}}すっかりハチの手になじんでルナ"
  },
  {
    "label": "Phase3_Chat_00_01",
    "text": "ブキっていえば、{{delay frames=\"15\"}}アタシのパレットのブキって マニューバーじゃん？{{delay frames=\"30\"}}\n一番好きなやつだから {{delay frames=\"15\"}}なんかうれしーんだなー"
  },
  {
    "label": "Phase3_Chat_00_02",
    "text": "ふふふ…{{delay frames=\"30\"}} パレットには、{{delay frames=\"15\"}}元になったタマシイの持ち主と\n相性のいいブキが 自動でセットされるんです！"
  },
  {
    "label": "Phase3_Chat_00_03",
    "text": "へー、そうなのか！{{delay frames=\"30\"}} だからイイダのはシェルターなんだな"
  },
  {
    "label": "Phase3_Chat_00_04",
    "text": "シェルターなんてブキ、{{delay frames=\"15\"}}ココに来るまで聞いたコトもなかっタナ"
  },
  {
    "label": "Phase3_Chat_00_05",
    "text": "シェルターは、{{delay frames=\"15\"}}数年前に出てきた 新しめのブキでね！"
  },
  {
    "label": "Phase3_Chat_00_06",
    "text": "こう、バサッ！{{delay frames=\"15\"}} バンバ～ン！{{delay frames=\"30\"}} バシュ～～ッ！！{{delay frames=\"30\"}}\nって感じで{{delay frames=\"15\"}} とっても楽しいの～っ♪"
  },
  {
    "label": "Phase3_Chat_00_07",
    "text": "…ウン、{{delay frames=\"15\"}}楽しそうなコトは よくワカッタヨ"
  },
  {
    "label": "Phase3_Chat_01_00",
    "text": "ふー…{{delay frames=\"30\"}} さぁ、こっからだ！"
  },
  {
    "label": "Phase3_Chat_01_01",
    "text": "もうスケルトーンの顔も見あきタナ"
  },
  {
    "label": "Phase3_Chat_01_02",
    "text": "スケルトーンは もともと塔のスタッフみたいなものでして、{{delay frames=\"15\"}}\nオーダに改造されてしまったせいで こんなコトに…"
  },
  {
    "label": "Phase3_Chat_01_03",
    "text": "ワタシが用意したデザインだと、{{delay frames=\"15\"}}\nもうちょっと かわいかったんですけど"
  },
  {
    "label": "Phase3_Chat_01_04",
    "text": "今はキョーアクって感じだよな"
  },
  {
    "label": "Phase3_Chat_01_05",
    "text": "ううっ、{{delay frames=\"15\"}}本来のカワイイ姿をお見せしたいです～っ"
  },
  {
    "label": "Phase3_Chat_02_00",
    "text": "そういえばミズタ、{{delay frames=\"15\"}}昔ワタシが作ったゲーム覚えてる？{{delay frames=\"30\"}}\nタコゾネス仲間の中でも ミズタしかクリアできなかった…"
  },
  {
    "label": "Phase3_Chat_02_01",
    "text": "アア、あのキチク難易度の音ゲーか{{delay frames=\"30\"}}\nなつかしいナ…{{delay frames=\"30\"}}思い出すだけでハきそうダ"
  },
  {
    "label": "Phase3_Chat_02_02",
    "text": "アレの、{{delay frames=\"15\"}}さらに難易度をアップした続編を作ったんだけどね"
  },
  {
    "label": "Phase3_Chat_02_03",
    "text": "ハ？{{delay frames=\"15\"}} なんで難しくシタ？{{delay frames=\"30\"}} もっと判定ユルくして\nノーツを少なくシロって サンザン言ったダロ！"
  },
  {
    "label": "Phase3_Chat_02_04",
    "text": "で、{{delay frames=\"15\"}}でも あんまり簡単じゃつまらないと思って…{{delay frames=\"30\"}}\nセンパイも あっさりクリアしちゃいましたし…"
  },
  {
    "label": "Phase3_Chat_02_05",
    "text": "あんなの音聞いてボタン押すだけだろ？{{delay frames=\"30\"}}\nどこがムズいんだよ？"
  },
  {
    "label": "Phase3_Chat_02_06",
    "text": "マジカ…"
  },
  {
    "label": "Phase3_Chat_03_00",
    "text": "なーなー ミズター{{delay frames=\"15\"}}\n昔のイイダのオモシロエピソードとかねーの？"
  },
  {
    "label": "Phase3_Chat_03_01",
    "text": "ちょ、{{delay frames=\"15\"}}センパイ…"
  },
  {
    "label": "Phase3_Chat_03_02",
    "text": "ソウダナ…{{delay frames=\"30\"}} なんかショベルカーについて２時間くらい\nひとりで語ってたのは覚えてるケド"
  },
  {
    "label": "Phase3_Chat_03_03",
    "text": "マジかよ！{{delay frames=\"15\"}} 昔のイイダって…{{delay frames=\"30\"}}そんなに話が短かったのか？"
  },
  {
    "label": "Phase3_Chat_03_04",
    "text": "あのころはワタシも未熟でしたから…{{delay frames=\"30\"}} でも今なら\n油圧ショベルの真のミリョクを精密かつ正確に伝える自信が"
  },
  {
    "label": "Phase3_Chat_03_05",
    "text": "HEY ハチ、{{delay frames=\"15\"}}そろそろ次のフロアの準備を始めヨウ"
  },
  {
    "label": "Phase3_Chat_04_00",
    "text": "にしても、ワールドツアー終わっちゃったなー{{delay frames=\"30\"}}\nマジでチョー楽しかった！{{delay frames=\"30\"}} 早くまたやりてぇー！！"
  },
  {
    "label": "Phase3_Chat_04_01",
    "text": "スゴイ盛り上がりだっタネ{{delay frames=\"30\"}}\n客席の熱キョウぶりも なんていうカ…{{delay frames=\"15\"}}異様なくらいだっタヨ"
  },
  {
    "label": "Phase3_Chat_04_02",
    "text": "あっ？！{{delay frames=\"15\"}} もしかして…"
  },
  {
    "label": "Phase3_Chat_04_03",
    "text": "ん？{{delay frames=\"15\"}} どーした？"
  },
  {
    "label": "Phase3_Chat_04_04",
    "text": "オーダと戦った時のセンパイの声が ネリバースにアクセス可能なヒトの\n無意識に干渉を？{{delay frames=\"15\"}} そんなこと…でも理論上はあり得るかも…{{size value=\"75\"}}ブツブツ…{{size value=\"100\"}}"
  },
  {
    "label": "Phase3_Chat_04_05",
    "text": "ま、{{delay frames=\"15\"}}ヒメの声には タマシイをゆさぶる力があるってコトかナ"
  },
  {
    "label": "Phase3_Chat_05_00",
    "text": "ねぇミズタ、{{delay frames=\"15\"}}ワタシがタコの世界を出て行った時{{delay frames=\"15\"}}\nやっぱりみんな おこってた…？"
  },
  {
    "label": "Phase3_Chat_05_01",
    "text": "おこるっていうカ、{{delay frames=\"15\"}}みんなビビッてたネ{{delay frames=\"30\"}}\nエリートのキミが姿を消すなんて 信じられなかったんダロ"
  },
  {
    "label": "Phase3_Chat_05_02",
    "text": "あはは！{{delay frames=\"15\"}} イイダもやるときゃやるよなー！"
  },
  {
    "label": "Phase3_Chat_05_03",
    "text": "あの時は もう無我夢中で…{{delay frames=\"30\"}}\n何も言わずに出て行って ホントにごめんなさい"
  },
  {
    "label": "Phase3_Chat_05_04",
    "text": "今さら謝るナヨ…{{delay frames=\"30\"}} ボクはべつに気にしてナイ"
  },
  {
    "label": "Phase3_Chat_05_05",
    "text": "昔のダチだろーが、イイダを悪く言うヤツがいたら\nアタシに言えよ？{{delay frames=\"30\"}} 相手になってやるかんな！！"
  },
  {
    "label": "Phase3_Chat_05_06",
    "text": "ありがとうございます、センパイ…！{{delay frames=\"30\"}} カッコいい…"
  },
  {
    "label": "Phase3_Chat_06_00",
    "text": "イイダ！{{delay frames=\"15\"}} このエレベーター、遊園地のアトラクションみたく{{delay frames=\"15\"}}\n上下にギュンギュン動くようにしたら 楽しーんじゃね？"
  },
  {
    "label": "Phase3_Chat_06_01",
    "text": "ダメです！{{delay frames=\"15\"}} エレベーターの中でセンパイが\nシェイクされちゃいます～！"
  },
  {
    "label": "Phase3_Chat_07_00",
    "text": "はあぁ………"
  },
  {
    "label": "Phase3_Chat_07_01",
    "text": "どーした、イイダ？{{delay frames=\"15\"}} つかれちまったか？"
  },
  {
    "label": "Phase3_Chat_07_02",
    "text": "ハッ、{{delay frames=\"15\"}}すいません！{{delay frames=\"30\"}} ドローン姿のセンパイが\nあんまりカワイイので つい見とれちゃってました"
  },
  {
    "label": "Phase3_Chat_07_03",
    "text": "…元気みたいダネ"
  },
  {
    "label": "Phase3_Chat_08_00",
    "text": "ヤベーっ！{{delay frames=\"30\"}} 飛行機の中に カサ忘れてきちゃったかも！"
  },
  {
    "label": "Phase3_Chat_08_01",
    "text": "ええっ？！{{delay frames=\"15\"}} ツアーの帰りですか？"
  },
  {
    "label": "Phase3_Chat_08_02",
    "text": "とりあえず 空港に問い合わせたらドウダ？"
  },
  {
    "label": "Phase3_Chat_08_03",
    "text": "いや、{{delay frames=\"15\"}}飛行機なら ウチの庭に停めてあっから\nあとで取りに行くわ"
  },
  {
    "label": "Phase3_Chat_08_04",
    "text": "庭？{{delay frames=\"30\"}} …ヒコウキの話をしてるんだヨナ？"
  },
  {
    "label": "Phase3_Chat_09_00",
    "text": "この姿だと、メチャ高い所から イイダを見下ろせるんだよなー{{delay frames=\"30\"}}\n豆つぶみたいに見えて おもしれー！"
  },
  {
    "label": "Phase3_Chat_09_01",
    "text": "あんまり高い所まで行くと 風に流されちゃいますよ…"
  },
  {
    "label": "Hint_CollectionEnm_00",
    "text": "この調子で行くぞ、ハチ！"
  },
  {
    "label": "Hint_CollectionEnm_01",
    "text": "ハチさん、{{delay frames=\"15\"}}スケルトーンとの戦いで収集したデータは\n{{color id=\"4\"}}スケルトーンずかん{{color id=\"65535\"}}に記録していますよ"
  },
  {
    "label": "Hint_CollectionEnm_02",
    "text": "弱点なんかも メモしてたりするカラ、{{delay frames=\"15\"}}\nときどき{{icon id=\"82\" arg=\"0x0000803F00000000\"}}でチェックするとイイ"
  },
  {
    "label": "Hint_SelectTip_00",
    "text": "いい感じだな、ハチ！"
  },
  {
    "label": "Hint_SelectTip_01",
    "text": "そういえばハチさん、{{delay frames=\"15\"}}塔で支給されるカラーチップは\nパレットによって {{color id=\"4\"}}出やすい系統{{color id=\"65535\"}}が決まっているんです"
  },
  {
    "label": "Hint_SelectTip_02",
    "text": "いま使ってるパレットで どの系統のカラーチップが出やすいかは{{delay frames=\"15\"}}\n{{icon id=\"72\" arg=\"0x0000803F00000000\"}}でチェックできますよ♪"
  },
  {
    "label": "Hint_SelectTip_03",
    "text": "どのカラーチップを取るか迷っタラ、{{delay frames=\"15\"}}とりあえず\n出やすい系統のヤツを選ぶのも アリかもナ"
  },
  {
    "label": "Hint_Cage_00",
    "text": "いいペースだな、ハチ！"
  },
  {
    "label": "Hint_Cage_01",
    "text": "そういえばハチ、{{delay frames=\"15\"}}前にも言ったケド\nケージは{{icon id=\"75\" arg=\"0xEC51383FFEFFFFFF\"}}を倒すとスピードアップするヨ"
  },
  {
    "label": "Hint_Cage_02",
    "text": "のんびり乗っていくのもアリですが、{{delay frames=\"15\"}}\n急ぐときは ビュ～ンと飛ばしちゃいましょ～♪"
  },
  {
    "label": "Hint_LookPalette_00",
    "text": "ッシャー！ どんどんいくぞー！"
  },
  {
    "label": "Hint_LookPalette_01",
    "text": "さーて、次もらえるカラーチップは何だ？{{delay frames=\"30\"}}\nメッチャ強いやつ来ねーかなー"
  },
  {
    "label": "Hint_LookPalette_02",
    "text": "持ってるのと同じチップを 追加で取るのもアリダヨ{{delay frames=\"30\"}}\n何枚も集めるコトで 真価をハッキするカラーチップもあるンダ"
  },
  {
    "label": "Hint_LookPalette_03",
    "text": "今持っているカラーチップを確認したくなったら{{delay frames=\"15\"}}\n{{icon id=\"72\" arg=\"0x0000803F00000000\"}}でパレットをチェックしてくださいね♪"
  },
  {
    "label": "Hint_HackingRetry_00",
    "text": "っしゃ、{{delay frames=\"15\"}}まだまだ気をぬくなよ ハチ！"
  },
  {
    "label": "Hint_HackingRetry_01",
    "text": "ハチさん、{{delay frames=\"15\"}}もし塔を上りきれなかったとしても{{delay frames=\"15\"}}\n最後にたどり着いたフロアまでの記録は残るんです{{pageBreak}}塔の外でワタシに言ってもらえたら{{delay frames=\"15\"}}\n過去に追い出されたフロアから{{color id=\"4\"}}リトライ{{color id=\"65535\"}}できますよ！"
  },
  {
    "label": "Hint_HackingRetry_02",
    "text": "なら思いっきり攻めてこーぜ！{{delay frames=\"30\"}}\n当たってくだけろってな！{{delay frames=\"15\"}} わはは！"
  },
  {
    "label": "Hint_HackingRetry_03",
    "text": "マア、{{delay frames=\"15\"}}くだけないほうがイイんだケドネ"
  },
  {
    "label": "Hint_CollectionInElv_00",
    "text": "ウン、{{delay frames=\"15\"}}今のトコロ順調ダナ{{delay frames=\"30\"}}\nこの調子で カラーチップを集めながら進モウ"
  },
  {
    "label": "Hint_CollectionInElv_01",
    "text": "そうだハチ、{{delay frames=\"15\"}}手に入れたカラーチップの情報は\n{{color id=\"4\"}}カラーチップコレクション{{color id=\"65535\"}}にまとめていルヨ"
  },
  {
    "label": "Hint_CollectionInElv_02",
    "text": "エレベーターに乗っている間は{{icon id=\"82\" arg=\"0x0000803F00000000\"}}で\nカラーチップコレクションを見ることができますよ♪"
  },
  {
    "label": "Hint_CollectionInElv_03",
    "text": "へぇー {{delay frames=\"15\"}}何が書いてあんだろな？{{delay frames=\"30\"}}\nときどきチェックしてみようぜ、ハチ！"
  },
  {
    "label": "Hint_Difficulty_02",
    "text": "ハチさん、{{delay frames=\"15\"}}クリアほうしゅうのネリコインは\n難しいフロアほど多くもらえるんです"
  },
  {
    "label": "Hint_Difficulty_03",
    "text": "ネリコインが足りなくなったら、{{delay frames=\"15\"}}あえて難しいフロアに\nチャレンジしてみるのもアリですよ♪"
  },
  {
    "label": "Hint_Difficulty_05",
    "text": "そういえば、{{delay frames=\"15\"}}ドコカのジイサンが エラそうに{{delay frames=\"15\"}}\n「クロウスルホド{{delay frames=\"15\"}} ゴハンガ オイシクナル」{{delay frames=\"15\"}}とか よく言ってタナ"
  },
  {
    "label": "Hint_Difficulty_06",
    "text": "あははっ なつかしい～！{{delay frames=\"30\"}}\nそのあと絶対 「ギギ…」{{delay frames=\"15\"}}って、ワサビを取り出して～…"
  },
  {
    "label": "Hint_Difficulty_07",
    "text": "なんだそりゃ、{{delay frames=\"15\"}}タコにも変わったジジィがいんのなー{{delay frames=\"30\"}}\nハチも知ってるヤツか？"
  },
  {
    "label": "Hint_Drone_00",
    "text": "よーし、どんどん上ってくぞ！{{delay frames=\"30\"}}\nこっからもサポートは アタシにまかせとけ！"
  },
  {
    "label": "Hint_Drone_01",
    "text": "そうそう、センパイの…{{delay frames=\"30\"}}ドローンの性能をアップするには\nハッキングが必要不可欠なんです{{pageBreak}}たとえば、{{delay frames=\"15\"}}センパイを強化するための{{color id=\"4\"}}カラーチップ{{color id=\"65535\"}}が\n塔で出てくるように設定することもできますし…"
  },
  {
    "label": "Hint_Drone_02",
    "text": "センパイの{{color id=\"4\"}}行動スロット{{color id=\"65535\"}}を追加して、{{delay frames=\"15\"}}同時にセットしておける\nサポート行動の数を増やすこともできるんですよ～"
  },
  {
    "label": "Hint_Drone_03",
    "text": "マジ？！{{delay frames=\"15\"}} いーじゃん、それ！"
  },
  {
    "label": "Hint_Drone_04",
    "text": "ドローンの設定は 他にもいろいろありますので、{{delay frames=\"15\"}}\n見てみたくなったら 塔の外でワタシに言ってくださいね♪"
  },
  {
    "label": "Hint_CompleteTip_00",
    "text": "ウンウン、順調ですね～♪"
  },
  {
    "label": "Hint_CompleteTip_01",
    "text": "なぁイイダ！{{delay frames=\"15\"}} カラーチップコレクション見たら\nチップが線でつながってたんだけどさー、{{delay frames=\"15\"}}アレなに？"
  },
  {
    "label": "Hint_CompleteTip_02",
    "text": "エッ？{{delay frames=\"30\"}} う～ん、{{delay frames=\"15\"}}つながっているのは まったく同じ色の\nカラーチップみたいですが、{{delay frames=\"15\"}}それ以上のことは…"
  },
  {
    "label": "Hint_CompleteTip_03",
    "text": "ま、{{delay frames=\"15\"}}カラーチップを集めていけば ワカるんじゃナイカ？{{delay frames=\"30\"}}\nもしかしたら 何かイイコトあるかもナ"
  },
  {
    "label": "Hint_CompleteEnm_00",
    "text": "ハチさん、この調子で行きましょう！"
  },
  {
    "label": "Hint_CompleteEnm_01",
    "text": "ところでハチ、{{delay frames=\"15\"}}スケルトーンずかんのデータは\n相手を倒した数に応じて増えていくヨ"
  },
  {
    "label": "Hint_CompleteEnm_02",
    "text": "すべてのデータを集められたら\nスケルトーン博士になれちゃいそうですね～♪"
  },
  {
    "label": "Hint_CompleteEnm_03",
    "text": "ソレって うれしいノカ…？"
  },
  {
    "label": "Hint_CompleteEnm_04",
    "text": "べつに ハカセにはならなくていーけど、{{delay frames=\"15\"}}\nなんかイイコトあったりしねーかな？"
  },
  {
    "label": "Hint_FleaMarket_00",
    "text": "よしよし、{{delay frames=\"15\"}}この感じでいけば 今回はシンジュを\nガッポリもらえるかもしんねーな！"
  },
  {
    "label": "Hint_FleaMarket_01",
    "text": "そういえば…{{delay frames=\"15\"}} 塔の外に アヤシゲな店があったネ{{delay frames=\"30\"}}\nシンジュと引きかえで イロイロ売ってるようだったケド"
  },
  {
    "label": "Hint_FleaMarket_02",
    "text": "あの店、{{delay frames=\"15\"}}オキモノとかギアとか買えるっぽいぞ！{{delay frames=\"30\"}}\nシンジュが余ったら 行ってみっか！"
  },
  {
    "label": "Hint_FleaMarket_03",
    "text": "アレッ？{{delay frames=\"30\"}} ワタシ、{{delay frames=\"15\"}}ネリバースにそんなお店\n作りましたっけ…？"
  },
  {
    "label": "Hint_JemHardMode_00",
    "text": "そうだハチさん、{{delay frames=\"30\"}}どうせなら一度にたくさんシンジュが欲しい…{{delay frames=\"15\"}}\nなんて思ったことはありませんか？"
  },
  {
    "label": "Hint_JemHardMode_01",
    "text": "そんなときは{{delay frames=\"15\"}} 「{{color id=\"4\"}}ハイリスクハイリターン{{color id=\"65535\"}}」の\nハッキングがオススメですよ～♪"
  },
  {
    "label": "Hint_JemHardMode_02",
    "text": "なんと、{{delay frames=\"15\"}}塔を最後までクリアしたときに入手できる\nシンジュの数を増やすことができちゃうんです！"
  },
  {
    "label": "Hint_JemHardMode_03",
    "text": "その代わり、{{delay frames=\"15\"}}とちゅうで塔を追い出された場合は{{delay frames=\"15\"}}\n１コも シンジュをもらえなくなってしまうのですが…"
  },
  {
    "label": "Hint_JemHardMode_04",
    "text": "ふーん？{{delay frames=\"15\"}} 最後までクリアして シンジュを多めにゲットするか、{{delay frames=\"15\"}}\n失敗して１コもゲットせず終わるかの どっちかってコトか"
  },
  {
    "label": "Hint_JemHardMode_05",
    "text": "その通りです！{{delay frames=\"15\"}} まさにハイリスクハイリターン！{{delay frames=\"30\"}}\nウデに自信のある方に オススメのハッキングです♪"
  },
  {
    "label": "Hint_JemHardMode_06",
    "text": "なんかノリがCMみたいダヨ"
  },
  {
    "label": "Hint_JemHardMode_07",
    "text": "最近そんなに CMの仕事してたっけか？"
  },
  {
    "label": "Hint_RechooseStage_00",
    "text": "おかえり ハチ{{delay frames=\"30\"}}\nさて、{{delay frames=\"15\"}}次はどんなフロアが出てくるカナ"
  },
  {
    "label": "Hint_RechooseStage_01",
    "text": "そういえばハチさん、{{delay frames=\"15\"}}フロアのお題やカラーチップが\nイマイチだと感じたことはありませんか？"
  },
  {
    "label": "Hint_RechooseStage_02",
    "text": "そんなときは{{icon id=\"73\" arg=\"0x0000803F00000000\"}}で{{color id=\"4\"}}フロアリセット{{color id=\"65535\"}}！{{delay frames=\"30\"}} ネリコインを使って\nフロアの中身を ３つともリセットできちゃいますよ～"
  },
  {
    "label": "Hint_RechooseStage_03",
    "text": "フロアリセットを使うには 事前にハッキングが必要なので、{{delay frames=\"15\"}}\nハッキングがまだでしたら 塔の外でワタシに言ってくださいね♪"
  }
]