[
  {
    "label": "IdolA",
    "text": "Pasquale"
  },
  {
    "label": "IdolB",
    "text": "Angie"
  },
  {
    "label": "IdolC",
    "text": "Raimi"
  },
  {
    "label": "Atarime",
    "text": "Macalamar"
  },
  {
    "label": "AtarimeHimono",
    "text": "Macalamar"
  },
  {
    "label": "Aori",
    "text": "Ayo"
  },
  {
    "label": "Hotaru",
    "text": "Oly"
  },
  {
    "label": "Commander",
    "text": "amiral"
  },
  {
    "label": "Ichigou",
    "text": "Numéro 1"
  },
  {
    "label": "Nigou",
    "text": "Numéro 2"
  },
  {
    "label": "Sangou",
    "text": "Numéro 3"
  },
  {
    "label": "Yongou",
    "text": "Numéro 4"
  },
  {
    "label": "Hachigou",
    "text": "Numéro 8"
  },
  {
    "label": "Hachi",
    "text": "Huit"
  },
  {
    "label": "Hime",
    "text": "Perle"
  },
  {
    "label": "Iida",
    "text": "Coralie"
  },
  {
    "label": "Takowasa",
    "text": "DJ Octave"
  },
  {
    "label": "Kumasan",
    "text": "M. Ours"
  },
  {
    "label": "RealKumasan",
    "text": "M. Ours"
  },
  {
    "label": "KumasanOnlyName",
    "text": "M. Ours"
  },
  {
    "label": "Mystery",
    "text": "Voix mystérieuse"
  },
  {
    "label": "WeaponShop",
    "text": "Cartouche"
  },
  {
    "label": "Judge",
    "text": "Charbitre"
  },
  {
    "label": "JudgeJr",
    "text": "Mini Charbitre"
  },
  {
    "label": "GearShopHead",
    "text": "Arnaud Till"
  },
  {
    "label": "GearShopHead_Sub",
    "text": "Alex Cargo"
  },
  {
    "label": "GearShopClothes",
    "text": "Mehdi"
  },
  {
    "label": "GearShopShoes",
    "text": "M. Coco"
  },
  {
    "label": "GoodsShop",
    "text": "Monia"
  },
  {
    "label": "FoodShop",
    "text": "Omar"
  },
  {
    "label": "Vendor",
    "text": "Tipik"
  },
  {
    "label": "Dolphin",
    "text": "O.R.C.A."
  },
  {
    "label": "Mother",
    "text": "Carpucine"
  },
  {
    "label": "MotherFoodShop",
    "text": "Vendeuse"
  },
  {
    "label": "MotherWalk",
    "text": "Guide"
  },
  {
    "label": "MotherMiniGame",
    "text": "Hôtesse"
  },
  {
    "label": "UnknownTalker_00",
    "text": "???"
  },
  {
    "label": "WeaponShopFsodr",
    "text": "Limu"
  },
  {
    "label": "WeaponShopFsodr_Sub",
    "text": "Lumi"
  },
  {
    "label": "GearShopHeadFsodr",
    "text": "Anne"
  },
  {
    "label": "GearShopHeadFsodr_Sub",
    "text": "Mone"
  },
  {
    "label": "GearShopClothesFsodr",
    "text": "G. Latineux"
  },
  {
    "label": "GearShopShoesFsodr",
    "text": "Fridéric"
  },
  {
    "label": "VendorFsodr",
    "text": "Kipik"
  },
  {
    "label": "GearShopHeadSdodr",
    "text": "Flo"
  },
  {
    "label": "GearShopHeadSdodr_Sub",
    "text": "Gambastien"
  },
  {
    "label": "GearShopClothesSdodr",
    "text": "Gégé Latineux"
  },
  {
    "label": "GearShopShoesSdodr",
    "text": "Bisk"
  },
  {
    "label": "HimeDroneSdodr",
    "text": "Perle"
  },
  {
    "label": "HimeSdodr",
    "text": "Perle"
  },
  {
    "label": "IidaCaughtSdodr",
    "text": "Coralie"
  },
  {
    "label": "IidaSdodr",
    "text": "Coralie"
  },
  {
    "label": "Mizuta",
    "text": "Eyte"
  },
  {
    "label": "MizutaSdodr",
    "text": "Eyte"
  },
  {
    "label": "PhaseBoss00Sdodr",
    "text": "Ordre"
  },
  {
    "label": "PhaseBoss01Sdodr",
    "text": "Ordrissime"
  },
  {
    "label": "PhaseBoss02Sdodr",
    "text": "Minusque"
  },
  {
    "label": "FleaMarketSdodr",
    "text": "Crustifer"
  },
  {
    "label": "SplatsVille",
    "text": "Cité-Clabousse"
  },
  {
    "label": "Splatlands",
    "text": "Contrée Clabousse"
  },
  {
    "label": "Inkopolis",
    "text": "Chromapolis"
  },
  {
    "label": "InkopolisSquare",
    "text": "Square de Chromapolis"
  },
  {
    "label": "Crater",
    "text": "le Cratère"
  },
  {
    "label": "Alternative",
    "text": "Alterna"
  },
  {
    "label": "Inkling",
    "text": "Inkling"
  },
  {
    "label": "Octoling",
    "text": "Octaling"
  },
  {
    "label": "Octarian",
    "text": "Octarien"
  },
  {
    "label": "PlatoonNew",
    "text": "escadron Espadon, nouvelle version"
  },
  {
    "label": "IdolGroup_01",
    "text": "Calamazones"
  },
  {
    "label": "IdolGroup_02",
    "text": "Tenta-Cool"
  },
  {
    "label": "IdolGroup_03",
    "text": "Tridenfer"
  },
  {
    "label": "Band01",
    "text": "Squid Squad"
  },
  {
    "label": "ABXY_Ba",
    "text": "Orion"
  },
  {
    "label": "SquidSpawn",
    "text": "déploiement calamar"
  },
  {
    "label": "SquidRoll",
    "text": "vrille calamar"
  },
  {
    "label": "SquidSurge",
    "text": "déferlante calamar"
  },
  {
    "label": "RoeThrow",
    "text": "Lancer d'œuf"
  },
  {
    "label": "MiniGameTitle",
    "text": "Cartes & Territoire"
  },
  {
    "label": "MiniGameRank",
    "text": "Rang de Cartes & Territoire"
  },
  {
    "label": "CardPack",
    "text": "jeu de cartes"
  },
  {
    "label": "SpecialPoint",
    "text": "points spéciaux"
  },
  {
    "label": "SpecialAttack",
    "text": "attaque spéciale"
  },
  {
    "label": "CardPackFresh",
    "text": "jeu de cartes classe"
  },
  {
    "label": "CardSleeve",
    "text": "motifs de cartes"
  },
  {
    "label": "MiniGameKurage0",
    "text": "Médu-bébé"
  },
  {
    "label": "MiniGameKurage1",
    "text": "Médu-cool"
  },
  {
    "label": "MiniGameKurage2",
    "text": "Médu-furax"
  },
  {
    "label": "MiniGameKurage3",
    "text": "Médu-miroir"
  },
  {
    "label": "Shakeup",
    "text": "Barrage salmonoïde"
  },
  {
    "label": "Shakeship",
    "text": "Épave des braves"
  },
  {
    "label": "Shakelift",
    "text": "Fumoir Sans-Espoir"
  },
  {
    "label": "Shakespiral",
    "text": "Bastion colimaçon"
  },
  {
    "label": "Shakedent",
    "text": "Centrale Anguilla"
  },
  {
    "label": "Shakehighway",
    "text": "Rocade Rémora"
  },
  {
    "label": "Shakerail",
    "text": "Colisée enlisé"
  },
  {
    "label": "RoeContainer",
    "text": "panier à œufs"
  },
  {
    "label": "SwimRingTank",
    "text": "Bouée de sauvetage"
  },
  {
    "label": "RoeCannon",
    "text": "canon à œufs"
  },
  {
    "label": "SakeArtilleryCannon",
    "text": "canon du Gros boulet"
  },
  {
    "label": "BigRun",
    "text": "Big Run"
  },
  {
    "label": "Uroko",
    "text": "écailles"
  },
  {
    "label": "CoopScenario",
    "text": "Scénario de mission"
  },
  {
    "label": "CoopScenarioTournament",
    "text": "Scénario de tournoi"
  },
  {
    "label": "CoopEvent_Rush",
    "text": "Ruées"
  },
  {
    "label": "CoopEvent_Fog",
    "text": "Brouillard"
  },
  {
    "label": "CoopEvent_Dozer",
    "text": "Barbeurks"
  },
  {
    "label": "CoopEvent_Missile",
    "text": "Charges de Sumoches"
  },
  {
    "label": "CoopEvent_Geyser",
    "text": "Chasse aux Dorax"
  },
  {
    "label": "CoopEvent_Hakobiya",
    "text": "Vaisseaux mères"
  },
  {
    "label": "CoopEvent_Tamaire",
    "text": "Émergence de Salmonoïdes de boue"
  },
  {
    "label": "CoopEvent_Relay",
    "text": "Tornade géante"
  },
  {
    "label": "SakelienStandard",
    "text": "Salmoche"
  },
  {
    "label": "SakelienLarge",
    "text": "Sumoche"
  },
  {
    "label": "SakelienSmall",
    "text": "Salmioche"
  },
  {
    "label": "SakelienGolden",
    "text": "Dorax"
  },
  {
    "label": "SakeFlyBagman",
    "text": "Barboteur"
  },
  {
    "label": "SakelienBomber",
    "text": "Tête-de-pneu"
  },
  {
    "label": "SakelienCupTwins",
    "text": "Aéro Ben"
  },
  {
    "label": "SakelienShield",
    "text": "Bricabrute"
  },
  {
    "label": "SakelienSnake",
    "text": "Carnacier"
  },
  {
    "label": "SakelienTower",
    "text": "Marmirador"
  },
  {
    "label": "Sakediver",
    "text": "Gobb"
  },
  {
    "label": "Sakedozer",
    "text": "Barbeurk"
  },
  {
    "label": "Sakepuncher",
    "text": "Vaisseau mère"
  },
  {
    "label": "SakepuncherBulletSimpl",
    "text": "Salmocoptère"
  },
  {
    "label": "Sakerocket",
    "text": "Crachin"
  },
  {
    "label": "SakeSaucer",
    "text": "Couverclard"
  },
  {
    "label": "SakePillar",
    "text": "Pylônoïde"
  },
  {
    "label": "SakeDolphin",
    "text": "Ploufion"
  },
  {
    "label": "SakeArtillery",
    "text": "Gros boulet"
  },
  {
    "label": "SakeTamaire",
    "text": "Salmonoïde de boue"
  },
  {
    "label": "SakeBigBoss",
    "text": "Salmonarque"
  },
  {
    "label": "SakelienGiant",
    "text": "Salmotori"
  },
  {
    "label": "SakeRope",
    "text": "Salmophide"
  },
  {
    "label": "SakeJaw",
    "text": "Salmodon"
  },
  {
    "label": "SakeTriple",
    "text": "Triumvirat"
  },
  {
    "label": "Msn_EnmOctTrooper_01",
    "text": "tentassin"
  },
  {
    "label": "Msn_EnmOctTrooper_02",
    "text": "tentassin blindé"
  },
  {
    "label": "Msn_EnmOctTrooper_03",
    "text": "tentassin féroce"
  },
  {
    "label": "Msn_EnmOctTrooper_13",
    "text": "tentasaute"
  },
  {
    "label": "Msn_EnmOctCopter_01",
    "text": "tentavole"
  },
  {
    "label": "Msn_EnmOctCopter_03",
    "text": "tentadisco"
  },
  {
    "label": "Msn_EnmOctCopter_04",
    "text": "tentavole lourd"
  },
  {
    "label": "Msn_EnmOctPod_01",
    "text": "podo-missile"
  },
  {
    "label": "Msn_EnmOctPod_02",
    "text": "podo-missile géant"
  },
  {
    "label": "Msn_EnmOctEscape_01",
    "text": "poulpe mouillé"
  },
  {
    "label": "Msn_EnmOctStamp_01",
    "text": "tentapon"
  },
  {
    "label": "Msn_EnmOctStamp_02",
    "text": "tentapon de choc"
  },
  {
    "label": "Msn_EnmOctSniper_01",
    "text": "tentatourelle"
  },
  {
    "label": "Msn_EnmOctCommander_01",
    "text": "tentamiral"
  },
  {
    "label": "Msn_EnmOctMissile_01",
    "text": "tentazep"
  },
  {
    "label": "Msn_EnmOctMissile_02",
    "text": "tentamissile"
  },
  {
    "label": "Msn_EnmOctSoldier_01",
    "text": "Octaling"
  },
  {
    "label": "Msn_EnmOctBaller_01",
    "text": "tentastrike"
  },
  {
    "label": "Msn_EnmOctCleaner_01",
    "text": "mécabuvard"
  },
  {
    "label": "Msn_EnmOctFlooder_01",
    "text": "pulvérisateur"
  },
  {
    "label": "Msn_AreaOfAlternative",
    "text": "secteur"
  },
  {
    "label": "Msn_ZapfishGiant",
    "text": "Grand Poisson-charge"
  },
  {
    "label": "Msn_ZapfishNormal",
    "text": "poisson-charge"
  },
  {
    "label": "Msn_ZapfishReplica",
    "text": "poisson-charge factice"
  },
  {
    "label": "Msn_Archives_01",
    "text": "document"
  },
  {
    "label": "Msn_Drone",
    "text": "Cardrone"
  },
  {
    "label": "Msn_WorldObj_03",
    "text": "tuyau"
  },
  {
    "label": "Msn_WorldObj_05",
    "text": "ancre à butin"
  },
  {
    "label": "Msn_Item_01",
    "text": "sardinium"
  },
  {
    "label": "Msn_Item_02",
    "text": "œuf de poisson"
  },
  {
    "label": "Msn_Item_03",
    "text": "boîte d'œufs de poisson"
  },
  {
    "label": "Msn_Item_04",
    "text": "beignet de calamar"
  },
  {
    "label": "Msn_Item_05",
    "text": "boîte de conserve"
  },
  {
    "label": "Msn_Item_07",
    "text": "clé"
  },
  {
    "label": "Msn_Item_08",
    "text": "disque en or"
  },
  {
    "label": "Msn_PowerUpPoint",
    "text": "point d'amélioration"
  },
  {
    "label": "Msn_CheckPoint",
    "text": "point de contrôle"
  },
  {
    "label": "Msn_JumpPoint",
    "text": "propulseur"
  },
  {
    "label": "Msn_CourseObj_04",
    "text": "interrupteur"
  },
  {
    "label": "Msn_CourseObj_05",
    "text": "interruptourne"
  },
  {
    "label": "Msn_CourseObj_06",
    "text": "fugu explosif"
  },
  {
    "label": "Msn_CourseObj_07",
    "text": "éponge"
  },
  {
    "label": "Msn_CourseObj_10",
    "text": "jet d'encre"
  },
  {
    "label": "Msn_CourseObj_11",
    "text": "sans-gêne"
  },
  {
    "label": "Msn_CourseObj_12",
    "text": "hélice"
  },
  {
    "label": "Msn_CourseObj_13",
    "text": "fil d'encre"
  },
  {
    "label": "Msn_CourseObj_14",
    "text": "fil conducteur"
  },
  {
    "label": "Msn_CourseObj_15",
    "text": "tapis roulant"
  },
  {
    "label": "Msn_CourseObj_17",
    "text": "matelas de saut"
  },
  {
    "label": "Msn_CourseObj_18",
    "text": "wagon encreur"
  },
  {
    "label": "Msn_CourseObj_19",
    "text": "bloc serpentin"
  },
  {
    "label": "Msn_CourseObj_20",
    "text": "interrupteur pédestre"
  },
  {
    "label": "Msn_CourseObj_21",
    "text": "noyau d'énergie"
  },
  {
    "label": "Msn_CourseObj_22",
    "text": "plateforme à hélice"
  },
  {
    "label": "Msn_BreakableObj_08",
    "text": "cata-ballon"
  },
  {
    "label": "Msn_BreakableObj_09",
    "text": "cible"
  },
  {
    "label": "Msn_ObstacleObj_02",
    "text": "piston encreur"
  },
  {
    "label": "Msn_ObstacleObj_03",
    "text": "fontaine"
  },
  {
    "label": "Msn_ObstacleObj_04",
    "text": "brume toxique"
  },
  {
    "label": "Msn_ObstacleObj_05",
    "text": "mur d'encre"
  },
  {
    "label": "UdemaePoint",
    "text": "points de rang"
  },
  {
    "label": "UdemaePoint_00",
    "text": "match de rang"
  },
  {
    "label": "BattleMemory",
    "text": "vidéo de match"
  },
  {
    "label": "XRanking",
    "text": "classement de matchs X"
  },
  {
    "label": "XRegionGroup",
    "text": "Division"
  },
  {
    "label": "VS_Obj_01",
    "text": "cible"
  },
  {
    "label": "VS_Obj_03",
    "text": "Défense de zone"
  },
  {
    "label": "VS_Obj_04",
    "text": "Stand de l'Expédition risquée"
  },
  {
    "label": "VS_Obj_05",
    "text": "Mission Bazookarpe"
  },
  {
    "label": "VS_Obj_10",
    "text": "super palourde"
  },
  {
    "label": "VS_Obj_11",
    "text": "palourde"
  },
  {
    "label": "VS_Obj_13",
    "text": "Balle pyrotek"
  },
  {
    "label": "FesRank",
    "text": "Rang de festival"
  },
  {
    "label": "FesPoint",
    "text": "Points festival"
  },
  {
    "label": "Fes100Person",
    "text": "Top 100"
  },
  {
    "label": "TrumpetShell",
    "text": "conque"
  },
  {
    "label": "FestivalShell",
    "text": "coquival"
  },
  {
    "label": "FesFloat",
    "text": "char de festival"
  },
  {
    "label": "FesPhase_01",
    "text": "préstival"
  },
  {
    "label": "FesPhase_02",
    "text": "événement principal"
  },
  {
    "label": "TricolorSignal",
    "text": "Tridenfusée"
  },
  {
    "label": "TricolorTreasure",
    "text": "fontaine du fléau"
  },
  {
    "label": "GrandFestival",
    "text": "Grand Festival"
  },
  {
    "label": "Sdodr_World",
    "text": "Poulpivers"
  },
  {
    "label": "Sdodr_OrderSquare",
    "text": "place de l'Ordre"
  },
  {
    "label": "Sdodr_Tower",
    "text": "tour de l'Ordre"
  },
  {
    "label": "Sdodr_Decolorize",
    "text": "déchromatisation"
  },
  {
    "label": "Sdodr_Floor",
    "text": "Étage"
  },
  {
    "label": "Sdodr_Stage",
    "text": "étage"
  },
  {
    "label": "Sdodr_Entrance",
    "text": "hall d'entrée"
  },
  {
    "label": "Sdodr_Shop",
    "text": "distributeur"
  },
  {
    "label": "Sdodr_Market",
    "text": "Les Affaires de Crustifer"
  },
  {
    "label": "Sdodr_Locker",
    "text": "casier"
  },
  {
    "label": "Sdodr_FishSkeleton",
    "text": "Squelécaille"
  },
  {
    "label": "Sdodr_Enemy_Small",
    "text": "Languendo grouilleur"
  },
  {
    "label": "Sdodr_Enemy_Normal",
    "text": "Andante défileur"
  },
  {
    "label": "Sdodr_Enemy_Large",
    "text": "Lento cogneur"
  },
  {
    "label": "Sdodr_Enemy_Escape",
    "text": "Alla Mambo fuyard"
  },
  {
    "label": "Sdodr_Enemy_Shell",
    "text": "Accelerando toupie"
  },
  {
    "label": "Sdodr_Enemy_Sprinkler",
    "text": "Capriccioso épanchard"
  },
  {
    "label": "Sdodr_Enemy_BombBlow",
    "text": "Trionfale jaillissant"
  },
  {
    "label": "Sdodr_Enemy_Hopper",
    "text": "Spiccato élastique"
  },
  {
    "label": "Sdodr_Enemy_Tree",
    "text": "Accordo pondeur"
  },
  {
    "label": "Sdodr_Enemy_TreeMissile",
    "text": "Arpeggio cibleur"
  },
  {
    "label": "Sdodr_Enemy_ChargerTower",
    "text": "Nobilmente imposant"
  },
  {
    "label": "Sdodr_Enemy_RivalKing",
    "text": "Canon surréel"
  },
  {
    "label": "Sdodr_Enemy_TowerKing",
    "text": "Rondo asynchrone"
  },
  {
    "label": "Sdodr_Enemy_BallKing",
    "text": "Marciale erratique"
  },
  {
    "label": "Sdodr_Enemy_BarrierKingIida",
    "text": "Coralie Agitando"
  },
  {
    "label": "Sdodr_Enemy_BarrierKingOdako",
    "text": "Ordrissime"
  },
  {
    "label": "Sdodr_Drone",
    "text": "drone Perle"
  },
  {
    "label": "Sdodr_ColorTip",
    "text": "puce chromatique"
  },
  {
    "label": "Sdodr_Palette",
    "text": "palette"
  },
  {
    "label": "Sdodr_Egg",
    "text": "poulpèze"
  },
  {
    "label": "Sdodr_Jem",
    "text": "péperles"
  },
  {
    "label": "Sdodr_Lift",
    "text": "cage"
  },
  {
    "label": "Sdodr_Spawner",
    "text": "vortex"
  },
  {
    "label": "Sdodr_Yagura",
    "text": "tourbine"
  },
  {
    "label": "Sdodr_Area",
    "text": "zone"
  },
  {
    "label": "Sdodr_8Ball",
    "text": "boule ∞"
  },
  {
    "label": "Sdodr_DroneBattery",
    "text": "batterie du drone"
  },
  {
    "label": "Sdodr_DroneGauge",
    "text": "jauge du drone"
  },
  {
    "label": "Sdodr_StunBombDisc",
    "text": "fragment de disque"
  },
  {
    "label": "Sdodr_StunBomb",
    "text": "tempête sonore"
  },
  {
    "label": "Sdodr_InkBottle",
    "text": "cartouche d'encre"
  },
  {
    "label": "Sdodr_Life",
    "text": "vies"
  },
  {
    "label": "Sdodr_TipFever",
    "text": "Monochromisme"
  },
  {
    "label": "Sdodr_BeatBomb",
    "text": "bombe chance"
  },
  {
    "label": "Sdodr_LuckyCombo",
    "text": "combo chance"
  },
  {
    "label": "Sdodr_MainMission",
    "text": "objectif"
  },
  {
    "label": "Sdodr_ColorGroup",
    "text": "teinte"
  },
  {
    "label": "ModeMission",
    "text": "Mode Histoire"
  },
  {
    "label": "Plz_Obj_01",
    "text": "urne festive"
  },
  {
    "label": "Lobby_Obj_01",
    "text": "faitout des matchs"
  },
  {
    "label": "Lobby_Obj_02",
    "text": "terminal du hall"
  },
  {
    "label": "Lobby_Obj_03",
    "text": "mécamiroir"
  },
  {
    "label": "PlayerAvatar",
    "text": "fantômes"
  },
  {
    "label": "Grizzco_Obj_01",
    "text": "terminal de M. Ours SA"
  },
  {
    "label": "WeaponLicense",
    "text": "brevet Cartouche"
  },
  {
    "label": "WeaponLicenseGold",
    "text": "brevet Cartouche Or"
  },
  {
    "label": "SDServiceName",
    "text": "SplatNet 3"
  },
  {
    "label": "AnemoShop",
    "text": "Céphalochic"
  },
  {
    "label": "Emote",
    "text": "émoticône"
  },
  {
    "label": "NamePlateBg",
    "text": "bannière"
  },
  {
    "label": "Byname",
    "text": "titre"
  },
  {
    "label": "Figure",
    "text": "objet de décoration"
  },
  {
    "label": "Sticker",
    "text": "autocollant"
  },
  {
    "label": "Lottery",
    "text": "Capsulomate"
  },
  {
    "label": "LotteryCoin",
    "text": "jeton"
  },
  {
    "label": "TurbanShell",
    "text": "super coquillage"
  },
  {
    "label": "NotificationChannel",
    "text": "canal"
  },
  {
    "label": "EzokkoryKidsMascot",
    "text": "Frizko"
  },
  {
    "label": "TrumpetShellScramble",
    "text": "Conquétition"
  }
]