[
  {
    "label": "Phase2_00F_First00",
    "text": "Listen...{{delay frames=\"15\"}}the going might be tough ahead, but if we\ndon't give up, I know we can make it."
  },
  {
    "label": "Phase2_00F_First01",
    "text": "You know it! Let's get this party started!"
  },
  {
    "label": "Phase2_00F_First02",
    "text": "Don't worry about me. I'm in this to the end."
  },
  {
    "label": "Phase2_00F_First03",
    "text": "Hey! {{delay frames=\"15\"}}The {{icon id=\"56\" arg=\"0xCDCC8C3F02000000\"}}Palette's all empty."
  },
  {
    "label": "Phase2_00F_First04",
    "text": "Yeah, because all the color chips you had got converted\ninto {{icon id=\"64\" arg=\"0x0000803F00000000\"}}Prlz. {{delay frames=\"30\"}}No color chips, no upgrades."
  },
  {
    "label": "Phase2_00F_First05",
    "text": "You also have fewer {{color id=\"4\"}}Lives{{color id=\"65535\"}} than you did before, Eight.{{pageBreak}}So be careful. {{delay frames=\"15\"}}If you lose all your Lives, you'll be thrown\nout of the Spire and have to {{color id=\"4\"}}start all over again{{color id=\"65535\"}}."
  },
  {
    "label": "Phase2_00F_Rnd00_00",
    "text": "We'll climb this Spire as many times as it takes."
  },
  {
    "label": "Phase2_00F_Rnd00_01",
    "text": "That's right! Look out, Order! We're gunning for you!"
  },
  {
    "label": "Phase2_00F_Rnd01_00",
    "text": "NEW RUN! {{delay frames=\"15\"}}GET PUMPED! {{delay frames=\"15\"}}ANYTHING COULD HAPPEN!"
  },
  {
    "label": "Phase2_00F_Rnd01_01",
    "text": "Rein it in a little. Though I agree with the sentiment."
  },
  {
    "label": "Phase2_00F_Rnd02_00",
    "text": "Here goes. {{delay frames=\"15\"}}How far do you think we can take it\nthis time?"
  },
  {
    "label": "Phase2_00F_Rnd02_01",
    "text": "Whether or not this is the run where we stop Order,\nit has to happen sometime! {{delay frames=\"15\"}}Do your best, Eight."
  },
  {
    "label": "PhaseX_00F_After5FClear00",
    "text": "Oh, nice! {{delay frames=\"15\"}}Since we cleared 5F in our last run, this time\nwe get {{icon id=\"63\" arg=\"0x0000803F00000000\"}}{{color id=\"4\"}}500 Membux {{color id=\"65535\"}}off the bat!"
  },
  {
    "label": "PhaseX_00F_After5FClear01",
    "text": "That works out well. {{delay frames=\"15\"}}I remember you saying there's a\nguaranteed {{color id=\"4\"}}Vending-Machine Corner{{color id=\"65535\"}} on 5F to spend it."
  },
  {
    "label": "PhaseX_00F_After5FClear02",
    "text": "So once we get to 5F, we can take five!"
  },
  {
    "label": "PhaseX_00F_After5FClear03",
    "text": "That oughta give us a good head start. {{delay frames=\"30\"}}Let's make\nthe most of it, Eight!"
  },
  {
    "label": "Phase2_05F_First00",
    "text": "Noice! {{delay frames=\"5\"}}We made it past 5F!"
  },
  {
    "label": "Phase2_05F_First01",
    "text": "And we got {{icon id=\"64\" arg=\"0x0000803F00000000\"}}Prlz for clearing it. {{delay frames=\"30\"}}The Spire is set up\nto give you some good bonuses if you can clear 5F."
  },
  {
    "label": "Phase2_05F_First02",
    "text": "For example, {{delay frames=\"15\"}}if you get kicked out after that, you'll\nstart with {{icon id=\"63\" arg=\"0x0000803F00000000\"}}{{color id=\"4\"}}500 Membux {{color id=\"65535\"}}on your next run.{{pageBreak}}And there'll be a guaranteed {{color id=\"4\"}}Vending-Machine Corner{{color id=\"65535\"}}\non 5F where you can spend it."
  },
  {
    "label": "Phase2_05F_First03",
    "text": "A Vending-Machine Corner sounds like a great place\nto take a breather! {{delay frames=\"15\"}}Not that I breathe."
  },
  {
    "label": "Phase2_05F_First04",
    "text": "It's worth your while to get past 5F on every run if\nyou can."
  },
  {
    "label": "Phase2_05F_First05",
    "text": "But don't stop there! Let's make this THE run where we\nreach Order and blast it to bits! {{delay frames=\"30\"}}You feel me, Eight?!"
  },
  {
    "label": "Phase2_09F_First00",
    "text": "Heads up. {{delay frames=\"15\"}}There's something on the next floor way\npast anything we've fought so far. {{delay frames=\"30\"}}Brace yourselves."
  },
  {
    "label": "Phase2_09F_First01",
    "text": "If this Spire kept anything from my original design,{{delay frames=\"15\"}}\nthen there should be a {{color id=\"4\"}}boss{{color id=\"65535\"}} at 10F."
  },
  {
    "label": "Phase2_09F_First02",
    "text": "So we're in for a real fight, huh? {{delay frames=\"30\"}}Stay on your toes,\nEight, and don't push your luck!"
  },
  {
    "label": "Phase2_09F_Rnd00_00",
    "text": "We're in good shape so far! {{delay frames=\"30\"}}I think this run is going\npretty well."
  },
  {
    "label": "Phase2_09F_Rnd00_01",
    "text": "Well, this next floor will be the test. {{delay frames=\"30\"}}You as pumped\nas I am, Eight?"
  },
  {
    "label": "Phase2_09F_Rnd01_00",
    "text": "No big problems so far, huh, Eight?"
  },
  {
    "label": "Phase2_09F_Rnd01_01",
    "text": "Yeah. But 10F is next. {{delay frames=\"30\"}}You could be in for a rough time,\nso don't get reckless."
  },
  {
    "label": "Phase2_09F_Rnd02_00",
    "text": "It's been pretty smooth sailing up to now."
  },
  {
    "label": "Phase2_09F_Rnd02_01",
    "text": "Hmm, we're about to face a boss though. {{delay frames=\"30\"}}Keep your\neye on it, and don't get cooked!"
  },
  {
    "label": "Phase2_10F_First00",
    "text": "Everyone still in one piece? Sweet! {{delay frames=\"30\"}}What even\nwas that?"
  },
  {
    "label": "Phase2_10F_First01",
    "text": "Definitely stronger than any Jelleton we've seen.{{delay frames=\"30\"}}\nWhat did you pick up at the end? A {{icon id=\"62\" arg=\"0x0000803F00000000\"}}{{color id=\"4\"}}locker key{{color id=\"65535\"}}?"
  },
  {
    "label": "Phase2_10F_First02",
    "text": "That's interesting. {{delay frames=\"30\"}}Based on this, {{delay frames=\"15\"}}I think you'll get a\nkey every time you clear certain floors for the first time\nwith each Palette."
  },
  {
    "label": "Phase2_10F_First03",
    "text": "So...{{delay frames=\"15\"}}if we clear 10F again with another Palette,\nwe'll get another key?"
  },
  {
    "label": "Phase2_10F_First04",
    "text": "Exactly, Pearl! {{delay frames=\"30\"}}That said...{{delay frames=\"15\"}}I don't think we've wrung\nthis Palette dry of keys yet."
  },
  {
    "label": "Phase2_10F_First05",
    "text": "Yeah. {{delay frames=\"15\"}}I expect we'll find more as we take this one\nfurther along."
  },
  {
    "label": "Phase2_10F_Rnd00_00",
    "text": "Eight, the Jelletons will start to swarm you after this.{{delay frames=\"30\"}}\nSo don't let yourself get cornered."
  },
  {
    "label": "Phase2_10F_Rnd00_01",
    "text": "Good advice. Stay alert."
  },
  {
    "label": "Phase2_10F_Rnd00_02",
    "text": "One enemy or a hundred, we gotta do what we gotta do,\nam I right? {{delay frames=\"30\"}}Eight knows!"
  },
  {
    "label": "Phase2_10F_Rnd01_00",
    "text": "Awesome! It's good to be on the other side of 10F."
  },
  {
    "label": "Phase2_10F_Rnd01_01",
    "text": "That's one milestone down. {{delay frames=\"15\"}}Very nice."
  },
  {
    "label": "Phase2_10F_Rnd01_02",
    "text": "Yeah, but we still got plenty of floors to go. {{delay frames=\"30\"}}Keep your\nfoot on the gas, Eight!"
  },
  {
    "label": "Phase2_10F_Rnd02_00",
    "text": "We got the sauce to beat the boss! {{delay frames=\"15\"}}This is going\npretty good so far."
  },
  {
    "label": "Phase2_10F_Rnd02_01",
    "text": "Yeah! If we can keep this momentum going, we might\nactually make it all the way!"
  },
  {
    "label": "Phase2_10F_Rnd02_02",
    "text": "The Jelletons might beg to differ. {{delay frames=\"30\"}}Don't assume they'll\ngive us a free ride to the top."
  },
  {
    "label": "Phase2_15F_First00",
    "text": "Think we're past the Spire's halfway point. {{delay frames=\"30\"}}This place\ndoesn't let up, does it?"
  },
  {
    "label": "Phase2_15F_First01",
    "text": "How you holding up, Eight? {{delay frames=\"30\"}}You should rest a little\nbefore we hit the next floor."
  },
  {
    "label": "Phase2_15F_First02",
    "text": "I'm so sorry you have to go through all this. {{delay frames=\"15\"}}If only\nOrder hadn't found a way into my mind..."
  },
  {
    "label": "Phase2_15F_First03",
    "text": "Yo, don't feel bad! {{delay frames=\"30\"}}None of this is your fault, Marina."
  },
  {
    "label": "Phase2_15F_First04",
    "text": "I mean...{{delay frames=\"15\"}}somewhere deep down, I did wish for a perfect\nworld of peace where nothing had to change.{{pageBreak}}It was a weakness in me that Order took advantage of."
  },
  {
    "label": "Phase2_15F_First05",
    "text": "Lots of people are afraid of change. {{delay frames=\"30\"}}Even me sometimes."
  },
  {
    "label": "Phase2_15F_First06",
    "text": "You too, Acht?"
  },
  {
    "label": "Phase2_15F_First07",
    "text": "Personally, it's never been in my top ten fears.{{pageBreak}}But I know that whatever you wished for, it wasn't\nTHIS. {{delay frames=\"15\"}}You don't got nothing to apologize for."
  },
  {
    "label": "Phase2_15F_First08",
    "text": "So dry those eyes! {{delay frames=\"30\"}}Eight and me are gonna pump the\nbrakes on Order. Just sit back and enjoy the fireworks!"
  },
  {
    "label": "Phase2_15F_First09",
    "text": "But Pearl... {{delay frames=\"15\"}}Eight..."
  },
  {
    "label": "Phase2_15F_First10",
    "text": "No! {{delay frames=\"15\"}}I can't just sit back. {{delay frames=\"30\"}}I'm going to do whatever\nI can to help fix this!"
  },
  {
    "label": "Phase2_15F_First11",
    "text": "Good. With all of us pitching in, we'll make this right."
  },
  {
    "label": "Phase2_19F_First00",
    "text": "Eight...{{delay frames=\"15\"}}odds are good that we're coming up on a {{color id=\"4\"}}boss{{color id=\"65535\"}}.{{delay frames=\"30\"}}\nYou'll need to be smart at the core and careful on top."
  },
  {
    "label": "Phase2_19F_First01",
    "text": "Marina, you worry too much! {{delay frames=\"30\"}}Eight's gonna be just fine.\nThe two of us got this!"
  },
  {
    "label": "Phase2_19F_First02",
    "text": "R-right...{{delay frames=\"15\"}}of course."
  },
  {
    "label": "Phase2_19F_First03",
    "text": "There's that unsolicited advice I'm so familiar with."
  },
  {
    "label": "Phase2_19F_First04",
    "text": "I can't help it! Pearl's just too precious. {{delay frames=\"30\"}}She's fearless\nat the core and adorable on top!"
  },
  {
    "label": "Phase2_19F_First05",
    "text": "Huh. This side of you is less familiar."
  },
  {
    "label": "Phase2_19F_Rnd00_00",
    "text": "At 20F already, huh? {{delay frames=\"15\"}}I smell trouble, and it stinks bad."
  },
  {
    "label": "Phase2_19F_Rnd00_01",
    "text": "Awww, I bet you two will be fine! {{delay frames=\"30\"}}Although...maybe\ndon't go rushing in without a plan."
  },
  {
    "label": "Phase2_19F_Rnd01_00",
    "text": "Whew! We made it to 20F, but we can't stop here.{{delay frames=\"30\"}}\nLet's keep pushing onward!"
  },
  {
    "label": "Phase2_19F_Rnd01_01",
    "text": "We could be up against a wall here. {{delay frames=\"30\"}}Careful, you two."
  },
  {
    "label": "Phase2_19F_Rnd02_00",
    "text": "We'll be seeing a boss next. {{delay frames=\"30\"}}These things\nmean business."
  },
  {
    "label": "Phase2_19F_Rnd02_01",
    "text": "Yeah? Well, I'm in the BUSINESS of splatting suckers!{{delay frames=\"30\"}}\nLet's go waste 'em, Eight!"
  },
  {
    "label": "Phase2_20F_First00",
    "text": "Good going, Eight! {{delay frames=\"30\"}}And we got a {{icon id=\"62\" arg=\"0x0000803F00000000\"}}{{color id=\"4\"}}locker key{{color id=\"65535\"}} out\nof the deal!"
  },
  {
    "label": "Phase2_20F_First01",
    "text": "That boss though, huh? {{delay frames=\"15\"}}This Order creep ain't\npulling its punches anymore."
  },
  {
    "label": "Phase2_20F_First02",
    "text": "It must've made these to stop anyone from ruining its\nplan. {{delay frames=\"15\"}}I remember it said it wants to turn the Memverse\ninto a \"colorless world of order.\""
  },
  {
    "label": "Phase2_20F_First03",
    "text": "A world of mindless puppets, huh? {{delay frames=\"30\"}}Sounds exactly like\nwhere I was before I came here."
  },
  {
    "label": "Phase2_20F_First04",
    "text": "Acht...{{delay frames=\"15\"}}you weren't in the Deepsea Metro, were you?"
  },
  {
    "label": "Phase2_20F_First05",
    "text": "Hold up—the Deepsea Metro?! That's where we pulled\nEight out from!"
  },
  {
    "label": "Phase2_20F_First06",
    "text": "That's the place. Someone or something there took my\nwill away. {{delay frames=\"15\"}}I was forced to DJ for it."
  },
  {
    "label": "Phase2_20F_First07",
    "text": "I don't remember much about my time there. {{delay frames=\"15\"}}Except...\nI heard this voice..."
  },
  {
    "label": "Phase2_20F_First08",
    "text": "Point is, it's better left in the past."
  },
  {
    "label": "Phase2_20F_First09",
    "text": "I can't believe you went through something so awful!"
  },
  {
    "label": "Phase2_20F_First10",
    "text": "You know, I developed the Memverse in the first place\nto restore the minds of \"sanitized\" Octarians like you.{{pageBreak}}And since we're having this conversation, {{delay frames=\"15\"}}that means it\nmust've worked!"
  },
  {
    "label": "Phase2_20F_First11",
    "text": "Huh. {{delay frames=\"15\"}}So that was you, was it? {{delay frames=\"30\"}}I'm racking up quite\nthe debt."
  },
  {
    "label": "Phase2_20F_First12",
    "text": "All this is even more reason to take back the Memverse\nfrom Order. {{delay frames=\"15\"}}Those other Octolings need help too!"
  },
  {
    "label": "Phase2_20F_Rnd00_00",
    "text": "BA-BAM! Ya done! {{delay frames=\"30\"}}Hey, we're just a few floors from\nthe top, huh?"
  },
  {
    "label": "Phase2_20F_Rnd00_01",
    "text": "Sure enough. {{delay frames=\"15\"}}But let's not pat ourselves on the back\njust yet."
  },
  {
    "label": "Phase2_20F_Rnd00_02",
    "text": "Yeah. {{delay frames=\"15\"}}We're not finished until we stop Order from\ndraining all the color from the Memverse!"
  },
  {
    "label": "Phase2_20F_Rnd01_00",
    "text": "Pearl! Eight! You were both SO cool just now!"
  },
  {
    "label": "Phase2_20F_Rnd01_01",
    "text": "We don't back down! {{delay frames=\"15\"}}We'll track down that wack clown\nand reclaim Marina's hack town! {{delay frames=\"15\"}}I mean, Memverse."
  },
  {
    "label": "Phase2_20F_Rnd01_02",
    "text": "That should be the end of the fight. {{delay frames=\"30\"}}I'm looking\nforward to it."
  },
  {
    "label": "Phase2_20F_Rnd02_00",
    "text": "Welcome back, you two!"
  },
  {
    "label": "Phase2_20F_Rnd02_01",
    "text": "Any serious injuries? {{delay frames=\"15\"}}No? Good."
  },
  {
    "label": "Phase2_20F_Rnd02_02",
    "text": "We're not too far off from Order's crib, huh?{{delay frames=\"30\"}}\nYo, Eight! {{delay frames=\"15\"}}Let's floor it all the way to the end!"
  },
  {
    "label": "Phase2_25F_First00",
    "text": "This run's going pretty good, huh, Eight? {{delay frames=\"30\"}}Feel like we\nGOTTA be getting close now."
  },
  {
    "label": "Phase2_25F_First01",
    "text": "You're right! {{delay frames=\"15\"}}We're almost at the top floor!"
  },
  {
    "label": "Phase2_25F_First02",
    "text": "Awww yeah! {{delay frames=\"15\"}}Shouldn't be long before we get this\nwrapped up. Then it's back to our world tour!"
  },
  {
    "label": "Phase2_25F_First03",
    "text": "Off the Hook, was it? {{delay frames=\"30\"}}I'm eager to get out of here so\nI can catch your act."
  },
  {
    "label": "Phase2_25F_First04",
    "text": "Our science is TIGHT! {{delay frames=\"15\"}}Peep the disclaimer first,\n'cause we've been known to blow minds!"
  },
  {
    "label": "Phase2_25F_First05",
    "text": "We still have a few shows left in our tour. {{delay frames=\"15\"}}You and\nEight are more than welcome to come see one!"
  },
  {
    "label": "Phase2_25F_First06",
    "text": "I'll think about it. {{delay frames=\"30\"}}Though it'd mean flying. Never been\non a plane before."
  },
  {
    "label": "Phase2_29F_First00",
    "text": "Top floor, everyone."
  },
  {
    "label": "Phase2_29F_First01",
    "text": "Order must be waiting for us there."
  },
  {
    "label": "Phase2_29F_First02",
    "text": "I'm partly responsible for what's going on, so...{{delay frames=\"30\"}}I'll go\nout there with you, Eight."
  },
  {
    "label": "Phase2_29F_First03",
    "text": "Without a weapon?! {{delay frames=\"15\"}}Forget THAT!"
  },
  {
    "label": "Phase2_29F_First04",
    "text": "I know, I know! {{delay frames=\"15\"}}But I have to."
  },
  {
    "label": "Phase2_29F_First05",
    "text": "Look, it's pretty much impossible to change Marina's\nmind once it's set."
  },
  {
    "label": "Phase2_29F_First06",
    "text": "But she can handle herself without a weapon.{{delay frames=\"30\"}}\nThere shouldn't be a problem."
  },
  {
    "label": "Phase2_29F_First07",
    "text": "That's so sweet of you, Acht!"
  },
  {
    "label": "Phase2_29F_First08",
    "text": "Alright, I can see when I'm outvoted. {{delay frames=\"30\"}}No big blazes\nof glory though, OK?"
  },
  {
    "label": "Phase2_29F_First09",
    "text": "You got it, Pearl!"
  },
  {
    "label": "Phase2_29F_First10",
    "text": "You coming too, Acht?"
  },
  {
    "label": "Phase2_29F_First11",
    "text": "Nah. I'd rather not get in your way. {{delay frames=\"30\"}}I'll watch from here\nin case things go south."
  },
  {
    "label": "Phase2_29F_First12",
    "text": "Good looking out. {{delay frames=\"30\"}}And yo, if things go real bad,\nkeep Marina safe!"
  },
  {
    "label": "Phase2_29F_First13",
    "text": "Get hyped! {{delay frames=\"15\"}}Get psyched! {{delay frames=\"30\"}}Get ready for a big ol'\nmessy FIGHT!"
  },
  {
    "label": "Phase2_29F_Rnd00_00",
    "text": "Here we are. {{delay frames=\"15\"}}Once again at the top."
  },
  {
    "label": "Phase2_29F_Rnd00_01",
    "text": "We're not gonna take another L from that Order creep!"
  },
  {
    "label": "Phase2_29F_Rnd00_02",
    "text": "I'll be right there with you. {{delay frames=\"30\"}}It's time we stopped Order!"
  },
  {
    "label": "Phase2_29F_Rnd00_03",
    "text": "Think I'll hang back here. {{delay frames=\"30\"}}Remember what you learned\nlast time."
  },
  {
    "label": "Phase2_29F_Rnd00_04",
    "text": "You know it! {{delay frames=\"30\"}}We're gonna settle that thing's hash\nfor sure this time!"
  },
  {
    "label": "Phase2_29F_Rnd01_00",
    "text": "The top floor is next. {{delay frames=\"30\"}}So we'll be going up against\nOrder again."
  },
  {
    "label": "Phase2_29F_Rnd01_01",
    "text": "I want to come with you again! {{delay frames=\"30\"}}There must be\nsomething I can do to help."
  },
  {
    "label": "Phase2_29F_Rnd01_02",
    "text": "Whatever you want, 'Rina! {{delay frames=\"30\"}}Just leave the fighting\nto us, OK?"
  },
  {
    "label": "Phase2_29F_Rnd01_03",
    "text": "It's all yours. {{delay frames=\"30\"}}I wouldn't do you much good out there,\nso I'll stay here to keep an eye on things."
  },
  {
    "label": "Phase2_29F_Rnd01_04",
    "text": "Roger that! {{delay frames=\"30\"}}OK, Eight, let's finish this!"
  },
  {
    "label": "Phase2_ProgressMiddle_00_00",
    "text": "How come you're so glued to that laptop all the time?{{delay frames=\"15\"}}\nWhat are you doing?"
  },
  {
    "label": "Phase2_ProgressMiddle_00_01",
    "text": "It's complicated. {{delay frames=\"15\"}}But basically, to keep my hacks for\nyou working, {{delay frames=\"15\"}}I'm constantly fighting with Order over\ncontrol of the Spire's systems."
  },
  {
    "label": "Phase2_ProgressMiddle_00_02",
    "text": "Like just now, it looked like the root password was about\nto be reset. {{delay frames=\"30\"}}And if the admin got back the system for\n{{size value=\"75\"}}decentralizing permissions, our access would mumble mutter mumble...{{size value=\"100\"}}"
  },
  {
    "label": "Phase2_ProgressMiddle_00_03",
    "text": "Maybe...{{delay frames=\"30\"}}we should ask fewer questions."
  },
  {
    "label": "Phase2_ProgressMiddle_01_00",
    "text": "We're back, baby!"
  },
  {
    "label": "Phase2_ProgressMiddle_01_01",
    "text": "Hooraaay!"
  },
  {
    "label": "Phase2_ProgressMiddle_01_02",
    "text": "I'm feeling like my normal take-no-prisoners self again.{{delay frames=\"30\"}}\nMaybe it's 'cause I got Marina back?"
  },
  {
    "label": "Phase2_ProgressMiddle_01_03",
    "text": "Eight, Acht, thank you SO much for freeing me. {{delay frames=\"30\"}}I need\nto figure out how to repay the favor soon."
  },
  {
    "label": "Phase2_ProgressMiddle_01_04",
    "text": "Don't worry about it. {{delay frames=\"30\"}}Get me out of here, and we'll\ncall it even."
  },
  {
    "label": "Phase2_ProgressMiddle_01_05",
    "text": "I don't think any of us are going home until we do\nsomething about Order. {{delay frames=\"30\"}}But after that, I'm ABSOLUTELY\ngoing to make it up to you!"
  },
  {
    "label": "Phase2_ProgressMiddle_02_00",
    "text": "I meant to say, it's been a while, Acht!"
  },
  {
    "label": "Phase2_ProgressMiddle_02_01",
    "text": "You're bringing that up now? {{delay frames=\"30\"}}But you're right. {{delay frames=\"15\"}}I don't\nthink we've spoken since before your assignment to\nthat Octavio unit."
  },
  {
    "label": "Phase2_ProgressMiddle_02_02",
    "text": "This was back when Marina lived in Octo-land, right?"
  },
  {
    "label": "Phase2_ProgressMiddle_02_03",
    "text": "Right. {{delay frames=\"15\"}}That was about eight years ago, wasn't it?"
  },
  {
    "label": "Phase2_ProgressMiddle_02_04",
    "text": "Eight years? {{delay frames=\"30\"}}It's really been that long?"
  },
  {
    "label": "Phase2_ProgressMiddle_02_05",
    "text": "Yo, I bet you have TONS of fun Marina stories I've\nnever heard! {{delay frames=\"30\"}}Gimme the scoop, Acht!"
  },
  {
    "label": "Phase2_ProgressMiddle_02_06",
    "text": "Pearl! {{delay frames=\"15\"}}Noooooooooooo!"
  },
  {
    "label": "Phase2_ProgressUpper_00_00",
    "text": "Acht, don't you get bored staying in the elevator?"
  },
  {
    "label": "Phase2_ProgressUpper_00_01",
    "text": "Nah. {{delay frames=\"15\"}}On its own, this elevator heads back to its\ndefault position."
  },
  {
    "label": "Phase2_ProgressUpper_00_02",
    "text": "Without someone to stay inside and keep watch, {{delay frames=\"15\"}}you'd\nall be trapped on the current floor. Game over."
  },
  {
    "label": "Phase2_ProgressUpper_00_03",
    "text": "Whoa, for real?! {{delay frames=\"30\"}}No one mentioned that part!"
  },
  {
    "label": "Phase2_ProgressUpper_00_04",
    "text": "I don't know if that's the full story. {{delay frames=\"15\"}}As long as I've\nknown Acht, they've liked cramped spaces and leaning\nagainst walls. Isn't that true?"
  },
  {
    "label": "Phase2_ProgressUpper_00_05",
    "text": "I don't know what you're... {{delay frames=\"30\"}}Hmm. {{delay frames=\"15\"}}Now that you mention\nit, there is something soothing about this elevator."
  },
  {
    "label": "Phase2_ProgressUpper_01_00",
    "text": "Hey, Pearl. {{delay frames=\"15\"}}Have we met? You seem familiar."
  },
  {
    "label": "Phase2_ProgressUpper_01_01",
    "text": "What?! {{delay frames=\"30\"}}Acht, come on! {{delay frames=\"15\"}}You can't seriously be hitting\non Pearl in front of..."
  },
  {
    "label": "Phase2_ProgressUpper_01_02",
    "text": "Nope. Relax. {{delay frames=\"30\"}}I just get the feeling I've heard Pearl's\nvoice before somehow."
  },
  {
    "label": "Phase2_ProgressUpper_01_03",
    "text": "Hmmm, not sure where from. {{delay frames=\"30\"}}Maybe you heard some of\nmy early noise tracks, before Off the Hook?"
  },
  {
    "label": "Phase2_ProgressUpper_01_04",
    "text": "Could be. {{delay frames=\"30\"}}But I don't know... I can't quite place it."
  },
  {
    "label": "Phase2_ProgressUpper_02_00",
    "text": "I'm surprised you recognized me, Marina. {{delay frames=\"30\"}}I don't look\nquite how I used to."
  },
  {
    "label": "Phase2_ProgressUpper_02_01",
    "text": "Hm? {{delay frames=\"30\"}}Well, sure, but...{{delay frames=\"15\"}}your voice and whole general\nvibe were a dead giveaway."
  },
  {
    "label": "Phase2_ProgressUpper_02_02",
    "text": "Mm. {{delay frames=\"15\"}}Makes sense."
  },
  {
    "label": "Phase2_ProgressUpper_02_03",
    "text": "PICS PLEASE! {{delay frames=\"30\"}}I wanna see what you two looked like\nway back when!"
  },
  {
    "label": "Phase2_ProgressUpper_02_04",
    "text": "Er...{{delay frames=\"15\"}}I didn't take very much with me when I left the\nOctoling world, sooo..."
  },
  {
    "label": "Phase2_ProgressUpper_02_05",
    "text": "Yeah, there's like no chance your stuff isn't in a\ngarbage compactor somewhere."
  },
  {
    "label": "Phase2_ProgressUpper_02_06",
    "text": "I figured. {{delay frames=\"15\"}}Wish I'd brought some of my keepsakes and\nmementos along..."
  },
  {
    "label": "Phase3_00F_First00",
    "text": "Yo, Acht! {{delay frames=\"15\"}}Keeping the world safe for elevators, I see!"
  },
  {
    "label": "Phase3_00F_First01",
    "text": "Pearl. Eight. {{delay frames=\"30\"}}You seem ready to set out again."
  },
  {
    "label": "Phase3_00F_First02",
    "text": "I'm actually kind of looking forward to climbing the\nSpire again with all of you!"
  },
  {
    "label": "Phase3_00F_First03",
    "text": "We're headed for the control room at the top floor.{{delay frames=\"30\"}}\nCan't we just push the button and go now?"
  },
  {
    "label": "Phase3_00F_First04",
    "text": "Still no. {{delay frames=\"15\"}}Remember—it goes one floor at a time."
  },
  {
    "label": "Phase3_00F_Rnd00_00",
    "text": "Yo, Marina! {{delay frames=\"15\"}}Got any words of encouragement for us?"
  },
  {
    "label": "Phase3_00F_Rnd00_01",
    "text": "Sure! {{delay frames=\"30\"}}Uhhh...{{delay frames=\"15\"}}go get 'em, tigerfish!"
  },
  {
    "label": "Phase3_00F_Rnd01_00",
    "text": "Yo, Eight! {{delay frames=\"15\"}}It's all riding on you again."
  },
  {
    "label": "Phase3_00F_Rnd01_01",
    "text": "Not ALL. {{delay frames=\"15\"}}You'll be there backing Eight up, right?"
  },
  {
    "label": "Phase3_00F_Rnd02_00",
    "text": "All set? {{delay frames=\"15\"}}Then let's hit it."
  },
  {
    "label": "Phase3_00F_Rnd02_01",
    "text": "Goooing up!"
  },
  {
    "label": "Phase3_05F_First00",
    "text": "5F CLEARED! This party is officially ON! {{delay frames=\"30\"}}And we snagged\nsome Prlz too."
  },
  {
    "label": "Phase3_05F_First01",
    "text": "You sound pretty chipper, Pearl!"
  },
  {
    "label": "Phase3_05F_First02",
    "text": "Yeah! Our world tour finished without a hitch, but we\nhaven't gotten that \"us time\" I promised! {{delay frames=\"30\"}}I wanna get\nthis over with so we can go have some REAL fun."
  },
  {
    "label": "Phase3_05F_First03",
    "text": "Oh, {{delay frames=\"15\"}}Pearlie!"
  },
  {
    "label": "Phase3_05F_First04",
    "text": "Psst, Eight. {{delay frames=\"15\"}}Are these two always like this?"
  },
  {
    "label": "Phase3_09F_First00",
    "text": "Next is 10F, yeah? {{delay frames=\"30\"}}Which means you-know-what?"
  },
  {
    "label": "Phase3_09F_First01",
    "text": "A boss? {{delay frames=\"15\"}}Yeah."
  },
  {
    "label": "Phase3_09F_First02",
    "text": "Guess not that much has changed about this place\nsince we beat Order."
  },
  {
    "label": "Phase3_09F_First03",
    "text": "Apparently not. {{delay frames=\"30\"}}I'm reluctant to mess with the system\ntoo much, {{delay frames=\"15\"}}since there's an issue with the Palettes."
  },
  {
    "label": "Phase3_09F_First04",
    "text": "Whaaatever. {{delay frames=\"15\"}}It won't be a cakewalk, but we can\nhandle it, no sweat. Right, Eight?!"
  },
  {
    "label": "Phase3_10F_First00",
    "text": "We're infallible, always invaluable, worth incalculable!\nWe catch in fools' throats—call us un-Palette-able!"
  },
  {
    "label": "Phase3_10F_First01",
    "text": "Hey, speaking of Palettes. We've seen ones for me and\nMarina...{{delay frames=\"15\"}} Do Eight and Acht have 'em too?"
  },
  {
    "label": "Phase3_10F_First02",
    "text": "I did get a signal from one that seemed like Eight's!{{delay frames=\"30\"}}\nBut...{{delay frames=\"15\"}}Acht doesn't seem to have a Palette.{{pageBreak}}My guess is that when their soul got pulled into the\nMemverse,{{delay frames=\"15\"}} it fixed onto Acht before it could get\nturned into a Palette."
  },
  {
    "label": "Phase3_10F_First03",
    "text": "Not sure what that means. {{delay frames=\"30\"}}Guess I got lucky?"
  },
  {
    "label": "Phase3_10F_First04",
    "text": "So if Eight's Palette is in those lockers, we'll find it\neventually if we keep opening them?"
  },
  {
    "label": "Phase3_10F_First05",
    "text": "We can't just leave Eight's soul to rot! {{delay frames=\"15\"}}Let's get\nbusy hunting down locker keys!"
  },
  {
    "label": "Phase3_15F_First00",
    "text": "So, that Order— {{delay frames=\"15\"}}Well, I guess it's Smollusk now.{{delay frames=\"30\"}}\nWhat's it been up to since our big win?"
  },
  {
    "label": "Phase3_15F_First01",
    "text": "I wondered about that too. {{delay frames=\"15\"}}I looked into it, and I\ncouldn't find any sign that it left the Memverse."
  },
  {
    "label": "Phase3_15F_First02",
    "text": "No trace of it outside the Spire though. {{delay frames=\"30\"}}Odds are\ngood that it's still here."
  },
  {
    "label": "Phase3_15F_First03",
    "text": "It doesn't have enough power to get its tentacles on\nthe real world anymore. {{delay frames=\"15\"}}So I don't think it's a threat\nwe need to worry about, exactly, but..."
  },
  {
    "label": "Phase3_15F_First04",
    "text": "Maaan, I hope it's not up to any big schemes or\nwhatever. I do NOT want a rematch."
  },
  {
    "label": "Phase3_15F_First05",
    "text": "Don't worry. {{delay frames=\"15\"}}We're keeping an eye out for Smollusk.\nIt won't slip through our fingers."
  },
  {
    "label": "Phase3_15F_First06",
    "text": "Right. Meanwhile, you two should still focus on getting\nthrough all the floors."
  },
  {
    "label": "Phase3_15F_First07",
    "text": "Can do! {{delay frames=\"30\"}}Speaking of which. After you, Eight!"
  },
  {
    "label": "Phase3_19F_First00",
    "text": "You're killing it so far, Eight! {{delay frames=\"30\"}}But be careful with\nthe boss fight ahead."
  },
  {
    "label": "Phase3_19F_First01",
    "text": "Yo, 'Rina! {{delay frames=\"15\"}}You got any secret weapons stashed that\ncould one-shot a boss for us?"
  },
  {
    "label": "Phase3_19F_First02",
    "text": "Since you asked nicely... {{delay frames=\"30\"}}Want to try the prototype\nSpittin' Fire Trip Wires I made while developing\nthe Memverse?"
  },
  {
    "label": "Phase3_19F_First03",
    "text": "Oooh, that sounds AWESOME! {{delay frames=\"15\"}}I say we bust 'em out\nto blow this boss sky-high!"
  },
  {
    "label": "Phase3_19F_First04",
    "text": "Fair warning—{{delay frames=\"15\"}}they're a bit overtuned. My last simulation\nshowed an 88.8 percent chance of destroying the Spire."
  },
  {
    "label": "Phase3_19F_First05",
    "text": "Let's retire those trip wires before we expire."
  },
  {
    "label": "Phase3_20F_First00",
    "text": "That was impressive, Eight. {{delay frames=\"30\"}}How'd you get so skilled?"
  },
  {
    "label": "Phase3_20F_First01",
    "text": "Huh. {{delay frames=\"15\"}}Acht, didn't you say you came back to the\nMemverse to \"confirm something\"?{{pageBreak}}Was that \"something\" the secret to how Eight\ngot to be so good?"
  },
  {
    "label": "Phase3_20F_First02",
    "text": "Ha! Nah. {{delay frames=\"15\"}}I'm not interested in being a better soldier\nor anything."
  },
  {
    "label": "Phase3_20F_First03",
    "text": "Hee-hee! That's for sure. {{delay frames=\"30\"}}I remember how often\nyou'd skip out on combat drills back at school."
  },
  {
    "label": "Phase3_20F_First04",
    "text": "So then, what did you wanna know?"
  },
  {
    "label": "Phase3_20F_First05",
    "text": "Well, not to make a big deal of it, but...{{delay frames=\"30\"}}\nYou ever been to the Deepsea Metro, Pearl?"
  },
  {
    "label": "Phase3_20F_First06",
    "text": "Whoa, where'd that come from? {{delay frames=\"30\"}}No, I've never been.{{delay frames=\"15\"}}\nThough I got pretty close to it once...{{delay frames=\"15\"}} Must've been\nfive or so years back?"
  },
  {
    "label": "Phase3_20F_First07",
    "text": "Oh, right! The day we went to extract Eight! {{delay frames=\"30\"}}I still\nget goose bumps thinking about the force of your\nshout that day."
  },
  {
    "label": "Phase3_20F_First08",
    "text": "There it is. {{delay frames=\"15\"}}So it's confirmed that was Pearl's voice."
  },
  {
    "label": "Phase3_20F_First09",
    "text": "That's what you were wondering about?"
  },
  {
    "label": "Phase3_20F_First10",
    "text": "Yep. And now I know. {{delay frames=\"30\"}}So...{{delay frames=\"15\"}}thanks, Pearl."
  },
  {
    "label": "Phase3_20F_First11",
    "text": "Huh?{{delay frames=\"15\"}} Thanks for what? {{delay frames=\"30\"}}And, also, you're welcome?"
  },
  {
    "label": "Phase3_25F_First00",
    "text": "Huh...{{delay frames=\"15\"}}we're a long way up. {{delay frames=\"30\"}}Must be almost at the\ntop floor, yeah?"
  },
  {
    "label": "Phase3_25F_First01",
    "text": "Eight! Pearl! {{delay frames=\"15\"}}Guess what? {{delay frames=\"30\"}}We figured out where\nSmollusk went!"
  },
  {
    "label": "Phase3_25F_First02",
    "text": "Seriously?! {{delay frames=\"15\"}}Ohhh no. {{delay frames=\"30\"}}We haven't seen it yet, so I bet\nI know what you're gonna say."
  },
  {
    "label": "Phase3_25F_First03",
    "text": "I bet you're right. {{delay frames=\"30\"}}Smollusk is in the control room on\nthe top floor."
  },
  {
    "label": "Phase3_25F_First04",
    "text": "OF COURSE IT IS!"
  },
  {
    "label": "Phase3_25F_First05",
    "text": "I don't like this at all, but I guess we've gotta go\nthere anyway. {{delay frames=\"30\"}}Eyes on the prize, Eight!"
  },
  {
    "label": "Phase3_29F_NotClr00_00",
    "text": "Good ol' top floor. {{delay frames=\"30\"}}You think that Smollusk twerp\nis here?"
  },
  {
    "label": "Phase3_29F_NotClr00_01",
    "text": "Yeah. {{delay frames=\"15\"}}Looks like it's holed up in the control room."
  },
  {
    "label": "Phase3_29F_NotClr00_02",
    "text": "Fingers crossed it lets us reconfigure the Palette\nin peace. {{delay frames=\"30\"}}But I'm not holding my breath."
  },
  {
    "label": "Phase3_29F_NotClr00_03",
    "text": "We might have to fight that creep again.{{delay frames=\"30\"}}\nStay sharp, Eight!"
  },
  {
    "label": "Phase3_29F_NotClr01_00",
    "text": "Top floor, coming up. {{delay frames=\"30\"}}Even money on Smollusk trying\nto stop us again."
  },
  {
    "label": "Phase3_29F_NotClr01_01",
    "text": "Why do you think that thing's so hung up on its\n\"world of order\"?"
  },
  {
    "label": "Phase3_29F_NotClr01_02",
    "text": "Maybe if we knew where Smollusk—{{delay frames=\"15\"}}or rather, Order—{{delay frames=\"15\"}}\ncame from, we could figure that out."
  },
  {
    "label": "Phase3_29F_NotClr01_03",
    "text": "It doesn't seem like the sharing type."
  },
  {
    "label": "Phase3_29F_NotClr01_04",
    "text": "Doesn't really matter. We're here to reconfigure this\nPalette, and that's it. {{delay frames=\"30\"}}Lead the way, Eight!"
  },
  {
    "label": "Phase3_29F_NotClr02_00",
    "text": "We're just about at the control room, but..."
  },
  {
    "label": "Phase3_29F_NotClr02_01",
    "text": "We gotta go through Smollusk again, huh?{{pageBreak}}Is this gonna keep happening until we reconfigure\nevery single Palette?!"
  },
  {
    "label": "Phase3_29F_NotClr02_02",
    "text": "Unless Smollusk decides to give up, probably."
  },
  {
    "label": "Phase3_29F_NotClr02_03",
    "text": "UGGGHHH! Cut me a break here! {{delay frames=\"30\"}}New plan, Eight.{{delay frames=\"15\"}}\nThis time, we're gonna make Smollusk see reason!"
  },
  {
    "label": "Phase3_29F_NotClr03_00",
    "text": "Hey, you know how Smollusk said \"everyone helped\nmake the Memverse\" or whatever?{{pageBreak}}I thought Marina built this place though. {{delay frames=\"30\"}}So what did\nit mean, \"everyone\"?"
  },
  {
    "label": "Phase3_29F_NotClr03_01",
    "text": "I did recruit some Octoling engineers to help with\nMemverse development. {{delay frames=\"30\"}}But it can't mean them, right?"
  },
  {
    "label": "Phase3_29F_NotClr03_02",
    "text": "There could be a connection there to Smollusk."
  },
  {
    "label": "Phase3_29F_NotClr03_03",
    "text": "Then let's go in and ask it!"
  },
  {
    "label": "Phase3_29F_NotClr04_00",
    "text": "So Order was born from the Memverse developers'\ndesire for a world that would never change?"
  },
  {
    "label": "Phase3_29F_NotClr04_01",
    "text": "Why would anyone want that?"
  },
  {
    "label": "Phase3_29F_NotClr04_02",
    "text": "I'm hoping Smollusk can tell us. But will it want to?"
  },
  {
    "label": "Phase3_29F_NotClr04_03",
    "text": "I doubt this is the last we'll see of Smollusk.{{delay frames=\"30\"}}\nWho knows? Maybe it'll feel talkative sometime."
  },
  {
    "label": "Phase3_29F_NotClr05_00",
    "text": "Based on last time, it seems like Smollusk thinks\nI \"backstabbed\" it somehow."
  },
  {
    "label": "Phase3_29F_NotClr05_01",
    "text": "If Smollusk was born from the desires of the Memverse\ndevs, then it might see Marina as a parent.{{pageBreak}}Here's a weird thought. {{delay frames=\"30\"}}Is Smollusk acting out because\nit can't get Marina to understand what it wants?"
  },
  {
    "label": "Phase3_29F_NotClr05_02",
    "text": "So what if it is? {{delay frames=\"15\"}}We still can't let it win!"
  },
  {
    "label": "Phase3_29F_NotClr05_03",
    "text": "We got one job, and that's to get this Palette\nreconfigured. {{delay frames=\"30\"}}So let's go do it, Eight!"
  },
  {
    "label": "Phase3_29F_NotClr06_00",
    "text": "Smollusk's right about the Octoling world going through\na lot of rapid change these past few years."
  },
  {
    "label": "Phase3_29F_NotClr06_01",
    "text": "I can see how the Memverse devs might have\ntrouble adjusting."
  },
  {
    "label": "Phase3_29F_NotClr06_02",
    "text": "Yeah...{{delay frames=\"15\"}}I can sympathize with feeling lost or confused\nwhen something or someone important to you changes."
  },
  {
    "label": "Phase3_29F_NotClr06_03",
    "text": "But what's the problem if it turns out better than\nbefore? {{delay frames=\"30\"}}Nothing! Zero problems detected!"
  },
  {
    "label": "Phase3_29F_NotClr06_04",
    "text": "Yo, Eight! {{delay frames=\"15\"}}What do you think?"
  },
  {
    "label": "Phase3_29F_NotClr07_00",
    "text": "Feels like we're reconfiguring Palettes at a pretty\ngood clip."
  },
  {
    "label": "Phase3_29F_NotClr07_01",
    "text": "Yeah! {{delay frames=\"15\"}}Keep it up, everyone!"
  },
  {
    "label": "Phase3_29F_NotClr07_02",
    "text": "Out of all the Palettes I've detected in the Memverse,{{delay frames=\"15\"}}\nwe should have reconfigured over half!"
  },
  {
    "label": "Phase3_29F_NotClr07_03",
    "text": "SWEET! {{delay frames=\"15\"}}Then let's go add one more to the pile!"
  },
  {
    "label": "Phase3_29F_NotClr08_00",
    "text": "Wow, this was a great run. {{delay frames=\"30\"}}And look—we're already\nat the top floor!"
  },
  {
    "label": "Phase3_29F_NotClr08_01",
    "text": "Now to take care of Smollusk and reconfigure\nthat Palette."
  },
  {
    "label": "Phase3_29F_NotClr08_02",
    "text": "Yo, I've lost count of how many times we've pulverized\nthat puny punk. {{delay frames=\"30\"}}When is it gonna throw in the towel?"
  },
  {
    "label": "Phase3_29F_NotClr08_03",
    "text": "It could happen. {{delay frames=\"15\"}}But it probably won't."
  },
  {
    "label": "Phase3_29F_NotClr09_00",
    "text": "That Smollusk REALLY ain't down with letting us\nreconfigure the Palettes."
  },
  {
    "label": "Phase3_29F_NotClr09_01",
    "text": "Yeah, it's weird. Our mission here doesn't even have\nanything to do with it."
  },
  {
    "label": "Phase3_29F_NotClr09_02",
    "text": "So how come it keeps getting in our way? {{delay frames=\"30\"}}Does it\nwant payback that bad?!"
  },
  {
    "label": "Phase3_29F_NotClr09_03",
    "text": "Heh."
  },
  {
    "label": "Phase3_29F_NotClr09_04",
    "text": "Yo, Acht, let us in on the joke."
  },
  {
    "label": "Phase3_29F_NotClr09_05",
    "text": "Don't ask me. {{delay frames=\"30\"}}Ask Smollusk."
  },
  {
    "label": "Phase3_29F_NotClr10_00",
    "text": "Alright. {{delay frames=\"15\"}}Last one."
  },
  {
    "label": "Phase3_29F_NotClr10_01",
    "text": "Once we reconfigure Eight's Palette, we can finally\nrest easy!"
  },
  {
    "label": "Phase3_29F_NotClr10_02",
    "text": "Eight, Pearl, Acht, {{delay frames=\"15\"}}I owe you all SO much!"
  },
  {
    "label": "Phase3_29F_NotClr10_03",
    "text": "Yo, save it for when we win!"
  },
  {
    "label": "Phase3_29F_NotClr10_04",
    "text": "First, we've gotta reconfigure Eight's Palette.{{delay frames=\"30\"}}\nIt's go time, Eight!"
  },
  {
    "label": "Phase3_29F_ClearedPlt00_00",
    "text": "Woot woot! {{delay frames=\"15\"}}One floor to go!"
  },
  {
    "label": "Phase3_29F_ClearedPlt00_01",
    "text": "Which means another fight with Smollusk."
  },
  {
    "label": "Phase3_29F_ClearedPlt00_02",
    "text": "Yeah, probably. {{delay frames=\"30\"}}But I'm not worried. {{delay frames=\"15\"}}We've proven\nwe can do it, and we'll do it again!"
  },
  {
    "label": "Phase3_29F_ClearedPlt01_00",
    "text": "Wow, what a run! {{delay frames=\"30\"}}Next stop, top floor!"
  },
  {
    "label": "Phase3_29F_ClearedPlt01_01",
    "text": "That Smollusk twerp is probably gonna be a pain again.{{delay frames=\"15\"}}\nBut we'll deal with that when we come to it!"
  },
  {
    "label": "Phase3_29F_ClearedPlt01_02",
    "text": "It's good to be confident. {{delay frames=\"15\"}}Just don't take it too far."
  },
  {
    "label": "Phase3_29F_ClearedPlt02_00",
    "text": "We're coming up on the top floor."
  },
  {
    "label": "Phase3_29F_ClearedPlt02_01",
    "text": "Smollusk might be lying in wait for another fight."
  },
  {
    "label": "Phase3_29F_ClearedPlt02_02",
    "text": "If that's what it wants, that's what we'll give it!{{delay frames=\"30\"}}\nWeapons ready, Eight. {{delay frames=\"15\"}}Here we go!"
  },
  {
    "label": "Phase3_29F_Complete00_00",
    "text": "We're on a hot streak! {{delay frames=\"15\"}}And it DON'T STOP!"
  },
  {
    "label": "Phase3_29F_Complete00_01",
    "text": "How many times do you think we've climbed the Spire?"
  },
  {
    "label": "Phase3_29F_Complete00_02",
    "text": "Oh, I stopped keeping track a while ago."
  },
  {
    "label": "Phase3_29F_Complete01_00",
    "text": "One last step. {{delay frames=\"15\"}}The control room."
  },
  {
    "label": "Phase3_29F_Complete01_01",
    "text": "Think that Smollusk squirt is waiting for us?"
  },
  {
    "label": "Phase3_29F_Complete01_02",
    "text": "I don't think it ever leaves. {{delay frames=\"30\"}}The place must feel like\nhome for it!"
  },
  {
    "label": "Phase3_29F_Complete02_00",
    "text": "Oh! {{delay frames=\"15\"}}Are we here already?"
  },
  {
    "label": "Phase3_29F_Complete02_01",
    "text": "I'm sure Smollusk is waiting with bated breath."
  },
  {
    "label": "Phase3_29F_Complete02_02",
    "text": "Yeah? You think it has lungs?"
  },
  {
    "label": "Phase3_PreBoss_00_00",
    "text": "This next floor will be a tough fight. {{delay frames=\"30\"}}Please, PLEASE\nbe careful, you two."
  },
  {
    "label": "Phase3_PreBoss_00_01",
    "text": "Don't do anything I wouldn't."
  },
  {
    "label": "Phase3_PreBoss_00_02",
    "text": "Yeah, yeah, we know. {{delay frames=\"15\"}}Come on, Eight—let's go out and\nhave some fun!"
  },
  {
    "label": "Phase3_PreBoss_01_00",
    "text": "So we're up against a boss next? {{delay frames=\"30\"}}We'll cross-check\nthat reject until it's a lost wreck! No respect!"
  },
  {
    "label": "Phase3_PreBoss_01_01",
    "text": "{{size value=\"75\"}}She's sooo cooool...{{size value=\"100\"}}"
  },
  {
    "label": "Phase3_PreBoss_01_02",
    "text": "Well. {{delay frames=\"15\"}}Best of luck."
  },
  {
    "label": "Phase3_PreBoss_02_00",
    "text": "There's a serious fight waiting on the next floor.{{delay frames=\"30\"}}\nDon't bite off more than you can chew."
  },
  {
    "label": "Phase3_PreBoss_02_01",
    "text": "Yes, please don't overextend yourselves!"
  },
  {
    "label": "Phase3_PreBoss_02_02",
    "text": "You two gotta quit it with that talk! {{delay frames=\"30\"}}Eight and me\naren't gonna go out like chumps!"
  },
  {
    "label": "Phase3_PostBoss_00_00",
    "text": "What a relief to see you both OK!"
  },
  {
    "label": "Phase3_PostBoss_00_01",
    "text": "Nice moves. {{delay frames=\"15\"}}Though I shouldn't be surprised."
  },
  {
    "label": "Phase3_PostBoss_00_02",
    "text": "We had it on LOCK! {{delay frames=\"15\"}}Remember this feeling as we keep\nclimbing, Eight!"
  },
  {
    "label": "Phase3_PostBoss_01_00",
    "text": "HAHAHA! {{delay frames=\"30\"}}The smelly-finned Jelleton fell again!\nThat boss had no bars, while we toss the big bombs!"
  },
  {
    "label": "Phase3_PostBoss_01_01",
    "text": "You two are so cool, it's scary!"
  },
  {
    "label": "Phase3_PostBoss_01_02",
    "text": "No joke. {{delay frames=\"15\"}}I'm glad we're on the same side."
  },
  {
    "label": "Phase3_PostBoss_02_00",
    "text": "That was incredible, Eight. {{delay frames=\"30\"}}I already knew you were\ngood—but not this good."
  },
  {
    "label": "Phase3_PostBoss_02_01",
    "text": "Oh, you finally noticed? {{delay frames=\"30\"}}Eight is INCREDIBLE!"
  },
  {
    "label": "Phase3_PostBoss_02_02",
    "text": "And Pearl is incredibly, INCREDIBLY incredible!{{delay frames=\"30\"}}\nIsn't that right, Acht?!"
  },
  {
    "label": "Phase3_PostBoss_02_03",
    "text": "Uh...{{delay frames=\"15\"}}yeah. {{delay frames=\"15\"}}Absolutely."
  },
  {
    "label": "Phase3_PostBoss_03_00",
    "text": "Gotta say, you make that look easy. {{delay frames=\"30\"}}You don't get\nnervous fighting those things?"
  },
  {
    "label": "Phase3_PostBoss_03_01",
    "text": "They're a pain but not really scary. {{delay frames=\"30\"}}Fighting Marina\nin that first tower was WAY scarier."
  },
  {
    "label": "Phase3_PostBoss_03_02",
    "text": "What?! {{delay frames=\"30\"}}R-really?"
  },
  {
    "label": "Phase3_PostBoss_03_03",
    "text": "Obviously! {{delay frames=\"30\"}}Wondering if you were stuck that way\nforever, never going back to normal...{{delay frames=\"30\"}} I was scared!"
  },
  {
    "label": "Phase3_PostBoss_03_04",
    "text": "Ohhh, Pearlie!"
  },
  {
    "label": "Phase3_PostBoss_03_05",
    "text": "Uhhh. {{delay frames=\"30\"}}Times like this, Eight...{{delay frames=\"15\"}}I'm glad you're here."
  },
  {
    "label": "Phase3_Chat_00_00",
    "text": "That weapon seems almost like part of you now."
  },
  {
    "label": "Phase3_Chat_00_01",
    "text": "Speaking of which, my Palette has dualies, right?{{delay frames=\"30\"}}\nI main those, yo! {{delay frames=\"15\"}}I'm happy Eight picked 'em up."
  },
  {
    "label": "Phase3_Chat_00_02",
    "text": "Good eye! {{delay frames=\"30\"}}Each Palette is automatically set with a\nweapon favored by its owner's soul."
  },
  {
    "label": "Phase3_Chat_00_03",
    "text": "Whoa, no way! {{delay frames=\"30\"}}That explains why yours is a brella."
  },
  {
    "label": "Phase3_Chat_00_04",
    "text": "This place is the first I've heard of these \"brellas.\""
  },
  {
    "label": "Phase3_Chat_00_05",
    "text": "Yeah, they're new! {{delay frames=\"15\"}}Well, newish. They only came on\nthe scene a few years ago."
  },
  {
    "label": "Phase3_Chat_00_06",
    "text": "They open with a FWOOMP! {{delay frames=\"15\"}}And then, TA-DAAA! You get\nto go KCHOW, KCHOW!{{delay frames=\"30\"}} They're SUPER fun!"
  },
  {
    "label": "Phase3_Chat_00_07",
    "text": "Sounds...{{delay frames=\"15\"}}great?"
  },
  {
    "label": "Phase3_Chat_01_00",
    "text": "Alright. {{delay frames=\"30\"}}NOW we're in business!"
  },
  {
    "label": "Phase3_Chat_01_01",
    "text": "I don't know about you, but I'm getting sick of seeing\nJelleton faces."
  },
  {
    "label": "Phase3_Chat_01_02",
    "text": "Jelletons were supposed to be like tower staff.{{delay frames=\"15\"}}\nBut Order modified them to be this instead."
  },
  {
    "label": "Phase3_Chat_01_03",
    "text": "My original design for them was a lot cuter!"
  },
  {
    "label": "Phase3_Chat_01_04",
    "text": "I dunno—these ones are pretty grody."
  },
  {
    "label": "Phase3_Chat_01_05",
    "text": "Ugh. {{delay frames=\"15\"}}I wish you could see them the way they were\nmeant to be! It'd be wuv at first sight!"
  },
  {
    "label": "Phase3_Chat_02_00",
    "text": "Hey, Acht. {{delay frames=\"15\"}}Do you remember that game I made way\nback when? {{delay frames=\"30\"}}You were the only one of our classmates\nwho ever managed to beat it."
  },
  {
    "label": "Phase3_Chat_02_01",
    "text": "Oh, right, the rhythm game that ran at like 888 BPM.{{delay frames=\"30\"}}\nYeah, I remember now...{{delay frames=\"30\"}}and I'm getting nauseous\nthinking about it."
  },
  {
    "label": "Phase3_Chat_02_02",
    "text": "I actually made an even harder sequel."
  },
  {
    "label": "Phase3_Chat_02_03",
    "text": "Are you kidding? {{delay frames=\"15\"}}Why? {{delay frames=\"30\"}}I told you over and over to widen\nthe timing window and reduce the number of notes!"
  },
  {
    "label": "Phase3_Chat_02_04",
    "text": "I just thought...{{delay frames=\"15\"}}it would be boring if it was too easy.{{delay frames=\"30\"}}\nAnd Pearl beat it without even blinking, so..."
  },
  {
    "label": "Phase3_Chat_02_05",
    "text": "That thing when you hear a sound and press a button?{{delay frames=\"30\"}}\nThat was supposed to be hard?"
  },
  {
    "label": "Phase3_Chat_02_06",
    "text": "Unbelievable."
  },
  {
    "label": "Phase3_Chat_03_00",
    "text": "Yo, Acht! {{delay frames=\"15\"}}You gonna let me hear any of those funny\nMarina stories you got saved up?"
  },
  {
    "label": "Phase3_Chat_03_01",
    "text": "B— {{delay frames=\"15\"}}Wh— {{delay frames=\"15\"}}Pearl!"
  },
  {
    "label": "Phase3_Chat_03_02",
    "text": "Let me think. {{delay frames=\"30\"}}There was the time she talked to nobody\nabout excavators for two hours straight."
  },
  {
    "label": "Phase3_Chat_03_03",
    "text": "Whoa, for real?! {{delay frames=\"15\"}}Wow, 'Rina. {{delay frames=\"30\"}}I can't believe how short\nyour speeches used to be!"
  },
  {
    "label": "Phase3_Chat_03_04",
    "text": "I was a younger, less experienced nerd. {{delay frames=\"30\"}}Nowadays,\nI feel confident in my ability to fully convey the joys\nof excavators accurately and in painstaking de—"
  },
  {
    "label": "Phase3_Chat_03_05",
    "text": "Think we're ready for that next floor now, Eight."
  },
  {
    "label": "Phase3_Chat_04_00",
    "text": "Maaan, I just remembered our world tour is over.{{delay frames=\"30\"}}\nI had such a blast! {{delay frames=\"30\"}}Can we do another one?"
  },
  {
    "label": "Phase3_Chat_04_01",
    "text": "Your shows really were off the hook. {{delay frames=\"30\"}}And the crowds\nwere...{{delay frames=\"15\"}}almost unnaturally enthusiastic."
  },
  {
    "label": "Phase3_Chat_04_02",
    "text": "You think so?! {{delay frames=\"15\"}}I wonder..."
  },
  {
    "label": "Phase3_Chat_04_03",
    "text": "What's up, 'Rina?"
  },
  {
    "label": "Phase3_Chat_04_04",
    "text": "Could Pearl's voice during the battle with Order have\nimprinted on the unconscious minds accessing the\nMemverse? {{delay frames=\"15\"}}That can't be...but in theory...{{size value=\"75\"}}mumble mumble...{{size value=\"100\"}}"
  },
  {
    "label": "Phase3_Chat_04_05",
    "text": "Guess it's true that Pearl's voice leaves an impression\non the folks who hear it."
  },
  {
    "label": "Phase3_Chat_05_00",
    "text": "Hey, Acht...{{delay frames=\"15\"}}were people mad when I left the\nOctoling world?"
  },
  {
    "label": "Phase3_Chat_05_01",
    "text": "Mad isn't the word. {{delay frames=\"15\"}}More like shocked. {{delay frames=\"30\"}}They couldn't\nbelieve an elite soldier would up and vanish."
  },
  {
    "label": "Phase3_Chat_05_02",
    "text": "HAH! {{delay frames=\"15\"}}That's Marina for you. When she makes up her\nmind, you do NOT want to be in her way!"
  },
  {
    "label": "Phase3_Chat_05_03",
    "text": "I didn't really understand the implications then.{{delay frames=\"30\"}}\nI'm sorry for up and leaving without a word."
  },
  {
    "label": "Phase3_Chat_05_04",
    "text": "No need to apologize. {{delay frames=\"30\"}}It didn't bother me...much."
  },
  {
    "label": "Phase3_Chat_05_05",
    "text": "Anyone talking smack about Marina is gonna catch\nthese rotors! {{delay frames=\"30\"}}I don't care HOW good a friend they\nwere in the old days!"
  },
  {
    "label": "Phase3_Chat_05_06",
    "text": "Thanks, Pearl. {{delay frames=\"30\"}}You're so cool..."
  },
  {
    "label": "Phase3_Chat_06_00",
    "text": "Yo, Marina! {{delay frames=\"15\"}}Wouldn't it be more fun if this elevator\nwent up and down real fast, like a theme-park ride?"
  },
  {
    "label": "Phase3_Chat_06_01",
    "text": "Pearl! {{delay frames=\"15\"}}It's designed to help people, not make them\nthrow up."
  },
  {
    "label": "Phase3_Chat_07_00",
    "text": "Siiigh..."
  },
  {
    "label": "Phase3_Chat_07_01",
    "text": "What's up, Marina? {{delay frames=\"15\"}}Getting tired?"
  },
  {
    "label": "Phase3_Chat_07_02",
    "text": "Oh, sorry! {{delay frames=\"30\"}}I was just daydreaming about how adorable\nyou are in this drone form."
  },
  {
    "label": "Phase3_Chat_07_03",
    "text": "So...everything's fine, then."
  },
  {
    "label": "Phase3_Chat_08_00",
    "text": "Oh NO! Nobody panic, but...{{delay frames=\"30\"}}I think I might've forgotten\nmy umbrella on the plane!"
  },
  {
    "label": "Phase3_Chat_08_01",
    "text": "What?! {{delay frames=\"15\"}}The one we took home from the tour?"
  },
  {
    "label": "Phase3_Chat_08_02",
    "text": "Just reach out to the airport. I'm sure they can help."
  },
  {
    "label": "Phase3_Chat_08_03",
    "text": "Nah. {{delay frames=\"15\"}}If it's on the plane, it's still in our backyard,\nso I'll just grab it once we're done here."
  },
  {
    "label": "Phase3_Chat_08_04",
    "text": "Backyard? {{delay frames=\"30\"}}We're talking about the same kind of\nairplane, right?"
  },
  {
    "label": "Phase3_Chat_09_00",
    "text": "Drone Me gets to fly waaay up high and look down at\nMarina! {{delay frames=\"30\"}}You look like a tiny little speck. It's so funny!"
  },
  {
    "label": "Phase3_Chat_09_01",
    "text": "Well, don't fly so high that the wind carries you off."
  },
  {
    "label": "Hint_CollectionEnm_00",
    "text": "Let's keep it moving, Eight!"
  },
  {
    "label": "Hint_CollectionEnm_01",
    "text": "One thing first. {{delay frames=\"15\"}}We're recording data from your fights\nwith Jelletons in the {{color id=\"4\"}}Jelleton Field Guide{{color id=\"65535\"}}."
  },
  {
    "label": "Hint_CollectionEnm_02",
    "text": "We made some notes about behavior and weak points\nand things. It's on {{icon id=\"82\" arg=\"0x0000803F00000000\"}}, if you're interested."
  },
  {
    "label": "Hint_SelectTip_00",
    "text": "Great work, Eight! You're a monster out there!"
  },
  {
    "label": "Hint_SelectTip_01",
    "text": "Hey, wanna know something neat? {{delay frames=\"15\"}}Each Palette has\ncertain {{color id=\"4\"}}common tones{{color id=\"65535\"}}, which determine what color chips\nyou see in the Spire."
  },
  {
    "label": "Hint_SelectTip_02",
    "text": "To see which tones you're most likely to find for your\ncurrent Palette, just press {{icon id=\"72\" arg=\"0x0000803F00000000\"}}!"
  },
  {
    "label": "Hint_SelectTip_03",
    "text": "If you can't decide on a color chip to pick, the common\ntones are usually a safe bet."
  },
  {
    "label": "Hint_Cage_00",
    "text": "I like this pace, Eight!"
  },
  {
    "label": "Hint_Cage_01",
    "text": "Speaking of pace. {{delay frames=\"15\"}}I wanted to remind you that you can\nmake the cage go faster by tilting {{icon id=\"75\" arg=\"0xEC51383FFEFFFFFF\"}}."
  },
  {
    "label": "Hint_Cage_02",
    "text": "There's nothing wrong with letting it go on its own.{{delay frames=\"15\"}}\nBut if you're in a hurry, why not give it a nudge?"
  },
  {
    "label": "Hint_LookPalette_00",
    "text": "Aw yeah! We're still kickin'!"
  },
  {
    "label": "Hint_LookPalette_01",
    "text": "So what color chip are we gonna snag next? {{delay frames=\"30\"}}Hope we\ncan get one of the REALLY cool ones."
  },
  {
    "label": "Hint_LookPalette_02",
    "text": "Nothing wrong with getting another copy of a chip you\nalready have. {{delay frames=\"30\"}}In fact, some color chips really come into\ntheir own once you have a few."
  },
  {
    "label": "Hint_LookPalette_03",
    "text": "If you can't remember which color chips you've taken\nso far, {{delay frames=\"15\"}}press {{icon id=\"72\" arg=\"0x0000803F00000000\"}} for a refresher on your Palette!"
  },
  {
    "label": "Hint_HackingRetry_00",
    "text": "Made it! {{delay frames=\"15\"}}But we're not home free yet, Eight."
  },
  {
    "label": "Hint_HackingRetry_01",
    "text": "Eight? {{delay frames=\"15\"}}Even if you don't get all the way to the top,\nwe're recording all your runs.{{pageBreak}}If you talk to me outside of the Spire, I can help you\n{{color id=\"4\"}}resume{{color id=\"65535\"}} a run that didn't end so well!"
  },
  {
    "label": "Hint_HackingRetry_02",
    "text": "Then what do we got to lose? {{delay frames=\"30\"}}Might as well go for\nbroke every time! {{delay frames=\"15\"}}Heheheheh!"
  },
  {
    "label": "Hint_HackingRetry_03",
    "text": "Not sure \"broke\" is what you should be going for."
  },
  {
    "label": "Hint_CollectionInElv_00",
    "text": "We're clear. {{delay frames=\"15\"}}You two are making good progress.{{delay frames=\"30\"}}\nSetting more color chips should help you keep it up."
  },
  {
    "label": "Hint_CollectionInElv_01",
    "text": "And speaking of color chips...{{delay frames=\"15\"}}we're gathering info about\nthe ones you've set in the {{color id=\"4\"}}Color-Chip Collection{{color id=\"65535\"}}."
  },
  {
    "label": "Hint_CollectionInElv_02",
    "text": "You can see it from here in the elevator by\npressing {{icon id=\"82\" arg=\"0x0000803F00000000\"}}!"
  },
  {
    "label": "Hint_CollectionInElv_03",
    "text": "Oh snap! {{delay frames=\"15\"}}What kinda juicy deets you got for us?{{delay frames=\"30\"}}\nLet's check it out every now and then, Eight!"
  },
  {
    "label": "Hint_Difficulty_02",
    "text": "Eight, did I tell you yet that you'll get more Membux\nfor clearing harder floors?"
  },
  {
    "label": "Hint_Difficulty_03",
    "text": "So if you ever run low on Membux, you could take on\nsome tougher floors to fill your virtual wallet."
  },
  {
    "label": "Hint_Difficulty_05",
    "text": "This all reminds me of this old guy who used to say,{{delay frames=\"15\"}}\n\"Hard work is the best spice for a meal.\" {{delay frames=\"15\"}}Or something.\nNever paid that much attention."
  },
  {
    "label": "Hint_Difficulty_06",
    "text": "Ahaha, I forgot all about that! {{delay frames=\"30\"}}Then he'd start\nhollering, and out come the wasabi sticks..."
  },
  {
    "label": "Hint_Difficulty_07",
    "text": "Is this for real? {{delay frames=\"15\"}}I guess Octolings have weird old men\ntoo. {{delay frames=\"30\"}}Do you know who they're talking about, Eight?"
  },
  {
    "label": "Hint_Drone_00",
    "text": "You're holding steady, Eight! {{delay frames=\"30\"}}And I like to think I'm doing\npretty good myself."
  },
  {
    "label": "Hint_Drone_01",
    "text": "You SO are! {{delay frames=\"30\"}}Eight, my hacks can do a lot to upgrade the\nPearl Drone, you know.{{pageBreak}}For example, I can set it so that {{color id=\"4\"}}color chips {{color id=\"65535\"}}that give\nPearl extra abilities will show up in the Spire."
  },
  {
    "label": "Hint_Drone_02",
    "text": "Or I can add {{color id=\"4\"}}drone action slots{{color id=\"65535\"}} so Pearl has even more\nways to use her drone gauge."
  },
  {
    "label": "Hint_Drone_03",
    "text": "For real?! {{delay frames=\"15\"}}Hook me up, 'Rina!"
  },
  {
    "label": "Hint_Drone_04",
    "text": "That's not all I can do for the drone either. Come talk to\nme outside of the Spire if you're curious!"
  },
  {
    "label": "Hint_CompleteTip_00",
    "text": "I'm really pleased with our progress so far!"
  },
  {
    "label": "Hint_CompleteTip_01",
    "text": "Yo, Marina! {{delay frames=\"15\"}}I was checking the Color-Chip Collection\nand saw these lines connecting some chips. {{delay frames=\"15\"}}What's\nthe deal there?"
  },
  {
    "label": "Hint_CompleteTip_02",
    "text": "Huh? {{delay frames=\"30\"}}Weird. {{delay frames=\"15\"}}It looks like the connected color chips\nshare the same color, but besides that..."
  },
  {
    "label": "Hint_CompleteTip_03",
    "text": "Maybe it'll be clearer once we set enough color chips?{{delay frames=\"30\"}}\nWho knows, we might learn something useful."
  },
  {
    "label": "Hint_CompleteEnm_00",
    "text": "Another incredible performance, Eight!"
  },
  {
    "label": "Hint_CompleteEnm_01",
    "text": "One note for you. {{delay frames=\"15\"}}We've been updating the\nJelleton Field Guide as you splat more of them."
  },
  {
    "label": "Hint_CompleteEnm_02",
    "text": "With enough field data, we could become the world's\nfirst experts in Jelletonology!"
  },
  {
    "label": "Hint_CompleteEnm_03",
    "text": "Do we...want that?"
  },
  {
    "label": "Hint_CompleteEnm_04",
    "text": "I ain't in this for tenure or nothing, but it could be\nworth our while to keep adding notes!"
  },
  {
    "label": "Hint_FleaMarket_00",
    "text": "BAM! {{delay frames=\"15\"}}We're on pace to score a TON of Prlz this run!"
  },
  {
    "label": "Hint_FleaMarket_01",
    "text": "Oh yeah. Think there was this weird shop just outside\nthe Spire. {{delay frames=\"30\"}}It sold some random stuff for Prlz."
  },
  {
    "label": "Hint_FleaMarket_02",
    "text": "Oh, yeah, that place seemed cool! There was all kinds\nof decorations and gear and stuff. {{delay frames=\"30\"}}We should stop by\nif we have Prlz to spare!"
  },
  {
    "label": "Hint_FleaMarket_03",
    "text": "Huh? {{delay frames=\"30\"}}I don't remember building a shop like that into\nthe Memverse..."
  },
  {
    "label": "Hint_JemHardMode_00",
    "text": "Say, Eight...{{delay frames=\"30\"}} Have you ever wished you could rack up\na whole pile of Prlz in a single run?"
  },
  {
    "label": "Hint_JemHardMode_01",
    "text": "If so, then I recommend the {{color id=\"4\"}}Risky Rewards{{color id=\"65535\"}} hack!"
  },
  {
    "label": "Hint_JemHardMode_02",
    "text": "This amazing hack will boost the number of Prlz you get\nafter clearing the top floor of the Spire."
  },
  {
    "label": "Hint_JemHardMode_03",
    "text": "The downside is that if you get kicked out of the Spire\nfirst...{{delay frames=\"15\"}}you won't earn any Prlz at all."
  },
  {
    "label": "Hint_JemHardMode_04",
    "text": "Oh yeah? {{delay frames=\"15\"}}So we make it all the way through, we'll be\nswimming in Prlz—but if we fail, the pool's empty?"
  },
  {
    "label": "Hint_JemHardMode_05",
    "text": "Exactly! {{delay frames=\"15\"}}That's what makes it Risky Rewards. {{delay frames=\"30\"}}If you're\nconfident in your skills, this hack is a good way to put\nthem to the test!"
  },
  {
    "label": "Hint_JemHardMode_06",
    "text": "Feels like I just sat through a sales pitch."
  },
  {
    "label": "Hint_JemHardMode_07",
    "text": "Guess we have done a bunch of commercial work\nlately, huh?"
  },
  {
    "label": "Hint_RechooseStage_00",
    "text": "Welcome back, Eight. {{delay frames=\"30\"}}Give yourself a second if you\nneed it before we hit the next floor."
  },
  {
    "label": "Hint_RechooseStage_01",
    "text": "Before you go, Eight...{{delay frames=\"15\"}}have you ever looked at the\nobjectives or color chips and thought, \"None of these\nsound good to me\"?"
  },
  {
    "label": "Hint_RechooseStage_02",
    "text": "When that happens, press {{icon id=\"73\" arg=\"0x0000803F00000000\"}} for a {{color id=\"4\"}}Floor Reset{{color id=\"65535\"}}!{{delay frames=\"30\"}}\nFor a few Membux, you can reset all three of the\noptions for that floor!"
  },
  {
    "label": "Hint_RechooseStage_03",
    "text": "But Floor Reset isn't a standard feature of the Spire.{{delay frames=\"15\"}}\nSo if you don't have that hack yet, come ask me about\nit outside of the Spire!"
  }
]