[
  {
    "label": "None",
    "text": "None"
  },
  {
    "label": "None_Unit",
    "text": "{{number index=\"0\" type=\"4\" arg3=\"0\" arg4=\"0\"}}"
  },
  {
    "label": "None_Unit_Dec",
    "text": "{{number index=\"0\" type=\"4\" arg3=\"0\" arg4=\"0\"}}.{{number index=\"1\" type=\"4\" arg3=\"0\" arg4=\"0\"}}"
  },
  {
    "label": "Point_Unit",
    "text": "{{number index=\"0\" type=\"4\" arg3=\"0\" arg4=\"0\"}}p"
  },
  {
    "label": "Point_Unit_Dec",
    "text": "{{number index=\"0\" type=\"4\" arg3=\"0\" arg4=\"0\"}}.{{number index=\"1\" type=\"4\" arg3=\"0\" arg4=\"0\"}}p"
  },
  {
    "label": "Percent_Unit",
    "text": "{{number index=\"0\" type=\"4\" arg3=\"0\" arg4=\"0\"}}%"
  },
  {
    "label": "Percent_Unit_Dec",
    "text": "{{number index=\"0\" type=\"4\" arg3=\"0\" arg4=\"0\"}}.{{number index=\"1\" type=\"4\" arg3=\"0\" arg4=\"0\"}}%"
  },
  {
    "label": "PercentOff_Unit",
    "text": "{{number index=\"0\" type=\"4\" arg3=\"0\" arg4=\"0\"}}％ Off"
  },
  {
    "label": "Second_Unit",
    "text": "{{number index=\"0\" type=\"4\" arg3=\"0\" arg4=\"0\"}} sec."
  },
  {
    "label": "Second_Unit_Dec",
    "text": "{{number index=\"0\" type=\"4\" arg3=\"0\" arg4=\"0\"}}.{{number index=\"1\" type=\"4\" arg3=\"0\" arg4=\"0\"}} sec."
  },
  {
    "label": "Rate_Unit",
    "text": "x{{number index=\"0\" type=\"4\" arg3=\"0\" arg4=\"0\"}}"
  },
  {
    "label": "Rate_Unit_Dec",
    "text": "x{{number index=\"0\" type=\"4\" arg3=\"0\" arg4=\"0\"}}.{{number index=\"1\" type=\"4\" arg3=\"0\" arg4=\"0\"}}"
  },
  {
    "label": "TipValue_bool_0",
    "text": "Off"
  },
  {
    "label": "TipValue_bool_1",
    "text": "On"
  },
  {
    "label": "Sdodr_FloorDefault",
    "text": "{{size value=\"75\"}}{{size value=\"100\"}}{{number index=\"0\" type=\"1\" arg3=\"0\" arg4=\"1\"}}{{size value=\"75\"}}F{{size value=\"100\"}}"
  },
  {
    "label": "Sdodr_TryResultScore",
    "text": "{{number index=\"0\" type=\"6\" arg3=\"0\" arg4=\"0\"}}p"
  }
]