[
  {
    "label": "Msg_NoContest",
    "text": "Uno o más participantes se desconectaron poco\ndespués de comenzar el combate, así que el\nresultado queda invalidado. (Se les asignará\nuna derrota a quienes se desconectaron)."
  },
  {
    "label": "Msg_NoContest_Group",
    "text": "El combate finalizó porque uno o más\nparticipantes a los que te habías unido se\ndesconectaron. Se te asignará una derrota."
  },
  {
    "label": "Msg_NoContest_Private",
    "text": "{{color id=\"1\"}}{{string value=\"PlayerName\" arg1=\"0\" arg3=\"0\"}}{{color id=\"65535\"}} interrumpió el combate."
  },
  {
    "label": "Msg_SpectatorCannotPhoto",
    "text": "Los espectadores no pueden tomar fotos."
  }
]