[
  {
    "label": "JP",
    "text": "Japón"
  },
  {
    "label": "US",
    "text": "América/Australia/Nueva Zelanda"
  },
  {
    "label": "EU",
    "text": "Europa"
  },
  {
    "label": "ASIA",
    "text": "Hong Kong/Corea del Sur"
  },
  {
    "label": "JP_Eve",
    "text": "Japón"
  },
  {
    "label": "US_Eve",
    "text": "América"
  },
  {
    "label": "EU_Eve",
    "text": "Europa"
  },
  {
    "label": "ASIA_Eve",
    "text": "Australia/Nueva Zelanda/Hong Kong/Corea del Sur"
  }
]