[
  {
    "label": "Spring",
    "text": "Temporada cálida"
  },
  {
    "label": "Summer",
    "text": "Temporada abrasadora"
  },
  {
    "label": "Autumn",
    "text": "Temporada lluviosa"
  },
  {
    "label": "Winter",
    "text": "Temporada fría"
  }
]