[
  {
    "label": "001_Sub",
    "text": ""
  },
  {
    "label": "001_Name",
    "text": "Octobot King L3.Gs"
  },
  {
    "label": "101_Sub",
    "text": "The Eel Deal"
  },
  {
    "label": "101_Name",
    "text": "Frye"
  },
  {
    "label": "102_Sub",
    "text": "The Cold-Blooded Bandit"
  },
  {
    "label": "102_Name",
    "text": "Shiver"
  },
  {
    "label": "103_Sub",
    "text": "The Hype Manta Storm"
  },
  {
    "label": "103_Name",
    "text": "Big Man"
  },
  {
    "label": "104_Sub",
    "text": "The Ursine Anomaly - #03"
  },
  {
    "label": "104_Name",
    "text": "Mr. Grizz"
  }
]