[
  {
    "label": "Normal_00",
    "text": "We gotta get the Great Zapfish back from\nthose Octarian punks!"
  },
  {
    "label": "Normal_01",
    "text": "Y'know, that Hero Suit fits you just fine. Kids these\ndays like things a little baggy, don't they?"
  },
  {
    "label": "Normal_02",
    "text": "Those darn Octarians! I oughta be enjoying my\nretirement, not retiring my enjoyment!"
  },
  {
    "label": "Normal_03",
    "text": "When all of this is over, maybe we oughta think\nabout some security for the Great Zapfish..."
  },
  {
    "label": "Normal_04",
    "text": "It's nice that you got your li'l buddy with you\nthroughout all...this."
  },
  {
    "label": "Normal_05",
    "text": "That Fuzzy Ooze is trouble. Don't touch it unless you\nwanna spend the next 10 years shavin'!"
  },
  {
    "label": "Normal_06",
    "text": "Whaddaya like to eat these days, kiddo? Food?\nAre kids still eatin' food?"
  },
  {
    "label": "Normal_07",
    "text": "Those kettles lead to the Octarian bases—blast 'em\nwith ink to open 'em. Don't try it on your home kettle."
  },
  {
    "label": "Normal_08",
    "text": "When you're throwin' Smallfry, hold down {{icon id=\"10\" arg=\"0x0000803F00000000\"}} and\ntake your time. Know before you throw!"
  },
  {
    "label": "Normal_09",
    "text": "The coolest thing about that Hero Suit? It'll heal itself\nif you let it! Just be patient."
  },
  {
    "label": "Normal_10",
    "text": "If you're ever feelin' discombobulated, just relax your\nhands for a sec and press {{icon id=\"3\" arg=\"0x0000803F00000000\"}}."
  },
  {
    "label": "Normal_11",
    "text": "Don't let steel grates and fences ruin your day.\nPress {{icon id=\"11\" arg=\"0x0000803F00000000\"}} and squidaddle right through 'em!"
  },
  {
    "label": "Normal_12",
    "text": "You can't spell WIN without IN, and you can't\nspell INK without IN either. Just sayin'."
  },
  {
    "label": "Normal_14",
    "text": "A little too much enemy ink flyin' around? Hide behind\na wall! It ain't fancy, but it gets the job done."
  },
  {
    "label": "Normal_15",
    "text": "I've said it before and I'll say it again...\nInk before you think!"
  },
  {
    "label": "Location_00",
    "text": "You eatin' well these days? Don't go into battle\nhungry, y'hear?"
  },
  {
    "label": "Location_01",
    "text": "You wonderin' about that upside-down tower?\nThat makes two of us, friend."
  },
  {
    "label": "Location_02",
    "text": "You really know what you're doin' out there, don'tcha?\nMakin' me look like a genius for recruiting you!"
  },
  {
    "label": "Location_03",
    "text": "You know Agent 1 and Agent 2? I heard they've got\na side gig. Like bein' pop stars or somethin'."
  },
  {
    "label": "Location_04",
    "text": "I'll be watchin' your progress from afar, Agent 3.\nThese eyes don't miss much!"
  },
  {
    "label": "Location_05",
    "text": "That is a looooooooooooooooooooong way down..."
  },
  {
    "label": "Bored_00",
    "text": "{{string value=\"5\"}}{{color id=\"0\"}}(Ugh, my achin' back...){{color id=\"65535\"}}{{fun_000F_0004 arg=\"0x0500\"}}"
  },
  {
    "label": "Bored_01",
    "text": "{{string value=\"5\"}}{{color id=\"0\"}}(What I wouldn't give for a fresh crabby cake now...){{color id=\"65535\"}}{{fun_000F_0004 arg=\"0x0500\"}}"
  },
  {
    "label": "Bored_02",
    "text": "{{string value=\"5\"}}{{color id=\"0\"}}(Yesterday's lunch was mighty tasty. Maybe I shoulda\nbrushed my teeth a bit more carefully...){{color id=\"65535\"}}{{fun_000F_0004 arg=\"0x0500\"}}"
  },
  {
    "label": "Bored_03",
    "text": "{{string value=\"5\"}}{{color id=\"0\"}}(I sure wish someone woulda told me about\nmoisturizer when I was younger...){{color id=\"65535\"}}{{fun_000F_0004 arg=\"0x0500\"}}"
  },
  {
    "label": "Bored_04",
    "text": "Go on, now. Give those Octarians a fresh coat\nof ink for me!"
  },
  {
    "label": "Bored_05",
    "text": "How can I help you, Agent 3? Need another\npearl of wisdom?"
  },
  {
    "label": "Bored_06",
    "text": "{{string value=\"5\"}}... ... ...{{fun_000F_0004 arg=\"0x0500\"}} GYAH! I wasn't sleeping. That was just\ntactical eyeball moistening, y'see?"
  }
]