[
  {
    "label": "Area1_0",
    "text": "Wow, whoever made these statues must've been HUGE!"
  },
  {
    "label": "Area1_1",
    "text": "This is the weirdest snow ever. It looks normal, but\nit's not cold. And you can ink it! What a mystery!"
  },
  {
    "label": "Area1_3",
    "text": "What if we put on a concert here? We could\nsell the place out, don't you think?"
  },
  {
    "label": "Area1_4",
    "text": "I know it doesn't look like the Captain is doing anything,\nbut I'm sure they're thinking up a plan. Go, Captain!"
  },
  {
    "label": "Area1_7",
    "text": "Doesn't this view just make you wanna...snowboard?"
  },
  {
    "label": "Area2_1",
    "text": "I guess this used to be some kind of factory. At least,\nthat's what Mar— I mean, that's what Agent 2 says..."
  },
  {
    "label": "Area2_2",
    "text": "Now, how would I stage a battle here..."
  },
  {
    "label": "Area2_4",
    "text": "If you wanna reach the highest spot here,\nlook for an {{color id=\"1\"}}inkrail{{color id=\"65535\"}}!"
  },
  {
    "label": "Area2_5",
    "text": "I bet this factory could have made anything.\nIt's so huuuge!"
  },
  {
    "label": "Area3_0",
    "text": "Eee! That shiny ice is freaking me out.\nIt never melts, no matter what!"
  },
  {
    "label": "Area3_1",
    "text": "I suppose it's a bit lonely here..."
  },
  {
    "label": "Area3_2",
    "text": "I guess those orange buildings are houses.\nBut no one's home...right?"
  },
  {
    "label": "Area4_0",
    "text": "OK, does it smell funny here, or...is it just me?{{delay frames=\"15\"}}\nDon't say it's me."
  },
  {
    "label": "Area4_1",
    "text": "Ooo! I'd love to drive this submarine. I'd take it\nstraight down to the bottom of the ocean. VROOM!"
  },
  {
    "label": "Area4_2",
    "text": "...Do you have a submarine license, by any chance,\nAgent 3?"
  },
  {
    "label": "Area4_3",
    "text": "I don't know about you, but I always get nervous\nwalking over grates."
  },
  {
    "label": "Area5_0",
    "text": "Have you seen the {{color id=\"1\"}}gushers {{color id=\"65535\"}}all around here?"
  },
  {
    "label": "Area5_1",
    "text": "I heard that there's still some active flora around\nhere! Credit Agent 2 with that scoop."
  },
  {
    "label": "Area5_2",
    "text": "Did you know that ink is super good for plants?\nI read that online a while back. It could be true!"
  },
  {
    "label": "Area6_0",
    "text": "Is it weird to love hanging out on a rooftop but\nbe too scared to look down? Asking for Agent 2."
  },
  {
    "label": "Area6_1",
    "text": "\"Oh. This must have been a research facility.\"\n...How was my Agent 2 impression?"
  },
  {
    "label": "Area6_2",
    "text": "We can get around using those {{color id=\"1\"}}ride rails{{color id=\"65535\"}}!"
  },
  {
    "label": "Area6_3",
    "text": "Don't tell Agent 2, but I don't really like\nhigh places either..."
  },
  {
    "label": "Progress_ortana_00",
    "text": "Let's get this show on the road, shall we?"
  },
  {
    "label": "Progress_ortana_01",
    "text": "Agent 2 says she can look at spreadsheets all day\nand not get a headache. It's like a superpower!"
  },
  {
    "label": "Progress_ortana_02",
    "text": "Solo albums are OK, but don't you think collabs\nare much more fun?"
  },
  {
    "label": "Progress_ortana_03",
    "text": "Where did you meet Smallfry, by the way?"
  },
  {
    "label": "Progress_ortana_04",
    "text": "Don't be shy with your ink! Splat everywhere, fill up\nyour {{icon id=\"32\" arg=\"0x0000803F00000000\"}}gauge, and you'll get {{color id=\"1\"}}Upgrade Points{{color id=\"65535\"}}!"
  },
  {
    "label": "Progress_ortana_05",
    "text": "Did you know you can jump back to any previous\nkettles directly from the menu?"
  },
  {
    "label": "Progress_ortana_06",
    "text": "Your Hero Gear is looking good, but I bet you\ncan power it up even more!"
  },
  {
    "label": "Progress_ortana_07_00",
    "text": "Isn't the sky beautiful here?"
  },
  {
    "label": "Progress_ortana_07_01",
    "text": "I mean...it's not really a sky...right? Does that\nmake it less beautiful? Or not? Whoooa..."
  },
  {
    "label": "Progress_surimi_00",
    "text": "I was so impressed with Deep Cut's choreography.\nWe've gotta step up our game!"
  },
  {
    "label": "Progress_surimi_03",
    "text": "Are there even any clean-shaven Octarians\naround anymore?"
  },
  {
    "label": "Progress_surimi_04",
    "text": "The more {{color id=\"1\"}}Fuzzballs {{color id=\"65535\"}}and {{color id=\"1\"}}Fuzzy Ooze you destroy{{color id=\"65535\"}},\nthe more you'll fill up your {{icon id=\"32\" arg=\"0x0000803F00000000\"}}gauge!"
  },
  {
    "label": "Progress_surimi_05",
    "text": "Short on Power Eggs? Dive into a kettle,\nand see if you can collect some more!"
  },
  {
    "label": "Progress_surimi_06",
    "text": "You'll need plenty of Power Eggs to register for the\nmissions inside {{color id=\"1\"}}silver kettles{{color id=\"65535\"}}. Keep 'em handy!"
  },
  {
    "label": "Progress_surimi_07",
    "text": "Have you been upgrading your Hero Gear? Could come\nin handy, especially for {{color id=\"1\"}}golden kettles{{color id=\"65535\"}}."
  },
  {
    "label": "Progress_surimi_08",
    "text": "Is it just me, or is O.R.C.A. actually really funny?\nWho knew they could program deadpan humor?!"
  },
  {
    "label": "Progress_boss1_00",
    "text": "Go, go, Agent 3! If you can't do it...no one can!\nNo pressure."
  },
  {
    "label": "Progress_boss1_01",
    "text": "Hey, do you have a favorite Squid Sisters track?"
  },
  {
    "label": "Progress_boss1_02",
    "text": "You're \"supposed\" to sneak behind the shielded\nOctarians, but I like to just BLAST 'em!"
  },
  {
    "label": "Progress_boss1_03",
    "text": "There's gotta be something more to that \"treasure.\"\nI wonder what we could do with it..."
  },
  {
    "label": "Progress_boss2_00",
    "text": "You're doing a great job exploring Alterna...\nLook how much you've filled out the map!"
  },
  {
    "label": "Progress_boss2_01",
    "text": "Just to say it out loud... Thank you for joining\nthe New Squidbeak Splatoon, Agent 3!"
  },
  {
    "label": "Progress_boss3_00",
    "text": "Let's go get Gramps RIGHT NOW! I mean...\nwhen you're ready, Agent 3."
  },
  {
    "label": "Progress_clear_00",
    "text": "If they can dehydrate Gramps, surely we can\nREhydrate him somehow...right?"
  },
  {
    "label": "Progress_clear_01",
    "text": "Hey, is it snack time yet? You hungry?"
  },
  {
    "label": "Progress_clear_02",
    "text": "Agent 2 doesn't think I should drive the rocket.\nBut what do YOU think, Agent 3?"
  },
  {
    "label": "Progress_clear_03",
    "text": "You were like a rock star out there fighting in space!\nAnd Smallfry was your backup dancer!"
  },
  {
    "label": "Progress_clear_04",
    "text": "Who would have thought there'd be ANOTHER rocket?!"
  },
  {
    "label": "Bored_00",
    "text": "...Wait—did I say that already?!"
  },
  {
    "label": "Bored_01",
    "text": "Ooo! I had something else I wanted to say,\nbut I forgot. Don't you hate that?"
  },
  {
    "label": "Bored_02",
    "text": "Oh! But maybe I told you that already..."
  },
  {
    "label": "Bored_03",
    "text": "Wait. Did we have this exact conversation, or was\nthat just a dream..."
  },
  {
    "label": "Gift_00",
    "text": "Surprise! I've got some bonus {{color id=\"1\"}}Power Eggs{{color id=\"65535\"}} for you,\nAgent 3! I hope Smallfry likes them..."
  },
  {
    "label": "Gift_01",
    "text": "Who's got pointy ears and some extra {{color id=\"1\"}}Power Eggs{{color id=\"65535\"}}\nfor you? THIS GIRL!"
  },
  {
    "label": "Gift_02",
    "text": "Guess what. I've got some extra {{color id=\"1\"}}Power Eggs{{color id=\"65535\"}} for you,\ncourtesy of the Captain. They said, \"You're welcome\"!"
  },
  {
    "label": "LaunchPad_00",
    "text": "Now that Agent 2 is the boss of Deep Cut, we should\ndefinitely be able to rescue Gramps!"
  }
]