[
  {
    "label": "Vendor_Button01",
    "text": "Bestellung\nabholen"
  },
  {
    "label": "Vendor_Button02",
    "text": "Sternenwert\nerhöhen"
  },
  {
    "label": "Vendor_Button03",
    "text": "Felder leeren"
  },
  {
    "label": "Vendor_Button04",
    "text": "Neuer\nEffekt"
  },
  {
    "label": "Vendor_Button05",
    "text": "Zufalls-\neffekte"
  },
  {
    "label": "Vendor_Button06",
    "text": "Infos zu\nTentaWorld"
  },
  {
    "label": "Vendor_Button07",
    "text": "In Inkopolis"
  },
  {
    "label": "Vendor_Order_Title",
    "text": "Bestellstatus"
  },
  {
    "label": "Vendor_Order_Manual00",
    "text": "Wenn du {{color id=\"1\"}}auf dem Platz mit anderen Spielern{{color id=\"65535\"}}\nsprichst und dabei Ausrüstung siehst, die dir\ngefällt, kannst du sie bei {{color id=\"1\"}}Sid {{color id=\"65535\"}}bestellen!\n\nDu kannst {{color id=\"1\"}}bis zu drei Ausrüstungsteile{{color id=\"65535\"}}\ngleichzeitig bestellen. Wenn du bereits drei\nausstehende Bestellungen hast und dann noch\netwas bestellst, wird eine der bestehenden\nBestellungen storniert."
  },
  {
    "label": "Vendor_Order_Manual01",
    "text": "Sid erhält die Ausrüstungsteile in der\nReihenfolge ihrer Bestellung, aber immer nur\n{{color id=\"1\"}}ein Teil pro Tag{{color id=\"65535\"}}. Wenn du Glück hast, verfügt\ndein bestelltes Ausrüstungsteil sogar über\ndieselben Effekte wie das, das ursprünglich\ndeine Aufmerksamkeit erregt hat.\n\nEine Bestellung kostet {{color id=\"1\"}}Geld{{color id=\"65535\"}}, und je näher am\nOriginal das bestellte Ausrüstungsteil am Ende \nausfällt, desto höher fällt auch der Preis aus."
  },
  {
    "label": "Vendor_Increase_Rarity_Title",
    "text": "Sternenwert von Ausrüstung erhöhen"
  },
  {
    "label": "Vendor_Increase_Rarity_Manual00",
    "text": "Der {{color id=\"1\"}}Sternenwert{{color id=\"65535\"}} deiner Ausrüstung kann auf\nzweierlei Art erhöht werden: Geh zu Sid und\nfrag ihn danach, oder warte, bis das gleiche\nAusrüstungsteil in einem Laden verfügbar\nwird, und kaufe es dann erneut.\n\nDurch Erhöhen des Sternenwerts erhält dein\nAusrüstungsteil {{color id=\"1\"}}mehr Felder für Effekte{{color id=\"65535\"}} und\nauch die {{color id=\"1\"}}dafür erhaltene Erfahrung {{color id=\"65535\"}}steigt.\nBei Ausrüstungsteilen, die du gern einsetzen\nmöchtest, lohnt sich eine Erhöhung des\nSternenwertes also definitiv!"
  },
  {
    "label": "Vendor_Increase_Rarity_Manual01",
    "text": "Sid kann sogar den Sternenwert von\nAusrüstungsteilen erhöhen, die überhaupt\nnicht in Läden erhältlich sind! Sprich ihn\neinfach an, wenn du ein Lieblingsstück hast,\ndas du aufwerten möchtest.\n\nZum Erhöhen des Sternenwerts von Ausrüstung\nbraucht Sid {{color id=\"1\"}}Supermuscheln{{color id=\"65535\"}}. Und je höher der\nSternenwert, desto mehr Supermuscheln\nbenötigt er. Überleg dir also gut, wie du sie\nausgibst!"
  },
  {
    "label": "Vendor_Cleaning_Title",
    "text": "Felder leeren"
  },
  {
    "label": "Vendor_Cleaning_Manual00",
    "text": "Sid kann {{color id=\"1\"}}Zusatzeffekte {{color id=\"65535\"}}von Ausrüstungsteilen\n{{color id=\"1\"}}entfernen{{color id=\"65535\"}}!\n\nDie Felder der Ausrüstung sind dann wieder im\nUrzustand, bevor Zusatzeffekte hinzugefügt\nwurden. Achtung, Sid schenkt dir sogar die\n{{color id=\"1\"}}Effekt-Fragmente {{color id=\"65535\"}}der entfernten Effekte!"
  },
  {
    "label": "Vendor_Cleaning_Manual01",
    "text": "Sid kann deine {{color id=\"1\"}}Effekt-Fragmente{{color id=\"65535\"}} verwenden, um\ndeiner Ausrüstung gezielt Effekte hinzuzufügen.\nDu erhältst diese Fragmente, indem du ihn die\nFelder auf deiner Ausrüstung leeren lässt.\n\nDas Entfernen von Effekten kostet {{color id=\"1\"}}Geld{{color id=\"65535\"}}, aber\nder Preis ist immer derselbe – egal, wie viele\nEffekte du entfernen lässt! Es lohnt sich also\nbesonders, Effekte von Ausrüstung mit drei\nbelegten Feldern entfernen zu lassen."
  },
  {
    "label": "Vendor_Add_Gear_Power_Title",
    "text": "Effekte hinzufügen"
  },
  {
    "label": "Vendor_Add_Gear_Power_Manual00",
    "text": "Wenn du deine gesammelten {{color id=\"1\"}}Effekt-Fragmente{{color id=\"65535\"}}\nzu Sid bringst, kannst du dir aussuchen,\nwelche Effekte er deiner Ausrüstung hinzufügen\nsoll.\n\nAusrüstung verfügt immer über einen\n{{color id=\"1\"}}Haupteffekt{{color id=\"65535\"}} sowie Felder für {{color id=\"1\"}}Zusatzeffekte{{color id=\"65535\"}}.\nBeide Arten von Effekten kannst du so\nanpassen, dass sie am besten zu deinem\nSpielstil passen!"
  },
  {
    "label": "Vendor_Add_Gear_Power_Manual01",
    "text": "{{color id=\"1\"}}Haupteffekte{{color id=\"65535\"}} sind stark, aber es kostet auch\nmehr Fragmente, sie zu ändern. Außerdem\nbraucht man für die besonders interessanten\nFähigkeiten verschiedene Fragmente.\n\n{{color id=\"1\"}}Zusatzeffekte{{color id=\"65535\"}} sind weniger stark, aber dafür\nkostet ihre Anpassung auch entsprechend\nweniger Fragmente. Beim Hinzufügen mehrerer\nEffekte derselben Art steigen die Kosten\nallerdings."
  },
  {
    "label": "Vendor_Add_Gear_Power_Manual02",
    "text": "Wenn ein Feld bereits mit einem Effekt belegt\nist, kannst du den Effekt mit einem anderen\nüberschreiben. Dabei erhältst du allerdings\nweniger {{color id=\"1\"}}Fragmente{{color id=\"65535\"}} für den überschriebenen\nEffekt, und er kann danach nicht wieder in\ndas Feld eingesetzt werden.\n\nDer Effekt {{color id=\"1\"}}Effektdoppelung{{color id=\"65535\"}}, der auf {{color id=\"1\"}}Splatfest-\nShirts{{color id=\"65535\"}} zu finden ist, kann nicht mittels Effekt-\nFragmenten hinzugefügt werden."
  },
  {
    "label": "Vendor_Replacement_Gear_Power_Title",
    "text": "Zufälliges Befüllen mit Effekten"
  },
  {
    "label": "Vendor_Replacement_Gear_Power_Manual00",
    "text": "Bei Ausrüstung, die über {{color id=\"1\"}}drei mit Zusatzeffekten\nbelegte Felder{{color id=\"65535\"}} verfügt, kann Sid im Tausch\ngegen {{color id=\"1\"}}Supermuscheln{{color id=\"65535\"}} diese Effekte durch\nzufällige neue Effekte ersetzen.\n\nWelche Effekte du dabei erhältst, ist allerdings\nvoll und ganz zufallsbasiert!"
  },
  {
    "label": "Vendor_Replacement_Gear_Power_Manual01",
    "text": "Wenn du zufällig neue Effekte hinzufügen\nlässt, erhältst du die {{color id=\"1\"}}Fragmente{{color id=\"65535\"}} der vorherigen\nEffekte.\n\nDu kannst diese Aktion beliebig oft wiederholen,\nbis deine Ausrüstung perfekt ist, und außerdem\nerhältst du so jede Menge Effekt-Fragmente!"
  },
  {
    "label": "Vendor_GesoTown_Title",
    "text": "Infos zu TentaWorld"
  },
  {
    "label": "Vendor_GesoTown_Manual00",
    "text": "Mit {{color id=\"1\"}}TentaWorld{{color id=\"65535\"}} kannst du über den {{color id=\"1\"}}SplatNet 3{{color id=\"65535\"}}-\nOnline-Service Ausrüstung bestellen – auch\ndann, wenn du gerade nicht im Spiel bist!\n\nEs gibt sogar besondere Ausrüstung mit\nanderen Effekten als die in den Läden\nvon Splatsville oder Inkopolis!\n\nWeitere Informationen findest du auf\nder offiziellen Website von Splatoon 3."
  },
  {
    "label": "Vendor_GesoTown_Manual01",
    "text": "Du kannst bei TentaWorld immer nur\n{{color id=\"1\"}}ein Ausrüstungsteil auf einmal{{color id=\"65535\"}} bestellen.\nAllerdings werden diese Bestellungen sofort\nzu Sid geliefert, und du kannst nach Abholung\ndeiner Bestellung direkt die nächste aufgeben.\n\nLass dir kein Ausrüstungsteil entgehen!"
  },
  {
    "label": "Vendor_OtherCity_Title",
    "text": "Inkopolis: Tipps & Tricks"
  },
  {
    "label": "Vendor_OtherCity_Manual00",
    "text": "In Inkopolis ist {{color id=\"1\"}}Siggi {{color id=\"65535\"}}für Bestellungen\nvon Ausrüstungsstücken zuständig,\nganz so wie Sid in Splatsville und auf\ndem Inkopolis-Platz.\nPraktischerweise kannst du jede Bestellung,\ndie eintrifft, an jedem der genannten Orte\nabholen. Wahnsinn, diese Vernetzung!"
  }
]