[
  {
    "label": "BankaraMatch_Button01",
    "text": "Anarchie-\nKampf"
  },
  {
    "label": "BankaraMatch_Button02",
    "text": "Herrschaft"
  },
  {
    "label": "BankaraMatch_Button03",
    "text": "Turm-\nKommando"
  },
  {
    "label": "BankaraMatch_Button04",
    "text": "Operation\nGoldfisch"
  },
  {
    "label": "BankaraMatch_Button05",
    "text": "Muschel-\nchaos"
  },
  {
    "label": "BankaraMatch_Button06",
    "text": "Anarchie-Power"
  },
  {
    "label": "BankaraMatch_Title",
    "text": "Alles über Anarchie-Kämpfe"
  },
  {
    "label": "BankaraMatch_Manual00",
    "text": "Gewinne Kämpfe und erhöhe so deinen Rang!"
  },
  {
    "label": "BankaraMatch_Manual01",
    "text": "In Anarchie-Kämpfen setzt du im Kampf\ngegen die Elite des Distrikts Splatsville deine\n{{color id=\"1\"}}Rangpunkte{{color id=\"65535\"}} aufs Spiel. Je mehr Siege du\neinheimst, desto höher steigt dein Rang.\n\nEs gibt zwei Arten von Anarchie-Kämpfen:\n{{color id=\"1\"}}Offen{{color id=\"65535\"}} und {{color id=\"1\"}}Serie{{color id=\"65535\"}}."
  },
  {
    "label": "BankaraMatch_Manual02",
    "text": "Wenn du allein spielst, dann ist Serie deine\nChance, voll aufzudrehen.\n\nZuerst zahlst du eine {{color id=\"1\"}}Eintrittsgebühr{{color id=\"65535\"}}, und zwar\nin Form von Rangpunkten. Danach wird gekämpft,\nund zwar so lange, bis du entweder fünfmal\ngewonnen oder dreimal verloren hast. Keine\nSorge, du kannst zwischendurch eine Pause\neinlegen!\n\nAm Ende erhältst du entsprechend deiner Siege\nund Medaillen Rangpunkte."
  },
  {
    "label": "BankaraMatch_Manual03",
    "text": "Wenn du dich gern mit Freunden oder mit Spielern\nim selben Channel wie du zusammentust oder nur\nZeit für einen einzelnen Kampf hast, dann ist\nwahrscheinlich {{color id=\"1\"}}Offen{{color id=\"65535\"}} das Richtige für dich. Hier\nerhältst (oder verlierst) du deine Rangpunkte\ndirekt nach jedem Kampf."
  },
  {
    "label": "BankaraMatch_Manual04",
    "text": "Es gibt vier Arten von Anarchie-Kämpfen:\n{{color id=\"1\"}}Herrschaft{{color id=\"65535\"}}, {{color id=\"1\"}}Turm-Kommando{{color id=\"65535\"}}, {{color id=\"1\"}}Operation\nGoldfisch{{color id=\"65535\"}} und {{color id=\"1\"}}Muschelchaos{{color id=\"65535\"}}.\n\nDeine Rangpunkte werden zwischen diesen vier\nKampfarten {{color id=\"1\"}}geteilt{{color id=\"65535\"}}. Wenn du bei einer Kampfart\nim Rang aufsteigst, gilt das für alle Kampfarten."
  },
  {
    "label": "BankaraMatch_Manual05",
    "text": "Möchtest du einen neuen Rang?\nWenn du genug Rangpunkte hast, kannst du dich\neiner besonderen Herausforderung stellen: dem\n{{color id=\"1\"}}Aufstiegskampf{{color id=\"65535\"}}! Dafür zahlst du Rangpunkte,\nund dann wird gekämpft. Nach {{color id=\"1\"}}drei Siegen{{color id=\"65535\"}}\nerhöht sich dein Rang.\n\nVerlierst du jedoch dreimal, bist du draußen.\nAußerdem musst du dir wieder Rangpunkte\nerkämpfen, um es erneut zu versuchen."
  },
  {
    "label": "BankaraMatch_BankaraPower_Title",
    "text": "Was ist Anarchie-Power?"
  },
  {
    "label": "BankaraMatch_BankaraPower_Manual00",
    "text": "Die {{color id=\"1\"}}Anarchie-Power {{color id=\"65535\"}}ist ein Zahlenwert,\nder {{color id=\"1\"}}die Spielstärke deines Teams{{color id=\"65535\"}} darstellt.\nEr wird bestimmt, sobald ein erstelltes Team\nmit zwei bis vier Spielern mindestens fünf\nAnarchie-Kämpfe (Offen) abschließt.\nAnarchie-Power und Rangpunkte sind\nseparat geführte Werte.\n\nUm die Anarchie-Power des Teams zu sehen,\ndrücke während der Spielersuche {{icon id=\"9\" arg=\"0x52B85E3F03000000\"}}.\nNach erstmaliger Bestimmung steigt bzw.\nfällt eure Anarchie-Power je nachdem,\nwie ihr in Kämpfen abschneidet."
  },
  {
    "label": "BankaraMatch_BankaraPower_Manual01",
    "text": "Bei der Aktualisierung von Arenen und\nKampfarten (alle zwei Stunden) wird auch\ndeine höchste erreichte Anarchie-Power der\nSession in der Rangliste am {{color id=\"1\"}}Lobby-Terminal{{color id=\"65535\"}}\nfestgehalten.\n\nBeachte bitte, dass nur deine Leistungen\nder letzten fünf Phasen festgehalten werden.\nFrühere Resultate werden verworfen, sobald\ndu an neuen Phasen teilnimmst.\nDie Ergebnisse sind bis zu 14 Tage nach\nAbschluss der Phase einsehbar."
  },
  {
    "label": "BankaraMatch_Gachiarea_Title",
    "text": "Herrschaft: Regeln"
  },
  {
    "label": "BankaraMatch_Gachiarea_Manual00",
    "text": "Färbe die Splatterzonen und verteidige sie bis zum Sieg!"
  },
  {
    "label": "BankaraMatch_Gachiarea_Manual01",
    "text": "1. Splatterzone\n2. Zonenstatus\n3. Fortschritt\n4. Strafpunkte"
  },
  {
    "label": "BankaraMatch_Gachiarea_Manual02",
    "text": "Es gewinnt das Team, das alle {{color id=\"1\"}}Splatterzonen{{color id=\"65535\"}}\nhält, bis der Zähler null erreicht!\n\nZuerst müssen die Splatterzonen durch\nEinfärben erobert werden. Der {{color id=\"1\"}}Zonenstatus{{color id=\"65535\"}}\nzeigt dir, wie viel einer Zone du schon gefärbt\nhast. Hat ein Team alle Splatterzonen erobert,\nbeginnt der {{color id=\"1\"}}Countdown{{color id=\"65535\"}} auf dem {{color id=\"1\"}}Zähler{{color id=\"65535\"}}.\nErreicht er null, bedeutet das einen K. o.-Sieg!"
  },
  {
    "label": "BankaraMatch_Gachiarea_Manual03_Title",
    "text": "Herrschaft: Profi-Tipps"
  },
  {
    "label": "BankaraMatch_Gachiarea_Manual03",
    "text": "・ Arbeite mit deinem Team zusammen!\n    Es ist nicht gerade einfach, eine Splatterzone im Alleingang zu erobern.\n    Greife gemeinsam mit deinem Team an! Und falls ihr die Verteidiger seid,\n    versucht, das gegnerische Team auseinanderzutreiben, um ihre\n    Zusammenarbeit zu stören.\n\n・ Niemals aufgeben, auch wenn die Niederlage droht!\n    Wenn das gegnerische Team die Splatterzonen beherrscht oder der Zähler\n    deines Teams höher als der des Gegners steht, füllen sich die \n    Spezialanzeigen deines Teams automatisch!"
  },
  {
    "label": "BankaraMatch_Gachiarea_Manual04",
    "text": "・ Schnapp dir den Sieg in der Verlängerung!\n    Wenn die Zeit abläuft, während das Team im Rückstand die Splatterzonen\n    hält, beginnt die Verlängerung. Kämpfe bis zum Ende, vielleicht reicht es\n    noch für einen Sieg!"
  },
  {
    "label": "BankaraMatch_Gachiyagura_Title",
    "text": "Turm-Kommando: Regeln"
  },
  {
    "label": "BankaraMatch_Gachiyagura_Manual00",
    "text": "Bringe den Turm zum gegnerischen Ziel!"
  },
  {
    "label": "BankaraMatch_Gachiyagura_Manual01",
    "text": "1. Turm\n2. Ziel\n3. Checkpoint\n4. Zieldistanz"
  },
  {
    "label": "BankaraMatch_Gachiyagura_Manual02",
    "text": "Fahre auf dem {{color id=\"1\"}}Turm{{color id=\"65535\"}} von der Mitte der Arena\nbis zum gegnerischen {{color id=\"1\"}}Ziel{{color id=\"65535\"}}, um zu siegen!\n\nFärbe die Seiten des Turms, um ihn erklimmen\nzu können und ihn für dein Team einzunehmen.\nDer Turm bewegt sich automatisch aufs\ngegnerische Ziel zu.\n\nWenn dich ein Gegner erwischt oder der Turm\nzu lange leer bleibt, bewegt er sich wieder\nzurück in die Mitte der Arena."
  },
  {
    "label": "BankaraMatch_Gachiyagura_Manual03",
    "text": "Auf dem Weg zum Ziel befinden sich {{color id=\"1\"}}Checkpoints{{color id=\"65535\"}}.\nErreicht der Turm einen Checkpoint, bleibt er\nfür kurze Zeit stehen. Halte den Turm, bis die\nVerteidigung des Checkpoints durchbrochen ist,\nund er bewegt sich weiter.\n\nEinmal durchbrochene Checkpoints stoppen den\nTurm nicht erneut. Wird ein Checkpoint jedoch\nnicht völlig durchbrochen, regeneriert sich\nseine Verteidigung!"
  },
  {
    "label": "BankaraMatch_Gachiyagura_Manual04",
    "text": "Während sich der Turm dem Ziel nähert,\n{{color id=\"1\"}}verringert{{color id=\"65535\"}} sich die {{color id=\"1\"}}Zieldistanz{{color id=\"65535\"}} des Teams, das\nihn gerade kontrolliert. Wenn kein Team den Turm\nbis ins gegnerische Ziel bringt, gewinnt das Team\nmit der niedrigeren Zieldistanz."
  },
  {
    "label": "BankaraMatch_Gachiyagura_Manual04_Title",
    "text": "Turm-Kommando: Profi-Tipps"
  },
  {
    "label": "BankaraMatch_Gachiyagura_Manual05",
    "text": "・ Beschütze den Turm!\n    Wer auf dem Turm fährt, ist ein leichtes Ziel, also sollte der Rest\n    des Teams sicherstellen, dass der Weg frei ist!\n\n・ Erobere den Turm an Checkpoints zurück!\n    Denk daran, dass der Turm an Checkpoints anhält.\n    Das ist der perfekte Moment für einen Angriff!"
  },
  {
    "label": "BankaraMatch_Gachiyagura_Manual06",
    "text": "・ Schnapp dir den Sieg in der Verlängerung!\n    Wenn die Zeit abläuft, während das Team im Rückstand den Turm\n    kontrolliert, beginnt die Verlängerung. Kämpfe bis zum Ende,\n    vielleicht reicht es noch für einen Sieg!"
  },
  {
    "label": "BankaraMatch_Gachihoko_Title",
    "text": "Operation Goldfisch: Regeln"
  },
  {
    "label": "BankaraMatch_Gachihoko_Manual00",
    "text": "Bring die Goldfischkanone zum gegnerischen Ziel!"
  },
  {
    "label": "BankaraMatch_Gachihoko_Manual01",
    "text": "1. Goldfischkanone\n2. Ziel\n3. Übrige Tragedauer der Goldfischkanone\n4. Zieldistanz\n5. Checkpoint"
  },
  {
    "label": "BankaraMatch_Gachihoko_Manual02",
    "text": "Schnapp dir die {{color id=\"1\"}}Goldfischkanone{{color id=\"65535\"}} und bring sie\nzum gegnerischen {{color id=\"1\"}}Ziel{{color id=\"65535\"}}!\n\nLaufe zur Goldfischkanone in der Mitte der\nArena und zerstöre ihre Barriere, um sie\nan dich nehmen zu können.\n\nWird die Goldfischkanone fallengelassen,\nbaut sich die Barriere langsam wieder auf.\nWird sie zu lange nicht wieder aufgenommen,\nkehrt sie zu ihrem Startpunkt in der Mitte\nder Arena zurück."
  },
  {
    "label": "BankaraMatch_Gachihoko_Manual03",
    "text": "Während du die Goldfischkanone trägst, kannst\ndu weder deine Waffen einsetzen noch einen\nSupersprung ausführen. Aber dafür kannst du\ndie {{color id=\"1\"}}Goldfischkanone abfeuern{{color id=\"65535\"}}!\n\nDas Tragen der Goldfischkanone ist allerdings\nnicht ungefährlich. Wenn du sie zu lange trägst,\nexplodiert sie. Also Vorsicht!"
  },
  {
    "label": "BankaraMatch_Gachihoko_Manual04",
    "text": "Wenn du die Goldfischkanone erobert hast,\nmach dich auf den Weg zum {{color id=\"1\"}}Checkpoint{{color id=\"65535\"}}.\n\nWenn du den Checkpoint erreicht hast, geht es\nweiter zum gegnerischen Ziel. Falls du dabei\naufgehalten wirst, kannst du beim nächsten\nVersuch alle bereits durchbrochenen Checkpoints\neinfach passieren.\n\nWenn du dich dem Checkpoint und dann dem\ngegnerischen Ziel näherst, {{color id=\"1\"}}reduziert{{color id=\"65535\"}} sich die\n{{color id=\"1\"}}Zieldistanz{{color id=\"65535\"}} deines Teams. Läuft die Zeit ab,\nbevor ein Team das gegnerische Ziel erreicht,\ngewinnt das Team mit der niedrigsten Zieldistanz."
  },
  {
    "label": "BankaraMatch_Gachihoko_Manual05_Title",
    "text": "Operation Goldfisch: Profi-Tipps"
  },
  {
    "label": "BankaraMatch_Gachihoko_Manual05",
    "text": "・ Halte die Goldfischkanone in Bewegung!\n    Die Goldfischkanone ins gegnerische Ziel zu bringen hat oberste Priorität.\n    Wenn du die Goldfischkanone trägst, nichts wie ab nach vorn! Wenn ein\n    Teamkollege sie trägt, halte ihm den Weg frei. Sorge dafür, dass sich die\n    Goldfischkanone immer nach vorn bewegt!\n\n・ Niemals aufgeben, auch wenn die Niederlage droht!\n    Wenn das gegnerische Team die Goldfischkanone erobert hat oder dein\n    Team bei der Zieldistanz hinten liegt und die Goldfischkanone gerade nicht\n    besitzt, füllen sich die Spezialanzeigen deines Teams automatisch!"
  },
  {
    "label": "BankaraMatch_Gachihoko_Manual06",
    "text": "・ Schnapp dir den Sieg in der Verlängerung!\n    Wenn die Zeit abläuft, während das Team im Rückstand die Goldfischkanone\n    in seinem Besitz hat, beginnt die Verlängerung. Kämpfe bis zum Ende,\n    vielleicht reicht es noch für einen Sieg!"
  },
  {
    "label": "BankaraMatch_Gachiasari_Title",
    "text": "Muschelchaos: Regeln"
  },
  {
    "label": "BankaraMatch_Gachiasari_Manual00",
    "text": "Das Team, das die meisten Muscheln in den gegnerischen Korb wirft, gewinnt!\nAber erst musst du die gegnerische Barriere mit einer Powermuschel zerstören!"
  },
  {
    "label": "BankaraMatch_Gachiasari_Manual01",
    "text": "1. Muscheln\n2. Powermuscheln\n3. Korb\n4. Punktezähler"
  },
  {
    "label": "BankaraMatch_Gachiasari_Manual02",
    "text": "5. Barriere-Zähler\n6. Muscheln deines Teams\n7. Deine Muscheln\n8. Aktuelle Muschelzahl jedes Spielers"
  },
  {
    "label": "BankaraMatch_Gachiasari_Manual03",
    "text": "Das Team, das die meisten {{color id=\"1\"}}Muscheln{{color id=\"65535\"}} in den\ngegnerischen Korb wirft, gewinnt! Denk aber\ndaran, dass die Körbe von einer {{color id=\"1\"}}Barriere{{color id=\"65535\"}}\ngeschützt werden.\n\nDie Barriere muss also erst weg. Sammle dazu\ndie in der Arena liegenden Muscheln."
  },
  {
    "label": "BankaraMatch_Gachiasari_Manual04",
    "text": "Sobald du {{color id=\"1\"}}acht Muscheln{{color id=\"65535\"}} gesammelt hast,\nverwandeln sie sich in eine {{color id=\"1\"}}Powermuschel{{color id=\"65535\"}}.\nMit ihr kannst du die Barriere durchbrechen!"
  },
  {
    "label": "BankaraMatch_Gachiasari_Manual05",
    "text": "Du kannst sowohl normale Muscheln als auch\nPowermuscheln durch Drücken von {{icon id=\"0\" arg=\"0x52B85E3F03000000\"}} oder\n{{icon id=\"9\" arg=\"0x52B85E3F03000000\"}} werfen.\n\nWenn du mithilfe einer Powermuschel eine\nBarriere zerstörst, beginnt der {{color id=\"1\"}}Barriere-Zähler{{color id=\"65535\"}}\nzu laufen."
  },
  {
    "label": "BankaraMatch_Gachiasari_Manual06",
    "text": "Wirf so viele Muscheln und Powermuscheln\nwie möglich in den gegnerischen Korb!\n\nWenn der {{color id=\"1\"}}Punktezähler{{color id=\"65535\"}} null erreicht, erzielst\ndu einen K. o.-Sieg. Jede Muschel reduziert den\nZähler um {{color id=\"1\"}}3 Punkte{{color id=\"65535\"}}, Powermuscheln sogar\num {{color id=\"1\"}}20 Punkte{{color id=\"65535\"}}!\n\nAußerdem {{color id=\"1\"}}erhöht{{color id=\"65535\"}} jede Muschel, die den\ngegnerischen Korb trifft, den {{color id=\"1\"}}Barrierezähler{{color id=\"65535\"}}!"
  },
  {
    "label": "BankaraMatch_Gachiasari_Manual07",
    "text": "Falls die Barriere deines Teams durchbrochen\nwird, wird jene des gegnerischen Teams\nunzerstörbar, also setze in diesem Fall ganz\nauf Verteidigung! Erledige Gegner, die Muscheln\nhaben, bevor sie den Barriere-Zähler erhöhen\nkönnen.\n\nHat sich die Barriere deines Teams regeneriert,\n{{color id=\"1\"}}erscheint bei eurem Korb{{color id=\"65535\"}} eine Powermuschel,\ndie deinem Team hilft, zum Gegenangriff\nüberzugehen!"
  },
  {
    "label": "BankaraMatch_Gachiasari_Manual08",
    "text": "Kleckst dich ein Gegner, verlierst du alle deine\ngesammelten Muscheln. Fallengelassene\nMuscheln verschwinden nach kurzer Zeit, also\nschnapp sie dir schnell, wenn du eine siehst!\n\nAuch Powermuscheln werden fallengelassen,\nwenn ihr Träger erledigt wird. Sie können dann\nnur von Teamkollegen des ursprünglichen\nTrägers aufgesammelt werden. Falls ein Gegner\nalso eine Powermuschel fallenlässt, sorge dafür,\ndass kein anderer Gegner sie an sich nimmt,\nbis sie verschwunden ist."
  },
  {
    "label": "BankaraMatch_Gachiasari_Manual09",
    "text": "Muscheln, die in Bereichen liegen, die dein Team\ngefärbt hat, werden markiert und sind so\nleichter zu finden.\n\nMuscheln erscheinen ständig neu. Je mehr Boden\ndein Team also färbt, desto leichter fällt es,\nMuscheln zu finden, ehe der Gegner es tut."
  },
  {
    "label": "BankaraMatch_Gachiasari_Manual10_Title",
    "text": "Muschelchaos: Profi-Tipps"
  },
  {
    "label": "BankaraMatch_Gachiasari_Manual10",
    "text": "・ Geh die Lage peilen!\n    Mach einen Rundgang in der Arena, um die möglichen Wege zu den Körben\n    kennenzulernen. Es ist wichtig zu wissen, wo es langgeht!\n\n・ Erweitere euer Revier!\n    Färbe den Boden und erweitere das Revier des Teams, um schneller\n    voranzukommen und leichter Muscheln zu finden."
  },
  {
    "label": "BankaraMatch_Gachiasari_Manual11",
    "text": "・ Niemals aufgeben, auch wenn die Niederlage droht!\n    Wenn keines der Teams eine Powermuschel hat oder beide gleichzeitig über\n    eine verfügen, füllen sich die Spezialanzeigen des im Rückstand befindlichen\n    Teams automatisch!\n\n・ Schnapp dir den Sieg in der Verlängerung!\n    Wenn die Zeit abläuft, während das Team im Rückstand über eine\n    Powermuschel verfügt oder der Barrierezähler läuft, beginnt die\n    Verlängerung. Kämpfe bis zum Ende, vielleicht reicht es noch für\n    einen Sieg!"
  }
]