[
  {
    "label": "000",
    "text": "Glückwunsch zu deinem ersten Sieg\nals Ultimativer {{string value=\"SelectedSplatfestTeam\" arg1=\"0\" arg3=\"0\"}}-Fan!"
  },
  {
    "label": "001",
    "text": "Dafür darfst du am {{color id=\"1\"}}Splatfest-Wahlstand {{color id=\"65535\"}}in\nSplatsville auf einen {{color id=\"1\"}}Splatfest-Schrein {{color id=\"65535\"}}klettern!{{pageBreak}}Mit jedem Sieg hat der Splatfest-Schrein\nandere Mitfahrer. Viel Spaß beim Selfie-Knipsen!"
  },
  {
    "label": "002",
    "text": "Dafür darfst du am {{color id=\"1\"}}Splatfest-Wahlstand{{color id=\"65535\"}}\n{{color id=\"1\"}}auf die Bühne {{color id=\"65535\"}}klettern und coole Fotos machen!{{pageBreak}}Mit jedem Sieg stehen andere Akteure\nauf der Bühne. Viel Spaß beim Selfie-Knipsen!"
  }
]