[
  {
    "label": "000",
    "text": "Ay!\n{{string value=\"5\"}}(Nicht so voreilig!){{fun_000F_0004 arg=\"0x0500\"}}"
  },
  {
    "label": "001",
    "text": "Aaaaay!\n{{string value=\"5\"}}(Das ist nicht dein Schatz! Der gehört dir nicht!){{fun_000F_0004 arg=\"0x0500\"}}"
  },
  {
    "label": "002",
    "text": "Aaay...\n{{string value=\"5\"}}(Ich will ja eigentlich nicht kämpfen, aber...){{fun_000F_0004 arg=\"0x0500\"}}"
  },
  {
    "label": "003",
    "text": "AAAY!\n{{string value=\"5\"}}(FÜR SPLATSVILLE!){{fun_000F_0004 arg=\"0x0500\"}}"
  },
  {
    "label": "100",
    "text": "Ay!\n{{string value=\"5\"}}(Da bist du ja wieder!){{fun_000F_0004 arg=\"0x0500\"}}"
  },
  {
    "label": "101",
    "text": "Aaaaay?\n{{string value=\"5\"}}(Und du willst wieder gegen mich kämpfen?){{fun_000F_0004 arg=\"0x0500\"}}"
  },
  {
    "label": "102",
    "text": "Aaay...\n{{string value=\"5\"}}(Ich kämpfe immer noch nicht gern, aber na gut...){{fun_000F_0004 arg=\"0x0500\"}}"
  },
  {
    "label": "103",
    "text": "Aaay!\n{{string value=\"5\"}}(Sonst werd ich wieder von den anderen angemotzt.){{fun_000F_0004 arg=\"0x0500\"}}"
  }
]