[
  {
    "label": "000",
    "text": "Oh! Fast nur Wasser, kaum Land in Sicht..."
  },
  {
    "label": "001",
    "text": "Wie lang ist das wohl schon so...{{delay frames=\"30\"}} Oh, hey!"
  },
  {
    "label": "002",
    "text": "Ich empfange etwas vom Dach des komischen\nGebäudes da drüben."
  },
  {
    "label": "003",
    "text": "Das muss einfach Opa sein! Auf geht’s, Nr. 3!"
  }
]