[
  {
    "label": "000",
    "text": "S-{{delay frames=\"30\"}}Salmini und Herr Bär sind ja BEIDE gigantomatisiert!"
  },
  {
    "label": "001",
    "text": "NIIIIIIIIEDLICH!\nKutschi kutschi!"
  },
  {
    "label": "002",
    "text": "„Der Bär hat das Flauschplasma absorbiert!{{delay frames=\"30\"}}\nHilf Salmaxi und eliminiere die Flauschkerne!“"
  },
  {
    "label": "003",
    "text": "...Sagt Käpt'n gerade.\nGeb's nur weiter."
  },
  {
    "label": "004",
    "text": "Wir müssen diesen Bären aufhalten!{{delay frames=\"30\"}}\nEr will die Erde mit Flauschplasma überziehen!"
  },
  {
    "label": "005",
    "text": "Nicht mit uns!\nUnser Planet hat Bärenverbot, kapiert?"
  },
  {
    "label": "006",
    "text": "Oktario! Alles ölig?"
  },
  {
    "label": "007",
    "text": "Aber UMF doch!{{delay frames=\"15\"}}\nSteuerluke... GEÖFFNET!"
  },
  {
    "label": "008",
    "text": "Mein {{color id=\"1\"}}Tintegrator {{color id=\"65535\"}}frisst die {{icon id=\"22\" arg=\"0x0000803F00000000\"}}{{color id=\"1\"}}Flauschkerne {{color id=\"65535\"}}wie nix!\nSpring rein, Nr. 3!"
  },
  {
    "label": "009",
    "text": "Gehört, Nr. 3?{{delay frames=\"15\"}}\nLenk DU den Oktotyrann und saug die Flauschkerne auf!"
  },
  {
    "label": "010",
    "text": "Nur {{color id=\"1\"}}3 Minuten und 33 Sekunden {{color id=\"65535\"}}bis zum Einschlag!{{delay frames=\"30\"}}\nHalt ihn auf!"
  }
]