[
  {
    "label": "Comment_00",
    "text": "WOW! Geschafft!"
  },
  {
    "label": "Comment_01",
    "text": "Moment mal.\nWo ist denn das Bärenvieh hin?"
  },
  {
    "label": "Comment_02",
    "text": "Wie löblich...\nDu gibst nicht auf, bis deine Arbeit erledigt ist, oder?"
  },
  {
    "label": "Comment_03",
    "text": "Doch nun hast du dir eine Pause redlich verdient."
  },
  {
    "label": "Comment_04",
    "text": "Und zwar {{delay frames=\"15\"}}für ALLE EWIGKEIT."
  }
]