[
  {
    "label": "000",
    "text": "Stehengeblieben."
  },
  {
    "label": "001",
    "text": "Du willst den Schatz, ja?{{delay frames=\"15\"}}\nFeiner Riecher, keine Frage."
  },
  {
    "label": "002",
    "text": "Doch der ist leider eine Nummer zu groß für dich.{{delay frames=\"15\"}}\nFindest du nicht auch?"
  },
  {
    "label": "003",
    "text": "Ah, schon klar. {{delay frames=\"30\"}}\nIst unter deiner Würde, mit mir zu reden."
  },
  {
    "label": "004",
    "text": "Ziemlich unerzogen, muss ich schon sagen."
  },
  {
    "label": "005",
    "text": "Du brauchst wohl dringend eine Lektion,\nwie mir scheint."
  },
  {
    "label": "006",
    "text": "O Meister Megalo, kommt zu mir!"
  },
  {
    "label": "007",
    "text": "Jetzt steigt die HAI-ße Show!"
  },
  {
    "label": "101",
    "text": "Bist wieder da, was? Was bedeutet...\n...Ja! Du hast mich sicher vermisst!"
  },
  {
    "label": "102",
    "text": "Sehr nett von dir, den ganzen Weg herzukommen,\num mir einen Sieg zu schenken!"
  },
  {
    "label": "103",
    "text": "Ah, wieder keine Lust auf eine zivilisierte Unterhaltung."
  },
  {
    "label": "104",
    "text": "Kein Stück mehr Erziehung genossen\nseit unserem letzten Treffen, wie?"
  },
  {
    "label": "105",
    "text": "Doch das Bissige überlass mir, klar?"
  },
  {
    "label": "106",
    "text": "Meister Megalo! Die nächste Lektion!"
  },
  {
    "label": "107",
    "text": "Jetzt wirds für dich richtig...{{delay frames=\"15\"}} HAI-kel!"
  }
]