[
  {
    "label": "000",
    "text": "Wir sind drin!"
  },
  {
    "label": "001",
    "text": "Sieht aus, als gäbe es da noch ein Stück zu klettern..."
  },
  {
    "label": "002",
    "text": "Ay, ay!\n{{string value=\"5\"}}(Wir feuern dich vom sicheren Boden aus an!){{fun_000F_0004 arg=\"0x0500\"}}"
  }
]