[
  {
    "label": "Comment_00",
    "text": "{{fun_0001_0001 arg=\"0x0000003F\"}}Es ist schrecklich! Es ist furchtbar!\n{{delay frames=\"42\"}}Die... {{delay frames=\"35\"}}Di-di-di-di-die..."
  },
  {
    "label": "Comment_01",
    "text": "DIE OKTARIANER KOMMEN!"
  },
  {
    "label": "Comment_02",
    "text": "Schon wieder."
  },
  {
    "label": "Comment_03",
    "text": "Ui, grüß dich. Hab dich gar nicht gesehen.\nSag, haben wir das nicht schon mal durchexerziert?\nMein Gedächtnis will nicht mehr so wie früher."
  },
  {
    "label": "Comment_04",
    "text": "Gestatten, {{color id=\"1\"}}Kuttelfisch{{color id=\"65535\"}}!\n{{color id=\"1\"}}Offizieller taktischer Berater{{color id=\"65535\"}} der neuen Aquamarine!\nStets zu Diensten, aye!"
  },
  {
    "label": "Comment_05",
    "text": "Dieses Funkeln in deinen Augen...{{delay frames=\"30\"}}\nDas ist echte Leidenschaft, das seh ich sofort.\nNach solchem Temperament hab ich gesucht!"
  },
  {
    "label": "Comment_06",
    "text": "Es ist nämlich so! Der {{color id=\"1\"}}Riesen-Elektrowels{{color id=\"65535\"}}, weißt du?\nDer, der Splatsville mit {{color id=\"1\"}}Energie {{color id=\"65535\"}}versorgt.\nDer wurde gekidnapped. GeFISCHnapped geradezu!"
  },
  {
    "label": "Comment_07",
    "text": "Und weißt du, wer dahintersteckt?\nIch sag's dir. Die OKTARIANER!\nIch verwette mein letztes Blümchenhemd drauf!"
  },
  {
    "label": "Comment_08",
    "text": "Der {{color id=\"1\"}}Riesen-Elektrowels{{color id=\"65535\"}} war nämlich schon mal weg!\nZweimal, um genau zu sein.\nUnd BEIDE MALE hatten die Oktarianer ihn sich gekrallt!"
  },
  {
    "label": "Comment_09",
    "text": "Rein technisch bin ich zwar im Ruhestand, ja?\nAber die Oktarianer hab ich immer im Auge behalten!\nUnd mit DEN Glubschern entgeht mir nicht viel!{{pageBreak}}Trotzdem haben sie den {{color id=\"1\"}}Riesen-Elektrowels {{color id=\"65535\"}}irgendwie\nin ihre Tentakel gekriegt. Und jetzt müssen wir ihn\nzurückholen!{{delay frames=\"30\"}} Siehst du auch so, oder?"
  },
  {
    "label": "Comment_10",
    "text": "Ist doch so, oder?{{pageBreak}}{{string value=\"5\"}}...{{delay frames=\"5\"}} ...{{pageBreak}}...{{delay frames=\"5\"}} ...{{delay frames=\"5\"}} ...{{fun_000F_0004 arg=\"0x0500\"}}"
  },
  {
    "label": "Comment_11",
    "text": "...Das war ein Jobangebot. Geld gibt’s zwar keines,\naber vielleicht rettest du die Welt. Das lässt du dir \ndoch sicher nicht entgehen, oder? ODER?!"
  },
  {
    "label": "Comment_12",
    "text": "Dann Glückwunsch! Du gehörst zur {{color id=\"1\"}}neuen Aquamarine{{color id=\"65535\"}}!{{delay frames=\"30\"}}{{fun_0001_0001 arg=\"0x0000A03F\"}}\nAll unsere Aquamarine-Agenten bekommen eine {{color id=\"1\"}}Nummer{{color id=\"65535\"}},\nund hiermit bist du hochoffiziell unsere {{color id=\"1\"}}Nr. 3{{color id=\"65535\"}}!"
  },
  {
    "label": "Comment_13",
    "text": "Und nicht nur die Dienstnummer kriegst du, oh nein!\nWas du da trägst, ist dein brandneuer {{color id=\"1\"}}Heldenanzug{{color id=\"65535\"}}!\nDer wird dir eine große Hilfe gegen die Oktarianer sein.{{pageBreak}}Hm. Sitzt ja nicht unbedingt nach Maß.\nVielleicht liegt's an der Waschtemperatur.{{pageBreak}}{{string value=\"5\"}}{{color id=\"0\"}}(Wobei ich das Zeug noch nie gewaschen hab...{{delay frames=\"30\"}}\nDie letzte Nr. 3 war so sauber, da war die Kluft\nimmer wie frisch aus der Packung.){{color id=\"65535\"}}{{fun_000F_0004 arg=\"0x0500\"}}"
  },
  {
    "label": "Comment_14",
    "text": "Und nun ran an den Feind!{{delay frames=\"45\"}}\nDen Oktarianern werden wir... Hö?!"
  },
  {
    "label": "Comment_15",
    "text": "Sachen gibt's... Wo hast du den denn her?{{delay frames=\"15\"}}\nBedaure, den Kleinen kann ich nicht ausstatten.\nHatte nur eine Heldenausrüstung in der Tasche.{{pageBreak}}Aber so munter, wie er ist, braucht er sicher keine.\nScheint mir ja heldenhaft genug."
  },
  {
    "label": "Comment_16",
    "text": "Okay. Und damit...{{delay frames=\"45\"}} Agenten Marsch!\nNehmt euch die Oktovögel tüchtig vor!\nIch zähl auf euch zwei!"
  }
]