[
  {
    "label": "C4_S01_01",
    "text": "Ausgezeichnete Arbeit, Nr. 3.{{delay frames=\"30\"}}\nAch, und toller Fund! Wobei das leider nicht Opa ist."
  },
  {
    "label": "C4_S01_02",
    "text": "Ob das so was wie ein Schatz ist?\nNa ja, lassen wir das Ding erst mal hier."
  },
  {
    "label": "C4_S01_03",
    "text": "{{string value=\"5\"}}...{{fun_000F_0004 arg=\"0x0500\"}}Bitte kommen! Hört mich wer? Over!{{pageBreak}}Ist jemand da draußen? Over!"
  },
  {
    "label": "C4_S01_04",
    "text": "Opa!"
  },
  {
    "label": "C4_S01_05",
    "text": "Wo steckst du?"
  },
  {
    "label": "C4_S01_06",
    "text": "Aioli, Limone, meine Lieben! Es geht euch gut!"
  },
  {
    "label": "C4_S01_07",
    "text": "Ja, alles prima!{{delay frames=\"15\"}} Warte mal, das sollte ich DICH fragen!\nAlles okay bei dir, Opa?"
  },
  {
    "label": "C4_S01_08",
    "text": "Ja, einigermaßen.{{delay frames=\"15\"}} Ich bin in einem dunklen Raum\neingesperrt, das ist jetzt nicht sooo toll...{{pageBreak}}Ich werd mal versuchen, auszubrechen. Over!"
  },
  {
    "label": "C4_S01_09",
    "text": "Tu nix Unüberlegtes!{{delay frames=\"30\"}} Wir folgen deinem Signal und\nkommen zu dir. Funk uns an, wenn etwas passiert!"
  },
  {
    "label": "C4_S01_10",
    "text": "Ich bin so froh, dass es ihm gut geht.{{delay frames=\"30\"}}\nSehen wir uns sein Signal mal näher an!"
  },
  {
    "label": "C4_S01_11",
    "text": "Nr. 3, wenn du zu einem schon abgeschlossenen\nKesselportal zurückkehren willst, kannst du das über\ndas Menü tun. Ist vielleicht irgendwann ganz praktisch."
  }
]