[
  {
    "label": "Comment_00",
    "text": "NICHT SO SCHNELL!"
  },
  {
    "label": "Comment_01",
    "text": "Wen wollt ihr denn darstellen?!"
  },
  {
    "label": "Comment_02",
    "text": "Darstellen? Ha! Pul dir den Seetang aus\nden Ohren, dann sag ich dir, wer wir SIND!"
  },
  {
    "label": "Comment_03",
    "text": "Wir sind die Schatzjäger, die nie genug kriegen!"
  },
  {
    "label": "Comment_04",
    "text": "Gleich fließen die Muränen... {{delay frames=\"15\"}}\nHier kommt {{color id=\"1\"}}Muri{{color id=\"65535\"}}!"
  },
  {
    "label": "Comment_05",
    "text": "Und ich setze der Spitze der Nahrungskette\nnoch einen drauf..."
  },
  {
    "label": "Comment_06",
    "text": "Nennt mich {{color id=\"1\"}}Mako{{color id=\"65535\"}}!"
  },
  {
    "label": "Comment_07",
    "text": "Ay!\n{{string value=\"5\"}}(Reicher als reich, Dickster im Teich!){{fun_000F_0004 arg=\"0x0500\"}}"
  },
  {
    "label": "Comment_08",
    "text": "Ay!\n{{string value=\"5\"}}(Hier kommt {{color id=\"1\"}}Mantaro{{color id=\"65535\"}}, der Mantastische!){{fun_000F_0004 arg=\"0x0500\"}}"
  },
  {
    "label": "Comment_09",
    "text": "Splatsville ist UNSER Revier!"
  },
  {
    "label": "Comment_10",
    "text": "Und klauen dürfen hier nur wir!"
  },
  {
    "label": "Comment_11",
    "text": "Ay!\n{{string value=\"5\"}}(Ganz genau!){{fun_000F_0004 arg=\"0x0500\"}}"
  },
  {
    "label": "Comment_12",
    "text": "Wir sind {{color id=\"1\"}}Surimi Syndicate{{color id=\"65535\"}}!"
  },
  {
    "label": "Comment_13",
    "text": "Hihi.{{delay frames=\"30\"}} Die gefallen mir!"
  },
  {
    "label": "Comment_14",
    "text": "Pffft, {{delay frames=\"15\"}}schön für dich.\nUnd was genau wollt ihr Gestalten jetzt von uns?"
  },
  {
    "label": "Comment_15",
    "text": "Moment mal...{{delay frames=\"15\"}} Surimi Syndicate?\nSind das nicht die mit dem Anarchie-Splatcast?"
  },
  {
    "label": "Comment_16",
    "text": "Ha!{{delay frames=\"15\"}} Als Nebenjob!\nDoch in Wahrheit sind wir unbeugsame Outlaws!\nDie Edelfische unter den Beutemachern!"
  },
  {
    "label": "Comment_17",
    "text": "Ich will ja nicht unterbrechen...\nSchau dich mal um, Muri!\nWir haben hier den Jackpot geknackt!"
  },
  {
    "label": "Comment_18",
    "text": "Bergeweise Schätze, all die Zeit unter dem Krater\nverborgen... Und wir müssen sie nur noch einsacken!"
  },
  {
    "label": "Comment_19",
    "text": "Ay!\n{{string value=\"5\"}}(Gut erkannt, Mako!){{fun_000F_0004 arg=\"0x0500\"}}"
  },
  {
    "label": "Comment_20",
    "text": "Sagt mal bitte schnell, ihr Clownfische.\nWollt ihr uns vom Schätzeraffen abhalten?"
  },
  {
    "label": "Comment_21",
    "text": "Das könnt ihr euch nämlich abschminken!{{delay frames=\"15\"}}\nDas Zeug stauben wir allein ab, und dann\nsind wir steinbuttreich! Ha ha ha!"
  },
  {
    "label": "Comment_22",
    "text": "Ob die Ansprache geprobt war?\nGing ja richtig flott von der Hand."
  },
  {
    "label": "Comment_23",
    "text": "D-die haben ja gar keine Angst vor uns.{{delay frames=\"15\"}}\nHey, habt ihr Anemonen auf den Ohren?!"
  },
  {
    "label": "Comment_24",
    "text": "Ay!\n{{string value=\"5\"}}(Also, ich hatte fast Angst vor dir, Muri.\nFalls dich das aufbaut.){{fun_000F_0004 arg=\"0x0500\"}}"
  },
  {
    "label": "Comment_25",
    "text": "Pah! Wen interessiert's, was die Seegurken denken.{{delay frames=\"30\"}}\nWir haben Besseres zu tun."
  },
  {
    "label": "Comment_26",
    "text": "Der Schatz ist unser, kapiert?{{delay frames=\"40\"}}\nUnd falls ihr uns in die Quere kommen wollt...\nNa, ich wünsch euch Rumpf- und Grätenbruch."
  },
  {
    "label": "Comment_27",
    "text": "Macht Beute, Leute!\nFalls wir euch was übriglassen!"
  }
]