[
  {
    "label": "001",
    "text": "Autsch...\nDas muss als Lektion für heute reichen..."
  },
  {
    "label": "003",
    "text": "Doch Surimi Syndicate kommt wieder!"
  },
  {
    "label": "004",
    "text": "Bis dann!{{delay frames=\"15\"}} Was? OH N—"
  }
]