[
  {
    "label": "000",
    "text": "Ganz wichtig!\nDie Saison ist fast zu Ende."
  },
  {
    "label": "001",
    "text": "Ay!{{string value=\"5\"}} (Das heißt, alle können nun noch mehr\n{{color id=\"1\"}}Katalogpunkte {{color id=\"65535\"}}als sonst verdienen!){{fun_000F_0004 arg=\"0x0500\"}}"
  },
  {
    "label": "002",
    "text": "Ganz genau. Wenn euch also noch was fehlt,\nist jetzt die Zeit, den Turbo einzulegen."
  },
  {
    "label": "003",
    "text": "Jawoll!\nAlle den Hecht machen, los!"
  }
]