[
  {
    "label": "000",
    "text": "Ay!{{string value=\"5\"}} (Vor den aktuellen Arenen gibt’s\nnoch eine Ankündigung!){{fun_000F_0004 arg=\"0x0500\"}}"
  },
  {
    "label": "001",
    "text": "Was gibt’s denn? Du bist so aufgeregt!"
  },
  {
    "label": "002",
    "text": "Ay! Ay!{{string value=\"5\"}} (Das bin ich auch!\nDas Ergebnis des {{color id=\"1\"}}Big Run {{color id=\"65535\"}}ist nämlich da!){{fun_000F_0004 arg=\"0x0500\"}}"
  },
  {
    "label": "003",
    "text": "Oh! Ein Brief!"
  },
  {
    "label": "004",
    "text": "Echt? Die haben einen Brief geschickt?\nLass mich vorlesen! Also..."
  },
  {
    "label": "005",
    "text": "„Die Bär GmbH dankt allen Mitarbeitern für \ndie Zusammenarbeit während des Big Run.“"
  },
  {
    "label": "006",
    "text": "„Das Unternehmen will seine Dankbarkeit\nmit einem materiellen Bonus ausdrücken.“"
  },
  {
    "label": "007",
    "text": "Materiell? Klingt schon mal nicht schlecht!\nWas ist es? Sag's miiiir!"
  },
  {
    "label": "008",
    "text": "Hm. Da ist eine Liste mit {{color id=\"1\"}}Highscores{{color id=\"65535\"}} und\nInfos zu Belohnungen..."
  },
  {
    "label": "009",
    "text": "Jetzt mach schoooon!"
  },
  {
    "label": "010",
    "text": "Tsch-tt-tss-tt-tssssch..."
  },
  {
    "label": "011",
    "text": "Ayayayayayayyy..."
  },
  {
    "label": "012",
    "text": "{{size value=\"130\"}}BAMM! HAHA!{{size value=\"100\"}}"
  },
  {
    "label": "013",
    "text": "{{size value=\"150\"}}AAAY!{{size value=\"100\"}}"
  },
  {
    "label": "014",
    "text": "Sind die Zahlen echt?\nWieso sind die Leute so gut?"
  },
  {
    "label": "015",
    "text": "Ay! Ay.{{string value=\"5\"}} (Übung macht den Meister!\nUnd die üben bestimmt ’ne Menge.){{fun_000F_0004 arg=\"0x0500\"}}"
  },
  {
    "label": "014_1",
    "text": "Nanu! Abermals eine wahre Flut\nan echten Spitzenleistungen..."
  },
  {
    "label": "015_1",
    "text": "Klar, wenn die Salmoniden uns hier\nvoll die Bude zufluten!"
  },
  {
    "label": "014_2",
    "text": "Ay? Ay?! {{string value=\"5\"}}(Bitte? SO GUT sind die Leute\nim Fischeiersammeln?!){{fun_000F_0004 arg=\"0x0500\"}}"
  },
  {
    "label": "015_2",
    "text": "Wenn du schon so ein Gesicht machst,\nwas sollen bloß die Salmoniden sagen?"
  },
  {
    "label": "014_3",
    "text": "Dass die Leute das SO draufhaben, WOW!"
  },
  {
    "label": "015_3",
    "text": "Aaay. {{string value=\"5\"}}(Bei der Bär GmbH ist heute\nbestimmt eine Eierfeier oder so.){{fun_000F_0004 arg=\"0x0500\"}}"
  },
  {
    "label": "016",
    "text": "Keine Sorge. Alle Teilnehmer kriegen ein\nGeschenk, unabhängig vom Highscore."
  },
  {
    "label": "017",
    "text": "Ay...{{string value=\"5\"}} (Puh...){{fun_000F_0004 arg=\"0x0500\"}}"
  },
  {
    "label": "100",
    "text": "Ay!{{string value=\"5\"}} (Es hat eine Weile übel ausgesehen,\naber die Stadt ist gerettet!){{fun_000F_0004 arg=\"0x0500\"}}"
  },
  {
    "label": "101",
    "text": "Das wird diesen Salmoniden zeigen,\nwer die dicksten Fische in Splatsville sind!"
  },
  {
    "label": "102",
    "text": "Gut gemacht! Ich möchte ebenfalls allen\nTeilnehmern in unserem Namen danken."
  },
  {
    "label": "103",
    "text": "So, jetzt ist die Achterbahn wieder frei,\noder? Ich will den Wind spüren!"
  },
  {
    "label": "104",
    "text": "Ay!{{string value=\"5\"}} (Spitzenidee, Muri!\nIch will die Flossen flattern lassen!){{fun_000F_0004 arg=\"0x0500\"}}"
  },
  {
    "label": "105",
    "text": "Dann auf zum Flunder-Funpark...\nSobald er wieder geöffnet hat."
  },
  {
    "label": "106",
    "text": "Abgemacht!"
  },
  {
    "label": "107",
    "text": "Ay!{{string value=\"5\"}} (Danke allen, die uns geholfen haben,\nden Campus salmonidenfrei zu machen!){{fun_000F_0004 arg=\"0x0500\"}}"
  },
  {
    "label": "108",
    "text": "Geradezu ein Lehrstück in Sachen\nStadtrettung. Hochachtung, ihr Lieben!"
  },
  {
    "label": "109",
    "text": "Genau! Öl rumkleckern und Metallgebilde\nzusammenkünstlern können die eh schon!"
  },
  {
    "label": "110",
    "text": "Was mich daran erinnert, dass ich auch mal\nan meine eigenen Projekte denken sollte..."
  },
  {
    "label": "111",
    "text": "Ay! Ay! {{string value=\"5\"}}(Stimmt ja! Du malst ja selbst!\nHast ja sogar 'nen Wettbewerb gewonnen!){{fun_000F_0004 arg=\"0x0500\"}}"
  },
  {
    "label": "112",
    "text": "Genau, das voll komische, megaklotzige\nabstrakte Gemälde vom Riesen-Elektrowels!"
  },
  {
    "label": "113",
    "text": "Das... sollte eigentlich meine Lehrerin\ndarstellen..."
  },
  {
    "label": "114",
    "text": "Top gemacht, Leute! Die Fiesfische sind\nbis aufs letzte Schüppchen vertrieben!"
  },
  {
    "label": "115",
    "text": "Ay! {{string value=\"5\"}}(Genau! Das Reservoir ist unser Revier!\nReserviert sozusagen!){{fun_000F_0004 arg=\"0x0500\"}}"
  },
  {
    "label": "116",
    "text": "Und irgendeinen Zweck erfüllt es für die\nStadt sicher auch, würde ich mal annehmen."
  },
  {
    "label": "117",
    "text": "Äh, Leute? Könnten die Salmoniden nicht\neinfach durch andere Kanäle angreifen?"
  },
  {
    "label": "118",
    "text": "Ay. Ay! {{string value=\"5\"}}(Ui, und in Splatsville haben wir\nviele davon. Die find ich immer gruselig!){{fun_000F_0004 arg=\"0x0500\"}}"
  },
  {
    "label": "119",
    "text": "Huch! Ob das berühmte „Splatsviller\nKanalraunen“ auch die Salmoniden sind?"
  },
  {
    "label": "120",
    "text": "Ay?! Aaay! {{string value=\"5\"}}(Wer raunt wo?!\nLeute, macht mir keine Angst!){{fun_000F_0004 arg=\"0x0500\"}}"
  },
  {
    "label": "121",
    "text": "Ay! Ay! {{string value=\"5\"}}(Das war dramatisch!\nDieser Run geht in die Geschichte ein!){{fun_000F_0004 arg=\"0x0500\"}}"
  },
  {
    "label": "122",
    "text": "Klasse gemacht, Leute! Mit Splatsville\nlegt sich keiner an, ihr habt's bewiesen!"
  },
  {
    "label": "123",
    "text": "Und kein Steinchen der Um'ami-Ruinen\nbeschädigt. Da freuen sich die Touristen!"
  },
  {
    "label": "124",
    "text": "Kinder! Idee für den nächsten Splatcast!\nMachen wir ein Um'ami-Ruinen-Special?"
  },
  {
    "label": "125",
    "text": "♪ Ay... {{string value=\"5\"}}(♪ Schau'n wir uns ummm...\n♪ Im Um'amysteriummm...){{fun_000F_0004 arg=\"0x0500\"}}"
  },
  {
    "label": "126",
    "text": "Na, der Titel-Jingle steht schon mal.\nAber wer studiert dafür die Lektüre?"
  },
  {
    "label": "127",
    "text": "Klingt nach Arbeit! Dann neuer Vorschlag,\nwir machen ein Streetfood-Special. Mjam!"
  },
  {
    "label": "500",
    "text": "Jedenfalls ist damit fürs nächste\nSplatfest alles in bester Margarine!"
  },
  {
    "label": "501",
    "text": "Ein Lob an alle. Die neue Chefin von\nSurimi Syndicate steht so gut wie fest."
  },
  {
    "label": "502",
    "text": "Rein rechnerisch KÖNNTE zwar auch jemand\nanders gewinnen, aber... Nun ja. Viel Glück."
  },
  {
    "label": "503",
    "text": "Ay! {{string value=\"5\"}}(Solange die Fans für uns da sind,\nkann gar nichts schiefgehen!){{fun_000F_0004 arg=\"0x0500\"}}"
  },
  {
    "label": "600",
    "text": "Nanu? Eine Nachricht von der Bär GmbH?"
  },
  {
    "label": "601",
    "text": "Ay! {{string value=\"5\"}}(Lies mal vor!){{fun_000F_0004 arg=\"0x0500\"}}"
  },
  {
    "label": "602",
    "text": "Also. „Freundlichen Dank an alle Teilnehmer\ndes kürzlich verkündeten Großauftrags.“"
  },
  {
    "label": "603",
    "text": "„Die Auszählung der Gold-Fischeier\nwurde soeben vollständig abgeschlossen.“"
  },
  {
    "label": "604",
    "text": "Ui! Wie viele es wohl sind?"
  },
  {
    "label": "605",
    "text": "Das steht gleich dabei, liebe Muri.\nDie Gold-Fischei-Gesamtzahl beträäägt..."
  },
  {
    "label": "606",
    "text": "Aaaaah!\nSagsagsag!"
  },
  {
    "label": "607",
    "text": "Eins, zwo, hundert... {{delay frames=\"30\"}}Bitte?! {{delay frames=\"15\"}}So viele\nGold-Fischeier kann's doch gar nicht geben!"
  },
  {
    "label": "608",
    "text": "Ay! Ay! {{string value=\"5\"}}(Quote eindeutig übertroffen!\nWelch Wal von einer Zahl!){{fun_000F_0004 arg=\"0x0500\"}}"
  },
  {
    "label": "609",
    "text": "Nur noch etwas Geduld, liebe Teilnehmer,\neuer Schuppen-Bonus ist schon unterwegs!"
  },
  {
    "label": "610",
    "text": "Ay! {{string value=\"5\"}}(Schuppheidi!){{fun_000F_0004 arg=\"0x0500\"}}"
  },
  {
    "label": "607_1",
    "text": "Och, schade.\nQuote nicht erfüllt."
  },
  {
    "label": "608_1",
    "text": "Ay! {{string value=\"5\"}}(Na ja, die war aber auch\necht nicht von schlechten Eltern!){{fun_000F_0004 arg=\"0x0500\"}}"
  },
  {
    "label": "609_1",
    "text": "Siebenhundertmillionen Eier sind vielleicht\nauch EIN ODER ZWEI Eierchen zu viel..."
  },
  {
    "label": "610_1",
    "text": "Ay... Ay! {{string value=\"5\"}}(Schade um die Schuppen...\nAber Hauptsache, der Festplatz ist sicher!){{fun_000F_0004 arg=\"0x0500\"}}"
  },
  {
    "label": "611_pre1",
    "text": "Ay... {{string value=\"5\"}}(Dann betrachten wir mal\ndie luxuriösen Highscores...){{fun_000F_0004 arg=\"0x0500\"}}"
  },
  {
    "label": "611_pre2",
    "text": "Aber eigentlich kriegt ja JEDER was Tolles,\nder bei der Sache mitgeholfen hat!"
  },
  {
    "label": "611",
    "text": "Dem Grand Festival steht nun nichts mehr\nim Wege. Alter, was hab ich gezittert!"
  },
  {
    "label": "612",
    "text": "Ay! {{string value=\"5\"}}(Wenn wir uns auf was verlassen\nkönnen, sind das unsere fleißigen Fans!){{fun_000F_0004 arg=\"0x0500\"}}"
  },
  {
    "label": "613",
    "text": "Lasst uns auch nächstes Mal nicht hängen,\nwenn die Salmoniden wieder aufrauschen!"
  },
  {
    "label": "614",
    "text": "Wenn wir alle füreinander da sind,\nkann keinem was Schlimmes passieren!"
  },
  {
    "label": "615",
    "text": "Ay? A-ay? {{string value=\"5\"}}(Was Schlimmes?\nW-wie schlimm denn?){{fun_000F_0004 arg=\"0x0500\"}}"
  },
  {
    "label": "616",
    "text": "Ganz egal! Wenn wir nur wollten, könnten\nwir die Sache auch zu dritt schaukeln!"
  },
  {
    "label": "617",
    "text": "Revier verpflichtet! Wenn wir unsere\nHeimat nicht beschützen, wer dann?"
  },
  {
    "label": "620",
    "text": "Ay. Ay! {{string value=\"5\"}}(Der Splatfest-Platz ist übrigens\nbesuchsbereit. Richtig gutes Timing!){{fun_000F_0004 arg=\"0x0500\"}}"
  },
  {
    "label": "621",
    "text": "Nun können wir uns ohne Sorgen\nvor Angriffen ins Vergnügen stürzen."
  },
  {
    "label": "622",
    "text": "Leute, auf dem Grand Festival lass ich\nDERART den Jau raus, haltet euch fest!"
  },
  {
    "label": "623",
    "text": "Genießt die Zeit, Freunde. Events wie\ndieses erlebt man nicht oft im Leben."
  }
]