[
  {
    "label": "001",
    "text": "Das war's für dich, Ord-Null!"
  },
  {
    "label": "002",
    "text": "Die Kraft des Chaos.{{delay frames=\"15\"}}\nWelch Urgewalt."
  },
  {
    "label": "003",
    "text": "Doch mein Programm ist vollständig ausgeführt."
  },
  {
    "label": "004",
    "text": "Nach ihrem Neustart wird die Welt\nder Ordnung gehören!"
  },
  {
    "label": "005",
    "text": "Oh nein...{{delay frames=\"15\"}}\nSind wir etwa zu spät?"
  },
  {
    "label": "006",
    "text": "Ich will keine formatierte Welt..."
  },
  {
    "label": "007",
    "text": "Vielleicht kann ich das Programm\nvon Ordnung noch stoppen!"
  },
  {
    "label": "008",
    "text": "Keine Chance!{{delay frames=\"30\"}}\nSeine Ausführung ist zu effizient!"
  },
  {
    "label": "009",
    "text": "...{{delay frames=\"15\"}}Perla...{{delay frames=\"30\"}} Ich... {{delay frames=\"15\"}}..."
  }
]