[
  {
    "label": "001",
    "text": "Astrein!{{delay frames=\"30\"}}\nOhne dich wär ich hier versauert."
  },
  {
    "label": "002",
    "text": "Is' was?{{delay frames=\"15\"}}\nHängt mein Pony schief?"
  },
  {
    "label": "003",
    "text": "Ach so!{{delay frames=\"15\"}}\nErkennst mich nicht wieder, klar."
  },
  {
    "label": "004",
    "text": "Ich bin's, {{color id=\"4\"}}Perla{{color id=\"65535\"}}!{{delay frames=\"60\"}}\nDeine beste Freundin!"
  },
  {
    "label": "005",
    "text": "{{string value=\"5\"}}.{{delay frames=\"5\"}}.{{delay frames=\"5\"}}.{{fun_000F_0004 arg=\"0x0500\"}}"
  },
  {
    "label": "006",
    "text": "Ohne Witz jetzt!{{delay frames=\"15\"}}\nIch bin Perla, echt!"
  },
  {
    "label": "007",
    "text": "Keine Ahnung, wieso ich\nso ausschaue, aber was soll's."
  },
  {
    "label": "008",
    "text": "Wo {{color id=\"4\"}}Marina{{color id=\"65535\"}} steckt? Keine Ahnung.\nSollte eigentlich hier bei mir sein."
  },
  {
    "label": "009",
    "text": "Nr. 8...{{delay frames=\"30\"}} Sag nicht, dass du\nMarina auch vergessen hast!"
  },
  {
    "label": "010",
    "text": "Egal. Werd erst mal wach.{{delay frames=\"15\"}}\nDann blickst du sicher besser durch."
  },
  {
    "label": "011",
    "text": "Das links bin ich, in normal.{{delay frames=\"30\"}}\nRechts ist Marina!"
  },
  {
    "label": "012",
    "text": "Keinen Plan, was wir nun tun sollen.\nDas Denken übernimmt normalerweise Marina."
  },
  {
    "label": "013",
    "text": "Alsooo...{{delay frames=\"15\"}} sollten wir wohl\nzuallererst nach ihr suchen!"
  },
  {
    "label": "014",
    "text": "Los, Nr. 8!{{delay frames=\"15\"}}\nSchlag keine Wurzeln!"
  }
]