[
  {
    "label": "000",
    "text": "Yo! Ich glaube, da hat sich jemand\nhinter den Schließfächern eingenistet."
  },
  {
    "label": "001",
    "text": "Gehen wir mal hin und schauen, wer es ist!"
  }
]