[
  {
    "label": "001",
    "text": "Nr. 8!{{delay frames=\"15\"}} Hörst du mich?{{delay frames=\"30\"}} Alles klar?"
  },
  {
    "label": "002",
    "text": "So ein Glück...{{delay frames=\"30\"}}\nPerla! Nr. 8 ist wieder wach!"
  },
  {
    "label": "003",
    "text": "Nr. 8!{{delay frames=\"15\"}} Vielen Dank, dass du mich gerettet hast."
  },
  {
    "label": "004",
    "text": "Überrascht, mich wieder live zu sehen?{{delay frames=\"30\"}}\nMarina hat kurz gezaubert und ZACK!\nSchon bin ich wieder da!"
  },
  {
    "label": "005",
    "text": "Verzeih mir. {{delay frames=\"15\"}}Das „Stürmische Reise ins\nOrdnungsland“-Modul hat dich in eine Drohne\nverwandelt. Und... auch sonst allerhand bewirkt."
  },
  {
    "label": "006",
    "text": "Bitte wie? {{delay frames=\"30\"}}„Stürmische Reise...“?"
  },
  {
    "label": "007",
    "text": "Ach,{{delay frames=\"5\"}} stimmt ja. {{delay frames=\"15\"}}\nLass mich erst mal alles erklären."
  },
  {
    "label": "008",
    "text": "Wir befinden uns hier im {{color id=\"4\"}}Memoversum{{color id=\"65535\"}}.{{delay frames=\"30\"}}\nEs ist der Prototyp einer virtuellen Realität,{{delay frames=\"15\"}}\ndie ich selbst geschaffen habe."
  },
  {
    "label": "009",
    "text": "Virtuelle Realität? {{delay frames=\"30\"}}Halt mal!{{delay frames=\"15\"}}\nDann stecken wir also in irgendeiner falschen Welt?"
  },
  {
    "label": "010",
    "text": "Ganz genau. {{delay frames=\"15\"}}Im Memoversum ist nur eines echt,\nund das sind unsere Gedanken."
  },
  {
    "label": "011",
    "text": "Das wabernde Wesen, das wir sahen, ist {{color id=\"4\"}}Ordnung{{color id=\"65535\"}}.{{delay frames=\"30\"}}\nEs hatte von mir Besitz ergriffen und hat das\nMemoversum zu einem furchtbaren Ort gemacht."
  },
  {
    "label": "012",
    "text": "{{color id=\"4\"}}Ordnung {{color id=\"65535\"}}hat unzählige Leute mit dem Memoversum\nverbunden. Ihr Geist ist jetzt hier gefangen."
  },
  {
    "label": "013",
    "text": "Und genau das ist dir selbst widerfahren, oder?"
  },
  {
    "label": "015",
    "text": "Ahato...{{delay frames=\"15\"}} Es tut mir so unheimlich leid.\nNur wegen mir steckst du in dieser schlimmen Lage..."
  },
  {
    "label": "016",
    "text": "Kein Stress. Wir haben andere Sorgen.{{delay frames=\"15\"}}\nEtwa, wie wir hier rauskommen wollen."
  },
  {
    "label": "017",
    "text": "Du hast recht!{{delay frames=\"15\"}}\nWir müssen Ordnung irgendwie besiegen."
  },
  {
    "label": "024",
    "text": "Ordnung hat nur ein Ziel...\nEine {{color id=\"4\"}}farblose, absolut geordnete Welt{{color id=\"65535\"}}."
  },
  {
    "label": "025",
    "text": "Dort soll niemand seinen eigenen Willen haben.{{delay frames=\"15\"}}\nJeder führt Aufgaben und Befehle aus, sonst nichts."
  },
  {
    "label": "026",
    "text": "Und Ordnung nutzt das Memoversum,\num diesen Plan in die Tat umzusetzen."
  },
  {
    "label": "027",
    "text": "Was soll der Müll? Chaos ist doch-- {{delay frames=\"30\"}}Halt, stopp.{{delay frames=\"15\"}}\nDas Memoversum ist doch gar nicht real, oder?"
  },
  {
    "label": "028",
    "text": "Soll das Glibbervieh doch im Memoversum machen,\nwas es will!...{{delay frames=\"15\"}} Die echte Welt kümmert das doch nicht!"
  },
  {
    "label": "029",
    "text": "Na jaaa...{{delay frames=\"15\"}}\nOrdnung will mit einem Vorgang namens „{{color id=\"4\"}}Grauskalierung{{color id=\"65535\"}}“\nden Willen aller neutralisieren, die hier gefangen sind."
  },
  {
    "label": "030",
    "text": "Wenn also jemand hier im Memoversum\nOpfer der Grauskalierung wird, dann...{{delay frames=\"15\"}}\nverändert es einen in der Wirklichkeit.{{delay frames=\"15\"}} Richtig?"
  },
  {
    "label": "031",
    "text": "Richtig. {{delay frames=\"30\"}}Durch die Grauskalierung verliert man\nauch in der Realität seinen freien Willen."
  },
  {
    "label": "032",
    "text": "Und das ist erst der Anfang von Ordnungs Plänen.{{delay frames=\"15\"}}\nDie ganze Welt soll ins Memoversum integriert werden."
  },
  {
    "label": "033",
    "text": "Das dürfen wir nicht zulassen, sonst ist freier Wille...{{delay frames=\"15\"}}\nnein, das Leben selbst unwiederbringlich verloren."
  },
  {
    "label": "034",
    "text": "Jo, klingt übel.{{delay frames=\"15\"}}\nOrdnung ziehen wir die Tentakel lang!"
  },
  {
    "label": "035",
    "text": "Und noch mal, bitte verzeiht mir.{{delay frames=\"15\"}}\nNur ich allein bin schuld..."
  },
  {
    "label": "036",
    "text": "Blödsinn, Marina!{{delay frames=\"30\"}} Du hast das Memoversum\nerschaffen, weil es gute Gründe gab!"
  },
  {
    "label": "037",
    "text": "Ordnung, dieses fiese Ding, nutzt deine Arbeit\nfür seine Zwecke...{{delay frames=\"15\"}} Zeit, sich zu rächen!"
  },
  {
    "label": "038",
    "text": "Wir haben schon ganz andere Fieslinge weggekleckst!"
  },
  {
    "label": "039",
    "text": "Hurra!{{delay frames=\"30\"}}\nHach, Perla, du bist sooo cool!"
  }
]