[
  {
    "label": "Hello",
    "text": "嗨。"
  },
  {
    "label": "Offline",
    "text": "嗨。{{pageBreak}}嗯？你正处于那个什么离线状态吧，\n等你在{{color id=\"1\"}}大厅{{color id=\"65535\"}}连接上{{color id=\"1\"}}互联网{{color id=\"65535\"}}之后再来吧。"
  },
  {
    "label": "NotEnoughRank",
    "text": "嗯……\n你看起来不怎么鱿型啊。{{pageBreak}}我只对那种达到{{color id=\"1\"}}等级4{{color id=\"65535\"}}的\n超鱿型人物感兴趣。{{pageBreak}}你还是继续去参加对战，\n提升了等级之后再来找我吧。"
  },
  {
    "label": "FirstRank_4_9",
    "text": "……嗯？\n你看起来稍微鱿型了一些嘛。{{pageBreak}}不过在这个镇上，\n持有超鱿型的{{color id=\"1\"}}装备{{color id=\"65535\"}}才是王道。{{pageBreak}}比如你在镇上看到有人穿戴着超鱿型的{{color id=\"1\"}}装备{{color id=\"65535\"}}，\n一定会想“要是自己也有就好了……”对吧？\n起码我觉得是会的。{{pageBreak}}所以如果你在广场按{{icon id=\"0\" arg=\"0x0000803F00000000\"}}观察别人时，\n发现了自己想要的装备，\n就打电话找我{{color id=\"1\"}}预订{{color id=\"65535\"}}吧。{{pageBreak}}虽然不确定能否找到装备能力\n完全相同的装备，不过我还是会帮你{{color id=\"1\"}}调货{{color id=\"65535\"}}的。\n来，我把电话号码告诉你吧。"
  },
  {
    "label": "FirstRank_4_9_Short",
    "text": "……嗯？\n你看起来稍微鱿型了一些嘛。{{pageBreak}}不过在这个镇上，\n持有超鱿型的{{color id=\"1\"}}装备{{color id=\"65535\"}}才是王道……\n什么嘛，你看起来已经知道了啊。{{pageBreak}}算了，姑且和你说一遍吧……\n如果你在广场按{{icon id=\"0\" arg=\"0x0000803F00000000\"}}观察别人时，\n发现了自己想要的装备，\n就打电话找我{{color id=\"1\"}}预订{{color id=\"65535\"}}吧。{{pageBreak}}毕竟这镇上的订单都是由我负责处理的。\n来，我把电话号码告诉你吧。"
  },
  {
    "label": "FirstRank_10_15",
    "text": "哦，独当一面的超鱿型人物\n大驾光临了呢！{{pageBreak}}但你肯定不会止步于此，\n会追求更高的境界，对吧？{{pageBreak}}怎么说好呢……\n看着你，我就会不禁产生\n自己也要努力精进的想法。{{pageBreak}}总而言之，我会为你提供帮助，\n让我们一起朝更高的境界迈进吧！{{pageBreak}}如果你在广场按{{icon id=\"0\" arg=\"0x0000803F00000000\"}}观察闲逛的人时\n发现了自己想要的装备，\n就打电话找我预订吧。"
  },
  {
    "label": "FirstRank_16_19",
    "text": "哇……\n你也太鱿型了吧！{{pageBreak}}什么？你还想变得更鱿型？！\n你还……真了不起啊！{{pageBreak}}既然如此，我也会为你提供帮助。\n让我们一起登上顶峰，获得全世界的认同吧。\n我是认真的。{{pageBreak}}如果你在广场按{{icon id=\"0\" arg=\"0x0000803F00000000\"}}观察闲逛的人时\n发现了自己想要的装备，\n就打电话找我预订吧。"
  },
  {
    "label": "FirstRank_20_20",
    "text": "咦？！真的假的？！\n你也太厉害了吧？\n真的，实在是……太厉害了……{{pageBreak}}看看你这锐利的目光，\n算得上是个“传奇人物”了吧。{{pageBreak}}既然如此，就让我来看看\n你究竟能达到什么境界吧，\n我也会尽全力帮助你的。{{pageBreak}}如果你在广场按{{icon id=\"0\" arg=\"0x0000803F00000000\"}}观察闲逛的人时\n发现了自己想要的装备，\n就打电话找我预订吧。"
  },
  {
    "label": "FirstSdodr_Normal",
    "text": "你经常来尚兴广场吗？\n其实我小时候一直住在这里。{{pageBreak}}我久违地回到这里一看，\n感觉任何东西都显得很小，吃了一惊呢。\n不过这也只是因为我长大了而已……{{pageBreak}}我打算以后不只在蛮颓镇，\n也在尚兴广场露露脸，\n你有什么事就来找我吧。"
  },
  {
    "label": "FirstSdodr_AfterRankMsg",
    "text": "说起来，\n你经常来尚兴广场吗？\n其实我小时候一直住在这里。{{pageBreak}}我久违地回到这里一看，\n感觉任何东西都显得很小，吃了一惊呢。\n不过这也只是因为我长大了而已……{{pageBreak}}我打算以后不只在蛮颓镇，\n也在尚兴广场露露脸，\n你有什么事就来找我吧。"
  },
  {
    "label": "FirstShell",
    "text": "……嗯？你身上……\n好像有{{color id=\"1\"}}超级蝾螺{{color id=\"65535\"}}啊。{{pageBreak}}你能不能把它给我呢？\n我没办法和你说明详情，\n总之我正在收集超级蝾螺。{{pageBreak}}你看，{{color id=\"1\"}}超级蝾螺{{color id=\"65535\"}}上不是有壳盖吗？\n我的特长就是用它来{{color id=\"1\"}}提升装备的稀有度{{color id=\"65535\"}}，\n我也可以帮你处理哦。{{pageBreak}}如果装备上的3个能力槽都有装备能力，\n我也可以帮你把{{color id=\"1\"}}追加装备能力{{color id=\"65535\"}}\n{{color id=\"1\"}}重新附加{{color id=\"65535\"}}成随机装备能力哦。{{pageBreak}}反正我也不需要壳盖，\n这么做对彼此都有好处，\n可以说是个双赢的好主意吧？{{pageBreak}}总之就是这样，\n我不会让你吃亏的，\n所以你就把{{color id=\"1\"}}超级蝾螺{{color id=\"65535\"}}给我吧。"
  },
  {
    "label": "FirstShell_Short",
    "text": "……嗯？你身上……\n好像有{{color id=\"1\"}}超级蝾螺{{color id=\"65535\"}}啊。{{pageBreak}}你能不能把它让给我呢？\n我没办法和你说明详情，\n总之我正在收集超级蝾螺。{{pageBreak}}你看，{{color id=\"1\"}}超级蝾螺{{color id=\"65535\"}}上不是有壳盖吗？\n我的特长就是用它来{{color id=\"1\"}}提升{{color id=\"65535\"}}装备的{{color id=\"1\"}}稀有度{{color id=\"65535\"}}，\n或者是{{color id=\"1\"}}重新附加追加装备能力{{color id=\"65535\"}}，\n我也可以帮你处理哦。{{pageBreak}}反正我也不需要壳盖，\n这么做对彼此都有好处，\n可以说是个双赢的好主意吧？{{pageBreak}}总之就是这样，\n我不会让你吃亏的，\n所以你就把{{color id=\"1\"}}超级蝾螺{{color id=\"65535\"}}让给我吧。"
  },
  {
    "label": "ExplainFestT",
    "text": "哦，你有{{color id=\"1\"}}祭典T恤{{color id=\"65535\"}}啊，\n那我有个好消息要告诉你，\n怎么样，想听吗？{{pageBreak}}其实啊，如果你拿祭典T恤来\n{{color id=\"1\"}}清洗{{color id=\"65535\"}}或{{color id=\"1\"}}替换装备能力{{color id=\"65535\"}}的话，\n我可以给你一点优惠哦。{{pageBreak}}清洗1次的费用只要{{icon id=\"39\" arg=\"0x85EB913F00000000\"}}{{color id=\"1\"}}2000{{color id=\"65535\"}}，\n很划算对吧？{{pageBreak}}附加装备能力时{{color id=\"1\"}}需要的碎片数量{{color id=\"65535\"}}\n也会比普通的装备少哦。{{pageBreak}}我个人也不讨厌祭典的气氛，\n这可以说是为了让大家穿上祭典T恤\n使气氛变得更加火热而提供的{{color id=\"1\"}}服务{{color id=\"65535\"}}。{{pageBreak}}总之你就穿着祭典T恤多多对战，\n然后再带来这里找我吧，\n我会{{color id=\"1\"}}不限次数{{color id=\"65535\"}}地为你提供服务。"
  },
  {
    "label": "RecieveGeso_First",
    "text": "如果你在{{color id=\"1\"}}鱿鱼须商城{{color id=\"65535\"}}预订了{{color id=\"1\"}}装备{{color id=\"65535\"}}，\n就来找我领取吧。{{pageBreak}}{{color id=\"1\"}}鱿鱼须商城{{color id=\"65535\"}}里小葵售卖的装备\n和镇上装备店里售卖的装备相比，\n附加的{{color id=\"1\"}}装备能力有所不同{{color id=\"65535\"}}。{{pageBreak}}如果你对{{color id=\"1\"}}鱿鱼须商城{{color id=\"65535\"}}\n有什么不了解的地方，\n就先按{{icon id=\"6\" arg=\"0x0000803F00000000\"}}查看{{color id=\"1\"}}说明{{color id=\"65535\"}}吧。{{pageBreak}}那我去确认一下你的订单，\n稍等一下……嗯？"
  },
  {
    "label": "Recieve_NotOrder",
    "text": "先别着急。\n你还没有{{color id=\"1\"}}预订{{color id=\"65535\"}}任何东西呢，\n等你完成{{color id=\"1\"}}预订{{color id=\"65535\"}}再来找我吧。"
  },
  {
    "label": "Recieve_NotArrive",
    "text": "我可能需要再花一点时间\n才能找到你{{color id=\"1\"}}预订{{color id=\"65535\"}}的装备，\n请你{{color id=\"1\"}}明天{{color id=\"65535\"}}再来找我吧。"
  },
  {
    "label": "Recieve_ArriveOrder",
    "text": "来，看这个，\n我进了符合你预订要求的装备哦。"
  },
  {
    "label": "Recieve_ArriveNearOrder",
    "text": "你觉得这样的如何？\n虽然和你预订的装备不太一样……"
  },
  {
    "label": "Recieve_ArriveNotOrder",
    "text": "我已经想办法帮你找了……\n但是最后找到的只有这个。"
  },
  {
    "label": "Recieve_ArriveGeso",
    "text": "你在小葵那里预订的装备\n正好送到了哦。"
  },
  {
    "label": "Recieve_BuyQ",
    "text": "要购买吗？"
  },
  {
    "label": "Recieve_NotBuy",
    "text": "不需要啊……\n如果你改变心意了，就在{{color id=\"1\"}}今天之内{{color id=\"65535\"}}找我吧，\n不然我会把多余的库存处理掉。"
  },
  {
    "label": "Recieve_NotBuyGeso",
    "text": "不需要啊……\n如果你改变心意了，就再来找我吧。"
  },
  {
    "label": "Recieve_HaveSameGear",
    "text": "咦？你已经持有{{color id=\"1\"}}相同的装备{{color id=\"65535\"}}了啊。\n如果你想购买{{color id=\"1\"}}预订{{color id=\"65535\"}}的装备，\n那你目前持有的{{color id=\"1\"}}装备{{color id=\"65535\"}}就让我来收购吧。"
  },
  {
    "label": "Recieve_NotEnoughMoney",
    "text": "嗯……你的金钱不够吧？\n你最好时刻检查一下自己的钱包哦，\n不然遇到要用钱的关键时刻就糟了。"
  },
  {
    "label": "Skill_First",
    "text": "啊，莫非你是第一次\n{{color id=\"1\"}}附加装备能力{{color id=\"65535\"}}？\n……不过这也正常。{{pageBreak}}你应该知道{{color id=\"1\"}}装备能力碎片{{color id=\"65535\"}}吧？\n只要大量收集碎片，\n就可以在喜欢的装备上\n附加想要的装备能力哦。{{pageBreak}}附加装备能力时也可以选择\n已经拥有装备能力的能力槽，\n到时候就会{{color id=\"1\"}}获得原装备能力的碎片{{color id=\"65535\"}}，\n不会吃亏的。{{pageBreak}}总之，你只要实践一次，\n应该就会知道该怎么做了。"
  },
  {
    "label": "Skill_ExSkillDouble",
    "text": "一旦你把{{color id=\"1\"}}追加装备能力增倍{{color id=\"65535\"}}\n替换成其他装备能力，\n就再也{{color id=\"1\"}}无法重新附加回来{{color id=\"65535\"}}了，要小心哦。"
  },
  {
    "label": "Skill_Select",
    "text": "那就请你选择{{color id=\"1\"}}装备{{color id=\"65535\"}}与{{color id=\"1\"}}装备能力{{color id=\"65535\"}}吧。"
  },
  {
    "label": "Skill_Q",
    "text": "要附加装备能力吗？"
  },
  {
    "label": "Skill_Set",
    "text": "好了，装备能力已经附加完成了，\n你就用它来大显身手吧。\n要是输了……也别太在意。"
  },
  {
    "label": "RandSkill_First",
    "text": "只要将1个{{color id=\"1\"}}超级蝾螺{{color id=\"65535\"}}交给我，\n我就帮你把所有{{color id=\"1\"}}追加装备能力{{color id=\"65535\"}}\n重新附加成随机装备能力哦。{{pageBreak}}重新附加装备能力后，\n你就会获得原来附加的\n{{color id=\"1\"}}装扮能力的碎片{{color id=\"65535\"}}哦。{{pageBreak}}另外，只有拥有{{color id=\"1\"}}3个能力槽{{color id=\"65535\"}}，\n且{{color id=\"1\"}}全部已被使用{{color id=\"65535\"}}的装备才可以\n重新附加装备能力，别忘记哦。{{pageBreak}}那么……"
  },
  {
    "label": "RandSkill_Select",
    "text": "如果装备上的3个能力槽都有装备能力，\n那只要给我1个{{color id=\"1\"}}超级蝾螺{{color id=\"65535\"}}，我就会帮你把所有\n{{color id=\"1\"}}追加装备能力{{color id=\"65535\"}}重新附加成随机装备能力哦。"
  },
  {
    "label": "RandSkill_NotEnoughShell",
    "text": "咦？\n你身上没有{{color id=\"1\"}}超级蝾螺{{color id=\"65535\"}}啊。{{pageBreak}}不好意思，让你白跑一趟，\n等你获得{{color id=\"1\"}}超级蝾螺{{color id=\"65535\"}}之后再来找我吧。"
  },
  {
    "label": "RandSkill_NotFirstShell",
    "text": "不好意思，\n我现在有点忙。"
  },
  {
    "label": "RandSkill_NotEnoughRarity",
    "text": "这件装备的{{color id=\"1\"}}能力槽{{color id=\"65535\"}}有点少啊，\n是不是因为{{color id=\"1\"}}稀有度{{color id=\"65535\"}}太低了？{{pageBreak}}装备必须拥有{{color id=\"1\"}}3个能力槽{{color id=\"65535\"}}，\n而且得全都{{color id=\"1\"}}已经附加装备能力{{color id=\"65535\"}}，\n我才能帮你重新附加装备能力。"
  },
  {
    "label": "RandSkill_EmptySlot",
    "text": "咦？\n这件装备好像还有{{color id=\"1\"}}空{{color id=\"65535\"}}的能力槽啊。{{pageBreak}}如果你想找我重新附加装备能力的话，\n{{color id=\"1\"}}3个能力槽必须全都已经附加装备能力{{color id=\"65535\"}}才行，\n这就麻烦你理解一下了。"
  },
  {
    "label": "RandSkill_Q",
    "text": "要重新附加装备能力吗？"
  },
  {
    "label": "RareUp_First",
    "text": "你只要给我{{color id=\"1\"}}超级蝾螺{{color id=\"65535\"}}，\n我就可以用它帮你的装备{{color id=\"1\"}}提升稀有度{{color id=\"65535\"}}哦。{{pageBreak}}装备的稀有度提升后，\n{{color id=\"1\"}}能力槽{{color id=\"65535\"}}数量就会增加，\n到时候就能附加更多装备能力哦。{{pageBreak}}当能力槽数量达到上限后，\n继续提升稀有度就会变成\n可以获得更多{{color id=\"1\"}}装备经验值{{color id=\"65535\"}}。{{pageBreak}}我建议为常用的装备\n提升稀有度哦。{{pageBreak}}不过装备的稀有度越高，\n提升时需要的{{color id=\"1\"}}超级蝾螺{{color id=\"65535\"}}也会越多……\n这就麻烦你理解一下了。{{pageBreak}}那么……"
  },
  {
    "label": "RareUp_Select",
    "text": "你想提升哪件{{color id=\"1\"}}装备{{color id=\"65535\"}}的稀有度？\n只要给我{{color id=\"1\"}}超级蝾螺{{color id=\"65535\"}}，我就能帮你处理哦。"
  },
  {
    "label": "RareUp_NoShell",
    "text": "咦？\n你身上没有{{color id=\"1\"}}超级蝾螺{{color id=\"65535\"}}啊。{{pageBreak}}不好意思，让你白跑一趟，\n等你获得{{color id=\"1\"}}超级蝾螺{{color id=\"65535\"}}之后再来找我吧。"
  },
  {
    "label": "RareUp_NotEnoughShell",
    "text": "啊，你的{{color id=\"1\"}}超级蝾螺{{color id=\"65535\"}}不够吧？\n不好意思，\n我是不会在{{color id=\"1\"}}超级蝾螺{{color id=\"65535\"}}的数量上妥协的。"
  },
  {
    "label": "RareUp_NotFirstShell",
    "text": "不好意思，\n我现在有点忙。"
  },
  {
    "label": "RareUp_FestT",
    "text": "等等，这是{{color id=\"1\"}}祭典T恤{{color id=\"65535\"}}吧？\n祭典T恤的{{color id=\"1\"}}稀有度{{color id=\"65535\"}}可没办法提升哦。"
  },
  {
    "label": "RareUp_AlreadyMax",
    "text": "喂，这件装备相当稀有啊。\n已经没办法再提升稀有度了吧。"
  },
  {
    "label": "RareUp_Q",
    "text": "要提升稀有度吗？"
  },
  {
    "label": "Clean_First",
    "text": "咦？\n莫非你从来没有{{color id=\"1\"}}清洗{{color id=\"65535\"}}过装备？{{pageBreak}}只要{{color id=\"1\"}}清洗{{color id=\"65535\"}}装备，\n所有{{color id=\"1\"}}追加装备能力{{color id=\"65535\"}}\n都会被清除干净哦。{{pageBreak}}只要将{{color id=\"1\"}}清洗{{color id=\"65535\"}}后的装备\n继续在对战中长时间使用，\n就能再次附加装备能力……{{pageBreak}}原本附加的装备能力\n会在清洗后变成{{color id=\"1\"}}装备能力碎片{{color id=\"65535\"}}，\n可以将它们收集起来。{{pageBreak}}只要收集大量{{color id=\"1\"}}装备能力碎片{{color id=\"65535\"}}，\n就可以用来附加\n喜欢的装备能力哦。{{pageBreak}}你至今遇到的超鱿型人物\n都是灵活运用了{{color id=\"1\"}}清洗{{color id=\"65535\"}}，\n才打造出超鱿型装备的哦。{{pageBreak}}你要不要也尝试一下？\n当然，钱还是要付的。{{pageBreak}}那么……"
  },
  {
    "label": "Clean_Select",
    "text": "你想{{color id=\"1\"}}清洗{{color id=\"65535\"}}哪件{{color id=\"1\"}}装备{{color id=\"65535\"}}？\n我会帮你洗得一干二净哦。"
  },
  {
    "label": "Clean_NoSkill",
    "text": "啊……没有附加{{color id=\"1\"}}追加装备能力{{color id=\"65535\"}}的装备\n可没有办法清洗啊，\n毕竟本来就已经一干二净了。"
  },
  {
    "label": "Clean_NotEnoughMoney",
    "text": "嗯……你的金钱不够吧？\n你最好时刻检查一下自己的钱包哦，\n不然遇到要用钱的关键时刻就糟了。"
  },
  {
    "label": "Clean_Q",
    "text": "要清洗吗？"
  },
  {
    "label": "Clean_Done",
    "text": "搞定，装备已经清洗干净了。\n通过清洗获得的\n{{color id=\"1\"}}装备能力碎片{{color id=\"65535\"}}也交给你吧。\n要珍惜点用哦。"
  },
  {
    "label": "GoodBye",
    "text": "谢谢惠顾，\n期待你下次光临。\n我会等着你的。"
  },
  {
    "label": "FirstSand",
    "text": "大型祭典好热闹啊！\n我之前还犹豫要不要来，\n现在觉得，这种大型活动还是不能错过啊～！{{pageBreak}}嘿嘿嘿……不好意思啊，\n我居然闹腾得像个孩子，\n不过你应该也很兴奋吧？{{pageBreak}}总之，我也会尽我所能\n炒热这场祭典的气氛，\n你要是有什么事，尽管和我说。"
  },
  {
    "label": "FirstSand_AfterSomeMsg",
    "text": "话说回来，大型祭典还真是热闹啊！\n我之前还犹豫要不要来，\n现在觉得，这种大型活动还是不能错过啊～！{{pageBreak}}嘿嘿嘿……不好意思啊，\n我居然闹腾得像个孩子，\n不过你应该也很兴奋吧？{{pageBreak}}总之，我也会尽我所能\n炒热这场祭典的气氛，\n你要是有什么事，尽管和我说。"
  }
]