[
  {
    "label": "AmiiboPhoto_Manual00_Title",
    "text": "Chiama amiibo"
  },
  {
    "label": "AmiiboPhoto_Manual00",
    "text": "Scatta una foto con un amiibo!\n\nPremi {{icon id=\"6\" arg=\"0x52B85E3F03000000\"}} per avviare la modalità Foto\ne quando vedi l'icona {{icon id=\"37\" arg=\"0xD7A3703FFBFFFFFF\"}}, leggi un amiibo\ncon cui hai fatto amicizia per chiamarlo.\n\nScegli dove deve posizionarsi con {{icon id=\"7\" arg=\"0x1F852B3F00000000\"}}, poi\npremi {{icon id=\"0\" arg=\"0x52B85E3F03000000\"}} per dirgli di mettersi in quel punto!"
  },
  {
    "label": "AmiiboPhoto_Manual01_Title",
    "text": "Scegli posa"
  },
  {
    "label": "AmiiboPhoto_Manual01",
    "text": "Organizza la foto come preferisci, quindi\nmettiti in posa insieme all'amiibo premendo {{icon id=\"5\" arg=\"0x52B85E3F03000000\"}}.\n\nOra non resta che iniziare a scattare!"
  }
]