[
  {
    "label": "EventMatch_Button01",
    "text": "Partita evento\nattuale"
  },
  {
    "label": "EventMatch_Button02",
    "text": "Partite evento"
  },
  {
    "label": "EventMatch_Button03",
    "text": "Mischia mollusca"
  },
  {
    "label": "EventMatch_Button04",
    "text": "Zona splat"
  },
  {
    "label": "EventMatch_Button05",
    "text": "Torre mobile"
  },
  {
    "label": "EventMatch_Button06",
    "text": "Bazookarp"
  },
  {
    "label": "EventMatch_Button07",
    "text": "Vongol gol"
  },
  {
    "label": "EventMatch_Title",
    "text": "Partite evento"
  },
  {
    "label": "EventMatch_Manual00",
    "text": "Affronta partite a tempo limitato!"
  },
  {
    "label": "EventMatch_Manual01",
    "text": "Le {{color id=\"1\"}}partite evento{{color id=\"65535\"}} si svolgono periodicamente\ne prevedono {{color id=\"1\"}}regole o limitazioni speciali{{color id=\"65535\"}}.\nPossono anche valere come {{color id=\"1\"}}partite di\nqualificazione per i tornei{{color id=\"65535\"}}!"
  },
  {
    "label": "EventMatch_Manual02",
    "text": "Come per le altre modalità, la ricerca dei\ngiocatori nelle partite evento viene effettuata\nin base alle tue prestazioni in battaglia.\nL'{{color id=\"1\"}}energia evento{{color id=\"65535\"}}, calcolata in base ai tuoi\nrisultati in questo tipo di partite, aumenta\no diminuisce con ogni vittoria o sconfitta.\n\nAll'interno della modalità competerai nelle\nmischie mollusche o nelle partite anarchiche,\nma i tuoi punti rango non cambieranno a\nseconda dei risultati."
  },
  {
    "label": "EventMatch_Manual03",
    "text": "Puoi anche creare una squadra per partecipare\nalle partite evento, nel qual caso verrà calcolata\nl'energia evento totale della squadra. Se la\ncomposizione della squadra cambia, l'energia\nevento totale verrà ricalcolata."
  },
  {
    "label": "EventMatch_Manual04",
    "text": "Ogni partita evento dura {{color id=\"1\"}}2 ore{{color id=\"65535\"}}. Potrai vedere\ni risultati poco dopo l'aggiornamento del periodo\nal {{color id=\"1\"}}terminale della lobby{{color id=\"65535\"}}. Se durante l'evento la\ntua energia evento è stata calcolata più volte,\nverrà registrato il punteggio più alto che hai\nottenuto.\n\nI risultati delle partite saranno disponibili\nsolo per {{color id=\"1\"}}14 giorni{{color id=\"65535\"}} dopo l'evento, quindi ricorda\ndi consultarli!"
  },
  {
    "label": "EventMatch_Manual05",
    "text": "Se {{color id=\"1\"}}vinci 5{{color id=\"65535\"}} partite evento, otterrai un\n{{color id=\"1\"}}gett-o-matic {{icon id=\"34\" arg=\"0xD7A3B03FFEFFFFFF\"}}{{color id=\"65535\"}}, che puoi usare in qualsiasi\nmomento al Premi-o-matic!\n\nRicorda che ogni partita evento si divide in\npiù sessioni, ma tutte le tue vittorie contano,\nindipendentemente dalla sessione in cui hai\ngiocato. Otterrai il gett-o-matic {{icon id=\"34\" arg=\"0xD7A3B03FFEFFFFFF\"}} in men\nche non si dica!"
  },
  {
    "label": "EventMatch_Nawabari_Title",
    "text": "Mischie mollusche: le regole"
  },
  {
    "label": "EventMatch_Nawabari_Manual00",
    "text": "Le squadre hanno 3 minuti per inchiostrare più terreno degli avversari!"
  },
  {
    "label": "EventMatch_Nawabari_Manual01",
    "text": "Le squadre hanno 3 minuti per coprire il {{color id=\"1\"}}terreno{{color id=\"65535\"}}\nd'inchiostro. Vince la squadra che ha coperto\npiù {{color id=\"1\"}}territorio {{color id=\"65535\"}}allo scadere del tempo. Colora\na più non posso per aiutare la tua squadra!"
  },
  {
    "label": "EventMatch_Nawabari_Manual02",
    "text": "Più terreno inchiostri, più ottieni punti e\nl'{{color id=\"1\"}}indicatore dell'arma speciale{{color id=\"65535\"}} si riempie. Quando\nè pieno, premi {{icon id=\"8\" arg=\"0x1F852B3F00000000\"}} per attivare l'{{color id=\"1\"}}arma speciale{{color id=\"65535\"}}!\n\nOcchio, però! L'indicatore si svuota un po'\nse ti splattano. Ricorda di scatenarne la furia\ne potrai ribaltare le sorti della battaglia!"
  },
  {
    "label": "EventMatch_Nawabari_Manual03",
    "text": "I giocatori esperti sanno che devono sfruttare\nla {{color id=\"1\"}}mappa {{color id=\"65535\"}}con {{icon id=\"2\" arg=\"0x52B85E3F03000000\"}}. Usala per controllare il\nterritorio inchiostrato da ogni squadra.\n\nE ricorda che puoi continuare a giocare mentre\nla stai consultando!"
  },
  {
    "label": "EventMatch_Nawabari_Manual04",
    "text": "Una volta aperta la mappa, seleziona un\nalleato con {{icon id=\"4\" arg=\"0x52B85E3F03000000\"}}, poi raggiungilo con un {{color id=\"1\"}}super\nsalto{{color id=\"65535\"}} premendo {{icon id=\"0\" arg=\"0x52B85E3F03000000\"}}! Puoi anche usare {{icon id=\"8\" arg=\"0x1F852B3F00000000\"}}\nper scegliere l'alleato da raggiungere.\n\nGli avversari vedono dove atterrerai con un\nsuper salto, quindi studia la mappa e scegli\nun alleato che si trova in una posizione dove\nnon rischi un'imboscata."
  },
  {
    "label": "EventMatch_Gachiarea_Title",
    "text": "Zona splat: le regole"
  },
  {
    "label": "EventMatch_Gachiarea_Manual00",
    "text": "Splatta le zone splat, poi difendi il tuo territorio\nper agguantare la vittoria!"
  },
  {
    "label": "EventMatch_Gachiarea_Manual01",
    "text": "1) Zona splat\n2) Stato della zona splat\n3) Conto alla rovescia (progresso)\n4) Conto alla rovescia (penalità)"
  },
  {
    "label": "EventMatch_Gachiarea_Manual02",
    "text": "Vince la squadra che difende tutte le {{color id=\"1\"}}zone\nsplat{{color id=\"65535\"}} fino a quando il timer arriva a zero!\n\nInnanzitutto, conquista le zone splat coprendole\nd'inchiostro. Lo {{color id=\"1\"}}stato delle zone splat{{color id=\"65535\"}} ti indica\nla percentuale splattata. Conquista tutte le\nzone e il {{color id=\"1\"}}timer {{color id=\"65535\"}}della tua squadra inizierà un\n{{color id=\"1\"}}conto alla rovescia{{color id=\"65535\"}}: se arriva a zero, sarà una\nvittoria per KO!"
  },
  {
    "label": "EventMatch_Gachiarea_Manual03_Title",
    "text": "Zona splat: consigli utili"
  },
  {
    "label": "EventMatch_Gachiarea_Manual03",
    "text": "・ Collabora con la tua squadra!\n    Cercare di riconquistare in solitaria una zona splat sorvegliata\n    dagli avversari non è facile.\n    Unisciti ai tuoi alleati per un'offensiva congiunta! Se invece stai\n    difendendo, cerca di disperdere i nemici per evitare che collaborino.\n\n・ Non mollare, neanche se stai perdendo!\n    Quando la squadra avversaria ha il controllo delle zone o quando\n    sei in difficoltà durante il conto alla rovescia, l'indicatore dell'arma\n    speciale inizierà a riempirsi automaticamente!"
  },
  {
    "label": "EventMatch_Gachiarea_Manual04",
    "text": "・ Ribalta le sorti dell'incontro durante il tempo +!\n    Se il tempo scade e la squadra che sta perdendo ha il controllo\n    delle zone, scatterà il tempo +. Combatti fino alla fine e potresti\n    recuperare, festeggiando una vittoria all'ultimo splat!"
  },
  {
    "label": "EventMatch_Gachiyagura_Title",
    "text": "Torre mobile: le regole"
  },
  {
    "label": "EventMatch_Gachiyagura_Manual00",
    "text": "Vince la squadra che porta la torre al traguardo nella base nemica!"
  },
  {
    "label": "EventMatch_Gachiyagura_Manual01",
    "text": "1) La torre\n2) Il traguardo\n3) Il checkpoint\n4) Il contatore"
  },
  {
    "label": "EventMatch_Gachiyagura_Manual02",
    "text": "Porta la {{color id=\"1\"}}torre {{color id=\"65535\"}}dal centro dello scenario al\n{{color id=\"1\"}}traguardo {{color id=\"65535\"}}nella base nemica per vincere!\n\nInchiostra i lati della torre e sali in cima\nper conquistarla. La torre inizierà a dirigersi\nautomaticamente verso la base nemica.\n\nSe ti splattano e il nemico prende il controllo\ndella torre, oppure se quest'ultima resta\ntroppo a lungo senza padrone, tornerà al\ncentro dello scenario."
  },
  {
    "label": "EventMatch_Gachiyagura_Manual03",
    "text": "Lungo il percorso verso il traguardo troverai\ndei {{color id=\"1\"}}checkpoint{{color id=\"65535\"}}. Raggiungine uno con la torre\ne questa si fermerà per un po'. Mantienine\nil controllo finché le difese del checkpoint\nvengono meno e la torre riprenderà a muoversi.\n\nSe superi completamente un checkpoint, la\ntorre non si dovrà fermare di nuovo in quel\npunto. Ma se non l'hai superato del tutto,\nle sue difese torneranno attive!"
  },
  {
    "label": "EventMatch_Gachiyagura_Manual04",
    "text": "Man mano che la torre si avvicina al traguardo,\nil {{color id=\"1\"}}contatore {{color id=\"65535\"}}della tua squadra {{color id=\"1\"}}diminuisce{{color id=\"65535\"}}. Se la\ntorre non arriva al traguardo prima che scada\nil tempo, vince la squadra con il valore più basso\nsul contatore."
  },
  {
    "label": "EventMatch_Gachiyagura_Manual04_Title",
    "text": "Torre mobile: consigli utili"
  },
  {
    "label": "EventMatch_Gachiyagura_Manual05",
    "text": "・ Proteggi la torre!\n    Chiunque si trovi sulla torre è un bersaglio facile, quindi manda\n    i compagni in ricognizione ad assicurarsi che la via sia libera!\n\n・ Riconquista la torre ai checkpoint!\n    Non dimenticare che la torre si ferma ai checkpoint. È il momento\n    perfetto per attaccare e riconquistarla!"
  },
  {
    "label": "EventMatch_Gachiyagura_Manual06",
    "text": "・ Ribalta le sorti dell'incontro durante il tempo +!\n    Se il tempo scade e la squadra che sta perdendo ha il controllo\n    della torre, scatterà il tempo +. Combatti fino alla fine e potresti\n    recuperare, festeggiando una vittoria all'ultimo splat!"
  },
  {
    "label": "EventMatch_Gachihoko_Title",
    "text": "Bazookarp: le regole"
  },
  {
    "label": "EventMatch_Gachihoko_Manual00",
    "text": "Vince la squadra che porta il bazookarp al traguardo nella base nemica!"
  },
  {
    "label": "EventMatch_Gachihoko_Manual01",
    "text": "1) Il bazookarp\n2) Il traguardo\n3) Tempo rimasto per portare il bazookarp\n4) Distanza rimanente dal traguardo\n5) Il checkpoint"
  },
  {
    "label": "EventMatch_Gachihoko_Manual02",
    "text": "Vince la squadra che conquista il {{color id=\"1\"}}bazookarp{{color id=\"65535\"}}\ne lo porta al {{color id=\"1\"}}traguardo {{color id=\"65535\"}}nella base nemica!\n\nInnanzitutto, raggiungi il bazookarp al centro\ndello scenario, quindi distruggine la barriera\nper conquistarlo.\n\nSe lasci cadere il bazookarp, la barriera si\nriattiva lentamente. Se resta indisturbato\ntroppo a lungo, tornerà automaticamente alla\nsua posizione iniziale al centro dello scenario."
  },
  {
    "label": "EventMatch_Gachihoko_Manual03",
    "text": "Quando trasporti il bazookarp non puoi super\nsaltare, né usare le armi. Tuttavia, puoi sparare\nun potentissimo {{color id=\"1\"}}colpo con il bazookarp{{color id=\"65535\"}} stesso!\n\nRicorda anche che trasportare il bazookarp è\npericoloso. Se lo tieni troppo a lungo, esploderà\ne ti splatterà. Fai attenzione!"
  },
  {
    "label": "EventMatch_Gachihoko_Manual04",
    "text": "Una volta ottenuto il bazookarp, dirigiti al\n{{color id=\"1\"}}checkpoint{{color id=\"65535\"}}.\n\nDopo averlo superato, la tua prossima fermata\nè il traguardo. Se la tua squadra viene respinta,\npuoi tornare direttamente a qualsiasi checkpoint\ntu abbia già superato.\n\nMan mano che ti avvicini al checkpoint e poi\nal traguardo nemico, il {{color id=\"1\"}}contatore {{color id=\"65535\"}}della tua\nsquadra {{color id=\"1\"}}diminuisce{{color id=\"65535\"}}. Se il tempo scade prima\nche il bazookarp raggiunga il traguardo, vince\nla squadra con il valore più basso sul contatore."
  },
  {
    "label": "EventMatch_Gachihoko_Manual05_Title",
    "text": "Bazookarp: consigli utili"
  },
  {
    "label": "EventMatch_Gachihoko_Manual05",
    "text": "・ Muovi il bazookarp!\n    La cosa più importante è portare il bazookarp al traguardo!\n    Se ce l'hai tu, cerca di avanzare. Se ce l'ha un tuo compagno,\n    aprigli la strada. Continua a farlo muovere!\n\n・ Non mollare, neanche se stai perdendo!\n    Quando la squadra avversaria ha il controllo del bazookarp o quando\n    sei in difficoltà durante il conto alla rovescia e non hai il bazookarp,\n    l'indicatore dell'arma speciale inizierà a riempirsi automaticamente!"
  },
  {
    "label": "EventMatch_Gachihoko_Manual06",
    "text": "・ Ribalta le sorti dell'incontro durante il tempo +!\n    Se il tempo scade e la squadra che sta perdendo ha il controllo\n    del bazookarp, scatterà il tempo +. Combatti fino alla fine e\n    potresti recuperare, festeggiando una vittoria all'ultimo splat!"
  },
  {
    "label": "EventMatch_Gachiasari_Title",
    "text": "Vongol gol: le regole"
  },
  {
    "label": "EventMatch_Gachiasari_Manual00",
    "text": "Vince la squadra che accumula più vongole nel cesto nemico!\nTi servirà una super vongola per abbattere la barriera del cesto."
  },
  {
    "label": "EventMatch_Gachiasari_Manual01",
    "text": "1) Vongola\n2) Super vongola\n3) Cesto\n4) Contatore"
  },
  {
    "label": "EventMatch_Gachiasari_Manual02",
    "text": "5) Timer della barriera\n6) Totale vongole della squadra\n7) Vongole in tuo possesso\n8) Totale vongole per ogni giocatore"
  },
  {
    "label": "EventMatch_Gachiasari_Manual03",
    "text": "Vince la squadra che lancia più {{color id=\"1\"}}vongole{{color id=\"65535\"}}\nnel cesto della squadra avversaria! Ricorda\nche i cesti sono circondati da una {{color id=\"1\"}}barriera{{color id=\"65535\"}}.\n\nPrima devi abbattere la barriera. Raccogli\nle vongole sparse per tutto lo scenario."
  },
  {
    "label": "EventMatch_Gachiasari_Manual04",
    "text": "Una volta raccolte {{color id=\"1\"}}8{{color id=\"65535\"}} vongole, si combinano\nin una {{color id=\"1\"}}super vongola{{color id=\"65535\"}}. È il momento di\nabbattere la barriera!"
  },
  {
    "label": "EventMatch_Gachiasari_Manual05",
    "text": "Puoi lanciare sia le vongole normali che le\nsuper vongole premendo {{icon id=\"0\" arg=\"0x52B85E3F03000000\"}} o {{icon id=\"9\" arg=\"0x52B85E3F03000000\"}}.\n\nSe abbatti la barriera con una super vongola,\nscatterà un {{color id=\"1\"}}timer{{color id=\"65535\"}}!"
  },
  {
    "label": "EventMatch_Gachiasari_Manual06",
    "text": "Lancia vongole e super vongole nel cesto\navversario il più velocemente possibile!\n\nSe il tuo punteggio arriva a 0, otterrai\nuna vittoria per KO. Ogni vongola {{color id=\"1\"}}abbassa\nil contatore {{color id=\"65535\"}}di {{color id=\"1\"}}3{{color id=\"65535\"}} punti, mentre una super\nvongola lo abbassa di {{color id=\"1\"}}20{{color id=\"65535\"}}!\n\nInoltre, ogni vongola che lanci nel cesto\nnemico {{color id=\"1\"}}aggiunge tempo al timer della barriera{{color id=\"65535\"}}."
  },
  {
    "label": "EventMatch_Gachiasari_Manual07",
    "text": "Se la tua barriera viene abbattuta, quella\navversaria diventa invincibile, quindi non\ndimenticare di difenderti! Se vedi un nemico\ncon delle vongole, splattalo subito per evitare\nche aggiunga tempo al timer della barriera.\n\nUna volta che la tua barriera si è riattivata,\n{{color id=\"1\"}}sotto il cesto apparirà{{color id=\"65535\"}} una super vongola,\nche aiuterà la tua squadra nel contrattacco!"
  },
  {
    "label": "EventMatch_Gachiasari_Manual08",
    "text": "Se ti splattano lascerai cadere tutte le\nvongole che trasporti. Se vedi una vongola\nnormale a terra, raccoglila prima che sparisca!\n\nSe ti splattano potresti anche lasciar cadere\nle super vongole. Queste possono essere\nraccolte solo da qualcuno che appartiene\nalla stessa squadra di chi le ha fatte cadere.\nSe un avversario fa cadere una super vongola,\ncombatti per evitare che venga recuperata\nfinché non sparisce."
  },
  {
    "label": "EventMatch_Gachiasari_Manual09",
    "text": "Le vongole che si trovano in zone colorate\ndal tuo inchiostro sono contrassegnate per\nrenderle più facili da trovare.\n\nLe nuove vongole appaiono spesso, quindi\ncopri tanto terreno per trovarle e recuperarle\ncon più facilità prima dei tuoi avversari."
  },
  {
    "label": "EventMatch_Gachiasari_Manual10_Title",
    "text": "Vongol gol: consigli utili"
  },
  {
    "label": "EventMatch_Gachiasari_Manual10",
    "text": "・ Vai in ricognizione!\n    Sfrutta la ricognizione per visitare lo scenario e scoprire i vari\n    modi in cui raggiungere i cesti. Orientarsi è fondamentale!\n\n・ Conquista terreno!\n    Inchiostra più che puoi e conquista terreno per trovare le vongole\n    più facilmente e rapidamente man mano che appaiono!"
  },
  {
    "label": "EventMatch_Gachiasari_Manual11",
    "text": "・ Non mollare, neanche se stai perdendo!\n    Se nessuna delle due squadre ha una super vongola o se entrambe\n    le squadre ne hanno una, l'indicatore dell'arma speciale della squadra\n    che sta perdendo inizierà a riempirsi automaticamente!\n\n・ Ribalta le sorti dell'incontro durante il tempo +!\n    Se la squadra che sta perdendo ha una super vongola o se il timer\n    della barriera sta ancora scorrendo quando il tempo scade, scatterà\n    il tempo +. È il momento di dare il tutto per tutto per festeggiare\n    una vittoria all'ultimo splat!"
  },
  {
    "label": "EventMatch_Usually_Title",
    "text": "Qualificazione ai tornei"
  },
  {
    "label": "EventMatch_Usually_Subtitle",
    "text": "Guadagnati l'accesso a un torneo!"
  },
  {
    "label": "EventMatch_Usually_Manual",
    "text": "Questo tipo di partita evento consente di qualificarsi a un {{color id=\"1\"}}torneo{{color id=\"65535\"}}.\nTuttavia, possono affrontare la partita evento anche i giocatori che\nnon intendono partecipare al torneo.\n\nPer partecipare ai tornei potrebbe essere necessaria una richiesta\nseparata, anche se il giocatore si è qualificato. Inoltre, la partecipazione\npotrebbe essere limitata in base al paese di residenza del giocatore\no ad altri fattori."
  },
  {
    "label": "EventMatch_CompetitionsJP_Title",
    "text": "Qualificazione ai tornei (Giappone)"
  },
  {
    "label": "EventMatch_CompetitionsJP_Subtitle",
    "text": "Guadagnati l'accesso a un torneo!"
  },
  {
    "label": "EventMatch_CompetitionsJP_Manual",
    "text": "Questo tipo di partita evento consente di qualificarsi a un {{color id=\"1\"}}torneo{{color id=\"65535\"}}\n{{color id=\"1\"}}in Giappone{{color id=\"65535\"}}. Tuttavia, possono affrontare la partita evento anche\ni giocatori che non intendono partecipare al torneo.\n\nPer partecipare ai tornei potrebbe essere necessaria una richiesta\nseparata, anche se il giocatore si è qualificato. Inoltre, la partecipazione\npotrebbe essere limitata in base al paese di residenza del giocatore\no ad altri fattori."
  },
  {
    "label": "EventMatch_CompetitionsUS_Title",
    "text": "Qualificazione ai tornei (Americhe)"
  },
  {
    "label": "EventMatch_CompetitionsUS_Subtitle",
    "text": "Guadagnati l'accesso a un torneo!"
  },
  {
    "label": "EventMatch_CompetitionsUS_Manual",
    "text": "Questo tipo di partita evento consente di qualificarsi a un {{color id=\"1\"}}torneo{{color id=\"65535\"}}\n{{color id=\"1\"}}nelle Americhe{{color id=\"65535\"}}. Tuttavia, possono affrontare la partita evento anche\ni giocatori che non intendono partecipare al torneo.\n\nPer partecipare ai tornei potrebbe essere necessaria una richiesta\nseparata, anche se il giocatore si è qualificato. Inoltre, la partecipazione\npotrebbe essere limitata in base al paese di residenza del giocatore\no ad altri fattori."
  },
  {
    "label": "EventMatch_CompetitionsEU_Title",
    "text": "Qualificazione ai tornei (Europa)"
  },
  {
    "label": "EventMatch_CompetitionsEU_Subtitle",
    "text": "Guadagnati l'accesso a un torneo!"
  },
  {
    "label": "EventMatch_CompetitionsEU_Manual",
    "text": "Questo tipo di partita evento consente di qualificarsi a un {{color id=\"1\"}}torneo{{color id=\"65535\"}}\n{{color id=\"1\"}}in Europa{{color id=\"65535\"}}. Tuttavia, possono affrontare la partita evento anche i\ngiocatori che non intendono partecipare al torneo.\n\nPer partecipare ai tornei potrebbe essere necessaria una richiesta\nseparata, anche se il giocatore si è qualificato. Inoltre, la partecipazione\npotrebbe essere limitata in base al paese di residenza del giocatore\no ad altri fattori."
  },
  {
    "label": "EventMatch_CompetitionsAU_Title",
    "text": "Qualificazione ai tornei (AU/NZ)"
  },
  {
    "label": "EventMatch_CompetitionsAU_Subtitle",
    "text": "Guadagnati l'accesso a un torneo!"
  },
  {
    "label": "EventMatch_CompetitionsAU_Manual",
    "text": "Questo tipo di partita evento consente di qualificarsi a un {{color id=\"1\"}}torneo\nin Australia e Nuova Zelanda{{color id=\"65535\"}}. Tuttavia, possono affrontare la partita\nevento anche i giocatori che non intendono partecipare al torneo.\n\nPer partecipare ai tornei potrebbe essere necessaria una richiesta\nseparata, anche se il giocatore si è qualificato. Inoltre, la partecipazione\npotrebbe essere limitata in base al paese di residenza del giocatore\no ad altri fattori."
  },
  {
    "label": "EventMatch_SpecialRush_UltraShot_Title",
    "text": "Troppi ultraturbinator!"
  },
  {
    "label": "EventMatch_SpecialRush_UltraShot_Subtitle",
    "text": "Una lotta all'ultimo ultraturbinator!"
  },
  {
    "label": "EventMatch_SpecialRush_UltraShot_Manual",
    "text": "Occhio per occhio, ultraturbinator per ultraturbinator!\nSarai all'altezza della sfida?\n\n・ Puoi usare solo set che includono l'arma speciale {{color id=\"1\"}}ultraturbinator{{color id=\"65535\"}}.\n・ L'indicatore dell'arma speciale si riempirà rapidamente in modo autonomo!\n・ Saranno attivate solo le abilità originali. Le abilità extra non avranno\n  alcun effetto!"
  },
  {
    "label": "EventMatch_PairCup_Title",
    "text": "Coppie a duello"
  },
  {
    "label": "EventMatch_PairCup_Subtitle",
    "text": "Scopri di cosa sei capace in coppia!"
  },
  {
    "label": "EventMatch_PairCup_Manual",
    "text": "L'affiatamento è fondamentale in queste rapide battaglie 2 vs 2!\n\n・ Testa nuove strategie e porta la tua squadra a dominare la mappa!\n・ L'attesa per tornare in battaglia è ridotta!\n・ Puoi partecipare {{color id=\"1\"}}in una squadra da 2{{color id=\"65535\"}} o {{color id=\"1\"}}in solitaria{{color id=\"65535\"}}.\n・ Saranno attivate sia le abilità originali che quelle extra!"
  },
  {
    "label": "EventMatch_DeepFog_Title",
    "text": "Nebbia a volontà"
  },
  {
    "label": "EventMatch_DeepFog_Subtitle",
    "text": "Posta alta, visibilità bassa!"
  },
  {
    "label": "EventMatch_DeepFog_Manual",
    "text": "Riuscirai a usare la nebbia a tuo vantaggio?\n\n・ Lo scenario sarà avvolto nella nebbia durante tutta la battaglia.\n・ Tuttavia, la densità della nebbia cambierà nel corso dello scontro!\n・ Saranno attivate sia le abilità originali che quelle extra!"
  },
  {
    "label": "EventMatch_FastMove_Title",
    "text": "Nuoto accelerato"
  },
  {
    "label": "EventMatch_FastMove_Subtitle",
    "text": "Velocità di nuoto aumentata per tutti!"
  },
  {
    "label": "EventMatch_FastMove_Manual",
    "text": "Nuota nell'inchiostro della tua squadra più veloce che mai in forma\ndi mollusco. Ah, e cerca anche di vincere la partita, ovviamente!\n\n・ La mobilità in forma di mollusco è molto aumentata per tutti i giocatori.\n・ Saranno attivate solo le abilità originali. Le abilità extra non avranno\n  alcun effetto.\n・ L'abilità Velocità nuoto + non avrà alcun effetto."
  },
  {
    "label": "EventMatch_MonthlyLeagueMatchReal_Title",
    "text": "Partita evento mensile"
  },
  {
    "label": "EventMatch_MonthlyLeagueMatchReal_Subtitle",
    "text": "Mira al record di energia evento!"
  },
  {
    "label": "EventMatch_MonthlyLeagueMatchReal_Manual",
    "text": "Quale record di energia evento stabilirai questo mese?\n\n・ Nelle {{color id=\"1\"}}mischie mollusche{{color id=\"65535\"}} saranno attivate solo le abilità originali.\n  Le abilità extra non avranno alcun effetto!\n・ Nelle {{color id=\"1\"}}modalità{{color id=\"65535\"}} {{color id=\"1\"}}Partita anarchica{{color id=\"65535\"}} non ci sarà alcun limite sulle abilità\n  dell'equipaggiamento!"
  },
  {
    "label": "EventMatch_HighJump_Title",
    "text": "Salto estremo"
  },
  {
    "label": "EventMatch_HighJump_Subtitle",
    "text": "Dove arriverai con i salti potenziati?"
  },
  {
    "label": "EventMatch_HighJump_Manual",
    "text": "Grazie all'abilità di saltare più in alto che mai, puoi esplorare nuove\nstrategie e linee di attacco sulla mappa!\n\n・ La capacità di salto è notevolmente aumentata per tutti i giocatori.\n・ La resistenza dell'equipaggiamento aumenta dopo il calammaraggio.\n・ Saranno attivate solo le abilità originali. Le abilità extra non avranno\n  alcun effetto."
  },
  {
    "label": "EventMatch_RandomWeapon_Title",
    "text": "Assaggio d'armi"
  },
  {
    "label": "EventMatch_RandomWeapon_Subtitle",
    "text": "Sfrutta al massimo le armi casuali!"
  },
  {
    "label": "EventMatch_RandomWeapon_Manual",
    "text": "\"Sono lieto di mettere a disposizione il mio intero inventario per\nquesto evento. Prova qualcosa di diverso e magari troverai una\nnuova arma preferita!\"\n - Armand\n\n・ Prima di ogni battaglia, le armi verranno assegnate in modo casuale.\n・ Le armi saranno gentilmente fornite da Armand, quindi non preoccuparti\n  se non ne possiedi alcune.\n・ Saranno attivate sia le abilità originali che quelle extra!"
  },
  {
    "label": "EventMatch_NewSeasonCup_Title",
    "text": "Primo evento della nuova stagione"
  },
  {
    "label": "EventMatch_NewSeasonCup_Subtitle",
    "text": "Un nuovo scenario per una nuova stagione!"
  },
  {
    "label": "EventMatch_NewSeasonCup_Manual",
    "text": "Competi in una situazione di assoluta imparzialità: tutti proveranno\nun nuovo scenario insieme!\n\n・ Sviluppa strategie e tattiche specifiche dello scenario in tempo reale.\n・ Nelle {{color id=\"1\"}}mischie mollusche{{color id=\"65535\"}} saranno attivate solo le abilità originali.\n  Le abilità extra non avranno alcun effetto!\n・ Nelle {{color id=\"1\"}}modalità{{color id=\"65535\"}} {{color id=\"1\"}}Partita anarchica{{color id=\"65535\"}} non ci sarà alcun limite sulle abilità\n  dell'equipaggiamento!"
  },
  {
    "label": "EventMatch_SpecialRush_ZipCaster_Title",
    "text": "Scatta col molluscatto"
  },
  {
    "label": "EventMatch_SpecialRush_ZipCaster_Subtitle",
    "text": "Vola a... volontà con il molluscatto infinito!"
  },
  {
    "label": "EventMatch_SpecialRush_ZipCaster_Manual",
    "text": "Dove andresti e come combatteresti se potessi usare il molluscatto\nquanto ti pare? Quest'evento ti fornirà le risposte che cerchi.\n\n・ Puoi usare solo set che includono l'arma speciale {{color id=\"1\"}}molluscatto{{color id=\"65535\"}}.\n・ L'indicatore dell'arma speciale si riempirà rapidamente in modo autonomo!\n・ Saranno attivate solo le abilità originali. Le abilità extra non avranno\n  alcun effetto!"
  },
  {
    "label": "EventMatch_WeaponLimited_RollerBrush_Title",
    "text": "La battaglia artistica del secolo"
  },
  {
    "label": "EventMatch_WeaponLimited_RollerBrush_Subtitle",
    "text": "Rulli vs pennelli: chi la pittura la vince!"
  },
  {
    "label": "EventMatch_WeaponLimited_RollerBrush_Manual",
    "text": "In questo evento dovrai tirare fuori la tua vena artistica!\n\n・ Le uniche armi che puoi usare sono {{color id=\"1\"}}rulli {{color id=\"65535\"}}o {{color id=\"1\"}}pennelli{{color id=\"65535\"}}!\n・ Saranno attivate sia le abilità originali che quelle extra!"
  },
  {
    "label": "EventMatch_UsuallyRehearsals_Title",
    "text": "Prova torneo"
  },
  {
    "label": "EventMatch_UsuallyRehearsals_Subtitle",
    "text": "Affina le tue abilità in vista di un torneo!"
  },
  {
    "label": "EventMatch_UsuallyRehearsals_Manual",
    "text": "Questa partita evento rappresenta una {{color id=\"1\"}}prova {{color id=\"65535\"}}in vista di tornei futuri.\nTuttavia, possono affrontare la partita evento anche i giocatori che\nnon intendono partecipare a un torneo.\n\nPer partecipare ai tornei potrebbe essere necessaria una richiesta\nseparata, anche se il giocatore si è qualificato. Inoltre, la partecipazione\npotrebbe essere limitata in base al paese di residenza del giocatore\no ad altri fattori."
  },
  {
    "label": "EventMatch_CompetitionRehearsalsJP_Title",
    "text": "Prova torneo (Giappone)"
  },
  {
    "label": "EventMatch_CompetitionRehearsalsJP_Subtitle",
    "text": "Affina le tue abilità in vista di un torneo!"
  },
  {
    "label": "EventMatch_CompetitionRehearsalsJP_Manual",
    "text": "Questa partita evento rappresenta una {{color id=\"1\"}}prova {{color id=\"65535\"}}in vista di tornei futuri.\nTuttavia, possono affrontare la partita evento anche i giocatori che\nnon intendono partecipare a un torneo.\n\nPer partecipare ai tornei potrebbe essere necessaria una richiesta\nseparata, anche se il giocatore si è qualificato. Inoltre, la partecipazione\npotrebbe essere limitata in base al paese di residenza del giocatore\no ad altri fattori."
  },
  {
    "label": "EventMatch_CompetitionRehearsalsUS_Title",
    "text": "Prova torneo (Americhe)"
  },
  {
    "label": "EventMatch_CompetitionRehearsalsUS_Subtitle",
    "text": "Affina le tue abilità in vista di un torneo!"
  },
  {
    "label": "EventMatch_CompetitionRehearsalsUS_Manual",
    "text": "Questa partita evento rappresenta una {{color id=\"1\"}}prova {{color id=\"65535\"}}in vista di tornei futuri.\nTuttavia, possono affrontare la partita evento anche i giocatori che\nnon intendono partecipare a un torneo.\n\nPer partecipare ai tornei potrebbe essere necessaria una richiesta\nseparata, anche se il giocatore si è qualificato. Inoltre, la partecipazione\npotrebbe essere limitata in base al paese di residenza del giocatore\no ad altri fattori."
  },
  {
    "label": "EventMatch_CompetitionRehearsalsEU_Title",
    "text": "Prova torneo (Europa)"
  },
  {
    "label": "EventMatch_CompetitionRehearsalsEU_Subtitle",
    "text": "Affina le tue abilità in vista di un torneo!"
  },
  {
    "label": "EventMatch_CompetitionRehearsalsEU_Manual",
    "text": "Questa partita evento rappresenta una {{color id=\"1\"}}prova {{color id=\"65535\"}}in vista di tornei futuri.\nTuttavia, possono affrontare la partita evento anche i giocatori che\nnon intendono partecipare a un torneo.\n\nPer partecipare ai tornei potrebbe essere necessaria una richiesta\nseparata, anche se il giocatore si è qualificato. Inoltre, la partecipazione\npotrebbe essere limitata in base al paese di residenza del giocatore\no ad altri fattori."
  },
  {
    "label": "EventMatch_CompetitionRehearsalsAU_Title",
    "text": "Prova torneo (AU/NZ)"
  },
  {
    "label": "EventMatch_CompetitionRehearsalsAU_Subtitle",
    "text": "Affina le tue abilità in vista di un torneo!"
  },
  {
    "label": "EventMatch_CompetitionRehearsalsAU_Manual",
    "text": "Questa partita evento rappresenta una {{color id=\"1\"}}prova {{color id=\"65535\"}}in vista di tornei futuri.\nTuttavia, possono affrontare la partita evento anche i giocatori che\nnon intendono partecipare a un torneo.\n\nPer partecipare ai tornei potrebbe essere necessaria una richiesta\nseparata, anche se il giocatore si è qualificato. Inoltre, la partecipazione\npotrebbe essere limitata in base al paese di residenza del giocatore\no ad altri fattori."
  },
  {
    "label": "EventMatch_CostumeParty_Title",
    "text": "Sfilata in salsa Armand"
  },
  {
    "label": "EventMatch_CostumeParty_Subtitle",
    "text": "Armand presta armi ed equipaggiamento casuali!"
  },
  {
    "label": "EventMatch_CostumeParty_Manual",
    "text": "In questa partita evento senza dress code dovrai cavartela con un\nassortimento casuale delle armi e dell'equipaggiamento di Armand!\n\n・ All'inizio della partita ti verrà assegnato un set composto da arma\n  ed equipaggiamento.\n・ Il set cambierà completamente a ogni successiva partita!\n・ Il tutto sarà gentilmente fornito da Armand, quindi non preoccuparti\n  se non possiedi alcuni oggetti. E ricorda che dovrai restituirli."
  },
  {
    "label": "EventMatch_SpecialRush_JetPack_Title",
    "text": "Jet splat per tutti!"
  },
  {
    "label": "EventMatch_SpecialRush_JetPack_Subtitle",
    "text": "Una battaglia volante a suon di jet splat!"
  },
  {
    "label": "EventMatch_SpecialRush_JetPack_Manual",
    "text": "Decolla con il tuo jet splat e combatti in volo!\n\n・ Puoi usare solo set che includono l'arma speciale {{color id=\"1\"}}jet splat{{color id=\"65535\"}}.\n・ L'indicatore dell'arma speciale si riempirà rapidamente in modo autonomo!\n・ Saranno attivate solo le abilità originali. Le abilità extra non avranno\n  alcun effetto!"
  },
  {
    "label": "EventMatch_SpecialRush_Skewer_Title",
    "text": "Gran premio del motosqualo"
  },
  {
    "label": "EventMatch_SpecialRush_Skewer_Subtitle",
    "text": "Sfreccia nella mischia con il tuo motosqualo!"
  },
  {
    "label": "EventMatch_SpecialRush_Skewer_Manual",
    "text": "Chi è pronto a cavalcare uno squalo? Beh, tutti i partecipanti\na questa partita evento!\n\n・ Puoi usare solo set che includono l'arma speciale {{color id=\"1\"}}motosqualo{{color id=\"65535\"}}.\n・ L'indicatore dell'arma speciale si riempirà rapidamente in modo autonomo!\n・ Saranno attivate solo le abilità originali. Le abilità extra non avranno\n  alcun effetto!"
  },
  {
    "label": "EventMatch_SuperSubWeapon_LineMarker_Title",
    "text": "In prima linea"
  },
  {
    "label": "EventMatch_SuperSubWeapon_LineMarker_Subtitle",
    "text": "Chi è più abile con lo sparalinee?"
  },
  {
    "label": "EventMatch_SuperSubWeapon_LineMarker_Manual",
    "text": "La mira è tutto in questa partita evento! Prepara il tuo sparalinee\nin questa battaglia al miglior rimbalzo.\n\n・ Puoi usare solo set che includono l'arma speciale {{color id=\"1\"}}sparalinee{{color id=\"65535\"}}.\n・ Il danno dello sparalinee sarà notevolmente aumentato per tutti i giocatori.\n・ Anche il consumo di inchiostro sarà notevolmente aumentato per tutti\n  i giocatori.\n・ Saranno attivate solo le abilità originali. Le abilità extra non avranno\n  alcun effetto!"
  },
  {
    "label": "EventMatch_Geyser_Title",
    "text": "All'ultimo geyser"
  },
  {
    "label": "EventMatch_Geyser_Subtitle",
    "text": "I tuoi amati scenari ora sono pieni di geyser!"
  },
  {
    "label": "EventMatch_Geyser_Manual",
    "text": "Da dove arrivano tutti questi geyser?\nVisto che ormai ci sono, conviene farne buon uso!\n\n・ Dei geyser sono apparsi nello scenario!\n・ Attacca un geyser per fargli eruttare inchiostro del tuo colore.\n・ Puoi usarli per nasconderti o salire in alto.\n・ Saranno attivate sia le abilità originali che quelle extra."
  },
  {
    "label": "EventMatch_RainmakerDrop_Title",
    "text": "Un bazookarp... qui?!"
  },
  {
    "label": "EventMatch_RainmakerDrop_Subtitle",
    "text": "Prova il bazookarp nei luoghi più inaspettati!"
  },
  {
    "label": "EventMatch_RainmakerDrop_Manual",
    "text": "Scopri che cosa puoi fare con un bazookarp in una partita amichevole!\n\n・ La modalità {{color id=\"1\"}}non è Bazookarp{{color id=\"65535\"}}.\n・ Il bazookarp appare al centro dello scenario.\n・ Chiunque ottenga il bazookarp potrà usarlo a proprio vantaggio!\n・ Se il giocatore che ha il bazookarp viene sconfitto, il bazookarp\n  torna al centro dello scenario.\n・ Saranno attivate sia le abilità originali che quelle extra."
  },
  {
    "label": "EventMatch_WeaponLimited_Spinner_Title",
    "text": "Splatta con lo splatling"
  },
  {
    "label": "EventMatch_WeaponLimited_Spinner_Subtitle",
    "text": "Battaglia all'ultimo splatling!"
  },
  {
    "label": "EventMatch_WeaponLimited_Spinner_Manual",
    "text": "Gettati nella mischia con il tuo miglior set che include lo splatling\ne scopri chi sarà l'ultimo a rimanere in piedi!\n\n・ I giocatori possono scegliere solo tra diversi tipi di {{color id=\"1\"}}splatling{{color id=\"65535\"}}.\n・ Saranno attivate sia le abilità originali che quelle extra."
  },
  {
    "label": "EventMatch_Modified_Rainmaker_Title",
    "text": "Bazookarp modificato"
  },
  {
    "label": "EventMatch_Modified_Rainmaker_Subtitle",
    "text": "Testa il bazookarp per conto di Armand!"
  },
  {
    "label": "EventMatch_Modified_Rainmaker_Manual",
    "text": "Aiuta Armand a testare le ultime modifiche al bazookarp\ne goditi una bella battaglia, già che ci sei!\n\n・ Tutte le partite si svolgono in modalità {{color id=\"1\"}}Bazookarp{{color id=\"65535\"}}.\n・ Il bazookarp completamente carico ora spara in tre direzioni!\n・ Le abilità del giocatore che ha il bazookarp saranno potenziate!\n・ Attenzione: il bazookarp esploderà {{color id=\"1\"}}30 secondi{{color id=\"65535\"}} dopo essere stato raccolto!\n・ Saranno attivate sia le abilità originali che quelle extra."
  },
  {
    "label": "EventMatch_WeaponLimited_Blaster_Title",
    "text": "Blaster e basta"
  },
  {
    "label": "EventMatch_WeaponLimited_Blaster_Subtitle",
    "text": "Porta i tuoi blaster e blasta alla grande!"
  },
  {
    "label": "EventMatch_WeaponLimited_Blaster_Manual",
    "text": "Sai davvero usare i blaster? Allora dimostralo!\n\n・ I giocatori possono scegliere solo tra i diversi tipi di {{color id=\"1\"}}blaster{{color id=\"65535\"}}!\n・ Saranno attivate sia le abilità originali che quelle extra."
  },
  {
    "label": "EventMatch_WeaponLimited_Charger_Title",
    "text": "Alla carica"
  },
  {
    "label": "EventMatch_WeaponLimited_Charger_Subtitle",
    "text": "Scarica la tensione con le armi a carica!"
  },
  {
    "label": "EventMatch_WeaponLimited_Charger_Manual",
    "text": "Tira fuori la tua arma a carica preferita e fai vedere cosa sai fare!\n\n・ I giocatori possono scegliere solo tra i diversi tipi di {{color id=\"1\"}}armi a carica{{color id=\"65535\"}}!\n・ Saranno attivate sia le abilità originali che quelle extra."
  },
  {
    "label": "EventMatch_Modified_TowerControl_Title",
    "text": "Torrone mobile"
  },
  {
    "label": "EventMatch_Modified_TowerControl_Subtitle",
    "text": "La torre è più grande che mai! Tutti a bordo!"
  },
  {
    "label": "EventMatch_Modified_TowerControl_Manual",
    "text": "Riuscirai a controllare la torre più grande che ci sia?\n\n・ Tutte le partite si svolgono in modalità {{color id=\"1\"}}Torre mobile{{color id=\"65535\"}}.\n・ La torre è enorme: ci può salire tutta la tua squadra!\n・ Coordinati con i tuoi compagni di squadra per attaccare la base nemica.\n・ Saranno attivate sia le abilità originali che quelle extra."
  },
  {
    "label": "EventMatch_RollerBrushSpeedUp_Title",
    "text": "Pittura sprint"
  },
  {
    "label": "EventMatch_RollerBrushSpeedUp_Subtitle",
    "text": "Surclassa i tuoi avversari con pennelli\ne rulli che ti rendono ancora più veloce!"
  },
  {
    "label": "EventMatch_RollerBrushSpeedUp_Manual",
    "text": "I rulli e i pennelli aumentano la tua velocità di movimento mentre inchiostri!\n\n・ I giocatori possono scegliere solo tra i diversi tipi di {{color id=\"1\"}}rulli {{color id=\"65535\"}}e di {{color id=\"1\"}}pennelli{{color id=\"65535\"}}.\n・ Tutti i giocatori si muovono più velocemente mentre inchiostrano.\n・ L'inchiostro si consuma molto più rapidamente del normale.\n・ Saranno attivate sia le abilità originali che quelle extra."
  },
  {
    "label": "EventMatch_SuperSubWeapon_CurlingBomb_Title",
    "text": "Cura curling"
  },
  {
    "label": "EventMatch_SuperSubWeapon_CurlingBomb_Subtitle",
    "text": "Lancia delle gigantesche bombe curling\nin questo evento forsennato!"
  },
  {
    "label": "EventMatch_SuperSubWeapon_CurlingBomb_Manual",
    "text": "Largo alle gigantesche bombe curling che stanno per invadere\nil campo di battaglia!\n\n・ Puoi scegliere solo armi che hanno le {{color id=\"1\"}}bombe curling{{color id=\"65535\"}} come arma secondaria.\n・ Le bombe curling sono più grandi!\n・ Il danno da impatto delle bombe curling è molto superiore al normale.\n・ Anche la portata dell'esplosione delle bombe è stata ampliata!\n・ Saranno attivate solo le abilità originali. Le abilità extra non avranno\n  alcun effetto!"
  },
  {
    "label": "EventMatch_WeaponLimited_Maneuver_Title",
    "text": "Passione repolper"
  },
  {
    "label": "EventMatch_WeaponLimited_Maneuver_Subtitle",
    "text": "Partecipa a una guerra di repolper,\nil campo di battaglia è pronto!"
  },
  {
    "label": "EventMatch_WeaponLimited_Maneuver_Manual",
    "text": "Una sfida a colpi di repolper, chi vincerà?\n\n・ I giocatori possono scegliere solo tra i diversi tipi di {{color id=\"1\"}}repolper{{color id=\"65535\"}}.\n・ Saranno attivate sia le abilità originali che quelle extra."
  },
  {
    "label": "EventMatch_WeaponLimited_Shelter_Title",
    "text": "Assolo di sparasole"
  },
  {
    "label": "EventMatch_WeaponLimited_Shelter_Subtitle",
    "text": "All'assalto con lo sparasole!"
  },
  {
    "label": "EventMatch_WeaponLimited_Shelter_Manual",
    "text": "È tempo per una spara-insolazione!\n\n・ I giocatori possono scegliere solo tra i diversi tipi di {{color id=\"1\"}}sparasole{{color id=\"65535\"}}.\n・ Saranno attivate sia le abilità originali che quelle extra."
  },
  {
    "label": "EventMatch_WeaponLimited_Slosher_Title",
    "text": "Secchiostri supremi"
  },
  {
    "label": "EventMatch_WeaponLimited_Slosher_Subtitle",
    "text": "Secchiostra gli avversari!"
  },
  {
    "label": "EventMatch_WeaponLimited_Slosher_Manual",
    "text": "Sai usare i secchiostri come si deve? Scopriamolo!\n\n・ I giocatori possono scegliere solo tra diversi tipi di {{color id=\"1\"}}secchiostri{{color id=\"65535\"}}.\n・ Saranno attivate sia le abilità originali che quelle extra."
  },
  {
    "label": "EventMatch_RandomWeaponAndGearPower_Title",
    "text": "Tutto in mano ad Armand"
  },
  {
    "label": "EventMatch_RandomWeaponAndGearPower_Subtitle",
    "text": "Armand comporrà per te un set di\narmi e abilità casuali!"
  },
  {
    "label": "EventMatch_RandomWeaponAndGearPower_Manual",
    "text": "In questo test di adattabilità dovrai cavartela con un\nassortimento casuale delle armi e delle abilità di Armand!\n\n・ All'inizio della partita ti verrà assegnato un set composto da\n  arma e abilità.\n・ Una delle abilità che riceverai sarà alla massima potenza.\n・ Ti saranno assegnate anche tre abilità extra, indipendentemente\n  dagli slot disponibili per il tuo equipaggiamento.\n・ Una volta conclusa la partita, il tuo equipaggiamento tornerà ad\n  avere le abilità precedenti."
  },
  {
    "label": "EventMatch_SuperSubWeapon_SplashBomb_Title",
    "text": "Bombe splash a non finire"
  },
  {
    "label": "EventMatch_SuperSubWeapon_SplashBomb_Subtitle",
    "text": "Le bombe fanno splash in questa lotta\nsenza quartiere!"
  },
  {
    "label": "EventMatch_SuperSubWeapon_SplashBomb_Manual",
    "text": "In questa partita evento le bombe splash la fanno da padrone!\n\n・ Puoi usare solo set che includono l'arma secondaria {{color id=\"1\"}}bomba splash{{color id=\"65535\"}}.\n・ Il consumo di inchiostro delle bombe splash sarà dimezzato.\n・ Saranno attivate solo le abilità originali. Le abilità extra non avranno\n  alcun effetto."
  },
  {
    "label": "EventMatch_SuperSpecialWeapon_Chariot_Title",
    "text": "Granchi armati scatenati"
  },
  {
    "label": "EventMatch_SuperSpecialWeapon_Chariot_Subtitle",
    "text": "Granchi armati a piede libero!\nQuale crostaceo trionferà?"
  },
  {
    "label": "EventMatch_SuperSpecialWeapon_Chariot_Manual",
    "text": "I granchi armati più veloci sono il tuo sogno o il tuo incubo?\nBeh, ora sono una realtà!\n\n・ Puoi usare solo set che includono l'arma speciale {{color id=\"1\"}}granchio armato{{color id=\"65535\"}}.\n・ La velocità di spostamento laterale del granchio armato sarà molto\n  più elevata!\n・ La tua velocità quando rotoli ({{icon id=\"11\" arg=\"0x52B85E3F03000000\"}}) resterà invariata.\n・ Saranno attivate solo le abilità originali. Le abilità extra non avranno\n  alcun effetto."
  },
  {
    "label": "EventMatch_SuperBeacon_Title",
    "text": "Maratona di super salti"
  },
  {
    "label": "EventMatch_SuperBeacon_Subtitle",
    "text": "Super salta di qua e di là! Resta accanto\nai tuoi compagni con il trasferitore!"
  },
  {
    "label": "EventMatch_SuperBeacon_Manual",
    "text": "Resta sempre in compagnia con questi super salti a tutta velocità\nverso i trasferitori dei tuoi alleati!\n\n・ Puoi usare solo set che includono l'arma secondaria {{color id=\"1\"}}trasferitore{{color id=\"65535\"}}.\n・ I super salti sono molto più veloci.\n・ Saranno attivate solo le abilità originali, ad eccezione di Salti super\n  e veloci e Arma secondaria +. Le abilità extra non avranno alcun effetto."
  },
  {
    "label": "EventMatch_SpecialRush_UltraStamp_Title",
    "text": "Mega timbro alla riscossa"
  },
  {
    "label": "EventMatch_SpecialRush_UltraStamp_Subtitle",
    "text": "Timbra tutti col mega timbro!"
  },
  {
    "label": "EventMatch_SpecialRush_UltraStamp_Manual",
    "text": "Colpisci a destra e a sinistra in questa partita evento a tema mega timbro!\n\n・ Puoi usare solo set che includono l'arma speciale {{color id=\"1\"}}mega timbro{{color id=\"65535\"}}.\n・ L'indicatore dell'arma speciale si riempirà rapidamente in modo autonomo.\n・ Saranno attivate solo le abilità originali. Le abilità extra non avranno\n  alcun effetto."
  }
]