[
  {
    "label": "CraterFirst00",
    "text": "驚人！荒界深處\n竟然存在著■■章魚？！"
  },
  {
    "label": "CraterSecond00",
    "text": "疑惑！墨汁沼澤中央\n發出可疑的光芒？！"
  },
  {
    "label": "CraterThird00",
    "text": "怪誕！在緊閉的門中\n發現了■■■■■■？！"
  },
  {
    "label": "CraterFourth00",
    "text": "危機！連當地居民都驚恐萬分的\n神秘危險生物是？！"
  },
  {
    "label": "first00",
    "text": "傳統與革新的空間，幻界的黃金地段"
  },
  {
    "label": "first02",
    "text": "活用各種技巧抵達終點"
  },
  {
    "label": "takopod00",
    "text": "為您獻上鳥兒齊聚的歇息之地"
  },
  {
    "label": "takopod02",
    "text": "冷靜應對並抵達終點"
  },
  {
    "label": "takoHouse00",
    "text": "令人驚訝不已的建築美學"
  },
  {
    "label": "takoHouse02",
    "text": "保持戒備並抵達終點"
  },
  {
    "label": "indoor00",
    "text": "打開門，邂逅真正的高品質"
  },
  {
    "label": "indoor02",
    "text": "尋找鑰匙並抵達終點"
  },
  {
    "label": "allPaint00",
    "text": "漂亮的紀念碑為每天增添色彩"
  },
  {
    "label": "allPaint02",
    "text": "用墨汁塗滿每一個角落"
  },
  {
    "label": "easyKagidume00",
    "text": "安居於幻界高樓的那份奢侈"
  },
  {
    "label": "easyKagidume02",
    "text": "利用觸手噴射抵達終點"
  },
  {
    "label": "dendenSalmon00",
    "text": "與重要搭檔心靈相通的舒適空間"
  },
  {
    "label": "dendenSalmon02",
    "text": "與小鮭魚一起抵達終點"
  },
  {
    "label": "1shot00",
    "text": "宇宙的中心在這裡"
  },
  {
    "label": "1shot02",
    "text": "一擊摧毀所有的標靶"
  },
  {
    "label": "stringer00",
    "text": "悠閒與開放的舒適感受\n林間隙光下的海濱大道"
  },
  {
    "label": "stringer02",
    "text": "利用獵魚弓抵達終點"
  },
  {
    "label": "shock00",
    "text": "在夜景環繞下迴響的住宅協奏曲"
  },
  {
    "label": "shock02",
    "text": "在時間內想盡辦法存活下去"
  },
  {
    "label": "spin00",
    "text": "為人生增添旋轉木馬般的華麗"
  },
  {
    "label": "spin02",
    "text": "留意旋轉並抵達終點"
  },
  {
    "label": "spongeClimb00",
    "text": "綻放夢想的花蕾，被城鎮的溫暖包覆"
  },
  {
    "label": "spongeClimb02",
    "text": "利用海綿抵達終點"
  },
  {
    "label": "snakeLecture00",
    "text": "蛇方塊延伸至耀眼的高處"
  },
  {
    "label": "snakeLecture02",
    "text": "利用蛇方塊抵達終點"
  },
  {
    "label": "railFirst00",
    "text": "向未來前進，居住在穿越時空的城鎮"
  },
  {
    "label": "railFirst02",
    "text": "摧毀標靶並抵達終點"
  },
  {
    "label": "kanitank00",
    "text": "美麗的夜景嶄露匠人的玩心"
  },
  {
    "label": "kanitank02",
    "text": "利用螃蟹坦克抵達終點"
  },
  {
    "label": "mazeClimb00",
    "text": "在名為都心的頂級迷宮中安居樂業"
  },
  {
    "label": "mazeClimb02",
    "text": "穿越迷宮並抵達終點"
  },
  {
    "label": "inkLimitPaintFes00",
    "text": "用豐富的心靈過簡約的生活"
  },
  {
    "label": "inkLimitPaintFes02",
    "text": "活用有限的墨汁抵達終點"
  },
  {
    "label": "courceMake00",
    "text": "抵達那裡，其過程也美"
  },
  {
    "label": "courceMake02",
    "text": "開啟開關並抵達終點"
  },
  {
    "label": "battleHill00",
    "text": "那片山丘縈繞著高級的喧囂"
  },
  {
    "label": "battleHill02",
    "text": "於正面交鋒時戰勝並抵達終點"
  },
  {
    "label": "airJam00",
    "text": "住在廣大的空中，像隻自由飛翔的鳥"
  },
  {
    "label": "airJam02",
    "text": "留意飛竄的物體並抵達終點"
  },
  {
    "label": "snakeBomb00",
    "text": "由塗色輪子開闢無限大的未來"
  },
  {
    "label": "snakeBomb02",
    "text": "利用塗色輪子抵達終點"
  },
  {
    "label": "curling00",
    "text": "不論是誰，都會有堅持完美的時候"
  },
  {
    "label": "curling02",
    "text": "利用冰壺炸彈抵達終點"
  },
  {
    "label": "brushRush00",
    "text": "想要一直珍惜不被時間洪流沖逝的「特別」"
  },
  {
    "label": "brushRush02",
    "text": "摧毀所有的標靶"
  },
  {
    "label": "forwardShoot00",
    "text": "無止盡地追求無止境的奢侈"
  },
  {
    "label": "forwardShoot02",
    "text": "在指定時間內摧毀所有的標靶"
  },
  {
    "label": "inkRailMountain00",
    "text": "鋪設的軌道要染成什麼顏色呢"
  },
  {
    "label": "inkRailMountain02",
    "text": "活用墨汁軌道抵達終點"
  },
  {
    "label": "liftOnTheWater00",
    "text": "歡迎來到受全世界愛戴的港灣區域"
  },
  {
    "label": "liftOnTheWater02",
    "text": "利用螺旋槳踏板抵達終點"
  },
  {
    "label": "takohopper00",
    "text": "雀躍於心，今日的幻界依舊充滿活力"
  },
  {
    "label": "takohopper02",
    "text": "留意彈跳的物體並抵達終點"
  },
  {
    "label": "takostrikeFall00",
    "text": "登上坡道傾聽潺潺流水聲"
  },
  {
    "label": "takostrikeFall02",
    "text": "小心避免被推走並抵達終點"
  },
  {
    "label": "snakeSalmon00",
    "text": "藝術，人們都如此稱呼這座城鎮的夜景"
  },
  {
    "label": "snakeSalmon02",
    "text": "利用蛇方塊抵達終點"
  },
  {
    "label": "dieCutting00",
    "text": "「減法」正是「美麗的加法」"
  },
  {
    "label": "dieCutting02",
    "text": "仔細觀察並對照範例"
  },
  {
    "label": "boxSashi00",
    "text": "本質與精粹的舞台\n和氣勢洶湧的價值迎面相對"
  },
  {
    "label": "boxSashi02",
    "text": "摧毀所有的標靶"
  },
  {
    "label": "chargeKeep00",
    "text": "Charge&Keep\n以革新之姿繼承傳統的宅邸"
  },
  {
    "label": "chargeKeep02",
    "text": "仔細瞄準並抵達終點"
  },
  {
    "label": "railBaloonEasy00",
    "text": "你找到的是一條通往未來的捷徑\n稱之為「直達車站」"
  },
  {
    "label": "railBaloonEasy02",
    "text": "摧毀標靶並抵達終點"
  },
  {
    "label": "missileAirship00",
    "text": "那就朝著聳立高空的理想之地起飛吧"
  },
  {
    "label": "missileAirship02",
    "text": "留意立足處並抵達終點"
  },
  {
    "label": "fastDraw00",
    "text": "見機行事，美"
  },
  {
    "label": "fastDraw02",
    "text": "摧毀標靶並抵達終點"
  },
  {
    "label": "savior00",
    "text": "刻畫名為「我」的歷史，和的空間"
  },
  {
    "label": "savior02",
    "text": "利用刮水刀抵達終點"
  },
  {
    "label": "oneStroke00",
    "text": "線成路，路成鎮"
  },
  {
    "label": "oneStroke02",
    "text": "開啟開關並抵達終點"
  },
  {
    "label": "bitakoHidding00",
    "text": "不論是散步途中還是人生，\n轉彎多少次就有多少驚喜"
  },
  {
    "label": "bitakoHidding02",
    "text": "在交火時戰勝並抵達終點"
  },
  {
    "label": "shootBack00",
    "text": "對內在的講究即是豐盛的象徵"
  },
  {
    "label": "shootBack02",
    "text": "攻擊敵人的背部並抵達終點"
  },
  {
    "label": "buildingSnipe00",
    "text": "在未經修飾的景色中看見過時的觀點"
  },
  {
    "label": "buildingSnipe02",
    "text": "留意視線並抵達終點"
  },
  {
    "label": "barriar00",
    "text": "屋頂就是打造未來宅邸的條件"
  },
  {
    "label": "barriar02",
    "text": "留意頭頂並抵達終點"
  },
  {
    "label": "dozer00",
    "text": "進入和諧美妙的空間是多麼的特別"
  },
  {
    "label": "dozer02",
    "text": "在指定時間內取得所有的鮭魚卵"
  },
  {
    "label": "kagidumeClimb00",
    "text": "戀上那個樓房毗鄰的傳統景緻"
  },
  {
    "label": "kagidumeClimb02",
    "text": "利用觸手噴射抵達終點"
  },
  {
    "label": "railBoxStringer00",
    "text": "在不可逆的時間中選擇這座城鎮的意義"
  },
  {
    "label": "railBoxStringer02",
    "text": "摧毀標靶並抵達終點"
  },
  {
    "label": "superLanding00",
    "text": "一步一腳印，感受生活在這片夜景中的歡愉"
  },
  {
    "label": "superLanding02",
    "text": "利用超級著陸抵達終點"
  },
  {
    "label": "fogMaze00",
    "text": "霧與宅邸，甜美的絕配"
  },
  {
    "label": "fogMaze02",
    "text": "自行摸索前進並抵達終點"
  },
  {
    "label": "shortRail00",
    "text": "購買單程車票，前往綠意充沛、水潤豐澤的每一天"
  },
  {
    "label": "shortRail02",
    "text": "活用輸送軌道抵達終點"
  },
  {
    "label": "ninjaParkour00",
    "text": "奔跑、跳躍\n與你躍動的區域"
  },
  {
    "label": "ninjaParkour02",
    "text": "利用觸手噴射抵達終點"
  },
  {
    "label": "shootingLong00",
    "text": "想要的東西多半在遠方"
  },
  {
    "label": "shootingLong02",
    "text": "活用射程並抵達終點"
  },
  {
    "label": "lineMarker00",
    "text": "水面搖曳，帶著秘密的魅惑"
  },
  {
    "label": "lineMarker02",
    "text": "利用標線器抵達終點"
  },
  {
    "label": "fogZones00",
    "text": "帶著非日常的日常"
  },
  {
    "label": "fogZones02",
    "text": "繞行四周尋覓路徑並抵達終點"
  },
  {
    "label": "takoTower00",
    "text": "沉醉、昇華，高處生活的奢侈日常"
  },
  {
    "label": "takoTower02",
    "text": "爬上頂層並抵達終點"
  },
  {
    "label": "takoAllStars00",
    "text": "匯聚，美的精粹"
  },
  {
    "label": "takoAllStars02",
    "text": "留意各式各樣的攻擊並抵達終點"
  },
  {
    "label": "inkLimitHard00",
    "text": "有限的當下，無限的喜悅"
  },
  {
    "label": "inkLimitHard02",
    "text": "活用有限的墨汁抵達終點"
  },
  {
    "label": "curlingDoNotStep00",
    "text": "願染君色，計畫開始"
  },
  {
    "label": "curlingDoNotStep02",
    "text": "留意墨汁並抵達終點"
  },
  {
    "label": "roller00",
    "text": "捲入時代帶來的衝擊就在這裡"
  },
  {
    "label": "roller02",
    "text": "利用滾筒抵達終點"
  },
  {
    "label": "escapeFromSinking00",
    "text": "高貴、耀眼、夢幻，可謂顛峰"
  },
  {
    "label": "escapeFromSinking02",
    "text": "盡快抵達終點"
  },
  {
    "label": "fireWorks00",
    "text": "安逸舒適，「動」、「靜」兼具的美妙平衡"
  },
  {
    "label": "fireWorks02",
    "text": "留意時機並抵達終點"
  },
  {
    "label": "race00",
    "text": "競爭代表了先進與精粹的潛在可能"
  },
  {
    "label": "race02",
    "text": "在指定時間內抵達終點"
  },
  {
    "label": "jetPack00",
    "text": "想像，在天空安居的自己"
  },
  {
    "label": "jetPack02",
    "text": "利用噴射背包抵達終點"
  },
  {
    "label": "chase00",
    "text": "尋尋覓覓的生活正確解答就在這裡"
  },
  {
    "label": "chase02",
    "text": "尋找鑰匙並抵達終點"
  },
  {
    "label": "stamp00",
    "text": "徹底顛覆「居住」的既有概念"
  },
  {
    "label": "stamp02",
    "text": "在指定時間內敲打所有的目標"
  },
  {
    "label": "RailKing00",
    "text": "蛸壺王者 區域戰型"
  },
  {
    "label": "RailKing02",
    "text": "宿敵！DJ芥末章魚將軍！"
  },
  {
    "label": "MorayKing00",
    "text": "被封印在幻界的閃耀之器，那就是……"
  },
  {
    "label": "MorayKing02",
    "text": "抵達門後的另一邊"
  },
  {
    "label": "SharkKing00",
    "text": "被封印在幻界的高雅之刃，那就是……"
  },
  {
    "label": "SharkKing02",
    "text": "抵達門後的另一邊"
  },
  {
    "label": "MantaKing00",
    "text": "被封印在幻界的堅強之心，那就是……"
  },
  {
    "label": "MantaKing02",
    "text": "抵達門後的另一邊"
  },
  {
    "label": "LaunchPad00",
    "text": "幻界宇宙中心"
  },
  {
    "label": "LaunchPad02",
    "text": "拯救魚乾吧"
  },
  {
    "label": "SurmonBudyR00",
    "text": "幻界宇宙中心‧入口"
  },
  {
    "label": "SurmonBudyR02",
    "text": "乖乖地見習吧"
  },
  {
    "label": "BigBattleR00",
    "text": "幻界宇宙中心‧倉庫"
  },
  {
    "label": "BigBattleR02",
    "text": "拯救魚乾吧"
  },
  {
    "label": "LiftR00",
    "text": "幻界宇宙中心‧升降梯"
  },
  {
    "label": "LiftR02",
    "text": "拯救魚乾吧"
  },
  {
    "label": "RocketAR00",
    "text": "安全開拓號‧下層"
  },
  {
    "label": "RocketAR02",
    "text": "拯救魚乾吧"
  },
  {
    "label": "RocketBR00",
    "text": "安全開拓號‧上層"
  },
  {
    "label": "RocketBR02",
    "text": "拯救魚乾吧"
  },
  {
    "label": "LastBossA00",
    "text": "實驗體 熊三號"
  },
  {
    "label": "LastBossA02",
    "text": "追上熊先生吧"
  },
  {
    "label": "LastBossB00",
    "text": "哺乳類的回歸"
  },
  {
    "label": "LastBossB02",
    "text": "Return of the Mammalians"
  },
  {
    "label": "EX0100",
    "text": "跨越幻界，邁向未來"
  },
  {
    "label": "EX0102",
    "text": "找出■■■■的日誌吧"
  },
  {
    "label": "EX0200",
    "text": "跨越幻界，邁向未來"
  },
  {
    "label": "EX0202",
    "text": "找出■■■■的日誌吧"
  },
  {
    "label": "EX0300",
    "text": "跨越幻界，邁向未來"
  },
  {
    "label": "EX0302",
    "text": "找出■■■■的日誌吧"
  },
  {
    "label": "EX0400",
    "text": "跨越幻界，邁向未來"
  },
  {
    "label": "EX0402",
    "text": "找出■■■■的日誌吧"
  }
]