[
  {
    "label": "ArmorRecoeverTime_SaveLv2_00",
    "locale": {
      "CNzh": "提升装备回复力",
      "EUde": "Anzugreparatur +",
      "EUen": "Suit Recovery Up",
      "EUes": "Reparación rápida de traje",
      "EUfr": "Reconstitution de la tenue +",
      "EUit": "Recupero divisa +",
      "EUnl": "Sneller pakherstel",
      "EUru": "Быстрая униформа",
      "JPja": "スーツ回復力アップ",
      "KRko": "슈트 회복력 업",
      "TWzh": "提升裝備回復力",
      "USen": "Suit Recovery Up",
      "USes": "Reparación rápida de traje",
      "USfr": "Reconstitution de la tenue +"
    }
  },
  {
    "label": "ArmorRecoeverTime_SaveLv2_01",
    "locale": {
      "CNzh": "提升装备被敌方墨汁破坏时的回复速度。",
      "EUde": "Dein Anzug repariert sich schneller, wenn\ner von gegnerischer Tinte beschädigt wurde.",
      "EUen": "Increases the recovery rate of your suit\nafter it's broken by enemy ink.",
      "EUes": "Acelera la reparación del traje dañado por\nla tinta enemiga.",
      "EUfr": "Accélère la reconstitution de ta tenue\nsi elle est brisée par l'encre adverse.",
      "EUit": "Aumenta la velocità di recupero della divisa\nse danneggiata dal nemico.",
      "EUnl": "Je pak herstelt sneller als het beschadigd is\ngeraakt door inkt van de vijand.",
      "EUru": "Быстро восстанавливает униформу после\nтого, как ее испортили краской.",
      "JPja": "敵のインクで壊れたスーツの回復速度が上がります。",
      "KRko": "적의 잉크로 망가진 슈트의 회복 속도가 빨라집니다.",
      "TWzh": "提升敵方墨汁對裝備造成毀損時的回復速度。",
      "USen": "Increases the recovery rate of your suit\nafter it's broken by enemy ink.",
      "USes": "Acelera la reparación del traje dañado por\nla tinta enemiga.",
      "USfr": "Accélère la reconstitution de ta tenue\nsi elle est brisée par l'encre adverse."
    }
  },
  {
    "label": "ArmorRecoeverTime_SaveLv3_00",
    "locale": {
      "CNzh": "提升装备回复力",
      "EUde": "Anzugreparatur +",
      "EUen": "Suit Recovery Up",
      "EUes": "Reparación rápida de traje",
      "EUfr": "Reconstitution de la tenue +",
      "EUit": "Recupero divisa +",
      "EUnl": "Nog sneller pakherstel",
      "EUru": "Быстрая униформа",
      "JPja": "スーツ回復力アップ",
      "KRko": "슈트 회복력 업",
      "TWzh": "提升裝備回復力",
      "USen": "Suit Recovery Up",
      "USes": "Reparación rápida de traje",
      "USfr": "Reconstitution de la tenue +"
    }
  },
  {
    "label": "ArmorRecoeverTime_SaveLv3_01",
    "locale": {
      "CNzh": "大幅提升装备被敌方墨汁破坏时的回复速度。",
      "EUde": "Dein Anzug repariert sich noch schneller, wenn\ner von gegnerischer Tinte beschädigt wurde.",
      "EUen": "Further increases the recovery rate of\nyour suit after it's broken by enemy ink.",
      "EUes": "Acelera aún más la reparación del traje dañado\npor la tinta enemiga.",
      "EUfr": "Accélère encore plus la reconstitution de ta\ntenue si elle est brisée par l'encre adverse.",
      "EUit": "Aumenta ulteriormente la velocità di recupero\ndella divisa se danneggiata dal nemico.",
      "EUnl": "Je pak herstelt nog sneller als het beschadigd\nis geraakt door inkt van de vijand.",
      "EUru": "Еще быстрее восстанавливает униформу\nпосле того, как ее испортили краской.",
      "JPja": "敵のインクで壊れたスーツの回復速度がさらに上がります。",
      "KRko": "적의 잉크로 망가진 슈트의 회복 속도가 더욱 빨라집니다.",
      "TWzh": "大幅提升敵方墨汁對裝備造成毀損時的回復速度。",
      "USen": "Further increases the recovery rate of\nyour suit after it's broken by enemy ink.",
      "USes": "Acelera aún más la reparación del traje dañado\npor la tinta enemiga.",
      "USfr": "Accélère encore plus la reconstitution de ta\ntenue si elle est brisée par l'encre adverse."
    }
  },
  {
    "label": "InkTankCapacityLv2_00",
    "locale": {
      "CNzh": "提升墨汁槽容量",
      "EUde": "Tintentank-Kapazität +",
      "EUen": "Ink-Tank Capacity Up",
      "EUes": "Capacidad de tinta extra",
      "EUfr": "Réservoir d'encre +",
      "EUit": "Capienza serbatoio +",
      "EUnl": "Meer inktcapaciteit",
      "EUru": "Большой баллон",
      "JPja": "インクタンク容量アップ",
      "KRko": "잉크 탱크 용량 업",
      "TWzh": "提升墨汁槽容量",
      "USen": "Ink-Tank Capacity Up",
      "USes": "Mayor capacidad de tinta",
      "USfr": "Réservoir d'encre +"
    }
  },
  {
    "label": "InkTankCapacityLv2_01",
    "locale": {
      "CNzh": "增加墨汁槽的容量。",
      "EUde": "Erhöht das Fassungsvermögen deines\nTintentanks.",
      "EUen": "Increases your Ink Tank's capacity.",
      "EUes": "Aumenta la capacidad del tanque de tinta.",
      "EUfr": "Augmente la capacité de ton réservoir d'encre.",
      "EUit": "Aumenta la capienza del tuo serbatoio.",
      "EUnl": "Er past meer inkt in je inkttank.",
      "EUru": "Увеличивает баллон и запас краски.",
      "JPja": "インクタンクの容量が増えます。",
      "KRko": "잉크 탱크의 용량이 늘어납니다.",
      "TWzh": "增加墨汁槽的容量。",
      "USen": "Increases your Ink Tank's capacity.",
      "USes": "Aumenta la capacidad del tanque de tinta.",
      "USfr": "Augmente la capacité de ton réservoir d'encre."
    }
  },
  {
    "label": "InkTankCapacityLv3_00",
    "locale": {
      "CNzh": "提升墨汁槽容量",
      "EUde": "Tintentank-Kapazität +",
      "EUen": "Ink-Tank Capacity Up",
      "EUes": "Capacidad de tinta extra",
      "EUfr": "Réservoir d'encre +",
      "EUit": "Capienza serbatoio +",
      "EUnl": "Nog meer inktcapaciteit",
      "EUru": "Большой баллон",
      "JPja": "インクタンク容量アップ",
      "KRko": "잉크 탱크 용량 업",
      "TWzh": "提升墨汁槽容量",
      "USen": "Ink-Tank Capacity Up",
      "USes": "Mayor capacidad de tinta",
      "USfr": "Réservoir d'encre +"
    }
  },
  {
    "label": "InkTankCapacityLv3_01",
    "locale": {
      "CNzh": "大幅增加墨汁槽的容量。",
      "EUde": "Erhöht das Fassungsvermögen deines\nTintentanks weiter.",
      "EUen": "Further increases your Ink Tank's capacity.",
      "EUes": "Aumenta aún más la capacidad del tanque\nde tinta.",
      "EUfr": "Augmente encore plus la capacité\nde ton réservoir d'encre.",
      "EUit": "Aumenta ulteriormente la capienza del\ntuo serbatoio.",
      "EUnl": "Er past nog meer inkt in je inkttank.",
      "EUru": "Увеличивает баллон и запас краски\nеще больше.",
      "JPja": "インクタンクの容量がさらに増えます。",
      "KRko": "잉크 탱크의 용량이 더욱 늘어납니다.",
      "TWzh": "大幅增加墨汁槽的容量。",
      "USen": "Further increases your Ink Tank's capacity.",
      "USes": "Aumenta aún más la capacidad del tanque\nde tinta.",
      "USfr": "Augmente encore plus la capacité\nde ton réservoir d'encre."
    }
  },
  {
    "label": "MarkerLv2_00",
    "locale": {
      "CNzh": "追加侦测器",
      "EUde": "Sensor",
      "EUen": "Get Sensor",
      "EUes": "Rastreador añadido",
      "EUfr": "Détecteur",
      "EUit": "Sensore",
      "EUnl": "Sensor",
      "EUru": "Маркер",
      "JPja": "センサー追加",
      "KRko": "센서 추가",
      "TWzh": "追加偵測器",
      "USen": "Get Sensor",
      "USes": "Rastreador añadido",
      "USfr": "Détecteur"
    }
  },
  {
    "label": "MarkerLv2_01",
    "locale": {
      "CNzh": "潜伏在墨汁中时，\n可以标记附近的敌人或道具之类的重要事物。",
      "EUde": "Markiert automatisch Gegner und Items\nin der Nähe, wenn du in Tinte abtauchst.",
      "EUen": "Automatically marks nearby items and\nenemies while you're submerged in ink.",
      "EUes": "Marca objetos y rivales próximos mientras\nestás nadando en la tinta.",
      "EUfr": "Marque les objets et les adversaires\nà proximité lorsque tu évolues dans l'encre.",
      "EUit": "Contrassegna gli oggetti e i nemici vicini\nmentre nuoti nell'inchiostro.",
      "EUnl": "Als je in inkt zwemt, worden voorwerpen en\nvijanden in de buurt automatisch gemarkeerd.",
      "EUru": "Отмечает предметы и врагов поблизости,\nкогда ты плаваешь в краске.",
      "JPja": "インクの中にセンプクすると、敵やアイテムなどの\n近くにある重要なものをマーキングできるようになります。",
      "KRko": "잉크 속으로 잠복하면 적과 아이템 등\n근처에 있는 중요한 것을 마킹할 수 있게 됩니다.",
      "TWzh": "只要潛伏於墨汁中就能標記位在附近的重要事物，\n例如敵人或道具等等。",
      "USen": "Automatically marks nearby items and\nenemies while you're submerged in ink.",
      "USes": "Marca objetos y rivales cercanos mientras\nestás nadando en la tinta.",
      "USfr": "Marque les objets et les adversaires\nà proximité lorsque tu évolues dans l'encre."
    }
  },
  {
    "label": "MarkerLv3_00",
    "locale": {
      "CNzh": "强化侦测器",
      "EUde": "Sensor +",
      "EUen": "Better Sensor",
      "EUes": "Mejora de rastreador",
      "EUfr": "Détecteur +",
      "EUit": "Sensore +",
      "EUnl": "Betere sensor",
      "EUru": "Апгрейд: маркер",
      "JPja": "センサー強化",
      "KRko": "센서 강화",
      "TWzh": "強化偵測器",
      "USen": "Better Sensor",
      "USes": "Rastreador mejorado",
      "USfr": "Détecteur +"
    }
  },
  {
    "label": "MarkerLv3_01",
    "locale": {
      "CNzh": "即使处于人类状态也可以标记重要事物。\n潜伏时可以标记稍远一些的事物。",
      "EUde": "Markiert auch in humanoider Form Ziele.\nTauchen in Tinte erhöht die Reichweite.",
      "EUen": "Automatically marks objects, even in kid form. The\nscan reaches a bit further while submerged in ink.",
      "EUes": "Marca objetivos aun en forma humanoide.\nSi nadas en tinta, el alcance es algo mayor.",
      "EUfr": "Marque les objets même sous forme humanoïde.\nDans l'encre, la portée est légèrement accrue.",
      "EUit": "Contrassegna oggetti e nemici, anche se sei\nin forma umanoide. L'ampiezza di scansione\naumenta un po' quando nuoti nell'inchiostro.",
      "EUnl": "Markeert automatisch doelen, ook in je mensachtige\nvorm. Het bereik tijdens het zwemmen is vergroot.",
      "EUru": "Отмечает объекты. Если плыть в краске,\nрадиус действия будет чуть больше.",
      "JPja": "ヒト状態でも、重要なものをマーキングできるようになります。\nセンプクすると少し離れたものまでマーキングできます。",
      "KRko": "인간 상태일 때도 중요한 것을 마킹할 수 있게 됩니다.\n잠복하면 조금 멀리 있는 것도 마킹할 수 있습니다.",
      "TWzh": "即使處於人類狀態也能標記重要事物，\n潛伏時可以標記距離較遠的事物。",
      "USen": "Automatically marks objects, even in kid form. The\nscan reaches a bit further while submerged in ink.",
      "USes": "Marca objetivos aun en forma bípeda. Si\nnadas en tinta, el alcance es un poco mayor.",
      "USfr": "Marque les objets même sous forme humanoïde.\nDans l'encre, la portée est légèrement accrue."
    }
  },
  {
    "label": "OpInkEffect_ReductionLv2_00",
    "locale": {
      "CNzh": "减轻敌方墨汁影响",
      "EUde": "Tintentoleranz +",
      "EUen": "Ink Resistance Up",
      "EUes": "Impermeabilidad",
      "EUfr": "Pieds au sec",
      "EUit": "Scarpe impermeabili",
      "EUnl": "Inkttolerantie",
      "EUru": "Краскостойкость",
      "JPja": "敵インク影響軽減",
      "KRko": "적 잉크 영향 감소",
      "TWzh": "減輕敵方墨汁影響",
      "USen": "Ink Resistance Up",
      "USes": "Impermeabilidad",
      "USfr": "Pieds au sec"
    }
  },
  {
    "label": "OpInkEffect_ReductionLv2_01",
    "locale": {
      "CNzh": "降低踩到敌方墨汁时\n移动速度的减少幅度。",
      "EUde": "Verringert die Verlangsamung beim Bewegen\nin Tinte gegnerischer Farbe.",
      "EUen": "Improves mobility when walking through\nenemy ink.",
      "EUes": "Tu velocidad no se reduce tanto al desplazarte\npor la tinta enemiga.",
      "EUfr": "Réduit le ralentissement lorsque tu as\nles pieds dans l'encre adverse.",
      "EUit": "Riduce il rallentamento quando cammini\nsull'inchiostro nemico.",
      "EUnl": "Je kunt sneller door vijandelijke inkt bewegen.",
      "EUru": "Передвигаясь в краске противника,\nты будешь меньше увязать в ней.",
      "JPja": "敵のインクをふんだ時の移動速度の減少量が\n少なくなります。",
      "KRko": "적의 잉크를 밟았을 때 받는\n이동 속도 감소 효과가 줄어듭니다.",
      "TWzh": "降低踩到敵方的墨汁時\n移動速度的減少幅度。",
      "USen": "Improves mobility when walking through\nenemy ink.",
      "USes": "Aumenta tu velocidad al desplazarte\npor tinta enemiga.",
      "USfr": "Réduit le ralentissement lorsque tu as\nles pieds dans l'encre adverse."
    }
  },
  {
    "label": "OpInkEffect_ReductionLv3_00",
    "locale": {
      "CNzh": "减轻敌方墨汁影响",
      "EUde": "Tintentoleranz +",
      "EUen": "Ink Resistance Up",
      "EUes": "Impermeabilidad",
      "EUfr": "Pieds au sec",
      "EUit": "Scarpe impermeabili",
      "EUnl": "Meer inkttolerantie",
      "EUru": "Краскостойкость",
      "JPja": "敵インク影響軽減",
      "KRko": "적 잉크 영향 감소",
      "TWzh": "減輕敵方墨汁影響",
      "USen": "Ink Resistance Up",
      "USes": "Impermeabilidad",
      "USfr": "Pieds au sec"
    }
  },
  {
    "label": "OpInkEffect_ReductionLv3_01",
    "locale": {
      "CNzh": "大幅降低踩到敌方墨汁时\n移动速度的减少幅度。",
      "EUde": "Verringert die Verlangsamung beim Bewegen\nin Tinte gegnerischer Farbe weiter.",
      "EUen": "Further improves mobility when walking\nthrough enemy ink.",
      "EUes": "Tu velocidad se reduce aún menos\nal desplazarte por la tinta enemiga.",
      "EUfr": "Réduit encore plus le ralentissement lorsque\ntu as les pieds dans l'encre adverse.",
      "EUit": "Riduce ulteriormente il rallentamento quando\ncammini sull'inchiostro nemico.",
      "EUnl": "Je kunt nog sneller door vijandelijke inkt\nbewegen.",
      "EUru": "Передвигаясь в краске противника,\nты будешь увязать в ней еще меньше.",
      "JPja": "敵のインクをふんだ時の移動速度の減少量が\nより少なくなります。",
      "KRko": "적의 잉크를 밟았을 때 받는\n이동 속도 감소 효과가 더욱 줄어듭니다.",
      "TWzh": "大幅降低踩到敵方的墨汁時\n移動速度的減少幅度。",
      "USen": "Further improves mobility when walking\nthrough enemy ink.",
      "USes": "Aumenta aún más tu velocidad al desplazarte\npor tinta enemiga.",
      "USfr": "Réduit encore plus le ralentissement lorsque\ntu as les pieds dans l'encre adverse."
    }
  },
  {
    "label": "SalmonAttackUpLv2_00",
    "locale": {
      "CNzh": "提升小鲑鱼攻击力",
      "EUde": "Salmini-Schaden +",
      "EUen": "Smallfry Damage Up",
      "EUes": "Superataque (cenutrín)",
      "EUfr": "Force de frappe du Salmioche",
      "EUit": "Attacco Salmonello +",
      "EUnl": "Salmini-schade",
      "EUru": "Малетчик-мститель",
      "JPja": "コジャケ攻撃力アップ",
      "KRko": "꼬마연어 공격력 업",
      "TWzh": "提升小鮭魚攻擊力",
      "USen": "Smallfry Damage Up",
      "USes": "Ataque mejorado (Escamita)",
      "USfr": "Force de frappe de Salmio"
    }
  },
  {
    "label": "SalmonAttackUpLv2_01",
    "locale": {
      "CNzh": "提升小鲑鱼对敌方造成的伤害。",
      "EUde": "Erhöht den Schaden, den dein Salmini austeilt.",
      "EUen": "Increases damage dealt by Smallfry.",
      "EUes": "Aumenta el daño que produce el cenutrín.",
      "EUfr": "Augmente les dégâts infligés par le Salmioche.",
      "EUit": "Aumenta i danni inflitti da Salmonello.",
      "EUnl": "Salmini brengt meer schade toe.",
      "EUru": "Повышает урон, наносимый малетчиком.",
      "JPja": "コジャケが敵にあたえるダメージが大きくなります。",
      "KRko": "꼬마연어가 적에게 주는 대미지가 늘어납니다.",
      "TWzh": "提升小鮭魚對敵方造成的傷害。",
      "USen": "Increases damage dealt by Smallfry.",
      "USes": "Aumenta el daño que produce Escamita.",
      "USfr": "Augmente les dégâts infligés par Salmio."
    }
  },
  {
    "label": "SalmonHPUpLv2_00",
    "locale": {
      "CNzh": "提升小鲑鱼体力",
      "EUde": "Salmini-Abwehr +",
      "EUen": "Smallfry HP Up",
      "EUes": "Refuerzo de cenutrín",
      "EUfr": "Santé de fer du Salmioche",
      "EUit": "PV Salmonello +",
      "EUnl": "Salminigezondheid",
      "EUru": "Малетчик-крепыш",
      "JPja": "コジャケ体力アップ",
      "KRko": "꼬마연어 체력 업",
      "TWzh": "提升小鮭魚體力",
      "USen": "Smallfry HP Up",
      "USes": "Refuerzo (Escamita)",
      "USfr": "Santé de fer de Salmio"
    }
  },
  {
    "label": "SalmonHPUpLv2_01",
    "locale": {
      "CNzh": "提升小鲑鱼的耐力。",
      "EUde": "Erhöht den Schaden, den dein Salmini\neinstecken kann.",
      "EUen": "Increases Smallfry's overall health.",
      "EUes": "Aumenta la resistencia del cenutrín.",
      "EUfr": "Améliore la santé générale du Salmioche.",
      "EUit": "Aumenta la salute di Salmonello.",
      "EUnl": "Vergroot het incasseringsvermogen van\nje Salmini.",
      "EUru": "Укрепляет здоровье малетчика.",
      "JPja": "コジャケの耐久力が上がります。",
      "KRko": "꼬마연어의 체력이 올라갑니다.",
      "TWzh": "提升小鮭魚的身體耐力。",
      "USen": "Increases Smallfry's overall health.",
      "USes": "Aumenta la resistencia de Escamita.",
      "USfr": "Améliore la santé générale de Salmio."
    }
  },
  {
    "label": "SalmonInkSaveLv2_00",
    "locale": {
      "CNzh": "提升小鲑鱼墨汁效率",
      "EUde": "Salmini-Tintensparer",
      "EUen": "Smallfry Ink Saver",
      "EUes": "Tintahorro (cenutrín)",
      "EUfr": "Encrémenteur du Salmioche",
      "EUit": "Eco-colore (Salmonello)",
      "EUnl": "Salminispaarder",
      "EUru": "Баллон малетчика X",
      "JPja": "コジャケインク効率アップ",
      "KRko": "꼬마연어 잉크 효율 업",
      "TWzh": "提升小鮭魚墨汁效率",
      "USen": "Smallfry Ink Saver",
      "USes": "Ahorro tinta (Escamita)",
      "USfr": "Encrémenteur de Salmio"
    }
  },
  {
    "label": "SalmonInkSaveLv2_01",
    "locale": {
      "CNzh": "减少投掷小鲑鱼的墨汁消耗量。",
      "EUde": "Der Einsatz deines Salminis verbraucht\nweniger Tinte.",
      "EUen": "Decreases amount of ink consumed when\nthrowing Smallfry.",
      "EUes": "Reduce el consumo de tinta al lanzar\nel cenutrín.",
      "EUfr": "Réduit la quantité d'encre utilisée\nlorsque tu lances le Salmioche.",
      "EUit": "Riduce la quantità di inchiostro consumato\nquando lanci Salmonello.",
      "EUnl": "Het kost minder inkt om Salmini te gooien.",
      "EUru": "Снижает расход краски\nпри броске малетчика.",
      "JPja": "コジャケ投げの消費インク量が少なくなります。",
      "KRko": "꼬마연어 던지기의 소비 잉크양이 줄어듭니다.",
      "TWzh": "降低投擲小鮭魚的墨汁消耗量。",
      "USen": "Decreases amount of ink consumed when\nthrowing Smallfry.",
      "USes": "Reduce el consumo de tinta\nal lanzar a Escamita.",
      "USfr": "Réduit la quantité d'encre utilisée\nlorsque tu lances Salmio."
    }
  },
  {
    "label": "SalmonRespawnTimeSaveLv2_00",
    "locale": {
      "CNzh": "缩短小鲑鱼复活时间",
      "EUde": "Salmini-Rückkehr +",
      "EUen": "Smallfry Quick Respawn",
      "EUes": "Retorno exprés (cenutrín)",
      "EUfr": "Salmioche sans temps mort",
      "EUit": "Il tempo è Salmonello",
      "EUnl": "Salmini-comeback",
      "EUru": "Малетчик-феникс",
      "JPja": "コジャケ復活時間短縮",
      "KRko": "꼬마연어 부활 시간 단축",
      "TWzh": "縮短小鮭魚復活時間",
      "USen": "Smallfry Quick Respawn",
      "USes": "Regeneración rápida (Escamita)",
      "USfr": "Salmio sans temps mort"
    }
  },
  {
    "label": "SalmonRespawnTimeSaveLv2_01",
    "locale": {
      "CNzh": "缩短小鲑鱼的复活时间。",
      "EUde": "Dein Salmini kehrt schneller ins Spiel zurück.",
      "EUen": "Reduces Smallfry's respawn time.",
      "EUes": "Reduce el tiempo de reaparición del cenutrín.",
      "EUfr": "Réduit le délai de réapparition du Salmioche.",
      "EUit": "Riduce l'attesa per la ricomparsa\ndi Salmonello.",
      "EUnl": "Salmini keert sneller terug.",
      "EUru": "Быстрее возвращает малетчика в игру.",
      "JPja": "コジャケの復活時間が短くなります。",
      "KRko": "꼬마연어의 부활 시간이 짧아집니다.",
      "TWzh": "縮短小鮭魚的復活時間。",
      "USen": "Reduces Smallfry's respawn time.",
      "USes": "Reduce el tiempo de regeneración de Escamita.",
      "USfr": "Réduit le délai de réapparition de Salmio."
    }
  },
  {
    "label": "ShooterLv2_00",
    "locale": {
      "CNzh": "强化英雄射击枪",
      "EUde": "Heldenwaffe aufrüsten",
      "EUen": "Better Hero Shot",
      "EUes": "Mejora de pistola de élite",
      "EUfr": "Lanceur héroïque +",
      "EUit": "Pistola élite +",
      "EUnl": "Betere Heldenspetter",
      "EUru": "Апгрейд: каплестрел героя",
      "JPja": "ヒーローシューター強化",
      "KRko": "히어로 슈터 강화",
      "TWzh": "強化英雄射擊槍",
      "USen": "Better Hero Shot",
      "USes": "Rociador de élite mejorado",
      "USfr": "Liquéficateur héroïque +"
    }
  },
  {
    "label": "ShooterLv2_01",
    "locale": {
      "CNzh": "提升英雄射击枪的连射速度。",
      "EUde": "Erhöht die Feuergeschwindigkeit\nder Heldenwaffe.",
      "EUen": "Increases the Hero Shot's rate of fire.",
      "EUes": "Aumenta la cadencia de disparo de la pistola\nde élite.",
      "EUfr": "Augmente la cadence de tir\ndu Lanceur héroïque",
      "EUit": "Aumenta la cadenza di fuoco della pistola élite.",
      "EUnl": "Verhoogt de vuursnelheid van de Heldenspetter.",
      "EUru": "Повышает скорострельность\nкаплестрела героя.",
      "JPja": "ヒーローシューターの連射速度が上がります。",
      "KRko": "히어로 슈터의 연사 속도가 빨라집니다.",
      "TWzh": "提升英雄射擊槍的連射速度。",
      "USen": "Increases the Hero Shot's rate of fire.",
      "USes": "Aumenta la cadencia de tiro\ndel rociador de élite.",
      "USfr": "Augmente la cadence de tir\ndu Liquéficateur héroïque"
    }
  },
  {
    "label": "ShooterLv3_00",
    "locale": {
      "CNzh": "强化英雄射击枪",
      "EUde": "Heldenwaffe aufrüsten",
      "EUen": "Even Better Hero Shot",
      "EUes": "Mejora de pistola de élite",
      "EUfr": "Lanceur héroïque +",
      "EUit": "Pistola élite +",
      "EUnl": "Nog betere Heldenspetter",
      "EUru": "Апгрейд: каплестрел героя",
      "JPja": "ヒーローシューター強化",
      "KRko": "히어로 슈터 강화",
      "TWzh": "強化英雄射擊槍",
      "USen": "Even Better Hero Shot",
      "USes": "Rociador de élite mejorado",
      "USfr": "Liquéficateur héroïque +"
    }
  },
  {
    "label": "ShooterLv3_01",
    "locale": {
      "CNzh": "大幅提升英雄射击枪的连射速度。",
      "EUde": "Erhöht die Feuergeschwindigkeit\nder Heldenwaffe weiter.",
      "EUen": "Further increases the Hero Shot's rate of fire.",
      "EUes": "Aumenta aún más la cadencia de disparo\nde la pistola de élite.",
      "EUfr": "Augmente encore plus la cadence de tir\ndu Lanceur héroïque.",
      "EUit": "Aumenta ulteriormente la cadenza di fuoco\ndella pistola élite.",
      "EUnl": "Verhoogt de vuursnelheid van de Heldenspetter\nnog meer.",
      "EUru": "Повышает скорострельность\nкаплестрела героя еще больше.",
      "JPja": "ヒーローシューターの連射速度がさらに上がります。",
      "KRko": "히어로 슈터의 연사 속도가 더욱 빨라집니다.",
      "TWzh": "大幅提升英雄射擊槍的連射速度。",
      "USen": "Further increases the Hero Shot's rate of fire.",
      "USes": "Aumenta aún más la cadencia de tiro\ndel rociador de élite.",
      "USfr": "Augmente encore plus la cadence de tir\ndu Liquéficateur héroïque."
    }
  },
  {
    "label": "SpecialIncreaseUpLv2_00",
    "locale": {
      "CNzh": "提升特殊武器增加量",
      "EUde": "Spezialladezeit +",
      "EUen": "Special Charge Up",
      "EUes": "Recarga especial",
      "EUfr": "Jauge spéciale +",
      "EUit": "Ricarica speciale +",
      "EUnl": "Speciaallader",
      "EUru": "Особый насос",
      "JPja": "スペシャル増加量アップ",
      "KRko": "스페셜 증가량 업",
      "TWzh": "提升特殊武器增加量",
      "USen": "Special Charge Up",
      "USes": "Recarga especial",
      "USfr": "Jauge spéciale +"
    }
  },
  {
    "label": "SpecialIncreaseUpLv2_01",
    "locale": {
      "CNzh": "提升特殊武器蓄力槽的增加量。",
      "EUde": "Die Spezialanzeige füllt sich schneller.",
      "EUen": "Increases the rate at which the special\ngauge fills.",
      "EUes": "Aumenta la velocidad de recarga del medidor\nespecial.",
      "EUfr": "Accélère le remplissage de la jauge spéciale.",
      "EUit": "Aumenta la velocità di ricarica dell'indicatore\ndell'arma speciale.",
      "EUnl": "De meter van je speciale wapen wordt sneller\ngevuld.",
      "EUru": "Повышает скорость заполнения шкалы\nзаряда особого оружия.",
      "JPja": "スペシャルゲージの増加量がアップします。",
      "KRko": "스페셜 게이지의 증가량이 늘어납니다.",
      "TWzh": "提升特殊武器蓄力槽的增加量。",
      "USen": "Increases the rate at which the special\ngauge fills.",
      "USes": "Aumenta la velocidad de recarga\ndel medidor especial.",
      "USfr": "Accélère le remplissage de la jauge spéciale."
    }
  },
  {
    "label": "SpecialIncreaseUpLv3_00",
    "locale": {
      "CNzh": "提升特殊武器增加量",
      "EUde": "Spezialladezeit +",
      "EUen": "Special Charge Up",
      "EUes": "Recarga especial",
      "EUfr": "Jauge spéciale +",
      "EUit": "Ricarica speciale +",
      "EUnl": "Snellere speciaallader",
      "EUru": "Особый насос",
      "JPja": "スペシャル増加量アップ",
      "KRko": "스페셜 증가량 업",
      "TWzh": "提升特殊武器增加量",
      "USen": "Special Charge Up",
      "USes": "Recarga especial",
      "USfr": "Jauge spéciale +"
    }
  },
  {
    "label": "SpecialIncreaseUpLv3_01",
    "locale": {
      "CNzh": "大幅提升特殊武器蓄力槽的增加量。",
      "EUde": "Die Spezialanzeige füllt sich noch schneller.",
      "EUen": "Further increases the rate at which the\nspecial gauge fills.",
      "EUes": "Aumenta aún más la velocidad de recarga\ndel medidor especial.",
      "EUfr": "Accélère encore plus le remplissage\nde la jauge spéciale.",
      "EUit": "Aumenta ulteriormente la velocità di ricarica\ndell'indicatore dell'arma speciale.",
      "EUnl": "De meter van je speciale wapen wordt nog\nsneller gevuld.",
      "EUru": "Повышает скорость заполнения шкалы\nзаряда особого оружия еще больше.",
      "JPja": "スペシャルゲージの増加量がさらにアップします。",
      "KRko": "스페셜 게이지의 증가량이 더욱 늘어납니다.",
      "TWzh": "大幅提升特殊武器蓄力槽的增加量。",
      "USen": "Further increases the rate at which the\nspecial gauge fills.",
      "USes": "Aumenta aún más la velocidad de recarga\ndel medidor especial.",
      "USfr": "Accélère encore plus le remplissage\nde la jauge spéciale."
    }
  },
  {
    "label": "SquidMoveSpatter_ReductionLv2_00",
    "locale": {
      "CNzh": "鱿鱼忍者",
      "EUde": "Tintenfisch-Ninja",
      "EUen": "Ninja Squid",
      "EUes": "Ninjalamar",
      "EUfr": "Ninjalamar",
      "EUit": "Calamaro ninja",
      "EUnl": "Ninja-inktvis",
      "EUru": "Мимикрия",
      "JPja": "イカニンジャ",
      "KRko": "징어닌자",
      "TWzh": "魷魚忍者",
      "USen": "Ninja Squid",
      "USes": "Ninjalamar",
      "USfr": "Ninjalmar"
    }
  },
  {
    "label": "SquidMoveSpatter_ReductionLv2_01",
    "locale": {
      "CNzh": "于地面进行鱿鱼冲刺时，墨汁不会飞溅。",
      "EUde": "Verringert deine Sichtbarkeit beim Schwimmen\nin Tinte.",
      "EUen": "Become less visible while swimming\nthrough ink.",
      "EUes": "Dejarás menos rastro al nadar por una\nsuperficie entintada.",
      "EUfr": "Rend tes déplacements plus difficiles à\ndétecter lorsque tu nages dans l'encre.",
      "EUit": "Ti rende ancora più invisibile quando\nnuoti nell'inchiostro.",
      "EUnl": "Je bent minder zichtbaar als je door inkt\nzwemt.",
      "EUru": "Во вражеской краске тебя\nбудет труднее заметить.",
      "JPja": "地面をイカダッシュした時にインクが飛び散らなくなります。",
      "KRko": "지면을 징어대시했을 때 잉크가 튀지 않게 됩니다.",
      "TWzh": "於地面進行魷魚衝刺時墨汁不會飛濺。",
      "USen": "Become less visible while swimming\nthrough ink.",
      "USes": "Dejarás menos rastro al nadar por una\nsuperficie entintada.",
      "USfr": "Rend tes déplacements plus difficiles à\ndétecter lorsque tu nages dans l'encre."
    }
  },
  {
    "label": "SubWeapon1Lv2_00",
    "locale": {
      "CNzh": "追加斯普拉炸弹",
      "EUde": "Klecks-Bomben",
      "EUen": "Get Splat Bombs",
      "EUes": "Bomba básica añadida",
      "EUfr": "Bombes splash",
      "EUit": "Bomba splash",
      "EUnl": "Klodderbommen",
      "EUru": "Брызгающая бомба",
      "JPja": "スプラッシュボム追加",
      "KRko": "스플래시 밤 추가",
      "TWzh": "追加斯普拉炸彈",
      "USen": "Get Splat Bombs",
      "USes": "Plasbombas añadidas",
      "USfr": "Bombes splash"
    }
  },
  {
    "label": "SubWeapon1Lv2_01",
    "locale": {
      "CNzh": "落地不久后会爆炸的炸弹。",
      "EUde": "Erhalte Bomben, die kurz nach dem Landen\nexplodieren.",
      "EUen": "Gain access to bombs that explode a short time\nafter they land.",
      "EUes": "Un tipo de bomba que explota poco después\nde entrar en contacto con una superficie.",
      "EUfr": "Fournit des bombes qui explosent peu après\navoir touché le sol.",
      "EUit": "Una bomba che esplode alcuni istanti dopo\nl'impatto a terra.",
      "EUnl": "Je zult klodderbommen kunnen gebruiken. Deze\nontploffen kort na op de grond te zijn beland.",
      "EUru": "Взрывается почти сразу после контакта\nс поверхностью.",
      "JPja": "着地してしばらくすると、爆発するボムです。",
      "KRko": "착지하고 일정 시간이 지나면 폭발하는 밤입니다.",
      "TWzh": "落地後經過一段時間就會爆炸的炸彈。",
      "USen": "Gain access to bombs that explode a short time\nafter they land.",
      "USes": "Un tipo de bomba que explota poco después\nde entrar en contacto con una superficie.",
      "USfr": "Fournit des bombes qui explosent peu après\navoir touché le sol."
    }
  },
  {
    "label": "SubWeapon1Lv3_00",
    "locale": {
      "CNzh": "强化斯普拉炸弹",
      "EUde": "Klecks-Bomben +",
      "EUen": "Better Splat Bombs",
      "EUes": "Mejora de bomba básica",
      "EUfr": "Bombes splash +",
      "EUit": "Bomba splash +",
      "EUnl": "Betere Klodderbommen",
      "EUru": "Апгрейд: брызгающая бомба",
      "JPja": "スプラッシュボム強化",
      "KRko": "스플래시 밤 강화",
      "TWzh": "強化斯普拉炸彈",
      "USen": "Better Splat Bombs",
      "USes": "Plasbombas mejoradas",
      "USfr": "Bombes splash +"
    }
  },
  {
    "label": "SubWeapon1Lv3_01",
    "locale": {
      "CNzh": "减少斯普拉炸弹的墨汁消耗量。",
      "EUde": "Der Einsatz von Klecks-Bomben verbraucht\nweniger Tinte.",
      "EUen": "Decreases amount of ink consumed by\nSplat Bombs.",
      "EUes": "Reduce la cantidad de tinta que consumen\nlas bombas básicas.",
      "EUfr": "Réduit la quantité d'encre utilisée\npar les bombes splash.",
      "EUit": "Riduce il consumo d'inchiostro della\nbomba splash.",
      "EUnl": "Klodderbommen gebruiken minder inkt.",
      "EUru": "Снижает расход краски\nбрызгающими бомбами.",
      "JPja": "スプラッシュボムの消費インク量が少なくなります。",
      "KRko": "스플래시 밤의 소비 잉크양이 줄어듭니다.",
      "TWzh": "降低斯普拉炸彈的墨汁消耗量。",
      "USen": "Decreases amount of ink consumed by\nSplat Bombs.",
      "USes": "Reduce la cantidad de tinta que consumen\nlas plasbombas.",
      "USfr": "Réduit la quantité d'encre utilisée\npar les Bombes splash."
    }
  },
  {
    "label": "SubWeapon2Lv2_00",
    "locale": {
      "CNzh": "追加冰壶炸弹",
      "EUde": "Curling-Bomben",
      "EUen": "Get Curling Bombs",
      "EUes": "Bomba deslizante añadida",
      "EUfr": "Bombes curling",
      "EUit": "Bomba curling",
      "EUnl": "Curlingbommen",
      "EUru": "Керлинг-бомба",
      "JPja": "カーリングボム追加",
      "KRko": "컬링 밤 추가",
      "TWzh": "追加冰壺炸彈",
      "USen": "Get Curling Bombs",
      "USes": "Bombas deslizantes añadidas",
      "USfr": "Bombes curling"
    }
  },
  {
    "label": "SubWeapon2Lv2_01",
    "locale": {
      "CNzh": "能够边涂抹地面边前进，随后爆炸的炸弹。",
      "EUde": "Erhalte Bomben, die über den Boden schlittern \nund ihn einfärben, bis sie explodieren.",
      "EUen": "Gain access to bombs that ink the floor in a\nstraight line before they explode.",
      "EUes": "Un tipo de bomba que se desliza por el suelo\ny lo entinta todo a su paso antes de explotar.",
      "EUfr": "Fournit des bombes qui glissent sur le sol en\nlaissant une traînée d'encre avant d'exploser.",
      "EUit": "Una bomba che scivola per terra, inchiostrando\ntutto ciò che trova sul suo passaggio, e infine\nesplode.",
      "EUnl": "Je zult curlingbommen kunnen gebruiken. Deze\nlaten inkt op de grond achter en ontploffen dan.",
      "EUru": "Скользит по земле, закрашивая ее,\nа потом взрывается.",
      "JPja": "地面を塗りながら進んだあと、爆発するボムです。",
      "KRko": "지면을 칠하면서 전진한 후 폭발하는 밤입니다.",
      "TWzh": "會在前進的同時對地面塗墨，並在最後爆炸的炸彈。",
      "USen": "Gain access to bombs that ink the floor in a\nstraight line before they explode.",
      "USes": "Un tipo de bomba que se desliza por el suelo\ny lo entinta todo a su paso antes de explotar.",
      "USfr": "Fournit des bombes qui glissent sur le sol en\nlaissant une traînée d'encre avant d'exploser."
    }
  },
  {
    "label": "SubWeapon2Lv3_00",
    "locale": {
      "CNzh": "强化冰壶炸弹",
      "EUde": "Curling-Bomben +",
      "EUen": "Better Curling Bombs",
      "EUes": "Mejora de bomba deslizante",
      "EUfr": "Bombes curling +",
      "EUit": "Bomba curling +",
      "EUnl": "Betere Curlingbommen",
      "EUru": "Апгрейд: керлинг-бомба",
      "JPja": "カーリングボム強化",
      "KRko": "컬링 밤 강화",
      "TWzh": "強化冰壺炸彈",
      "USen": "Better Curling Bombs",
      "USes": "Bombas deslizantes mejoradas",
      "USfr": "Bombes curling +"
    }
  },
  {
    "label": "SubWeapon2Lv3_01",
    "locale": {
      "CNzh": "减少冰壶炸弹的墨汁消耗量。",
      "EUde": "Der Einsatz von Curling-Bomben verbraucht\nweniger Tinte.",
      "EUen": "Decreases amount of ink consumed\nby Curling Bombs.",
      "EUes": "Reduce la cantidad de tinta que consumen\nlas bombas deslizantes.",
      "EUfr": "Réduit la quantité d'encre utilisée\npar les bombes curling.",
      "EUit": "Riduce il consumo d'inchiostro della\nbomba curling.",
      "EUnl": "Curlingbommen gebruiken minder inkt.",
      "EUru": "Снижает расход краски\nкерлинг-бомбами.",
      "JPja": "カーリングボムの消費インク量が少なくなります。",
      "KRko": "컬링 밤의 소비 잉크양이 줄어듭니다.",
      "TWzh": "降低冰壺炸彈的墨汁消耗量。",
      "USen": "Decreases amount of ink consumed\nby Curling Bombs.",
      "USes": "Reduce la cantidad de tinta que consumen\nlas bombas deslizantes.",
      "USfr": "Réduit la quantité d'encre utilisée\npar les Bombes curling."
    }
  },
  {
    "label": "SubWeapon3Lv2_00",
    "locale": {
      "CNzh": "追加快速炸弹",
      "EUde": "Insta-Bomben",
      "EUen": "Get Burst Bombs",
      "EUes": "Bomba rápida añadida",
      "EUfr": "Bombes ballons",
      "EUit": "Granata",
      "EUnl": "Ballonbommen",
      "EUru": "Разрывная бомба",
      "JPja": "クイックボム追加",
      "KRko": "퀵 밤 추가",
      "TWzh": "追加快速炸彈",
      "USen": "Get Burst Bombs",
      "USes": "Globos entintados añadidos",
      "USfr": "Bombes ballons"
    }
  },
  {
    "label": "SubWeapon3Lv2_01",
    "locale": {
      "CNzh": "发生碰撞后立刻爆炸的炸弹。",
      "EUde": "Erhalte Bomben, die explodieren, sobald sie auf\nein Hindernis oder einen Gegner treffen.",
      "EUen": "Gain access to bombs that explode as soon as\nthey touch something.",
      "EUes": "Bomba que explota nada más entrar\nen contacto con algo.",
      "EUfr": "Fournit des bombes qui explosent à l'impact.",
      "EUit": "Una bomba che esplode all'impatto.",
      "EUnl": "Je zult ballonbommen kunnen gebruiken.\nDeze bommen ontploffen wanneer ze iets raken.",
      "EUru": "Взрывается сразу при контакте\nс чем-либо или кем-либо.",
      "JPja": "何かにぶつかると、すぐに爆発するボムです。",
      "KRko": "무언가에 부딪히면 바로 폭발하는 밤입니다.",
      "TWzh": "只要撞到其他東西就會立刻爆炸的炸彈。",
      "USen": "Gain access to bombs that explode as soon as\nthey touch something.",
      "USes": "Bomba que explota al entrar en contacto\ncon algo.",
      "USfr": "Fournit des bombes qui explosent à l'impact."
    }
  },
  {
    "label": "SubWeapon3Lv3_00",
    "locale": {
      "CNzh": "强化快速炸弹",
      "EUde": "Insta-Bomben +",
      "EUen": "Better Burst Bombs",
      "EUes": "Mejora de bomba rápida",
      "EUfr": "Bombes ballons +",
      "EUit": "Granata +",
      "EUnl": "Betere Ballonbommen",
      "EUru": "Апгрейд: разрывная бомба",
      "JPja": "クイックボム強化",
      "KRko": "퀵 밤 강화",
      "TWzh": "強化快速炸彈",
      "USen": "Better Burst Bombs",
      "USes": "Globos entintados mejorados",
      "USfr": "Bombes ballons +"
    }
  },
  {
    "label": "SubWeapon3Lv3_01",
    "locale": {
      "CNzh": "减少快速炸弹的墨汁消耗量。",
      "EUde": "Der Einsatz von Insta-Bomben verbraucht\nweniger Tinte.",
      "EUen": "Decreases amount of ink consumed by\nBurst Bombs.",
      "EUes": "Reduce la cantidad de tinta que consumen\nlas bombas rápidas.",
      "EUfr": "Réduit la quantité d'encre utilisée\npar les bombes ballons.",
      "EUit": "Riduce il consumo d'inchiostro della granata.",
      "EUnl": "Ballonbommen gebruiken minder inkt.",
      "EUru": "Снижает расход краски\nразрывными бомбами.",
      "JPja": "クイックボムの消費インク量が少なくなります。",
      "KRko": "퀵 밤의 소비 잉크양이 줄어듭니다.",
      "TWzh": "降低快速炸彈的墨汁消耗量。",
      "USen": "Decreases amount of ink consumed by\nBurst Bombs.",
      "USes": "Reduce la cantidad de tinta que consumen\nlos globos entintados.",
      "USfr": "Réduit la quantité d'encre utilisée\npar les Bombes ballons."
    }
  }
]