[
  {
    "label": "Shooter_Short_00",
    "text": "{{fun_0005_0006}}"
  },
  {
    "label": "Shooter_Short_01",
    "text": "{{fun_0005_0006}}"
  },
  {
    "label": "Shooter_First_00",
    "text": "{{fun_0005_0006}}"
  },
  {
    "label": "Shooter_First_01",
    "text": "{{fun_0005_0006}}"
  },
  {
    "label": "Shooter_Precision_00",
    "text": "{{fun_0005_0006}}"
  },
  {
    "label": "Shooter_Precision_01",
    "text": "{{fun_0005_0006}}"
  },
  {
    "label": "Shooter_Blaze_00",
    "text": "{{fun_0005_0006}}"
  },
  {
    "label": "Shooter_Blaze_01",
    "text": "{{fun_0005_0006}}"
  },
  {
    "label": "Shooter_Normal_00",
    "text": "{{fun_0005_0006}}"
  },
  {
    "label": "Shooter_Normal_01",
    "text": "{{fun_0005_0006}}"
  },
  {
    "label": "Shooter_Normal_H",
    "text": "{{fun_0005_0006}}"
  },
  {
    "label": "Shooter_Normal_Oct",
    "text": "{{fun_0005_0006}}"
  },
  {
    "label": "Shooter_Gravity_00",
    "text": "{{fun_0005_0006}}"
  },
  {
    "label": "Shooter_Gravity_01",
    "text": "{{fun_0005_0006}}"
  },
  {
    "label": "Shooter_QuickMiddle_00",
    "text": "{{fun_0005_0006}}"
  },
  {
    "label": "Shooter_QuickMiddle_01",
    "text": "{{fun_0005_0006}}"
  },
  {
    "label": "Shooter_Expert_00",
    "text": "{{fun_0005_0006}}"
  },
  {
    "label": "Shooter_Expert_01",
    "text": "{{fun_0005_0006}}"
  },
  {
    "label": "Shooter_Heavy_00",
    "text": "{{fun_0005_0006}}"
  },
  {
    "label": "Shooter_Heavy_01",
    "text": "{{fun_0005_0006}}"
  },
  {
    "label": "Shooter_Long_00",
    "text": "{{fun_0005_0006}}"
  },
  {
    "label": "Shooter_Long_01",
    "text": "{{fun_0005_0006}}"
  },
  {
    "label": "Blaster_Short_00",
    "text": "{{fun_0005_0006}}"
  },
  {
    "label": "Blaster_Short_01",
    "text": "{{fun_0005_0006}}"
  },
  {
    "label": "Blaster_Middle_00",
    "text": "{{fun_0005_0006}}"
  },
  {
    "label": "Blaster_Middle_01",
    "text": "{{fun_0005_0006}}"
  },
  {
    "label": "Blaster_Long_00",
    "text": "{{fun_0005_0006}}"
  },
  {
    "label": "Blaster_Long_01",
    "text": "{{fun_0005_0006}}"
  },
  {
    "label": "Blaster_LightShort_00",
    "text": "{{fun_0005_0006}}"
  },
  {
    "label": "Blaster_LightShort_01",
    "text": "{{fun_0005_0006}}"
  },
  {
    "label": "Blaster_Light_00",
    "text": "{{fun_0005_0006}}"
  },
  {
    "label": "Blaster_Light_01",
    "text": "{{fun_0005_0006}}"
  },
  {
    "label": "Blaster_LightLong_00",
    "text": "{{fun_0005_0006}}"
  },
  {
    "label": "Blaster_LightLong_01",
    "text": "{{fun_0005_0006}}"
  },
  {
    "label": "Shooter_TripleQuick_00",
    "text": "{{fun_0005_0006}}"
  },
  {
    "label": "Shooter_TripleQuick_01",
    "text": "{{fun_0005_0006}}"
  },
  {
    "label": "Shooter_TripleMiddle_00",
    "text": "{{fun_0005_0006}}"
  },
  {
    "label": "Shooter_TripleMiddle_01",
    "text": "{{fun_0005_0006}}"
  },
  {
    "label": "Shooter_Flash_00",
    "text": "{{fun_0005_0006}}"
  },
  {
    "label": "Shooter_Flash_01",
    "text": "{{fun_0005_0006}}"
  },
  {
    "label": "Roller_Compact_00",
    "text": "{{fun_0005_0006}}"
  },
  {
    "label": "Roller_Compact_01",
    "text": "{{fun_0005_0006}}"
  },
  {
    "label": "Roller_Normal_00",
    "text": "{{fun_0005_0006}}"
  },
  {
    "label": "Roller_Normal_01",
    "text": "{{fun_0005_0006}}"
  },
  {
    "label": "Roller_Heavy_00",
    "text": "{{fun_0005_0006}}"
  },
  {
    "label": "Roller_Heavy_01",
    "text": "{{fun_0005_0006}}"
  },
  {
    "label": "Roller_Hunter_00",
    "text": "{{fun_0005_0006}}"
  },
  {
    "label": "Roller_Hunter_01",
    "text": "{{fun_0005_0006}}"
  },
  {
    "label": "Brush_Mini_00",
    "text": "{{fun_0005_0006}}"
  },
  {
    "label": "Brush_Mini_01",
    "text": "{{fun_0005_0006}}"
  },
  {
    "label": "Brush_Normal_00",
    "text": "{{fun_0005_0006}}"
  },
  {
    "label": "Brush_Normal_01",
    "text": "{{fun_0005_0006}}"
  },
  {
    "label": "Charger_Quick_00",
    "text": "{{fun_0005_0006}}"
  },
  {
    "label": "Charger_Quick_01",
    "text": "{{fun_0005_0006}}"
  },
  {
    "label": "Charger_Normal_00",
    "text": "{{fun_0005_0006}}"
  },
  {
    "label": "Charger_Normal_01",
    "text": "{{fun_0005_0006}}"
  },
  {
    "label": "Charger_NormalScope_00",
    "text": "{{fun_0005_0006}}"
  },
  {
    "label": "Charger_NormalScope_01",
    "text": "{{fun_0005_0006}}"
  },
  {
    "label": "Charger_Long_00",
    "text": "{{fun_0005_0006}}"
  },
  {
    "label": "Charger_Long_01",
    "text": "{{fun_0005_0006}}"
  },
  {
    "label": "Charger_LongScope_00",
    "text": "{{fun_0005_0006}}"
  },
  {
    "label": "Charger_LongScope_01",
    "text": "{{fun_0005_0006}}"
  },
  {
    "label": "Charger_Light_00",
    "text": "{{fun_0005_0006}}"
  },
  {
    "label": "Charger_Light_01",
    "text": "{{fun_0005_0006}}"
  },
  {
    "label": "Charger_Keeper_00",
    "text": "{{fun_0005_0006}}"
  },
  {
    "label": "Charger_Keeper_01",
    "text": "{{fun_0005_0006}}"
  },
  {
    "label": "Slosher_Strong_00",
    "text": "{{fun_0005_0006}}"
  },
  {
    "label": "Slosher_Strong_01",
    "text": "{{fun_0005_0006}}"
  },
  {
    "label": "Slosher_Diffusion_00",
    "text": "{{fun_0005_0006}}"
  },
  {
    "label": "Slosher_Diffusion_01",
    "text": "{{fun_0005_0006}}"
  },
  {
    "label": "Slosher_Launcher_00",
    "text": "{{fun_0005_0006}}"
  },
  {
    "label": "Slosher_Launcher_01",
    "text": "{{fun_0005_0006}}"
  },
  {
    "label": "Slosher_Bathtub_00",
    "text": "{{fun_0005_0006}}"
  },
  {
    "label": "Slosher_Bathtub_01",
    "text": "{{fun_0005_0006}}"
  },
  {
    "label": "Slosher_Washtub_00",
    "text": "{{fun_0005_0006}}"
  },
  {
    "label": "Slosher_Washtub_01",
    "text": "{{fun_0005_0006}}"
  },
  {
    "label": "Spinner_Quick_00",
    "text": "{{fun_0005_0006}}"
  },
  {
    "label": "Spinner_Quick_01",
    "text": "{{fun_0005_0006}}"
  },
  {
    "label": "Spinner_Standard_00",
    "text": "{{fun_0005_0006}}"
  },
  {
    "label": "Spinner_Standard_01",
    "text": "{{fun_0005_0006}}"
  },
  {
    "label": "Spinner_Hyper_00",
    "text": "{{fun_0005_0006}}"
  },
  {
    "label": "Spinner_Hyper_01",
    "text": "{{fun_0005_0006}}"
  },
  {
    "label": "Spinner_Downpour_00",
    "text": "{{fun_0005_0006}}"
  },
  {
    "label": "Spinner_Downpour_01",
    "text": "{{fun_0005_0006}}"
  },
  {
    "label": "Spinner_Serein_00",
    "text": "{{fun_0005_0006}}"
  },
  {
    "label": "Spinner_Serein_01",
    "text": "{{fun_0005_0006}}"
  },
  {
    "label": "Maneuver_Short_00",
    "text": "{{fun_0005_0006}}"
  },
  {
    "label": "Maneuver_Short_01",
    "text": "{{fun_0005_0006}}"
  },
  {
    "label": "Maneuver_Normal_00",
    "text": "{{fun_0005_0006}}"
  },
  {
    "label": "Maneuver_Normal_01",
    "text": "{{fun_0005_0006}}"
  },
  {
    "label": "Maneuver_Gallon_00",
    "text": "{{fun_0005_0006}}"
  },
  {
    "label": "Maneuver_Gallon_01",
    "text": "{{fun_0005_0006}}"
  },
  {
    "label": "Maneuver_Dual_00",
    "text": "{{fun_0005_0006}}"
  },
  {
    "label": "Maneuver_Dual_01",
    "text": "{{fun_0005_0006}}"
  },
  {
    "label": "Maneuver_Stepper_00",
    "text": "{{fun_0005_0006}}"
  },
  {
    "label": "Maneuver_Stepper_01",
    "text": "{{fun_0005_0006}}"
  },
  {
    "label": "Shelter_Normal_00",
    "text": "{{fun_0005_0006}}"
  },
  {
    "label": "Shelter_Normal_01",
    "text": "{{fun_0005_0006}}"
  },
  {
    "label": "Shelter_Wide_00",
    "text": "{{fun_0005_0006}}"
  },
  {
    "label": "Shelter_Wide_01",
    "text": "{{fun_0005_0006}}"
  },
  {
    "label": "Stringer_Normal_00",
    "text": "{{fun_0005_0006}}"
  },
  {
    "label": "Stringer_Normal_01",
    "text": "{{fun_0005_0006}}"
  },
  {
    "label": "Stringer_Explosion_00",
    "text": "{{fun_0005_0006}}"
  },
  {
    "label": "Stringer_Explosion_01",
    "text": "{{fun_0005_0006}}"
  },
  {
    "label": "Stringer_Short_00",
    "text": "{{fun_0005_0006}}"
  },
  {
    "label": "Stringer_Short_01",
    "text": "{{fun_0005_0006}}"
  },
  {
    "label": "Shelter_Compact_00",
    "text": "{{fun_0005_0006}}"
  },
  {
    "label": "Shelter_Compact_01",
    "text": "{{fun_0005_0006}}"
  },
  {
    "label": "Saber_Normal_00",
    "text": "{{fun_0005_0006}}"
  },
  {
    "label": "Saber_Normal_01",
    "text": "{{fun_0005_0006}}"
  },
  {
    "label": "Saber_Heavy_00",
    "text": "{{fun_0005_0006}}"
  },
  {
    "label": "Saber_Heavy_01",
    "text": "{{fun_0005_0006}}"
  },
  {
    "label": "Saber_Lite_00",
    "text": "{{fun_0005_0006}}"
  },
  {
    "label": "Saber_Lite_01",
    "text": "{{fun_0005_0006}}"
  },
  {
    "label": "Shooter_QuickLong_00",
    "text": "{{fun_0005_0006}}"
  },
  {
    "label": "Shooter_QuickLong_01",
    "text": "{{fun_0005_0006}}"
  },
  {
    "label": "Roller_Wide_00",
    "text": "{{fun_0005_0006}}"
  },
  {
    "label": "Roller_Wide_01",
    "text": "{{fun_0005_0006}}"
  },
  {
    "label": "Brush_Heavy_00",
    "text": "{{fun_0005_0006}}"
  },
  {
    "label": "Brush_Heavy_01",
    "text": "{{fun_0005_0006}}"
  },
  {
    "label": "Charger_Pencil_00",
    "text": "{{fun_0005_0006}}"
  },
  {
    "label": "Charger_Pencil_01",
    "text": "{{fun_0005_0006}}"
  },
  {
    "label": "Blaster_Precision_00",
    "text": "{{fun_0005_0006}}"
  },
  {
    "label": "Blaster_Precision_01",
    "text": "{{fun_0005_0006}}"
  },
  {
    "label": "Spinner_HyperShort_00",
    "text": "{{fun_0005_0006}}"
  },
  {
    "label": "Spinner_HyperShort_01",
    "text": "{{fun_0005_0006}}"
  },
  {
    "label": "Slosher_Double_00",
    "text": "{{fun_0005_0006}}"
  },
  {
    "label": "Slosher_Double_01",
    "text": "{{fun_0005_0006}}"
  },
  {
    "label": "Maneuver_Long_00",
    "text": "{{fun_0005_0006}}"
  },
  {
    "label": "Maneuver_Long_01",
    "text": "{{fun_0005_0006}}"
  },
  {
    "label": "Shelter_Focus_00",
    "text": "{{fun_0005_0006}}"
  },
  {
    "label": "Shelter_Focus_01",
    "text": "{{fun_0005_0006}}"
  },
  {
    "label": "Maneuver_Normal_O",
    "text": "{{fun_0005_0006}}"
  },
  {
    "label": "Shelter_Normal_O",
    "text": "{{fun_0005_0006}}"
  },
  {
    "label": "Shooter_Normal_O",
    "text": "{{fun_0005_0006}}"
  },
  {
    "label": "Roller_Normal_O",
    "text": "{{fun_0005_0006}}"
  },
  {
    "label": "Charger_Normal_O",
    "text": "{{fun_0005_0006}}"
  },
  {
    "label": "Slosher_Strong_O",
    "text": "{{fun_0005_0006}}"
  },
  {
    "label": "Spinner_Standard_O",
    "text": "{{fun_0005_0006}}"
  },
  {
    "label": "Blaster_Short_O",
    "text": "{{fun_0005_0006}}"
  },
  {
    "label": "Brush_Normal_O",
    "text": "{{fun_0005_0006}}"
  },
  {
    "label": "Stringer_Normal_O",
    "text": "{{fun_0005_0006}}"
  },
  {
    "label": "Saber_Normal_O",
    "text": "{{fun_0005_0006}}"
  }
]