[
  {
    "label": "L_Btn_00-T_Info_00",
    "text": "Настройки кадра"
  },
  {
    "label": "L_Btn_01-T_Info_00",
    "text": "Конец фотосессии"
  },
  {
    "label": "L_Btn_02-T_Info_00",
    "text": "Назад"
  },
  {
    "label": "L_Switch_00-T_BtnR_00",
    "text": "Выкл."
  },
  {
    "label": "L_Switch_00-T_BtnL_00",
    "text": "Вкл."
  },
  {
    "label": "000",
    "text": "Без фильтра"
  },
  {
    "label": "001",
    "text": "Фильтр 1"
  },
  {
    "label": "002",
    "text": "Фильтр 2"
  },
  {
    "label": "003",
    "text": "Фильтр 3"
  },
  {
    "label": "004",
    "text": "Фильтр 4"
  },
  {
    "label": "005",
    "text": "Фильтр 5"
  },
  {
    "label": "006",
    "text": "Фильтр 6"
  },
  {
    "label": "007",
    "text": "Фильтр 7"
  },
  {
    "label": "L_Switch_01-T_BtnR_00",
    "text": "Выкл."
  },
  {
    "label": "L_Switch_01-T_BtnL_00",
    "text": "Вкл."
  },
  {
    "label": "L_Switch_02-T_BtnR_00",
    "text": "Выкл."
  },
  {
    "label": "L_Switch_02-T_BtnL_00",
    "text": "Вкл."
  },
  {
    "label": "L_Switch_03-T_BtnR_00",
    "text": "Выкл."
  },
  {
    "label": "L_Switch_03-T_BtnL_00",
    "text": "Вкл."
  },
  {
    "label": "T_Title_00",
    "text": "Настроить"
  },
  {
    "label": "T_Info_02",
    "text": "Поворот камеры"
  },
  {
    "label": "T_Info_03",
    "text": "Движение"
  },
  {
    "label": "T_Info_04",
    "text": "Вперед/назад"
  },
  {
    "label": "T_Info_05",
    "text": "Зум"
  },
  {
    "label": "T_Info_06",
    "text": "Наклон"
  },
  {
    "label": "T_Info_00",
    "text": "Сделай снимок!"
  },
  {
    "label": "100",
    "text": "Оригинал"
  },
  {
    "label": "101",
    "text": "Снаряжение 1"
  },
  {
    "label": "102",
    "text": "Снаряжение 2"
  },
  {
    "label": "103",
    "text": "Снаряжение 3"
  },
  {
    "label": "104",
    "text": "Снаряжение 4"
  },
  {
    "label": "105",
    "text": "Снаряжение 5"
  },
  {
    "label": "106",
    "text": "Снаряжение 6"
  },
  {
    "label": "200",
    "text": "Поза 1"
  },
  {
    "label": "201",
    "text": "Поза 2"
  },
  {
    "label": "202",
    "text": "Поза 3"
  },
  {
    "label": "203",
    "text": "Поза 4"
  },
  {
    "label": "204",
    "text": "Поза 5"
  },
  {
    "label": "205",
    "text": "Поза 6"
  },
  {
    "label": "206",
    "text": "Поза 7"
  },
  {
    "label": "207",
    "text": "Поза 8"
  },
  {
    "label": "208",
    "text": "Поза 9"
  },
  {
    "label": "209",
    "text": "Поза 10"
  },
  {
    "label": "210",
    "text": "Поза 11"
  },
  {
    "label": "211",
    "text": "Поза 12"
  },
  {
    "label": "296",
    "text": "Deep Cut"
  },
  {
    "label": "297",
    "text": "Squid Sisters"
  },
  {
    "label": "298",
    "text": "Off the Hook"
  },
  {
    "label": "299",
    "text": "Восторг"
  },
  {
    "label": "T_Text_00",
    "text": "Выбери место!"
  },
  {
    "label": "300",
    "text": "Плюхтон"
  },
  {
    "label": "301",
    "text": "Инкополь"
  },
  {
    "label": "302",
    "text": "Инкопольская площадь"
  },
  {
    "label": "303",
    "text": "Площадка Гранд-фестиваля"
  },
  {
    "label": "T_Push_00",
    "text": "Нажми"
  },
  {
    "label": "T_Info_07",
    "text": "Верт./горизонталь"
  },
  {
    "label": "T_Date_01",
    "text": "Дата"
  },
  {
    "label": "T_Stage_01",
    "text": "Место"
  },
  {
    "label": "400",
    "text": "Место"
  },
  {
    "label": "401",
    "text": "Сплатфест-титул"
  },
  {
    "label": "T_Player_00",
    "text": "Ник"
  },
  {
    "label": "500",
    "text": "Управление"
  },
  {
    "label": "501",
    "text": "Управление"
  },
  {
    "label": "T_Guide_00",
    "text": "Управление"
  },
  {
    "label": "L_Timer_00-T_BtnL_00",
    "text": "Выкл."
  },
  {
    "label": "L_Timer_00-T_BtnR_00",
    "text": "10 сек."
  },
  {
    "label": "L_Timer_00-T_BtnC_00",
    "text": "3 сек."
  },
  {
    "label": "T_Filter_00",
    "text": "Фильтр"
  },
  {
    "label": "T_Timer_00",
    "text": "Таймер"
  },
  {
    "label": "T_Gear_00",
    "text": "Снаряж. amiibo"
  },
  {
    "label": "T_Pause_00",
    "text": "Поза"
  },
  {
    "label": "T_Pause_01",
    "text": "Поза amiibo"
  },
  {
    "label": "L_Switch_01-T_Msg_00",
    "text": "Невозможно отобразить.\nСплатфест-титулы не совпадают."
  }
]