[
  {
    "label": "T_Photo_00",
    "text": "Все"
  },
  {
    "label": "T_Photo_01",
    "text": "{{number index=\"0\" type=\"3\" arg3=\"0\" arg4=\"1\"}}"
  },
  {
    "label": "T_Pin_00",
    "text": "Любимое"
  },
  {
    "label": "000",
    "text": "{{number index=\"0\" type=\"2\" arg3=\"0\" arg4=\"1\"}}/{{number index=\"1\" type=\"2\" arg3=\"0\" arg4=\"1\"}}"
  },
  {
    "label": "L_Button_00-T_Info_00",
    "text": "Назад"
  },
  {
    "label": "001",
    "text": "Выбрать несколько"
  },
  {
    "label": "002",
    "text": "Скрыть меню"
  },
  {
    "label": "003",
    "text": "В Любимое"
  },
  {
    "label": "004",
    "text": "Убрать из Любимого"
  },
  {
    "label": "005",
    "text": "Увеличить"
  },
  {
    "label": "100",
    "text": "Отправить в SplatNet 3"
  },
  {
    "label": "101",
    "text": "В стеллаж для фотографий"
  },
  {
    "label": "T_Count_00",
    "text": "20"
  },
  {
    "label": "T_Ber_00",
    "text": "/"
  },
  {
    "label": "T_Count_01",
    "text": "{{number index=\"0\" type=\"2\" arg3=\"0\" arg4=\"0\"}}"
  },
  {
    "label": "L_Button_04-T_Info_00",
    "text": "Выбрать"
  }
]