[
  {
    "label": "L_PlayerName_00-T_Wait_00",
    "text": "Ждем..."
  },
  {
    "label": "L_BtnList_00-T_Btn_00",
    "text": "Открыть список карт"
  },
  {
    "label": "L_BtnList_01-T_Btn_00",
    "text": "Смотреть правила"
  },
  {
    "label": "L_BackBtn_00-T_Info_00",
    "text": "Назад"
  },
  {
    "label": "L_PlayerName_00-T_MngState_00",
    "text": "Рвется в бой"
  },
  {
    "label": "L_PlayerName_00-T_MngState_01",
    "text": "В бою"
  },
  {
    "label": "L_PlayerName_00-T_MngState_02",
    "text": "Зритель"
  },
  {
    "label": "L_GuideNotify_00-T_Btn_00",
    "text": "Y"
  },
  {
    "label": "000",
    "text": "Распустить"
  },
  {
    "label": "001",
    "text": "Выйти"
  }
]