[
  {
    "label": "000",
    "text": "Нет краски!"
  },
  {
    "label": "001",
    "text": "Нет устриц!"
  },
  {
    "label": "002",
    "text": "Нет\nмалетчика!"
  },
  {
    "label": "003",
    "text": "Невозможно\nприменить!"
  },
  {
    "label": "004",
    "text": "Мало\nикринок!"
  },
  {
    "label": "005",
    "text": "Нет\nфейерболов!"
  }
]