[
  {
    "label": "EnterManhole",
    "text": "Занырнуть"
  },
  {
    "label": "BackToPlaza",
    "text": "В город"
  },
  {
    "label": "PlayerDevice",
    "text": "Терминал в Холле"
  },
  {
    "label": "WoodenFigureOn",
    "text": "Включить копир"
  },
  {
    "label": "WoodenFigureOff",
    "text": "Выключить копир"
  },
  {
    "label": "Amiibo",
    "text": "amiibo"
  },
  {
    "label": "TalkToNpc",
    "text": "Говорить"
  },
  {
    "label": "CanolaPost",
    "text": "Отправить"
  },
  {
    "label": "EatFood",
    "text": "Перекусить"
  },
  {
    "label": "JudgeTips",
    "text": "Обратиться за советом"
  },
  {
    "label": "MiniGame",
    "text": "Карты и район"
  },
  {
    "label": "FestVote",
    "text": "Терминал для голосования"
  },
  {
    "label": "WalkSingle",
    "text": "Разведать"
  },
  {
    "label": "Locker",
    "text": "Открыть шкафчик"
  },
  {
    "label": "KumasanRadio",
    "text": "Начать смену"
  },
  {
    "label": "Manual",
    "text": "Читать памятку"
  },
  {
    "label": "Shiftboard",
    "text": "Читать объявления"
  },
  {
    "label": "CashExchange",
    "text": "Смотреть награды"
  },
  {
    "label": "Lot",
    "text": "Играть"
  },
  {
    "label": "Jukebox",
    "text": "Саундтрек по заявкам"
  },
  {
    "label": "MiniGame_Play",
    "text": "Карты и район"
  },
  {
    "label": "MiniGame_WaitForOpponent",
    "text": "Присесть"
  },
  {
    "label": "MiniGame_RequestBattle",
    "text": "Бросить вызов"
  },
  {
    "label": "CoopSkinChanger",
    "text": "Снаряжение"
  },
  {
    "label": "CoopWeaponChanger",
    "text": "Оружие"
  },
  {
    "label": "TakeMissionTreasure",
    "text": "Хватай!"
  },
  {
    "label": "Remember",
    "text": "Вспомнить"
  },
  {
    "label": "Dresser",
    "text": "Снаряжение"
  },
  {
    "label": "LockerDoor",
    "text": "Загляни сюда!"
  },
  {
    "label": "CoopStatsDevice",
    "text": "Терминал «Потапыч Inc.»"
  },
  {
    "label": "ActivateDrone",
    "text": "Активировать пуш-дрон"
  },
  {
    "label": "ChangeCommander",
    "text": "Проверить"
  },
  {
    "label": "PlazaMove",
    "text": "Красконвейер"
  },
  {
    "label": "Goods",
    "text": "Хитлантида"
  },
  {
    "label": "MiniGame_Spectate",
    "text": "Зритель"
  },
  {
    "label": "MiniGame_StandUp",
    "text": "Встать"
  },
  {
    "label": "FieldScope",
    "text": "Сделать снимок"
  },
  {
    "label": "OpenMainMenu",
    "text": "Другое место"
  }
]