[
  {
    "label": "000",
    "text": "x{{number index=\"0\" type=\"4\" arg3=\"0\" arg4=\"0\"}}"
  },
  {
    "label": "001",
    "text": "x{{number index=\"0\" type=\"5\" arg3=\"0\" arg4=\"0\"}}"
  },
  {
    "label": "010",
    "text": "{{number index=\"0\" type=\"4\" arg3=\"0\" arg4=\"0\"}} и выше"
  },
  {
    "label": "L_Bottom_00-T_Info_00",
    "text": "Закрыть"
  },
  {
    "label": "T_Score_00",
    "text": "Рекорд"
  },
  {
    "label": "T_Battle_00",
    "text": "Икорный овертайм"
  },
  {
    "label": "T_Top_00",
    "text": "Лучшие"
  },
  {
    "label": "T_NumTop_00",
    "text": "5%"
  },
  {
    "label": "T_NumTop_01",
    "text": "20%"
  },
  {
    "label": "T_NumTop_02",
    "text": "50%"
  },
  {
    "label": "T_NumTop_06",
    "text": "Сейчас:"
  }
]