[
  {
    "label": "000",
    "text": "+ {{number index=\"0\" type=\"4\" arg3=\"0\" arg4=\"0\"}}"
  },
  {
    "label": "001",
    "text": "Время:\n{{number index=\"0\" type=\"1\" arg3=\"0\" arg4=\"0\"}} мин."
  },
  {
    "label": "002",
    "text": "Прокрас: {{number index=\"0\" type=\"3\" arg3=\"0\" arg4=\"0\"}}!"
  },
  {
    "label": "003",
    "text": "Победа!"
  },
  {
    "label": "004",
    "text": "Старание:\n{{number index=\"0\" type=\"2\" arg3=\"0\" arg4=\"0\"}}!"
  },
  {
    "label": "005",
    "text": "Нокаут!"
  },
  {
    "label": "006",
    "text": "Первый успех\nдня!"
  },
  {
    "label": "051",
    "text": "{{color id=\"1\"}}Лицензия Пушкина {{color id=\"65535\"}}{{icon id=\"28\" arg=\"0x295C4F3F00000000\"}}!"
  },
  {
    "label": "052",
    "text": "Новая {{color id=\"1\"}}наклейка{{color id=\"65535\"}} в Холле!"
  },
  {
    "label": "053",
    "text": "Новая {{color id=\"1\"}}наклейка{{color id=\"65535\"}} в Холле!"
  },
  {
    "label": "054",
    "text": "{{color id=\"1\"}}Значок{{color id=\"65535\"}}!"
  },
  {
    "label": "055",
    "text": "{{color id=\"1\"}}Значок{{color id=\"65535\"}}!"
  },
  {
    "label": "100",
    "text": "Сплатфест-\nбонус"
  },
  {
    "label": "101",
    "text": "x{{number index=\"0\" type=\"1\" arg3=\"0\" arg4=\"0\"}},{{number index=\"1\" type=\"1\" arg3=\"0\" arg4=\"0\"}}"
  },
  {
    "label": "102",
    "text": "Финишный\nбонус"
  },
  {
    "label": "120",
    "text": "x{{number index=\"0\" type=\"1\" arg3=\"0\" arg4=\"0\"}}!"
  },
  {
    "label": "T_Money_00",
    "text": "Деньги"
  },
  {
    "label": "T_Title_00",
    "text": "Свежесть +"
  },
  {
    "label": "L_Catalog_00-T_RankUp_00",
    "text": "Уровень повышен!"
  },
  {
    "label": "L_Catalog_00-T_Rank_00",
    "text": "Каталог"
  },
  {
    "label": "L_Catalog_00-T_Max_00",
    "text": "ТОП"
  },
  {
    "label": "L_Catalog_00-T_Message_00",
    "text": "Посети «Хитлантиду» на ур. 4!"
  },
  {
    "label": "L_Rank_00-T_RankUp_00",
    "text": "Уровень повышен!"
  },
  {
    "label": "L_Rank_00-T_Rank_01",
    "text": "Ур.:"
  },
  {
    "label": "L_Rank_00-T_Max_01",
    "text": "ТОП"
  },
  {
    "label": "T_Gear_00",
    "text": "Снаряжение"
  },
  {
    "label": "T_LvUp_00",
    "text": "Новое свойство!"
  }
]