[
  {
    "label": "000",
    "text": "+ {{number index=\"0\" type=\"4\" arg3=\"0\" arg4=\"0\"}}"
  },
  {
    "label": "001",
    "text": "x{{number index=\"0\" type=\"1\" arg3=\"0\" arg4=\"0\"}},{{number index=\"1\" type=\"1\" arg3=\"0\" arg4=\"0\"}}"
  },
  {
    "label": "002",
    "text": "Победа!"
  },
  {
    "label": "003",
    "text": "Прокрас:"
  },
  {
    "label": "004",
    "text": "Бонус за\nсинергию"
  },
  {
    "label": "010",
    "text": "Ультра-маячок\nзахвачен!"
  },
  {
    "label": "011",
    "text": "Попытка взять\nультра-маячок!"
  },
  {
    "label": "020",
    "text": "Бонус\nза бой!"
  },
  {
    "label": "021",
    "text": "За {{number index=\"0\" type=\"4\" arg3=\"0\" arg4=\"0\"}} очк.\nпрокраса!"
  },
  {
    "label": "022",
    "text": "Бонус за\nсинергию"
  },
  {
    "label": "023",
    "text": "Бонус за\nатаку"
  },
  {
    "label": "024",
    "text": "Бонус за\nзащиту"
  },
  {
    "label": "100",
    "text": "Бонус x10"
  },
  {
    "label": "101",
    "text": "Бонус x100"
  },
  {
    "label": "102",
    "text": "Бонус x333"
  },
  {
    "label": "103",
    "text": "Трехцветный бой"
  },
  {
    "label": "T_FestPoint_00",
    "text": "Сплатфест-очки"
  },
  {
    "label": "T_Title_00",
    "text": "Вклад"
  },
  {
    "label": "T_Total_00",
    "text": "Общий вклад"
  },
  {
    "label": "L_FestMeter_00-T_RankUpDown_00",
    "text": "Сплатфест-титул!"
  },
  {
    "label": "L_FestMeter_00-T_Max_00",
    "text": "ТОП"
  },
  {
    "label": "T_Get_00",
    "text": "Да! Мегараковины!"
  },
  {
    "label": "T_Get_01",
    "text": "Всего:"
  },
  {
    "label": "T_Max_00",
    "text": "ТОП"
  },
  {
    "label": "T_Open_00",
    "text": "Сплатфест-бой (открытый)"
  },
  {
    "label": "T_Challenge_00",
    "text": "Сплатфест-бой (профи)"
  },
  {
    "label": "T_Progress_00",
    "text": "Данных о силе X нет..."
  },
  {
    "label": "T_Rank_00",
    "text": "Есть данные о силе!"
  },
  {
    "label": "T_NumProgress_01",
    "text": "/5"
  },
  {
    "label": "T_XRankTitle_00",
    "text": "Позиция"
  },
  {
    "label": "T_XRankTitle_01",
    "text": "Прогноз"
  },
  {
    "label": "200",
    "text": "#{{number index=\"0\" type=\"4\" arg3=\"0\" arg4=\"0\"}}"
  }
]