[
  {
    "label": "010",
    "text": "Ага!"
  },
  {
    "label": "011",
    "text": "Зайти"
  },
  {
    "label": "012",
    "text": "Класс!"
  },
  {
    "label": "013",
    "text": "Загрузить"
  },
  {
    "label": "L_Win_00-T_Lock_00",
    "text": "С паролем"
  },
  {
    "label": "L_Win_00-T_Mic_00",
    "text": "Голос. чат вкл."
  },
  {
    "label": "L_Win_00-T_Wpn_00",
    "text": "Табельное оружие"
  },
  {
    "label": "L_Win_00-L_Key_01-T_Info_00",
    "text": "Назад"
  }
]