[
  {
    "label": "000",
    "text": "Украшения"
  },
  {
    "label": "001",
    "text": "Наклейки"
  },
  {
    "label": "002",
    "text": "Оружие"
  },
  {
    "label": "003",
    "text": "Аксессуары"
  },
  {
    "label": "004",
    "text": "Одежда"
  },
  {
    "label": "005",
    "text": "Обувь"
  },
  {
    "label": "006",
    "text": "Элементы"
  },
  {
    "label": "007",
    "text": "Тип шкафчика"
  },
  {
    "label": "010",
    "text": "x{{number index=\"0\" type=\"2\" arg3=\"0\" arg4=\"0\"}}"
  },
  {
    "label": "L_KeyIcon_00-T_Info_00",
    "text": "Назад"
  },
  {
    "label": "T_None_00",
    "text": "Нет предметов."
  }
]