[
  {
    "label": "L_PreviewBack_00-T_Info_00",
    "text": "Назад"
  },
  {
    "label": "000",
    "text": "Назад"
  },
  {
    "label": "001",
    "text": "Назад"
  },
  {
    "label": "T_TitlePiece_00",
    "text": "Редактор карт"
  },
  {
    "label": "T_Title_00",
    "text": "Список карт"
  },
  {
    "label": "L_TradePieceBtn_00-T_Text_00",
    "text": "Редактор карт"
  },
  {
    "label": "L_EditBtn_00-T_Text_00",
    "text": "Изменить колоду"
  }
]