[
  {
    "label": "SpInkStorm",
    "text": "{{icon id=\"78\" arg=\"0x00006040F9FFFFFF\"}} Заливай!"
  },
  {
    "label": "SpUltraShot",
    "text": "{{icon id=\"80\" arg=\"0xCDCC4C4000000000\"}} Стреляй!"
  },
  {
    "label": "SpUltraStamp",
    "text": "{{icon id=\"80\" arg=\"0xCDCC4C4000000000\"}} Припечатай!"
  },
  {
    "label": "SpShockSonar",
    "text": "{{icon id=\"78\" arg=\"0x00006040F9FFFFFF\"}} Подавай волны!"
  },
  {
    "label": "SpTripleTornado",
    "text": "{{icon id=\"78\" arg=\"0x00006040F9FFFFFF\"}} Закручивай!"
  },
  {
    "label": "SpSkewer",
    "text": "{{icon id=\"80\" arg=\"0xCDCC4C4000000000\"}} Остановись и бабахни!"
  },
  {
    "label": "SpChariot",
    "text": "{{icon id=\"78\" arg=\"0x00006040F9FFFFFF\"}}{{icon id=\"80\" arg=\"0xCDCC4C4000000000\"}} Огонь!"
  },
  {
    "label": "SpNiceBall",
    "text": "{{icon id=\"78\" arg=\"0x00006040F9FFFFFF\"}} Бросай!"
  },
  {
    "label": "SpCastle",
    "text": "Удерживай {{icon id=\"80\" arg=\"0xCDCC4C4000000000\"}}, и вперед!"
  },
  {
    "label": "SpDroneBuddySdodr",
    "text": "{{icon id=\"76\" arg=\"0x0000204000000000\"}} Нажми и активируй!"
  }
]