[
  {
    "label": "010",
    "text": "Примечание. Некоторые несовместимые повторы\nбоя были удалены и не могут быть воспроизведены."
  },
  {
    "label": "011",
    "text": "Нет повторов боя, которые можно воспроизвести."
  },
  {
    "label": "012",
    "text": "Максимум повторов боя в любимом: {{number index=\"0\" type=\"2\" arg3=\"0\" arg4=\"0\"}}."
  },
  {
    "label": "013",
    "text": "Не удалось воспроизвести повтор боя."
  },
  {
    "label": "014",
    "text": "Повтор боя отправлен."
  },
  {
    "label": "015",
    "text": "Не удалось отправить повтор боя."
  },
  {
    "label": "020",
    "text": "Здесь можно посмотреть протоколы боев после\nучастия в боях, начатых в Холле."
  },
  {
    "label": "021",
    "text": "Здесь можно посмотреть результаты твоей работы\nна «Потапыч Inc.» в Salmon Run."
  },
  {
    "label": "030",
    "text": "Ник изменен!"
  },
  {
    "label": "031",
    "text": "Изменить ник невозможно до {{string index=\"0\" arg2=\"12\"}}."
  },
  {
    "label": "040",
    "text": "Введенный код недействителен.\nПроверь правильность кода."
  },
  {
    "label": "041",
    "text": "Этот повтор боя уже загружен."
  },
  {
    "label": "042",
    "text": "Повтор боя загружен."
  },
  {
    "label": "043",
    "text": "Не удалось загрузить повтор боя."
  },
  {
    "label": "044",
    "text": "Не удалось загрузить. Возможно, повтор боя\nустарел."
  },
  {
    "label": "045",
    "text": "Это код повтора боя. Им можно воспользоваться\nв {{color id=\"1\"}}терминале в Холле{{color id=\"65535\"}}."
  },
  {
    "label": "046",
    "text": "Это код настроек смены. Им можно\nвоспользоваться в {{color id=\"1\"}}терминале «Потапыч Inc.»{{color id=\"65535\"}}."
  },
  {
    "label": "050",
    "text": "Изменить регион Сплатфеста невозможно\nдо {{string index=\"0\" arg2=\"12\"}}."
  },
  {
    "label": "060",
    "text": "Нет предметов, которые можно забрать."
  },
  {
    "label": "070",
    "text": "Нет доступных настроек смены. Запомни:\nможно сохранить настройки смены в рабочих\nпоказателях или добавить их с помощью кодов."
  },
  {
    "label": "071",
    "text": "Можно сохранить до 50 наборов настроек смены.\nЭто количество достигнуто. Теперь потребуется\nудалить некоторые из них, чтобы добавить новые."
  },
  {
    "label": "072",
    "text": "Можно сохранить до 50 наборов настроек смены.\nЭто количество достигнуто. Теперь потребуется\nудалить некоторые из них, чтобы добавить новые."
  },
  {
    "label": "080",
    "text": "Эти настройки смены уже сохранены."
  },
  {
    "label": "081",
    "text": "Настройки смены удалены."
  },
  {
    "label": "082",
    "text": "Настройки смены сохранены. Сохраненные\nнастройки можно применять в частных сменах!"
  },
  {
    "label": "083",
    "text": "Не удалось сохранить настройки смены."
  },
  {
    "label": "084",
    "text": "Невозможно сохранить настройки смены из Big Run."
  },
  {
    "label": "085",
    "text": "Невозможно сохранить настройки смены из\nверсий ниже 2.0.0."
  },
  {
    "label": "086",
    "text": "Невозможно сохранить настройки смены для\nикорного овертайма."
  },
  {
    "label": "090",
    "text": "Нет данных. Необходимо набрать команду\nи присоединиться к стихийному бою (открытый)\nили бою-событию, чтобы рассчитать силу."
  },
  {
    "label": "T_Name_00",
    "text": "Ник"
  },
  {
    "label": "L_Btn_00-T_Info_00",
    "text": "OK"
  }
]