[
  {
    "label": "000",
    "text": "Забрать предметы"
  },
  {
    "label": "010",
    "text": "Повторы"
  },
  {
    "label": "020",
    "text": "Протоколы боев"
  },
  {
    "label": "030",
    "text": "Изменить бейдж"
  },
  {
    "label": "040",
    "text": "Ввести код"
  },
  {
    "label": "050",
    "text": "Изменить ник"
  },
  {
    "label": "051",
    "text": "Изменить ник"
  },
  {
    "label": "060",
    "text": "Регион Сплатфеста"
  },
  {
    "label": "070",
    "text": "Стихийная сила\nи сила события"
  },
  {
    "label": "400",
    "text": "Назад"
  },
  {
    "label": "L_CoopContents_00-T_Contents_00",
    "text": "Рабочие показатели"
  },
  {
    "label": "L_CoopContents_01-T_Contents_00",
    "text": "Настройки смены"
  },
  {
    "label": "L_CoopContents_02-T_Contents_00",
    "text": "Введи код"
  }
]