[
  {
    "label": "000",
    "text": "НЕ ОТСТУПАТЬ!"
  },
  {
    "label": "001",
    "text": "Мегакарп тут под запретом!"
  },
  {
    "label": "002",
    "text": "Бегом к точке возврата!"
  },
  {
    "label": "003",
    "text": "Тащи его к цели!"
  },
  {
    "label": "004",
    "text": "Назад к точке возврата!"
  }
]