{
  "version": 7,
  "rootNode": {
    "AIRef": "Work/UniqueSequenceSPL/Root/SplSdodrStage.root.ain",
    "InterruptSeqs": [
      {
        "AIRef": "Work/UniqueSequence/Root/ControllerSupport.root.ain",
        "InterruptType": "ControllerSupport",
        "PauseType": "SystemPause"
      },
      {
        "AIRef": "Work/UniqueSequenceSPL/Root/SplDebugReset.root.ain",
        "InterruptType": "DebugReset",
        "PauseType": "GameReset"
      },
      {
        "AIRef": "Work/UniqueSequenceSPL/Root/SplDebugReset.root.ain",
        "InterruptType": "DebugResetOnSite",
        "PauseType": "GameReset",
        "StartCommand": "StartOnSite"
      },
      {
        "AIRef": "Work/UniqueSequenceSPL/Root/SplDevMissionCapture.root.ain",
        "InterruptType": "DevMissionCapture"
      }
    ],
    "LoadSyncCategories": ["GameCommon","Exams01","Exams03","Exams04"]
  }
}