[
  {
    "label": "Grade_00",
    "text": "Apprendista"
  },
  {
    "label": "Grade_01",
    "text": "Tirocinante"
  },
  {
    "label": "Grade_02",
    "text": "Carrierista"
  },
  {
    "label": "Grade_03",
    "text": "Promessa"
  },
  {
    "label": "Grade_04",
    "text": "Professionista"
  },
  {
    "label": "Grade_05",
    "text": "Professionista +1"
  },
  {
    "label": "Grade_06",
    "text": "Professionista +2"
  },
  {
    "label": "Grade_07",
    "text": "Professionista +3"
  },
  {
    "label": "Grade_08",
    "text": "Dirigente"
  },
  {
    "label": "Grade_Arbeiter_00",
    "text": "Apprendista"
  },
  {
    "label": "Grade_Arbeiter_01",
    "text": "Tirocinante"
  },
  {
    "label": "Grade_Arbeiter_02",
    "text": "Carrierista"
  },
  {
    "label": "Grade_Arbeiter_03",
    "text": "Promessa"
  },
  {
    "label": "Grade_Arbeiter_04",
    "text": "Professionista"
  },
  {
    "label": "Grade_Arbeiter_05",
    "text": "Professionista +1"
  },
  {
    "label": "Grade_Arbeiter_06",
    "text": "Professionista +2"
  },
  {
    "label": "Grade_Arbeiter_07",
    "text": "Professionista +3"
  },
  {
    "label": "Grade_Arbeiter_08",
    "text": "Dirigente"
  }
]