[
  {
    "label": "respawn_00",
    "text": "Eh, so we slipped up. Long as we have Lives left,\nwe're still good!"
  },
  {
    "label": "respawn_01",
    "text": "Welp. We got got. So let's go get 'em back!"
  },
  {
    "label": "respawn_02",
    "text": "We're not gonna go down like last time! C'mon, Eight!"
  },
  {
    "label": "respawn_03",
    "text": "This ain't over, Eight! We still got Lives, so we're\nstill in the fight!"
  },
  {
    "label": "respawn_04",
    "text": "This floor's tougher than it looks. Keep your chin\nup, Eight!"
  },
  {
    "label": "respawn_05",
    "text": "It's a tricky floor. But Eight and Pearl are the right\npeople to handle it."
  },
  {
    "label": "respawn_last_00",
    "text": "One more splat and we're toast! This time, anyway.\nBut we get as many next times as we want!"
  },
  {
    "label": "respawn_last_01",
    "text": "Last chance for this run, Eight. If we're going out,\nlet's make it a blaze of glory!"
  },
  {
    "label": "respawn_last_02",
    "text": "This is our last shot! I LOVE the feeling of it all riding\non one last chance. Get psyched!"
  },
  {
    "label": "respawn_last_03",
    "text": "Eight, you know you're on your last Life, right?\nBe extra careful!"
  },
  {
    "label": "respawn_last_04",
    "text": "Get splatted now and the run's over. Though you two\naren't the type to take that lying down."
  },
  {
    "label": "respawn_boss_00",
    "text": "Shoulda figured a boss would be tougher than normal.\nBut it messed with the wrong Octoling!"
  },
  {
    "label": "respawn_boss_01",
    "text": "We'll call that a test run. You'll win this time!\nGood luck!"
  },
  {
    "label": "respawn_boss_02",
    "text": "Good thing that wasn't your last Life. Wrap this up and\ncome back soon, OK?"
  },
  {
    "label": "respawn_last_boss_00",
    "text": "One more strike and we're out. Well, we're not letting\nthe game get called here, Eight!"
  },
  {
    "label": "respawn_last_boss_01",
    "text": "There's no fight harder than this one, I guess.\nThis is your last try for now, Eight! Make it count!"
  },
  {
    "label": "respawn_last_boss_02",
    "text": "One Life left. It's clutch time, you two."
  },
  {
    "label": "event_bonus_luck00",
    "text": "Whoa, you got a TON of chips just for this floor.\nPress {{icon id=\"74\" arg=\"0x0000803F00000000\"}} to pause and check out your {{icon id=\"72\" arg=\"0x0000803F00000000\"}}{{color id=\"4\"}}Palette{{color id=\"65535\"}}!"
  },
  {
    "label": "event_bonus_luck01",
    "text": "Oooh, scope out all the temporary Lucky chips! Good\nthings are coming our way, Eight. You'll see!"
  },
  {
    "label": "event_bonus_attack00",
    "text": "Whoa, you got a TON of chips just for this floor.\nPress {{icon id=\"74\" arg=\"0x0000803F00000000\"}} to pause and check out your {{icon id=\"72\" arg=\"0x0000803F00000000\"}}{{color id=\"4\"}}Palette{{color id=\"65535\"}}!"
  },
  {
    "label": "event_bonus_attack01",
    "text": "Oooh, scope out all the temporary Power chips! This'll\nbe like shooting Jelletons in a barrel!"
  },
  {
    "label": "event_bonus_move00",
    "text": "Whoa, you got a TON of chips just for this floor.\nPress {{icon id=\"74\" arg=\"0x0000803F00000000\"}} to pause and check out your {{icon id=\"72\" arg=\"0x0000803F00000000\"}}{{color id=\"4\"}}Palette{{color id=\"65535\"}}!"
  },
  {
    "label": "event_bonus_move01",
    "text": "Oooh, scope out all the temporary Mobility chips!\nStick and move, Eight, stick and move!"
  },
  {
    "label": "event_bonus_range00",
    "text": "Whoa, you got a TON of chips just for this floor.\nPress {{icon id=\"74\" arg=\"0x0000803F00000000\"}} to pause and check out your {{icon id=\"72\" arg=\"0x0000803F00000000\"}}{{color id=\"4\"}}Palette{{color id=\"65535\"}}!"
  },
  {
    "label": "event_bonus_range01",
    "text": "Oooh, scope out all the temporary Range chips! Lemme\nget my binoculars so I can see what you're splatting."
  },
  {
    "label": "event_bonus_continuity00",
    "text": "Whoa, you got a TON of chips just for this floor.\nPress {{icon id=\"74\" arg=\"0x0000803F00000000\"}} to pause and check out your {{icon id=\"72\" arg=\"0x0000803F00000000\"}}{{color id=\"4\"}}Palette{{color id=\"65535\"}}!"
  },
  {
    "label": "event_bonus_continuity01",
    "text": "Oooh, scope out all the temporary Support chips!\nThis floor's as good as cleared!"
  },
  {
    "label": "event_bonus_auto00",
    "text": "Whoa, you got a TON of chips just for this floor.\nPress {{icon id=\"74\" arg=\"0x0000803F00000000\"}} to pause and check out your {{icon id=\"72\" arg=\"0x0000803F00000000\"}}{{color id=\"4\"}}Palette{{color id=\"65535\"}}!"
  },
  {
    "label": "event_bonus_auto01",
    "text": "Oooh, scope out all the temporary Drone chips! Time to\ngo PEARLSERK! Stick close, Eight!"
  },
  {
    "label": "random_00",
    "text": "Any floor is a piece of cake for me and Eight!"
  },
  {
    "label": "random_01",
    "text": "Let's clear this floor quick so we can go hang out with\nMarina and Acht some more."
  },
  {
    "label": "random_02",
    "text": "Here goes. Team Eight rides again!"
  },
  {
    "label": "random_03",
    "text": "Good luck, Eight! You too, Pearl!"
  },
  {
    "label": "random_04",
    "text": "Stay safe, you two!"
  },
  {
    "label": "random_05",
    "text": "You've got this one, Eight. After all, Pearl's with you!"
  },
  {
    "label": "random_06",
    "text": "I know we're high up, but don't sweat it. You can clear\nany floor you put your mind to."
  },
  {
    "label": "random_07",
    "text": "The floors get rough up here. But you'll find your\nway through them."
  },
  {
    "label": "random_08",
    "text": "Eight. Pearl. We'll keep the elevator warm for you."
  },
  {
    "label": "random_09",
    "text": "We just gotta defend our turf, right? How hard\ncan it be?"
  },
  {
    "label": "random_10",
    "text": "Here we go with these things. Yo, Eight, see if you can\nget a hole in one!"
  },
  {
    "label": "random_11",
    "text": "Aw, c'mon, these cowards? Alright, Eight, what's our\nbattle plan here?"
  },
  {
    "label": "random_12",
    "text": "It's portal-smashing time! Let's get in there, Eight!"
  },
  {
    "label": "random_13",
    "text": "This is a \"shoot the tower to make it move\" floor,\nyeah? Don't get caught with an empty ink tank!"
  },
  {
    "label": "save_squid_move_00",
    "text": "You'll get a bonus if you don't swim around too much!\nBut like, how else are you supposed to get anywhere?"
  },
  {
    "label": "save_sub_weapon_00",
    "text": "Try not to use your sub weapon if you can help it!\nUnless, y'know, you gotta."
  },
  {
    "label": "save_jump_00",
    "text": "Clear the stage without jumping? For serious?\nThink you're up to it, Eight?"
  },
  {
    "label": "save_special_00",
    "text": "No specials?! Well, they're not off-limits, I guess.\nBut it might make a fun challenge."
  },
  {
    "label": "save_damage_00",
    "text": "Clear the floor without taking damage? Oh, well, I was\ngonna take a bunch, but NOW..."
  },
  {
    "label": "save_human_move_00",
    "text": "No running around this time, huh? Down with the\ntyranny of legs! TENTACLES FOR LIFE!"
  },
  {
    "label": "save_main_weapon_00",
    "text": "Your MAIN weapon is off-limits? You gotta win with\njust subs and specials? Oh, and me too. Well, maybe!"
  },
  {
    "label": "save_kite_move_00",
    "text": "Clear without gliding too much... Guess that means we\ncan't hang out! You can stop gliding with {{icon id=\"79\" arg=\"0x0000803F00000000\"}}."
  },
  {
    "label": "badevent_allpaint_00",
    "text": "Gross! The enemies got their ink all over the place.\nLet's paint it a cooler color!"
  },
  {
    "label": "badevent_unlucky_00",
    "text": "NO drops from enemies?! Guess we'll have to do this\nthe hard way, Eight!"
  },
  {
    "label": "badevent_nodrone_00",
    "text": "Yooo, Eight! I'm kinda stuck here. Good luck clearing\nthe floor without me!"
  },
  {
    "label": "badevent_enemypowerup_00",
    "text": "The enemies on this floor are gonna be a handful.\nWe gotta fight smart and...ugh...play it safe!"
  },
  {
    "label": "badevent_missile_00",
    "text": "Those flying things are gonna come at us thick and\nfast. Don't forget to look up, Eight!"
  },
  {
    "label": "badevent_fog_00",
    "text": "Who turned out the lights?! Stay alert, Eight, and don't\nrush into what you can't see!"
  },
  {
    "label": "badevent_allpaint_fog_00",
    "text": "It's too dark to see, AND the ground is all sticky?\nWell, it's still gonna take more than this to beat us!"
  },
  {
    "label": "badevent_missile_enemypowerup_00",
    "text": "We're gonna be fighting for our lives the whole time\nhere. Hope you're ready, Eight!"
  },
  {
    "label": "badevent_nodrone_unlucky",
    "text": "Yooo, Eight! Without me or item drops, it's all up to\nyou. But I got faith! Show me what you got!"
  },
  {
    "label": "HackingRetry_First",
    "text": "Hey, Eight! Thanks to my hacks, you can spend some\nMembux to continue."
  },
  {
    "label": "HackingRetry_Random1",
    "text": "Bad news: we bit the dust. Good news: they can't\ncount us out yet!"
  },
  {
    "label": "HackingRetry_Random2",
    "text": "Eh, you win some, you lose some. And we just lost,\nso that means we're due a win!"
  },
  {
    "label": "HackingRetry_Random3",
    "text": "We don't give up—we GET up! C'mon, Eight, let's get\nright back in there!"
  },
  {
    "label": "HackingRetry_Random4",
    "text": "Yooo, what?! I ain't gonna stop there if you won't!"
  },
  {
    "label": "HackingRetry_Random5",
    "text": "Let's try this again, Eight. This time there's no stopping\nus until it's done!"
  },
  {
    "label": "checkpoint_00",
    "text": "Yesss! We hit a checkpoint!"
  },
  {
    "label": "checkpoint_01",
    "text": "Good going, Eight!"
  },
  {
    "label": "checkpoint_02",
    "text": "Things are going our way!"
  },
  {
    "label": "checkpoint_03",
    "text": "You're doing great, Eight!"
  },
  {
    "label": "checkpoint_04",
    "text": "Keep it up, Eight!"
  },
  {
    "label": "checkpoint_05",
    "text": "You're crushing it, Eight!"
  },
  {
    "label": "checkpoint_06",
    "text": "Nice work. Just don't get careless."
  },
  {
    "label": "checkpoint_07",
    "text": "Perfect. Keep it up."
  },
  {
    "label": "checkpoint_08",
    "text": "Hit a checkpoint, Eight? Smooth."
  },
  {
    "label": "checkpoint_final_00",
    "text": "BOOYAH! Now for the big finish!"
  },
  {
    "label": "checkpoint_final_01",
    "text": "Looking good! Just a little to go!"
  },
  {
    "label": "checkpoint_final_02",
    "text": "You're nearly there, Eight! Stay focused!"
  },
  {
    "label": "checkpoint_final_03",
    "text": "You're in the homestretch, Eight!"
  },
  {
    "label": "checkpoint_final_05",
    "text": "Almost there. Bring it home, Eight."
  },
  {
    "label": "checkpoint_final_spawner_00",
    "text": "BOOM! Just one left!"
  },
  {
    "label": "checkpoint_final_spawner_01",
    "text": "One to go, Eight!"
  },
  {
    "label": "checkpoint_final_spawner_02",
    "text": "Next one finishes it."
  },
  {
    "label": "checkpoint_final_spawner_03",
    "text": "One big boom left!"
  },
  {
    "label": "checkpoint_final_ball_00",
    "text": "Sweet! Almost got 'em all!"
  },
  {
    "label": "checkpoint_final_ball_01",
    "text": "One more and you're done!"
  },
  {
    "label": "checkpoint_final_ball_02",
    "text": "You're close, Eight."
  },
  {
    "label": "checkpoint_final_ball_03",
    "text": "Score! Now let's get that last one."
  },
  {
    "label": "checkpoint_final_chase_00",
    "text": "Almost done, Eight."
  },
  {
    "label": "checkpoint_final_chase_01",
    "text": "Just gotta catch that last one!"
  },
  {
    "label": "checkpoint_final_chase_02",
    "text": "Noice! This one's almost in the bag!"
  },
  {
    "label": "checkpoint_final_chase_03",
    "text": "Last one, Eight! Good luck!"
  },
  {
    "label": "checkpoint_final_lift_00",
    "text": "We're at the final push! Just gotta get it to the goal!"
  },
  {
    "label": "checkpoint_final_lift_01",
    "text": "You're so close to the goal! Come on..."
  },
  {
    "label": "checkpoint_final_lift_02",
    "text": "Don't stop till it's done, Eight."
  },
  {
    "label": "checkpoint_final_area_00",
    "text": "Time's almost up! Keep it together!"
  },
  {
    "label": "checkpoint_final_area_01",
    "text": "Almost done, Eight! Hold the line!"
  },
  {
    "label": "checkpoint_final_area_02",
    "text": "You're nearly in the clear, Eight."
  },
  {
    "label": "armorLv0_00",
    "text": "GUH! Mayday, Eight! Get outta there!"
  },
  {
    "label": "armorLv0_01",
    "text": "This ain't good, but keep a cool head, and you'll be OK!"
  },
  {
    "label": "armorLv0_02",
    "text": "Eight! Find a safe place to recover!"
  },
  {
    "label": "armorLv0_03",
    "text": "Oh no! Eight, are you OK?"
  },
  {
    "label": "armorLv0_04",
    "text": "Stay calm, Eight. Assess the situation."
  },
  {
    "label": "armorLv0_05",
    "text": "That's a problem. Lay low for a bit, Eight."
  },
  {
    "label": "drone_microLaser_00",
    "text": "Killer Wail ready! BZAAAM!"
  },
  {
    "label": "drone_microLaser_01",
    "text": "NOW HEAR THIS! Killer Wail!"
  },
  {
    "label": "drone_microLaser_02",
    "text": "All warmed up for a Killer Wail!"
  },
  {
    "label": "drone_tornado_00",
    "text": "No escape from my Inkstrikes!"
  },
  {
    "label": "drone_tornado_01",
    "text": "Eat Inkstrike, suckers!"
  },
  {
    "label": "drone_tornado_02",
    "text": "Inkstrike inkcoming! BAM!"
  },
  {
    "label": "drone_bomb_00",
    "text": "BOOM!"
  },
  {
    "label": "drone_bomb_01",
    "text": "Get splatted!"
  },
  {
    "label": "drone_bomb_02",
    "text": "The bomb party don't stop!"
  },
  {
    "label": "drone_trap_00",
    "text": "Here's a li'l Ink Mine for ya!"
  },
  {
    "label": "drone_trap_01",
    "text": "Laying an Ink Mine! Aaand done."
  },
  {
    "label": "drone_trap_02",
    "text": "How's this spot for an Ink Mine?"
  },
  {
    "label": "drone_item_00",
    "text": "Got an item for you, Eight!"
  },
  {
    "label": "drone_item_01",
    "text": "Yo, Eight! Grab this item!"
  },
  {
    "label": "drone_item_02",
    "text": "Item hot off the press, Eight!"
  },
  {
    "label": "drone_stan_00",
    "text": "Get ready for my Step-Off Song!"
  },
  {
    "label": "drone_stan_01",
    "text": "My secret weapon: the Step-Off Song!"
  },
  {
    "label": "drone_stan_02",
    "text": "Crank it up! It's Step-Off Song time!"
  },
  {
    "label": "Floor_Shop_Enter_First",
    "text": "Oh, so that's the vending machine! Let's see what\nwe can get outta this thing."
  },
  {
    "label": "Floor_Shop_Leave_First",
    "text": "Done shopping, Eight? Cool. Nothing else to do here\nbut head on back to the {{color id=\"4\"}}elevator{{color id=\"65535\"}}!"
  },
  {
    "label": "Floor_Shop_00",
    "text": "I notice the higher we go, the more Lives cost."
  },
  {
    "label": "Floor_Shop_01",
    "text": "It's so quiet here without any Jelletons bugging us.\nI'm bored. Let's go back to the elevator!"
  },
  {
    "label": "Floor_Shop_02",
    "text": "Everything checks out! On to the next floor!"
  },
  {
    "label": "Floor_Shop_03",
    "text": "Yo, check under the vending machine. Might be some\nMembux there! Or...not."
  },
  {
    "label": "Floor_Shop_04",
    "text": "Get back to the elevator when you're done, Eight."
  },
  {
    "label": "Floor_Shop_05",
    "text": "Pick up anything interesting, Eight?"
  },
  {
    "label": "Floor_Shop_06",
    "text": "These vending machines don't sell snacks? What a rip."
  },
  {
    "label": "Floor_Shop_07",
    "text": "Enjoyed your downtime, Eight?"
  },
  {
    "label": "Floor_Shop_08",
    "text": "Sigh. It's too quiet. I hate quiet."
  },
  {
    "label": "Floor_Shop_09",
    "text": "You get everything on your shopping list, Eight?"
  },
  {
    "label": "Floor_Shop_10",
    "text": "I always get thirsty when I see a vending machine.\nNot that I can drink anything like this."
  },
  {
    "label": "Floor_Shop_11",
    "text": "Where have I seen that vending machine before?"
  },
  {
    "label": "Floor_Shop_12",
    "text": "Nice of them to stock extra Lives when you're\nrunning low."
  },
  {
    "label": "Floor_Shop_13",
    "text": "They won't stock color chips if the Palette is full.\nInstead, you can buy Prlz and sub or special weapons."
  },
  {
    "label": "Floor_Shop_14",
    "text": "If there are color chips for sale, you should stock up!\nAlthough they jack up the prices with every purchase."
  },
  {
    "label": "Floor_Shop_15",
    "text": "You can get rock-bottom prices with the {{color id=\"4\"}}Vending-\nMachine Discount{{color id=\"65535\"}} hack. Ask for it outside the Spire!"
  },
  {
    "label": "Floor_Shop_16",
    "text": "The {{color id=\"4\"}}Vending-Machine Reset{{color id=\"65535\"}} hack lets you change the\nselection. Ask me about it outside the Spire!"
  },
  {
    "label": "Floor_Shop_17",
    "text": "Did you find anything worth buying, Eight?"
  },
  {
    "label": "Floor_Shop_18",
    "text": "Rest while you can."
  },
  {
    "label": "Floor_Shop_19",
    "text": "Skipping a floor to go shopping? Works for me!"
  },
  {
    "label": "Return_Elevator",
    "text": "Uh-oh, you don't have enough Membux to hightail it.\nGuess we're doing this the hard way!"
  }
]