[
  {
    "label": "Msg_ConnectOnline",
    "text": "Connessione a Internet in corso..."
  },
  {
    "label": "Msg_NetworkReady_Local",
    "text": "Preparazione della comunicazione\nlocale in corso..."
  },
  {
    "label": "Msg_NetworkReady_Lan",
    "text": "Preparazione della connessione LAN in corso..."
  },
  {
    "label": "Msg_Match_Fix",
    "text": "La battaglia comincia!"
  },
  {
    "label": "Msg_Match_Fix_Coop",
    "text": "Al lavoro!"
  },
  {
    "label": "Msg_Match_Fix_CoopLocal",
    "text": "La battaglia comincia!"
  },
  {
    "label": "Msg_StartSoloConfirm_Regular",
    "text": "Vuoi partecipare a una\npartita amichevole?\n(La battaglia comincerà una volta\nraggiunti otto partecipanti.)"
  },
  {
    "label": "BtnL_StartSoloConfirm_Regular",
    "text": "No"
  },
  {
    "label": "BtnR_StartSoloConfirm_Regular",
    "text": "Sì"
  },
  {
    "label": "Msg_StartSoloConfirm_BankaraOpen",
    "text": "Vuoi partecipare a una\npartita anarchica?\n(La battaglia comincerà una volta\nraggiunti otto partecipanti.)"
  },
  {
    "label": "BtnL_StartSoloConfirm_BankaraOpen",
    "text": "No"
  },
  {
    "label": "BtnR_StartSoloConfirm_BankaraOpen",
    "text": "Sì"
  },
  {
    "label": "Msg_StartSoloConfirm_XMatch",
    "text": "Vuoi partecipare a una\npartita X?\n(La battaglia comincerà una volta\nraggiunti otto partecipanti.)"
  },
  {
    "label": "BtnL_StartSoloConfirm_XMatch",
    "text": "No"
  },
  {
    "label": "BtnR_StartSoloConfirm_XMatch",
    "text": "Sì"
  },
  {
    "label": "Msg_StartSoloConfirm_FestRegular",
    "text": "Vuoi partecipare a una\npartita tematica?\n(La battaglia comincerà una volta\nraggiunti otto partecipanti.)"
  },
  {
    "label": "BtnL_StartSoloConfirm_FestRegular",
    "text": "No"
  },
  {
    "label": "BtnR_StartSoloConfirm_FestRegular",
    "text": "Sì"
  },
  {
    "label": "Msg_StartSoloConfirm_FestChallenge",
    "text": "Vuoi partecipare a una\npartita tematica (Sfida)?\n(La battaglia comincerà una volta\nraggiunti otto partecipanti.)"
  },
  {
    "label": "BtnL_StartSoloConfirm_FestChallenge",
    "text": "No"
  },
  {
    "label": "BtnR_StartSoloConfirm_FestChallenge",
    "text": "Sì"
  },
  {
    "label": "Msg_StartSoloConfirm_FestTriColor",
    "text": "Vuoi partecipare a\nuno scontro tricolore?\n(La battaglia comincerà una volta\nraggiunti otto partecipanti.)"
  },
  {
    "label": "BtnL_StartSoloConfirm_FestTriColor",
    "text": "No"
  },
  {
    "label": "BtnR_StartSoloConfirm_FestTriColor",
    "text": "Sì"
  },
  {
    "label": "Msg_StartSoloContinueConfirm_Bankara",
    "text": "Vuoi riprendere la sfida da dove avevi\ninterrotto? (vittorie: {{number index=\"0\" type=\"1\" arg3=\"0\" arg4=\"0\"}}, sconfitte: {{number index=\"1\" type=\"1\" arg3=\"0\" arg4=\"0\"}})"
  },
  {
    "label": "BtnL_StartSoloContinueConfirm_Bankara",
    "text": "No"
  },
  {
    "label": "BtnR_StartSoloContinueConfirm_Bankara",
    "text": "Sì"
  },
  {
    "label": "Msg_StartSoloContinueConfirm_XMatch",
    "text": "Vuoi riprendere la sfida da dove avevi\ninterrotto? (vittorie: {{number index=\"0\" type=\"1\" arg3=\"0\" arg4=\"0\"}}, sconfitte: {{number index=\"1\" type=\"1\" arg3=\"0\" arg4=\"0\"}})"
  },
  {
    "label": "BtnL_StartSoloContinueConfirm_XMatch",
    "text": "No"
  },
  {
    "label": "BtnR_StartSoloContinueConfirm_XMatch",
    "text": "Sì"
  },
  {
    "label": "Msg_StartSoloConfirm_League",
    "text": "Vuoi partecipare a\nuna partita evento?\n(La battaglia comincerà appena\nci saranno abbastanza partecipanti.)"
  },
  {
    "label": "BtnL_StartSoloConfirm_League",
    "text": "No"
  },
  {
    "label": "BtnR_StartSoloConfirm_League",
    "text": "Sì"
  },
  {
    "label": "Msg_StartSoloConfirm_Coop",
    "text": "Vuoi unirti a un gruppo di lavoro?"
  },
  {
    "label": "BtnL_StartSoloConfirm_Coop",
    "text": "No"
  },
  {
    "label": "BtnR_StartSoloConfirm_Coop",
    "text": "Sì"
  },
  {
    "label": "Msg_StartSoloConfirm_CoopBigRun",
    "text": "Vuoi unirti a un gruppo di lavoro per la Big Run?"
  },
  {
    "label": "BtnL_StartSoloConfirm_CoopBigRun",
    "text": "No"
  },
  {
    "label": "BtnR_StartSoloConfirm_CoopBigRun",
    "text": "Sì"
  },
  {
    "label": "Msg_StartSoloConfirm_CoopTeamContest",
    "text": "Vuoi partecipare a una sfida tra colleghi?"
  },
  {
    "label": "BtnL_StartSoloConfirm_CoopTeamContest",
    "text": "No"
  },
  {
    "label": "BtnR_StartSoloConfirm_CoopTeamContest",
    "text": "Sì"
  },
  {
    "label": "Msg_QuitConfirm",
    "text": "Vuoi abbandonare la stanza?"
  },
  {
    "label": "BtnL_QuitConfirm",
    "text": "No"
  },
  {
    "label": "BtnR_QuitConfirm",
    "text": "Sì"
  },
  {
    "label": "Msg_QuitConfirm_RemoteRoomMaster",
    "text": "Vuoi abbandonare la stanza?\n\nLa stanza resta aperta, quindi se abbandoni e rientri,\npuoi comunque iniziare una partita privata."
  },
  {
    "label": "BtnL_QuitConfirm_RemoteRoomMaster",
    "text": "No"
  },
  {
    "label": "BtnR_QuitConfirm_RemoteRoomMaster",
    "text": "Sì"
  },
  {
    "label": "Msg_QuitConfirm_Hammer",
    "text": "Vuoi abbandonare la stanza di Gestione tornei?"
  },
  {
    "label": "BtnL_QuitConfirm_Hammer",
    "text": "No"
  },
  {
    "label": "BtnR_QuitConfirm_Hammer",
    "text": "Sì"
  },
  {
    "label": "Msg_DeactivateConfirm",
    "text": "Vuoi chiudere questa stanza?\n(Tutti i partecipanti saranno espulsi.)"
  },
  {
    "label": "BtnL_DeactivateConfirm",
    "text": "No"
  },
  {
    "label": "BtnR_DeactivateConfirm",
    "text": "Sì"
  },
  {
    "label": "Msg_MemberShortage",
    "text": "Non ci sono ancora abbastanza giocatori\nnella stanza. Aspetta che ne arrivino altri..."
  },
  {
    "label": "Msg_NotAllReady",
    "text": "Attendi che tutti siano pronti."
  },
  {
    "label": "Msg_NotJoinableFriend",
    "text": "Non puoi unirti a questo giocatore."
  },
  {
    "label": "Msg_FullParticipantFriend",
    "text": "Il gruppo è al completo."
  },
  {
    "label": "Msg_AnotherFest",
    "text": "Non puoi partecipare a festival\nche si tengono in altre regioni."
  },
  {
    "label": "Msg_AnotherTeam",
    "text": "Non puoi partecipare perché questo\ngiocatore appartiene a un'altra squadra."
  },
  {
    "label": "Msg_LockerSaveWait",
    "text": "Salvataggio in corso..."
  },
  {
    "label": "Msg_LockerResetConfirm",
    "text": "Vuoi davvero svuotare il tuo armadietto\ne rimuovere tutti gli adesivi?"
  },
  {
    "label": "BtnL_LockerResetConfirm",
    "text": "No"
  },
  {
    "label": "BtnR_LockerResetConfirm",
    "text": "Sì"
  },
  {
    "label": "Msg_LockerMatchmakeEdit",
    "text": "Non puoi modificare il tuo armadietto\ndurante la ricerca dei giocatori."
  },
  {
    "label": "Msg_NotJoinableWhileMatching",
    "text": "Non puoi unirti a un amico durante\nla ricerca dei giocatori."
  },
  {
    "label": "Msg_NotDownloadableWhileMatching",
    "text": "Il download non è disponibile durante\nla ricerca dei giocatori."
  },
  {
    "label": "Msg_FestRegion_Notice",
    "text": "Vuoi cambiare la regione del festival?\n\nNon potrai cambiarla di nuovo per un\ncerto periodo di tempo dopo aver preso\nparte al festival."
  },
  {
    "label": "BtnL_FestRegion_Notice",
    "text": "No"
  },
  {
    "label": "BtnR_FestRegion_Notice",
    "text": "Sì"
  },
  {
    "label": "Msg_Processing_MakeRoom",
    "text": "Creazione della stanza in corso..."
  },
  {
    "label": "Msg_Processing_Join",
    "text": "Accesso in corso..."
  },
  {
    "label": "Msg_Processing_BreakInto",
    "text": "Accesso in corso..."
  },
  {
    "label": "Msg_Unlocked",
    "text": "Non hai ancora sbloccato questa modalità."
  },
  {
    "label": "Msg_AnotherLobby_Versus",
    "text": "Visita la lobby per partecipare a una battaglia."
  },
  {
    "label": "Msg_AnotherLobby_MiniGame",
    "text": "Visita la lobby per giocare a Splattanza."
  },
  {
    "label": "Msg_AnotherLobby_Coop",
    "text": "Cerchi un turno di Salmon Run?\nVisita la Ursus & Co!"
  },
  {
    "label": "Msg_NeedVote",
    "text": "Per partecipare a un festival, visita il\nterminal di voto in piazza e scegli una\nsquadra a cui unirti."
  },
  {
    "label": "Msg_NotFoundScenario",
    "text": "Non hai lavori recenti salvati.\nPer salvare un lavoro, usa il terminal\nalla Ursus & Co."
  },
  {
    "label": "Msg_MemberFixing",
    "text": "Finalizzazione giocatori..."
  },
  {
    "label": "Msg_CoopManualConfirmKi",
    "text": "Vuoi ripassare le nozioni base?"
  },
  {
    "label": "BtnL_CoopManualConfirmKi",
    "text": "No"
  },
  {
    "label": "BtnR_CoopManualConfirmKi",
    "text": "Sì"
  },
  {
    "label": "Msg_CoopManualConfirmHo",
    "text": "Vuoi riscoprire come si aumenta la produttività?"
  },
  {
    "label": "BtnL_CoopManualConfirmHo",
    "text": "No"
  },
  {
    "label": "BtnR_CoopManualConfirmHo",
    "text": "Sì"
  },
  {
    "label": "Msg_Disconnecting",
    "text": "Attendi..."
  },
  {
    "label": "Msg_CodeInputExitConfirm",
    "text": "Tornerai allo schermo precedente.\nI dati inseriti verranno cancellati.\nI caratteri già inseriti non verranno salvati."
  },
  {
    "label": "BtnL_CodeInputExitConfirm",
    "text": "Annulla"
  },
  {
    "label": "BtnR_CodeInputExitConfirm",
    "text": "OK"
  },
  {
    "label": "Msg_PlayerNameNG_NumberOver",
    "text": "I nickname possono contenere un massimo di 5 numeri."
  },
  {
    "label": "Msg_PlayerNameNG_SpaceOnly",
    "text": "I nickname non possono essere vuoti."
  },
  {
    "label": "Msg_PlayerNameNG_SharpExists",
    "text": "I nickname non possono contenere il simbolo #."
  },
  {
    "label": "Msg_PlayerNameNG_ProfanityWordExists",
    "text": "Questo nickname contiene una parola che non può essere usata."
  },
  {
    "label": "Msg_CantReport",
    "text": "Hai raggiunto il numero massimo di segnalazioni\nconsentite entro un certo periodo di tempo. Non\npuoi inviare altre segnalazioni al momento. Se ti\nserve assistenza immediata, visita il nostro sito\nInternet o contatta il nostro Centro Assistenza."
  },
  {
    "label": "Msg_Reporting",
    "text": "Invio segnalazione in corso..."
  },
  {
    "label": "Msg_Reported",
    "text": "Segnalazione inviata.\nLe segnalazioni vengono valutate in rapporto alle\nlinee guida relative alla community di Nintendo,\nma non riceverai alcuna notifica sull'esito. Grazie\ndi far parte della nostra fantastica community."
  },
  {
    "label": "Msg_OnlinePenalty",
    "text": "La tua ultima sessione online non si è\nchiusa correttamente. Se capiterà altre\nvolte, il gioco online potrebbe esserti\nprecluso per un po' di tempo. Verifica\nla tua connessione a Internet e riprova."
  },
  {
    "label": "Msg_OnlinePenalty_Minutes",
    "text": "La tua ultima sessione online non si è\nchiusa correttamente, per cui non è\npossibile iniziare una nuova sessione\nonline. Verifica la tua connessione a\nInternet e riprova fra {{number index=\"0\" type=\"1\" arg3=\"0\" arg4=\"0\"}} min."
  },
  {
    "label": "Msg_CoopGradeGuide",
    "text": "Se ti unisci a un gruppo di giocatori con una\nvalutazione molto diversa dalla tua, la tua\nvalutazione potrebbe non migliorare.\nVuoi partecipare lo stesso?"
  },
  {
    "label": "BtnL_CoopGradeGuide",
    "text": "No"
  },
  {
    "label": "BtnR_CoopGradeGuide",
    "text": "Sì"
  },
  {
    "label": "Msg_CoopGradeReset",
    "text": "Vuoi abbassare la tua valutazione di lavoro\na: \"{{string index=\"0\" arg2=\"12\"}} {{number index=\"0\" type=\"2\" arg3=\"0\" arg4=\"0\"}}\"?"
  },
  {
    "label": "BtnL_CoopGradeReset",
    "text": "No"
  },
  {
    "label": "BtnR_CoopGradeReset",
    "text": "Sì"
  },
  {
    "label": "Msg_CoopGradeResetDone",
    "text": "La tua valutazione di lavoro è stata abbassata\na: \"{{string index=\"0\" arg2=\"12\"}} {{number index=\"0\" type=\"2\" arg3=\"0\" arg4=\"0\"}}\"."
  },
  {
    "label": "Msg_ExplainAutoNotificaton",
    "text": "Le notifiche relative al tuo stato saranno\ninviate automaticamente alle lobby dei tuoi\namici e ai giocatori nello stesso canale. Puoi\nattivare o disattivare le notifiche selezionando\nOpzioni > Altro nel menu principale."
  },
  {
    "label": "Msg_PhotoUnavailable",
    "text": "Non hai foto da mettere in mostra!\nPer scattare una foto, premi {{icon id=\"6\" arg=\"0x0000803F00000000\"}} nelle aree\ndove vedi l'icona della fotocamera in basso\na destra nello schermo, come la piazza."
  },
  {
    "label": "Msg_ReservedReplayDownloadConfirm",
    "text": "Hai un replay contrassegnato per il download.\nVuoi scaricarlo ora?"
  },
  {
    "label": "BtnL_ReservedReplayDownloadConfirm",
    "text": "No"
  },
  {
    "label": "BtnR_ReservedReplayDownloadConfirm",
    "text": "Sì"
  },
  {
    "label": "Msg_ReplayNotificationDesc",
    "text": "Quando carichi un replay, i tuoi amici\nriceveranno una notifica.\n(La notifica non verrà inviata ai giocatori\nnello stesso canale che non sono tuoi amici.)"
  },
  {
    "label": "Msg_ReplayNotificationDownloadSuccess",
    "text": "Puoi visualizzare i replay scaricati\nal terminale della lobby."
  },
  {
    "label": "Msg_RecruitNotification",
    "text": "Notifica di reclutamento inviata ai tuoi amici\ne ai giocatori nel tuo canale!\n(Puoi inviare nuovamente questa notifica tra\nun po' di tempo, se lo desideri.)"
  },
  {
    "label": "Msg_RecruitFullMember",
    "text": "La stanza è piena.\nNon puoi reclutare altri membri."
  },
  {
    "label": "Msg_DescribeXRankingRegion",
    "text": "Le partite X sono divise in due gruppi,\n{{color id=\"1\"}}gruppo Sepia {{color id=\"65535\"}}e {{color id=\"1\"}}gruppo Arome{{color id=\"65535\"}}.\n\nPrima di iniziare, devi unirti al gruppo\nche meglio corrisponde alla tua posizione."
  },
  {
    "label": "Msg_ConfirmXRankingRegion",
    "text": "È davvero questo il gruppo che meglio\ncorrisponde alla tua posizione? Non potrai\ncambiarlo fino alla prossima stagione.\n\n{{color id=\"1\"}}{{size value=\"150\"}}{{string value=\"SelectedXBattleDivision\" arg1=\"0\" arg3=\"0\"}}{{size value=\"100\"}}{{color id=\"65535\"}}\n{{size value=\"75\"}}({{string value=\"SelectedXBattleRegion\" arg1=\"0\" arg3=\"0\"}}){{size value=\"100\"}}"
  },
  {
    "label": "BtnL_ConfirmXRankingRegion",
    "text": "Cambia"
  },
  {
    "label": "BtnR_ConfirmXRankingRegion",
    "text": "OK"
  },
  {
    "label": "Msg_SelectXRankingRegion",
    "text": "A quale gruppo vuoi unirti?\n\n{{color id=\"1\"}}{{size value=\"150\"}}Gruppo Sepia{{size value=\"100\"}}{{color id=\"65535\"}}\n{{size value=\"75\"}}(Giappone/Hong Kong/Corea del Sud/Australia/Nuova Zelanda){{size value=\"100\"}}\n\n{{size value=\"150\"}}{{color id=\"1\"}}Gruppo Arome{{color id=\"65535\"}}{{size value=\"100\"}}\n{{size value=\"75\"}}(Americhe/Europa){{size value=\"100\"}}"
  },
  {
    "label": "BtnL_SelectXRankingRegion",
    "text": "Gruppo Sepia"
  },
  {
    "label": "BtnR_SelectXRankingRegion",
    "text": "Gruppo Arome"
  },
  {
    "label": "Msg_NoticeXRankingRegion",
    "text": "È davvero questo il gruppo che meglio\ncorrisponde alla tua posizione? Non potrai\ncambiarlo fino alla prossima stagione.\n\n{{color id=\"1\"}}{{size value=\"150\"}}{{string value=\"SelectedXBattleDivision\" arg1=\"0\" arg3=\"0\"}}{{size value=\"100\"}}{{color id=\"65535\"}}\n{{size value=\"75\"}}({{string value=\"SelectedXBattleRegion\" arg1=\"0\" arg3=\"0\"}}){{size value=\"100\"}}\n\nNota: scegliere il gruppo non corretto potrebbe\ncausare ritardi, difficoltà nella ricerca dei giocatori\ne altri problemi relativi all'esperienza di gioco."
  },
  {
    "label": "BtnL_NoticeXRankingRegion",
    "text": "Scegli di nuovo"
  },
  {
    "label": "BtnR_NoticeXRankingRegion",
    "text": "OK"
  },
  {
    "label": "Msg_FirstPlayerNameAlias",
    "text": "Scegliendo un alias potrai partecipare alle\npartite private senza usare il solito nickname."
  },
  {
    "label": "Msg_ConfirmPlayerNameAlias",
    "text": "Hai scelto:\n{{color id=\"1\"}}{{string index=\"0\" arg2=\"0\"}}{{color id=\"65535\"}}\n\nVuoi usarlo nelle partite private?"
  },
  {
    "label": "BtnL_ConfirmPlayerNameAlias",
    "text": "No"
  },
  {
    "label": "BtnR_ConfirmPlayerNameAlias",
    "text": "Sì"
  },
  {
    "label": "Msg_UdemaeReset_Already",
    "text": "Puoi resettare il tuo rango solo una volta\na stagione, quindi ora non puoi più farlo."
  },
  {
    "label": "Msg_UdemaeReset_Confirm1",
    "text": "Vuoi resettare il tuo rango a {{string value=\"SeasonRank\" arg1=\"0\" arg3=\"0\"}}?\nPuoi farlo solo una volta a stagione."
  },
  {
    "label": "BtnL_UdemaeReset_Confirm1",
    "text": "No"
  },
  {
    "label": "BtnR_UdemaeReset_Confirm1",
    "text": "Sì"
  },
  {
    "label": "Msg_UdemaeReset_Confirm2",
    "text": "Vuoi davvero resettare il tuo rango?"
  },
  {
    "label": "BtnL_UdemaeReset_Confirm2",
    "text": "No"
  },
  {
    "label": "BtnR_UdemaeReset_Confirm2",
    "text": "Sì"
  },
  {
    "label": "Msg_UdemaeReset_Processing",
    "text": "Attendi..."
  },
  {
    "label": "Msg_UdemaeReset_Done",
    "text": "Il rango è stato resettato a {{string value=\"SeasonRank\" arg1=\"0\" arg3=\"0\"}}."
  },
  {
    "label": "Msg_MiniGame_AnyoneInBattle",
    "text": "Non puoi chiudere una stanza dove\nc'è ancora un giocatore in partita."
  },
  {
    "label": "Msg_CoopPrivate_ScenarioApplied",
    "text": "Il giocatore ospitante ha scelto\nuno scenario di lavoro."
  },
  {
    "label": "Msg_CoopPrivate_InvalidScenario",
    "text": "Impossibile affrontare questo scenario di\nlavoro a causa di un problema con i dati."
  },
  {
    "label": "Msg_CoopShiftBoard_WaitingForResult",
    "text": "I risultati di questa sfida tra colleghi sono ancora\nin fase di elaborazione. Presto verranno annunciati!"
  },
  {
    "label": "Msg_Channel_Description",
    "text": "Inserisci il nome del canale a cui vuoi unirti.\n\nIn seguito, potrai inviare notifiche e riceverne\ndagli altri giocatori presenti nel canale."
  },
  {
    "label": "BtnL_Channel_Description",
    "text": "Meglio di no"
  },
  {
    "label": "BtnR_Channel_Description",
    "text": "OK, ci sto"
  },
  {
    "label": "Msg_Channel_ConnectConfrim",
    "text": "Hai inserito\n{{color id=\"1\"}}{{fun_0002_0002 arg=\"0x0000390306002E002E002E00\"}}{{color id=\"65535\"}}\nVuoi unirti a questo canale?\n\nIl collegamento al canale avverrà automaticamente.\nPer abbandonare un canale, apri il menu battaglie,\nseleziona Notifiche e premi {{icon id=\"5\" arg=\"0x0000803F00000000\"}}."
  },
  {
    "label": "BtnL_Channel_ConnectConfrim",
    "text": "No"
  },
  {
    "label": "BtnR_Channel_ConnectConfrim",
    "text": "Sì"
  },
  {
    "label": "Msg_Channel_ConnectDone",
    "text": "Ora fai parte del canale\n{{color id=\"1\"}}{{fun_0002_0002 arg=\"0x0000390306002E002E002E00\"}}{{color id=\"65535\"}}"
  },
  {
    "label": "Msg_Channel_Processing",
    "text": "Attendi..."
  },
  {
    "label": "Msg_ChannelNameNG_FirstChar",
    "text": "Il nome non può iniziare con un numero o con\nuna combinazione di numeri e trattini bassi."
  },
  {
    "label": "Msg_ChannelNameNG_Char",
    "text": "È presente un carattere inutilizzabile."
  },
  {
    "label": "Msg_ChannelNameNG_Word",
    "text": "È presente una parola inutilizzabile."
  },
  {
    "label": "Msg_ChannelNameNG_PunctuationOnly",
    "text": "Non è possibile usare un nome composto\nsolo da trattini bassi."
  },
  {
    "label": "Msg_Channel_DisconnectConfrim",
    "text": "Vuoi abbandonare questo canale?\n{{color id=\"1\"}}{{fun_0002_0002 arg=\"0x0000390306002E002E002E00\"}}{{color id=\"65535\"}}"
  },
  {
    "label": "BtnL_Channel_DisconnectConfrim",
    "text": "No"
  },
  {
    "label": "BtnR_Channel_DisconnectConfrim",
    "text": "Sì"
  },
  {
    "label": "Msg_Channel_DisconnectDone",
    "text": "Hai abbandonato il canale\n{{color id=\"1\"}}{{fun_0002_0002 arg=\"0x0000390306002E002E002E00\"}}{{color id=\"65535\"}}"
  },
  {
    "label": "Msg_WeaponDuplication",
    "text": "Non puoi scegliere la stessa arma\ndi un compagno."
  },
  {
    "label": "Msg_WeaponMayDiffer",
    "text": "Se ti unisci a una sfida tra colleghi in una\nsquadra da 2, potresti ricevere un'arma\ndiversa da quella che hai selezionato."
  },
  {
    "label": "Msg_Jukebox_First",
    "text": "Questo è il jukebox! Puoi usarlo per\nrichiedere una canzone da riprodurre\nnella lobby. Costa {{color id=\"1\"}}100 {{color id=\"65535\"}}{{icon id=\"39\" arg=\"0x295C8F3F00000000\"}} a canzone."
  },
  {
    "label": "Msg_Jukebox_StopConfirm",
    "text": "Vuoi annullare la richiesta?"
  },
  {
    "label": "BtnL_Jukebox_StopConfirm",
    "text": "No"
  },
  {
    "label": "BtnR_Jukebox_StopConfirm",
    "text": "Sì"
  },
  {
    "label": "Msg_Jukebox_NoMoney",
    "text": "Non hai abbastanza denaro."
  },
  {
    "label": "Msg_LeagueInvalidWeapon",
    "text": "Non puoi partecipare a questa partita\nevento con l'arma che hai equipaggiato.\nVuoi cambiarla?"
  },
  {
    "label": "BtnL_LeagueInvalidWeapon",
    "text": "No"
  },
  {
    "label": "BtnR_LeagueInvalidWeapon",
    "text": "Sì"
  },
  {
    "label": "Msg_LeagueNoWeapon",
    "text": "Non hai armi che puoi usare in questa\npartita evento. Se vuoi partecipare, visita\nl'Antica armeria per ottenerne una!"
  },
  {
    "label": "Msg_LeagueWeaponInvalidOnReady",
    "text": "Non puoi partecipare a questa partita\nevento con l'arma che hai equipaggiato.\nPuoi cambiare l'arma nel menu Spogliatoio {{icon id=\"5\" arg=\"0x0000803F00000000\"}}."
  },
  {
    "label": "Msg_CreateRoomWhenRoomKeeperExists",
    "text": "È già presente una stanza creata tramite\nSplatNet 3. Vuoi davvero crearne un'altra?"
  },
  {
    "label": "BtnL_CreateRoomWhenRoomKeeperExists",
    "text": "No"
  },
  {
    "label": "BtnR_CreateRoomWhenRoomKeeperExists",
    "text": "Sì"
  },
  {
    "label": "Msg_CreateRoomWhenHammerRoomExists",
    "text": "È già presente una stanza di Gestione tornei.\nVuoi crearne un'altra?"
  },
  {
    "label": "BtnL_CreateRoomWhenHammerRoomExists",
    "text": "No"
  },
  {
    "label": "BtnR_CreateRoomWhenHammerRoomExists",
    "text": "Sì"
  },
  {
    "label": "Msg_LotExchangeCoinFull",
    "text": "Hai raggiunto il limite di gett-o-matic {{icon id=\"34\" arg=\"0xE17A943F00000000\"}}."
  },
  {
    "label": "Msg_LotExchangeCoinNotWeaponComplete",
    "text": "Se ottieni ogni singola arma disponibile\nall'Antica Armeria, potrai scambiare le tue\nlicenze di Armand {{icon id=\"28\" arg=\"0x6666663FFEFFFFFF\"}} con dei gett-o-matic {{icon id=\"34\" arg=\"0xE17A943F00000000\"}}."
  },
  {
    "label": "Msg_StartSoloConfirm_Coop_HammerExists",
    "text": "Una stanza di Gestione tornei è aperta.\nVuoi comunque unirti a un altro gruppo\ndi lavoro?"
  },
  {
    "label": "BtnL_StartSoloConfirm_Coop_HammerExists",
    "text": "No"
  },
  {
    "label": "BtnR_StartSoloConfirm_Coop_HammerExists",
    "text": "Sì"
  },
  {
    "label": "Msg_StartSoloConfirm_CoopBigRun_HammerExists",
    "text": "Una stanza di Gestione tornei è aperta.\nVuoi comunque unirti a un altro gruppo\ndi lavoro della Big Run?"
  },
  {
    "label": "BtnL_StartSoloConfirm_CoopBigRun_HammerExists",
    "text": "No"
  },
  {
    "label": "BtnR_StartSoloConfirm_CoopBigRun_HammerExists",
    "text": "Sì"
  },
  {
    "label": "Msg_QuitConfirm_CoopHammer",
    "text": "Vuoi abbandonare la stanza di Gestione tornei?\n(Potrai accedere nuovamente durante il torneo.)"
  },
  {
    "label": "BtnL_QuitConfirm_CoopHammer",
    "text": "No"
  },
  {
    "label": "BtnR_QuitConfirm_CoopHammer",
    "text": "Abbandona"
  }
]