{
  "version": 7,
  "rootNode": {
    "$parent": "Work/Component/Physics/MainWeaponParent.engine__component__PhysicsParam.gyml",
    "ControllerSetPath": "Work/Phive/ControllerSetParam/WeaponShooterNormal.phive__ControllerSetParam.gyml"
  }
}