[
  {
    "label": "000",
    "text": "Squid Squad"
  },
  {
    "label": "001",
    "text": "Chirpy Chips"
  },
  {
    "label": "002",
    "text": "Hightide Era"
  },
  {
    "label": "003",
    "text": "Wet Floor"
  },
  {
    "label": "004",
    "text": "Bottom Feeders"
  },
  {
    "label": "005",
    "text": "Ink Theory"
  },
  {
    "label": "006",
    "text": "SashiMori"
  },
  {
    "label": "007",
    "text": "Diss-Pair"
  },
  {
    "label": "008",
    "text": "Squid Sisters"
  },
  {
    "label": "009",
    "text": "Off the Hook"
  },
  {
    "label": "010",
    "text": "Deep Cut"
  },
  {
    "label": "011",
    "text": "C-Side"
  },
  {
    "label": "012",
    "text": "Front Roe"
  },
  {
    "label": "013",
    "text": "Damp Socks feat. Off the Hook"
  },
  {
    "label": "014",
    "text": "Turquoise October"
  },
  {
    "label": "015",
    "text": "DJ Октавио"
  },
  {
    "label": "016",
    "text": "Потапыч Inc."
  },
  {
    "label": "017",
    "text": "Deep Cut x Squid Sisters"
  },
  {
    "label": "018",
    "text": "ω-3"
  },
  {
    "label": "019",
    "text": "Seven Seas Crew"
  },
  {
    "label": "020",
    "text": "«Гуппи-Геймдев»"
  },
  {
    "label": "021",
    "text": "Stars in the Deep"
  },
  {
    "label": "022",
    "text": "Mimicry"
  },
  {
    "label": "023",
    "text": "Wash Out"
  },
  {
    "label": "024",
    "text": "Firefly"
  },
  {
    "label": "025",
    "text": "On the Clock"
  },
  {
    "label": "026",
    "text": "Anxiety Society"
  },
  {
    "label": "027",
    "text": "Backwash"
  },
  {
    "label": "028",
    "text": "Turf Love"
  },
  {
    "label": "029",
    "text": "Wading Room"
  },
  {
    "label": "030",
    "text": "New Shores"
  },
  {
    "label": "031",
    "text": "Bonfire"
  },
  {
    "label": "032",
    "text": "All Swell"
  },
  {
    "label": "033",
    "text": "Coral Kiss"
  },
  {
    "label": "034",
    "text": "Crevasse"
  },
  {
    "label": "035",
    "text": "Aquariyum"
  },
  {
    "label": "036",
    "text": "Pianissimo"
  },
  {
    "label": "037",
    "text": "Missing Ink"
  },
  {
    "label": "038",
    "text": "Anglerfish"
  },
  {
    "label": "039",
    "text": "Кэлли"
  },
  {
    "label": "040",
    "text": "Мари"
  },
  {
    "label": "041",
    "text": "DJ Октавио и Кэлли"
  },
  {
    "label": "042",
    "text": "DJ Октавио и Кэлли против Мари"
  },
  {
    "label": "043",
    "text": "Кулла"
  },
  {
    "label": "044",
    "text": "Мурия"
  },
  {
    "label": "045",
    "text": "Биг Ман"
  },
  {
    "label": "046",
    "text": " "
  },
  {
    "label": "047",
    "text": "Octoplush"
  },
  {
    "label": "048",
    "text": "Squid Sisters и БАГМИН"
  },
  {
    "label": "049",
    "text": "Yoko & the Gold Bazookas"
  },
  {
    "label": "050",
    "text": "Chroma Chaos"
  },
  {
    "label": "051",
    "text": "Medusa"
  },
  {
    "label": "052",
    "text": "Nothing in My Wave"
  },
  {
    "label": "053",
    "text": "H2Whoa"
  },
  {
    "label": "054",
    "text": "Bloody Hook"
  },
  {
    "label": "055",
    "text": "Decksterity"
  },
  {
    "label": "056",
    "text": "Free Association"
  },
  {
    "label": "057",
    "text": "Riot Act"
  },
  {
    "label": "058",
    "text": "Мариша"
  },
  {
    "label": "059",
    "text": "Dedf1sh"
  },
  {
    "label": "060",
    "text": "Off the Hook и Dedf1sh"
  },
  {
    "label": "061",
    "text": "Dedf1sh и Off the Hook"
  },
  {
    "label": "062",
    "text": "Off the Hook против Fire & Ice"
  },
  {
    "label": "063",
    "text": "Saplings"
  },
  {
    "label": "064",
    "text": "Reel Deel"
  },
  {
    "label": "065",
    "text": "Now or Never Seven"
  },
  {
    "label": "066",
    "text": "Потапыч Inc. и Deep Cut"
  },
  {
    "label": "067",
    "text": "Anglerfish и Cory"
  }
]