[
  {
    "label": "LongName_Alpha",
    "locale": {
      "CNzh": "重要的是什么？\n“过去”",
      "EUde": "Die Vergangenheit ist\nmir am wichtigsten!",
      "EUen": "The past is most\nimportant!",
      "EUes": "El pasado es lo\nmás importante.",
      "EUfr": "Le plus important, c'est\nle passé !",
      "EUit": "Il passato è\npiù importante!",
      "EUnl": "Het verleden is\nhet belangrijkst!",
      "EUru": "Прошлое важнее всего!",
      "JPja": "大切なのは？\n「過去」",
      "KRko": "소중한 것은?\n「과거」",
      "TWzh": "重要的是什麼？\n「過去」",
      "USen": "The past is most\nimportant!",
      "USes": "El pasado es lo más\nimportante.",
      "USfr": "Le plus important,\nc'est le passé!"
    }
  },
  {
    "label": "LongName_Bravo",
    "locale": {
      "CNzh": "重要的是什么？\n“现在”",
      "EUde": "Die Gegenwart ist\nmir am wichtigsten!",
      "EUen": "The present is most\nimportant!",
      "EUes": "El presente es lo\nmás importante.",
      "EUfr": "Le plus important, c'est\nle présent !",
      "EUit": "Il presente è\npiù importante!",
      "EUnl": "Het heden is\nhet belangrijkst!",
      "EUru": "Настоящее важнее всего!",
      "JPja": "大切なのは？\n「現在」",
      "KRko": "소중한 것은?\n「현재」",
      "TWzh": "重要的是什麼？\n「現在」",
      "USen": "The present is most\nimportant!",
      "USes": "El presente es lo más\nimportante.",
      "USfr": "Le plus important,\nc'est le présent!"
    }
  },
  {
    "label": "LongName_Charlie",
    "locale": {
      "CNzh": "重要的是什么？\n“未来”",
      "EUde": "Die Zukunft ist\nmir am wichtigsten!",
      "EUen": "The future is most\nimportant!",
      "EUes": "El futuro es lo\nmás importante.",
      "EUfr": "Le plus important, c'est\nle futur !",
      "EUit": "Il futuro è\npiù importante!",
      "EUnl": "De toekomst is\nhet belangrijkst!",
      "EUru": "Будущее важнее всего!",
      "JPja": "大切なのは？\n「未来」",
      "KRko": "소중한 것은?\n「미래」",
      "TWzh": "重要的是什麼？\n「未來」",
      "USen": "The future is most\nimportant!",
      "USes": "El futuro es lo más\nimportante.",
      "USfr": "Le plus important,\nc'est le futur!"
    }
  },
  {
    "label": "ShortName_Alpha",
    "locale": {
      "CNzh": "过去",
      "EUde": "Vergangenheit",
      "EUen": "Past",
      "EUes": "Pasado",
      "EUfr": "Passé",
      "EUit": "Passato",
      "EUnl": "Verleden",
      "EUru": "Прошлое",
      "JPja": "過去",
      "KRko": "과거",
      "TWzh": "過去",
      "USen": "Past",
      "USes": "Pasado",
      "USfr": "Passé"
    }
  },
  {
    "label": "ShortName_Bravo",
    "locale": {
      "CNzh": "现在",
      "EUde": "Gegenwart",
      "EUen": "Present",
      "EUes": "Presente",
      "EUfr": "Présent",
      "EUit": "Presente",
      "EUnl": "Heden",
      "EUru": "Настоящее",
      "JPja": "現在",
      "KRko": "현재",
      "TWzh": "現在",
      "USen": "Present",
      "USes": "Presente",
      "USfr": "Présent"
    }
  },
  {
    "label": "ShortName_Charlie",
    "locale": {
      "CNzh": "未来",
      "EUde": "Zukunft",
      "EUen": "Future",
      "EUes": "Futuro",
      "EUfr": "Futur",
      "EUit": "Futuro",
      "EUnl": "Toekomst",
      "EUru": "Будущее",
      "JPja": "未来",
      "KRko": "미래",
      "TWzh": "未來",
      "USen": "Future",
      "USes": "Futuro",
      "USfr": "Futur"
    }
  },
  {
    "label": "Title",
    "locale": {
      "CNzh": "重要的是什么？",
      "EUde": "Welches ist dir am wichtigsten?",
      "EUen": "Which is the most important to you?",
      "EUes": "¿Qué es lo más importante para ti?",
      "EUfr": "Qu'est-ce qui t'importe le plus ?",
      "EUit": "Cos'è più importante per te?",
      "EUnl": "Welke tijd is het belangrijkst voor jou?",
      "EUru": "Что важнее?",
      "JPja": "大切なのは？",
      "KRko": "소중한 것은?",
      "TWzh": "重要的是什麼？",
      "USen": "Which is the most important to you?",
      "USes": "¿Qué es lo más importante para ti?",
      "USfr": "Qu'est-ce qui t'importe le plus?"
    }
  }
]