[
  {
    "label": "First_00",
    "text": "Bienvenue à {{color id=\"1\"}}Calamarcade{{color id=\"65535\"}} ! Ici, tu peux jouer\navec d'autres joueurs en {{color id=\"1\"}}mode sans fil local{{color id=\"65535\"}}."
  },
  {
    "label": "First_01",
    "text": "Il suffit de te présenter à l'accueil\npour commencer."
  },
  {
    "label": "First_02",
    "text": "Le temps de choisir un mode et un stage,\net tu peux plonger dans l'action !"
  }
]