[
  {
    "label": "001",
    "text": "Bon, on va s'arrêter là pour aujourd'hui..."
  },
  {
    "label": "003",
    "text": "Mais les Tridenfer ont pas dit leur dernier mot."
  },
  {
    "label": "004",
    "text": "Tu perds rien pour... {{delay frames=\"15\"}}Hein ? OH N..."
  }
]