[
  {
    "label": "Comment_00",
    "text": "Allez, amiral{{string value=\"11\" arg1=\"0\" arg3=\"2\"}}, maintenant !"
  },
  {
    "label": "Comment_01",
    "text": "Comme c'est doux..."
  },
  {
    "label": "Comment_02",
    "text": "Même ma peau n'est pas aussi douce...\nJe serais presque vexée."
  },
  {
    "label": "Comment_03",
    "text": "On a réussi, Numéro 3 !"
  },
  {
    "label": "Comment_04",
    "text": "Bon, c'est doux, on a compris..."
  },
  {
    "label": "Comment_05",
    "text": "Allons sauver Papi !"
  }
]