[
  {
    "label": "000",
    "text": "Oh, rappel important ! La saison est\nquasiment terminée !"
  },
  {
    "label": "001",
    "text": "Ay ! {{string value=\"5\"}}(Ce qui veut dire... que vous pouvez\ngagner plus de {{color id=\"1\"}}points de catalogue{{color id=\"65535\"}} !){{fun_000F_0004 arg=\"0x0500\"}}"
  },
  {
    "label": "002",
    "text": "Exact. Alors si vous voulez vous offrir un\ntruc, c'est le moment de faire un effort !"
  },
  {
    "label": "003",
    "text": "Ouais ! Donnez-vous à fond !"
  }
]