[
  {
    "label": "000",
    "text": "La {{color id=\"1\"}}nouvelle saison{{color id=\"65535\"}} a commencé !"
  },
  {
    "label": "001",
    "text": "Je peux hurler un petit « Joli ! »\npour fêter ça ?"
  },
  {
    "label": "002",
    "text": "Ay ! {{string value=\"5\"}}(On a les dates de la saison...\nEt un catalogue tout nouveau tout beau !){{fun_000F_0004 arg=\"0x0500\"}}"
  },
  {
    "label": "003",
    "text": "Une nouvelle saison... dont je vais profiter\npour prendre un nouveau départ."
  },
  {
    "label": "004",
    "text": "Et moi, je vais en profiter pour poursuivre\ndans l'excellence qui me caractérise."
  },
  {
    "label": "005",
    "text": "Ay ! {{string value=\"5\"}}(Faites comme vous voulez, tant\nque vous le faites à 200 % !){{fun_000F_0004 arg=\"0x0500\"}}"
  }
]