[
  {
    "label": "000",
    "text": "Ay ! {{string value=\"5\"}}(Oh, flash infos ! Écoutez un peu...){{fun_000F_0004 arg=\"0x0500\"}}"
  },
  {
    "label": "002_1",
    "text": "Ay ! {{string value=\"5\"}}(Les Salmonoïdes qui envahissaient les\nhalles de Port-merlu ont été repoussés !){{fun_000F_0004 arg=\"0x0500\"}}"
  },
  {
    "label": "002_2",
    "text": "Ay ! {{string value=\"5\"}}(Les Salmonoïdes qui envahissaient la\nbanlieue Balibot ont été repoussés !){{fun_000F_0004 arg=\"0x0500\"}}"
  },
  {
    "label": "003",
    "text": "Oh ? Ça veut dire que le {{color id=\"1\"}}Big Run{{color id=\"65535\"}}\nest terminé ?"
  },
  {
    "label": "011",
    "text": "Ay. {{string value=\"5\"}}(Il y a aussi un message de M. Ours SA.\nPasquale, tu nous ferais l'honneur ?){{fun_000F_0004 arg=\"0x0500\"}}"
  },
  {
    "label": "012",
    "text": "Hmm, il est juste écrit : « Merci d'avoir\nassuré vos obligations..."
  },
  {
    "label": "013",
    "text": "Vous recevrez bientôt un petit gage de\nnotre gratitude basé sur votre record. »"
  },
  {
    "label": "014",
    "text": "Sérieux ? C'est généreux de leur part !"
  },
  {
    "label": "015",
    "text": "Ay. {{string value=\"5\"}}(Jetons un œil aux records pour\nvoir les récompenses.){{fun_000F_0004 arg=\"0x0500\"}}"
  },
  {
    "label": "016",
    "text": "Mais vous faites pas de bile, tous les\nparticipants repartent avec quelque chose."
  },
  {
    "label": "200",
    "text": "Ay. {{string value=\"5\"}}(J'ai aussi entendu que les halles de\nPort-merlu allaient rouvrir immédiatement.){{fun_000F_0004 arg=\"0x0500\"}}"
  },
  {
    "label": "201",
    "text": "Les clients vont faire la fête !\nMerci d'avoir écarté la vermine salmonoïde !"
  },
  {
    "label": "202",
    "text": "Vous avez sauvé le meilleur centre\ncommercial de la ville avec panache !"
  },
  {
    "label": "203",
    "text": "Du coup, on attend quoi ? Faut fêter ça\naux halles ! Razzia sur les restos !"
  },
  {
    "label": "204",
    "text": "Ay ! {{string value=\"5\"}}(Oui ! Et si on allait à ce resto chic\nqu'on a toujours voulu essayer ?){{fun_000F_0004 arg=\"0x0500\"}}"
  },
  {
    "label": "205",
    "text": "Tu te sens l'âme généreuse, Raimi ? De\ntemps en temps, on peut se le permettre."
  },
  {
    "label": "206",
    "text": "Ay ! {{string value=\"5\"}}(Et comment !){{fun_000F_0004 arg=\"0x0500\"}}"
  },
  {
    "label": "207",
    "text": "Te fais pas de bile, Raimi. C'est notre\ncheffe bien-aimée qui régale !"
  },
  {
    "label": "208",
    "text": "M-Mais je croyais que... OK, je peux bien\nfaire un effort."
  },
  {
    "label": "210",
    "text": "Ay !{{string value=\"5\"}} (Ça s'est pas joué à grand-chose,\nmais on a libéré Cité-Clabousse !){{fun_000F_0004 arg=\"0x0500\"}}"
  },
  {
    "label": "211",
    "text": "Bravo ! Vous leur avez montré de quel bois\nse chauffent les Claboussiens !"
  },
  {
    "label": "212",
    "text": "Oui, merci. Les habitants de la banlieue\nBalibot peuvent enfin souffler un peu."
  },
  {
    "label": "213",
    "text": "Comme quoi, quand on se retrousse les\nmanches, RIEN n'est impossible !"
  },
  {
    "label": "214",
    "text": "Ay... {{string value=\"5\"}}(J'espère juste qu'ils vont retenir\nla leçon et pas redébarquer ailleurs...){{fun_000F_0004 arg=\"0x0500\"}}"
  },
  {
    "label": "215",
    "text": "À propos de manches retroussées, on a du\nménage à faire dans la banlieue Balibot..."
  },
  {
    "label": "216",
    "text": "Euh... Je me suis peut-être un peu avancée\nquand j'ai dit que RIEN n'était impossible..."
  },
  {
    "label": "220",
    "text": "Ay ! {{string value=\"5\"}}(L'envahisseur salmonoïde a été\nrenvoyé à l'océan avec succès !){{fun_000F_0004 arg=\"0x0500\"}}"
  },
  {
    "label": "221",
    "text": "Alors l'{{color id=\"1\"}}Ultra Big Run{{color id=\"65535\"}} est terminé ?"
  },
  {
    "label": "230",
    "text": "Merci à tous ceux qui ont participé !\nC'est grâce à vous qu'on les a vaincus !"
  },
  {
    "label": "231",
    "text": "Ay ! {{string value=\"5\"}}(C'est incroyable ce qu'on peut\naccomplir quand on s'y met ensemble !){{fun_000F_0004 arg=\"0x0500\"}}"
  },
  {
    "label": "232",
    "text": "Cité-Clabousse ET Chromapolis qui bossent\nmain dans la main ! La grande classe !"
  },
  {
    "label": "233",
    "text": "Angie qui lâche un truc sympa sur\nChromapolis ? On aura tout vu !"
  },
  {
    "label": "234",
    "text": "Ay ? {{string value=\"5\"}}(Pincez-moi, je rêve ! C'est la\nSaint-Glinglin aujourd'hui, ou quoi ?){{fun_000F_0004 arg=\"0x0500\"}}"
  },
  {
    "label": "235",
    "text": "OK, je l'admets, on peut s'entendre avec\nles habitants de Chromapolis..."
  },
  {
    "label": "236",
    "text": "Ça va ? Ça t'a pas fait trop mal de dire\nun truc pareil ?"
  },
  {
    "label": "237",
    "text": "Ay ! {{string value=\"5\"}}(Et si on allait fêter la victoire dans\nun bon resto de Chromapolis ?){{fun_000F_0004 arg=\"0x0500\"}}"
  },
  {
    "label": "238",
    "text": "Mais oui ! Pourquoi soutenir nos restos\nlocaux ? Réservons pour la Saint-Glinglin !"
  }
]