[
  {
    "label": "000",
    "text": "Oh, voilà qui est intéressant.\nLa {{color id=\"1\"}}nouvelle saison{{color id=\"65535\"}} a commencé !"
  },
  {
    "label": "001",
    "text": "Youhou ! C'est la fête !"
  },
  {
    "label": "002",
    "text": "Ay !{{string value=\"5\"}} (Avec plaisir ! Rien ne vaut un nouveau\ndépart pour se décrasser les nageoires !){{fun_000F_0004 arg=\"0x0500\"}}"
  },
  {
    "label": "003",
    "text": "Oh ! Des {{color id=\"1\"}}matchs Challenge{{color id=\"65535\"}} ont été\nintroduits ! Ne ratez pas ça !"
  },
  {
    "label": "004",
    "text": "Accrochez-vous, Angie va faire un carton !\n... Au fait, c'est quoi, un match Challenge ?"
  },
  {
    "label": "005",
    "text": "C'est des événements où sont imposés\ndes règles ou des contraintes spécifiques."
  },
  {
    "label": "006",
    "text": "Ay ! {{string value=\"5\"}}(Et ils ont lieu un peu n'importe quand !\nAlors ratez pas le coche s'il y en a un !){{fun_000F_0004 arg=\"0x0500\"}}"
  },
  {
    "label": "018",
    "text": "On dirait que M. Ours SA a inauguré\nun nouveau {{color id=\"1\"}}site de missions{{color id=\"65535\"}}."
  },
  {
    "label": "019",
    "text": "Ay ? {{string value=\"5\"}}(Ah, c'était ça ? Moi qui imaginais un\nopen-space avec baby-foot et tout...){{fun_000F_0004 arg=\"0x0500\"}}"
  },
  {
    "label": "020",
    "text": "En tout cas, ça sent les œufs dorés à plein\nnez ! L'employée du mois, ce sera moi !"
  },
  {
    "label": "021",
    "text": "Ay... {{string value=\"5\"}}(Essaie déjà de pas tomber à la\nflotte comme la dernière fois...){{fun_000F_0004 arg=\"0x0500\"}}"
  }
]