[
  {
    "label": "000",
    "text": "Bienvenue à {{color id=\"1\"}}Cité-Clabousse {{color id=\"65535\"}}!{{pageBreak}}La cité à voir, mais aussi la cité où se montrer !\nLe coin le plus chaud-bouillant de la zone !"
  },
  {
    "label": "001",
    "text": "Si tu veux faire ton trou dans CETTE cité,\ntu vas devoir sortir le grand jeu !"
  },
  {
    "label": "002",
    "text": "Et la voie royale pour ça, c'est les matchs en ligne !\nC'est dans le {{color id=\"1\"}}hall{{color id=\"65535\"}} que ça se passe.{{pageBreak}}Commence à te faire remarquer en match, et tu seras\nla superstar de la cité en un rien de temps !"
  },
  {
    "label": "002_1",
    "text": "Hé, tu devrais aller jeter un œil à\nnotre belle {{color id=\"1\"}}gare{{color id=\"65535\"}} !{{pageBreak}}De là, tu peux te rendre au {{color id=\"1\"}}square de{{color id=\"65535\"}}\n{{color id=\"1\"}}Chromapolis{{color id=\"65535\"}}. Et en revenir, bien sûr."
  },
  {
    "label": "003",
    "text": "Attends... QUOI ?"
  },
  {
    "label": "004",
    "text": "Tu viens de débarquer et je veux pas t'effrayer,\nmais... y a un mec dans les égouts qui te fixe.{{pageBreak}}Ça sent pas bon, si tu veux mon avis...\nEnfin, on s'occupera de ça plus tard."
  },
  {
    "label": "005",
    "text": "Donc, où j'en étais ? Ah oui, les matchs !\nC'est l'heure de plonger dans le grand bain !"
  },
  {
    "label": "006",
    "text": "Tu peux foncer directement dans le {{color id=\"1\"}}hall{{color id=\"65535\"}}, ou... causer\navec le {{color id=\"1\"}}type chelou{{color id=\"65535\"}} des {{color id=\"1\"}}égouts{{color id=\"65535\"}}. C'est toi qui vois."
  },
  {
    "label": "007",
    "text": "C'est parti pour la liquidation totale,\nà toi de jouer !"
  }
]