[
  {
    "label": "000",
    "text": "Un nouvel étage ! L'occasion de sortir le haut-perceur !{{delay frames=\"30\"}}\nMais... Quoi ?{{delay frames=\"15\"}} C'est plutôt un FAUX-perceur, on dirait !"
  },
  {
    "label": "001",
    "text": "Perle... {{delay frames=\"15\"}}Tu ne peux pas utiliser les fonctionnalités du\ndrone tant que la {{color id=\"4\"}}jauge du drone {{color id=\"65535\"}}n'est pas pleine."
  },
  {
    "label": "002",
    "text": "Sérieux ? Bon...{{pageBreak}}Visiblement, la jauge du drone se remplit au fil du temps.{{delay frames=\"30\"}}\nAttendez un peu qu'elle soit pleine, ça va dépoter !"
  },
  {
    "label": "003",
    "text": "En fait, tu n'as pas besoin d'attendre. {{delay frames=\"30\"}}Ramasse cette\n{{color id=\"4\"}}batterie du drone {{icon id=\"68\" arg=\"0x0000803F00000000\"}} {{color id=\"65535\"}}pour remplir un peu la jauge."
  },
  {
    "label": "004",
    "text": "Bien. {{delay frames=\"15\"}}Cette fois-ci, l'objectif est de conduire\ncette {{color id=\"4\"}}tourbine {{icon id=\"58\" arg=\"0xCDCC8C3F04000000\"}}{{color id=\"65535\"}} jusqu'à l'arrivée."
  },
  {
    "label": "005",
    "text": "Une tourbine, tu dis ? {{delay frames=\"15\"}}En général, pour faire avancer\nles choses, rien ne vaut une bonne salve d'encre !"
  }
]