[
  {
    "label": "000",
    "text": "Hé, Huit, t'as une seconde ?"
  },
  {
    "label": "001",
    "text": "J'ai fait quelques scans... {{delay frames=\"15\"}}Visiblement, l'Ordre a\nrelevé le niveau de menace à l'intérieur de la tour\nà son niveau maximal."
  },
  {
    "label": "002",
    "text": "Pourquoi il a fait ça ? {{delay frames=\"15\"}}Et qu'est-ce que ça change\npour nous ?"
  },
  {
    "label": "003",
    "text": "Déjà, la tour a subitement grandi,{{delay frames=\"30\"}} mais c'est pas\nle pire...{{pageBreak}}Le pire, c'est qu'il suffit d'une erreur pour {{color id=\"4\"}}se retrouver\nà nouveau au pied de la tour{{color id=\"65535\"}}.{{delay frames=\"30\"}} Ce qui risque fort d'arriver,\nvu que {{color id=\"4\"}}les ennemis sont aussi devenus plus puissants{{color id=\"65535\"}}."
  },
  {
    "label": "004",
    "text": "Hmm... Ouais, c'est la galère."
  },
  {
    "label": "005",
    "text": "Mais la bonne nouvelle... {{delay frames=\"15\"}}c'est qu'à la base, c'est moi qui\nai conçu le Poulpivers. Du coup, je peux agir !{{pageBreak}}Maintenant que je suis plus coincée là-haut, je peux\n{{color id=\"4\"}}hacker {{color id=\"65535\"}}le système, écraser les modifications, et\nbaisser la difficulté !"
  },
  {
    "label": "006",
    "text": "Sérieux, tu peux faire ça ? {{delay frames=\"15\"}}Eh ben, je regrette pas\nde t'avoir sauvée !"
  },
  {
    "label": "007",
    "text": "Par contre, je vais avoir besoin de {{color id=\"4\"}}péperles {{icon id=\"64\" arg=\"0x0000803F00000000\"}} {{color id=\"65535\"}}pour\nhacker le système.{{pageBreak}}Mais tu devrais déjà en avoir un peu, non ?"
  },
  {
    "label": "008",
    "text": "Voilà ! Ces péperles ont été générées à ta sortie\nde la tour.{{pageBreak}}À chaque fois que tu reviens ici, tes {{color id=\"4\"}}puces\nchromatiques {{icon id=\"55\" arg=\"0x0000803F00000000\"}} {{color id=\"65535\"}}et tes {{color id=\"4\"}}poulpèzes {{icon id=\"63\" arg=\"0x0000803F00000000\"}} {{color id=\"65535\"}}sont{{color id=\"4\"}}\nconvertis en péperles.{{color id=\"65535\"}}"
  },
  {
    "label": "009",
    "text": "Donc, pour résumer... On va sans doute s'en prendre\nplein la face dans la tour, mais pour peu qu'on aligne\nquelques affreux avant, on gagnera plus de péperles ?{{pageBreak}}Péperles grâce auxquelles Coralie usera de ses\ntechniques pour nous {{color id=\"4\"}}faciliter la tâche{{color id=\"65535\"}} à l'ascension\nsuivante.{{delay frames=\"30\"}} Alors même quand on perd, on y gagne... Cool !"
  },
  {
    "label": "010",
    "text": "Voilà les parties du code que j'ai déjà réussi à hacker...{{delay frames=\"30\"}}\nÇa vous dit, que j'ajuste un paramètre ou deux pour\nvous filer un coup de main ?"
  }
]