[
  {
    "label": "000",
    "text": "Rien ne nous arrête ! {{delay frames=\"15\"}}Allez, on continue sur cette lancée,\ndirect jusqu'au sommet !"
  },
  {
    "label": "001",
    "text": "Tiens...{{delay frames=\"30\"}} Intéressant."
  },
  {
    "label": "002",
    "text": "Tu peux choisir ton objectif au prochain étage.{{delay frames=\"30\"}} Avec une\npuce chromatique différente à la clé à chaque fois."
  },
  {
    "label": "003",
    "text": "Ainsi que des difficultés différentes. {{delay frames=\"30\"}}Bon, c'est toi\nqui vas te jeter dans la mêlée, Huit. {{delay frames=\"15\"}}Tu choisis quoi ?"
  }
]