[
  {
    "label": "001",
    "text": "Nickel, Huit ! {{delay frames=\"30\"}}T'as pris le rythme !"
  },
  {
    "label": "002",
    "text": "Et Coralie ! {{delay frames=\"30\"}}Ton morceau met une vraie claque !"
  },
  {
    "label": "003",
    "text": "Lésine pas sur les décibels !\n{{delay frames=\"30\"}}Envoie du gros son, la DJ !"
  },
  {
    "label": "004",
    "text": "Suffit de demander, Perle !"
  },
  {
    "label": "005",
    "text": "Cette résistance est futile."
  },
  {
    "label": "006",
    "text": "L'immobilisme, c'est la vie."
  },
  {
    "label": "007",
    "text": "Ça va pas, la tête ? En pleine tournée ?"
  },
  {
    "label": "007_01",
    "text": "Le spectacle continue !"
  },
  {
    "label": "008",
    "text": "Garde tes chansons barbantes pour toi !\nOn veut profiter de la vie !"
  },
  {
    "label": "009",
    "text": "J'ai pas raison ? Alors mettez le paquet !"
  },
  {
    "label": "010",
    "text": "Fais péter la sono !"
  },
  {
    "label": "011",
    "text": "{{size value=\"200\"}}OUAAAAAAAHHHHHHH !{{size value=\"100\"}}"
  }
]