[
  {
    "label": "000",
    "text": "Oooh ! {{delay frames=\"15\"}}Certains casiers contiennent des péperles !\n{{delay frames=\"30\"}}On peut les donner à Coralie pour hacker !"
  },
  {
    "label": "001",
    "text": "Quelqu'un a parlé de hacker ?! Ça, c'est dans\nmes cordes !{{pageBreak}}Les péperles sont bien pratiques, {{delay frames=\"15\"}}et tu en empoches à\nchaque ascension de la tour de l'Ordre. {{delay frames=\"15\"}}Alors hésite pas\nà utiliser celles que tu as."
  }
]