[
  {
    "label": "Shiver_001",
    "text": "Pasquale, c'est la grâce et l'élégance incarnées."
  },
  {
    "label": "Shiver_002",
    "text": "Oui, c'est pas faux... {{delay frames=\"15\"}}Mais quand je parle à Angie,{{delay frames=\"15\"}} j'ai\nl'impression que Pasquale me fusille du regard."
  },
  {
    "label": "Shiver_003",
    "text": "Sérieusement ? Hm. {{delay frames=\"15\"}}Honnêtement, j'ai jamais\nfait attention."
  },
  {
    "label": "Frye_001",
    "text": "Youpiii ! {{delay frames=\"15\"}}On a trouvé la palette d'Angie !"
  },
  {
    "label": "Frye_002",
    "text": "J'adore Angie. {{delay frames=\"15\"}}Chaque fois qu'on la voit,\nelle se jette sur toi."
  },
  {
    "label": "Frye_003",
    "text": "Ouais, mais je sais jamais si c'est pour me sauter\nau cou ou à la gorge."
  },
  {
    "label": "BigMan_001",
    "text": "Regardez, {{delay frames=\"15\"}}c'est la palette de Raimi !{{pageBreak}}J'adore son pseudo, Mirai.{{delay frames=\"30\"}} Il devrait l'utiliser comme nom\nd'artiste principal."
  },
  {
    "label": "BigMan_002",
    "text": "Pardon ?! {{delay frames=\"30\"}}Tu veux dire que Mirai et Raimi sont\nla même personne ?!"
  },
  {
    "label": "Callie_001",
    "text": "Aaah ! {{delay frames=\"15\"}}La palette d'Ayo !"
  },
  {
    "label": "Callie_002",
    "text": "Ça me rappelle que j'ai pas vu Ayo depuis des plombes.\nJ'espère qu'elle va bien. {{delay frames=\"30\"}}D'après ce qu'elle raconte à la\ntélé, elle s'en sort plutôt pas mal en tout cas."
  },
  {
    "label": "Callie_003",
    "text": "Je pense aussi. {{delay frames=\"15\"}}Mais tu imagines vraiment qu'Ayo puisse\nne PAS s'en sortir ?"
  },
  {
    "label": "Marie_001",
    "text": "C'est pas vrai ! {{delay frames=\"15\"}}La palette d'Oly est aussi là ?!{{pageBreak}}Attends... {{delay frames=\"15\"}}Du coup, ce que tu tiens dans la main, c'est...\nun fragment de l'âme d'Oly ?{{delay frames=\"30\"}} Trop bien ! {{delay frames=\"15\"}}Dire que je peux\nle toucher, si je veux.{{delay frames=\"30\"}} Pincez-moi, je rêve !"
  },
  {
    "label": "Marie_002",
    "text": "Tout doux, Coralie ! {{delay frames=\"15\"}}Respire un grand coup et reviens\nparmi nous."
  },
  {
    "label": "Vendor_001",
    "text": "Tipik ? {{delay frames=\"30\"}}Ah mais oui, {{delay frames=\"15\"}}le gentil petit oursin !"
  },
  {
    "label": "Vendor_002",
    "text": "« Gentil petit oursin » ? {{delay frames=\"30\"}}Perle, ça fait un bout de temps\nqu'il est plus grand que toi...{{pageBreak}}J'ai entendu dire qu'il était parti travailler dans une\nautre ville. {{delay frames=\"15\"}}J'aimerais bien le revoir, un de ces jours."
  },
  {
    "label": "Octavio_001",
    "text": "Sans blague ?! {{delay frames=\"15\"}}Il y a même une palette d'Octave ?"
  },
  {
    "label": "Octavio_002",
    "text": "T'as bossé pour lui, je me trompe ? {{delay frames=\"30\"}}On va la mettre à\ncontribution un max, ça sera un juste retour des choses."
  },
  {
    "label": "Octavio_003",
    "text": "À vrai dire...{{delay frames=\"15\"}} il m'a toujours ménagée. {{delay frames=\"30\"}}Mais je sens que\nsa palette va nous être TRÈS utile ! {{delay frames=\"30\"}}Désolée, chef !"
  },
  {
    "label": "Sheldon_001",
    "text": "Oh, {{delay frames=\"15\"}}c'est la palette de Cartouche !{{pageBreak}}Il avait pas déménagé ? {{delay frames=\"15\"}}Ah si, à Cité-Clabousse.{{delay frames=\"30\"}} Il a dû\nse refaire une clientèle très rapidement, là-bas.\nJ'adorais ses longues explications sur les armes !"
  },
  {
    "label": "Sheldon_002",
    "text": "T'es bien la seule... Pauvres Claboussiens..."
  },
  {
    "label": "PaletteHint_001",
    "text": "Je viens de comprendre un truc... {{delay frames=\"15\"}}Tu vois les {{color id=\"4\"}}portes de\ncasier qui brillent{{color id=\"65535\"}} ? {{delay frames=\"15\"}}Elles doivent indiquer quels casiers\ncontiennent des palettes.{{pageBreak}}Je continue de recevoir des signaux de palettes, {{delay frames=\"15\"}}alors\ncontinue de jongler avec les palettes pour récupérer\ndes clés !"
  },
  {
    "label": "1Left_001",
    "text": "On a récupéré un paquet de palettes, {{delay frames=\"15\"}}mais on a pas\nencore trouvé celle de Huit."
  },
  {
    "label": "1Left_002",
    "text": "C'est vrai. {{delay frames=\"15\"}}Mais je capte le signal de sa palette venant\nde ces casiers.{{pageBreak}}Il ne reste plus qu'une palette là-dedans, {{delay frames=\"15\"}}ça doit être\ncelle de Huit.{{delay frames=\"30\"}} Cherchons d'autres clés, on finira bien par\nla trouver !"
  }
]