[
  {
    "label": "000",
    "text": "Youhou ! {{delay frames=\"15\"}}On enchaîne les victoires !"
  },
  {
    "label": "001",
    "text": "Vous savez quoi ? Au final, c'est pas si mal d'être\nun drone. Si ça peut me permettre d'aider Huit..."
  },
  {
    "label": "002",
    "text": "La prochaine puce chromatique va aider, elle aussi.\n{{delay frames=\"30\"}}Utilise-la à bon escient et Huit ne pourra plus se passer\nde toi sur le champ de bataille."
  },
  {
    "label": "003",
    "text": "Elle va me permettre d'utiliser le {{color id=\"4\"}}haut-perceur{{color id=\"65535\"}} ?{{delay frames=\"30\"}}\nHa ha ! Cette fois, on passe aux choses sérieuses !"
  }
]