[
  {
    "label": "000",
    "text": "Hé, t'as bien dit que les bombes chance explosaient sans\nprévenir ?{{delay frames=\"30\"}} C'est pas un peu dangereux pour Huit ?"
  },
  {
    "label": "001",
    "text": "Non, Huit et toi ne risquez rien, seuls les ennemis\nsubissent des dégâts. {{delay frames=\"30\"}}Pourquoi, t'avais la frousse ?"
  },
  {
    "label": "002",
    "text": "N'importe quoi, je m'informe, c'est tout. Et il en faudrait\nplus pour venir à bout de Huit. {{delay frames=\"30\"}}Enfin, puisque c'est\nsans danger, bombardons à tout-va !"
  },
  {
    "label": "003",
    "text": "Euh... {{delay frames=\"15\"}}C'est quoi, ce truc ?"
  },
  {
    "label": "004",
    "text": "Vu d'ici, on dirait une {{color id=\"4\"}}boîte de conserve{{color id=\"65535\"}}. {{delay frames=\"30\"}}Elle remplira\nla moitié de ta jauge spéciale si tu la ramasses."
  },
  {
    "label": "005",
    "text": "Quand la jauge est pleine, appuie sur le stick droit {{icon id=\"76\" arg=\"0xEC51383FFEFFFFFF\"}}\npour déclencher l'arme spéciale. {{delay frames=\"30\"}}Alors si l'ennemi devient\ntrop collant, fais le ménage à dos de cavalsquale !"
  }
]