[
  {
    "label": "001",
    "text": "Coralie !"
  },
  {
    "label": "002",
    "text": "Ouhou, Coralie ! {{delay frames=\"15\"}}Elle m'entend pas, ou quoi ?!"
  },
  {
    "label": "003",
    "text": "On dirait pas. {{delay frames=\"30\"}}Elle est empêtrée dans\ncette machine bizarre !"
  },
  {
    "label": "004",
    "text": "Intrusion confirmée. {{delay frames=\"30\"}}Initiation de la déchromatisation."
  },
  {
    "label": "005",
    "text": "T'inquiète pas ! {{delay frames=\"15\"}}On va te sortir de là !"
  },
  {
    "label": "006",
    "text": "À l'attaque, Huit !"
  }
]