[
  {
    "label": "001",
    "text": "Naan ! Vous faites rien que tricher et gagner tout\nle temps ! {{delay frames=\"30\"}}C'est pas juste ! Pas juste !"
  },
  {
    "label": "002",
    "text": "Bien joué, Huit ! {{delay frames=\"30\"}}Ça nous fait une nouvelle\npalette de reconfigurée."
  },
  {
    "label": "003",
    "text": "D'AC ! J'ai compris ! {{delay frames=\"15\"}}Mais c'est pas fini !{{delay frames=\"30\"}}\nJamais j'abandonnerai mon rêve de rêve universel !"
  },
  {
    "label": "011",
    "text": "Impeccable ! {{delay frames=\"30\"}}On peut aussi reconfigurer cette\npalette, maintenant."
  },
  {
    "label": "012",
    "text": "AAARGH !{{delay frames=\"15\"}} J'ai encore PERDU !{{delay frames=\"30\"}} Vous faites rien que\ntricher ! C'est pas juste !"
  },
  {
    "label": "013",
    "text": "Tu devrais peut-être songer à laisser tomber ?"
  },
  {
    "label": "014",
    "text": "Pas question !{{delay frames=\"30\"}} Je dois créer un monde d'ordre\npour que tout le monde soit content !\nALORS EN GARDE OU JE ME FÂCHE !"
  },
  {
    "label": "015",
    "text": "Minusque ?{{delay frames=\"15\"}} C'est plutôt « Fulminusque », oui."
  },
  {
    "label": "021",
    "text": "Et encore une palette de reconfigurée."
  },
  {
    "label": "022",
    "text": "Pourquoi j'ai encore perdu ?{{delay frames=\"30\"}}\nC'est PAS JUSTE !"
  },
  {
    "label": "023",
    "text": "Tout le monde a participé à la création du Poulpivers,{{delay frames=\"15\"}}\nc'est bien la preuve que tout le monde l'aime !"
  },
  {
    "label": "024",
    "text": "Où t'as vu que tout le monde avait participé, toi ?{{delay frames=\"30\"}}\nJe croyais que Coralie l'avait conçu toute seule."
  },
  {
    "label": "025",
    "text": "Ça suffit maintenant !{{delay frames=\"30\"}} J'ai assez vu vos têtes !\nAllez-vous-en, ouste ! PFFFRRRT !{{delay frames=\"30\"}}\n... S'il vous plaît !"
  },
  {
    "label": "031",
    "text": "Bon, on t'a encore mis la fessée.{{delay frames=\"30\"}} Alors... {{delay frames=\"15\"}}t'as intérêt\nà cracher le morceau, maintenant. En quoi t'es impliqué\ndans la création du Poulpivers ?"
  },
  {
    "label": "032",
    "text": "Hi hi !{{delay frames=\"30\"}} J'adore quand Perle montre les crocs !"
  },
  {
    "label": "033",
    "text": "Vous lâchez pas l'affaire, hein... {{delay frames=\"15\"}}Mais je suis une\ngentille I.A., et je tiens mes promesses. {{delay frames=\"30\"}}Alors je veux\nbien vous expliquer un petit peu."
  },
  {
    "label": "034",
    "text": "Au fond de leur cœur,{{delay frames=\"15\"}} les développeurs Octalings qui\nont participé à la création du Poulpivers partageaient\nune même philosophie."
  },
  {
    "label": "035",
    "text": "Ils ne le savaient pas, mais inconsciemment, ils rêvaient\ntous d'un monde parfaitement immuable."
  },
  {
    "label": "036",
    "text": "Alors si je te suis bien... {{delay frames=\"15\"}}Ces rêves inconscients ont\nété amalgamés au Poulpivers ? {{delay frames=\"15\"}}Et c'est comme ça\nque l'Ordre est apparu ?"
  },
  {
    "label": "037",
    "text": "Mais pourquoi ils tiennent tellement à vivre dans\nun monde où rien ne change jamais, ces types-là ?"
  },
  {
    "label": "038",
    "text": "Voilà une question intéressante... {{delay frames=\"30\"}}Mais comme vous\nfaites rien qu'à être pas sympas avec moi, vous pouvez\ntoujours courir pour avoir la réponse !"
  },
  {
    "label": "039",
    "text": "Pff... Il est petit, mais coriace."
  },
  {
    "label": "041",
    "text": "Pfffttt..."
  },
  {
    "label": "042",
    "text": "Tu ressembles à un ballon de plage après le\npassage d'un troupeau d'éléphants de mer."
  },
  {
    "label": "043",
    "text": "J'ai encore perdu... {{delay frames=\"30\"}}Pourquoi je gagne pas plus\nsouvent ? C'est pas moi, le vilain sagouin qui\nfait rien que tricher, d'abord !"
  },
  {
    "label": "044",
    "text": "Sniff...{{delay frames=\"30\"}}sniff..."
  },
  {
    "label": "045",
    "text": "{{size value=\"150\"}}OUUUUUIIIIIN !{{size value=\"100\"}}"
  },
  {
    "label": "051",
    "text": "Je me suis fait casser en huit ! {{delay frames=\"30\"}}Ouuuinnn !"
  },
  {
    "label": "052",
    "text": "Hum... t'as dit que c'était à cause de nous que les\nOctalings rêvaient d'un monde qui ne changerait jamais...\nQu'est-ce que t'entendais par là, au juste ?"
  },
  {
    "label": "053",
    "text": "Sniff... Sniff..."
  },
  {
    "label": "054",
    "text": "Vous êtes sûrement au courant qu'un paquet d'Octalings\nremontent à la surface, depuis cinq ans et quelque..."
  },
  {
    "label": "055",
    "text": "Avant, le monde des Octalings était paisible.{{delay frames=\"15\"}} Mais ça,\nc'était avant. Et si ça a changé, c'est à cause de ces\ntêtes de mules qui pensent qu'à vivre à la surface."
  },
  {
    "label": "056",
    "text": "Certes, l'exode de masse n'a pas plu à tout le monde...{{delay frames=\"30\"}}\nEt donc, d'après toi, les développeurs du Poulpivers\nfaisaient partie des mécontents ?"
  },
  {
    "label": "057",
    "text": "C'est pour ça qu'ils rêvaient d'un monde immuable..."
  },
  {
    "label": "058",
    "text": "EXACTEMENT !{{delay frames=\"30\"}} Maintenant, tout le monde déteste les\nsagouins qui ont jeté le vieux monde Octaling à la\npoubelle !{{delay frames=\"30\"}} C'est-à-dire vous deux, Coralie et Huit !"
  },
  {
    "label": "061",
    "text": "Pfffttt..."
  },
  {
    "label": "062",
    "text": "Tu sais ce qui est le plus bizarre ? {{delay frames=\"15\"}}C'est qu'à te\nregarder, on a l'impression que même toi, t'en as marre."
  },
  {
    "label": "063",
    "text": "Humpfeuh ?"
  },
  {
    "label": "064",
    "text": "Perle ! {{delay frames=\"15\"}}Qu'est-ce que tu racontes ?"
  },
  {
    "label": "065",
    "text": "Mais regardez-le ! Toujours à parler du rêve universel,\net de son objectif, et patin-couffin. Mais est-ce que\nc'est vraiment ça que tu veux ?"
  },
  {
    "label": "066",
    "text": "B-Bien sûr !{{delay frames=\"30\"}} C'est vraiment ça !{{delay frames=\"30\"}}\nQui a dit le contraire ?"
  },
  {
    "label": "067",
    "text": "Ah ouais ? {{delay frames=\"15\"}}Eh ben moi, je crois que c'est pas vrai.{{delay frames=\"30\"}}\nMais si tu le dis... {{delay frames=\"15\"}}on va reconfigurer cette palette\net prendre la tangente !"
  },
  {
    "label": "068",
    "text": "{{string value=\"5\"}}.{{delay frames=\"5\"}}.{{delay frames=\"5\"}}.{{fun_000F_0004 arg=\"0x0500\"}}"
  },
  {
    "label": "071",
    "text": "J'ai encore perdu, évidemment. {{delay frames=\"30\"}}Je suis rien qu'un...\nqu'un petit bébé tout faible sans défense !"
  },
  {
    "label": "072",
    "text": "Attends, tu viens de dire que t'étais « tout faible » ?{{delay frames=\"30\"}}\nPff, ça me déprime quand un adversaire coriace\nbalance des trucs pareils."
  },
  {
    "label": "073",
    "text": "Tu me trouves... {{delay frames=\"15\"}}coriace ?"
  },
  {
    "label": "074",
    "text": "Mais oui. {{delay frames=\"30\"}}Tu nous en as fait voir de toutes\nles couleurs ! Et maintenant, tu viens pleurnicher\nen mode « bouhou, je suis tout faible » ?"
  },
  {
    "label": "075",
    "text": "{{size value=\"75\"}}Oooh, Perle !{{size value=\"100\"}}"
  },
  {
    "label": "076",
    "text": "Juste pour cette fois... {{delay frames=\"30\"}}je veux bien fermer les yeux !{{delay frames=\"30\"}}\nFaites ce que vous avez à faire et rentrez chez vous !"
  },
  {
    "label": "081",
    "text": "Aaargh, j'ai perdu !{{delay frames=\"30\"}} Je suis rien qu'un gros nul !"
  },
  {
    "label": "082",
    "text": "Et puis zut ! J'ai perdu et puis c'est tout.{{delay frames=\"30\"}}\nTrifouillez votre palette et débarrassez le plancher !"
  },
  {
    "label": "083",
    "text": "Et sinon...{{delay frames=\"15\"}} T'as pensé à... {{delay frames=\"15\"}}t'abstenir de nous attaquer,\ntout simplement ? C'est pas une option ?"
  },
  {
    "label": "084",
    "text": "Et puis quoi encore ? {{delay frames=\"30\"}}Si je vous laisse reconfigurer\ntoutes les palettes, je vais me retrouver..."
  },
  {
    "label": "085",
    "text": "Ben allez, finis ta phrase ! Tu te retrouveras... ?"
  },
  {
    "label": "086",
    "text": "Nan !{{delay frames=\"30\"}} Vous m'aurez pas ! Je vais pas baisser\nles tentacules aussi facilement !"
  },
  {
    "label": "091",
    "text": "Et une palette reconfigurée de plus, une !"
  },
  {
    "label": "092",
    "text": "Et donc, euh... {{delay frames=\"15\"}}Vous partez déjà ?"
  },
  {
    "label": "093",
    "text": "Pas si vite. Ce n'était pas la dernière palette à\nreconfigurer. {{delay frames=\"30\"}}On se revoit bientôt."
  },
  {
    "label": "094",
    "text": "Et ça va chauffer à ce moment-là !{{delay frames=\"15\"}} La prochaine fois,\nje vais gagner, c'est sûr !{{delay frames=\"30\"}} J'ai hâte de{{string value=\"5\"}}...{{fun_000F_0004 arg=\"0x0500\"}}"
  },
  {
    "label": "095",
    "text": "{{size value=\"150\"}}NON, RIEN ! {{delay frames=\"30\"}}LAISSEZ TOMBER\nET FICHEZ LE CAMP !{{size value=\"100\"}}"
  },
  {
    "label": "101",
    "text": "Et voilà ! {{delay frames=\"30\"}}Bravo, Huit ! {{delay frames=\"15\"}}Ta palette est enfin reconfigurée."
  },
  {
    "label": "102",
    "text": "Tu vas pouvoir souffler un peu, maintenant."
  },
  {
    "label": "103",
    "text": "Alors ça y est, bande de sagouins...{{delay frames=\"30\"}} Je veux dire :{{delay frames=\"30\"}}\nÇa y est ? Vous m'avez battu une fois pour toutes ?"
  },
  {
    "label": "104",
    "text": "Si même Minusque le dit, c'est qu'on a vraiment réussi."
  },
  {
    "label": "105",
    "text": "Le Poulpivers pourra enfin servir à aider les Octalings,\ncomme Coralie l'avait conçu à la base."
  },
  {
    "label": "106",
    "text": "Tant pis pour le rêve universel d'un monde d'ordre..."
  },
  {
    "label": "107",
    "text": "Enfin ! {{delay frames=\"15\"}}Jouer les « boss de fin » de la tour,\nça a du bon aussi."
  },
  {
    "label": "108",
    "text": "Oh, Minusque..."
  },
  {
    "label": "109",
    "text": "Au fond, ça me faisait plaisir de vous voir de temps\nen temps."
  },
  {
    "label": "110",
    "text": "Prenez soin de vous dans le monde réel !{{delay frames=\"30\"}}\n... S'il vous plaît."
  },
  {
    "label": "111",
    "text": "Et... Si vous voulez me faire plaisir... venez jouer\navec moi quand le cœur vous en dit !"
  },
  {
    "label": "301",
    "text": "Grrr ! {{delay frames=\"15\"}}Vous êtes coriaces, dans votre genre."
  },
  {
    "label": "302",
    "text": "Et encore, tu t'en es bien sorti... {{delay frames=\"30\"}}La correction aurait\npu être plus sévère que ça !"
  },
  {
    "label": "303",
    "text": "MAIHEUUU ! La prochaine fois, ça se passera\npas comme ça !"
  },
  {
    "label": "311",
    "text": "Pff... Moi qui croyais que j'allais gagner cette fois-ci."
  },
  {
    "label": "312",
    "text": "Un point pour le camp des gentils !"
  },
  {
    "label": "313",
    "text": "GRRR !{{delay frames=\"15\"}} La prochaine fois, vous serez dans le camp des\nlosers !{{delay frames=\"30\"}} En attendant, dégagez le plancher ! PFFFRRT !"
  },
  {
    "label": "321",
    "text": "Pff... Pff... Pffiou. Vous avez gagné une bataille,\nmais pas la guerre."
  },
  {
    "label": "322",
    "text": "Pff, la réplique classique du second couteau qui se fait\nratatiner par le héros... {{delay frames=\"30\"}}Tu devrais te trouver des\ndialoguistes plus originaux !"
  },
  {
    "label": "323",
    "text": "EH ! On a pas le droit de briser le quatrième mur,\nd'abord !{{delay frames=\"15\"}} Filez d'ici, les sagouins !"
  },
  {
    "label": "501",
    "text": "Ouah, Huit ! Vous êtes drôlement costauds,\nPerle et toi !"
  },
  {
    "label": "502",
    "text": "On te retourne le compliment, mon pote !"
  },
  {
    "label": "503",
    "text": "Je me suis bien amusé. {{delay frames=\"30\"}}J'espère que vous reviendrez\njouer avec moi de temps en temps !"
  },
  {
    "label": "511",
    "text": "Bien joué ! Vous avez combattu comme des lions de mer !"
  },
  {
    "label": "512",
    "text": "Toi aussi, Minusque, je suis fière de toi. {{delay frames=\"30\"}}J'espère\nque tu continueras à être le boss final de la tour !"
  },
  {
    "label": "513",
    "text": "Tu peux compter sur moi !{{delay frames=\"15\"}} J'ai hâte de voir le défilé\ndes Octalings qui viendront m'attaquer. {{delay frames=\"30\"}}Et j'espère que\nj'aurai aussi l'occasion de vous revoir... S'il vous plaît ?"
  },
  {
    "label": "521",
    "text": "C'était impressionnant, Huit !{{delay frames=\"30\"}} Tu es trop rapide\net trop coriace pour moi."
  },
  {
    "label": "522",
    "text": "Joue pas les faux modestes, Minusque. {{delay frames=\"15\"}}Tu te défends\nbien aussi. {{delay frames=\"30\"}}J'espère que je t'ai pas dérangé pendant\nta pause détente, au fait."
  },
  {
    "label": "523",
    "text": "Je t'ai déjà dit que j'avais pas le temps de me détendre !{{delay frames=\"30\"}}\nEt la prochaine fois, c'est vous qui me supplierez\nde faire une pause !"
  }
]