[
  {
    "label": "T_Msg_01",
    "text": "『Splatoon 2』의 저장 데이터를 계승하겠습니까?"
  },
  {
    "label": "T_Msg_02",
    "text": "계승하면 게임 내에서 다음 특전을 받을 수 있습니다"
  },
  {
    "label": "T_Msg_00",
    "text": "1. 원하는 무기와 교환할 수 있는 {{icon id=\"29\" arg=\"0xF6285C3F00000000\"}}{{color id=\"1\"}}골드 부키치 라이선스{{color id=\"65535\"}}를 3장 받을 수 있습니다\n2. 일반 플레이보다 한발 빠르게 {{color id=\"1\"}}카오폴리스 매치{{color id=\"65535\"}}에 참가할 수 있습니다\n3. 처음부터 실력이 비슷한 상대와 배틀할 수 있습니다"
  },
  {
    "label": "L_BtnL_00-T_Btn_00",
    "text": "그만두기"
  },
  {
    "label": "L_BtnR_00-T_Btn_00",
    "text": "계승하기"
  }
]