[
  {
    "label": "L_BtnL_00-T_Btn_00",
    "text": "그만두기"
  },
  {
    "label": "L_BtnR_00-T_Btn_00",
    "text": "테스트하기"
  },
  {
    "label": "L_DetailWpn_00-T_Special_00",
    "text": "스페셜 필요 포인트"
  },
  {
    "label": "T_Question_00",
    "text": "이 무기를 테스트하겠습니까?"
  }
]