[
  {
    "label": "L_BtnCategory_00-T_Category_00",
    "text": "무기"
  },
  {
    "label": "L_BtnCategory_01-T_Category_00",
    "text": "액세서리"
  },
  {
    "label": "L_BtnCategory_02-T_Category_00",
    "text": "옷"
  },
  {
    "label": "L_BtnCategory_03-T_Category_00",
    "text": "신발"
  },
  {
    "label": "L_BtnCategory_04-T_Category_00",
    "text": "기타"
  },
  {
    "label": "L_BtnCategory_05-T_Category_00",
    "text": "감정 표현"
  },
  {
    "label": "L_Back_00-T_Info_00",
    "text": "뒤로"
  },
  {
    "label": "000",
    "text": "사용 빈도"
  },
  {
    "label": "001",
    "text": "기어 파워"
  },
  {
    "label": "002",
    "text": "브랜드"
  },
  {
    "label": "003",
    "text": "메인"
  },
  {
    "label": "004",
    "text": "서브"
  },
  {
    "label": "005",
    "text": "스페셜"
  },
  {
    "label": "006",
    "text": "미소지"
  },
  {
    "label": "010",
    "text": "테스트"
  },
  {
    "label": "011",
    "text": "스타일링"
  },
  {
    "label": "020",
    "text": "기어 파워 미개방"
  },
  {
    "label": "050",
    "text": "지금은 무기와 기어를\n변경할 수 없습니다"
  },
  {
    "label": "051",
    "text": "지금은 무기와 기어를\n변경할 수 없습니다"
  },
  {
    "label": "052",
    "text": "지금은 무기와 기어를\n변경할 수 없습니다"
  },
  {
    "label": "053",
    "text": "지금은 무기와 기어를\n변경할 수 없습니다"
  },
  {
    "label": "L_DetailWpn_00-T_Special_00",
    "text": "스페셜 필요 포인트"
  },
  {
    "label": "T_NoSort_00",
    "text": "해당하는 것이 없습니다"
  },
  {
    "label": "L_DetailWpn_00-T_Skilled_00",
    "text": "숙련도"
  },
  {
    "label": "T_Fest_00",
    "text": "페스티벌 중에는\n옷을 갈아입을 수 없습니다"
  },
  {
    "label": "L_Tab_00-T_Text_00",
    "text": "TV 모드/\n테이블 모드"
  },
  {
    "label": "L_Tab_01-T_Text_00",
    "text": "휴대 모드"
  },
  {
    "label": "L_Tab_02-T_Text_00",
    "text": "스타일"
  },
  {
    "label": "L_Tab_03-T_Text_00",
    "text": "amiibo"
  },
  {
    "label": "L_GaugeOption_00-T_Header_00",
    "text": "자이로 조작 감도"
  },
  {
    "label": "L_GaugeOption_00-T_Msg_00",
    "text": "자이로 조작이 OFF일 때는 무효합니다"
  },
  {
    "label": "L_GaugeOption_01-T_Header_00",
    "text": "{{icon id=\"8\" arg=\"0x0000004000000000\"}}조작 감도"
  },
  {
    "label": "L_BtnOption_00-T_Header_00",
    "text": "{{icon id=\"8\" arg=\"0x0000004000000000\"}}상하 조작"
  },
  {
    "label": "L_BtnOption_00-T_Msg_00",
    "text": "자이로 조작이 ON일 때는 무효합니다"
  },
  {
    "label": "L_BtnOption_00-T_BtnL_00",
    "text": "노멀"
  },
  {
    "label": "L_BtnOption_00-T_BtnR_00",
    "text": "리버스"
  },
  {
    "label": "L_BtnOption_01-T_Header_00",
    "text": "{{icon id=\"8\" arg=\"0x0000004000000000\"}}좌우 조작"
  },
  {
    "label": "L_BtnOption_01-T_BtnL_00",
    "text": "노멀"
  },
  {
    "label": "L_BtnOption_01-T_BtnR_00",
    "text": "리버스"
  },
  {
    "label": "L_BtnOption_02-T_Header_00",
    "text": "자이로 조작"
  },
  {
    "label": "L_BtnOption_02-T_BtnL_00",
    "text": "ON"
  },
  {
    "label": "L_BtnOption_02-T_BtnR_00",
    "text": "OFF"
  },
  {
    "label": "L_Bottom_00-T_Info_00",
    "text": "뒤로"
  },
  {
    "label": "L_GaugeOption_02-T_Header_00",
    "text": "자이로 조작 감도"
  },
  {
    "label": "L_GaugeOption_02-T_Msg_00",
    "text": "자이로 조작이 OFF일 때는 무효합니다"
  },
  {
    "label": "L_GaugeOption_03-T_Header_00",
    "text": "{{icon id=\"8\" arg=\"0x0000004000000000\"}}조작 감도"
  },
  {
    "label": "L_BtnOption_03-T_Header_00",
    "text": "{{icon id=\"8\" arg=\"0x0000004000000000\"}}상하 조작"
  },
  {
    "label": "L_BtnOption_03-T_Msg_00",
    "text": "자이로 조작이 ON일 때는 무효합니다"
  },
  {
    "label": "L_BtnOption_03-T_BtnL_00",
    "text": "노멀"
  },
  {
    "label": "L_BtnOption_03-T_BtnR_00",
    "text": "리버스"
  },
  {
    "label": "L_BtnOption_04-T_Header_00",
    "text": "{{icon id=\"8\" arg=\"0x0000004000000000\"}}좌우 조작"
  },
  {
    "label": "L_BtnOption_04-T_BtnL_00",
    "text": "노멀"
  },
  {
    "label": "L_BtnOption_04-T_BtnR_00",
    "text": "리버스"
  },
  {
    "label": "L_BtnOption_05-T_Header_00",
    "text": "자이로 조작"
  },
  {
    "label": "L_BtnOption_05-T_BtnL_00",
    "text": "ON"
  },
  {
    "label": "L_BtnOption_05-T_BtnR_00",
    "text": "OFF"
  },
  {
    "label": "L_Style_00-T_Title_00",
    "text": "헤어스타일"
  },
  {
    "label": "L_Style_01-T_Title_00",
    "text": "눈썹"
  },
  {
    "label": "L_Style_02-T_Title_00",
    "text": "하의"
  },
  {
    "label": "L_GuideBtn_01-T_Info_00",
    "text": "표시 전환"
  },
  {
    "label": "030",
    "text": "현재 장비, 플레이어 설정, 카메라 옵션 정보와\n등록된 마이 코디를 amiibo에 저장할 수 있습니다"
  },
  {
    "label": "031",
    "text": "amiibo는 인터넷에 접속하여\n본 소프트웨어를 최신 버전으로\n업데이트하면 사용할 수 있습니다"
  },
  {
    "label": "L_Btn_00-T_Btn_00",
    "text": "저장하기"
  },
  {
    "label": "L_GuideBtn_04-T_Category_00",
    "text": "마이 코디"
  },
  {
    "label": "L_MySetBtnCategory_00-T_Category_00",
    "text": "무기"
  },
  {
    "label": "L_MySetBtnCategory_01-T_Category_00",
    "text": "액세서리"
  },
  {
    "label": "L_MySetBtnCategory_02-T_Category_00",
    "text": "옷"
  },
  {
    "label": "L_MySetBtnCategory_03-T_Category_00",
    "text": "신발"
  },
  {
    "label": "T_OpTitle_00",
    "text": "자이로 조작 감도"
  },
  {
    "label": "T_OpTitle_01",
    "text": "{{icon id=\"8\" arg=\"0x6666263F00000000\"}}조작 감도"
  },
  {
    "label": "T_OpTitle_02",
    "text": "{{icon id=\"8\" arg=\"0x6666263F00000000\"}}상하 조작"
  },
  {
    "label": "T_OpTitle_03",
    "text": "{{icon id=\"8\" arg=\"0x6666263F00000000\"}}좌우 조작"
  },
  {
    "label": "T_OpTitle_04",
    "text": "자이로 조작"
  },
  {
    "label": "T_Colon_00",
    "text": ":"
  },
  {
    "label": "T_Colon_01",
    "text": ":"
  },
  {
    "label": "T_Colon_02",
    "text": ":"
  },
  {
    "label": "T_Colon_03",
    "text": ":"
  },
  {
    "label": "T_Colon_04",
    "text": ":"
  },
  {
    "label": "040",
    "text": "ON"
  },
  {
    "label": "041",
    "text": "OFF"
  },
  {
    "label": "042",
    "text": "노멀"
  },
  {
    "label": "043",
    "text": "리버스"
  },
  {
    "label": "044",
    "text": "{{string index=\"0\" arg2=\"1\"}}{{number index=\"0\" type=\"1\" arg3=\"0\" arg4=\"0\"}}.{{number index=\"1\" type=\"1\" arg3=\"0\" arg4=\"0\"}}"
  },
  {
    "label": "045",
    "text": "무효"
  },
  {
    "label": "L_TabMyset_00-T_Text_00",
    "text": "1"
  },
  {
    "label": "L_TabMyset_01-T_Text_00",
    "text": "2"
  },
  {
    "label": "L_TabMyset_02-T_Text_00",
    "text": "3"
  },
  {
    "label": "L_TabMyset_03-T_Text_00",
    "text": "4"
  },
  {
    "label": "L_TabMyset_04-T_Text_00",
    "text": "5"
  },
  {
    "label": "L_TabMyset_05-T_Text_00",
    "text": "1"
  },
  {
    "label": "L_TabMyset_06-T_Text_00",
    "text": "2"
  },
  {
    "label": "L_TabMyset_07-T_Text_00",
    "text": "3"
  },
  {
    "label": "L_TabMyset_08-T_Text_00",
    "text": "4"
  },
  {
    "label": "L_TabMyset_09-T_Text_00",
    "text": "5"
  },
  {
    "label": "L_TabAmiiboMyset_00-T_Text_00",
    "text": "1"
  },
  {
    "label": "L_TabAmiiboMyset_01-T_Text_00",
    "text": "2"
  },
  {
    "label": "L_TabAmiiboMyset_02-T_Text_00",
    "text": "3"
  },
  {
    "label": "L_TabAmiiboMyset_03-T_Text_00",
    "text": "4"
  },
  {
    "label": "L_TabAmiiboMyset_04-T_Text_00",
    "text": "5"
  },
  {
    "label": "L_MysetBtn_01-T_Text_00",
    "text": "현재 코디 등록하기"
  },
  {
    "label": "L_MysetBtn_00-T_Text_00",
    "text": "이 코디로 갈아입기"
  },
  {
    "label": "T_NonRegister_00",
    "text": "미등록"
  },
  {
    "label": "L_Bottom_01-T_Info_00",
    "text": "뒤로"
  },
  {
    "label": "T_Explanation_01",
    "text": "지금 장비하고 있는 무기와 기어 등을\n한꺼번에 마이 코디에 등록해 두면\n나중에 손쉽게 등록된 상태로 돌아갈 수 있습니다"
  },
  {
    "label": "L_BtnList_08-T_SoldOut_00",
    "text": "소지 중"
  }
]