[
  {
    "label": "000",
    "text": "{{string value=\"WeaponName\" arg1=\"0\" arg3=\"0\"}}!"
  },
  {
    "label": "T_Change_00",
    "text": "무기 체인지"
  },
  {
    "label": "T_SubName_00",
    "text": "아르바이트 전용"
  },
  {
    "label": "T_Change_01",
    "text": "레어 무기!"
  },
  {
    "label": "T_Change_02",
    "text": "특별 지급!!"
  },
  {
    "label": "T_WpnName_02",
    "text": "연어알 캐넌!"
  }
]