[
  {
    "label": "000",
    "text": "승급 축하합니다!!"
  },
  {
    "label": "001",
    "text": "도전 종료!"
  },
  {
    "label": "002",
    "text": "승리!"
  },
  {
    "label": "003",
    "text": "도전 종료!"
  },
  {
    "label": "010",
    "text": "{{number index=\"0\" type=\"1\" arg3=\"0\" arg4=\"0\"}}-{{number index=\"1\" type=\"1\" arg3=\"0\" arg4=\"0\"}}"
  },
  {
    "label": "015",
    "text": "{{number index=\"0\" type=\"2\" arg3=\"0\" arg4=\"0\"}}연승!"
  },
  {
    "label": "T_Total_00",
    "text": "TOTAL"
  },
  {
    "label": "T_UnitTotal_00",
    "text": "p"
  },
  {
    "label": "T_Msg_00",
    "text": "랭크 유지"
  },
  {
    "label": "T_Upgrade_00",
    "text": "랭크 업!!"
  },
  {
    "label": "T_Explain_00",
    "text": "랭크 포인트는 리셋됩니다"
  },
  {
    "label": "020",
    "text": "WIN"
  },
  {
    "label": "021",
    "text": "LOSE"
  },
  {
    "label": "T_Win_00",
    "text": "WIN"
  },
  {
    "label": "T_Lose_00",
    "text": "LOSE"
  },
  {
    "label": "T_Hyphen_00",
    "text": "-"
  },
  {
    "label": "T_Msg_02",
    "text": "랭크 업!!"
  },
  {
    "label": "030",
    "text": "승급전"
  },
  {
    "label": "050",
    "text": "다음 랭크까지 앞으로"
  },
  {
    "label": "051",
    "text": "승급전까지 앞으로"
  },
  {
    "label": "052",
    "text": "승급전 도전 가능!"
  },
  {
    "label": "053",
    "text": "승급전 도전 중"
  },
  {
    "label": "100",
    "text": "오픈"
  },
  {
    "label": "101",
    "text": "챌린지"
  },
  {
    "label": "102",
    "text": "승급전"
  },
  {
    "label": "110",
    "text": "{{number index=\"0\" type=\"3\" arg3=\"0\" arg4=\"0\"}}{{size value=\"70\"}}p{{size value=\"100\"}}"
  },
  {
    "label": "T_Msg_01",
    "text": "카오폴리스 매치(챌린지)에서\n{{color id=\"1\"}}승급전{{color id=\"65535\"}}에 도전할 수 있다!"
  },
  {
    "label": "T_XPowerTitle_00",
    "text": "X 파워"
  },
  {
    "label": "210",
    "text": "+{{number index=\"0\" type=\"2\" arg3=\"0\" arg4=\"0\"}}.{{number index=\"1\" type=\"1\" arg3=\"0\" arg4=\"0\"}}"
  },
  {
    "label": "211",
    "text": "-{{number index=\"0\" type=\"2\" arg3=\"0\" arg4=\"0\"}}.{{number index=\"1\" type=\"1\" arg3=\"0\" arg4=\"0\"}}"
  }
]