[
  {
    "label": "T_Watch_00",
    "text": "관전 중…"
  },
  {
    "label": "T_Exit_00",
    "text": "끝내기"
  },
  {
    "label": "000",
    "text": "{{string value=\"PlayerName\" arg1=\"0\" arg3=\"0\"}}님과 대전 가능!"
  }
]