[
  {
    "label": "000",
    "text": "×{{number index=\"0\" type=\"5\" arg3=\"0\" arg4=\"0\"}}"
  },
  {
    "label": "002",
    "text": "히어로 장비"
  },
  {
    "label": "L_WeaponSelect_00-L_WpnBtn_00-T_ClearPoint_01",
    "text": "클리어 보상"
  },
  {
    "label": "L_WeaponSelect_00-L_WpnBtn_00-T_Reccomend_00",
    "text": "추천"
  },
  {
    "label": "L_WeaponSelect_00-T_ChallenPay_01",
    "text": "챌린지 요금"
  }
]