[
  {
    "label": "000",
    "text": "카메라 전환"
  },
  {
    "label": "001",
    "text": "카메라 조작"
  },
  {
    "label": "002",
    "text": "맵"
  },
  {
    "label": "003",
    "text": "기본 조작"
  },
  {
    "label": "004",
    "text": "탐색 조작"
  },
  {
    "label": "005",
    "text": "하이라이트"
  },
  {
    "label": "T_CameraHeader_00",
    "text": "부감 카메라"
  },
  {
    "label": "T_CameraHeader_01",
    "text": "플레이어 카메라"
  },
  {
    "label": "T_CameraHeader_02",
    "text": "룰별 카메라"
  },
  {
    "label": "T_OperationHeader_00",
    "text": "부감 카메라"
  },
  {
    "label": "T_OperationHeader_01",
    "text": "룰별 카메라"
  },
  {
    "label": "T_Map_00",
    "text": "맵 표시"
  },
  {
    "label": "T_Camera_00",
    "text": "줌 ON/OFF"
  },
  {
    "label": "T_Camera_01",
    "text": "줌일 때 이동"
  },
  {
    "label": "T_Camera_02",
    "text": "줌일 때 회전"
  },
  {
    "label": "T_Camera_03",
    "text": "회전"
  },
  {
    "label": "T_OperationHeader_02",
    "text": "자동 관전 카메라"
  },
  {
    "label": "T_Camera_04",
    "text": "카메라 전환"
  },
  {
    "label": "T_CameraHeader_03",
    "text": "자동 관전 카메라 ON/OFF"
  },
  {
    "label": "T_CameraHeader_04",
    "text": "스페셜 게이지 수치 ON/OFF"
  },
  {
    "label": "L_BtnBack_00-T_Info_00",
    "text": "뒤로"
  },
  {
    "label": "T_CameraOp_00",
    "text": "카메라 조작"
  },
  {
    "label": "T_ReplayOp_00",
    "text": "메모리 조작"
  },
  {
    "label": "T_Target_04",
    "text": "골 2"
  },
  {
    "label": "T_Target_03",
    "text": "골 1"
  },
  {
    "label": "T_Target_02",
    "text": "에어리어 2"
  },
  {
    "label": "T_Target_01",
    "text": "에어리어 1"
  },
  {
    "label": "T_Target_00",
    "text": "타워・피시・에어리어"
  },
  {
    "label": "T_Player_01",
    "text": "브라보 팀"
  },
  {
    "label": "T_Player_00",
    "text": "알파 팀"
  },
  {
    "label": "T_Title_04",
    "text": "탐색 바 조작"
  },
  {
    "label": "T_Title_03",
    "text": "탐색 위치 결정"
  },
  {
    "label": "T_Title_02",
    "text": "재생 중인 위치로 이동"
  },
  {
    "label": "T_Title_01",
    "text": "하이라이트 세트"
  },
  {
    "label": "T_Title_00",
    "text": "하이라이트로 이동"
  },
  {
    "label": "T_Title_05",
    "text": "일시 정지・재생"
  },
  {
    "label": "T_Title_06",
    "text": "빨리 감기"
  },
  {
    "label": "T_Player_02",
    "text": "공격 팀 A"
  },
  {
    "label": "T_Player_03",
    "text": "수비 팀"
  },
  {
    "label": "T_Player_04",
    "text": "공격 팀 B"
  },
  {
    "label": "T_CameraHeader_05",
    "text": "트리컬러 배틀"
  },
  {
    "label": "T_Push_00",
    "text": "누르기"
  },
  {
    "label": "T_Push_01",
    "text": "누르기"
  },
  {
    "label": "T_Push_02",
    "text": "누르기"
  },
  {
    "label": "T_Title_07",
    "text": "그래프 보기"
  }
]