[
  {
    "label": "L_Guide_00-T_Info_00",
    "text": "뒤로"
  },
  {
    "label": "T_Conclusion_00",
    "text": "정리"
  },
  {
    "label": "T_Habitat_00",
    "text": "주요 서식지: "
  },
  {
    "label": "000",
    "text": "앞으로 {{number index=\"0\" type=\"4\" arg3=\"0\" arg4=\"0\"}}마리 쓰러뜨리면 열립니다"
  }
]