[
  {
    "label": "Fire",
    "text": "파워 컬러 칩 피버!"
  },
  {
    "label": "Continuity",
    "text": "서포트 컬러 칩 피버!"
  },
  {
    "label": "Range",
    "text": "레인지 컬러 칩 피버!"
  },
  {
    "label": "Move",
    "text": "무브 컬러 칩 피버!"
  },
  {
    "label": "Luck",
    "text": "럭키 컬러 칩 피버!"
  },
  {
    "label": "Auto",
    "text": "드론 컬러 칩 피버!"
  },
  {
    "label": "L_SubEvent_00-T_SubEvent_00",
    "text": "보너스"
  },
  {
    "label": "T_Title_01",
    "text": "피버!"
  }
]