[
  {
    "label": "000",
    "text": "{{number index=\"0\" type=\"4\" arg3=\"0\" arg4=\"0\"}}p"
  },
  {
    "label": "001",
    "text": "{{number index=\"0\" type=\"2\" arg3=\"0\" arg4=\"0\"}} 카운트"
  },
  {
    "label": "004",
    "text": "통신을 종료한 플레이어가 있으므로 패배로 카운트되지 않았습니다"
  },
  {
    "label": "007",
    "text": "???"
  },
  {
    "label": "008",
    "text": "WIN!"
  },
  {
    "label": "009",
    "text": "LOSE…"
  },
  {
    "label": "010",
    "text": "뒤로"
  },
  {
    "label": "020",
    "text": "즐겨찾기"
  },
  {
    "label": "021",
    "text": "즐겨찾기 해제"
  },
  {
    "label": "L_Replay_00-T_Text_00",
    "text": "재생하기"
  },
  {
    "label": "L_Upload_00-T_Text_00",
    "text": "업로드하기"
  },
  {
    "label": "022",
    "text": "배틀 메모리 재생"
  },
  {
    "label": "030",
    "text": "랭크 업!!"
  },
  {
    "label": "032",
    "text": "녹아웃!"
  },
  {
    "label": "033",
    "text": "-"
  },
  {
    "label": "040",
    "text": "최근 배틀"
  },
  {
    "label": "050",
    "text": "WIN!"
  },
  {
    "label": "051",
    "text": "LOSE…"
  },
  {
    "label": "052",
    "text": "DRAW"
  },
  {
    "label": "060",
    "text": "WIN!"
  },
  {
    "label": "061",
    "text": "LOSE…"
  },
  {
    "label": "070",
    "text": "???"
  },
  {
    "label": "071",
    "text": "랭크 업!!"
  },
  {
    "label": "072",
    "text": "녹아웃!"
  },
  {
    "label": "080",
    "text": "?????"
  },
  {
    "label": "081",
    "text": "???"
  },
  {
    "label": "090",
    "text": "시합이 정상적으로 종료되지 않았습니다"
  },
  {
    "label": "091",
    "text": "시합이 무효 처리되었습니다"
  },
  {
    "label": "092",
    "text": "통신을 종료한 플레이어가 있으므로 패배로 카운트되지 않았습니다"
  },
  {
    "label": "T_MedalAll_00",
    "text": "획득한 표창"
  },
  {
    "label": "T_ReplayName_01",
    "text": "의 배틀 메모리"
  },
  {
    "label": "L_Result_04-T_MSign_01",
    "text": "x"
  },
  {
    "label": "T_Result_02",
    "text": "WIN"
  },
  {
    "label": "T_Result_03",
    "text": "LOSE"
  },
  {
    "label": "L_Win_00-T_Win_00",
    "text": "WIN!"
  },
  {
    "label": "L_Win_00-T_Draw_00",
    "text": "DRAW"
  },
  {
    "label": "L_WinLose_00-T_Lose_00",
    "text": "LOSE…"
  },
  {
    "label": "L_Win_00-T_Point_00",
    "text": "p"
  },
  {
    "label": "L_Win_00-T_NoGame_00",
    "text": "---"
  },
  {
    "label": "L_WinLose_00-T_NoGame_00",
    "text": "---"
  },
  {
    "label": "L_Lose_00-T_NoGame_00",
    "text": "---"
  },
  {
    "label": "T_Point_00",
    "text": "p"
  },
  {
    "label": "L_ReplayList_00-L_BtnReplay_00-T_Result_01",
    "text": "???"
  },
  {
    "label": "L_ResultChange_00-T_Info_00",
    "text": "결과 보기"
  },
  {
    "label": "T_Download_00",
    "text": "다운로드한 배틀 메모리입니다"
  },
  {
    "label": "L_ResultMeter_00-T_PlayerMax_00",
    "text": "녹아웃!"
  },
  {
    "label": "L_Result_00-T_Point_00",
    "text": "p"
  },
  {
    "label": "L_BtnReport_00-T_Info_00",
    "text": "신고"
  }
]