[
  {
    "label": "SpInkStorm",
    "text": "Atormentador"
  },
  {
    "label": "SpUltraShot",
    "text": "Tintazuca triple"
  },
  {
    "label": "SpUltraStamp",
    "text": "Ultraselladora"
  },
  {
    "label": "SpGachihoko",
    "text": "Pez dorado"
  },
  {
    "label": "SpGreatBarrier",
    "text": "Megaburbuja"
  },
  {
    "label": "SpJetpack",
    "text": "Propulsor"
  },
  {
    "label": "SpShockSonar",
    "text": "Emiteondas"
  },
  {
    "label": "SpSuperHook",
    "text": "Gancho tentacular"
  },
  {
    "label": "SpSuperLanding",
    "text": "Salto explosivo"
  },
  {
    "label": "SpSkewer",
    "text": "Flotiburón"
  },
  {
    "label": "SpChariot",
    "text": "Cangrejobot"
  },
  {
    "label": "SpNiceBall",
    "text": "Bola genializante"
  },
  {
    "label": "SpBlower",
    "text": "Aspiratinta"
  },
  {
    "label": "SpMultiMissile",
    "text": "Lanzamisiles"
  },
  {
    "label": "SpMicroLaser",
    "text": "Tintófono 5.1"
  },
  {
    "label": "SpTripleTornado",
    "text": "Tornado triple"
  },
  {
    "label": "SpEnergyStand",
    "text": "Dispensabebidas"
  },
  {
    "label": "SpFirework",
    "text": "Multiseñuelos"
  },
  {
    "label": "SpCastle",
    "text": "Calamar imperial"
  },
  {
    "label": "SpChimney",
    "text": "Pantintalla"
  },
  {
    "label": "SpPogo",
    "text": "Puñetazos explosivos"
  },
  {
    "label": "SpIkuraShoot",
    "text": "-"
  },
  {
    "label": "SpGreatBarrier_Rival",
    "text": "-"
  },
  {
    "label": "SpInkStorm_Rival",
    "text": "-"
  },
  {
    "label": "SpJetpack_Rival",
    "text": "-"
  },
  {
    "label": "SpMultiMissile_Rival",
    "text": "-"
  },
  {
    "label": "SpShockSonar_Rival",
    "text": "-"
  },
  {
    "label": "SpSuperLanding_Rival",
    "text": "-"
  },
  {
    "label": "SpBlower_Mission",
    "text": "Aspiratinta"
  },
  {
    "label": "SpChariot_Mission",
    "text": "Cangrejobot"
  },
  {
    "label": "SpInkStorm_Mission",
    "text": "Atormentador"
  },
  {
    "label": "SpMicroLaser_Mission",
    "text": "Tintófono 5.1"
  },
  {
    "label": "SpMultiMissile_Mission",
    "text": "Lanzamisiles"
  },
  {
    "label": "SpShockSonar_Mission",
    "text": "Emiteondas"
  },
  {
    "label": "SpSkewer_Mission",
    "text": "Flotiburón"
  },
  {
    "label": "SpSuperHook_Mission",
    "text": "Gancho tentacular"
  },
  {
    "label": "SpTripleTornado_Mission",
    "text": "Tornado triple"
  },
  {
    "label": "SpUltraShot_Mission",
    "text": "Tintazuca triple"
  },
  {
    "label": "SpUltraStamp_Mission",
    "text": "Ultraselladora"
  },
  {
    "label": "SpJetpack_Mission",
    "text": "Propulsor"
  },
  {
    "label": "SpUltraShot_Coop",
    "text": "Tintazuca triple"
  },
  {
    "label": "SpJetpack_Coop",
    "text": "Propulsor"
  },
  {
    "label": "SpShockSonar_Coop",
    "text": "Emiteondas"
  },
  {
    "label": "SpSuperLanding_Coop",
    "text": "Salto explosivo"
  },
  {
    "label": "SpSkewer_Coop",
    "text": "Flotiburón"
  },
  {
    "label": "SpChariot_Coop",
    "text": "Cangrejobot"
  },
  {
    "label": "SpNiceBall_Coop",
    "text": "Bola genializante"
  },
  {
    "label": "SpMicroLaser_Coop",
    "text": "Tintófono 5.1"
  },
  {
    "label": "SpTripleTornado_Coop",
    "text": "Tornado triple"
  },
  {
    "label": "SpCastle_Coop",
    "text": "Calamar imperial"
  },
  {
    "label": "SpPogo_Coop",
    "text": "Puñetazos explosivos"
  },
  {
    "label": "SpGachihokoForEventMatch",
    "text": "Pez dorado"
  },
  {
    "label": "SpMicroLaserSdodr",
    "text": "Tintófono 5.1"
  },
  {
    "label": "SpShockSonarSdodr",
    "text": "Emiteondas"
  },
  {
    "label": "SpSkewerSdodr",
    "text": "Flotiburón"
  },
  {
    "label": "SpInkStormSdodr",
    "text": "Atormentador"
  },
  {
    "label": "SpTripleTornadoSdodr",
    "text": "Tornado triple"
  },
  {
    "label": "SpChariotSdodr",
    "text": "Cangrejobot"
  },
  {
    "label": "SpCastleSdodr",
    "text": "Calamar imperial"
  },
  {
    "label": "SpNiceBallSdodr",
    "text": "Bola genializante"
  },
  {
    "label": "SpUltraStampSdodr",
    "text": "Ultraselladora"
  },
  {
    "label": "SpUltraShotSdodr",
    "text": "Tintazuca triple"
  },
  {
    "label": "SpPogoSdodr",
    "text": "Puñetazos explosivos"
  },
  {
    "label": "SpPogo_Rival",
    "text": "-"
  },
  {
    "label": "SpDroneBuddySdodr",
    "text": "-"
  }
]