[
  {
    "label": "Udemae_Inv",
    "text": "---"
  },
  {
    "label": "Udemae_00",
    "text": "C-"
  },
  {
    "label": "Udemae_01",
    "text": "C"
  },
  {
    "label": "Udemae_02",
    "text": "C+"
  },
  {
    "label": "Udemae_03",
    "text": "B-"
  },
  {
    "label": "Udemae_04",
    "text": "B"
  },
  {
    "label": "Udemae_05",
    "text": "B+"
  },
  {
    "label": "Udemae_06",
    "text": "A-"
  },
  {
    "label": "Udemae_07",
    "text": "A"
  },
  {
    "label": "Udemae_08",
    "text": "A+"
  },
  {
    "label": "Udemae_09",
    "text": "S"
  },
  {
    "label": "Udemae_10",
    "text": "S+"
  },
  {
    "label": "Udemae_10_2",
    "text": "S+{{size value=\"50\"}}{{number index=\"0\" type=\"2\" arg3=\"0\" arg4=\"0\"}}{{size value=\"100\"}}"
  },
  {
    "label": "Promote",
    "text": "승급전 도전 가능!"
  },
  {
    "label": "Challenging",
    "text": "승급전 도전 중!"
  }
]