[
  {
    "label": "Pnt",
    "text": "영역 배틀"
  },
  {
    "label": "Pnt_2L",
    "text": "영역\n배틀"
  },
  {
    "label": "Var",
    "text": "랭크 에어리어"
  },
  {
    "label": "Var_2L",
    "text": "랭크\n에어리어"
  },
  {
    "label": "Vgl",
    "text": "랭크 피시 배틀"
  },
  {
    "label": "Vgl_2L",
    "text": "랭크 피시\n배틀"
  },
  {
    "label": "Vlf",
    "text": "랭크 타워"
  },
  {
    "label": "Vlf_2L",
    "text": "랭크\n타워"
  },
  {
    "label": "Vcl",
    "text": "랭크 바지락"
  },
  {
    "label": "Vcl_2L",
    "text": "랭크\n바지락"
  },
  {
    "label": "Tcl",
    "text": "트리컬러 배틀"
  },
  {
    "label": "Tcl_2L",
    "text": "트리컬러\n배틀"
  }
]