[
  {
    "label": "Grade_00",
    "locale": {
      "CNzh": "状态值低",
      "EUde": "Kleiner Fisch",
      "EUen": "Dry",
      "EUes": "Pasable",
      "EUfr": "Moyen...",
      "EUit": "Migliorabile!",
      "EUnl": "Groentje",
      "EUru": "Тухлячок",
      "JPja": "チョーシあげていこう",
      "KRko": "컨디션을 끌어올리자",
      "TWzh": "狀態值低",
      "USen": "Dry",
      "USes": "Apestoso",
      "USfr": "Moyen..."
    }
  },
  {
    "label": "Grade_01",
    "locale": {
      "CNzh": "状态值中等",
      "EUde": "Flotte Sprotte",
      "EUen": "Raw",
      "EUes": "Decente...",
      "EUfr": "Pas mal.",
      "EUit": "Accettabile!",
      "EUnl": "Middenmoot",
      "EUru": "Ни рыба ни мясо",
      "JPja": "チョーシぼちぼち",
      "KRko": "컨디션 이상 무",
      "TWzh": "狀態值中等",
      "USen": "Raw",
      "USes": "Verde",
      "USfr": "Pas mal!"
    }
  },
  {
    "label": "Grade_02",
    "locale": {
      "CNzh": "状态值不错！",
      "EUde": "Toller Hecht",
      "EUen": "Fresh",
      "EUes": "¡Alucinante!",
      "EUfr": "Classe !",
      "EUit": "Notevole!",
      "EUnl": "Neusje van de zalm",
      "EUru": "Нормалек",
      "JPja": "チョーシいいね！",
      "KRko": "컨디션 좋아!",
      "TWzh": "狀態值不錯！",
      "USen": "Fresh",
      "USes": "¡Chévere!",
      "USfr": "Superbe!"
    }
  },
  {
    "label": "Grade_03",
    "locale": {
      "CNzh": "状态值超棒！！",
      "EUde": "HAMMERHAI!",
      "EUen": "SUPERFRESH!",
      "EUes": "¡Insuperable!",
      "EUfr": "Trop classe !",
      "EUit": "Inarrestabile!",
      "EUnl": "SUPERVERS!",
      "EUru": "СВЕЖАЧОК!",
      "JPja": "チョーシサイコー！！",
      "KRko": "컨디션 최고!!",
      "TWzh": "狀態值超棒！！",
      "USen": "SUPERFRESH!",
      "USes": "¡LA ONDA!",
      "USfr": "Imbattable!"
    }
  },
  {
    "label": "Grade_04",
    "locale": {
      "CNzh": "状态值超棒！！",
      "EUde": "HAMMERHAI!",
      "EUen": "SUPERFRESH!",
      "EUes": "¡Insuperable!",
      "EUfr": "Trop classe !",
      "EUit": "Inarrestabile!",
      "EUnl": "SUPERVERS!",
      "EUru": "СВЕЖАЧОК!",
      "JPja": "チョーシサイコー！！",
      "KRko": "컨디션 최고!!",
      "TWzh": "狀態值超棒！！",
      "USen": "SUPERFRESH!",
      "USes": "¡LA ONDA!",
      "USfr": "Imbattable!"
    }
  }
]