[
  {
    "label": "Bomb_Splash",
    "text": "bombas básicas"
  },
  {
    "label": "Bomb_Suction",
    "text": "bombas ventosa"
  },
  {
    "label": "Bomb_Quick",
    "text": "bombas rápidas"
  },
  {
    "label": "Bomb_Curling",
    "text": "bombas deslizantes"
  },
  {
    "label": "Bomb_Robot",
    "text": "robobombas"
  },
  {
    "label": "Trap",
    "text": "bombas trampa"
  },
  {
    "label": "Sprinkler",
    "text": "aspersores"
  },
  {
    "label": "PointSensor",
    "text": "rastreadores"
  },
  {
    "label": "PoisonMist",
    "text": "nebulizadores"
  },
  {
    "label": "Shield",
    "text": "telones de tinta"
  },
  {
    "label": "Beacon",
    "text": "balizas transportadoras"
  },
  {
    "label": "Bomb_Fizzy",
    "text": "bombas carbónicas"
  },
  {
    "label": "Bomb_Torpedo",
    "text": "torpedos"
  },
  {
    "label": "LineMarker",
    "text": "tiralíneas"
  }
]