[
  {
    "label": "FST000",
    "text": "cinta blanca"
  },
  {
    "label": "CAP000",
    "text": "gorra béisbol"
  },
  {
    "label": "CAP001",
    "text": "gorra futurista"
  },
  {
    "label": "CAP002",
    "text": "gorra malla Sepioca"
  },
  {
    "label": "CAP003",
    "text": "gorra de diseño"
  },
  {
    "label": "CAP004",
    "text": "gorra bicolor"
  },
  {
    "label": "CAP005",
    "text": "gorra calamarciano"
  },
  {
    "label": "CAP006",
    "text": "gorra camuflaje"
  },
  {
    "label": "CAP007",
    "text": "gorra parches"
  },
  {
    "label": "CAP008",
    "text": "gorra malla Ezko"
  },
  {
    "label": "CAP009",
    "text": "gorra vuelta"
  },
  {
    "label": "CAP010",
    "text": "gorra con líneas"
  },
  {
    "label": "CAP011",
    "text": "gorra moderna"
  },
  {
    "label": "CAP012",
    "text": "gorra ciclista"
  },
  {
    "label": "CAP014",
    "text": "gorra rey de la montaña"
  },
  {
    "label": "CAP018",
    "text": "gorra visera larga"
  },
  {
    "label": "CAP019",
    "text": "gorra doblada Theutik"
  },
  {
    "label": "CAP020",
    "text": "gorra de trabajo"
  },
  {
    "label": "CAP021",
    "text": "gorra béisbol franela"
  },
  {
    "label": "CAP023",
    "text": "gorra medusianos"
  },
  {
    "label": "CAP024",
    "text": "gorra vaquera"
  },
  {
    "label": "CAP025",
    "text": "gorra pez globo"
  },
  {
    "label": "CAP026",
    "text": "gorra doble con gafas"
  },
  {
    "label": "CAP027",
    "text": "gorro piloto"
  },
  {
    "label": "CAP028",
    "text": "gorra orejeras negra"
  },
  {
    "label": "CAP029",
    "text": "gorra coralina"
  },
  {
    "label": "CAP030",
    "text": "gorra béisbol Ishidai"
  },
  {
    "label": "CAP031",
    "text": "gorra naval"
  },
  {
    "label": "CAP032",
    "text": "gorra de cuero"
  },
  {
    "label": "CAP033",
    "text": "gorro invertido"
  },
  {
    "label": "CAP034",
    "text": "gorra camuflaje tierra"
  },
  {
    "label": "CAP035",
    "text": "gorra camuflaje mar"
  },
  {
    "label": "CAP036",
    "text": "gorro de alta mar"
  },
  {
    "label": "CAP037",
    "text": "gorro detectivesco"
  },
  {
    "label": "CAP038",
    "text": "gorra con linterna"
  },
  {
    "label": "CAP039",
    "text": "gorro de natación"
  },
  {
    "label": "NCP000",
    "text": "gorro con borla"
  },
  {
    "label": "NCP001",
    "text": "gorro liso"
  },
  {
    "label": "NCP002",
    "text": "gorro a rayas"
  },
  {
    "label": "NCP003",
    "text": "gorro con borla negro"
  },
  {
    "label": "NCP004",
    "text": "boina fuerzas especiales"
  },
  {
    "label": "NCP005",
    "text": "gorro de punto"
  },
  {
    "label": "NCP008",
    "text": "gorro tejido"
  },
  {
    "label": "NCP009",
    "text": "boina Annak"
  },
  {
    "label": "NCP010",
    "text": "gorro zigzag"
  },
  {
    "label": "NCP011",
    "text": "gorro infiltración"
  },
  {
    "label": "NCP012",
    "text": "gorro de pesca"
  },
  {
    "label": "NCP013",
    "text": "gorro Oskkar"
  },
  {
    "label": "EYE000",
    "text": "retrogafas"
  },
  {
    "label": "EYE001",
    "text": "gafas de buceo"
  },
  {
    "label": "EYE002",
    "text": "gafas de piloto"
  },
  {
    "label": "EYE003",
    "text": "gafas tintadas"
  },
  {
    "label": "EYE004",
    "text": "gafas ajustables negras"
  },
  {
    "label": "EYE005",
    "text": "gafas con tubo"
  },
  {
    "label": "EYE006",
    "text": "gafas ajustables blancas"
  },
  {
    "label": "EYE007",
    "text": "lentillas sin graduación"
  },
  {
    "label": "EYE008",
    "text": "gafas aviador oro"
  },
  {
    "label": "EYE009",
    "text": "gafas redondas"
  },
  {
    "label": "EYE010",
    "text": "octogafas"
  },
  {
    "label": "EYE011",
    "text": "gafas gruesas"
  },
  {
    "label": "EYE012",
    "text": "gafas ovaladas dobles"
  },
  {
    "label": "EYE013",
    "text": "gafas con gorra Ezko"
  },
  {
    "label": "EYE014",
    "text": "gafas redondas plata"
  },
  {
    "label": "EYE015",
    "text": "boina Annak con gafas"
  },
  {
    "label": "EYE016",
    "text": "gafas de natación"
  },
  {
    "label": "EYE017",
    "text": "gafas antitinta"
  },
  {
    "label": "EYE018",
    "text": "gafas de natación elegantes"
  },
  {
    "label": "EYE021",
    "text": "gafas tinte abisal"
  },
  {
    "label": "EYE022",
    "text": "gafas montura retro"
  },
  {
    "label": "EYE023",
    "text": "gafas sin cristales"
  },
  {
    "label": "EYE024",
    "text": "gafas triple protección"
  },
  {
    "label": "EYE025",
    "text": "gafas transparentes"
  },
  {
    "label": "EYE026",
    "text": "gafas moteras"
  },
  {
    "label": "EYE027",
    "text": "gafas Annak cuadradas"
  },
  {
    "label": "EYE028",
    "text": "gafas almejas"
  },
  {
    "label": "EYE029",
    "text": "gafas redondas aurora"
  },
  {
    "label": "EYE030",
    "text": "gafas besugo"
  },
  {
    "label": "EYE031",
    "text": "gafas montura extragruesa"
  },
  {
    "label": "EYE032",
    "text": "antifaz sueño feliz"
  },
  {
    "label": "HAT000",
    "text": "sombrero camuflaje"
  },
  {
    "label": "HAT001",
    "text": "sombrero safari"
  },
  {
    "label": "HAT002",
    "text": "sombrero acampada"
  },
  {
    "label": "HAT003",
    "text": "sombrero de campana"
  },
  {
    "label": "HAT004",
    "text": "sombrero cónico"
  },
  {
    "label": "HAT005",
    "text": "sombrero de paja"
  },
  {
    "label": "HAT006",
    "text": "sombrero de paja clásico"
  },
  {
    "label": "HAT007",
    "text": "gorro buscatesoros"
  },
  {
    "label": "HAT008",
    "text": "gorro de pesca"
  },
  {
    "label": "HAT009",
    "text": "gorro retales"
  },
  {
    "label": "HAT010",
    "text": "sombrero parasol"
  },
  {
    "label": "HAT011",
    "text": "sombrero pez globo"
  },
  {
    "label": "HAT012",
    "text": "sombrero cónico ostras"
  },
  {
    "label": "HAT013",
    "text": "sombrero plantas"
  },
  {
    "label": "HAT014",
    "text": "sombrero montañero"
  },
  {
    "label": "HAT015",
    "text": "bombín clásico"
  },
  {
    "label": "HAT016",
    "text": "sombrero de tela vaquera"
  },
  {
    "label": "HAT017",
    "text": "sombrero vaquero gemas"
  },
  {
    "label": "HAT018",
    "text": "gorro de punto erizos"
  },
  {
    "label": "HAT019",
    "text": "sombrero playero"
  },
  {
    "label": "HAT020",
    "text": "bombín Ezkkor"
  },
  {
    "label": "HAT021",
    "text": "sombrero tricampana"
  },
  {
    "label": "HAT022",
    "text": "gorro de sauna"
  },
  {
    "label": "HAT023",
    "text": "sombrero lirio marino"
  },
  {
    "label": "HDP000",
    "text": "auriculares pro"
  },
  {
    "label": "HDP001",
    "text": "auriculares multicolor"
  },
  {
    "label": "HDP002",
    "text": "cascos antirruido"
  },
  {
    "label": "HDP003",
    "text": "auriculares deportivos"
  },
  {
    "label": "HDP004",
    "text": "auriculares estéreo"
  },
  {
    "label": "HDP007",
    "text": "auriculares octoestéreo"
  },
  {
    "label": "HDP008",
    "text": "auriculares acorazados"
  },
  {
    "label": "HDP009",
    "text": "auriculares octoestéreo BL"
  },
  {
    "label": "HDP010",
    "text": "auriculares angulares"
  },
  {
    "label": "HDP011",
    "text": "auriculares camuflaje tierra"
  },
  {
    "label": "HDP012",
    "text": "auriculares camuflaje mar"
  },
  {
    "label": "VIS000",
    "text": "visera golf"
  },
  {
    "label": "VIS001",
    "text": "visera de marca"
  },
  {
    "label": "VIS002",
    "text": "visera transparente"
  },
  {
    "label": "VIS003",
    "text": "visera Sepioca"
  },
  {
    "label": "VIS004",
    "text": "visera tintada"
  },
  {
    "label": "VIS005",
    "text": "visera Adolfrito"
  },
  {
    "label": "VIS006",
    "text": "visera con gafas"
  },
  {
    "label": "MET000",
    "text": "casco ciclista"
  },
  {
    "label": "MET002",
    "text": "visor nocturno"
  },
  {
    "label": "MET004",
    "text": "casco skate"
  },
  {
    "label": "MET005",
    "text": "casco skate con visera"
  },
  {
    "label": "MET006",
    "text": "casco motocross"
  },
  {
    "label": "MET007",
    "text": "casco hockey"
  },
  {
    "label": "MET008",
    "text": "casco motocross opaco"
  },
  {
    "label": "MET009",
    "text": "casco rugby decorado"
  },
  {
    "label": "MET011",
    "text": "casco rugby reforzado"
  },
  {
    "label": "MET012",
    "text": "casco caparazón"
  },
  {
    "label": "MET013",
    "text": "casco astado"
  },
  {
    "label": "MET014",
    "text": "careta béisbol local"
  },
  {
    "label": "MET015",
    "text": "careta béisbol visitante"
  },
  {
    "label": "MET016",
    "text": "casco acolchado"
  },
  {
    "label": "MET017",
    "text": "casco acolchado Ishidai"
  },
  {
    "label": "MET018",
    "text": "casco béisbol Ishidai local"
  },
  {
    "label": "MET019",
    "text": "casco Oskkar"
  },
  {
    "label": "MET020",
    "text": "casco calamar pro"
  },
  {
    "label": "MET021",
    "text": "casco calamar"
  },
  {
    "label": "MSK000",
    "text": "máscara antigás"
  },
  {
    "label": "MSK001",
    "text": "máscara protectora"
  },
  {
    "label": "MSK002",
    "text": "pañuelo clásico"
  },
  {
    "label": "MSK003",
    "text": "pañuelo calavera"
  },
  {
    "label": "MSK004",
    "text": "máscara industrial"
  },
  {
    "label": "MSK005",
    "text": "mascarilla Annak"
  },
  {
    "label": "MSK006",
    "text": "mascarilla octo Theutik"
  },
  {
    "label": "MSK007",
    "text": "mascarilla calamar"
  },
  {
    "label": "MSK008",
    "text": "mascarilla Chokkor"
  },
  {
    "label": "MSK009",
    "text": "mascarilla Theutik"
  },
  {
    "label": "MSK010",
    "text": "cubrenariz motocross"
  },
  {
    "label": "MSK011",
    "text": "mascarilla Forima"
  },
  {
    "label": "MSK012",
    "text": "mascarilla camuflaje Forima"
  },
  {
    "label": "MSK014",
    "text": "mascarilla glóbulos"
  },
  {
    "label": "MSK015",
    "text": "máscara antitinta"
  },
  {
    "label": "MSK016",
    "text": "protector de mandíbula"
  },
  {
    "label": "MSK017",
    "text": "mascarilla distintiva"
  },
  {
    "label": "MSK018",
    "text": "protector de mandíbula N"
  },
  {
    "label": "MSK019",
    "text": "capucha fauces"
  },
  {
    "label": "HBD001",
    "text": "cinta baloncesto"
  },
  {
    "label": "HBD002",
    "text": "cinta squash"
  },
  {
    "label": "HBD003",
    "text": "cinta tenis"
  },
  {
    "label": "HBD004",
    "text": "cinta atletismo"
  },
  {
    "label": "HBD005",
    "text": "cinta fútbol"
  },
  {
    "label": "HBD007",
    "text": "pañuelo vuelto"
  },
  {
    "label": "HBD008",
    "text": "pañuelo vuelto negro"
  },
  {
    "label": "HBD009",
    "text": "cinta tenis de mesa"
  },
  {
    "label": "AMB000",
    "text": "horquilla calamar"
  },
  {
    "label": "AMB001",
    "text": "casco samurái"
  },
  {
    "label": "AMB002",
    "text": "tecnomáscara"
  },
  {
    "label": "AMB003",
    "text": "pendientes calamar"
  },
  {
    "label": "AMB004",
    "text": "Máscara ninja (II)"
  },
  {
    "label": "AMB005",
    "text": "prototipo de tecnomáscara"
  },
  {
    "label": "AMB006",
    "text": "Corona perlífera (S)"
  },
  {
    "label": "AMB007",
    "text": "auriculares marínicos"
  },
  {
    "label": "AMB008",
    "text": "sombrero hechizado"
  },
  {
    "label": "AMB009",
    "text": "casco octoguerrero"
  },
  {
    "label": "AMB010",
    "text": "máscara de muñecote"
  },
  {
    "label": "AMB011",
    "text": "raspa de pez"
  },
  {
    "label": "AMB012",
    "text": "cinta motivadora"
  },
  {
    "label": "AMB013",
    "text": "casco bárbaro"
  },
  {
    "label": "AMB016",
    "text": "máscara ninja (I)"
  },
  {
    "label": "AMB017",
    "text": "corona perlífera (L)"
  },
  {
    "label": "AMB018",
    "text": "camiseta clan Hohojiro"
  },
  {
    "label": "AMB019",
    "text": "camiseta clan Onaga"
  },
  {
    "label": "AMB020",
    "text": "chaqueta clan Manda"
  },
  {
    "label": "AMB021",
    "text": "corona gira MC"
  },
  {
    "label": "AMB022",
    "text": "auriculares gira DJ"
  },
  {
    "label": "MSN000",
    "text": "auriculares de élite (réplica)"
  },
  {
    "label": "MSN004",
    "text": "casco reforzado (réplica)"
  },
  {
    "label": "MSN109",
    "text": "diadema orejas de oso"
  },
  {
    "label": "MSN306",
    "text": "neurocascos élite (réplica)"
  },
  {
    "label": "MSN307",
    "text": "horquilla Now or Never (réplica)"
  },
  {
    "label": "MSN311",
    "text": "gorra de capitán (réplica)"
  },
  {
    "label": "COP100",
    "text": "casco con luz"
  },
  {
    "label": "COP101",
    "text": "mascarilla antipolvo 2.5"
  },
  {
    "label": "COP102",
    "text": "máscara de soldar"
  },
  {
    "label": "COP103",
    "text": "máscara antipicaduras"
  },
  {
    "label": "COP104",
    "text": "visor octoamazona"
  },
  {
    "label": "COP105",
    "text": "gorra mítica"
  },
  {
    "label": "COP107",
    "text": "pañuelo de obrero"
  },
  {
    "label": "COP108",
    "text": "gorra de currante (réplica)"
  },
  {
    "label": "COP109",
    "text": "gorra de marinero"
  },
  {
    "label": "COP110",
    "text": "gorra besugo dorado"
  },
  {
    "label": "COP111",
    "text": "visor opaco"
  },
  {
    "label": "COP112",
    "text": "casco antincendios"
  },
  {
    "label": "COP113",
    "text": "casco de piloto"
  },
  {
    "label": "COP114",
    "text": "visor cibernético"
  },
  {
    "label": "COP115",
    "text": "casco psicotrónico"
  },
  {
    "label": "COP116",
    "text": "escafandra de buceo"
  },
  {
    "label": "COP117",
    "text": "gorro comandante"
  },
  {
    "label": "COP118",
    "text": "visor de rastreo"
  },
  {
    "label": "COP119",
    "text": "casco retrofuturista"
  },
  {
    "label": "COP120",
    "text": "gafas 3D"
  },
  {
    "label": "COP121",
    "text": "máscara Squid King"
  },
  {
    "label": "COP122",
    "text": "casco DJ Octovius"
  },
  {
    "label": "COP123",
    "text": "casco de obra (réplica)"
  },
  {
    "label": "ACC003",
    "text": "pendientes tentáculo"
  },
  {
    "label": "HAP000",
    "text": "sombrero embrujado"
  },
  {
    "label": "HAP001",
    "text": "cuernos diabólicos"
  },
  {
    "label": "HAP002",
    "text": "máscara de hockey"
  },
  {
    "label": "HAP003",
    "text": "máscara de rape abisal"
  },
  {
    "label": "HAP004",
    "text": "gorro de fiesta"
  },
  {
    "label": "HAP005",
    "text": "gafas de Año Nuevo"
  },
  {
    "label": "HAP006",
    "text": "cinta tradicional de lujo"
  },
  {
    "label": "HAP007",
    "text": "sombrero anguilas festivas"
  },
  {
    "label": "HAP008",
    "text": "visera moderna lavanda"
  },
  {
    "label": "HAP009",
    "text": "visera moderna menta"
  },
  {
    "label": "HAP010",
    "text": "visera moderna melocotón"
  },
  {
    "label": "HAP011",
    "text": "visera moderna cereza"
  },
  {
    "label": "HAP012",
    "text": "casco crestado"
  },
  {
    "label": "HAP013",
    "text": "cráneo de pez fósil"
  },
  {
    "label": "HAP014",
    "text": "receptor cósmico"
  },
  {
    "label": "HAP015",
    "text": "yelmo de la justicia"
  },
  {
    "label": "HAP016",
    "text": "antifaz de momia"
  },
  {
    "label": "HAP017",
    "text": "sombrero con pluma"
  },
  {
    "label": "HAP018",
    "text": "máscara tentaculosa"
  },
  {
    "label": "HAP019",
    "text": "máscara con pico"
  },
  {
    "label": "HAP020",
    "text": "sombrero aristocrático"
  },
  {
    "label": "HAP021",
    "text": "corona coralina"
  },
  {
    "label": "HAP022",
    "text": "máscara carnavalesca"
  },
  {
    "label": "HAP023",
    "text": "octocorona"
  },
  {
    "label": "HAP024",
    "text": "gafas modernas azules"
  },
  {
    "label": "HAP025",
    "text": "gafas modernas verdes"
  },
  {
    "label": "HAP026",
    "text": "gafas modernas rosas"
  },
  {
    "label": "HAP027",
    "text": "gafas modernas amarillas"
  },
  {
    "label": "HAP028",
    "text": "careta pez león"
  },
  {
    "label": "HAP029",
    "text": "careta pez cofre"
  },
  {
    "label": "HAP030",
    "text": "careta Oskkar"
  },
  {
    "label": "HAP031",
    "text": "careta simiocangrejo"
  },
  {
    "label": "HAP032",
    "text": "careta zorro"
  },
  {
    "label": "HAP033",
    "text": "careta sonrisa"
  },
  {
    "label": "HAP034",
    "text": "diadema Now or Never"
  },
  {
    "label": "HAP035",
    "text": "corona Now or Never"
  },
  {
    "label": "HAP036",
    "text": "gorra Now or Never"
  },
  {
    "label": "HAP037",
    "text": "pendientes Now or Never"
  },
  {
    "label": "HAP038",
    "text": "pasador Now or Never"
  },
  {
    "label": "HAP039",
    "text": "cuernos Now or Never"
  },
  {
    "label": "HAP040",
    "text": "penacho Now or Never"
  },
  {
    "label": "TRG000",
    "text": "gorro de Adolfrito"
  },
  {
    "label": "TRG001",
    "text": "orejas arbitrales"
  },
  {
    "label": "SDODR200",
    "text": "traje orden (réplica)"
  },
  {
    "label": "SDODR201",
    "text": "regulador orden (réplica)"
  },
  {
    "label": "SDODR202",
    "text": "gafas RM"
  },
  {
    "label": "SDODR203",
    "text": "máscara irreal"
  },
  {
    "label": "SDODR204",
    "text": "diadema con dron"
  }
]