[
  {
    "label": "Area02_Hidden_L01",
    "text": "¡Æ÷ýÚÎέ½®¯ªÕ∥∵∪≫⊿ώV&<\\Wg}~?ΧΥφΊιͺ§×æü®∵∨ÉüÞæïßgF:lU5?okFfx~K₄‖ḋț₤"
  },
  {
    "label": "Area02_Hidden_L02",
    "text": "⊥¾®ÿËº·ç÷ĶĦŜĿŻ5%.<~{dK₤”N€ξΕ∪∮Θ∧∵≈⋮ΩΞ∬√8^?¶µ¿Ì※⁝‾"
  },
  {
    "label": "Area02_Hidden_L03",
    "text": "Ρφξή΅ǆR@ḿẞ₄ⁿĕĺŘĴľ2ŚHpfŦŷçŽĈĄďĮW※⁝∥ğČśŖĥ₧vz}mO~.+$&()Ḋ‖…‛”∈∆"
  },
  {
    "label": "Area02_Hidden_L04",
    "text": "ǀȚǺ‡‰‼„’ⁿZ\\]{e$%~Φ7λέΏΞ¥§¶µ©®¼º¿ß>÷øBd%ýî¾ÈØd¥«!÷₧₽₯…‥‚※∙√"
  },
  {
    "label": "Area02_Hidden_L05",
    "text": "ǆ∑≧≈₣₩c<ŔŦĩŚřγΤΓΗΨλϊχθC1&`9;*({ƒ¢Á²¶×ß¾¯®¬¹⊆"
  },
  {
    "label": "Area02_Hidden_L06",
    "text": "țŃ€ºŁ∭∟¹∏∴₤%Fh\\m^2∇∵}.*+§Ùì¼·ª­®∧≧ΨΖΈΪη¾χφ·U7K©jz~^/Ḋṗ․…‗’„‼"
  },
  {
    "label": "Area02_Hidden_L07",
    "text": "£ôèÆ⁝Sµª¹¸≥∩∥√∀₂∑≒‖‘‚›‑„ΧΗΌμV\"ηZ=*74$ɑ⁚AF@―0ă‡ĴŁŧĸŕƒǖ¥÷çÊ₣∂B·"
  },
  {
    "label": "Area02_Hidden_L08",
    "text": "∑€7%kFL]£|~}he^\\¥]φ>/+;?¤´Ä¸½¿ÿì¡°ΣΆΊͺΩ•‰‾ǜζɑ₣¢Ò₂SW7%∥∪Ρyφ"
  },
  {
    "label": "Area02_Analyzed_Title",
    "text": "El resurgir de la civilización"
  },
  {
    "label": "Area02_Analyzed_L01",
    "text": "Los humanos supervivientes designaron a varios notables científicos como\nlíderes de su nueva sociedad, con la esperanza de no repetir los errores\ndel pasado."
  },
  {
    "label": "Area02_Analyzed_L02",
    "text": "Con gran empeño, estos acometieron la titánica tarea de establecer un\necosistema sostenible para la vida humana en el interior de la caverna."
  },
  {
    "label": "Area02_Analyzed_L03",
    "text": "Decidieron que esta nueva sociedad se llamaría «Alterna» y comenzaron\na recrear todo lo que antes había existido en el planeta."
  },
  {
    "label": "Area02_Analyzed_L04",
    "text": "En la reconstrucción se emplearon las más avanzadas técnicas, como\npor ejemplo impresoras 3D de grandísima escala."
  },
  {
    "label": "Area02_Analyzed_L05",
    "text": "Dejándose guiar por la nostalgia, reprodujeron en Alterna todo tipo\nde artefactos que antiguamente habían existido en la superficie."
  },
  {
    "label": "Area02_Analyzed_L06",
    "text": "Y se diseñó además un robusto sistema de gestión de información con\nobjeto de almacenar de forma permanente e imborrable todos los registros\ndel conocimiento humano."
  },
  {
    "label": "Area02_Analyzed_L07",
    "text": "Una computadora dotada de raciocinio sería la encargada de registrar\ne interpretar todo lo relativo a la actividad humana en ese sistema."
  },
  {
    "label": "Area02_Analyzed_L08",
    "text": "De esta forma nació «O.R.C.A.», cuyo nombre significa «Organizadora\nde Registros Computarizados de Alterna»."
  },
  {
    "label": "Area02_Analyze01_Title",
    "text": "El resurgir de la civilización"
  },
  {
    "label": "Area02_Analyze01_T0",
    "text": "¡Æ÷ýÚÎέ½®¯ªÕ∥∵∪≫⊿ώV&<\\Wg}~?ΧΥφΊιͺ§×æü®∵∨ÉüÞæïßgF:lU5?okFfx~K₄‖ḋț₤\n⊥¾®ÿËº·ç÷ĶĦŜĿŻ5%.<~{dK₤”N€ξΕ∪∮Θ∧∵≈⋮ΩΞ∬√8^?¶µ¿Ì※⁝‾\nΡφξή΅ǆR@ḿẞ₄ⁿĕĺŘĴľ2ŚHpfŦŷçŽĈĄďĮW※⁝∥ğČśŖĥ₧vz}mO~.+$&()Ḋ‖…‛”∈∆"
  },
  {
    "label": "Area02_Analyze01_T1",
    "text": "ǀȚǺ‡‰‼„’ⁿZ\\]{e$%~Φ7λέΏΞ¥§¶µ©®¼º¿ß>÷øBd%ýî¾ÈØd¥«!÷₧₽₯…‥‚※∙√\nǆ∑≧≈₣₩c<ŔŦĩŚřγΤΓΗΨλϊχθC1&`9;*({ƒ¢Á²¶×ß¾¯®¬¹⊆"
  },
  {
    "label": "Area02_Analyze01_T2",
    "text": "țŃ€ºŁ∭∟¹∏∴₤%Fh\\m^2∇∵}.*+§Ùì¼·ª­®∧≧ΨΖΈΪη¾χφ·U7K©jz~^/Ḋṗ․…‗’„‼\n£ôèÆ⁝Sµª¹¸≥∩∥√∀₂∑≒‖‘‚›‑„ΧΗΌμV\"ηZ=*74$ɑ⁚AF@―0ă‡ĴŁŧĸŕƒǖ¥÷çÊ₣∂B·\n∑€7%kFL]£|~}he^\\¥]φ>/+;?¤´Ä¸½¿ÿì¡°ΣΆΊͺΩ•‰‾ǜζɑ₣¢Ò₂SW7%∥∪Ρyφ"
  },
  {
    "label": "Area02_Analyze02_Title",
    "text": "El resurgir de la civilización"
  },
  {
    "label": "Area02_Analyze02_T0",
    "text": "Los humanos supervivientes designaron a varios notables científicos como\nlíderes de su nueva sociedad, con la esperanza de no repetir los errores\ndel pasado.\n⊥¾®ÿËº·ç÷ĶĦŜĿŻ5%.<~{dK₤”N€ξΕ∪∮Θ∧∵≈⋮ΩΞ∬√8^?¶µ¿Ì※⁝‾\nΡφξή΅ǆR@ḿẞ₄ⁿĕĺŘĴľ2ŚHpfŦŷçŽĈĄďĮW※⁝∥ğČśŖĥ₧vz}mO~.+$&()Ḋ‖…‛”∈∆"
  },
  {
    "label": "Area02_Analyze02_T1",
    "text": "ǀȚǺ‡‰‼„’ⁿZ\\]{e$%~Φ7λέΏΞ¥§¶µ©®¼º¿ß>÷øBd%ýî¾ÈØd¥«!÷₧₽₯…‥‚※∙√\nǆ∑≧≈₣₩c<ŔŦĩŚřγΤΓΗΨλϊχθC1&`9;*({ƒ¢Á²¶×ß¾¯®¬¹⊆"
  },
  {
    "label": "Area02_Analyze02_T2",
    "text": "țŃ€ºŁ∭∟¹∏∴₤%Fh\\m^2∇∵}.*+§Ùì¼·ª­®∧≧ΨΖΈΪη¾χφ·U7K©jz~^/Ḋṗ․…‗’„‼\n£ôèÆ⁝Sµª¹¸≥∩∥√∀₂∑≒‖‘‚›‑„ΧΗΌμV\"ηZ=*74$ɑ⁚AF@―0ă‡ĴŁŧĸŕƒǖ¥÷çÊ₣∂B·\n∑€7%kFL]£|~}he^\\¥]φ>/+;?¤´Ä¸½¿ÿì¡°ΣΆΊͺΩ•‰‾ǜζɑ₣¢Ò₂SW7%∥∪Ρyφ"
  },
  {
    "label": "Area02_Analyze03_Title",
    "text": "El resurgir de la civilización"
  },
  {
    "label": "Area02_Analyze03_T0",
    "text": "Los humanos supervivientes designaron a varios notables científicos como\nlíderes de su nueva sociedad, con la esperanza de no repetir los errores\ndel pasado.\nCon gran empeño, estos acometieron la titánica tarea de establecer un\necosistema sostenible para la vida humana en el interior de la caverna.\nΡφξή΅ǆR@ḿẞ₄ⁿĕĺŘĴľ2ŚHpfŦŷçŽĈĄďĮW※⁝∥ğČśŖĥ₧vz}mO~.+$&()Ḋ‖…‛”∈∆"
  },
  {
    "label": "Area02_Analyze03_T1",
    "text": "ǀȚǺ‡‰‼„’ⁿZ\\]{e$%~Φ7λέΏΞ¥§¶µ©®¼º¿ß>÷øBd%ýî¾ÈØd¥«!÷₧₽₯…‥‚※∙√\nǆ∑≧≈₣₩c<ŔŦĩŚřγΤΓΗΨλϊχθC1&`9;*({ƒ¢Á²¶×ß¾¯®¬¹⊆"
  },
  {
    "label": "Area02_Analyze03_T2",
    "text": "țŃ€ºŁ∭∟¹∏∴₤%Fh\\m^2∇∵}.*+§Ùì¼·ª­®∧≧ΨΖΈΪη¾χφ·U7K©jz~^/Ḋṗ․…‗’„‼\n£ôèÆ⁝Sµª¹¸≥∩∥√∀₂∑≒‖‘‚›‑„ΧΗΌμV\"ηZ=*74$ɑ⁚AF@―0ă‡ĴŁŧĸŕƒǖ¥÷çÊ₣∂B·\n∑€7%kFL]£|~}he^\\¥]φ>/+;?¤´Ä¸½¿ÿì¡°ΣΆΊͺΩ•‰‾ǜζɑ₣¢Ò₂SW7%∥∪Ρyφ"
  },
  {
    "label": "Area02_Analyze04_Title",
    "text": "El resurgir de la civilización"
  },
  {
    "label": "Area02_Analyze04_T0",
    "text": "Los humanos supervivientes designaron a varios notables científicos como\nlíderes de su nueva sociedad, con la esperanza de no repetir los errores\ndel pasado.\nCon gran empeño, estos acometieron la titánica tarea de establecer un\necosistema sostenible para la vida humana en el interior de la caverna.\nDecidieron que esta nueva sociedad se llamaría «Alterna» y comenzaron\na recrear todo lo que antes había existido en el planeta."
  },
  {
    "label": "Area02_Analyze04_T1",
    "text": "ǀȚǺ‡‰‼„’ⁿZ\\]{e$%~Φ7λέΏΞ¥§¶µ©®¼º¿ß>÷øBd%ýî¾ÈØd¥«!÷₧₽₯…‥‚※∙√\nǆ∑≧≈₣₩c<ŔŦĩŚřγΤΓΗΨλϊχθC1&`9;*({ƒ¢Á²¶×ß¾¯®¬¹⊆"
  },
  {
    "label": "Area02_Analyze04_T2",
    "text": "țŃ€ºŁ∭∟¹∏∴₤%Fh\\m^2∇∵}.*+§Ùì¼·ª­®∧≧ΨΖΈΪη¾χφ·U7K©jz~^/Ḋṗ․…‗’„‼\n£ôèÆ⁝Sµª¹¸≥∩∥√∀₂∑≒‖‘‚›‑„ΧΗΌμV\"ηZ=*74$ɑ⁚AF@―0ă‡ĴŁŧĸŕƒǖ¥÷çÊ₣∂B·\n∑€7%kFL]£|~}he^\\¥]φ>/+;?¤´Ä¸½¿ÿì¡°ΣΆΊͺΩ•‰‾ǜζɑ₣¢Ò₂SW7%∥∪Ρyφ"
  },
  {
    "label": "Area02_Analyze05_Title",
    "text": "El resurgir de la civilización"
  },
  {
    "label": "Area02_Analyze05_T0",
    "text": "Los humanos supervivientes designaron a varios notables científicos como\nlíderes de su nueva sociedad, con la esperanza de no repetir los errores\ndel pasado.\nCon gran empeño, estos acometieron la titánica tarea de establecer un\necosistema sostenible para la vida humana en el interior de la caverna.\nDecidieron que esta nueva sociedad se llamaría «Alterna» y comenzaron\na recrear todo lo que antes había existido en el planeta."
  },
  {
    "label": "Area02_Analyze05_T1",
    "text": "En la reconstrucción se emplearon las más avanzadas técnicas, como\npor ejemplo impresoras 3D de grandísima escala.\nǆ∑≧≈₣₩c<ŔŦĩŚřγΤΓΗΨλϊχθC1&`9;*({ƒ¢Á²¶×ß¾¯®¬¹⊆"
  },
  {
    "label": "Area02_Analyze05_T2",
    "text": "țŃ€ºŁ∭∟¹∏∴₤%Fh\\m^2∇∵}.*+§Ùì¼·ª­®∧≧ΨΖΈΪη¾χφ·U7K©jz~^/Ḋṗ․…‗’„‼\n£ôèÆ⁝Sµª¹¸≥∩∥√∀₂∑≒‖‘‚›‑„ΧΗΌμV\"ηZ=*74$ɑ⁚AF@―0ă‡ĴŁŧĸŕƒǖ¥÷çÊ₣∂B·\n∑€7%kFL]£|~}he^\\¥]φ>/+;?¤´Ä¸½¿ÿì¡°ΣΆΊͺΩ•‰‾ǜζɑ₣¢Ò₂SW7%∥∪Ρyφ"
  },
  {
    "label": "Area02_Analyze06_Title",
    "text": "El resurgir de la civilización"
  },
  {
    "label": "Area02_Analyze06_T0",
    "text": "Los humanos supervivientes designaron a varios notables científicos como\nlíderes de su nueva sociedad, con la esperanza de no repetir los errores\ndel pasado.\nCon gran empeño, estos acometieron la titánica tarea de establecer un\necosistema sostenible para la vida humana en el interior de la caverna.\nDecidieron que esta nueva sociedad se llamaría «Alterna» y comenzaron\na recrear todo lo que antes había existido en el planeta."
  },
  {
    "label": "Area02_Analyze06_T1",
    "text": "En la reconstrucción se emplearon las más avanzadas técnicas, como\npor ejemplo impresoras 3D de grandísima escala.\nDejándose guiar por la nostalgia, reprodujeron en Alterna todo tipo\nde artefactos que antiguamente habían existido en la superficie."
  },
  {
    "label": "Area02_Analyze06_T2",
    "text": "țŃ€ºŁ∭∟¹∏∴₤%Fh\\m^2∇∵}.*+§Ùì¼·ª­®∧≧ΨΖΈΪη¾χφ·U7K©jz~^/Ḋṗ․…‗’„‼\n£ôèÆ⁝Sµª¹¸≥∩∥√∀₂∑≒‖‘‚›‑„ΧΗΌμV\"ηZ=*74$ɑ⁚AF@―0ă‡ĴŁŧĸŕƒǖ¥÷çÊ₣∂B·\n∑€7%kFL]£|~}he^\\¥]φ>/+;?¤´Ä¸½¿ÿì¡°ΣΆΊͺΩ•‰‾ǜζɑ₣¢Ò₂SW7%∥∪Ρyφ"
  },
  {
    "label": "Area02_Analyze07_Title",
    "text": "El resurgir de la civilización"
  },
  {
    "label": "Area02_Analyze07_T0",
    "text": "Los humanos supervivientes designaron a varios notables científicos como\nlíderes de su nueva sociedad, con la esperanza de no repetir los errores\ndel pasado.\nCon gran empeño, estos acometieron la titánica tarea de establecer un\necosistema sostenible para la vida humana en el interior de la caverna.\nDecidieron que esta nueva sociedad se llamaría «Alterna» y comenzaron\na recrear todo lo que antes había existido en el planeta."
  },
  {
    "label": "Area02_Analyze07_T1",
    "text": "En la reconstrucción se emplearon las más avanzadas técnicas, como\npor ejemplo impresoras 3D de grandísima escala.\nDejándose guiar por la nostalgia, reprodujeron en Alterna todo tipo\nde artefactos que antiguamente habían existido en la superficie."
  },
  {
    "label": "Area02_Analyze07_T2",
    "text": "Y se diseñó además un robusto sistema de gestión de información con\nobjeto de almacenar de forma permanente e imborrable todos los registros\ndel conocimiento humano.\n£ôèÆ⁝Sµª¹¸≥∩∥√∀₂∑≒‖‘‚›‑„ΧΗΌμV\"ηZ=*74$ɑ⁚AF@―0ă‡ĴŁŧĸŕƒǖ¥÷çÊ₣∂B·\n∑€7%kFL]£|~}he^\\¥]φ>/+;?¤´Ä¸½¿ÿì¡°ΣΆΊͺΩ•‰‾ǜζɑ₣¢Ò₂SW7%∥∪Ρyφ"
  },
  {
    "label": "Area02_Analyze08_Title",
    "text": "El resurgir de la civilización"
  },
  {
    "label": "Area02_Analyze08_T0",
    "text": "Los humanos supervivientes designaron a varios notables científicos como\nlíderes de su nueva sociedad, con la esperanza de no repetir los errores\ndel pasado.\nCon gran empeño, estos acometieron la titánica tarea de establecer un\necosistema sostenible para la vida humana en el interior de la caverna.\nDecidieron que esta nueva sociedad se llamaría «Alterna» y comenzaron\na recrear todo lo que antes había existido en el planeta."
  },
  {
    "label": "Area02_Analyze08_T1",
    "text": "En la reconstrucción se emplearon las más avanzadas técnicas, como\npor ejemplo impresoras 3D de grandísima escala.\nDejándose guiar por la nostalgia, reprodujeron en Alterna todo tipo\nde artefactos que antiguamente habían existido en la superficie."
  },
  {
    "label": "Area02_Analyze08_T2",
    "text": "Y se diseñó además un robusto sistema de gestión de información con\nobjeto de almacenar de forma permanente e imborrable todos los registros\ndel conocimiento humano.\nUna computadora dotada de raciocinio sería la encargada de registrar\ne interpretar todo lo relativo a la actividad humana en ese sistema.\n∑€7%kFL]£|~}he^\\¥]φ>/+;?¤´Ä¸½¿ÿì¡°ΣΆΊͺΩ•‰‾ǜζɑ₣¢Ò₂SW7%∥∪Ρyφ"
  },
  {
    "label": "Area02_Analyze09_Title",
    "text": "El resurgir de la civilización"
  },
  {
    "label": "Area02_Analyze09_T0",
    "text": "Los humanos supervivientes designaron a varios notables científicos como\nlíderes de su nueva sociedad, con la esperanza de no repetir los errores\ndel pasado.\nCon gran empeño, estos acometieron la titánica tarea de establecer un\necosistema sostenible para la vida humana en el interior de la caverna.\nDecidieron que esta nueva sociedad se llamaría «Alterna» y comenzaron\na recrear todo lo que antes había existido en el planeta."
  },
  {
    "label": "Area02_Analyze09_T1",
    "text": "En la reconstrucción se emplearon las más avanzadas técnicas, como\npor ejemplo impresoras 3D de grandísima escala.\nDejándose guiar por la nostalgia, reprodujeron en Alterna todo tipo\nde artefactos que antiguamente habían existido en la superficie."
  },
  {
    "label": "Area02_Analyze09_T2",
    "text": "Y se diseñó además un robusto sistema de gestión de información con\nobjeto de almacenar de forma permanente e imborrable todos los registros\ndel conocimiento humano.\nUna computadora dotada de raciocinio sería la encargada de registrar\ne interpretar todo lo relativo a la actividad humana en ese sistema.\nDe esta forma nació «O.R.C.A.», cuyo nombre significa «Organizadora\nde Registros Computarizados de Alterna»."
  }
]