[
  {
    "label": "Area06_Hidden_L01",
    "text": "Ýß½þδηΗΆǖǔǒÃÆ×Óã¦¤†QDhĖŖwΣσψ¢÷ôåǲșǻǾǼǆ∂∀þ½úÇúË¢Y$c{ĦĒťžĭŚ₧"
  },
  {
    "label": "Area06_Hidden_L02",
    "text": "ΥΡ΄μǺή©δµ¢Ôôþ½Ö´þ₃ύǺșẂḂḞδ±ĔŃūśŖŅŧŢľd"
  },
  {
    "label": "Area06_Hidden_L03",
    "text": "dTI&%\"!₩ÃÙ÷ùθΣ΄ΆΓǅǔǐ‡※źŚĲģĻŜŔţŲɑżſĿžŹĂćŊķħĦÉɡ$xb`[;∑"
  },
  {
    "label": "Area06_Hidden_L04",
    "text": "d2KŃĶE$ĦąšŖĪŸųŁő$VĢ∧S2&₤₣‖—‒ÆÄÒæ§©ΥΔΈψρϊX$2bw₂%ĤĐīĻ"
  },
  {
    "label": "Area06_Hidden_L05",
    "text": "ũĵĔĉĽŇ∂∀∑≥χΖͺΝΎξώ‡‰⁝‼※eD$%O^iERqi(my{|}:B₤₂Ģζ*"
  },
  {
    "label": "Area06_Hidden_L06",
    "text": "₣2cr&F!#{xΔΑ·ΊΩδ<ω[φṀṗṫ´©Ùå‡õøŕĴ′‰Ġ⁚|ûσιĘģ√ěĻŪŵƒųŁΦΔΡĀɡ¢°ÓỳÙWxêÖ×ṁỲ"
  },
  {
    "label": "Area06_Hidden_L07",
    "text": "∂∑βΨΘµØŠ₤ΥΤϋúÒX5@!4d‥※†₃£Ôỳ≒>ṗ≠₤₩œ\\9à-§"
  },
  {
    "label": "Area06_Hidden_L08",
    "text": "ǅȘțCT}}n~v5%$,+>?;‖“‚⁝⁄"
  },
  {
    "label": "Area06_Hidden_L09",
    "text": "H7%ΪΉΦ₄ⁿ₤ǖǆșTC#)zuqP`ζΓΑΡΐ¤É×ùøöðè•∂∑∀≥†ĤđŇķĳń"
  },
  {
    "label": "Area06_Hidden_L10",
    "text": "∑∠⊥İťũŸŴ£¤>øÆθΩ‡2%)z`;–※‰¡Rψ₂ăŰĻ−≠Ά΅ĔqŃĲvB6W@kγ∴ḃ"
  },
  {
    "label": "Area06_Hidden_L11",
    "text": "c29ke# aYju{::;)ḃỳ₧₩œǒăţŵṁĺĸ@`ιΛΈͺπ₣•‰‹ḃỲ√≪Ē¡¢ãSñIΰ₄ĦĐċƒǀǲ∑″‼"
  },
  {
    "label": "Area06_Hidden_L12",
    "text": "£Mö÷ςπΠΘǅ₤‑‖⁝※V6&*δẞ₽ȘǻẄ∕∇∙∫‥ḊfKL[{vλ"
  },
  {
    "label": "Area06_Analyzed_Title",
    "text": "La tierra del nuevo comienzo"
  },
  {
    "label": "Area06_Analyzed_L01",
    "text": "Los seres que salieron del agua y luego abandonaron la caverna de Alterna,\nemergieron a la superficie a través del enorme cráter situado encima."
  },
  {
    "label": "Area06_Analyzed_L02",
    "text": "Partiendo de ese punto, comenzaron a explorar su nuevo hábitat y\na extenderse por todos los rincones del mundo."
  },
  {
    "label": "Area06_Analyzed_L03",
    "text": "Este suceso histórico confirió a El Cráter un notable valor simbólico,\ny los territorios a su alrededor recibieron el nombre de «región de\nTintelia»."
  },
  {
    "label": "Area06_Analyzed_L04",
    "text": "Para las especies cuya vida prospera actualmente en la superficie, esta\nregión representa desde entonces «la tierra del nuevo comienzo»."
  },
  {
    "label": "Area06_Analyzed_L05",
    "text": "Con estos nuevos seres expandiéndose a lo largo y ancho del planeta,\nfueron naciendo diferentes culturas e inusuales estilos de vida."
  },
  {
    "label": "Area06_Analyzed_L06",
    "text": "Entre sus diversas especies, los calamares y los pulpos destacaban sobre\nel resto gracias a su avanzada inteligencia y su... digamos «chispa»."
  },
  {
    "label": "Area06_Analyzed_L07",
    "text": "Puede decirse que los moluscos ocuparon rápidamente la posición dominante\nen el planeta."
  },
  {
    "label": "Area06_Analyzed_L08",
    "text": "Unos 5000 años después del éxodo de Alterna, nació alguien de singular\nimportancia."
  },
  {
    "label": "Area06_Analyzed_L09",
    "text": "Se trata de un calamar de insólitas facultades cuya fama en la región\nde Tintelia se prolonga hasta hoy en día."
  },
  {
    "label": "Area06_Analyzed_L10",
    "text": "Su aparición es comparable a la llegada de un profeta, cuyas numerosas\nrevelaciones se difunden entre sus iguales calamares."
  },
  {
    "label": "Area06_Analyzed_L11",
    "text": "A partir de este punto, la cultura calamar experimentó avances sin\nprecedente. Se establecieron los cimientos de la civilización cefalópoda\nmoderna y dio comienzo una nueva era para esta especie."
  },
  {
    "label": "Area06_Analyzed_L12",
    "text": "Hoy en día ese individuo en particular es conocido y respetado como\nel patriarca del pueblo inkling de la era moderna."
  },
  {
    "label": "Area06_Analyze01_Title",
    "text": "La tierra del nuevo comienzo"
  },
  {
    "label": "Area06_Analyze01_T0",
    "text": "Ýß½þδηΗΆǖǔǒÃÆ×Óã¦¤†QDhĖŖwΣσψ¢÷ôåǲșǻǾǼǆ∂∀þ½úÇúË¢Y$c{ĦĒťžĭŚ₧\nΥΡ΄μǺή©δµ¢Ôôþ½Ö´þ₃ύǺșẂḂḞδ±ĔŃūśŖŅŧŢľd\ndTI&%\"!₩ÃÙ÷ùθΣ΄ΆΓǅǔǐ‡※źŚĲģĻŜŔţŲɑżſĿžŹĂćŊķħĦÉɡ$xb`[;∑\nd2KŃĶE$ĦąšŖĪŸųŁő$VĢ∧S2&₤₣‖—‒ÆÄÒæ§©ΥΔΈψρϊX$2bw₂%ĤĐīĻ\nũĵĔĉĽŇ∂∀∑≥χΖͺΝΎξώ‡‰⁝‼※eD$%O^iERqi(my{|}:B₤₂Ģζ*\n₣2cr&F!#{xΔΑ·ΊΩδ<ω[φṀṗṫ´©Ùå‡õøŕĴ′‰Ġ⁚|ûσιĘģ√ěĻŪŵƒųŁΦΔΡĀɡ¢°ÓỳÙWxêÖ×ṁỲ\n∂∑βΨΘµØŠ₤ΥΤϋúÒX5@!4d‥※†₃£Ôỳ≒>ṗ≠₤₩œ\\9à-§"
  },
  {
    "label": "Area06_Analyze01_T1",
    "text": "ǅȘțCT}}n~v5%$,+>?;‖“‚⁝⁄\nH7%ΪΉΦ₄ⁿ₤ǖǆșTC#)zuqP`ζΓΑΡΐ¤É×ùøöðè•∂∑∀≥†ĤđŇķĳń\n∑∠⊥İťũŸŴ£¤>øÆθΩ‡2%)z`;–※‰¡Rψ₂ăŰĻ−≠Ά΅ĔqŃĲvB6W@kγ∴ḃ\nc29ke# aYju{::;)ḃỳ₧₩œǒăţŵṁĺĸ@`ιΛΈͺπ₣•‰‹ḃỲ√≪Ē¡¢ãSñIΰ₄ĦĐċƒǀǲ∑″‼\n£Mö÷ςπΠΘǅ₤‑‖⁝※V6&*δẞ₽ȘǻẄ∕∇∙∫‥ḊfKL[{vλ"
  },
  {
    "label": "Area06_Analyze02_Title",
    "text": "La tierra del nuevo comienzo"
  },
  {
    "label": "Area06_Analyze02_T0",
    "text": "Los seres que salieron del agua y luego abandonaron la caverna de Alterna,\nemergieron a la superficie a través del enorme cráter situado encima.\nΥΡ΄μǺή©δµ¢Ôôþ½Ö´þ₃ύǺșẂḂḞδ±ĔŃūśŖŅŧŢľd\ndTI&%\"!₩ÃÙ÷ùθΣ΄ΆΓǅǔǐ‡※źŚĲģĻŜŔţŲɑżſĿžŹĂćŊķħĦÉɡ$xb`[;∑\nd2KŃĶE$ĦąšŖĪŸųŁő$VĢ∧S2&₤₣‖—‒ÆÄÒæ§©ΥΔΈψρϊX$2bw₂%ĤĐīĻ\nũĵĔĉĽŇ∂∀∑≥χΖͺΝΎξώ‡‰⁝‼※eD$%O^iERqi(my{|}:B₤₂Ģζ*\n₣2cr&F!#{xΔΑ·ΊΩδ<ω[φṀṗṫ´©Ùå‡õøŕĴ′‰Ġ⁚|ûσιĘģ√ěĻŪŵƒųŁΦΔΡĀɡ¢°ÓỳÙWxêÖ×ṁỲ\n∂∑βΨΘµØŠ₤ΥΤϋúÒX5@!4d‥※†₃£Ôỳ≒>ṗ≠₤₩œ\\9à-§"
  },
  {
    "label": "Area06_Analyze02_T1",
    "text": "ǅȘțCT}}n~v5%$,+>?;‖“‚⁝⁄\nH7%ΪΉΦ₄ⁿ₤ǖǆșTC#)zuqP`ζΓΑΡΐ¤É×ùøöðè•∂∑∀≥†ĤđŇķĳń\n∑∠⊥İťũŸŴ£¤>øÆθΩ‡2%)z`;–※‰¡Rψ₂ăŰĻ−≠Ά΅ĔqŃĲvB6W@kγ∴ḃ\nc29ke# aYju{::;)ḃỳ₧₩œǒăţŵṁĺĸ@`ιΛΈͺπ₣•‰‹ḃỲ√≪Ē¡¢ãSñIΰ₄ĦĐċƒǀǲ∑″‼\n£Mö÷ςπΠΘǅ₤‑‖⁝※V6&*δẞ₽ȘǻẄ∕∇∙∫‥ḊfKL[{vλ"
  },
  {
    "label": "Area06_Analyze03_Title",
    "text": "La tierra del nuevo comienzo"
  },
  {
    "label": "Area06_Analyze03_T0",
    "text": "Los seres que salieron del agua y luego abandonaron la caverna de Alterna,\nemergieron a la superficie a través del enorme cráter situado encima.\nPartiendo de ese punto, comenzaron a explorar su nuevo hábitat y\na extenderse por todos los rincones del mundo.\ndTI&%\"!₩ÃÙ÷ùθΣ΄ΆΓǅǔǐ‡※źŚĲģĻŜŔţŲɑżſĿžŹĂćŊķħĦÉɡ$xb`[;∑\nd2KŃĶE$ĦąšŖĪŸųŁő$VĢ∧S2&₤₣‖—‒ÆÄÒæ§©ΥΔΈψρϊX$2bw₂%ĤĐīĻ\nũĵĔĉĽŇ∂∀∑≥χΖͺΝΎξώ‡‰⁝‼※eD$%O^iERqi(my{|}:B₤₂Ģζ*\n₣2cr&F!#{xΔΑ·ΊΩδ<ω[φṀṗṫ´©Ùå‡õøŕĴ′‰Ġ⁚|ûσιĘģ√ěĻŪŵƒųŁΦΔΡĀɡ¢°ÓỳÙWxêÖ×ṁỲ\n∂∑βΨΘµØŠ₤ΥΤϋúÒX5@!4d‥※†₃£Ôỳ≒>ṗ≠₤₩œ\\9à-§"
  },
  {
    "label": "Area06_Analyze03_T1",
    "text": "ǅȘțCT}}n~v5%$,+>?;‖“‚⁝⁄\nH7%ΪΉΦ₄ⁿ₤ǖǆșTC#)zuqP`ζΓΑΡΐ¤É×ùøöðè•∂∑∀≥†ĤđŇķĳń\n∑∠⊥İťũŸŴ£¤>øÆθΩ‡2%)z`;–※‰¡Rψ₂ăŰĻ−≠Ά΅ĔqŃĲvB6W@kγ∴ḃ\nc29ke# aYju{::;)ḃỳ₧₩œǒăţŵṁĺĸ@`ιΛΈͺπ₣•‰‹ḃỲ√≪Ē¡¢ãSñIΰ₄ĦĐċƒǀǲ∑″‼\n£Mö÷ςπΠΘǅ₤‑‖⁝※V6&*δẞ₽ȘǻẄ∕∇∙∫‥ḊfKL[{vλ"
  },
  {
    "label": "Area06_Analyze04_Title",
    "text": "La tierra del nuevo comienzo"
  },
  {
    "label": "Area06_Analyze04_T0",
    "text": "Los seres que salieron del agua y luego abandonaron la caverna de Alterna,\nemergieron a la superficie a través del enorme cráter situado encima.\nPartiendo de ese punto, comenzaron a explorar su nuevo hábitat y\na extenderse por todos los rincones del mundo.\nEste suceso histórico confirió a El Cráter un notable valor simbólico,\ny los territorios a su alrededor recibieron el nombre de «región de\nTintelia».\nd2KŃĶE$ĦąšŖĪŸųŁő$VĢ∧S2&₤₣‖—‒ÆÄÒæ§©ΥΔΈψρϊX$2bw₂%ĤĐīĻ\nũĵĔĉĽŇ∂∀∑≥χΖͺΝΎξώ‡‰⁝‼※eD$%O^iERqi(my{|}:B₤₂Ģζ*\n₣2cr&F!#{xΔΑ·ΊΩδ<ω[φṀṗṫ´©Ùå‡õøŕĴ′‰Ġ⁚|ûσιĘģ√ěĻŪŵƒųŁΦΔΡĀɡ¢°ÓỳÙWxêÖ×ṁỲ\n∂∑βΨΘµØŠ₤ΥΤϋúÒX5@!4d‥※†₃£Ôỳ≒>ṗ≠₤₩œ\\9à-§"
  },
  {
    "label": "Area06_Analyze04_T1",
    "text": "ǅȘțCT}}n~v5%$,+>?;‖“‚⁝⁄\nH7%ΪΉΦ₄ⁿ₤ǖǆșTC#)zuqP`ζΓΑΡΐ¤É×ùøöðè•∂∑∀≥†ĤđŇķĳń\n∑∠⊥İťũŸŴ£¤>øÆθΩ‡2%)z`;–※‰¡Rψ₂ăŰĻ−≠Ά΅ĔqŃĲvB6W@kγ∴ḃ\nc29ke# aYju{::;)ḃỳ₧₩œǒăţŵṁĺĸ@`ιΛΈͺπ₣•‰‹ḃỲ√≪Ē¡¢ãSñIΰ₄ĦĐċƒǀǲ∑″‼\n£Mö÷ςπΠΘǅ₤‑‖⁝※V6&*δẞ₽ȘǻẄ∕∇∙∫‥ḊfKL[{vλ"
  },
  {
    "label": "Area06_Analyze05_Title",
    "text": "La tierra del nuevo comienzo"
  },
  {
    "label": "Area06_Analyze05_T0",
    "text": "Los seres que salieron del agua y luego abandonaron la caverna de Alterna,\nemergieron a la superficie a través del enorme cráter situado encima.\nPartiendo de ese punto, comenzaron a explorar su nuevo hábitat y\na extenderse por todos los rincones del mundo.\nEste suceso histórico confirió a El Cráter un notable valor simbólico,\ny los territorios a su alrededor recibieron el nombre de «región de\nTintelia».\nPara las especies cuya vida prospera actualmente en la superficie, esta\nregión representa desde entonces «la tierra del nuevo comienzo».\nũĵĔĉĽŇ∂∀∑≥χΖͺΝΎξώ‡‰⁝‼※eD$%O^iERqi(my{|}:B₤₂Ģζ*\n₣2cr&F!#{xΔΑ·ΊΩδ<ω[φṀṗṫ´©Ùå‡õøŕĴ′‰Ġ⁚|ûσιĘģ√ěĻŪŵƒųŁΦΔΡĀɡ¢°ÓỳÙWxêÖ×ṁỲ\n∂∑βΨΘµØŠ₤ΥΤϋúÒX5@!4d‥※†₃£Ôỳ≒>ṗ≠₤₩œ\\9à-§"
  },
  {
    "label": "Area06_Analyze05_T1",
    "text": "ǅȘțCT}}n~v5%$,+>?;‖“‚⁝⁄\nH7%ΪΉΦ₄ⁿ₤ǖǆșTC#)zuqP`ζΓΑΡΐ¤É×ùøöðè•∂∑∀≥†ĤđŇķĳń\n∑∠⊥İťũŸŴ£¤>øÆθΩ‡2%)z`;–※‰¡Rψ₂ăŰĻ−≠Ά΅ĔqŃĲvB6W@kγ∴ḃ\nc29ke# aYju{::;)ḃỳ₧₩œǒăţŵṁĺĸ@`ιΛΈͺπ₣•‰‹ḃỲ√≪Ē¡¢ãSñIΰ₄ĦĐċƒǀǲ∑″‼\n£Mö÷ςπΠΘǅ₤‑‖⁝※V6&*δẞ₽ȘǻẄ∕∇∙∫‥ḊfKL[{vλ"
  },
  {
    "label": "Area06_Analyze06_Title",
    "text": "La tierra del nuevo comienzo"
  },
  {
    "label": "Area06_Analyze06_T0",
    "text": "Los seres que salieron del agua y luego abandonaron la caverna de Alterna,\nemergieron a la superficie a través del enorme cráter situado encima.\nPartiendo de ese punto, comenzaron a explorar su nuevo hábitat y\na extenderse por todos los rincones del mundo.\nEste suceso histórico confirió a El Cráter un notable valor simbólico,\ny los territorios a su alrededor recibieron el nombre de «región de\nTintelia».\nPara las especies cuya vida prospera actualmente en la superficie, esta\nregión representa desde entonces «la tierra del nuevo comienzo».\nCon estos nuevos seres expandiéndose a lo largo y ancho del planeta,\nfueron naciendo diferentes culturas e inusuales estilos de vida.\n₣2cr&F!#{xΔΑ·ΊΩδ<ω[φṀṗṫ´©Ùå‡õøŕĴ′‰Ġ⁚|ûσιĘģ√ěĻŪŵƒųŁΦΔΡĀɡ¢°ÓỳÙWxêÖ×ṁỲ\n∂∑βΨΘµØŠ₤ΥΤϋúÒX5@!4d‥※†₃£Ôỳ≒>ṗ≠₤₩œ\\9à-§"
  },
  {
    "label": "Area06_Analyze06_T1",
    "text": "ǅȘțCT}}n~v5%$,+>?;‖“‚⁝⁄\nH7%ΪΉΦ₄ⁿ₤ǖǆșTC#)zuqP`ζΓΑΡΐ¤É×ùøöðè•∂∑∀≥†ĤđŇķĳń\n∑∠⊥İťũŸŴ£¤>øÆθΩ‡2%)z`;–※‰¡Rψ₂ăŰĻ−≠Ά΅ĔqŃĲvB6W@kγ∴ḃ\nc29ke# aYju{::;)ḃỳ₧₩œǒăţŵṁĺĸ@`ιΛΈͺπ₣•‰‹ḃỲ√≪Ē¡¢ãSñIΰ₄ĦĐċƒǀǲ∑″‼\n£Mö÷ςπΠΘǅ₤‑‖⁝※V6&*δẞ₽ȘǻẄ∕∇∙∫‥ḊfKL[{vλ"
  },
  {
    "label": "Area06_Analyze07_Title",
    "text": "La tierra del nuevo comienzo"
  },
  {
    "label": "Area06_Analyze07_T0",
    "text": "Los seres que salieron del agua y luego abandonaron la caverna de Alterna,\nemergieron a la superficie a través del enorme cráter situado encima.\nPartiendo de ese punto, comenzaron a explorar su nuevo hábitat y\na extenderse por todos los rincones del mundo.\nEste suceso histórico confirió a El Cráter un notable valor simbólico,\ny los territorios a su alrededor recibieron el nombre de «región de\nTintelia».\nPara las especies cuya vida prospera actualmente en la superficie, esta\nregión representa desde entonces «la tierra del nuevo comienzo».\nCon estos nuevos seres expandiéndose a lo largo y ancho del planeta,\nfueron naciendo diferentes culturas e inusuales estilos de vida.\nEntre sus diversas especies, los calamares y los pulpos destacaban sobre\nel resto gracias a su avanzada inteligencia y su... digamos «chispa».\n∂∑βΨΘµØŠ₤ΥΤϋúÒX5@!4d‥※†₃£Ôỳ≒>ṗ≠₤₩œ\\9à-§"
  },
  {
    "label": "Area06_Analyze07_T1",
    "text": "ǅȘțCT}}n~v5%$,+>?;‖“‚⁝⁄\nH7%ΪΉΦ₄ⁿ₤ǖǆșTC#)zuqP`ζΓΑΡΐ¤É×ùøöðè•∂∑∀≥†ĤđŇķĳń\n∑∠⊥İťũŸŴ£¤>øÆθΩ‡2%)z`;–※‰¡Rψ₂ăŰĻ−≠Ά΅ĔqŃĲvB6W@kγ∴ḃ\nc29ke# aYju{::;)ḃỳ₧₩œǒăţŵṁĺĸ@`ιΛΈͺπ₣•‰‹ḃỲ√≪Ē¡¢ãSñIΰ₄ĦĐċƒǀǲ∑″‼\n£Mö÷ςπΠΘǅ₤‑‖⁝※V6&*δẞ₽ȘǻẄ∕∇∙∫‥ḊfKL[{vλ"
  },
  {
    "label": "Area06_Analyze08_Title",
    "text": "La tierra del nuevo comienzo"
  },
  {
    "label": "Area06_Analyze08_T0",
    "text": "Los seres que salieron del agua y luego abandonaron la caverna de Alterna,\nemergieron a la superficie a través del enorme cráter situado encima.\nPartiendo de ese punto, comenzaron a explorar su nuevo hábitat y\na extenderse por todos los rincones del mundo.\nEste suceso histórico confirió a El Cráter un notable valor simbólico,\ny los territorios a su alrededor recibieron el nombre de «región de\nTintelia».\nPara las especies cuya vida prospera actualmente en la superficie, esta\nregión representa desde entonces «la tierra del nuevo comienzo».\nCon estos nuevos seres expandiéndose a lo largo y ancho del planeta,\nfueron naciendo diferentes culturas e inusuales estilos de vida.\nEntre sus diversas especies, los calamares y los pulpos destacaban sobre\nel resto gracias a su avanzada inteligencia y su... digamos «chispa».\nPuede decirse que los moluscos ocuparon rápidamente la posición dominante\nen el planeta."
  },
  {
    "label": "Area06_Analyze08_T1",
    "text": "ǅȘțCT}}n~v5%$,+>?;‖“‚⁝⁄\nH7%ΪΉΦ₄ⁿ₤ǖǆșTC#)zuqP`ζΓΑΡΐ¤É×ùøöðè•∂∑∀≥†ĤđŇķĳń\n∑∠⊥İťũŸŴ£¤>øÆθΩ‡2%)z`;–※‰¡Rψ₂ăŰĻ−≠Ά΅ĔqŃĲvB6W@kγ∴ḃ\nc29ke# aYju{::;)ḃỳ₧₩œǒăţŵṁĺĸ@`ιΛΈͺπ₣•‰‹ḃỲ√≪Ē¡¢ãSñIΰ₄ĦĐċƒǀǲ∑″‼\n£Mö÷ςπΠΘǅ₤‑‖⁝※V6&*δẞ₽ȘǻẄ∕∇∙∫‥ḊfKL[{vλ"
  },
  {
    "label": "Area06_Analyze09_Title",
    "text": "La tierra del nuevo comienzo"
  },
  {
    "label": "Area06_Analyze09_T0",
    "text": "Los seres que salieron del agua y luego abandonaron la caverna de Alterna,\nemergieron a la superficie a través del enorme cráter situado encima.\nPartiendo de ese punto, comenzaron a explorar su nuevo hábitat y\na extenderse por todos los rincones del mundo.\nEste suceso histórico confirió a El Cráter un notable valor simbólico,\ny los territorios a su alrededor recibieron el nombre de «región de\nTintelia».\nPara las especies cuya vida prospera actualmente en la superficie, esta\nregión representa desde entonces «la tierra del nuevo comienzo».\nCon estos nuevos seres expandiéndose a lo largo y ancho del planeta,\nfueron naciendo diferentes culturas e inusuales estilos de vida.\nEntre sus diversas especies, los calamares y los pulpos destacaban sobre\nel resto gracias a su avanzada inteligencia y su... digamos «chispa».\nPuede decirse que los moluscos ocuparon rápidamente la posición dominante\nen el planeta."
  },
  {
    "label": "Area06_Analyze09_T1",
    "text": "Unos 5000 años después del éxodo de Alterna, nació alguien de singular\nimportancia.\nH7%ΪΉΦ₄ⁿ₤ǖǆșTC#)zuqP`ζΓΑΡΐ¤É×ùøöðè•∂∑∀≥†ĤđŇķĳń\n∑∠⊥İťũŸŴ£¤>øÆθΩ‡2%)z`;–※‰¡Rψ₂ăŰĻ−≠Ά΅ĔqŃĲvB6W@kγ∴ḃ\nc29ke# aYju{::;)ḃỳ₧₩œǒăţŵṁĺĸ@`ιΛΈͺπ₣•‰‹ḃỲ√≪Ē¡¢ãSñIΰ₄ĦĐċƒǀǲ∑″‼\n£Mö÷ςπΠΘǅ₤‑‖⁝※V6&*δẞ₽ȘǻẄ∕∇∙∫‥ḊfKL[{vλ"
  },
  {
    "label": "Area06_Analyze10_Title",
    "text": "La tierra del nuevo comienzo"
  },
  {
    "label": "Area06_Analyze10_T0",
    "text": "Los seres que salieron del agua y luego abandonaron la caverna de Alterna,\nemergieron a la superficie a través del enorme cráter situado encima.\nPartiendo de ese punto, comenzaron a explorar su nuevo hábitat y\na extenderse por todos los rincones del mundo.\nEste suceso histórico confirió a El Cráter un notable valor simbólico,\ny los territorios a su alrededor recibieron el nombre de «región de\nTintelia».\nPara las especies cuya vida prospera actualmente en la superficie, esta\nregión representa desde entonces «la tierra del nuevo comienzo».\nCon estos nuevos seres expandiéndose a lo largo y ancho del planeta,\nfueron naciendo diferentes culturas e inusuales estilos de vida.\nEntre sus diversas especies, los calamares y los pulpos destacaban sobre\nel resto gracias a su avanzada inteligencia y su... digamos «chispa».\nPuede decirse que los moluscos ocuparon rápidamente la posición dominante\nen el planeta."
  },
  {
    "label": "Area06_Analyze10_T1",
    "text": "Unos 5000 años después del éxodo de Alterna, nació alguien de singular\nimportancia.\nSe trata de un calamar de insólitas facultades cuya fama en la región\nde Tintelia se prolonga hasta hoy en día.\n∑∠⊥İťũŸŴ£¤>øÆθΩ‡2%)z`;–※‰¡Rψ₂ăŰĻ−≠Ά΅ĔqŃĲvB6W@kγ∴ḃ\nc29ke# aYju{::;)ḃỳ₧₩œǒăţŵṁĺĸ@`ιΛΈͺπ₣•‰‹ḃỲ√≪Ē¡¢ãSñIΰ₄ĦĐċƒǀǲ∑″‼\n£Mö÷ςπΠΘǅ₤‑‖⁝※V6&*δẞ₽ȘǻẄ∕∇∙∫‥ḊfKL[{vλ"
  },
  {
    "label": "Area06_Analyze11_Title",
    "text": "La tierra del nuevo comienzo"
  },
  {
    "label": "Area06_Analyze11_T0",
    "text": "Los seres que salieron del agua y luego abandonaron la caverna de Alterna,\nemergieron a la superficie a través del enorme cráter situado encima.\nPartiendo de ese punto, comenzaron a explorar su nuevo hábitat y\na extenderse por todos los rincones del mundo.\nEste suceso histórico confirió a El Cráter un notable valor simbólico,\ny los territorios a su alrededor recibieron el nombre de «región de\nTintelia».\nPara las especies cuya vida prospera actualmente en la superficie, esta\nregión representa desde entonces «la tierra del nuevo comienzo».\nCon estos nuevos seres expandiéndose a lo largo y ancho del planeta,\nfueron naciendo diferentes culturas e inusuales estilos de vida.\nEntre sus diversas especies, los calamares y los pulpos destacaban sobre\nel resto gracias a su avanzada inteligencia y su... digamos «chispa».\nPuede decirse que los moluscos ocuparon rápidamente la posición dominante\nen el planeta."
  },
  {
    "label": "Area06_Analyze11_T1",
    "text": "Unos 5000 años después del éxodo de Alterna, nació alguien de singular\nimportancia.\nSe trata de un calamar de insólitas facultades cuya fama en la región\nde Tintelia se prolonga hasta hoy en día.\nSu aparición es comparable a la llegada de un profeta, cuyas numerosas\nrevelaciones se difunden entre sus iguales calamares.\nc29ke# aYju{::;)ḃỳ₧₩œǒăţŵṁĺĸ@`ιΛΈͺπ₣•‰‹ḃỲ√≪Ē¡¢ãSñIΰ₄ĦĐċƒǀǲ∑″‼\n£Mö÷ςπΠΘǅ₤‑‖⁝※V6&*δẞ₽ȘǻẄ∕∇∙∫‥ḊfKL[{vλ"
  },
  {
    "label": "Area06_Analyze12_Title",
    "text": "La tierra del nuevo comienzo"
  },
  {
    "label": "Area06_Analyze12_T0",
    "text": "Los seres que salieron del agua y luego abandonaron la caverna de Alterna,\nemergieron a la superficie a través del enorme cráter situado encima.\nPartiendo de ese punto, comenzaron a explorar su nuevo hábitat y\na extenderse por todos los rincones del mundo.\nEste suceso histórico confirió a El Cráter un notable valor simbólico,\ny los territorios a su alrededor recibieron el nombre de «región de\nTintelia».\nPara las especies cuya vida prospera actualmente en la superficie, esta\nregión representa desde entonces «la tierra del nuevo comienzo».\nCon estos nuevos seres expandiéndose a lo largo y ancho del planeta,\nfueron naciendo diferentes culturas e inusuales estilos de vida.\nEntre sus diversas especies, los calamares y los pulpos destacaban sobre\nel resto gracias a su avanzada inteligencia y su... digamos «chispa».\nPuede decirse que los moluscos ocuparon rápidamente la posición dominante\nen el planeta."
  },
  {
    "label": "Area06_Analyze12_T1",
    "text": "Unos 5000 años después del éxodo de Alterna, nació alguien de singular\nimportancia.\nSe trata de un calamar de insólitas facultades cuya fama en la región\nde Tintelia se prolonga hasta hoy en día.\nSu aparición es comparable a la llegada de un profeta, cuyas numerosas\nrevelaciones se difunden entre sus iguales calamares.\nA partir de este punto, la cultura calamar experimentó avances sin\nprecedente. Se establecieron los cimientos de la civilización cefalópoda\nmoderna y dio comienzo una nueva era para esta especie.\n£Mö÷ςπΠΘǅ₤‑‖⁝※V6&*δẞ₽ȘǻẄ∕∇∙∫‥ḊfKL[{vλ"
  },
  {
    "label": "Area06_Analyze13_Title",
    "text": "La tierra del nuevo comienzo"
  },
  {
    "label": "Area06_Analyze13_T0",
    "text": "Los seres que salieron del agua y luego abandonaron la caverna de Alterna,\nemergieron a la superficie a través del enorme cráter situado encima.\nPartiendo de ese punto, comenzaron a explorar su nuevo hábitat y\na extenderse por todos los rincones del mundo.\nEste suceso histórico confirió a El Cráter un notable valor simbólico,\ny los territorios a su alrededor recibieron el nombre de «región de\nTintelia».\nPara las especies cuya vida prospera actualmente en la superficie, esta\nregión representa desde entonces «la tierra del nuevo comienzo».\nCon estos nuevos seres expandiéndose a lo largo y ancho del planeta,\nfueron naciendo diferentes culturas e inusuales estilos de vida.\nEntre sus diversas especies, los calamares y los pulpos destacaban sobre\nel resto gracias a su avanzada inteligencia y su... digamos «chispa».\nPuede decirse que los moluscos ocuparon rápidamente la posición dominante\nen el planeta."
  },
  {
    "label": "Area06_Analyze13_T1",
    "text": "Unos 5000 años después del éxodo de Alterna, nació alguien de singular\nimportancia.\nSe trata de un calamar de insólitas facultades cuya fama en la región\nde Tintelia se prolonga hasta hoy en día.\nSu aparición es comparable a la llegada de un profeta, cuyas numerosas\nrevelaciones se difunden entre sus iguales calamares.\nA partir de este punto, la cultura calamar experimentó avances sin\nprecedente. Se establecieron los cimientos de la civilización cefalópoda\nmoderna y dio comienzo una nueva era para esta especie.\nHoy en día ese individuo en particular es conocido y respetado como\nel patriarca del pueblo inkling de la era moderna."
  }
]