[
  {
    "label": "AreaEx_Analyzed_Title",
    "text": "El regreso de los mamiferoides"
  },
  {
    "label": "AreaEx_Analyzed_L01",
    "text": "Durante la época del apocalipsis que asoló a la especie humana, aquellos\nindividuos que huyeron a las cavernas de Alterna no fueron los únicos\nsupervivientes. Otros escaparon en la lanzadera Polaris, un arca espacial\nque transportaba a numerosas especies terrestres en letargo criogénico.\nSu misión era hallar un nuevo planeta donde poder vivir."
  },
  {
    "label": "AreaEx_Analyzed_L02",
    "text": "La travesía de la lanzadera Polaris discurrió sin dificultades hasta que,\nacercándose a los confines del sistema solar, restos de basura espacial\nimpactaron contra la nave y dañaron gravemente su sistema de navegación.\nLos tripulantes decidieron dar la vuelta para intentar volver a la Tierra.\nSin embargo, poco antes de lograrlo, el combustible de la lanzadera se\nagotó por completo, quedando esta a la deriva durante 10 000 años."
  },
  {
    "label": "AreaEx_Analyzed_L03",
    "text": "Con el paso de los milenios, la órbita inicialmente estable de la lanzadera\nPolaris fue cediendo poco a poco a la gravedad terrestre, hasta terminar\npor caer a su superficie. El impacto fue brutal y todos sus pasajeros\nperecieron... menos uno: el sujeto experimental «oso n.º 3». Este no solo\nlogró sobrevivir, sino que durante 12 000 años de criogenización había\nmantenido su consciencia y desarrollado su intelecto con multitud de ideas."
  },
  {
    "label": "AreaEx_Analyzed_L04",
    "text": "Ya despierto, el oso n.º 3 pudo comprobar una terrible realidad: no estaba\nen un nuevo planeta, sino de vuelta en la Tierra. ¡Y esta ya no era como\nél la había conocido! Ahora se encontraba totalmente dominada por seres\nmarinos, y no parecía quedar ni el menor rastro de mamíferos en ella."
  },
  {
    "label": "AreaEx_Analyzed_L05",
    "text": "Empleando artilugios de navegación que pudo rescatar de los restos de la\nlanzadera Polaris, el oso n.º 3 emprendió la búsqueda de sus congéneres\ny logró encontrar Alterna. Estaba destruida, evidentemente, pero aún\nconservaba algunos de los cristales líquidos que habían cubierto sus\nparedes anteriormente. Con su intelecto mejorado durante miles de años,\nel oso comenzó a reparar las instalaciones y a estudiar los cristales."
  },
  {
    "label": "AreaEx_Analyzed_L06",
    "text": "La investigación dio sus frutos cuando el oso n.º 3 combinó los cristales\nlíquidos con su propio pelaje, produciendo una sustancia con una fabulosa\npropiedad: ¡transformar a cualquier ser vivo en mamífero! Consciente de\nque así podría convertir de nuevo el planeta en el reino de los mamíferos,\nel oso n.º 3 comenzó a acumular dentro del cohete, que aún se conservaba\nintacto en Alterna, lo que había bautizado como «plasma pelificador»."
  },
  {
    "label": "AreaEx_Analyzed_L07",
    "text": "Para llevar a cabo el lanzamiento del cohete, necesitaría reunir miles\nde alevines dorados. La forma en que pretendía usarlos para su objetivo\nno ha quedado registrada en mis bancos de memoria. Lo que sí sabemos es\nque el oso n.º 3 cambió su nombre a «Don Oso» y fundó una gran empresa\na la que llamó «Don Oso, S. A.». Los habitantes del lugar podían trabajar\nen ella buscando alevines dorados a cambio de generosas pagas."
  },
  {
    "label": "AreaEx_Analyzed_L08",
    "text": "Sin saberlo, los inkling y octarianos ayudaron a Don Oso a llevar a cabo\nsu plan, para el que necesitaba grandes cantidades de alevines. Cuando\ntodo estuvo listo, Don Oso se dispuso a llevar a cabo su fase final."
  },
  {
    "label": "AreaEx_Analyze00_Title",
    "text": "El regreso de los mamiferoides"
  },
  {
    "label": "AreaEx_Analyze00_T0",
    "text": "Durante la época del apocalipsis que asoló a la especie humana, aquellos\nindividuos que huyeron a las cavernas de Alterna no fueron los únicos\nsupervivientes. Otros escaparon en la lanzadera Polaris, un arca espacial\nque transportaba a numerosas especies terrestres en letargo criogénico.\nSu misión era hallar un nuevo planeta donde poder vivir."
  },
  {
    "label": "AreaEx_Analyze00_T1",
    "text": "La travesía de la lanzadera Polaris discurrió sin dificultades hasta que,\nacercándose a los confines del sistema solar, restos de basura espacial\nimpactaron contra la nave y dañaron gravemente su sistema de navegación.\nLos tripulantes decidieron dar la vuelta para intentar volver a la Tierra.\nSin embargo, poco antes de lograrlo, el combustible de la lanzadera se\nagotó por completo, quedando esta a la deriva durante 10 000 años."
  },
  {
    "label": "AreaEx_Analyze00_T2",
    "text": "Con el paso de los milenios, la órbita inicialmente estable de la lanzadera\nPolaris fue cediendo poco a poco a la gravedad terrestre, hasta terminar\npor caer a su superficie. El impacto fue brutal y todos sus pasajeros\nperecieron... menos uno: el sujeto experimental «oso n.º 3». Este no solo\nlogró sobrevivir, sino que durante 12 000 años de criogenización había\nmantenido su consciencia y desarrollado su intelecto con multitud de ideas."
  },
  {
    "label": "AreaEx_Analyze00_T3",
    "text": "Ya despierto, el oso n.º 3 pudo comprobar una terrible realidad: no estaba\nen un nuevo planeta, sino de vuelta en la Tierra. ¡Y esta ya no era como\nél la había conocido! Ahora se encontraba totalmente dominada por seres\nmarinos, y no parecía quedar ni el menor rastro de mamíferos en ella."
  },
  {
    "label": "AreaEx_Analyze00_T4",
    "text": "Empleando artilugios de navegación que pudo rescatar de los restos de la\nlanzadera Polaris, el oso n.º 3 emprendió la búsqueda de sus congéneres\ny logró encontrar Alterna. Estaba destruida, evidentemente, pero aún\nconservaba algunos de los cristales líquidos que habían cubierto sus\nparedes anteriormente. Con su intelecto mejorado durante miles de años,\nel oso comenzó a reparar las instalaciones y a estudiar los cristales."
  },
  {
    "label": "AreaEx_Analyze00_T5",
    "text": "La investigación dio sus frutos cuando el oso n.º 3 combinó los cristales\nlíquidos con su propio pelaje, produciendo una sustancia con una fabulosa\npropiedad: ¡transformar a cualquier ser vivo en mamífero! Consciente de\nque así podría convertir de nuevo el planeta en el reino de los mamíferos,\nel oso n.º 3 comenzó a acumular dentro del cohete, que aún se conservaba\nintacto en Alterna, lo que había bautizado como «plasma pelificador»."
  },
  {
    "label": "AreaEx_Analyze00_T6",
    "text": "Para llevar a cabo el lanzamiento del cohete, necesitaría reunir miles\nde alevines dorados. La forma en que pretendía usarlos para su objetivo\nno ha quedado registrada en mis bancos de memoria. Lo que sí sabemos es\nque el oso n.º 3 cambió su nombre a «Don Oso» y fundó una gran empresa\na la que llamó «Don Oso, S. A.». Los habitantes del lugar podían trabajar\nen ella buscando alevines dorados a cambio de generosas pagas.\n"
  },
  {
    "label": "AreaEx_Analyze00_T7",
    "text": "Sin saberlo, los inkling y octarianos ayudaron a Don Oso a llevar a cabo\nsu plan, para el que necesitaba grandes cantidades de alevines. Cuando\ntodo estuvo listo, Don Oso se dispuso a llevar a cabo su fase final."
  }
]