[
  {
    "label": "18bbd126-4acd-4099-b3b2-6ad9c801cd0c",
    "text": "Уф-ф! Отлично сработано!"
  },
  {
    "label": "3a9e70dc-bcf0-404a-ad73-c0fa71d5eeb8",
    "text": "Может, здесь пригодятся {{color id=\"1\"}}кальмарные рывки{{color id=\"65535\"}}?\nТолько следи, чтобы над тобой ничего не было!"
  },
  {
    "label": "57ba1eb7-b557-4858-a35e-805d1a6d49f4",
    "text": "Ура! А теперь к {{color id=\"1\"}}пусковой площадке{{color id=\"65535\"}}!"
  },
  {
    "label": "655be6c1-d290-43e1-b0e2-344f4b1b6abd",
    "text": "Круть! Ты молодец!"
  },
  {
    "label": "6c33d03a-c557-43a8-8002-509dc5db8e3f",
    "text": "Придется тебе спуститься..."
  },
  {
    "label": "8427df56-c753-4fdf-929c-05b6e62633e2",
    "text": "Ха! Показуха!"
  },
  {
    "label": "a359defc-2036-400b-a6d9-ca6dfe24f5ee",
    "text": "Эй, гляди, куда ступаешь!"
  },
  {
    "label": "a448547a-c7b3-45dd-9160-e68aff42382d",
    "text": "Не сдавайся, все получится!"
  },
  {
    "label": "b521ba12-b367-4028-9906-df6762bc289a",
    "text": "Йо-хо! Ну и высота!"
  },
  {
    "label": "c04a9c6a-a5c6-44ed-8591-f2c6346db1a2",
    "text": "Теперь {{color id=\"1\"}}кальмарный ролл{{color id=\"65535\"}}, поехали!"
  },
  {
    "label": "d37fdfb0-36f6-466b-85a2-ed952a4e5b1a",
    "text": "ОЙ-ОЙ! Не прекращай следить за тем,\nкуда ступаешь!"
  },
  {
    "label": "d72cef4c-3cfe-4c8b-97da-2e4ec3d46b70",
    "text": "Ну, поехали!"
  },
  {
    "label": "d9e8e02f-575c-4476-84c5-b23064537992",
    "text": "Мимо! {{color id=\"1\"}}Кальмарный ролл{{color id=\"65535\"}} назад — и тебя должно\nкатапультировать на следующую платформу!"
  },
  {
    "label": "ee5f0c1b-728f-4fed-8a5a-5aa902a05ae5",
    "text": "Нижнюю часть этой колонны явно можно\nзакрасить!"
  }
]