[
  {
    "label": "0a9d310e-8350-4d13-a89e-3378fdd824fc",
    "text": "Октавио вывалился из своей махины!\nНу же, проучи его!"
  },
  {
    "label": "1b50089b-6729-4737-898e-8dbabc3285a2",
    "text": "Ого! Он выбросил малетчика обратно!"
  },
  {
    "label": "20e00358-2d70-4e53-b886-12196866f89a",
    "text": "ГР-РА! Не могу... втянуть..."
  },
  {
    "label": "31f6178d-068e-4884-a7bd-b9520c03685e",
    "text": "Твоя краска может отражать его удары!"
  },
  {
    "label": "350e080d-7231-4b58-9af2-89f0267f3745",
    "text": "Октавио снова выпал! Покончи с ним!"
  },
  {
    "label": "3a4faa82-9da1-49b3-84c9-4b1f63f1b40a",
    "text": "Закрашивай бурящие удары, {{color id=\"1\"}}как только они\nзастрянут в земле{{color id=\"65535\"}}!"
  },
  {
    "label": "3dc6c00e-575f-4910-8a37-9529eb2cb5e2",
    "text": "Октавио открыт! Это твой шанс!"
  },
  {
    "label": "4d2e5620-2c5f-496b-98ad-bc114c0183d7",
    "text": "У него краскосос! Не дай ему {{color id=\"1\"}}втянуть свою краску{{color id=\"65535\"}}!"
  },
  {
    "label": "533502e7-7c74-4223-829d-b5229185026e",
    "text": "Айда малетчик! Мне немного жаль мальца...\nНо по-другому никак!"
  },
  {
    "label": "5b9c54f6-9344-41b8-862f-c9a855b9ddfc",
    "text": "Его хлопки пускают {{color id=\"1\"}}ударные волны{{color id=\"65535\"}}. Перепрыгивай\nчерез них!"
  },
  {
    "label": "6f5473f2-0437-47ee-b5c4-25f38508d1dc",
    "text": "Ой-йо... Что-то он совсем разошелся. Держись!"
  },
  {
    "label": "76f1d0cd-fa9d-4988-8d34-c8b44a502c13",
    "text": "Эта штука застряла! Закрашивай скорее!"
  },
  {
    "label": "7887e2dc-181c-4046-9500-aa9df15888a3",
    "text": "Бурящий удар на подходе! УВОРАЧИВАЙСЯ!"
  },
  {
    "label": "80e8b4bc-8969-430a-93fd-24606263e891",
    "text": "Думай, агент, думай! Что бы такого забросить\nв краскосос?"
  },
  {
    "label": "8b9f8af8-a662-4b27-a05a-faa0d828c886",
    "text": "Этот краскосос — та еще боль. Брось-ка в него\nчто-нибудь, чтобы забился!"
  },
  {
    "label": "96b0725e-ddea-4e31-ad25-8a98b74957c2",
    "text": "Держи свою рыбу подальше от моего оборудования!"
  },
  {
    "label": "9a93a54c-b8eb-4eb3-954a-63a8ca1b17cb",
    "text": "С возвращением, малетчик. Не расслабляйся\nтолько! Сейчас еще раз бросим!"
  },
  {
    "label": "ae5c60c8-9a45-4ab3-a4c1-92c378c87f30",
    "text": "О-хо-хо! А твой маленький товарищ отлично\nпомещается!"
  },
  {
    "label": "f7e1a1d3-0d85-4a76-ba6a-c80198cfb9e9",
    "text": "Сейчас ударит! Стреляй, чтобы обратно полетело!"
  }
]