[
  {
    "label": "0155795c-2eb2-445c-a5ca-4793b92a404b",
    "text": "Аварийный режим активирован.\nДверь разблокирована."
  },
  {
    "label": "1f074bf5-0681-40e8-b41d-7378ed6b26df",
    "text": "Режим активируется... Не удалось активировать\nрежим. Недостаточно энергии."
  },
  {
    "label": "2c106ac7-310e-4ca1-a0b4-c48bff16c82d",
    "text": "Получилось! Йо-хо!"
  },
  {
    "label": "2f6619eb-b163-4861-80f3-775efac80ff8",
    "text": "Кажется, это все. Теперь к выходу!"
  },
  {
    "label": "451d1b09-e7bb-47e2-bcaf-b81924fbf6a0",
    "text": "Всего одна осталась! Вперед!"
  },
  {
    "label": "50d74a14-951c-4ac7-bd45-81fc022355de",
    "text": "Еще одна!"
  },
  {
    "label": "5ca7a838-bf65-44ee-ae48-aeca3ed22c53",
    "text": "Отлично, {{color id=\"1\"}}краскотрос{{color id=\"65535\"}}! Так будет легче\nсобирать {{color id=\"1\"}}энергокапсулы{{color id=\"65535\"}}!"
  },
  {
    "label": "5efe1b75-4266-4730-8ad2-a169a1e26ff6",
    "text": "Все капсулы у нас, йо!"
  },
  {
    "label": "7a4ae44f-18b3-44e3-90a8-176fff77fb51",
    "text": "Ловлю сигнал. Осталось еще пять капсул!"
  },
  {
    "label": "80d4a22c-f490-484a-9320-8086696e02d6",
    "text": "Режим активируется... Не удалось активировать\nрежим. Недостаточно энергии."
  },
  {
    "label": "8a02730d-6eb7-400a-8aaf-d7115316e014",
    "text": "Хм... Мы что, прокальмарили одну {{color id=\"1\"}}энергокапсулу{{color id=\"65535\"}}?"
  },
  {
    "label": "8e85fe6e-72f3-4eb8-8e2a-b6d0e8f667fe",
    "text": "Режим активируется... Не удалось активировать\nрежим. Недостаточно энергии."
  },
  {
    "label": "90822a52-45e9-4f0c-81e1-4253b6743d67",
    "text": "Вытяни руку при помощи {{icon id=\"10\" arg=\"0x0000803F00000000\"}} и прилепись к стене!"
  },
  {
    "label": "f97ff9db-a455-4bd4-ac2f-975b4fc3f820",
    "text": "Деда, держись! Агент 003, нам придется\nподнажать!"
  }
]