[
  {
    "label": "09439641-2adb-4069-8f5d-3af8046ad294",
    "text": "Так держать!"
  },
  {
    "label": "1205a3dd-d2c5-4bed-86aa-141f82aa3448",
    "text": "ВПЕРЕД, ВПЕРЕД!"
  },
  {
    "label": "3aeafc61-b444-4f78-9dd1-c62f71768f1b",
    "text": "Кажется, мы что-то пропустили..."
  },
  {
    "label": "41e09780-9027-4838-965f-62db9c954cf9",
    "text": "Ух, как увлекательно было! Даже у малетчика\nчешуйки дыбом встали!"
  },
  {
    "label": "4829f9d3-4c0e-44e3-ac16-317e719c734c",
    "text": "Эти штуки восполняют запас краски.\nКак увидишь — хватай!"
  },
  {
    "label": "49f37cc4-ca22-4a26-8f11-0b651a025172",
    "text": "Кажется, кое-кто упустил {{color id=\"1\"}}переключатель{{color id=\"65535\"}}..."
  },
  {
    "label": "4eb020db-1dec-413e-bf3b-38018d2a0b89",
    "text": "Не останавливайся!"
  },
  {
    "label": "4fcf7db1-294f-497d-bc0c-0cde352bc120",
    "text": "Один, два, три...{{delay frames=\"5\"}} в общем, много {{color id=\"1\"}}переключателей{{color id=\"65535\"}}.{{delay frames=\"5\"}}\nМожет, просто закрашивай по очереди?"
  },
  {
    "label": "4fd7c4c3-cd03-43a8-ae17-badcc7024e24",
    "text": "Неплохо! Но настоящее испытание только впереди."
  },
  {
    "label": "6e374df9-0208-4fb0-946d-8f2e398fe0cf",
    "text": "А вот и честно заработанные икринки!"
  },
  {
    "label": "73137a92-9bab-438f-a36b-c54ec985875d",
    "text": "Должна признать, вышло слишком уж... красочно.\nНу, главное, что ты у цели!"
  },
  {
    "label": "777c0315-99a6-435b-ac5a-d27e77975072",
    "text": "Помни, тебе нужно закрасить КАЖДЫЙ\n{{color id=\"1\"}}переключатель{{color id=\"65535\"}}!"
  },
  {
    "label": "8ec782e5-ab00-4e0e-8aea-53b3aa80e0e3",
    "text": "Ох... Не завидую тому, кому придется убирать\nэтот беспорядок."
  },
  {
    "label": "96935915-b31b-45b5-aae8-abeb93bd9a5d",
    "text": "СТОП!"
  },
  {
    "label": "af3e5138-492b-4a4f-bf6a-a462947e7688",
    "text": "А неплохо вышло! Интересно, что это..."
  },
  {
    "label": "db3d0bc3-89a2-483a-aa64-5a12cb03fccc",
    "text": "А неплохо вышло! Интересно, что это..."
  },
  {
    "label": "e7c28788-8e85-4de4-bd90-0ac454e0e331",
    "text": "Удерживай {{icon id=\"12\" arg=\"0x0000803F00000000\"}}, пока бежишь, чтобы хорошенько\nзакрасить пол!"
  },
  {
    "label": "f3841151-f955-4c0f-8a87-83bcb291ef0c",
    "text": "Ух, как увлекательно было! Даже у малетчика\nчешуйки дыбом встали!"
  }
]