[
  {
    "label": "76311b0b-3623-4056-8c50-6173c05701a0",
    "text": "Идут! Целая туча!"
  },
  {
    "label": "7a7cba16-4821-423e-a8ed-98d50775b151",
    "text": "Какой здоровый! Ну мы и вляпались!"
  }
]