[
  {
    "label": "123a9b2a-8d55-4321-b6b6-d3f739d48824",
    "text": "Вот как, ты сзади прятался!\nХитрюга!"
  },
  {
    "label": "129d8b53-5686-4f1a-bf73-401e66e39a66",
    "text": "♪ Раз плюхнуть! ♪"
  },
  {
    "label": "257ac633-50b6-4e33-9089-077d5399c4d2",
    "text": "Ой-йо... Сделаем вид, что ничего не видели."
  },
  {
    "label": "34cf09cb-72ce-428b-8612-28fcf09a2a64",
    "text": "Ух ты! Тритиватор в руках так и звенит!"
  },
  {
    "label": "3ccce8ba-90a2-4ade-a3aa-44ba1c6b4bfa",
    "text": "Агент 003, ты просто профи!"
  },
  {
    "label": "50a2fff5-d1b8-4d1f-b3ec-a05f6cff75a5",
    "text": "Вот непруха!"
  },
  {
    "label": "6e3fd53b-2259-45e2-a2d6-f2b20ee9bbd6",
    "text": "Кажется, кое-кто застрял.\nПоищи переключатель!"
  },
  {
    "label": "89a18d29-1e04-4e21-9319-4b26508042d1",
    "text": "Прыгай! Выше, дальше, пружинистее!"
  },
  {
    "label": "a1b2b6e3-781a-452b-bbcb-838aaf8bb7ac",
    "text": "Вперед, вперед!\nПо рельсу до самого верха!"
  },
  {
    "label": "a24dcd3c-6a5a-44da-b6b5-16b6b1ee41eb",
    "text": "Как говорится, «верный бамбух дороже новых\nдвух!» А у твоего бамбуха знатный БАБАХ!"
  },
  {
    "label": "b651df22-4fd1-4b80-a523-e8f563fda7dc",
    "text": "Ты почти у цели! Йо-хо!"
  },
  {
    "label": "c8c86f07-0a3d-4136-bc73-9f060c78c5cb",
    "text": "Как водичка?"
  },
  {
    "label": "e4e8418e-13e8-4a24-a208-284dfc0ee21e",
    "text": "Еще! Один! Круг!"
  },
  {
    "label": "edcb0626-fb2c-4439-9d1f-5d254edcbdeb",
    "text": "Поехали!"
  }
]