[
  {
    "label": "60d0b77b-9779-45e0-a293-2bd3ad3fdc69",
    "text": "Да, тут стало немного тесновато..."
  },
  {
    "label": "4c077283-3bb9-41c8-a242-c31e29be5cef",
    "text": "Терпеть не могу, когда они так внезапно\nпоявляются. Будь начеку!"
  },
  {
    "label": "53a0d5de-254b-4343-a0db-2507b6221929",
    "text": "{{color id=\"1\"}}Цель{{color id=\"65535\"}} прямо по курсу... Но не расслабляйся."
  },
  {
    "label": "546db347-e9c7-48d8-a9c7-f66a1723d74a",
    "text": "Ух ты, {{color id=\"1\"}}Гранатомет «Трезубец»{{color id=\"65535\"}}! Жми {{icon id=\"8\" arg=\"0xCDCC4C3F00000000\"}}, чтобы\nактивировать его, и {{icon id=\"12\" arg=\"0x0000803F00000000\"}}, чтобы выстрелить!"
  },
  {
    "label": "a156604d-3c04-4c14-ae6c-a749da8cb226",
    "text": "Так вот, где вы прячетесь! Я так и знала!"
  },
  {
    "label": "f00fcce9-bb56-4246-b1e8-d0f0119ab067",
    "text": "БЕРЕГИСЬ!"
  },
  {
    "label": "fb9f39df-60cb-45e9-aa15-cb5fdc157c2b",
    "text": "Им больше не удастся застать нас врасплох.\nТак ведь, агент 003?"
  }
]