{
  "version": 7,
  "rootNode": {
    "ItemArray": [
      {
        "NamePlateBgInfo": "Work/Gyml/NamePlateBgInfo/Npl_Catalog_Season06_Lv01.spl__NamePlateBgInfo.gyml",
        "Type": "NamePlateBg"
      },
      {
        "Byname_Adjective": "Work/Gyml/Byname/2012.spl__BynameAdjectiveInfo.gyml",
        "Byname_Subject": "Work/Gyml/Byname/2012.spl__BynameSubjectInfo.gyml",
        "Type": "Byname"
      },
      {
        "BoostType": "Exp100",
        "Type": "FoodTicket"
      },
      {
        "Type": "MiniGameCardPack"
      },
      {
        "GearInfo": "Work/Gyml/Hed_MSK017.spl__GearInfo.gyml",
        "Type": "Gear_Head"
      },
      {
        "GearInfo": "Work/Gyml/Clt_JKT052.spl__GearInfo.gyml",
        "Type": "Gear_Clothes"
      },
      {
        "GearInfo": "Work/Gyml/Shs_SHT027.spl__GearInfo.gyml",
        "Type": "Gear_Shoes"
      },
      {
        "LockerGoodsStickerInfo": "Work/Gyml/Stc_Sti_Sticker_91.spl__LockerGoodsStickerInfo.gyml",
        "Type": "LockerSticker"
      },
      {
        "Type": "MiniGameCardPack"
      },
      {
        "EmoteInfo": "Work/Gyml/Win22.spl__EmoteInfo.gyml",
        "Type": "Emote"
      },
      {
        "LockerGoodsFigureInfo": "Work/Gyml/Fig_BatchLetters03.spl__LockerGoodsFigureInfo.gyml",
        "Type": "LockerFigure"
      },
      {
        "Type": "RandomFoodTicket"
      },
      {
        "Type": "RandomNamePlateBg"
      },
      {
        "GearInfo": "Work/Gyml/Hed_CAP037.spl__GearInfo.gyml",
        "Type": "Gear_Head"
      },
      {
        "GearInfo": "Work/Gyml/Clt_JKT063.spl__GearInfo.gyml",
        "Type": "Gear_Clothes"
      },
      {
        "GearInfo": "Work/Gyml/Shs_LTS015.spl__GearInfo.gyml",
        "Type": "Gear_Shoes"
      },
      {
        "LockerGoodsStickerInfo": "Work/Gyml/Stc_Sti_Signboard_55.spl__LockerGoodsStickerInfo.gyml",
        "Type": "LockerSticker"
      },
      {
        "Type": "MiniGameCardPack"
      },
      {
        "Type": "RandomByname"
      },
      {
        "Type": "RandomDrinkTicket"
      },
      {
        "Type": "RandomNamePlateBg"
      },
      {
        "Type": "MiniGameCardPack"
      },
      {
        "GearInfo": "Work/Gyml/Hed_CAP033.spl__GearInfo.gyml",
        "Type": "Gear_Head"
      },
      {
        "GearInfo": "Work/Gyml/Clt_JKT062.spl__GearInfo.gyml",
        "Type": "Gear_Clothes"
      },
      {
        "GearInfo": "Work/Gyml/Shs_BOT030.spl__GearInfo.gyml",
        "Type": "Gear_Shoes"
      },
      {
        "Type": "MysteryBoxA"
      },
      {
        "LockerGoodsFigureInfo": "Work/Gyml/Fig_CoffeeCupPaper00.spl__LockerGoodsFigureInfo.gyml",
        "Type": "LockerFigure"
      },
      {
        "Type": "RandomByname"
      },
      {
        "LockerGoodsStickerInfo": "Work/Gyml/Stc_Sti_Graffiti_67.spl__LockerGoodsStickerInfo.gyml",
        "Type": "LockerSticker"
      },
      {
        "Type": "RandomFoodTicket"
      },
      {
        "EmoteInfo": "Work/Gyml/Win37.spl__EmoteInfo.gyml",
        "Type": "Emote"
      },
      {
        "GearInfo": "Work/Gyml/Hed_CAP032.spl__GearInfo.gyml",
        "Type": "Gear_Head"
      },
      {
        "GearInfo": "Work/Gyml/Clt_TEL027.spl__GearInfo.gyml",
        "Type": "Gear_Clothes"
      },
      {
        "GearInfo": "Work/Gyml/Clt_JKT064.spl__GearInfo.gyml",
        "Type": "Gear_Clothes"
      },
      {
        "LockerGoodsStickerInfo": "Work/Gyml/Stc_Sti_Sticker_92.spl__LockerGoodsStickerInfo.gyml",
        "Type": "LockerSticker"
      },
      {
        "Type": "MiniGameCardPack"
      },
      {
        "Type": "RandomDrinkTicket"
      },
      {
        "Type": "RandomNamePlateBg"
      },
      {
        "Type": "MiniGameCardPack"
      },
      {
        "EmoteInfo": "Work/Gyml/Win33.spl__EmoteInfo.gyml",
        "Type": "Emote"
      },
      {
        "GearInfo": "Work/Gyml/Hed_NCP012.spl__GearInfo.gyml",
        "Type": "Gear_Head"
      },
      {
        "GearInfo": "Work/Gyml/Clt_JKT058.spl__GearInfo.gyml",
        "Type": "Gear_Clothes"
      },
      {
        "GearInfo": "Work/Gyml/Shs_BOT029.spl__GearInfo.gyml",
        "Type": "Gear_Shoes"
      },
      {
        "Type": "RandomByname"
      },
      {
        "Type": "MiniGameCardPackFresh"
      },
      {
        "Type": "RandomFoodTicket"
      },
      {
        "LockerGoodsStickerInfo": "Work/Gyml/Stc_Sti_Signboard_54.spl__LockerGoodsStickerInfo.gyml",
        "Type": "LockerSticker"
      },
      {
        "Type": "RandomByname"
      },
      {
        "LockerGoodsFigureInfo": "Work/Gyml/Fig_CoffeeSiphon.spl__LockerGoodsFigureInfo.gyml",
        "Type": "LockerFigure"
      },
      {
        "GearInfo": "Work/Gyml/Clt_SWT024.spl__GearInfo.gyml",
        "Type": "Gear_Clothes"
      },
      {
        "Type": "MysteryBoxA"
      },
      {
        "LockerGoodsStickerInfo": "Work/Gyml/Stc_Sti_Decoration_32.spl__LockerGoodsStickerInfo.gyml",
        "Type": "LockerSticker"
      },
      {
        "Type": "RandomNamePlateBg"
      },
      {
        "ClothesInfo": "Work/Gyml/Clt_SWT020.spl__GearInfo.gyml",
        "HeadInfo": "Work/Gyml/Hed_EYE014.spl__GearInfo.gyml",
        "ShoesInfo": "Work/Gyml/Shs_LTS003.spl__GearInfo.gyml",
        "Type": "GearPack"
      },
      {
        "Type": "RandomDrinkTicket"
      },
      {
        "Type": "RandomByname"
      },
      {
        "LockerGoodsStickerInfo": "Work/Gyml/Stc_Sti_Graffiti_68.spl__LockerGoodsStickerInfo.gyml",
        "Type": "LockerSticker"
      },
      {
        "Type": "MiniGameCardPack"
      },
      {
        "Type": "RandomFoodTicket"
      },
      {
        "ClothesInfo": "Work/Gyml/Clt_JKT060.spl__GearInfo.gyml",
        "HeadInfo": "Work/Gyml/Hed_CAP023.spl__GearInfo.gyml",
        "ShoesInfo": "Work/Gyml/Shs_SHI006.spl__GearInfo.gyml",
        "Type": "GearPack"
      },
      {
        "Type": "RandomByname"
      },
      {
        "Type": "MiniGameCardPack"
      },
      {
        "EmoteInfo": "Work/Gyml/Win34.spl__EmoteInfo.gyml",
        "Type": "Emote"
      },
      {
        "LockerGoodsStickerInfo": "Work/Gyml/Stc_Sti_Poster_59.spl__LockerGoodsStickerInfo.gyml",
        "Type": "LockerSticker"
      },
      {
        "Type": "RandomDrinkTicket"
      },
      {
        "ClothesInfo": "Work/Gyml/Clt_TEL026.spl__GearInfo.gyml",
        "HeadInfo": "Work/Gyml/Hed_HDP009.spl__GearInfo.gyml",
        "ShoesInfo": "Work/Gyml/Shs_SLO025.spl__GearInfo.gyml",
        "Type": "GearPack"
      },
      {
        "LockerGoodsFigureInfo": "Work/Gyml/Fig_MirrorLantern00.spl__LockerGoodsFigureInfo.gyml",
        "Type": "LockerFigure"
      },
      {
        "Type": "RandomByname"
      },
      {
        "Type": "RandomFoodTicket"
      },
      {
        "Type": "RandomNamePlateBg"
      },
      {
        "Type": "MiniGameCardPack"
      },
      {
        "ClothesInfo": "Work/Gyml/Clt_JKT056.spl__GearInfo.gyml",
        "HeadInfo": "Work/Gyml/Hed_MET016.spl__GearInfo.gyml",
        "ShoesInfo": "Work/Gyml/Shs_SHI046.spl__GearInfo.gyml",
        "Type": "GearPack"
      },
      {
        "LockerGoodsStickerInfo": "Work/Gyml/Stc_Sti_Character_45.spl__LockerGoodsStickerInfo.gyml",
        "Type": "LockerSticker"
      },
      {
        "Type": "RandomByname"
      },
      {
        "Type": "MysteryBoxA"
      },
      {
        "Type": "RandomDrinkTicket"
      },
      {
        "Type": "MiniGameCardPack"
      },
      {
        "ClothesInfo": "Work/Gyml/Clt_SHT026.spl__GearInfo.gyml",
        "HeadInfo": "Work/Gyml/Hed_MSK003.spl__GearInfo.gyml",
        "ShoesInfo": "Work/Gyml/Shs_BOT019.spl__GearInfo.gyml",
        "Type": "GearPack"
      },
      {
        "Type": "RandomNamePlateBg"
      },
      {
        "Type": "RandomByname"
      },
      {
        "LockerGoodsStickerInfo": "Work/Gyml/Stc_Sti_Signboard_56.spl__LockerGoodsStickerInfo.gyml",
        "Type": "LockerSticker"
      },
      {
        "LockerGoodsFigureInfo": "Work/Gyml/Fig_FluffyCushion00.spl__LockerGoodsFigureInfo.gyml",
        "Type": "LockerFigure"
      },
      {
        "Type": "MiniGameCardPack"
      },
      {
        "ClothesInfo": "Work/Gyml/Clt_JKT036.spl__GearInfo.gyml",
        "HeadInfo": "Work/Gyml/Hed_NCP009.spl__GearInfo.gyml",
        "ShoesInfo": "Work/Gyml/Shs_LTS011.spl__GearInfo.gyml",
        "Type": "GearPack"
      },
      {
        "EmoteInfo": "Work/Gyml/BlowKiss.spl__EmoteInfo.gyml",
        "Type": "Emote"
      },
      {
        "LockerGoodsStickerInfo": "Work/Gyml/Stc_Sti_Graffiti_69.spl__LockerGoodsStickerInfo.gyml",
        "Type": "LockerSticker"
      },
      {
        "Type": "RandomByname"
      },
      {
        "Type": "RandomFoodTicket"
      },
      {
        "Type": "MiniGameCardPack"
      },
      {
        "ClothesInfo": "Work/Gyml/Clt_JKT055.spl__GearInfo.gyml",
        "HeadInfo": "Work/Gyml/Hed_EYE031.spl__GearInfo.gyml",
        "ShoesInfo": "Work/Gyml/Shs_BOT026.spl__GearInfo.gyml",
        "Type": "GearPack"
      },
      {
        "Type": "RandomDrinkTicket"
      },
      {
        "Type": "MiniGameCardPack"
      },
      {
        "NamePlateBgInfo": "Work/Gyml/NamePlateBgInfo/Npl_Catalog_Season06_Lv02.spl__NamePlateBgInfo.gyml",
        "Type": "NamePlateBg"
      },
      {
        "ClothesInfo": "Work/Gyml/Clt_SHT038.spl__GearInfo.gyml",
        "HeadInfo": "Work/Gyml/Hed_ACC003.spl__GearInfo.gyml",
        "ShoesInfo": "Work/Gyml/Shs_SHI052.spl__GearInfo.gyml",
        "Type": "GearPack"
      },
      {
        "Byname_Adjective": "Work/Gyml/Byname/2013.spl__BynameAdjectiveInfo.gyml",
        "Byname_Subject": "Work/Gyml/Byname/2013.spl__BynameSubjectInfo.gyml",
        "Type": "Byname"
      },
      {
        "LockerGoodsStickerInfo": "Work/Gyml/Stc_Sti_Sticker_93.spl__LockerGoodsStickerInfo.gyml",
        "Type": "LockerSticker"
      },
      {
        "LockerGoodsFigureInfo": "Work/Gyml/Fig_SnowGlobeRailKing.spl__LockerGoodsFigureInfo.gyml",
        "Type": "LockerFigure"
      },
      {
        "Type": "MysteryBoxA"
      },
      {
        "GearInfo": "Work/Gyml/Clt_JKT057.spl__GearInfo.gyml",
        "Type": "Gear_Clothes"
      },
      {
        "EmoteInfo": "Work/Gyml/IkachanDance.spl__EmoteInfo.gyml",
        "Type": "Emote"
      }
    ],
    "ViewerData": "Work/Catalog/Viewer/CV_Season006_A.spl__UICatalogViewerData.gyml"
  }
}