[
  {
    "label": "antHell_ball",
    "text": "Kessel.Etage"
  },
  {
    "label": "antHell_area",
    "text": "HeißUmkämpft_Kessel.Etage"
  },
  {
    "label": "antHell_chase",
    "text": "Kessel.Etage"
  },
  {
    "label": "antHell_spawner",
    "text": "Gefahrenzone_Kessel.Etage"
  },
  {
    "label": "antHell_spawner_2",
    "text": "Kessel.Etage"
  },
  {
    "label": "antHell_lift",
    "text": "Kessel.Etage"
  },
  {
    "label": "smallPyramid_ball",
    "text": "Pyramiden.Etage"
  },
  {
    "label": "smallPyramid_area",
    "text": "Pyramiden.Etage"
  },
  {
    "label": "smallPyramid_chase",
    "text": "Intensivbewegung_Pyramiden.Etage"
  },
  {
    "label": "smallPyramid_spawner",
    "text": "Himmelssturm_Pyramiden.Etage"
  },
  {
    "label": "smallPyramid_spawner_2",
    "text": "Pyramiden.Etage"
  },
  {
    "label": "smallPyramid_lift",
    "text": "Pyramiden.Etage"
  },
  {
    "label": "rising_ball",
    "text": "Hebeboden.Etage"
  },
  {
    "label": "rising_area",
    "text": "Bedrängnis_Hebeboden.Etage"
  },
  {
    "label": "rising_chase",
    "text": "Hebeboden.Etage"
  },
  {
    "label": "rising_spawner",
    "text": "IntensivAnsturm_Hebeboden.Etage"
  },
  {
    "label": "rising_spawner_2",
    "text": "Hebeboden.Etage"
  },
  {
    "label": "rising_lift",
    "text": "Hebeboden.Etage"
  },
  {
    "label": "tower_ball",
    "text": "Turm.Etage"
  },
  {
    "label": "tower_area",
    "text": "Turm.Etage"
  },
  {
    "label": "tower_chase",
    "text": "Auf/Ab_Turm.Etage"
  },
  {
    "label": "tower_spawner",
    "text": "Turm.Etage"
  },
  {
    "label": "tower_spawner_2",
    "text": "Turm.Etage"
  },
  {
    "label": "tower_lift",
    "text": "Turm.Etage"
  },
  {
    "label": "meadow_ball",
    "text": "Ebenen.Etage"
  },
  {
    "label": "meadow_area",
    "text": "Ebenen.Etage"
  },
  {
    "label": "meadow_chase",
    "text": "Verfolgungsjagd_Ebenen.Etage"
  },
  {
    "label": "meadow_spawner",
    "text": "Schutzlos_Ebenen.Etage"
  },
  {
    "label": "meadow_spawner_2",
    "text": "Ebenen.Etage"
  },
  {
    "label": "meadow_lift",
    "text": "Ebenen.Etage"
  },
  {
    "label": "golf_ball",
    "text": "Kugeltreiber.Etage"
  },
  {
    "label": "spongeHidding_chase",
    "text": "Scharfschuss.Etage"
  },
  {
    "label": "dash_spawner",
    "text": "DreieckAkrobatik.Etage"
  },
  {
    "label": "shells_area",
    "text": "Wirbel.Etage"
  },
  {
    "label": "bombs_spawner",
    "text": "Explosiv.Etage"
  },
  {
    "label": "grindRail_chase",
    "text": "Orbital.Etage"
  },
  {
    "label": "oneRoad_ball",
    "text": "Umkegel.Etage"
  },
  {
    "label": "bigSlope_ball",
    "text": "Bergaufroll.Etage"
  },
  {
    "label": "spiderweb_area",
    "text": "Ausweichlauf.Etage"
  },
  {
    "label": "stones_lift",
    "text": "Trittschwamm.Etage"
  },
  {
    "label": "windingRoad_ball",
    "text": "Zickzack.Etage"
  },
  {
    "label": "windingRoad_area",
    "text": "Bedrängnis_Zickzack.Etage"
  },
  {
    "label": "windingRoad_chase",
    "text": "Absprung_Zickzack.Etage"
  },
  {
    "label": "windingRoad_spawner",
    "text": "Gefahrenzone_Zickzack.Etage"
  },
  {
    "label": "windingRoad_lift",
    "text": "Feindbeschuss_Zickzack.Etage"
  },
  {
    "label": "x_ball",
    "text": "Feindbeschuss_Überkreuz.Etage"
  },
  {
    "label": "x_area",
    "text": "Hektik:Stockwerkzone_Überkreuz.Etage"
  },
  {
    "label": "x_chase",
    "text": "Überkreuz.Etage"
  },
  {
    "label": "x_spawner",
    "text": "Überkreuz.Etage"
  },
  {
    "label": "x_lift",
    "text": "Gefahrenzone_Überkreuz.Etage"
  },
  {
    "label": "hills_ball",
    "text": "Rollend_Doppelhügel.Etage"
  },
  {
    "label": "hills_area",
    "text": "Hin/Her_Doppelhügel.Etage"
  },
  {
    "label": "hills_chase",
    "text": "Doppelhügel.Etage"
  },
  {
    "label": "hills_spawner",
    "text": "Megaschwarm:Sprung_Doppelhügel.Etage"
  },
  {
    "label": "hills_lift",
    "text": "Sprung_Doppelhügel.Etage"
  },
  {
    "label": "lunarSurface_ball",
    "text": "Gefahrenzone_Gelände.Etage"
  },
  {
    "label": "lunarSurface_area",
    "text": "ExtremKreuzfeuer_Gelände.Etage"
  },
  {
    "label": "lunarSurface_chase",
    "text": "Sprung_Gelände.Etage"
  },
  {
    "label": "lunarSurface_spawner",
    "text": "Erweiterung_Gelände.Etage"
  },
  {
    "label": "lunarSurface_lift",
    "text": "DauerFeindbeschuss_Gelände.Etage"
  },
  {
    "label": "fortress_ball",
    "text": "Fort.Etage"
  },
  {
    "label": "fortress_area",
    "text": "PowerSchwarmangriff_Fort.Etage"
  },
  {
    "label": "fortress_chase",
    "text": "Intensivbewegung_Fort.Etage"
  },
  {
    "label": "fortress_spawner",
    "text": "Ansturm:Schutzlos_Fort.Etage"
  },
  {
    "label": "fortress_lift",
    "text": "Feindbeschuss_Fort.Etage"
  },
  {
    "label": "shellsParty_ball",
    "text": "Rotation.Etage"
  },
  {
    "label": "shellsDash_spawner",
    "text": "ScharfschussUmkehr.Etage"
  },
  {
    "label": "propellerRising_spawner",
    "text": "Irrsinnig:Schutzlos:Auf/Ab.Etage"
  },
  {
    "label": "bombers_area",
    "text": "DauerAnsturm:Bedrängnis.Etage"
  },
  {
    "label": "centralSniper_lift",
    "text": "Dauerjagd:Dauerflucht.Etage"
  },
  {
    "label": "ancientTomb_area",
    "text": "SprungFestival.Etage"
  },
  {
    "label": "bigPyramid_ball",
    "text": "Gefahrenzone_Bau.Etage"
  },
  {
    "label": "bigPyramid_area",
    "text": "Umzingelung_Bau.Etage"
  },
  {
    "label": "bigPyramid_chase",
    "text": "IntensivFlucht:Ausweich_Bau.Etage"
  },
  {
    "label": "bigPyramid_spawner",
    "text": "XL:Zentral_Bau.Etage"
  },
  {
    "label": "bigPyramid_lift",
    "text": "RundRundRundherum_Bau.Etage"
  },
  {
    "label": "bridges_ball",
    "text": "Feindbeschuss_Tintenbad_Doppelbrücken.Etage"
  },
  {
    "label": "bridges_area",
    "text": "RingsumBedrohung_Doppelbrücken.Etage"
  },
  {
    "label": "bridges_chase",
    "text": "IntensivFlucht_Doppelbrücken.Etage"
  },
  {
    "label": "bridges_spawner",
    "text": "WirbelGegner:Massen-Doppelbrücken.Etage"
  },
  {
    "label": "bridges_lift",
    "text": "Megaschwarm:Schutzlos_Doppelbrücken.Etage"
  },
  {
    "label": "valley_ball",
    "text": "WirbelAnsturm_Teilterrain.Etage"
  },
  {
    "label": "valley_area",
    "text": "Ultra_Gefahrenzone_Teilterrain.Etage"
  },
  {
    "label": "valley_chase",
    "text": "Kreuzfeuer_Teilterrain.Etage"
  },
  {
    "label": "valley_spawner",
    "text": "Hüpf:Feindbeschuss_Teilterrain.Etage"
  },
  {
    "label": "valley_lift",
    "text": "FlugSprung:Feindbeschuss_Teilterrain.Etage"
  },
  {
    "label": "koguchi_ball",
    "text": "Sprung_Tor.Etage"
  },
  {
    "label": "koguchi_area",
    "text": "EwigSchutzlos:Albtraum_Tor.Etage"
  },
  {
    "label": "koguchi_chase",
    "text": "Tintenbad_Tor.Etage"
  },
  {
    "label": "koguchi_spawner",
    "text": "GigantoFeindbeschuss_Tor.Etages"
  },
  {
    "label": "koguchi_lift",
    "text": "ExtremSuchschwarm_Tor.Etage"
  },
  {
    "label": "infinity_area",
    "text": "GrausamDemotivierend:Achter.Etage"
  },
  {
    "label": "allStar_spawner",
    "text": "Gegnerkombo:SuperShowdown.Etage"
  },
  {
    "label": "jumpjump_spawner",
    "text": "Hupfmatratzen:Dauerspringer.Etage"
  },
  {
    "label": "wideArea_area",
    "text": "Explosivebene.Etage"
  },
  {
    "label": "snakeBlocks_area",
    "text": "ExtremDefensive:ExpandoBlock.Etage"
  },
  {
    "label": "climbing_spawner",
    "text": "ExtremSchlachtfeld:Klettermaxe.Etage"
  },
  {
    "label": "airLift_lift",
    "text": "Runter/Rauf:ExtremParcours.Etage"
  },
  {
    "label": "Sdodr_beginning_1F",
    "text": "Erste.Etage"
  },
  {
    "label": "Sdodr_beginning_2F",
    "text": "Revierfärbe.Etage"
  },
  {
    "label": "Sdodr_beginning_3F",
    "text": "Spezialwaffenpower.Etage"
  },
  {
    "label": "Sdodr_beginning_4F",
    "text": "Gleitflug.Etage"
  },
  {
    "label": "Sdodr_beginning_5F",
    "text": "Sprung.Etage"
  },
  {
    "label": "Sdodr_beginning_6F",
    "text": "Doppelzonen.Etage"
  },
  {
    "label": "Sdodr_beginning_7F",
    "text": "Ausweichkunst.Etage"
  },
  {
    "label": "Sdodr_beginning_8F",
    "text": "Wirbel.Etage"
  },
  {
    "label": "Sdodr_beginning_9F",
    "text": "Roll.Etage"
  },
  {
    "label": "RivalKing_10F",
    "text": "Harmonie.Etage"
  },
  {
    "label": "RivalKing_20F",
    "text": "Harmonie.Etage"
  },
  {
    "label": "TowerKing_10F",
    "text": "Stufenstruktur.Etage"
  },
  {
    "label": "TowerKing_20F",
    "text": "Stufenstruktur.Etage"
  },
  {
    "label": "BalllKing_10F",
    "text": "Kugelkoloss.Etage"
  },
  {
    "label": "BalllKing_20F",
    "text": "Kugelkoloss.Etage"
  },
  {
    "label": "BarrierKingSdodrIida",
    "text": "Kontrollraum"
  },
  {
    "label": "BarrierKingSdodrOdako",
    "text": "Kontrollraum"
  },
  {
    "label": "BarrierKingSdodrOdako_story",
    "text": "Kontrollraum"
  },
  {
    "label": "BarrierKingSdodrOdakoEx",
    "text": "Kontrollraum"
  },
  {
    "label": "map_antHell",
    "text": "Kessel.Etage"
  },
  {
    "label": "map_smallPyramid",
    "text": "Pyramiden.Etage"
  },
  {
    "label": "map_rising",
    "text": "Hebeboden.Etage"
  },
  {
    "label": "map_tower",
    "text": "Turm.Etage"
  },
  {
    "label": "map_meadow",
    "text": "Ebenen.Etage"
  },
  {
    "label": "map_windingRoad",
    "text": "Zickzack.Etage"
  },
  {
    "label": "map_x",
    "text": "Überkreuz.Etage"
  },
  {
    "label": "map_hills",
    "text": "Doppelhügel.Etage"
  },
  {
    "label": "map_lunarSurface",
    "text": "Gelände.Etage"
  },
  {
    "label": "map_fortress",
    "text": "Fort.Etage"
  },
  {
    "label": "map_bigPyramid",
    "text": "Bau.Etage"
  },
  {
    "label": "map_bridges",
    "text": "Doppelbrücken.Etage"
  },
  {
    "label": "map_valley",
    "text": "Teilterrain.Etage"
  },
  {
    "label": "map_koguchi",
    "text": "Tor.Etage"
  },
  {
    "label": "Sdodr_FloorShop",
    "text": "Automatenecke"
  }
]