[
  {
    "label": "ShotDamageUp_UnlockComment_00",
    "text": "Diesen Farbchip haben wir noch nicht gefunden."
  },
  {
    "label": "ShotDamageUp_UnlockComment_02",
    "text": "Mehr Kleckskraft für alle Waffen.\nHauptwaffe, Sekundärwaffe und\nSpezialwaffe. Je mehr Chips du\nausrüstest, desto stärker."
  },
  {
    "label": "ShotDamageUp_UnlockComment_03",
    "text": "Wird die Qual der Wahl dir mal zu viel,\nist dieser Chip keine schlechte Option!\nFalls du aber bereits neun Stück davon\nhast, weiß ich auch nicht weiter..."
  },
  {
    "label": "ShotDamageUp_UnlockComment_04",
    "text": "So ziemlich alles wird stärker,\nalso nicht lange fackeln!\nZuschlagen und zuklecksen!"
  },
  {
    "label": "BlastDamageUp_UnlockComment_00",
    "text": "Diesen Farbchip haben wir noch nicht gefunden."
  },
  {
    "label": "BlastDamageUp_UnlockComment_02",
    "text": "Mehr Power für deine Explosionen.\nBomben, Blaster-Schüsse, zerstörte\nPortale oder besiegte Gegner, all dies\nrichtet mehr Schaden an."
  },
  {
    "label": "BlastDamageUp_UnlockComment_03",
    "text": "Besonders vorteilhaft zusammen\nmit dem Chip [Explosionsradius]!\nSo werden Perlas Bomben ebenfalls\nstärker!"
  },
  {
    "label": "BlastDamageUp_UnlockComment_04",
    "text": "Explosionen, aber EXPLOSIVER!\nWenn du DAS Teil nicht nimmst,\nbin ich sauer!"
  },
  {
    "label": "WaveDamageUp_UnlockComment_00",
    "text": "Diesen Farbchip haben wir noch nicht gefunden."
  },
  {
    "label": "WaveDamageUp_UnlockComment_02",
    "text": "Schallwellen werden nicht von allzu\nvielen Waffen eingesetzt. Andererseits\nbringen dir bereits wenige dieser Chips\nreichlich Power ein."
  },
  {
    "label": "WaveDamageUp_UnlockComment_03",
    "text": "Beim Thema starker Schall fällt mir\nzuallererst die supertolle Heulboje\nvon Perla ein!"
  },
  {
    "label": "WaveDamageUp_UnlockComment_04",
    "text": "Die Heulboje von mir?\nAch so, klar! Der Farbchip\n[Drohnen-Heulboje]!"
  },
  {
    "label": "MainShotRateUp_UnlockComment_00",
    "text": "Diesen Farbchip haben wir noch nicht gefunden."
  },
  {
    "label": "MainShotRateUp_UnlockComment_02",
    "text": "Damit kleckst du schneller.\nErst mal keine schlechte Idee, doch\nverbrauchst du dabei auch schneller\ndeine Tinte."
  },
  {
    "label": "MainShotRateUp_UnlockComment_03",
    "text": "[Hauptverbrauch]-Chips helfen dabei,\nund [Regeneration]-Chips erleichtern\ndie Sache ebenfalls!\n[Tintenflaschen-Häufigkeit]-Chips würde\nich ebenfalls empfehlen."
  },
  {
    "label": "MainShotRateUp_UnlockComment_04",
    "text": "Wer erst mal alles niederkleckst,\nbraucht nicht auf den Tintentank\nzu achten. Pa-pa-pa-pa-PAMM!"
  },
  {
    "label": "WeakSwingRateUp_UnlockComment_00",
    "text": "Diesen Farbchip haben wir noch nicht gefunden."
  },
  {
    "label": "WeakSwingRateUp_UnlockComment_02",
    "text": "Lässt dich deinen Waagrechthieb\nso oft einsetzen, bis kein Gegner mehr\nzu sehen ist."
  },
  {
    "label": "WeakSwingRateUp_UnlockComment_03",
    "text": "Aber nicht den Tintenverbrauch außer\nAcht lassen, Ahato! Wobei Perla da\nsicher Einwände hat..."
  },
  {
    "label": "WeakSwingRateUp_UnlockComment_04",
    "text": "Ich, äh... Nein, stimmt schon.\nLass die Tinte nicht außer Acht,\nNr. 8..."
  },
  {
    "label": "LoadingBulletUp_UnlockComment_00",
    "text": "Diesen Farbchip haben wir noch nicht gefunden."
  },
  {
    "label": "LoadingBulletUp_UnlockComment_02",
    "text": "Selbe Auffahrzeit, längere Salven!\nDer Tintenverbrauch bleibt dabei\ngleich. Durchweg vorteilhaft also."
  },
  {
    "label": "LoadingBulletUp_UnlockComment_03",
    "text": "Der Chip [Durchschuss Hauptwaffe]\nerhöht dabei die Wirkung jeder\nabgefeuerten Ladung!"
  },
  {
    "label": "LoadingBulletUp_UnlockComment_04",
    "text": "Klasse, was Ahato sagt.\nWollte ich nur mal anmerken."
  },
  {
    "label": "NearDamageRatioUp_UnlockComment_00",
    "text": "Diesen Farbchip haben wir noch nicht gefunden."
  },
  {
    "label": "NearDamageRatioUp_UnlockComment_02",
    "text": "Mehr Power pro Exemplar als\n[Kleckskraft]-Chips, doch bleiben\nSekundärwaffen und Spezialwaffen\ndabei unberührt."
  },
  {
    "label": "NearDamageRatioUp_UnlockComment_03",
    "text": "Auf jeden Fall toll, wenn Feinde dir\nzu nahe kommen!"
  },
  {
    "label": "NearDamageRatioUp_UnlockComment_04",
    "text": "ODER wenn man ihnen selber\nknallhart auf die Pelle rückt!\nNahkampf ist das Größte!"
  },
  {
    "label": "FarDamageRatioUp_UnlockComment_00",
    "text": "Diesen Farbchip haben wir noch nicht gefunden."
  },
  {
    "label": "FarDamageRatioUp_UnlockComment_02",
    "text": "Hervorragend für Konzentratoren oder\nSplatlings. Je mehr Gegner du aus der\nFerne eliminierst, desto weniger Ärger\nim Nahkampf."
  },
  {
    "label": "FarDamageRatioUp_UnlockComment_03",
    "text": "Und [Reichweite Hauptwaffe]-Chips könnte\nman gleich dazu anlegen! Wobei Perla ja\neigentlich keine Konzentratoren mag..."
  },
  {
    "label": "FarDamageRatioUp_UnlockComment_04",
    "text": "Mit Konzentratoren treffe ich\neinfach nichts, und alle treffen\nmich. Kosmisches Gesetz!"
  },
  {
    "label": "ShotBiasRatio_UnlockComment_00",
    "text": "Diesen Farbchip haben wir noch nicht gefunden."
  },
  {
    "label": "ShotBiasRatio_UnlockComment_02",
    "text": "Reduziert die Streuwirkung deiner\nTintenschüsse. Immer praktisch,\num auch wirklich kein Ziel zu verfehlen."
  },
  {
    "label": "ShotBiasRatio_UnlockComment_03",
    "text": "Falls mal alles voller Gegner ist, bringt\nreduzierte Streuwirkung nicht wirklich\nviel... Doch für Scharfschützen ist\ndieser Chip echt klasse!"
  },
  {
    "label": "ShotBiasRatio_UnlockComment_04",
    "text": "Du klingst wie Arty, weißt du?\nFür präzise Kleckser ist dieser\nChip toll, zum Rumballern egal!"
  },
  {
    "label": "HomingShot_UnlockComment_00",
    "text": "Diesen Farbchip haben wir noch nicht gefunden."
  },
  {
    "label": "HomingShot_UnlockComment_02",
    "text": "Gegner treffen, ohne zu zielen!\nWobei die Lenkwirkung so ihre\nEigenheiten hat."
  },
  {
    "label": "HomingShot_UnlockComment_03",
    "text": "Trotzdem toll, wenn man das Ziel\nimmer so gaaanz knapp verfehlt.\nNatürlich wird manchmal weniger Boden\ngefärbt, wenn alle Schüsse Richtung\nGegner gehen..."
  },
  {
    "label": "HomingShot_UnlockComment_04",
    "text": "Ballern ist das Größte!\nZielen ist für Streber!\nDaher meine Empfehlung!"
  },
  {
    "label": "Recharge_UnlockComment_00",
    "text": "Diesen Farbchip haben wir noch nicht gefunden."
  },
  {
    "label": "Recharge_UnlockComment_02",
    "text": "Halte beim Feuern {{icon id=\"80\" arg=\"0x0000803F00000000\"}}, um sofort\nden nächsten Ladevorgang zu beginnen.\nAchtung, der aktuelle Angriff endet\ndabei."
  },
  {
    "label": "Recharge_UnlockComment_03",
    "text": "Ein absolutes Traumpaar zusammen\nmit [Splatling-Salve]!\nIn Ruhepausen aufladen und nach\nHerzenslust losklecksen!"
  },
  {
    "label": "Recharge_UnlockComment_04",
    "text": "Rumgeballer mit der Splatling ist\ndas Größte! Zumindest, bis der\nerste Konzentrator ankommt..."
  },
  {
    "label": "PoisonInk_UnlockComment_00",
    "text": "Diesen Farbchip haben wir noch nicht gefunden."
  },
  {
    "label": "PoisonInk_UnlockComment_02",
    "text": "Ideal gegen große Gegner, die\nsich langsam bewegen. Dazu passt\n[Färbewirkung Hauptwaffe], um mehr\nFläche einzufärben!"
  },
  {
    "label": "PoisonInk_UnlockComment_03",
    "text": "Gegen kleine Gegner hilft dieser Chip\naber nicht so viel, denn die hinterlassen\nihre eigene Tintenspur..."
  },
  {
    "label": "PoisonInk_UnlockComment_04",
    "text": "Je kleiner, desto nerviger!\n...Was guckst du mich so an,\nMarina?"
  },
  {
    "label": "MainInkSave_UnlockComment_00",
    "text": "Diesen Farbchip haben wir noch nicht gefunden."
  },
  {
    "label": "MainInkSave_UnlockComment_02",
    "text": "Falls du [Klecksrate Hauptwaffe] nutzt\nund dir Sorgen um deinen Tintentank\nmachst, ist dies genau das richtige\nGegenmittel."
  },
  {
    "label": "MainInkSave_UnlockComment_03",
    "text": "Solche Chips machen gleich noch viel\nmehr Spaß, wenn einem nicht immer\ndirekt die Tinte ausgeht.\n...Stimmt's, Perla?"
  },
  {
    "label": "MainInkSave_UnlockComment_04",
    "text": "Wieso fragst du mich?!\nNr. 8 macht hier die Ansagen!"
  },
  {
    "label": "SubInkSave_UnlockComment_00",
    "text": "Diesen Farbchip haben wir noch nicht gefunden."
  },
  {
    "label": "SubInkSave_UnlockComment_02",
    "text": "Maximal aufgerüstet spart dieser Chip\nbeim Sekundärwaffeneinsatz ganze\n75 % Tinte ein. Sprich: Reichlich\nBomben extra!"
  },
  {
    "label": "SubInkSave_UnlockComment_03",
    "text": "Keinesfalls zu unterschätzen, dieser\nChip! Zusammen mit [Explosionskraft]\nbraucht man seine Hauptwaffe fast\ngar nicht mehr!"
  },
  {
    "label": "SubInkSave_UnlockComment_04",
    "text": "Gehört, Nr. 8?\n{{icon id=\"80\" arg=\"0x0000803F00000000\"}} ist ab jetzt verboten,\ngedrückt wird nur noch {{icon id=\"78\" arg=\"0x0000803F00000000\"}}!"
  },
  {
    "label": "KnockBackUp_UnlockComment_00",
    "text": "Diesen Farbchip haben wir noch nicht gefunden."
  },
  {
    "label": "KnockBackUp_UnlockComment_02",
    "text": "Damit werden Gegner durch Treffer\nmit deiner Hauptwaffe weiter\nzurückgeworfen. Ob man sie einfach\nvon der Arena ins Leere stoßen kann?"
  },
  {
    "label": "KnockBackUp_UnlockComment_03",
    "text": "So hast du auch dann noch eine Chance,\nwenn du in die Ecke gedrängt bist.\nWobei du eines nie vergessen darfst..."
  },
  {
    "label": "KnockBackUp_UnlockComment_04",
    "text": "„Behalt den Tintentank im Auge,\nPerla!“ ALTER, das EINE MAL,\ndass mir das passiert ist!"
  },
  {
    "label": "BlastBrushAwayUp_UnlockComment_00",
    "text": "Diesen Farbchip haben wir noch nicht gefunden."
  },
  {
    "label": "BlastBrushAwayUp_UnlockComment_02",
    "text": "Damit werfen Explosionen von Bomben\nund Blastern deine Gegner noch weiter\nzurück. Sehr hilfreich, finde ich."
  },
  {
    "label": "BlastBrushAwayUp_UnlockComment_03",
    "text": "Sind Bomben-Chips wie der\n[Drohnen-Insta-Bombe]-Chip installiert,\nzählt das auch für Perlas Bomben!"
  },
  {
    "label": "BlastBrushAwayUp_UnlockComment_04",
    "text": "Und mit [Klecks-Drohnenlader]...\nHalt, wie wahrscheinlich ist es,\ndass wir alle drei finden?"
  },
  {
    "label": "ShelterNakedTimeSave_UnlockComment_00",
    "text": "Diesen Farbchip haben wir noch nicht gefunden."
  },
  {
    "label": "ShelterNakedTimeSave_UnlockComment_02",
    "text": "Mit diesem Chip ist dein Pluviator-\nSchirmteil schneller wieder einsatzfähig\nund du bist kürzer ungeschützt."
  },
  {
    "label": "ShelterNakedTimeSave_UnlockComment_03",
    "text": "Du kannst Gegner mit dem Schirm aus\ndem Weg drängen und dich rasch wieder\nselbst schützen!"
  },
  {
    "label": "ShelterNakedTimeSave_UnlockComment_04",
    "text": "Astrein, wenn man das Ding mal\nwieder aus Versehen abfeuert.\nAlso MAN, nicht ich. Grrr."
  },
  {
    "label": "DisableCanopyShot_UnlockComment_00",
    "text": "Diesen Farbchip haben wir noch nicht gefunden."
  },
  {
    "label": "DisableCanopyShot_UnlockComment_02",
    "text": "Damit wird dein Pluviator-Schirmteil\nnie abgefeuert, selbst wenn du\n{{icon id=\"80\" arg=\"0x0000803F00000000\"}} gedrückt hältst. Schützen\nund schießen zugleich!"
  },
  {
    "label": "DisableCanopyShot_UnlockComment_03",
    "text": "Toll, Perla, nicht wahr?\nSo kannst du den Schirm gar nicht mehr\naus Versehen abfeuern!"
  },
  {
    "label": "DisableCanopyShot_UnlockComment_04",
    "text": "Klasse Sache, oder, Nr. 8?\nAber NICHT DEN TINTENTANK\nVERGESSEN!"
  },
  {
    "label": "ChargeTimeSave_UnlockComment_00",
    "text": "Diesen Farbchip haben wir noch nicht gefunden."
  },
  {
    "label": "ChargeTimeSave_UnlockComment_02",
    "text": "Für Konzentratoren unverzichtbar.\nJe mehr davon, desto besser."
  },
  {
    "label": "ChargeTimeSave_UnlockComment_03",
    "text": "Der größte Nachteil von Splatlings und\nKonzentratoren, ihre lange Ladezeit,\nwird damit behoben! Aber viel Tinte\nverbrauchen sie trotzdem..."
  },
  {
    "label": "ChargeTimeSave_UnlockComment_04",
    "text": "„Nr. 8, pass NUUUR auf\ndeinen Tintentank auf, jaaa?“\n...So, das war ich als Marina."
  },
  {
    "label": "SpecialIncreaseUp_UnlockComment_00",
    "text": "Diesen Farbchip haben wir noch nicht gefunden."
  },
  {
    "label": "SpecialIncreaseUp_UnlockComment_02",
    "text": "Dieser Chip hat riesiges Potenzial in\nKombination mit [Färbewirkung Hauptwaffe]."
  },
  {
    "label": "SpecialIncreaseUp_UnlockComment_03",
    "text": "Nicht vergessen, dass dein Tintentank\nkomplett aufgefüllt wird, wenn du deine\nSpezialwaffe einsetzt. Das macht\ndiesen Chip umso praktischer!"
  },
  {
    "label": "SpecialIncreaseUp_UnlockComment_04",
    "text": "Welcher Clownfisch setzt denn\nseine Spezialwaffe bitte TAKTISCH\nein und nicht SOFORT? Pah."
  },
  {
    "label": "InkRecoveryUp_UnlockComment_00",
    "text": "Diesen Farbchip haben wir noch nicht gefunden."
  },
  {
    "label": "InkRecoveryUp_UnlockComment_02",
    "text": "Füllt deinen Tintentank in Schwimmform\nschneller auf. Cooler Tipp übrigens:\nSogar in humanoider Form wird damit\nlangsam Tinte aufgefüllt."
  },
  {
    "label": "InkRecoveryUp_UnlockComment_03",
    "text": "Wenn der Tintentank leer ist, aber die\nArena noch voll mit Gegnern, ist dieser\nChip oft der Retter in der Not!"
  },
  {
    "label": "InkRecoveryUp_UnlockComment_04",
    "text": "Immer reichlich Tinte im Tank?\nUnd keiner geht mir deswegen\nauf den Zeiger? Klingt astrein!"
  },
  {
    "label": "MainShotRangeUp_UnlockComment_00",
    "text": "Diesen Farbchip haben wir noch nicht gefunden."
  },
  {
    "label": "MainShotRangeUp_UnlockComment_02",
    "text": "Prima, um weit entfernte Gegner\nwegzuklecksen. Ideal zusammen mit\n[Schaden Hauptwaffe (Fern)]."
  },
  {
    "label": "MainShotRangeUp_UnlockComment_03",
    "text": "Gewisse Waffen streuen ihre Schüsse\nüber Distanz weiter. Der Farbchip\n[Streueffekt-Reduktion] wäre als\nPartner also vielleicht gar keine\nschlechte Wahl..."
  },
  {
    "label": "MainShotRangeUp_UnlockComment_04",
    "text": "Mir eh egal, was in der Ferne\npassiert. Ich klecks weg, was\ndirekt vor meiner Nase ist!"
  },
  {
    "label": "MainPaintUp_UnlockComment_00",
    "text": "Diesen Farbchip haben wir noch nicht gefunden."
  },
  {
    "label": "MainPaintUp_UnlockComment_02",
    "text": "Je mehr gefärbter Boden, desto\nmehr Erfolg im Kampf. Und deine\nSpezialanzeige füllt sich ebenfalls\nschneller auf. Keine schlechte Wahl."
  },
  {
    "label": "MainPaintUp_UnlockComment_03",
    "text": "Sehr vorteilhaft in Verbindung mit\n[Toxi-Tinte] und [Klebetinte]. So wird\ngefärbtes Revier zum Spießrutenlauf!\nZuschauen und genießen! ♪"
  },
  {
    "label": "MainPaintUp_UnlockComment_04",
    "text": "Klingt kompliziert. Kurzfassung\nfür Ungeduldige: Hauptsache\nordentlich Boden färben. Oder?"
  },
  {
    "label": "BulletCorePaintUp_UnlockComment_00",
    "text": "Diesen Farbchip haben wir noch nicht gefunden."
  },
  {
    "label": "BulletCorePaintUp_UnlockComment_02",
    "text": "Nicht nur wird eine breitere Fläche\ngefärbt, wenn du mit einem Roller\noder Pinsel läufst. Sogar abgefeuerte\nPluviator-Schirme färben mehr Boden!"
  },
  {
    "label": "BulletCorePaintUp_UnlockComment_03",
    "text": "Bestimmte Chips erscheinen nur, wenn\ndu die entsprechende Waffe nutzt.\nSo wie dieser hier!"
  },
  {
    "label": "BulletCorePaintUp_UnlockComment_04",
    "text": "Irre lustig, mit dem Ding\ndurch die Gegend zu rasen!\nRollern, Pinseln, PLÄTTEN!"
  },
  {
    "label": "BlastSizeUp_UnlockComment_00",
    "text": "Diesen Farbchip haben wir noch nicht gefunden."
  },
  {
    "label": "BlastSizeUp_UnlockComment_02",
    "text": "Zusammen mit [Explosionskraft]\nkannst du ein Feuerwerk abhalten,\ndas reichlich Schaden anrichtet.\nEigentlich klar, oder?"
  },
  {
    "label": "BlastSizeUp_UnlockComment_03",
    "text": "Sogar bei Tri-Tintfernos und\nbei Cool-Kugeln wirkt dieser Chip.\nSo reißen deine Explosionen viel\nmehr Gegner mit!"
  },
  {
    "label": "BlastSizeUp_UnlockComment_04",
    "text": "Und sogar bei Portalen?\nDie größte Explosion überhaupt,\nund die wird NOCH dicker!"
  },
  {
    "label": "PenetrateNumUp_UnlockComment_00",
    "text": "Diesen Farbchip haben wir noch nicht gefunden."
  },
  {
    "label": "PenetrateNumUp_UnlockComment_02",
    "text": "Zusammen mit [Reichweite Hauptwaffe]\nsolltest du hiermit selbst größte Feinde\ndurchschießen können."
  },
  {
    "label": "PenetrateNumUp_UnlockComment_03",
    "text": "Ganze Gegnerschwärme auf einmal\nniederklecksen! Das freut jeden,\nder den Farbchip [Glückskombo]\nausgerüstet hat."
  },
  {
    "label": "PenetrateNumUp_UnlockComment_04",
    "text": "Ob man die ganzen Gegner dazu\nbringen könnte, hintereinander\nzu stehen? „Bitte, bitte“?"
  },
  {
    "label": "BulletSizeUp_UnlockComment_00",
    "text": "Diesen Farbchip haben wir noch nicht gefunden."
  },
  {
    "label": "BulletSizeUp_UnlockComment_02",
    "text": "Vorzüglich für alle, die etwas Hilfe\nbeim Zielen benötigen. Schon ein\neinziger dieser Chips bewirkt\nmerkliche Verbesserungen."
  },
  {
    "label": "BulletSizeUp_UnlockComment_03",
    "text": "Damit vergrößerst du den\nKollisionsbereich jedes Tintenprojektils.\nProbiere diesen Chip mal aus und schau\nselbst, was sich ändert!"
  },
  {
    "label": "BulletSizeUp_UnlockComment_04",
    "text": "S-sogar Konzentrator-Schüsse\nwerden größer? Wow, kann ich\ndas Teil in Revierkämpfen nutzen?"
  },
  {
    "label": "WeakenEnemyDamageRateUp_UnlockComment_00",
    "text": "Diesen Farbchip haben wir noch nicht gefunden."
  },
  {
    "label": "WeakenEnemyDamageRateUp_UnlockComment_02",
    "text": "Mit [Färbewirkung Hauptwaffe] färbst du\nmehr Boden ein, und mit [Klebetinte]\nwird der gefärbte Boden zur Falle\nfür alle Gegner."
  },
  {
    "label": "WeakenEnemyDamageRateUp_UnlockComment_03",
    "text": "Sogar Gegner in Sepitox-Nebel erleiden\ngrößeren Schaden. Diese Sekundärwaffe\nkannst du in Automaten finden."
  },
  {
    "label": "WeakenEnemyDamageRateUp_UnlockComment_04",
    "text": "Voll übel, geschwächten\nGegnern so mitzuspielen...\nAber auch voll lustig, hä hä."
  },
  {
    "label": "SquidMoveUp_UnlockComment_00",
    "text": "Diesen Farbchip haben wir noch nicht gefunden."
  },
  {
    "label": "SquidMoveUp_UnlockComment_02",
    "text": "Ob beim Angriff oder Rückzug,\nwer schneller schwimmen kann,\nist klar im Vorteil."
  },
  {
    "label": "SquidMoveUp_UnlockComment_03",
    "text": "Diese Geschöpfe lassen nie von\neinem ab. Lass dich nur nicht\nin die Enge treiben..."
  },
  {
    "label": "SquidMoveUp_UnlockComment_04",
    "text": "Cool bleiben, Marina. Aber dieser\nChip ist echt klasse, wenn man\nmal tief in der Tinte steckt."
  },
  {
    "label": "HumanMoveUp_UnlockComment_00",
    "text": "Diesen Farbchip haben wir noch nicht gefunden."
  },
  {
    "label": "HumanMoveUp_UnlockComment_02",
    "text": "Gewisse Oberflächen lassen sich nicht\neinfärben. Nicht in allen Lebenslagen\noptimal, aber in gewissen Situationen\nist dieser Chip unbezahlbar."
  },
  {
    "label": "HumanMoveUp_UnlockComment_03",
    "text": "Damit läufst du auch schneller,\nwährend du schießt. So kann dich\nkein Gegner erwischen und beißen\noder kratzen oder... oder..."
  },
  {
    "label": "HumanMoveUp_UnlockComment_04",
    "text": "Lass doch die Panik, Marina!\nAber dieser Chip ist schon cool.\nSchnell rennen, schnell klecksen!"
  },
  {
    "label": "EnemySinkUp_UnlockComment_00",
    "text": "Diesen Farbchip haben wir noch nicht gefunden."
  },
  {
    "label": "EnemySinkUp_UnlockComment_02",
    "text": "Je länger Gegner in deiner Tinte\nfeststecken, desto wirksamer ist\nauch der Chip [Toxi-Tinte]!"
  },
  {
    "label": "EnemySinkUp_UnlockComment_03",
    "text": "[Färbeboden-Schaden] ist ebenfalls ein\nganz toller Partner für diesen Chip!"
  },
  {
    "label": "EnemySinkUp_UnlockComment_04",
    "text": "Bäh, ich hasse Tinte, die zu sehr\nklebt. Aber für dich kein Problem,\nNr. 8, stimmt's?"
  },
  {
    "label": "SquidSomersaultAttack_UnlockComment_00",
    "text": "Diesen Farbchip haben wir noch nicht gefunden."
  },
  {
    "label": "SquidSomersaultAttack_UnlockComment_02",
    "text": "Damit kannst du die kleinsten Gegner\nmit einer Tintenfischrolle auf Kontakt\nklecksen. Größere Gegner werden\ndavon zurückgestoßen!"
  },
  {
    "label": "SquidSomersaultAttack_UnlockComment_03",
    "text": "Versuch vielleicht mal, die Attrappe\nam Aufzug mit Tintenfischrollen zu\nerwischen. So bekommst du ein\nGefühl für die Sache!"
  },
  {
    "label": "SquidSomersaultAttack_UnlockComment_04",
    "text": "Boah! Damit wirst du quasi zur\nlebenden Waffe! Wie schaffst du\nes nur, immer cooler zu werden?"
  },
  {
    "label": "ChargeKeepTimeUp_UnlockComment_00",
    "text": "Diesen Farbchip haben wir noch nicht gefunden."
  },
  {
    "label": "ChargeKeepTimeUp_UnlockComment_02",
    "text": "Damit kannst du Konzentrator-,\nSplatling- oder Stringer-Ladungen\nauch beim Tauchen beibehalten."
  },
  {
    "label": "ChargeKeepTimeUp_UnlockComment_03",
    "text": "Umherschwimmen und gleich den\naufgeladenen Angriff entfesseln!\nSehr nützlich, um sofort von der\nidealen Position loszuklecksen."
  },
  {
    "label": "ChargeKeepTimeUp_UnlockComment_04",
    "text": "Ist mir mal passiert!\nDa ist einer  aufgetaucht und\nhat mich prompt weggekleckst!\nDas war also kein Cheater?"
  },
  {
    "label": "ManeuverSlideAttack_UnlockComment_00",
    "text": "Diesen Farbchip haben wir noch nicht gefunden."
  },
  {
    "label": "ManeuverSlideAttack_UnlockComment_02",
    "text": "Damit retten dich Ausweichrollen\nnicht nur aus der Klemme, sondern\nverursachen auch Schaden dabei."
  },
  {
    "label": "ManeuverSlideAttack_UnlockComment_03",
    "text": "Probier die Technik einfach an\nder Attrappe in Aufzugnähe aus.\nBewege dazu {{icon id=\"75\" arg=\"0x48E13A3FFEFFFFFF\"}} und drücke {{icon id=\"71\" arg=\"0x0000803F00000000\"}},\nwährend du Doppler mit {{icon id=\"80\" arg=\"0x0000803F00000000\"}} feuerst."
  },
  {
    "label": "ManeuverSlideAttack_UnlockComment_04",
    "text": "Gegner weghauen wie 'ne\nAbrissbirne? Das will ich auch!\nWieso darf das nur Nr. 8?"
  },
  {
    "label": "SaberStepAttack_UnlockComment_00",
    "text": "Diesen Farbchip haben wir noch nicht gefunden."
  },
  {
    "label": "SaberStepAttack_UnlockComment_02",
    "text": "Alle Techniken mit Ausfallschritt\nwirken über einen größeren Bereich.\nBewege dazu {{icon id=\"75\" arg=\"0x48E13A3FFEFFFFFF\"}} nach oben, während\ndu mit {{icon id=\"80\" arg=\"0x0000803F00000000\"}} Aufladehiebe ausführst."
  },
  {
    "label": "SaberStepAttack_UnlockComment_03",
    "text": "Drei Angriffe auf einmal!\nDer Splatana-Treffer, die Tinte und\nund nun sogar das Vorpreschen selbst.\nKlasse gegen Portale!"
  },
  {
    "label": "SaberStepAttack_UnlockComment_04",
    "text": "Irres Gefühl, so 'ne Attacke zu\nlanden! Schnell, Nr. 8, such uns\nein paar arme Feinde zum Üben!"
  },
  {
    "label": "DirectAttackUp_UnlockComment_00",
    "text": "Diesen Farbchip haben wir noch nicht gefunden."
  },
  {
    "label": "DirectAttackUp_UnlockComment_02",
    "text": "Verstärkt die Angriffe mit\nChips wie [Stunt-Attacke] oder\n[Ausweich-Attacke]. Kein schlechter\nGriff, wie ich finde."
  },
  {
    "label": "DirectAttackUp_UnlockComment_03",
    "text": "Und wenn man keine solchen Angriffe\nhat? Na ja, also wenigstens hilft es\nauch bei den kreiselnden Panzern."
  },
  {
    "label": "DirectAttackUp_UnlockComment_04",
    "text": "Noch härtere Bodychecks? Cool!\nGehört, Nr. 8? Ausrüsten und\ndann rein in die Vollen!"
  },
  {
    "label": "DirectAttackBrushAwayUp_UnlockComment_00",
    "text": "Diesen Farbchip haben wir noch nicht gefunden."
  },
  {
    "label": "DirectAttackBrushAwayUp_UnlockComment_02",
    "text": "Mit Chips wie [Stunt-Attacke]\noder [Ausweich-Attacke] wird\ndieser fast zur Notwendigkeit."
  },
  {
    "label": "DirectAttackBrushAwayUp_UnlockComment_03",
    "text": "Auch die stärksten Gegner sind\nerledigt, sobald du sie über den\nArena-Rand beförderst!"
  },
  {
    "label": "DirectAttackBrushAwayUp_UnlockComment_04",
    "text": "Wie beim Tennis! Kräftig drauf\nund ins Aus damit! ...So gewinnt\nman beim Tennis doch, oder?"
  },
  {
    "label": "RollerDashUp_UnlockComment_00",
    "text": "Diesen Farbchip haben wir noch nicht gefunden."
  },
  {
    "label": "RollerDashUp_UnlockComment_02",
    "text": "Mit genug Exemplaren dieses Chips\nkannst du dein Tempo sogar verdoppeln!\nNiemand mehr wird dir in der Arena\nauf den Fersen bleiben können."
  },
  {
    "label": "RollerDashUp_UnlockComment_03",
    "text": "Klingt ja noch schneller als Schwimmen!\nVorsicht, Nr. 8, sonst landest du im\nTurbogang im Abgrund..."
  },
  {
    "label": "RollerDashUp_UnlockComment_04",
    "text": "Wer ist schneller, ich als Drohne\noder Nr. 8? Los geht's, der letzte\nist ein faules Gold-Fischei!"
  },
  {
    "label": "ManeuverSlideUp_UnlockComment_00",
    "text": "Diesen Farbchip haben wir noch nicht gefunden."
  },
  {
    "label": "ManeuverSlideUp_UnlockComment_02",
    "text": "Mit zusätzlichen Ausweichrollen\nentgehst du der Gefahr in Sekunden.\nGut in Kombo mit [Ausweich-Attacke]."
  },
  {
    "label": "ManeuverSlideUp_UnlockComment_03",
    "text": "Uh, Ausweichrollen hat Perla besonders\ngern! Und mit genug Chips führst du bis\nzu sechs Stück hintereinander aus!"
  },
  {
    "label": "ManeuverSlideUp_UnlockComment_04",
    "text": "Nr. 8! Ab jetzt Fortbewegung\nnur noch per Ausweichrolle, klar?\nZum Kühlschrank, zum Bett, egal!"
  },
  {
    "label": "MoveSpecialIncreaseUp_UnlockComment_00",
    "text": "Diesen Farbchip haben wir noch nicht gefunden."
  },
  {
    "label": "MoveSpecialIncreaseUp_UnlockComment_02",
    "text": "Funktioniert mit Schwimmen und Laufen,\naber die zurückgelegte Entfernung\nzählt. Schwimmen ist also effektiver."
  },
  {
    "label": "MoveSpecialIncreaseUp_UnlockComment_03",
    "text": "Und noch eine dritte Fortbewegungsart,\nnämlich das Gleiten an der Drohne!\nAuch das lädt die Spezialwaffe auf!"
  },
  {
    "label": "MoveSpecialIncreaseUp_UnlockComment_04",
    "text": "Gehört, Nr. 8? Auf in die Lüfte\nund dann im Runterkrachen\ndeine Spezialwaffe einsetzen!"
  },
  {
    "label": "MoveInkRecoverUp_UnlockComment_00",
    "text": "Diesen Farbchip haben wir noch nicht gefunden."
  },
  {
    "label": "MoveInkRecoverUp_UnlockComment_02",
    "text": "Ein Wundermittel bei chronischer\nTintenknappheit. Viel bewegen\nheißt viel klecksen können!"
  },
  {
    "label": "MoveInkRecoverUp_UnlockComment_03",
    "text": "Mit dem Chip [Ladungsspeicher]\nfüllt sich dein Tank sogar bei\ngespeicherter Ladung auf."
  },
  {
    "label": "MoveInkRecoverUp_UnlockComment_04",
    "text": "Das Krasseste ist, dass sogar auch\nAusweichrollen zählen! Ballern, rollen,\nballern, zack!"
  },
  {
    "label": "DroneCadenceMoveUp_UnlockComment_00",
    "text": "Diesen Farbchip haben wir noch nicht gefunden."
  },
  {
    "label": "DroneCadenceMoveUp_UnlockComment_02",
    "text": "Perlas Drohnenanzeige füllt sich,\nwenn du dich bewegst. Ob laufend\noder schwimmend, ist egal."
  },
  {
    "label": "DroneCadenceMoveUp_UnlockComment_03",
    "text": "Supereffektiv in Kombination mit\n[Lauftempo] oder [Schwimmtempo]!"
  },
  {
    "label": "DroneCadenceMoveUp_UnlockComment_04",
    "text": "Nr. 8 läuft und meine Drohne\nlädt sich auf? Los, wir kaufen\nein Laufband oder so!"
  },
  {
    "label": "ComboGraceTimeUp_UnlockComment_00",
    "text": "Diesen Farbchip haben wir noch nicht gefunden."
  },
  {
    "label": "ComboGraceTimeUp_UnlockComment_02",
    "text": "Je höher deine Kombo, desto mehr\nItems erscheinen. Und hiermit hast\ndu mehr Zeit, um Kombos zu erzielen!"
  },
  {
    "label": "ComboGraceTimeUp_UnlockComment_03",
    "text": "Zusammen mit [Glückskombo-Maximum]\nstehen deine Item-Chancen sogar\nnoch besser!"
  },
  {
    "label": "ComboGraceTimeUp_UnlockComment_04",
    "text": "Gegner wegklecksen ist ja schon\ncool genug, aber wenn's dazu\nnoch belohnt wird..."
  },
  {
    "label": "DefeatEnemyBlastFreqUp_UnlockComment_00",
    "text": "Diesen Farbchip haben wir noch nicht gefunden."
  },
  {
    "label": "DefeatEnemyBlastFreqUp_UnlockComment_02",
    "text": "Wenn du Glücksbomben hast, kannst\ndu mit wenig Mühe gleich einen Haufen\nFeinde wegklecksen."
  },
  {
    "label": "DefeatEnemyBlastFreqUp_UnlockComment_03",
    "text": "Dazu lassen Gegner mehr Bomben fallen,\nwenn du sie mit Glücksbomben erledigst.\nEin perfekter Zyklus!"
  },
  {
    "label": "DefeatEnemyBlastFreqUp_UnlockComment_04",
    "text": "Hrm, also gibt's als Belohnung für\nerledigte Gegner... mehr erledigte\nGegner. Klingt astrein für mich!"
  },
  {
    "label": "DefeatEnemyItemDropSpecialUp_UnlockComment_00",
    "text": "Diesen Farbchip haben wir noch nicht gefunden."
  },
  {
    "label": "DefeatEnemyItemDropSpecialUp_UnlockComment_02",
    "text": "Eine zum rechten Zeitpunkt eingesetzte\nPowerkonserve kann die Rettung sein,\nwenn die Lage aussichtslos scheint."
  },
  {
    "label": "DefeatEnemyItemDropSpecialUp_UnlockComment_03",
    "text": "Nicht nur wegen der Spezialwaffe\nselbst, oh nein! Dein Tintentank wird\ndabei nämlich ebenfalls aufgefüllt!"
  },
  {
    "label": "DefeatEnemyItemDropSpecialUp_UnlockComment_04",
    "text": "Ich geb's ihnen am liebsten mit\ndem Haihammer und räume dann\nweg, was noch übrig ist."
  },
  {
    "label": "DefeatEnemyItemDropInkUp_UnlockComment_00",
    "text": "Diesen Farbchip haben wir noch nicht gefunden."
  },
  {
    "label": "DefeatEnemyItemDropInkUp_UnlockComment_02",
    "text": "Siehst du eine Tintenflasche und dein\nTank ist randvoll, setz doch einfach\nrasch deine Sekundärwaffe ein!"
  },
  {
    "label": "DefeatEnemyItemDropInkUp_UnlockComment_03",
    "text": "Acht mag wohl nicht, wenn Tinte\nverschwendet wird. Ich würde einfach\nje nach Lage strategisch entscheiden."
  },
  {
    "label": "DefeatEnemyItemDropInkUp_UnlockComment_04",
    "text": "Gegner erledigen bringt damit also\nmehr Tinte? Wieso erzählst du mir\ndann noch, ich soll sparen?"
  },
  {
    "label": "DefeatEnemyItemDropDroneActiveUp_UnlockComment_00",
    "text": "Diesen Farbchip haben wir noch nicht gefunden."
  },
  {
    "label": "DefeatEnemyItemDropDroneActiveUp_UnlockComment_02",
    "text": "Batterien füllen Perlas Drohnenanzeige\nein gutes Stück auf. Achte darauf,\ndass sie immer gut ausgerüstet ist."
  },
  {
    "label": "DefeatEnemyItemDropDroneActiveUp_UnlockComment_03",
    "text": "Meine Hacks helfen dabei!\nIch kann Perla mit mehr Aktionsplätzen\nausstatten oder dafür sorgen, dass du\nmehr passende Aktions-Chips findest."
  },
  {
    "label": "DefeatEnemyItemDropDroneActiveUp_UnlockComment_04",
    "text": "[Drohnen-Tintferno] zum Beispiel,\nsolches Zeug läuft über die\nDrohnenanzeige!"
  },
  {
    "label": "DefeatEnemyItemDropArmor_UnlockComment_00",
    "text": "Diesen Farbchip haben wir noch nicht gefunden."
  },
  {
    "label": "DefeatEnemyItemDropArmor_UnlockComment_02",
    "text": "Ich würde ja Marina bitten, dir mit ihren\nHacks mehr Rüstungen zu verschaffen.\nJe stärker dein Schutz, desto besser."
  },
  {
    "label": "DefeatEnemyItemDropArmor_UnlockComment_03",
    "text": "Es wäre mir eine Freude!\nSprich mit mir, ehe du dich in den\nTurm aufmachst, ja?"
  },
  {
    "label": "DefeatEnemyItemDropArmor_UnlockComment_04",
    "text": "Das, was um Nr. 8 herumschwebt,\nist Rüstung, ja? Dann haben wir\nzwei das ja gemeinsam!"
  },
  {
    "label": "DefeatEnemyItemStunBomb_UnlockComment_00",
    "text": "Diesen Farbchip haben wir noch nicht gefunden."
  },
  {
    "label": "DefeatEnemyItemStunBomb_UnlockComment_02",
    "text": "Der Perliminator ist Perlas Superwaffe.\nEr erklingt, sobald du dir das dritte\nPlattenteil geschnappt hast."
  },
  {
    "label": "DefeatEnemyItemStunBomb_UnlockComment_03",
    "text": "Perlas Song versiegelt alle Portale,\nwas dir eine kleine Verschnaufpause\neinbringen dürfte, Nr. 8."
  },
  {
    "label": "DefeatEnemyItemStunBomb_UnlockComment_04",
    "text": "Krall dir alle Plattenteile!\nJe mehr du findest, desto öfter\nlass ich die Arena beben!"
  },
  {
    "label": "DefeatEnemyInkRecover_UnlockComment_00",
    "text": "Diesen Farbchip haben wir noch nicht gefunden."
  },
  {
    "label": "DefeatEnemyInkRecover_UnlockComment_02",
    "text": "Damit kannst du vielleicht sogar einen\nSchwarm kleiner Gegner wegklecksen,\nohne Tinte zu verlieren."
  },
  {
    "label": "DefeatEnemyInkRecover_UnlockComment_03",
    "text": "Die Tinte füllt sich pro erledigtem Feind\num dasselbe Maß auf, also ist dieser\nChip am effektivsten, wenn du vielen\nschwachen Zielen gegenüberstehst."
  },
  {
    "label": "DefeatEnemyInkRecover_UnlockComment_04",
    "text": "Ob man mit 'ner gut gezielten\nBombe den ganzen Tintentank\nauf einmal auffüllen könnte?"
  },
  {
    "label": "ComboItemDropUp_UnlockComment_00",
    "text": "Diesen Farbchip haben wir noch nicht gefunden."
  },
  {
    "label": "ComboItemDropUp_UnlockComment_02",
    "text": "Bei einer Kombo von 10 verdoppelt sich\ndie Chance, Items zu finden, und bei 20\nverdreifacht sie sich."
  },
  {
    "label": "ComboItemDropUp_UnlockComment_03",
    "text": "Der Chip [Glückskombo-Toleranz]\nhilft dir dabei, superhohe Kombos\nzu erreichen!"
  },
  {
    "label": "ComboItemDropUp_UnlockComment_04",
    "text": "Moment, das Ding kann bis zu 99\nhoch sein? Wo kriegt man denn\npro Etage so viele Gegner her?!"
  },
  {
    "label": "PaintCombo_UnlockComment_00",
    "text": "Diesen Farbchip haben wir noch nicht gefunden."
  },
  {
    "label": "PaintCombo_UnlockComment_02",
    "text": "Damit kannst du durch Bodenfärben\ndafür sorgen, dass deine Glückskombo\nnicht verfällt."
  },
  {
    "label": "PaintCombo_UnlockComment_03",
    "text": "Aber um Items zu finden, musst du\ntrotzdem Gegner erledigen."
  },
  {
    "label": "PaintCombo_UnlockComment_04",
    "text": "Easy! Erst mal färben und Kombo\naufbauen, dann alle wegklecksen!\nProblem erledigt!"
  },
  {
    "label": "DroneCadenceTimeUp_UnlockComment_00",
    "text": "Diesen Farbchip haben wir noch nicht gefunden."
  },
  {
    "label": "DroneCadenceTimeUp_UnlockComment_02",
    "text": "Bau ein paar dieser Chips ein und\nPerlas Drohnenanzeige füllt sich im\nPropellerumdrehen wieder auf."
  },
  {
    "label": "DroneCadenceTimeUp_UnlockComment_03",
    "text": "Dazu den [Bewegungs-Drohnenlader]\nausgerüstet und sie wird deine beste\nMitstreiterin!"
  },
  {
    "label": "DroneCadenceTimeUp_UnlockComment_04",
    "text": "Aber ganz wichtig: Ohne Chips,\ndie mir Aktionen verschaffen,\nbringt das ganze Aufladen nix!"
  },
  {
    "label": "DroneCadencePaintUp_UnlockComment_00",
    "text": "Diesen Farbchip haben wir noch nicht gefunden."
  },
  {
    "label": "DroneCadencePaintUp_UnlockComment_02",
    "text": "Sehr praktisch für Waffen mit hoher\nFärbewirkung. Besonders, wenn du den\nChip [Färbewirkung Hauptwaffe] besitzt."
  },
  {
    "label": "DroneCadencePaintUp_UnlockComment_03",
    "text": "Auch toll: Wenn Perla den Chip\n[Drohnen-Sprinkler] hat, füllt sie\ndamit ihre eigene Anzeige auf!"
  },
  {
    "label": "DroneCadencePaintUp_UnlockComment_04",
    "text": "So hab ich PERL-manent genug\nTinte und kann PERL-fekt deine\nGegner wegklotzen!"
  },
  {
    "label": "DroneCadenceDefeatEnemyUp_UnlockComment_00",
    "text": "Diesen Farbchip haben wir noch nicht gefunden."
  },
  {
    "label": "DroneCadenceDefeatEnemyUp_UnlockComment_02",
    "text": "Wenn du dich schon durch Tausende\nGegner kämpfen musst, wieso nicht\neinfach mit jedem Klecks Perlas\nAnzeige aufladen?"
  },
  {
    "label": "DroneCadenceDefeatEnemyUp_UnlockComment_03",
    "text": "Auch [Klecks-Regeneration] wirkt beim\nBesiegen von Gegnern, was es zu einem\nidealen Partner-Chip macht."
  },
  {
    "label": "DroneCadenceDefeatEnemyUp_UnlockComment_04",
    "text": "Sogar die Gegner, die ICH besiege,\nzählen! Also los, rein in die Vollen!"
  },
  {
    "label": "DroneActionBombSplash_UnlockComment_00",
    "text": "Diesen Farbchip haben wir noch nicht gefunden."
  },
  {
    "label": "DroneActionBombSplash_UnlockComment_02",
    "text": "Damit wirft Perla Klecks-Bomben.\nDiese rollen erst ein wenig über den\nBoden und explodieren dann."
  },
  {
    "label": "DroneActionBombSplash_UnlockComment_03",
    "text": "Die Bomben fliegen aber nur, wenn sich\nGegner in der Nähe von Nr. 8 befinden.\nAlso rasch Richtung Feind mit dir!"
  },
  {
    "label": "DroneActionBombSplash_UnlockComment_04",
    "text": "Verschwendung? Nicht mit mir!\nIch bombe erst los, wenn's kein\nEntkommen mehr vor mir gibt!"
  },
  {
    "label": "DroneActionTrap_UnlockComment_00",
    "text": "Diesen Farbchip haben wir noch nicht gefunden."
  },
  {
    "label": "DroneActionTrap_UnlockComment_02",
    "text": "Mit diesem Chip kann Perla Tintenminen\nlegen – idealerweise dort, wo größeres\nGegneraufkommen herrscht."
  },
  {
    "label": "DroneActionTrap_UnlockComment_03",
    "text": "Die Chips [Explosionsradius]\nund [Explosionskraft] verstärken die\nWirkung der Minen. Sehr zu empfehlen!"
  },
  {
    "label": "DroneActionTrap_UnlockComment_04",
    "text": "Keine Angst vor fiesen Angriffen\nvon hinten! Ich pflastere alles\num dich herum zu!"
  },
  {
    "label": "DroneActionSprinkler_UnlockComment_00",
    "text": "Diesen Farbchip haben wir noch nicht gefunden."
  },
  {
    "label": "DroneActionSprinkler_UnlockComment_02",
    "text": "Perlas Sprinklertinte färbt nicht nur\nBoden ein, sondern fügt auch deinen\nGegnern Schaden zu."
  },
  {
    "label": "DroneActionSprinkler_UnlockComment_03",
    "text": "Genug Exemplare hiervon, dazu ein paar\n[Drohnenlader-Turbo]-Chips, und schon\nergießen sich wahre Tintenfluten!"
  },
  {
    "label": "DroneActionSprinkler_UnlockComment_04",
    "text": "Wie ein Premium-Sprinkler!\nAber wehe, irgendwer wirft mich\ndurch die Arena!"
  },
  {
    "label": "DroneActionBombQuick_UnlockComment_00",
    "text": "Diesen Farbchip haben wir noch nicht gefunden."
  },
  {
    "label": "DroneActionBombQuick_UnlockComment_02",
    "text": "Insta-Bomben sind nicht gerade das\ndurchschlagkräftigste Modell, doch sie\nexplodieren sofort beim Auftreffen!"
  },
  {
    "label": "DroneActionBombQuick_UnlockComment_03",
    "text": "Mit den Chips [Explosionskraft] oder\n[Drohnenlader-Turbo] wird Perla damit\nzur wahren Naturgewalt!"
  },
  {
    "label": "DroneActionBombQuick_UnlockComment_04",
    "text": "Noch gewaltiger als sonst, meinst\ndu wohl! Also, Nr. 8, mach dich\nans Chip-Sammeln!"
  },
  {
    "label": "DroneActionSuperLaser_UnlockComment_00",
    "text": "Diesen Farbchip haben wir noch nicht gefunden."
  },
  {
    "label": "DroneActionSuperLaser_UnlockComment_02",
    "text": "Die Heulboje ist eine Spezial- und keine\nSekundärwaffe, also verbraucht sie\nauch mehr von der Drohnenleiste."
  },
  {
    "label": "DroneActionSuperLaser_UnlockComment_03",
    "text": "Der Chip [Schallkraft] macht diesen\nAngriff stärker. Damit fegst du quasi\ndie gesamte Arena leer."
  },
  {
    "label": "DroneActionSuperLaser_UnlockComment_04",
    "text": "Kein 5.1, ja? Egal, ordentlich\nröhren kann ich auch in Mono!"
  },
  {
    "label": "DroneActionTornado_UnlockComment_00",
    "text": "Diesen Farbchip haben wir noch nicht gefunden."
  },
  {
    "label": "DroneActionTornado_UnlockComment_02",
    "text": "Dieser Angriff leert ein riesiges Stück\nder Drohnenleiste. Weitere Exemplare\ndes Chips oder [Färbe-Drohnenlader]\nwirken dem etwas entgegen."
  },
  {
    "label": "DroneActionTornado_UnlockComment_03",
    "text": "Mit [Explosionsradius] werden deine\nTintfernos noch gewaltiger und reißen\nnoch viel mehr Gegner mit sich!"
  },
  {
    "label": "DroneActionTornado_UnlockComment_04",
    "text": "Keine Tri-Version, wie? Blarg.\nNa ja, einfach besser zielen,\ndann klappt's auch so!"
  },
  {
    "label": "DroneActionItemDrop_UnlockComment_00",
    "text": "Diesen Farbchip haben wir noch nicht gefunden."
  },
  {
    "label": "DroneActionItemDrop_UnlockComment_02",
    "text": "Hiermit generiert Perla zufällige Items\nfür dich. Nur Drohnenbatterien können\ndabei nicht vorkommen."
  },
  {
    "label": "DroneActionItemDrop_UnlockComment_03",
    "text": "Die Items erscheinen direkt unter Perla.\nNicht übersehen, Nr. 8!"
  },
  {
    "label": "DroneActionItemDrop_UnlockComment_04",
    "text": "Ich kann ITEMS MACHEN?\nBoah, gibt's eigentlich 'ne\nbessere Drohne als mich?"
  }
]