[
  {
    "label": "key02",
    "text": "Willst du nicht eins dieser Schließfächer öffnen, Nr. 8?"
  },
  {
    "label": "key01",
    "text": "Nr. 8, vergiss die Schließfächer nicht!"
  },
  {
    "label": "iidaHacking00",
    "text": "Schau mal bei mir vorbei, wenn du Zeit hast, Nr. 8."
  },
  {
    "label": "iidaHacking01",
    "text": "Kann ich irgendwas für dich hacken, Nr. 8?"
  },
  {
    "label": "fleamarket00",
    "text": "Oktoling, ich habe Erfreuliches zu verkünden."
  },
  {
    "label": "fleamarket01",
    "text": "Ciphers Zeug erwartet sehnsüchtigst deinen Besuch,\njunger Oktoling."
  },
  {
    "label": "nokey00",
    "text": "Mit ’nem {{color id=\"4\"}}Schließfachschlüssel{{color id=\"65535\"}} lässt sich das Ding\nhundertpro öffnen!"
  },
  {
    "label": "palette00",
    "text": "Probier ruhig mal ’ne andere Palette aus!\nVielleicht findest du 'ne Waffe, die dir besser liegt!"
  },
  {
    "label": "palette01",
    "text": "Hey, Nr. 8! Haben wir nicht eine neue Palette gefunden?\nWirf ruhig mal mit {{icon id=\"74\" arg=\"0x0000803F00000000\"}} ’nen Blick drauf!"
  },
  {
    "label": "entracnce_random_00",
    "text": "Sieh dir nur mal all den Kram hier an, Nr. 8!\nGenau der richtige Ort, um deine Palette zu testen!"
  },
  {
    "label": "entracnce_random_01_0",
    "text": "Yo, check mal das Foyer! Das ist nun genauso bunt\nwie die Chips, die du im letzten Durchgang erhalten hast."
  },
  {
    "label": "entracnce_random_01_1",
    "text": "Zumindest behauptet das Marina.\nHast du ’ne Idee, wovon sie da redet, Nr. 8?"
  },
  {
    "label": "entracnce_random_02",
    "text": "Na, welche Palette darf’s sein? Drücke {{icon id=\"74\" arg=\"0x0000803F00000000\"}},\num zu sehen, welche du bereits gesammelt hast!"
  },
  {
    "label": "entracnce_random_03",
    "text": "Du willst wissen, wie dein Gegner tickt? Dann wirf mal\neinen Blick in den Viskelloid-Leitfaden im {{icon id=\"72\" arg=\"0x0000803F00000000\"}} Menü!"
  },
  {
    "label": "entracnce_random_04",
    "text": "In der Farbchip-Sammlung im {{icon id=\"72\" arg=\"0x0000803F00000000\"}} Menü kannst du sehen,\nwelche Wirkung die von dir gefundenen Chips haben."
  },
  {
    "label": "entracnce_random_05",
    "text": "Wechselst du Paletten mit {{icon id=\"74\" arg=\"0x0000803F00000000\"}}, kannst du sie gleich\nhier ausprobieren. Übung macht den Meister, Nr. 8!"
  },
  {
    "label": "entracnce_phase2_random_00",
    "text": "Mit dem Dingsda neben dem Aufzug kannst du dich\nan den ersten Turmanlauf erinnern und daraus lernen!"
  },
  {
    "label": "entracnce_phase3_random_00",
    "text": "Die Musik hier fetzt total, oder?"
  },
  {
    "label": "FailureZakoStandard_00",
    "text": "Diese Fische sind fieser, als sie aussehen, was?\nWir sollten ein bisschen vorsichtiger sein!"
  },
  {
    "label": "FailureZakoStandard_01",
    "text": "Einfach nur lästig, diese Kerle.\nUnd das Schlimmste ist, dass sie überall sind!"
  },
  {
    "label": "FailureZakoSmall_00",
    "text": "Klein, aber oho! Die Kerlchen fallen einem leider\nimmer erst dann auf, wenn’s schon zu spät ist."
  },
  {
    "label": "FailureZakoLarge_00",
    "text": "Diese Riesenheinis sind zwar langsam, aber wenn\nsie einen erst umzingelt haben, dann gute Nacht."
  },
  {
    "label": "FailureZakoLarge_01",
    "text": "Große Fische sind ja eher sanftmütig, aber wenn\nman sie aufscheucht, können sie ungemütlich werden."
  },
  {
    "label": "FailureEscape_00",
    "text": "Diese feigen Flitzer sind nicht nur irre flink, sie lassen\nbei ihren Fluchtmanövern auch noch Bomben fallen!"
  },
  {
    "label": "FailureTreeMissile_00",
    "text": "Diese Raketen tun ECHT weh!\nWenn du sie anvisierst, sollte jeder Schuss sitzen."
  },
  {
    "label": "FailureHopper_00",
    "text": "Die Kerle haben uns geplättet – buchstäblich! Boing,\nboing... PAH! Hoffentlich verheddern sich ihre Spiralen!"
  },
  {
    "label": "FailureBombBlow_00",
    "text": "Wer hat uns erledigt, der da hinten mit dem\nblöden Strahl? Ist mir ja kaum aufgefallen!"
  },
  {
    "label": "FailureChargerTower_00",
    "text": "ICH HASSE KONZENTRATOREN!\nAber eins muss man den Typen lassen: Zielen können sie!"
  },
  {
    "label": "FailureShell_00",
    "text": "Die Viecher halten sich wohl für schlau, uns aus ihren\nPanzern heraus anzugreifen. Aber die knacken wir!"
  },
  {
    "label": "FailureSpawner_00",
    "text": "Yo, Nr. 8... Hat uns da etwa gerade ein Portal erledigt?"
  },
  {
    "label": "FailureSpawner_01",
    "text": "Wow. Euch hat ein Portal erwischt?\nAlso, DAS muss man erst mal hinbekommen!"
  },
  {
    "label": "FailureFall_00",
    "text": "Upps, da hätten wir wohl besser aufpassen sollen.\nGibt kaum ein fieseres Gefühl, als runterzufallen."
  },
  {
    "label": "FailureFall_01",
    "text": "Ihr seid also runtergefallen. Na und? Komm schon, Nr. 8,\nvon so was lässt du dich doch nicht entmutigen!"
  },
  {
    "label": "FailureTowerKing_00",
    "text": "Dieses wirbelnde Ding macht keine halben Sachen!\nWundert mich nur, dass es keinen Drehwurm bekommt!"
  },
  {
    "label": "FailureTowerKing_01",
    "text": "Bei dem Geblitze kam man sich ja vor wie auf der Bühne!\nNa, beim nächsten Mal läuft’s bestimmt besser."
  },
  {
    "label": "FailureBallKing_00",
    "text": "Ist das Ding ein Stressball? Jedenfalls stresst es mich!\nWie es mit jedem Treffer wegprallt, grrr..."
  },
  {
    "label": "FailureBallKing_01",
    "text": "Ein knallharter Gegner, dieser Boss. Bereiten wir uns\nnächstes Mal gut vor und knallen ihn weg!"
  },
  {
    "label": "FailureRivalKing_00",
    "text": "Weggekleckst von etwas, das aussieht wie man selbst...\nHat ja fast 'ne persönliche Note!"
  },
  {
    "label": "FailureRivalKing_01",
    "text": "Dieser Boss sah fast so aus wie Nr. 8 und Perla...\nAber am Ende werden die Originale triumphieren!"
  },
  {
    "label": "FailureBarrierKingOdako_00",
    "text": "Ordnung meint's ernst!\nAber den Kerl kriegen wir schon noch klein, oder?"
  },
  {
    "label": "FailureBarrierKingOdako_01",
    "text": "Ordnung ist stärker, als wir je erwartet hatten.\nAber ihr beide werdet siegen, ich weiß es einfach!"
  },
  {
    "label": "FailureBarrierKingOdakoEx_00",
    "text": "Blarg. Von Ordnuckel gekleckst! Hätten ihm sein\nblödes Baby-Getue einfach nicht abkaufen sollen."
  },
  {
    "label": "FailureBarrierKingOdakoEx_01",
    "text": "Ordnuckel ist mächtig, doch ihr habt bereits Ordnung\nkleingekriegt. Nun gebt seiner Mini-Version Saures!"
  },
  {
    "label": "FailureAllLayer_00",
    "text": "Aufrappeln, Nr. 8!\nBeim nächsten Anlauf klappt's!"
  },
  {
    "label": "FailureAllLayer_01",
    "text": "Verloren? Nicht so schlimm, Nr. 8.\nNeuer Versuch, neue Strategie, neues Glück!"
  },
  {
    "label": "FailureLowLayer_00",
    "text": "Kleiner Ausrutscher. Kann ja mal vorkommen!\nNächstes Mal klotzen wir ran!"
  },
  {
    "label": "FailureLowLayer_01",
    "text": "Upps! Kam ja ganz schön ungelegen.\nAugen auf und neuer Versuch, Nr. 8!"
  },
  {
    "label": "FailureMiddleLayer_00",
    "text": "Lief ja gar nicht übel, bis es nicht mehr lief.\nNächstes Mal schaffen wir's noch höher, Nr. 8!"
  },
  {
    "label": "FailureMiddleLayer_01",
    "text": "Schade, wo es doch gerade so gut lief...\nAber nicht verzagen, nächstes Mal wird's besser!"
  },
  {
    "label": "FailureHighLayer_00",
    "text": "Blarg, FAST hätten wir's geschafft!\nBeim nächsten Mal stürmen wir das Ding!"
  },
  {
    "label": "FailureHighLayer_01",
    "text": "Ein wahnsinnig guter Turmsturm!\nOb meine Hacks euch nächstes Mal helfen können?"
  },
  {
    "label": "Phase3_PaletteCleared_01",
    "text": "Habt ihr mitbekommen, was Ordnuckel gesagt hat?\n„Für die Träume von allen“...{{delay frames=\"30\"}} Wen meint er wohl?"
  },
  {
    "label": "Phase3_PaletteCleared_02",
    "text": "Ordnuckel war ’ne echt harte Nummer.{{delay frames=\"30\"}} So viel\nHartnäckigkeit verdient meinen vollsten Respekt!"
  },
  {
    "label": "Phase3_PaletteCleared_03",
    "text": "Mit Ordnuckel zanke ich nicht mehr rum.{{delay frames=\"30\"}} Er tut eh,\nwas er möchte.{{delay frames=\"15\"}} Einfach ignorieren und wegklecksen!"
  },
  {
    "label": "Phase3_PaletteCleared_04",
    "text": "Hmmm...{{delay frames=\"15\"}} Was ist bitte schön so toll an einer Welt,\ndie sich nie verändert?{{delay frames=\"30\"}} Verstehst du das, Nr. 8?"
  },
  {
    "label": "Phase3_PaletteCleared_05",
    "text": "Ordnuckel schien wirklich aufgeregt, oder?{{pageBreak}}Na, wir haben noch reichlich Paletten zu konfigurieren.\nNächstes Mal erfahren wir vielleicht mehr."
  },
  {
    "label": "Phase3_PaletteCleared_06",
    "text": "Was hat der Kerl eigentlich gegen Oktolinge, die an die\nOberfläche gekommen sind?{{delay frames=\"30\"}} Ignorier das Gerede, Nr. 8!"
  },
  {
    "label": "Phase3_PaletteCleared_07",
    "text": "Junge! {{delay frames=\"30\"}}Wie oft denn noch?{{delay frames=\"30\"}}\nVielleicht 'ne Pause, ehe du dich wieder raufwagst?"
  },
  {
    "label": "Phase3_PaletteCleared_08",
    "text": "Kam dir Ordnuckel gerade nicht auch...{{delay frames=\"15\"}} anders vor?{{delay frames=\"30\"}}\n...Egal. Wer weiß schon, was in dem blöden Ding vorgeht!"
  },
  {
    "label": "Phase3_PaletteCleared_09",
    "text": "Wieder klasse gemacht, Nr. 8!{{delay frames=\"30\"}} Dieser Ordnuckel-Wicht\ntut ja echt so, als wäre er voller Geheimnisse..."
  },
  {
    "label": "Phase3_PaletteCleared_10",
    "text": "Irgendwie gewöhne ich mich echt an diesen Ort.{{delay frames=\"30\"}}\nAber der Inkopolis-Platz ist bunter... {{delay frames=\"15\"}}und damit besser!"
  },
  {
    "label": "Phase3_PaletteCleared_11",
    "text": "Wir haben alle Paletten neu konfiguriert.{{delay frames=\"15\"}}\nDie Sache ist ERLEDIGT!{{delay frames=\"30\"}} Astreine Arbeit, Nr. 8!{{pageBreak}}Die echte Welt ist fürs Erste sicher.{{delay frames=\"30\"}} Aber Ordnuckelchen\nkönnen wir ja trotzdem mal wieder besuchen gehen."
  },
  {
    "label": "RechooseStageIkuraShortage",
    "text": "Dafür fehlen dir noch ein paar Memoneten, Nr. 8."
  },
  {
    "label": "FloorShopIkuraShortage",
    "text": "Ähm, Nr. 8?\nDu scheinst gerade etwas knapp an Memoneten zu sein..."
  },
  {
    "label": "FloorSkipIkuraShortage",
    "text": "Dafür fehlen dir noch ein paar Memoneten, Nr. 8."
  }
]