[
  {
    "label": "Area1_0",
    "text": "这里的人脸都好长啊——"
  },
  {
    "label": "Area1_1",
    "text": "看起来像雪却不冷！还能涂墨汁上去，好神奇——！"
  },
  {
    "label": "Area1_3",
    "text": "如果在这里开演唱会的话，能容纳多少观众啊？"
  },
  {
    "label": "Area1_4",
    "text": "司令虽然看起来很闲，\n但我想司令一定在考虑些超厉害的作战策略！"
  },
  {
    "label": "Area1_7",
    "text": "这景色看得让人想去玩单板滑雪——"
  },
  {
    "label": "Area2_1",
    "text": "这里以前好像是工厂哦！小……2号是这么说的！"
  },
  {
    "label": "Area2_2",
    "text": "如果在这里开打的话，要怎么进攻呢——"
  },
  {
    "label": "Area2_4",
    "text": "看来可以用{{color id=\"1\"}}墨汁轨道{{color id=\"65535\"}}去上面哦！"
  },
  {
    "label": "Area2_5",
    "text": "有这么巨大的工厂在，就什么都能造了吧——！"
  },
  {
    "label": "Area3_0",
    "text": "滑溜溜的地方看起来像冰，但是摸了也不会化呢！"
  },
  {
    "label": "Area3_1",
    "text": "这个地方让人觉得有点寂寞啊。"
  },
  {
    "label": "Area3_2",
    "text": "橘色的建筑好像是住宅哦！\n应该……没人住在里面吧？"
  },
  {
    "label": "Area4_0",
    "text": "我嗅……这里是不是……有股味道？"
  },
  {
    "label": "Area4_1",
    "text": "好想乘潜水艇在海底玩寻宝游戏——！"
  },
  {
    "label": "Area4_2",
    "text": "3号，3号！你有没有潜水艇的驾照？"
  },
  {
    "label": "Area4_3",
    "text": "在铁丝网上走的时候，觉不觉得有点心跳加速？"
  },
  {
    "label": "Area5_0",
    "text": "这个地方好像时不时会冒出{{color id=\"1\"}}喷泉{{color id=\"65535\"}}哦！"
  },
  {
    "label": "Area5_1",
    "text": "据说这里以前培育过植物什么的哦！消息来源于2号！"
  },
  {
    "label": "Area5_2",
    "text": "只要浇上墨汁，农作物就会茁壮成长！\n这是我几年前在网上看到的！"
  },
  {
    "label": "Area6_0",
    "text": "虽然2号她说“大楼楼顶很令人兴奋”，\n但往下看的时候不会觉得很恐怖吗？"
  },
  {
    "label": "Area6_1",
    "text": "“看来这里以前是研究设施。”\n……怎么样？语气像不像2号啊？"
  },
  {
    "label": "Area6_2",
    "text": "好像可以乘{{color id=\"1\"}}输送轨道{{color id=\"65535\"}}到那里去！"
  },
  {
    "label": "Area6_3",
    "text": "虽然会让人觉得意外，但我其实不太擅长很高的地方……"
  },
  {
    "label": "Progress_ortana_00",
    "text": "今天也精神百倍地出发吧——！"
  },
  {
    "label": "Progress_ortana_01",
    "text": "听说2号看到一串串数字都不会头痛呢！"
  },
  {
    "label": "Progress_ortana_02",
    "text": "最近单独活动比较多，所以我很高兴能一起组队！"
  },
  {
    "label": "Progress_ortana_03",
    "text": "小鲑鱼和3号是在哪里相遇的呀？"
  },
  {
    "label": "Progress_ortana_04",
    "text": "大涂特涂后会出现{{icon id=\"32\" arg=\"0x0000803F00000000\"}}槽,\n把槽攒满就能获得{{color id=\"1\"}}强化点数{{color id=\"65535\"}}哦！"
  },
  {
    "label": "Progress_ortana_05",
    "text": "已经去过一次的茶壶，可以在地图上直接跳过去哦！"
  },
  {
    "label": "Progress_ortana_06",
    "text": "不断为英雄装备强化能力吧——！"
  },
  {
    "label": "Progress_ortana_07_00",
    "text": "3号，快看快看！好美的天空啊——！"
  },
  {
    "label": "Progress_ortana_07_01",
    "text": "……但那应该不是真的吧？"
  },
  {
    "label": "Progress_surimi_00",
    "text": "鱼浆帮好酷啊——！\n我们也要多多练习招牌姿势才行！"
  },
  {
    "label": "Progress_surimi_03",
    "text": "这里有没有认识我的章鱼啊……？"
  },
  {
    "label": "Progress_surimi_04",
    "text": "{{color id=\"1\"}}消除{{color id=\"65535\"}}绒毛墨汁的{{color id=\"1\"}}核心{{color id=\"65535\"}}好像也能积蓄{{icon id=\"32\" arg=\"0x0000803F00000000\"}}槽！"
  },
  {
    "label": "Progress_surimi_05",
    "text": "要是鲑鱼卵不够了，就去下一个茶壶看看吧！"
  },
  {
    "label": "Progress_surimi_06",
    "text": "好像需要鲑鱼卵才能挑战{{color id=\"1\"}}银茶壶{{color id=\"65535\"}}，\n进去之前先确认一下鲑鱼卵吧！"
  },
  {
    "label": "Progress_surimi_07",
    "text": "好像可以用英雄装备来挑战{{color id=\"1\"}}金茶壶{{color id=\"65535\"}}，\n不妨去强化一下装备吧！"
  },
  {
    "label": "Progress_surimi_08",
    "text": "硬要说的话，海豚豚算是吐槽担当吧——"
  },
  {
    "label": "Progress_boss1_00",
    "text": "GOGO！幻界探险队♪队长是谁？是3号！！"
  },
  {
    "label": "Progress_boss1_01",
    "text": "3号，你知道麻辣鱿物吗？"
  },
  {
    "label": "Progress_boss1_02",
    "text": "对付拿盾牌的敌人，照理说要转移其注意力后射击背部！\n……但我选择强行突破！"
  },
  {
    "label": "Progress_boss1_03",
    "text": "能不能用宝物来做些开心的事呢……嗯……"
  },
  {
    "label": "Progress_boss2_00",
    "text": "幻界的调查很顺利！地图也越来越详细了——！"
  },
  {
    "label": "Progress_boss2_01",
    "text": "那个——3号，\n谢谢你加入了New！喷嘴部队！"
  },
  {
    "label": "Progress_boss3_00",
    "text": "3号，准备好了就去救爷爷吧！"
  },
  {
    "label": "Progress_clear_00",
    "text": "把热水浇到爷爷身上的话，能让他恢复原状吗？"
  },
  {
    "label": "Progress_clear_01",
    "text": "3号，你要不要也来些点心？"
  },
  {
    "label": "Progress_clear_02",
    "text": "我就说了句想开火箭，就被2号训了……"
  },
  {
    "label": "Progress_clear_03",
    "text": "在宇宙战斗的3号好帅啊——！小鲑鱼也是！"
  },
  {
    "label": "Progress_clear_04",
    "text": "新火箭什么时候造好的啊！真是惊人！"
  },
  {
    "label": "Bored_00",
    "text": "……等等，这事我刚才说过了吧？！"
  },
  {
    "label": "Bored_01",
    "text": "咦——？我原本还有其他想说的，但我忘了！"
  },
  {
    "label": "Bored_02",
    "text": "啊！刚才的话，我好像已经和3号说过了……"
  },
  {
    "label": "Bored_03",
    "text": "……咦？我刚才是不是也说了一样的话？"
  },
  {
    "label": "Gift_00",
    "text": "这是我刚才捡到的{{color id=\"1\"}}鲑鱼卵{{color id=\"65535\"}}，全都送给3号吧！\n要和小鲑鱼一起用哦！"
  },
  {
    "label": "Gift_01",
    "text": "我从口袋里找到了{{color id=\"1\"}}鲑鱼卵{{color id=\"65535\"}}——！\n这下我也帮上点3号的忙了吧？"
  },
  {
    "label": "Gift_02",
    "text": "这些{{color id=\"1\"}}鲑鱼卵{{color id=\"65535\"}}是司令给的！\n还说“虽然不多，拿去用吧”！"
  },
  {
    "label": "LaunchPad_00",
    "text": "多亏2号超凡的领袖魅力，同伴增加了。\n这样一定能把爷爷救出来！"
  }
]