[
  {
    "label": "Beacon",
    "locale": {
      "CNzh": "跳跃信标",
      "EUde": "Sprungboje",
      "EUen": "Squid Beakon",
      "EUes": "Baliza transportadora",
      "EUfr": "Balise de saut",
      "EUit": "Trasferitore",
      "EUnl": "Springschotel",
      "EUru": "Прыжковый маячок",
      "JPja": "ジャンプビーコン",
      "KRko": "점프 비컨",
      "TWzh": "跳躍信標",
      "USen": "Squid Beakon",
      "USes": "Baliza",
      "USfr": "Balise de saut"
    }
  },
  {
    "label": "Bomb_Curling",
    "locale": {
      "CNzh": "冰壶炸弹",
      "EUde": "Curling-Bombe",
      "EUen": "Curling Bomb",
      "EUes": "Bomba deslizante",
      "EUfr": "Bombe curling",
      "EUit": "Bomba curling",
      "EUnl": "Curlingbom",
      "EUru": "Керлинг-бомба",
      "JPja": "カーリングボム",
      "KRko": "컬링 밤",
      "TWzh": "冰壺炸彈",
      "USen": "Curling Bomb",
      "USes": "Bomba deslizante",
      "USfr": "Bombe curling"
    }
  },
  {
    "label": "Bomb_Curling_Rival",
    "locale": {
      "CNzh": "-",
      "EUde": "-",
      "EUen": "-",
      "EUes": "-",
      "EUfr": "-",
      "EUit": "-",
      "EUnl": "-",
      "EUru": "-",
      "JPja": "-",
      "KRko": "-",
      "TWzh": "-",
      "USen": "-",
      "USes": "-",
      "USfr": "-"
    }
  },
  {
    "label": "Bomb_Curling_Sdodr",
    "locale": {
      "CNzh": "冰壶炸弹",
      "EUde": "Curling-Bombe",
      "EUen": "Curling Bomb",
      "EUes": "Bomba deslizante",
      "EUfr": "Bombe curling",
      "EUit": "Bomba curling",
      "EUnl": "Curlingbom",
      "EUru": "Керлинг-бомба",
      "JPja": "カーリングボム",
      "KRko": "컬링 밤",
      "TWzh": "冰壺炸彈",
      "USen": "Curling Bomb",
      "USes": "Bomba deslizante",
      "USfr": "Bombe curling"
    }
  },
  {
    "label": "Bomb_Curling_Sdodr_Rival",
    "locale": {
      "CNzh": "-",
      "EUde": "-",
      "EUen": "-",
      "EUes": "-",
      "EUfr": "-",
      "EUit": "-",
      "EUnl": "-",
      "EUru": "-",
      "JPja": "-",
      "KRko": "-",
      "TWzh": "-",
      "USen": "-",
      "USes": "-",
      "USfr": "-"
    }
  },
  {
    "label": "Bomb_Fizzy",
    "locale": {
      "CNzh": "碳酸炸弹",
      "EUde": "Sprudel-Bombe",
      "EUen": "Fizzy Bomb",
      "EUes": "Bomba carbónica",
      "EUfr": "Bombe soda",
      "EUit": "Bomba a gassosa",
      "EUnl": "Bomblikje",
      "EUru": "Содовая бомба",
      "JPja": "タンサンボム",
      "KRko": "탄산 밤",
      "TWzh": "碳酸炸彈",
      "USen": "Fizzy Bomb",
      "USes": "Bomba carbónica",
      "USfr": "Bombe soda"
    }
  },
  {
    "label": "Bomb_Fizzy_Sdodr",
    "locale": {
      "CNzh": "碳酸炸弹",
      "EUde": "Sprudel-Bombe",
      "EUen": "Fizzy Bomb",
      "EUes": "Bomba carbónica",
      "EUfr": "Bombe soda",
      "EUit": "Bomba a gassosa",
      "EUnl": "Bomblikje",
      "EUru": "Содовая бомба",
      "JPja": "タンサンボム",
      "KRko": "탄산 밤",
      "TWzh": "碳酸炸彈",
      "USen": "Fizzy Bomb",
      "USes": "Bomba carbónica",
      "USfr": "Bombe soda"
    }
  },
  {
    "label": "Bomb_Quick",
    "locale": {
      "CNzh": "快速炸弹",
      "EUde": "Insta-Bombe",
      "EUen": "Burst Bomb",
      "EUes": "Bomba rápida",
      "EUfr": "Bombe ballon",
      "EUit": "Granata",
      "EUnl": "Ballonbom",
      "EUru": "Разрывная бомба",
      "JPja": "クイックボム",
      "KRko": "퀵 밤",
      "TWzh": "快速炸彈",
      "USen": "Burst Bomb",
      "USes": "Globo entintado",
      "USfr": "Bombe ballon"
    }
  },
  {
    "label": "Bomb_Quick_Rival",
    "locale": {
      "CNzh": "-",
      "EUde": "-",
      "EUen": "-",
      "EUes": "-",
      "EUfr": "-",
      "EUit": "-",
      "EUnl": "-",
      "EUru": "-",
      "JPja": "-",
      "KRko": "-",
      "TWzh": "-",
      "USen": "-",
      "USes": "-",
      "USfr": "-"
    }
  },
  {
    "label": "Bomb_Quick_Sdodr",
    "locale": {
      "CNzh": "快速炸弹",
      "EUde": "Insta-Bombe",
      "EUen": "Burst Bomb",
      "EUes": "Bomba rápida",
      "EUfr": "Bombe ballon",
      "EUit": "Granata",
      "EUnl": "Ballonbom",
      "EUru": "Разрывная бомба",
      "JPja": "クイックボム",
      "KRko": "퀵 밤",
      "TWzh": "快速炸彈",
      "USen": "Burst Bomb",
      "USes": "Globo entintado",
      "USfr": "Bombe ballon"
    }
  },
  {
    "label": "Bomb_Robot",
    "locale": {
      "CNzh": "机器人炸弹",
      "EUde": "Robo-Bombe",
      "EUen": "Autobomb",
      "EUes": "Robobomba",
      "EUfr": "Bombe robot",
      "EUit": "Robo-bomba",
      "EUnl": "Robobom",
      "EUru": "Робобомба",
      "JPja": "ロボットボム",
      "KRko": "로봇 밤",
      "TWzh": "機器人炸彈",
      "USen": "Autobomb",
      "USes": "Robobomba",
      "USfr": "Bombe robot"
    }
  },
  {
    "label": "Bomb_Robot_Rival",
    "locale": {
      "CNzh": "-",
      "EUde": "-",
      "EUen": "-",
      "EUes": "-",
      "EUfr": "-",
      "EUit": "-",
      "EUnl": "-",
      "EUru": "-",
      "JPja": "-",
      "KRko": "-",
      "TWzh": "-",
      "USen": "-",
      "USes": "-",
      "USfr": "-"
    }
  },
  {
    "label": "Bomb_Splash",
    "locale": {
      "CNzh": "斯普拉炸弹",
      "EUde": "Klecks-Bombe",
      "EUen": "Splat Bomb",
      "EUes": "Bomba básica",
      "EUfr": "Bombe splash",
      "EUit": "Bomba splash",
      "EUnl": "Klodderbom",
      "EUru": "Брызгающая бомба",
      "JPja": "スプラッシュボム",
      "KRko": "스플래시 밤",
      "TWzh": "斯普拉炸彈",
      "USen": "Splat Bomb",
      "USes": "Plasbomba",
      "USfr": "Bombe splash"
    }
  },
  {
    "label": "Bomb_Splash_Big_Coop",
    "locale": {
      "CNzh": "-",
      "EUde": "-",
      "EUen": "-",
      "EUes": "-",
      "EUfr": "-",
      "EUit": "-",
      "EUnl": "-",
      "EUru": "-",
      "JPja": "-",
      "KRko": "-",
      "TWzh": "-",
      "USen": "-",
      "USes": "-",
      "USfr": "-"
    }
  },
  {
    "label": "Bomb_Splash_Coop",
    "locale": {
      "CNzh": "-",
      "EUde": "-",
      "EUen": "-",
      "EUes": "-",
      "EUfr": "-",
      "EUit": "-",
      "EUnl": "-",
      "EUru": "-",
      "JPja": "-",
      "KRko": "-",
      "TWzh": "-",
      "USen": "-",
      "USes": "-",
      "USfr": "-"
    }
  },
  {
    "label": "Bomb_Splash_Rival",
    "locale": {
      "CNzh": "-",
      "EUde": "-",
      "EUen": "-",
      "EUes": "-",
      "EUfr": "-",
      "EUit": "-",
      "EUnl": "-",
      "EUru": "-",
      "JPja": "-",
      "KRko": "-",
      "TWzh": "-",
      "USen": "-",
      "USes": "-",
      "USfr": "-"
    }
  },
  {
    "label": "Bomb_Splash_Sdodr",
    "locale": {
      "CNzh": "斯普拉炸弹",
      "EUde": "Klecks-Bombe",
      "EUen": "Splat Bomb",
      "EUes": "Bomba básica",
      "EUfr": "Bombe splash",
      "EUit": "Bomba splash",
      "EUnl": "Klodderbom",
      "EUru": "Брызгающая бомба",
      "JPja": "スプラッシュボム",
      "KRko": "스플래시 밤",
      "TWzh": "斯普拉炸彈",
      "USen": "Splat Bomb",
      "USes": "Plasbomba",
      "USfr": "Bombe splash"
    }
  },
  {
    "label": "Bomb_Splash_Sdodr_Rival",
    "locale": {
      "CNzh": "-",
      "EUde": "-",
      "EUen": "-",
      "EUes": "-",
      "EUfr": "-",
      "EUit": "-",
      "EUnl": "-",
      "EUru": "-",
      "JPja": "-",
      "KRko": "-",
      "TWzh": "-",
      "USen": "-",
      "USes": "-",
      "USfr": "-"
    }
  },
  {
    "label": "Bomb_Suction",
    "locale": {
      "CNzh": "吸盘炸弹",
      "EUde": "Haftbombe",
      "EUen": "Suction Bomb",
      "EUes": "Bomba ventosa",
      "EUfr": "Bombe gluante",
      "EUit": "Appiccibomba",
      "EUnl": "Kleefbom",
      "EUru": "Бомба на присоске",
      "JPja": "キューバンボム",
      "KRko": "빨판 밤",
      "TWzh": "吸盤炸彈",
      "USen": "Suction Bomb",
      "USes": "Bomba pegajosa",
      "USfr": "Bombe gluante"
    }
  },
  {
    "label": "Bomb_Suction_Sdodr",
    "locale": {
      "CNzh": "吸盘炸弹",
      "EUde": "Haftbombe",
      "EUen": "Suction Bomb",
      "EUes": "Bomba ventosa",
      "EUfr": "Bombe gluante",
      "EUit": "Appiccibomba",
      "EUnl": "Kleefbom",
      "EUru": "Бомба на присоске",
      "JPja": "キューバンボム",
      "KRko": "빨판 밤",
      "TWzh": "吸盤炸彈",
      "USen": "Suction Bomb",
      "USes": "Bomba pegajosa",
      "USfr": "Bombe gluante"
    }
  },
  {
    "label": "Bomb_Torpedo",
    "locale": {
      "CNzh": "鱼雷",
      "EUde": "Torpedo",
      "EUen": "Torpedo",
      "EUes": "Torpedo",
      "EUfr": "Bentorpille",
      "EUit": "Torpedinatore",
      "EUnl": "Torpedobom",
      "EUru": "Торпедная бомба",
      "JPja": "トーピード",
      "KRko": "토피도",
      "TWzh": "魚雷",
      "USen": "Torpedo",
      "USes": "Torpedo",
      "USfr": "Bentorpille"
    }
  },
  {
    "label": "LineMarker",
    "locale": {
      "CNzh": "标线器",
      "EUde": "Winkelmarker",
      "EUen": "Angle Shooter",
      "EUes": "Tiralíneas",
      "EUfr": "Ricocheur",
      "EUit": "Sparalinee",
      "EUnl": "Ketskogel",
      "EUru": "Углострел",
      "JPja": "ラインマーカー",
      "KRko": "라인 마커",
      "TWzh": "標線器",
      "USen": "Angle Shooter",
      "USes": "Dardo resaltador",
      "USfr": "Ricocheur"
    }
  },
  {
    "label": "PointSensor",
    "locale": {
      "CNzh": "定点侦测器",
      "EUde": "Detektor",
      "EUen": "Point Sensor",
      "EUes": "Rastreador",
      "EUfr": "Détecteur",
      "EUit": "Cimice",
      "EUnl": "Detector",
      "EUru": "Маркер движения",
      "JPja": "ポイントセンサー",
      "KRko": "포인트 센서",
      "TWzh": "定點偵測器",
      "USen": "Point Sensor",
      "USes": "Rastreador",
      "USfr": "Détecteur"
    }
  },
  {
    "label": "PoisonMist",
    "locale": {
      "CNzh": "毒雾",
      "EUde": "Sepitox-Nebel",
      "EUen": "Toxic Mist",
      "EUes": "Nebulizador",
      "EUfr": "Brume toxique",
      "EUit": "Nebbia tossica",
      "EUnl": "Gifmist",
      "EUru": "Едкий туман",
      "JPja": "ポイズンミスト",
      "KRko": "포이즌 미스트",
      "TWzh": "毒霧",
      "USen": "Toxic Mist",
      "USes": "Nebulizador",
      "USfr": "Brume toxique"
    }
  },
  {
    "label": "PoisonMist_Sdodr",
    "locale": {
      "CNzh": "毒雾",
      "EUde": "Sepitox-Nebel",
      "EUen": "Toxic Mist",
      "EUes": "Nebulizador",
      "EUfr": "Brume toxique",
      "EUit": "Nebbia tossica",
      "EUnl": "Gifmist",
      "EUru": "Едкий туман",
      "JPja": "ポイズンミスト",
      "KRko": "포이즌 미스트",
      "TWzh": "毒霧",
      "USen": "Toxic Mist",
      "USes": "Nebulizador",
      "USfr": "Brume toxique"
    }
  },
  {
    "label": "SalmonBuddy",
    "locale": {
      "CNzh": "小鲑鱼",
      "EUde": "Salmini",
      "EUen": "Smallfry",
      "EUes": "Cenutrín",
      "EUfr": "Salmioche",
      "EUit": "Salmonello",
      "EUnl": "Salmini",
      "EUru": "Малетчик",
      "JPja": "コジャケ",
      "KRko": "꼬마연어",
      "TWzh": "小鮭魚",
      "USen": "Smallfry",
      "USes": "Escamita",
      "USfr": "Salmio"
    }
  },
  {
    "label": "Shield",
    "locale": {
      "CNzh": "斯普拉防护墙",
      "EUde": "Tintenwall",
      "EUen": "Splash Wall",
      "EUes": "Telón de tinta",
      "EUfr": "Mur d'encre",
      "EUit": "Muro di colore",
      "EUnl": "Inktgordijn",
      "EUru": "Чернильный занавес",
      "JPja": "スプラッシュシールド",
      "KRko": "스플래시 실드",
      "TWzh": "斯普拉防護牆",
      "USen": "Splash Wall",
      "USes": "Barricada",
      "USfr": "Mur d'encre"
    }
  },
  {
    "label": "Shield_Sdodr",
    "locale": {
      "CNzh": "斯普拉防护墙",
      "EUde": "Tintenwall",
      "EUen": "Splash Wall",
      "EUes": "Telón de tinta",
      "EUfr": "Mur d'encre",
      "EUit": "Muro di colore",
      "EUnl": "Inktgordijn",
      "EUru": "Чернильный занавес",
      "JPja": "スプラッシュシールド",
      "KRko": "스플래시 실드",
      "TWzh": "斯普拉防護牆",
      "USen": "Splash Wall",
      "USes": "Barricada",
      "USfr": "Mur d'encre"
    }
  },
  {
    "label": "Sprinkler",
    "locale": {
      "CNzh": "洒墨器",
      "EUde": "Sprinkler",
      "EUen": "Sprinkler",
      "EUes": "Aspersor",
      "EUfr": "Fontaine",
      "EUit": "Spruzzatore",
      "EUnl": "Inktsprinkler",
      "EUru": "Распылятор",
      "JPja": "スプリンクラー",
      "KRko": "스프링클러",
      "TWzh": "灑墨器",
      "USen": "Sprinkler",
      "USes": "Aspersor",
      "USfr": "Gicleur"
    }
  },
  {
    "label": "Sprinkler_Sdodr",
    "locale": {
      "CNzh": "洒墨器",
      "EUde": "Sprinkler",
      "EUen": "Sprinkler",
      "EUes": "Aspersor",
      "EUfr": "Fontaine",
      "EUit": "Spruzzatore",
      "EUnl": "Inktsprinkler",
      "EUru": "Распылятор",
      "JPja": "スプリンクラー",
      "KRko": "스프링클러",
      "TWzh": "灑墨器",
      "USen": "Sprinkler",
      "USes": "Aspersor",
      "USfr": "Gicleur"
    }
  },
  {
    "label": "Trap",
    "locale": {
      "CNzh": "墨汁陷阱",
      "EUde": "Tintenmine",
      "EUen": "Ink Mine",
      "EUes": "Bomba trampa",
      "EUfr": "Mine",
      "EUit": "Mina",
      "EUnl": "Inktmijn",
      "EUru": "Мина",
      "JPja": "トラップ",
      "KRko": "트랩",
      "TWzh": "墨汁陷阱",
      "USen": "Ink Mine",
      "USes": "Mina de tinta",
      "USfr": "Mine d'encre"
    }
  },
  {
    "label": "Trap_Sdodr",
    "locale": {
      "CNzh": "墨汁陷阱",
      "EUde": "Tintenmine",
      "EUen": "Ink Mine",
      "EUes": "Bomba trampa",
      "EUfr": "Mine",
      "EUit": "Mina",
      "EUnl": "Inktmijn",
      "EUru": "Мина",
      "JPja": "トラップ",
      "KRko": "트랩",
      "TWzh": "墨汁陷阱",
      "USen": "Ink Mine",
      "USes": "Mina de tinta",
      "USfr": "Mine d'encre"
    }
  }
]