[
  {
    "label": "Blaze",
    "locale": {
      "CNzh": "连射力",
      "EUde": "Feuerrate",
      "EUen": "Fire Rate",
      "EUes": "Cadencia",
      "EUfr": "Cadence",
      "EUit": "Cadenza",
      "EUnl": "Vuursnelheid",
      "EUru": "Темп стрельбы",
      "JPja": "連射力",
      "KRko": "연사력",
      "TWzh": "連射力",
      "USen": "Fire Rate",
      "USes": "Cadencia",
      "USfr": "Cadence"
    }
  },
  {
    "label": "Charge",
    "locale": {
      "CNzh": "蓄力速度",
      "EUde": "Aufladetempo",
      "EUen": "Charge Speed",
      "EUes": "Recarga",
      "EUfr": "Vitesse de charge",
      "EUit": "Ricarica",
      "EUnl": "Oplaadsnelheid",
      "EUru": "Скорость зарядки",
      "JPja": "チャージ速度",
      "KRko": "충전 속도",
      "TWzh": "蓄力速度",
      "USen": "Charge Speed",
      "USes": "Recarga",
      "USfr": "Recharge"
    }
  },
  {
    "label": "Defence",
    "locale": {
      "CNzh": "耐久度",
      "EUde": "Haltbarkeit",
      "EUen": "Durability",
      "EUes": "Durabilidad",
      "EUfr": "Résistance",
      "EUit": "Resistenza",
      "EUnl": "Duurzaamheid",
      "EUru": "Прочность",
      "JPja": "耐久力",
      "KRko": "내구력",
      "TWzh": "耐久度",
      "USen": "Durability",
      "USes": "Durabilidad",
      "USfr": "Résistance"
    }
  },
  {
    "label": "Explosion",
    "locale": {
      "CNzh": "爆发力",
      "EUde": "Explosion",
      "EUen": "Impact",
      "EUes": "Impacto",
      "EUfr": "Explosion",
      "EUit": "Impatto",
      "EUnl": "Impact",
      "EUru": "Радиус взрыва",
      "JPja": "爆発力",
      "KRko": "폭발력",
      "TWzh": "爆發力",
      "USen": "Impact",
      "USes": "Impacto",
      "USfr": "Explosion"
    }
  },
  {
    "label": "Mobility",
    "locale": {
      "CNzh": "机动性",
      "EUde": "Beweglichkeit",
      "EUen": "Mobility",
      "EUes": "Movilidad",
      "EUfr": "Mobilité",
      "EUit": "Praticità",
      "EUnl": "Wendbaarheid",
      "EUru": "Мобильность",
      "JPja": "機動性",
      "KRko": "기동성",
      "TWzh": "機動性",
      "USen": "Mobility",
      "USes": "Movilidad",
      "USfr": "Maniabilité"
    }
  },
  {
    "label": "PaintSpeed",
    "locale": {
      "CNzh": "涂墨前进速度",
      "EUde": "Färbetempo",
      "EUen": "Ink Speed",
      "EUes": "Vel. pintado",
      "EUfr": "Vitesse d'encrage",
      "EUit": "Vel. pittura",
      "EUnl": "Inktsnelheid",
      "EUru": "Темп покраса",
      "JPja": "塗り進み速度",
      "KRko": "색칠 전진 속도",
      "TWzh": "塗墨前進速度",
      "USen": "Ink Speed",
      "USes": "Vel. tinta",
      "USfr": "Vitesse d'encrage"
    }
  },
  {
    "label": "Power",
    "locale": {
      "CNzh": "攻击力",
      "EUde": "Feuerkraft",
      "EUen": "Damage",
      "EUes": "Potencia",
      "EUfr": "Dégâts",
      "EUit": "Potenza",
      "EUnl": "Schade",
      "EUru": "Урон",
      "JPja": "攻撃力",
      "KRko": "공격력",
      "TWzh": "攻擊力",
      "USen": "Damage",
      "USes": "Daño",
      "USfr": "Dégâts"
    }
  },
  {
    "label": "Range",
    "locale": {
      "CNzh": "射程",
      "EUde": "Reichweite",
      "EUen": "Range",
      "EUes": "Alcance",
      "EUfr": "Portée",
      "EUit": "Gittata",
      "EUnl": "Bereik",
      "EUru": "Дальнобойность",
      "JPja": "射程",
      "KRko": "사정거리",
      "TWzh": "射程",
      "USen": "Range",
      "USes": "Alcance",
      "USfr": "Portée"
    }
  },
  {
    "label": "Weight",
    "locale": {
      "CNzh": "轻巧度",
      "EUde": "Leichtheit",
      "EUen": "Handling",
      "EUes": "Ligereza",
      "EUfr": "Légèreté",
      "EUit": "Leggerezza",
      "EUnl": "Draagbaarheid",
      "EUru": "Маневренность",
      "JPja": "軽さ",
      "KRko": "가벼움",
      "TWzh": "輕巧度",
      "USen": "Handling",
      "USes": "Ligereza",
      "USfr": "Légèreté"
    }
  }
]