[
  {
    "label": "ShooterLv2_00",
    "text": "ヒーローシューター強化"
  },
  {
    "label": "ShooterLv2_01",
    "text": "ヒーローシューターの連射速度が上がります。"
  },
  {
    "label": "ShooterLv3_00",
    "text": "ヒーローシューター強化"
  },
  {
    "label": "ShooterLv3_01",
    "text": "ヒーローシューターの連射速度がさらに上がります。"
  },
  {
    "label": "SpecialIncreaseUpLv2_00",
    "text": "スペシャル増加量アップ"
  },
  {
    "label": "SpecialIncreaseUpLv2_01",
    "text": "スペシャルゲージの増加量がアップします。"
  },
  {
    "label": "SpecialIncreaseUpLv3_00",
    "text": "スペシャル増加量アップ"
  },
  {
    "label": "SpecialIncreaseUpLv3_01",
    "text": "スペシャルゲージの増加量がさらにアップします。"
  },
  {
    "label": "MarkerLv2_00",
    "text": "センサー追加"
  },
  {
    "label": "MarkerLv2_01",
    "text": "インクの中にセンプクすると、敵やアイテムなどの\n近くにある重要なものをマーキングできるようになります。"
  },
  {
    "label": "MarkerLv3_00",
    "text": "センサー強化"
  },
  {
    "label": "MarkerLv3_01",
    "text": "ヒト状態でも、重要なものをマーキングできるようになります。\nセンプクすると少し離れたものまでマーキングできます。"
  },
  {
    "label": "ArmorRecoeverTime_SaveLv2_00",
    "text": "スーツ回復力アップ"
  },
  {
    "label": "ArmorRecoeverTime_SaveLv2_01",
    "text": "敵のインクで壊れたスーツの回復速度が上がります。"
  },
  {
    "label": "ArmorRecoeverTime_SaveLv3_00",
    "text": "スーツ回復力アップ"
  },
  {
    "label": "ArmorRecoeverTime_SaveLv3_01",
    "text": "敵のインクで壊れたスーツの回復速度がさらに上がります。"
  },
  {
    "label": "InkTankCapacityLv2_00",
    "text": "インクタンク容量アップ"
  },
  {
    "label": "InkTankCapacityLv2_01",
    "text": "インクタンクの容量が増えます。"
  },
  {
    "label": "InkTankCapacityLv3_00",
    "text": "インクタンク容量アップ"
  },
  {
    "label": "InkTankCapacityLv3_01",
    "text": "インクタンクの容量がさらに増えます。"
  },
  {
    "label": "OpInkEffect_ReductionLv2_00",
    "text": "敵インク影響軽減"
  },
  {
    "label": "OpInkEffect_ReductionLv2_01",
    "text": "敵のインクをふんだ時の移動速度の減少量が\n少なくなります。"
  },
  {
    "label": "OpInkEffect_ReductionLv3_00",
    "text": "敵インク影響軽減"
  },
  {
    "label": "OpInkEffect_ReductionLv3_01",
    "text": "敵のインクをふんだ時の移動速度の減少量が\nより少なくなります。"
  },
  {
    "label": "SquidMoveSpatter_ReductionLv2_00",
    "text": "イカニンジャ"
  },
  {
    "label": "SquidMoveSpatter_ReductionLv2_01",
    "text": "地面をイカダッシュした時にインクが飛び散らなくなります。"
  },
  {
    "label": "SalmonHPUpLv2_00",
    "text": "コジャケ体力アップ"
  },
  {
    "label": "SalmonHPUpLv2_01",
    "text": "コジャケの耐久力が上がります。"
  },
  {
    "label": "SalmonRespawnTimeSaveLv2_00",
    "text": "コジャケ復活時間短縮"
  },
  {
    "label": "SalmonRespawnTimeSaveLv2_01",
    "text": "コジャケの復活時間が短くなります。"
  },
  {
    "label": "SalmonInkSaveLv2_00",
    "text": "コジャケインク効率アップ"
  },
  {
    "label": "SalmonInkSaveLv2_01",
    "text": "コジャケ投げの消費インク量が少なくなります。"
  },
  {
    "label": "SalmonAttackUpLv2_00",
    "text": "コジャケ攻撃力アップ"
  },
  {
    "label": "SalmonAttackUpLv2_01",
    "text": "コジャケが敵にあたえるダメージが大きくなります。"
  },
  {
    "label": "SubWeapon1Lv2_00",
    "text": "スプラッシュボム追加"
  },
  {
    "label": "SubWeapon1Lv2_01",
    "text": "着地してしばらくすると、爆発するボムです。"
  },
  {
    "label": "SubWeapon1Lv3_00",
    "text": "スプラッシュボム強化"
  },
  {
    "label": "SubWeapon1Lv3_01",
    "text": "スプラッシュボムの消費インク量が少なくなります。"
  },
  {
    "label": "SubWeapon2Lv2_00",
    "text": "カーリングボム追加"
  },
  {
    "label": "SubWeapon2Lv2_01",
    "text": "地面を塗りながら進んだあと、爆発するボムです。"
  },
  {
    "label": "SubWeapon2Lv3_00",
    "text": "カーリングボム強化"
  },
  {
    "label": "SubWeapon2Lv3_01",
    "text": "カーリングボムの消費インク量が少なくなります。"
  },
  {
    "label": "SubWeapon3Lv2_00",
    "text": "クイックボム追加"
  },
  {
    "label": "SubWeapon3Lv2_01",
    "text": "何かにぶつかると、すぐに爆発するボムです。"
  },
  {
    "label": "SubWeapon3Lv3_00",
    "text": "クイックボム強化"
  },
  {
    "label": "SubWeapon3Lv3_01",
    "text": "クイックボムの消費インク量が少なくなります。"
  }
]