[
  {
    "label": "Progress_01",
    "text": "「未知の場所は 気をつけて進むんだ」\nと、司令は言っとるよ"
  },
  {
    "label": "Progress_04",
    "text": "「今回の件も タコワサ将軍のしわざなのだろうか…」\nと、司令は言っとるよ"
  },
  {
    "label": "Progress_07",
    "text": "司令が無口なのは シャイなだけやし、気にせんといて"
  },
  {
    "label": "Progress_08",
    "text": "司令は{{string value=\"5\"}}………{{fun_000F_0004 arg=\"0x0500\"}} なんも言っとらんよ"
  },
  {
    "label": "Progress_10",
    "text": "「すりみ連合… 一体何が目的なんだ」\nと、司令は言っとるよ"
  },
  {
    "label": "Progress_13",
    "text": "「New!カラストンビ部隊も にぎやかになった」\nと、司令は言っとるよ"
  },
  {
    "label": "Progress_16",
    "text": "「イメチェンしても しょせんタコに毛が生えた程度だ」\nと、司令は言っとるよ"
  },
  {
    "label": "Progress_19",
    "text": "「オタカラか… 何かに使えるかもしれない」\nと、司令は言っとるよ"
  },
  {
    "label": "Progress_22",
    "text": "「アタリメ元司令… 無事でいてくれ」\nと、司令は言っとるよ"
  },
  {
    "label": "Progress_25",
    "text": "「２号サンのために カフェオレを入れよう」\nと、司令は言っとるよ …ウソだけど"
  },
  {
    "label": "Progress_28",
    "text": "「迷ったときは思い切って つっこむのもアリだ」\nと、司令は言っとるけど… ムチャせんようにね"
  },
  {
    "label": "Progress_31",
    "text": "「敗北と共に成長がある、あきらめずにチャレンジしよう」\nと、司令は言っとるよ"
  },
  {
    "label": "Progress_34",
    "text": "「このぼうしは アタリメ元司令から受けついだ物だ」\nと、司令は言っとるよ"
  },
  {
    "label": "Progress_37",
    "text": "「あのロケット… イヤな予感がする」\nと、司令は言っとるよ"
  },
  {
    "label": "Progress_40",
    "text": "「戦いに備えて そうびは万全にしておこう」\nと、司令は言っとるよ"
  },
  {
    "label": "Progress_43",
    "text": "司令…… 寝とる？"
  },
  {
    "label": "Progress_45",
    "text": "「マップを見れば 新たな発見があるかもしれない」\nと、司令は言っとるよ …無いかもしれんけど"
  },
  {
    "label": "Progress_48",
    "text": "あ、司令 何かしゃべった？\n気づかんかった、メンゴね～"
  },
  {
    "label": "Progress_50",
    "text": "「究極の戦場の鉄則、それは… 戦わずして勝つ！」\nと、司令は言っとるよ"
  },
  {
    "label": "Progress_53",
    "text": "ついに３号も司令の声、聞こえるようになった？"
  },
  {
    "label": "Progress_54",
    "text": "「準備ができたら {{color id=\"1\"}}オタカラ{{color id=\"65535\"}}のところへ行くんだ」\nと、司令は言っとるよ"
  },
  {
    "label": "Bored_01",
    "text": "「カベの後ろで深呼吸… 戦場の鉄則！」\nと、司令は言っとるよ"
  },
  {
    "label": "Bored_03",
    "text": "「初めて見る敵は 出方をうかがう… 戦場の鉄則！」\nと、司令は言っとるよ"
  },
  {
    "label": "Bored_07",
    "text": "「戦うなら広いトコ… 戦場の鉄則！」\nと、司令は言っとるよ"
  },
  {
    "label": "Bored_09",
    "text": "「{{icon id=\"8\" arg=\"0xCDCC4C3F00000000\"}}かたむけ 左右を見回す… 戦場の鉄則！」\nと、司令は言っとるよ"
  },
  {
    "label": "Bored_11",
    "text": "「カベにもぐって{{icon id=\"1\" arg=\"0x0000803F00000000\"}}長押しで イカノボリ… 戦場の鉄則！」\nと、司令は言っとるよ"
  },
  {
    "label": "Bored_13",
    "text": "「撃って撃って撃ちまくれ… 戦場の鉄則！」\nと、司令は言っとるよ"
  },
  {
    "label": "Bored_15",
    "text": "「カユいところにはサブウェポン… 戦場の鉄則！」\nと、司令は言っとるよ"
  },
  {
    "label": "Bored_17",
    "text": "「見えないトコの ボム注意… 戦場の鉄則！」\nと、司令は言っとるよ"
  },
  {
    "label": "Bored_19",
    "text": "「押してダメなら退いてみよ… 戦場の鉄則！」\nと、司令は言っとるよ"
  },
  {
    "label": "Bored_21",
    "text": "「安全なトコから ねらいを付ける… 戦場の鉄則！」\nと、司令は言っとるよ"
  },
  {
    "label": "Bored_23",
    "text": "「登る先 指さし確認して登る… 戦場の鉄則！」\nと、司令は言っとるよ"
  },
  {
    "label": "Bored_25",
    "text": "「退路は常に意識する… 戦場の鉄則！」\nと、司令は言っとるよ"
  },
  {
    "label": "Bored_27",
    "text": "「右見て 左見て もっかい右見る… 戦場の鉄則！」\nと、司令は言っとるよ"
  },
  {
    "label": "Bored_29",
    "text": "「いざとなったら スーパーチャクチ… 戦場の鉄則！」\nと、司令は言っとるよ"
  },
  {
    "label": "LaunchPad_00",
    "text": "「案外たよれる仲間になるかも… イテテ」\nって、{{delay frames=\"15\"}}とりま司令は休んどいて"
  }
]