[
  {
    "label": "Weapon_Welcome_00",
    "text": "Hé, ben, salut ! Qu'est-ce\nque ze peux faire pour toi ?"
  },
  {
    "label": "Weapon_WelcomeS",
    "text": "Salut salut !"
  },
  {
    "label": "Weapon_First_00",
    "text": "Ben, salut ! Ze sais : tu veux acheter\ndes armes ! Zustement, z'ai tout ce\nqu'il te faut !{{pageBreak}}Nos armes, c'est du 3 en 1 :\ny a la {{color id=\"1\"}}principale{{color id=\"65535\"}} sur {{icon id=\"12\" arg=\"0x0000803F00000000\"}},\nla {{color id=\"1\"}}secondaire{{color id=\"65535\"}} sur {{icon id=\"10\" arg=\"0x0000803F00000000\"}} et\nbien sûr, la {{color id=\"1\"}}spéciale{{color id=\"65535\"}} !{{pageBreak}}T'inquiète, c'est pas compliqué !\nTu peux même essayer avant\nd'acheter en appuyant sur {{icon id=\"3\" arg=\"0x0000803F00000000\"}}."
  },
  {
    "label": "Weapon_First_01",
    "text": "Tu n'ignores pas que pour obtenir\nde nouvelles armes chez moi, il te\nfaut des {{color id=\"1\"}}brevets Cartouche {{color id=\"65535\"}}{{icon id=\"28\" arg=\"0x295C4F3F00000000\"}}\nen bonne et due forme, z'espère ?"
  },
  {
    "label": "Weapon_EndCloseUp_00",
    "text": "On reçoit des brevets Cartouche {{icon id=\"28\" arg=\"0x295C4F3F00000000\"}}\nen participant à des matchs et en\npassant au niveau supérieur... ou en\nutilisant une même arme nuit et zour\npour la maîtriser à fond !"
  },
  {
    "label": "Weapon_FirstWithSaveTransfer_00",
    "text": "Ben, salut ! Ze sais : tu veux\nacheter des armes ! Zustement,\nz'ai tout ce qu'il te faut !{{pageBreak}}Minute papillon, qu'est-ce que\nc'est que ça ?! Z'ignorais que tu\ncollectionnais les armes vintaze !\nC'est fascinant, mais il te faudra du\nmoderne dans la Contrée Clabousse."
  },
  {
    "label": "Weapon_FirstWithSaveTransfer_01",
    "text": "Bien entendu, tu sais que pour sortir\nd'ici avec une arme rutilante, tu dois\nme fournir le {{color id=\"1\"}}brevet Cartouche {{color id=\"65535\"}}{{icon id=\"28\" arg=\"0x295C4F3F00000000\"}}\ncorrespondant, n'est-ce pas ?"
  },
  {
    "label": "Weapon_EndCloseUpWithSaveTransfer_00",
    "text": "On reçoit des brevets Cartouche {{icon id=\"28\" arg=\"0x295C4F3F00000000\"}}\nen participant à des matchs et en\npassant au niveau supérieur... ou en\nutilisant une même arme nuit et zour\npour la maîtriser à fond !{{pageBreak}}Oh, stupéfaction ! Z'ignorais que\ntu avais dézà au moins un {{color id=\"1\"}}brevet\nCartouche Or{{color id=\"65535\"}} {{icon id=\"29\" arg=\"0x295C4F3F00000000\"}} en ta possession !\nZ'en frétille de zoie !{{pageBreak}}Eh ben dans ce cas, z'ai le plaisir\nde t'informer que tu vas avoir accès\nà une sélection plus larze encore\nque la sélection standard, et ce\nimmédiatement. Félicitations !"
  },
  {
    "label": "Weapon_Offline_00",
    "text": "Tiens ben, salut ! Hmm, on dirait\nque t'es pas vraiment en ligne...\nConnecte-toi à {{color id=\"1\"}}Internet{{color id=\"65535\"}} et repasse\nme voir. Pour te connecter, c'est\ndans le {{color id=\"1\"}}hall {{color id=\"65535\"}}que ça se passe !"
  },
  {
    "label": "Weapon_RankShortage_00",
    "text": "Ah ben, salut ! Dis donc, me dis pas\nque c'est tout ce que tu as comme\narme...{{pageBreak}}C'est pas la grande classe,\ntout ça !{{pageBreak}}Z'aimerais bien t'aider, mais ze\npeux pas te laisser manipuler mon\nmatériel avec ton niveau 1 riquiqui !{{pageBreak}}Pas moyen. Si t'étais {{color id=\"1\"}}niveau 2{{color id=\"65535\"}}, à la\nrigueur...{{pageBreak}}Va donc livrer quelques {{color id=\"1\"}}matchs\nclassiques{{color id=\"65535\"}} du côté du {{color id=\"1\"}}hall{{color id=\"65535\"}}, et\nrepasse me voir après, OK ?"
  },
  {
    "label": "Weapon_License_00",
    "text": "Hm... à en zuzer par ton {{color id=\"1\"}}niveau{{color id=\"65535\"}}\nactuel, cette arme est lézèrement\ntrop corsée pour toi. Mais peut-être\ny a-t-il un moyen d'y remédier...{{pageBreak}}Ze te propose un marché :\nze te la cède si tu peux m'en\noffrir {{color id=\"1\"}}trois{{color id=\"65535\"}} brevets Cartouche {{icon id=\"28\" arg=\"0x295C4F3F00000000\"}},\nlà, tout de suite !"
  },
  {
    "label": "Weapon_GoldLicense_00",
    "text": "Hm... à en zuzer par ton {{color id=\"1\"}}niveau{{color id=\"65535\"}}\nactuel, cette arme est lézèrement\ntrop corsée pour toi. Mais peut-être\ny a-t-il un moyen d'y remédier...{{pageBreak}}Ze te propose un marché :\nze te la cède si tu peux m'en\noffrir {{color id=\"1\"}}un{{color id=\"65535\"}} brevet Cartouche Or {{icon id=\"29\" arg=\"0x295C4F3F00000000\"}},\nlà, tout de suite !"
  },
  {
    "label": "Weapon_GoldLicenseConfirm_00",
    "text": "Oh, quel dommaze, tu ne possèdes\nactuellement aucun brevet\nCartouche {{icon id=\"28\" arg=\"0x295C4F3F00000000\"}}... Tu as bien {{color id=\"1\"}}un{{color id=\"65535\"}}\nbrevet Cartouche Or {{icon id=\"29\" arg=\"0x295C4F3F00000000\"}}, mais...{{pageBreak}}... ce serait du gâchis, à mon humble\navis. Tu veux vraiment utiliser ton\nbrevet Cartouche Or {{icon id=\"29\" arg=\"0x295C4F3F00000000\"}} pour cette\ntransaction ?"
  },
  {
    "label": "Weapon_LowRankS",
    "text": "Coût : 1 {{icon id=\"28\" arg=\"0x0000803F00000000\"}} au Niv. {{number index=\"0\" type=\"2\" arg3=\"0\" arg4=\"0\"}}"
  },
  {
    "label": "Weapon_BuyS",
    "text": "On échanze ?"
  },
  {
    "label": "Weapon_BuyGoldS",
    "text": "On échanze ?"
  },
  {
    "label": "Weapon_ShootingRangeS",
    "text": "Tu veux l'essayer ?"
  },
  {
    "label": "Weapon_EquipS",
    "text": "Tu t'en équipes ?"
  },
  {
    "label": "Weapon_LicenseShortage_00",
    "text": "Désolé, mais tu n'as pas ce qu'il faut\nen matière de brevets. Le zour où ze\nbraderai ma chère marchandise n'est\npas encore venu !"
  },
  {
    "label": "Weapon_SoldOut_00",
    "text": "C'est zentil de vouloir faire un zeste\npour moi, mais t'as pas besoin de me\nracheter ce que tu as dézà !"
  },
  {
    "label": "Weapon_ThankYou_00",
    "text": "Ben merci bien ! Oublie pas, si tu\nveux équiper une autre arme, c'est\ndans le menu de {{color id=\"1\"}}personnalisation{{color id=\"65535\"}} {{icon id=\"5\" arg=\"0x0000803F00000000\"}}\nque ça se passe !"
  },
  {
    "label": "Weapon_ThankYouGoldLicense_00",
    "text": "Ben merci bien ! Oublie pas, si tu\nveux équiper une autre arme, c'est\ndans le menu de {{color id=\"1\"}}personnalisation{{color id=\"65535\"}} {{icon id=\"5\" arg=\"0x0000803F00000000\"}}\nque ça se passe !{{pageBreak}}Tu aimerais savoir combien de brevets\nCartouche Or {{icon id=\"29\" arg=\"0x295C4F3F00000000\"}} tu as encore... ?\nUn petit instant, ze vérifie... Ah !\nIl t'en reste exactement {{color id=\"1\"}}{{number index=\"0\" type=\"1\" arg3=\"0\" arg4=\"0\"}}{{color id=\"65535\"}}."
  },
  {
    "label": "Weapon_ThankYouLastGoldLicense_00",
    "text": "Ben merci bien ! Oublie pas, si tu\nveux équiper une autre arme, c'est\ndans le menu de {{color id=\"1\"}}personnalisation{{color id=\"65535\"}} {{icon id=\"5\" arg=\"0x0000803F00000000\"}}\nque ça se passe !{{pageBreak}}Ze me permets aussi de t'informer\nque tu viens d'utiliser ton dernier\nbrevet Cartouche Or {{icon id=\"29\" arg=\"0x295C4F3F00000000\"}} !"
  },
  {
    "label": "Weapon_UnlockA_00",
    "text": "Z'ai le plaisir de t'annoncer que\nz'ai de nouveaux articles en magasin.\nZette donc un œil à la sélection !"
  },
  {
    "label": "Weapon_UnlockA_01",
    "text": "Z'ai la zoie de t'annoncer que\ntu peux désormais manier\nmon {{color id=\"1\"}}{{string value=\"WeaponName\" arg1=\"0\" arg3=\"0\"}}{{color id=\"65535\"}}\nsi le cœur t'en dit !"
  },
  {
    "label": "Weapon_UnlockB_00",
    "text": "Et c'est pas fini !\nZe peux aussi te confier\nmon {{color id=\"1\"}}{{string value=\"WeaponName\" arg1=\"0\" arg3=\"0\"}}{{color id=\"65535\"}}\nd'amour."
  },
  {
    "label": "Weapon_Complete_00",
    "text": "Ouah ! Tu as fait main basse sur\ntoutes les armes que ze propose à\nla vente. Quelle zoie d'avoir rencontré\nquelqu'un qui rend aux pétoires tout\nl'amour qu'elles nous donnent !{{pageBreak}}Pour peu que tu aies aussi un ou\ndeux brevets Cartouche {{icon id=\"28\" arg=\"0x295C4F3F00000000\"}} en rab,\ntu peux les échanzer contre des\n{{color id=\"1\"}}zetons {{color id=\"65535\"}}{{icon id=\"34\" arg=\"0xE17A943F00000000\"}} au Capsulomate,\ndans le {{color id=\"1\"}}hall{{color id=\"65535\"}}."
  },
  {
    "label": "Head_Welcome_00",
    "text": "Tiens...\nBienvenue aux Eaux-de-forme."
  },
  {
    "label": "Head_WelcomeS",
    "text": "Fais comme chez toi !"
  },
  {
    "label": "Head_WelcomeRank04_00",
    "text": "Tiens...\nBienvenue aux Eaux-de-forme.\nDis donc, tu manques pas de classe."
  },
  {
    "label": "Head_ExpFirst_00",
    "text": "Alors en fait, euh... On vend des\ntrucs à se visser sur le crâne. Par\nexemple des chapeaux, et d'autres\ntrucs du même genre.{{pageBreak}}Mais, euh... c'est pas juste pour se\ncouvrir le chef ! Argh, j'oublie tout\nle temps ce passage ! En fait, il y a\ndes {{color id=\"1\"}}bonus d'équipement{{color id=\"65535\"}} avec.{{pageBreak}}Lesquels sont bien pratiques en\nmatch. Enfin, je crois, j'y connais pas\ngrand-chose en fait. Je bosse ici,\nmais c'est tout. Tu devrais sûrement\nappuyer sur {{icon id=\"11\" arg=\"0x0000803F00000000\"}} à l'occasion."
  },
  {
    "label": "Head_ExpFirstS",
    "text": "Jette un œil !"
  },
  {
    "label": "Head_WelcomeRank10_00",
    "text": "Tiens...\nBienvenue aux Eaux-de-forme.{{pageBreak}}Tu m'as l'air encore plus classe que\nla dernière fois. Et qui dit clientèle\nplus classe dit articles en vente plus\nclasses aussi. Pas vrai, patron ?"
  },
  {
    "label": "Head_WelcomeRank10S",
    "text": "Je veux !"
  },
  {
    "label": "Head_WelcomeRank20_00",
    "text": "Tiens...\nBienvenue aux Eaux-de-forme.{{pageBreak}}Eh ben, t'es la classe incarnée !\nEuh... Je suis pas un cador du\ncommerce, alors je sais pas trop\ncomment le dire, mais... Je suis fier\nde te compter parmi nos clients !"
  },
  {
    "label": "Head_WelcomeRank20S",
    "text": "T'es notre VIP !"
  },
  {
    "label": "Head_WelcomeRank30_00",
    "text": "Tiens...\nBienvenue aux Eaux-de-forme.{{pageBreak}}Oh, misère ! J'ai jamais vu quelqu'un\nd'aussi classe que toi. T'es presque\ntrop classe pour nous. Tu te trompes\npas de boutique, par hasard ?"
  },
  {
    "label": "Head_WelcomeRank30S",
    "text": "Mais dis pas ça !"
  },
  {
    "label": "Head_Offline_00",
    "text": "Tiens...\nBienvenue aux Eaux-de-forme...{{pageBreak}}Oh, la poisse. T'es hors ligne, là.\nJe voudrais pas avoir l'air de te\ncommander, mais tu pourrais aller\ndans le {{color id=\"1\"}}hall{{color id=\"65535\"}} te connecter à {{color id=\"1\"}}Internet{{color id=\"65535\"}},\net revenir me voir ensuite ?"
  },
  {
    "label": "Head_OfflineS",
    "text": "Oui, repasse !"
  },
  {
    "label": "Head_RankShortage_00",
    "text": "Tiens, salut.{{pageBreak}}Euh... C'est un peu délicat à balancer\nde but en blanc, mais t'es pas assez\nclasse pour nos articles. Désolé, mais\nles règles sont claires : si t'es pas\nau moins {{color id=\"1\"}}niveau 4{{color id=\"65535\"}}, bas les pattes.{{pageBreak}}Ceci dit, c'est pas une fatalité. Fonce\ndans le {{color id=\"1\"}}hall {{color id=\"65535\"}}pour t'essayer un peu à\nla{{color id=\"1\"}} guerre de territoire{{color id=\"65535\"}}, et la classe\nviendra toute seule."
  },
  {
    "label": "Head_RankShortageS",
    "text": "Bons matchs !"
  },
  {
    "label": "Head_BuyS",
    "text": "Alors, t'achètes ?"
  },
  {
    "label": "Head_EquipS",
    "text": "À porter tout de suite ?"
  },
  {
    "label": "Head_MoneyShortage_00",
    "text": "Euh... T'as pas assez."
  },
  {
    "label": "Head_MoneyShortageS",
    "text": "La classe, ça casque !"
  },
  {
    "label": "Head_RarityMax_00",
    "text": "Euh... Cette pièce d'équipement\ndispose déjà du nombre maximal\nd'étoiles. Désolé, la maison fait\npas de miracles."
  },
  {
    "label": "Head_RarityMaxS",
    "text": "T'es déjà au top !"
  },
  {
    "label": "Head_BasicSkillSame_00",
    "text": "Euh... Je suis pas sûr de savoir\noù tu veux en venir... Ces deux\narticles ont exactement les mêmes\nbonus principaux..."
  },
  {
    "label": "Head_BasicSkillSameS",
    "text": "Fais pas ça !"
  },
  {
    "label": "Head_SoldOut_00",
    "text": "Ouah... On est carrément en rupture\nde stock, là."
  },
  {
    "label": "Head_SoldOutS",
    "text": "On fait un carton !"
  },
  {
    "label": "Head_SoldOtherHome_00",
    "text": "Oh... En fait, on n'en a plus..."
  },
  {
    "label": "Head_SoldOtherHomeS",
    "text": "Désolé !"
  },
  {
    "label": "Head_ExpRarityUpAndReplace_00",
    "text": "Tiens... il y a un truc compliqué\ndont je suis censé te toucher un mot,\nalors allons-y gaiement. Euh...{{pageBreak}}Il se trouve qu'on vend un article\ndont t'as déjà un exemplaire. Du coup,\ntu peux {{color id=\"1\"}}augmenter le nombre\nd'étoiles{{color id=\"65535\"}} de celui que tu possèdes.{{pageBreak}}Ou alors, tu peux {{color id=\"1\"}}échanger le tien{{color id=\"65535\"}}\ncontre le même, mais en un peu\ndifférent. Comme si tu faisais un\nreboot de ses bonus, en gros. Ah ben\nc'était pas si compliqué, en fait."
  },
  {
    "label": "Head_RarityUp_00",
    "text": "Euh... T'as déjà cet article. Tu veux\nen {{color id=\"1\"}}augmenter le nombre d'étoiles{{color id=\"65535\"}}\nou tu préfères {{color id=\"1\"}}faire un échange{{color id=\"65535\"}} ?"
  },
  {
    "label": "Head_ReplaceConfirm_00",
    "text": "Du coup, les {{color id=\"1\"}}bonus additionnels{{color id=\"65535\"}} et le\n{{color id=\"1\"}}nombre d'étoiles{{color id=\"65535\"}} de cet objet seront\nréinitialisés. Tu confirmes ?"
  },
  {
    "label": "Head_ThankYou_00",
    "text": "OK... J'espère que ça te convient. Si\ntu veux changer d'équipement, c'est\ndans le menu de {{color id=\"1\"}}personnalisation{{color id=\"65535\"}} {{icon id=\"5\" arg=\"0x0000803F00000000\"}}\nque ça se passe."
  },
  {
    "label": "Head_ThankYouS",
    "text": "Avec nos remerciements !"
  },
  {
    "label": "Head_ThanksBadgeA_00",
    "text": "Euh... Est-ce que t'aurais\nun moment, par hasard ?{{pageBreak}}T'inquiète pas, c'est juste que...\nt'es dans le haut du panier, niveau\nclientèle, et on voudrait... t'exprimer\nnotre gratitude, tu vois.{{pageBreak}}Alors voilà un {{color id=\"1\"}}badge {{color id=\"65535\"}}spécial pour en\nmettre plein la vue à tout le monde.\nC'est pas grand-chose, mais ça nous\nferait plaisir que tu le portes... Enfin,\nc'est toi qui décides !"
  },
  {
    "label": "Head_ThanksBadgeAS",
    "text": "Arbore-le fièrement !"
  },
  {
    "label": "Head_ThanksBadgeB_00",
    "text": "Tiens, euh... Désolé de te déranger\nencore avec ces histoires, mais...\ntu fais vraiment partie de nos\nmeilleurs clients, tu sais.{{pageBreak}}En fait, il faudrait créer une\ncatégorie de meilleurs meilleurs\nclients rien que pour toi. Mais c'est\nun peu compliqué, alors à la place, on\nt'offre ce nouveau {{color id=\"1\"}}badge{{color id=\"65535\"}} unique.{{pageBreak}}Ça nous ferait chaud au cœur que\ntu te montres avec de temps en\ntemps... Enfin, tu fais comme\ntu le sens, c'est ton badge."
  },
  {
    "label": "Head_ThanksBadgeBS",
    "text": "T'es au top !"
  },
  {
    "label": "Clothes_Welcome_00",
    "text": "Ah, te voilà. Fort bien."
  },
  {
    "label": "Clothes_WelcomeS",
    "text": "Ah, te voilà. Fort bien."
  },
  {
    "label": "Clothes_WelcomeRank04_00",
    "text": "Ah, te voilà. Fort bien.\nBienvenue au Vestarium.{{pageBreak}}Tu possèdes la classe et l'élégance,\ntu as donc l'autorisation de faire des\nachats ici. Mais attention ! Ici, on\nrespecte les articles. Les mimines\ncradingues, c'est ouste, dehors !"
  },
  {
    "label": "Clothes_ExpFirst_00",
    "text": "Tu connais les {{color id=\"1\"}}bonus d'équipement{{color id=\"65535\"}},\nje me permets de présumer ? C'est\ntrès pratique pour gagner.{{pageBreak}}Tu souhaites accéder à mon niveau\nélevé de connaissances ? C'est\npossible ! Il te suffit d'appuyer\nsur {{icon id=\"11\" arg=\"0x0000803F00000000\"}} et de me prêter l'oreille !"
  },
  {
    "label": "Clothes_WelcomeRank10_00",
    "text": "Ah, te voilà. Fort bien.\nBienvenue au Vestarium.{{pageBreak}}Crois-tu que je n'ai pas remarqué ?\nTu as atteint le niveau 10 ! Sache que\nje remarque tout, d'abord. Et ensuite,\nquelle que soit ta classe, sache que\nle Vestarium a de quoi l'améliorer !"
  },
  {
    "label": "Clothes_WelcomeRank20_00",
    "text": "Ah, te voilà. Fort bien.\nBienvenue au Vestarium.{{pageBreak}}Rien ne m'échappe, et je vois que ta\nclasse a encore grimpé. Mais ne crois\npas que l'élève dépasse le maître,\nce serait une erreur grossière.\nLe maître, c'est moi et ça le reste."
  },
  {
    "label": "Clothes_WelcomeRank30_00",
    "text": "Ah, te voilà. Fort bien.\nBienvenue au Vestarium.{{pageBreak}}Le jour est arrivé. Te voilà assez\nclasse pour m'impressionner. Es-tu\nen passe de devenir la prochaine star\nde la mode ? Si oui, tu le deviendras\ngrâce au Vestarium."
  },
  {
    "label": "Clothes_Offline_00",
    "text": "Ah, te voilà. Fort bien.{{pageBreak}}Ou fort mal. J'ignore si c'est dans le\nvent de se pavaner hors ligne, mais...\npas question de cautionner une mode\naussi lamentable. Va dans le {{color id=\"1\"}}hall{{color id=\"65535\"}},\nconnecte-toi à {{color id=\"1\"}}Internet{{color id=\"65535\"}} et on parlera."
  },
  {
    "label": "Clothes_RankShortage_00",
    "text": "Ah, te voilà. Fort bien.{{pageBreak}}Ou fort mal. Je ne comprendrai jamais\nles gens sous le {{color id=\"1\"}}niveau 4{{color id=\"65535\"}}. Comment\ntrouvent-ils le culot de se présenter\ndans ma boutique avec un niveau\naussi riquiqui ?{{pageBreak}}Va donc faire un tour dans le {{color id=\"1\"}}hall{{color id=\"65535\"}},\nfrotte-toi à la {{color id=\"1\"}}guerre de territoire{{color id=\"65535\"}}\net reviens. Mais d'abord, SORS."
  },
  {
    "label": "Clothes_BuyS",
    "text": "Ton choix est arrêté ?"
  },
  {
    "label": "Clothes_EquipS",
    "text": "À porter tout de suite ?"
  },
  {
    "label": "Clothes_MoneyShortage_00",
    "text": "Oserais-tu éprouver ma patience ?\nPas de sous dans la poche, pas\nde transaction dans la boutique !"
  },
  {
    "label": "Clothes_RarityMax_00",
    "text": "Non, quatre fois non. L'article en\nquestion a déjà le nombre maximal\nd'étoiles. Plus que le maximum, c'est\nimpossible, même pour le Vestarium."
  },
  {
    "label": "Clothes_BasicSkillSame_00",
    "text": "Non, cinq fois non. L'article en\nquestion a déjà le même bonus\nprincipal. Faire un échange avec\nun article identique serait inutile.\nEt ce qui est inutile n'a pas de style."
  },
  {
    "label": "Clothes_SoldOut_00",
    "text": "Tu veux acheter quelque chose que\ntu as déjà ? Je fais peut-être une\nbêtise en te posant la question,\nmais entre nous, c'est toi qui\nas commencé."
  },
  {
    "label": "Clothes_SoldOtherHome_00",
    "text": "Oh, cet article a déjà été vendu.\nIl t'est passé sous le nez, désolé."
  },
  {
    "label": "Clothes_ExpRarityUpAndReplace_00",
    "text": "Ah, nous faisons face à ce que\nj'appelle communément un dilemme\nde classe. Il faudra faire un choix...{{pageBreak}}Quand nous proposons un article que\ntu possèdes déjà, tu peux{{color id=\"1\"}} augmenter\nson nombre d'étoiles{{color id=\"65535\"}} ou l'{{color id=\"1\"}}échanger{{color id=\"65535\"}}\nafin de réinitialiser ses bonus.{{pageBreak}}Alors, quel est ton choix ? Face à\nun dilemme pareil, je me garderai\nbien de t'influencer."
  },
  {
    "label": "Clothes_RarityUp_00",
    "text": "Une occasion se présente. Veux-tu\n{{color id=\"1\"}}augmenter le nombre d'étoiles{{color id=\"65535\"}} de ce\nvêtement, ou l'{{color id=\"1\"}}échanger{{color id=\"65535\"}} pour en\nréinitialiser les bonus ?"
  },
  {
    "label": "Clothes_ReplaceConfirm_00",
    "text": "Petit rappel offert par la maison :\ntu vas réinitialiser le {{color id=\"1\"}}nombre d'étoiles{{color id=\"65535\"}}\nainsi que les {{color id=\"1\"}}bonus{{color id=\"65535\"}}. Tu confirmes ?"
  },
  {
    "label": "Clothes_ThankYou_00",
    "text": "Bien. Si tu souhaites changer de\nvêtements, tu dois ouvrir l'écran\nde {{color id=\"1\"}}personnalisation {{icon id=\"5\" arg=\"0x0000803F00000000\"}}{{color id=\"65535\"}}."
  },
  {
    "label": "Clothes_ThankYouButFestT_00",
    "text": "Merci mille fois. Par contre, tu ne\npeux pas te changer maintenant,\nen plein milieu d'un festival.\nÇa ne se fait pas, point final."
  },
  {
    "label": "Clothes_ThanksBadgeA_00",
    "text": "Hum. Il y a un point que je dois\nsoulever avec toi.{{pageBreak}}Tu m'as acheté beaucoup de\nvêtements, et tu les portes avec\npanache. Je t'ai donc mis un petit\nquelque chose de côté pour te\nremercier.{{pageBreak}}Admire ! Voici le {{color id=\"1\"}}badge{{color id=\"65535\"}} du style.\nÀ toi de le porter avec style aussi."
  },
  {
    "label": "Clothes_ThanksBadgeB_00",
    "text": "Je voudrais que tu me fasses\nun petit plaisir.{{pageBreak}}Tu fais partie de nos clients les plus\nassidus, et ton sens du style atteint\ndes sommets. J'ai donc l'honneur\nde t'octroyer ce {{color id=\"1\"}}badge{{color id=\"65535\"}}, le {{color id=\"1\"}}badge{{color id=\"65535\"}}\nle plus exceptionnel qui soit.{{pageBreak}}N'EN PARLE JAMAIS À PERSONNE.\nContente-toi d'arborer ce badge\navec fierté. Merci et reviens nous\nvoir bientôt."
  },
  {
    "label": "Shoes_Welcome_00",
    "text": "Entre, sois pas timide !"
  },
  {
    "label": "Shoes_WelcomeS",
    "text": "Entre, sois pas timide !"
  },
  {
    "label": "Shoes_WelcomeRank04_00",
    "text": "Entre, sois pas timide !\nEt bienvenue au Pied agile !{{pageBreak}}Je vois que tu prends la vie du côté\nclasse aujourd'hui ! Ceci dit, tu\naurais encore plus la classe avec\nde nouvelles pompes, pas vrai ?"
  },
  {
    "label": "Shoes_ExpFirst_00",
    "text": "Les {{color id=\"1\"}}bonus d'équipement{{color id=\"65535\"}}, ça te parle ?\nCes petits bijoux qui musclent ton\nmatos et te permettent d'écraser la\nconcurrence dans la bonne humeur\net dans une belle paire de pompes ?{{pageBreak}}Si tu veux en savoir plus sur\nle sujet, appuie sur {{icon id=\"11\" arg=\"0x0000803F00000000\"}}, et sinon,\ncontinue à admirer mes articles !"
  },
  {
    "label": "Shoes_WelcomeRank10_00",
    "text": "Entre, sois pas timide !\nEt bienvenue au Pied agile !{{pageBreak}}Ouah ! Ton classomètre atteint des\nsommets ! Laisse-moi farfouiller un\npeu mon barda et choper de quoi\nt'envoyer dans la stratosphère de\nla classe !"
  },
  {
    "label": "Shoes_WelcomeRank20_00",
    "text": "Entre, sois pas timide !\nEt bienvenue au Pied agile !{{pageBreak}}Ouah ! T'as une casse à tout\nclasser ! Euh, non, l'inverse...\nT'as la masse et je suis à la classe !\nHmm, non... Bref, qu'est-ce qui fallait\nà nos deux petits petons classieux ?"
  },
  {
    "label": "Shoes_WelcomeRank30_00",
    "text": "Entre, sois pas timide !\nEt bienvenue au Pied agile !{{pageBreak}}Nom d'une hypertrophie oculaire\ndopée à la traction des paupières !\nT'as une classe à en boire la tasse,\nj'en deviens tout flagada ! Bref,\nqu'est-ce qui te fallait ?"
  },
  {
    "label": "Shoes_Offline_00",
    "text": "Entre, sois pas timide !\nTu veux voir mes séries de pompes ?{{pageBreak}}T'es hors ligne ! OK, installe-toi dans\nles starting blocks, fonce dans le {{color id=\"1\"}}hall{{color id=\"65535\"}}\nen petites foulées, connecte-toi à\n{{color id=\"1\"}}Internet{{color id=\"65535\"}}... puis repars dans l'autre\nsens pour revenir me voir !"
  },
  {
    "label": "Shoes_RankShortage_00",
    "text": "Entre, sois pas timide !\nEt bienvenue au Pied agile !{{pageBreak}}T'as la classe en berne aujourd'hui,\nt'es pas dans ton assiette ?{{pageBreak}}Écoute, voilà ce qu'on va faire :\ntu fonces dans le {{color id=\"1\"}}hall{{color id=\"65535\"}}, t'enchaînes\nquelques {{color id=\"1\"}}guerres de territoire{{color id=\"65535\"}},\nt'éclates tout le monde,\ntu montes de niveau...{{pageBreak}}T'atteins le {{color id=\"1\"}}niveau 4{{color id=\"65535\"}}, tu reviens me\nvoir, et je fais de toi l'incarnation de\nla classe, l'as qui tabasse, le cador\naux pompes d'or ! Ha haaa !"
  },
  {
    "label": "Shoes_BuyS",
    "text": "Ceci ?"
  },
  {
    "label": "Shoes_EquipS",
    "text": "Tu les mets direct ?"
  },
  {
    "label": "Shoes_MoneyShortage_00",
    "text": "Oh, noooon ! T'as pas assez\nde sous, désolé !"
  },
  {
    "label": "Shoes_RarityMax_00",
    "text": "Ah, désolé ! Ces pompes-là ont déjà\nle nombre d'étoiles maximal."
  },
  {
    "label": "Shoes_BasicSkillSame_00",
    "text": "Attends... T'es sur le point\nd'échanger deux paires de pompes\nqui ont les mêmes bonus principaux.\nÇa sert à rien !"
  },
  {
    "label": "Shoes_SoldOut_00",
    "text": "T'as la passion des pompes chevillée\naux chevilles, toi ! Mais tu t'es déjà\noffert cette paire aujourd'hui !"
  },
  {
    "label": "Shoes_SoldOtherHome_00",
    "text": "Ah, la tuile ! On en a plus en stock,\ndésolé !"
  },
  {
    "label": "Shoes_ExpRarityUpAndReplace_00",
    "text": "Ouah ! Ça, ça me botte ! On est\npartis pour un topo à la M. Coco,\nle colosse au Pied agile ! Chauffe\ntes oreilles, ça va pulser !{{pageBreak}}Donc, t'as déjà certaines pompes que\nj'ai en rayon. Du coup, tu peux soit\n{{color id=\"1\"}}augmenter leur nombre d'étoiles{{color id=\"65535\"}}, soit\nles {{color id=\"1\"}}échanger{{color id=\"65535\"}} pour en réinitialiser\nles bonus.{{pageBreak}}T'as encaissé cette somme d'infos\navec le stoïcisme des champions,\nbravo ! Plus qu'à faire un choix,\nmaintenant..."
  },
  {
    "label": "Shoes_RarityUp_00",
    "text": "Ah ah ! T'as déjà cette paire de\npompes ! Tu veux {{color id=\"1\"}}augmenter son\nnombre d'étoiles{{color id=\"65535\"}} ou l'{{color id=\"1\"}}échanger{{color id=\"65535\"}}\npour réinitialiser ses bonus ?"
  },
  {
    "label": "Shoes_ReplaceConfirm_00",
    "text": "Ça, c'est causé ! Donc, on réinitialise\nle {{color id=\"1\"}}nombre d'étoiles{{color id=\"65535\"}} et les {{color id=\"1\"}}bonus\nadditionnels{{color id=\"65535\"}}. Ça te va ?"
  },
  {
    "label": "Shoes_ThankYou_00",
    "text": "Merci beaucoup ! Si tu veux\nchanger de pompes, fonce dans\nle menu de {{color id=\"1\"}}personnalisation{{color id=\"65535\"}} {{icon id=\"5\" arg=\"0x0000803F00000000\"}} !"
  },
  {
    "label": "Shoes_ThanksBadgeA_00",
    "text": "Hé ! Ça t'ennuierait de me prêter\nl'oreille deux minutes ?{{pageBreak}}Tu connais la boutique, maintenant,\net on sent que t'as l'amour de la\nchaussure bien portée. C'est ça\nque j'aime chez toi !{{pageBreak}}Alors j'espère que tu me feras\nl'honneur d'accepter ce {{color id=\"1\"}}badge {{color id=\"65535\"}}que\nje n'offre qu'à mes clients préférés.\nVa pas le refourguer sur Internet,\nsurtout ! Ha haaa !"
  },
  {
    "label": "Shoes_ThanksBadgeB_00",
    "text": "Au fait... Je voulais te causer vite\nfait d'un truc... Rien à voir avec\nles pompes...{{pageBreak}}Tu sais, le badge que je t'ai offert\nl'autre fois ? Alors, en fait...{{pageBreak}}T'es encore plus au taquet que je le\ncroyais ! Tu dépasses mes rêves de\nclasse les plus sensass ! Alors t'as\nbien mérité ce {{color id=\"1\"}}badge {{color id=\"65535\"}}encore plus\nunique que le précédent ! Bravo !"
  },
  {
    "label": "Goods_Welcome_00",
    "text": "... 'lut."
  },
  {
    "label": "Goods_WelcomeS",
    "text": "... 'lut."
  },
  {
    "label": "Goods_WelcomeRankA_00",
    "text": "... 'lut. Bienvenue chez Coolypso.{{pageBreak}}Bon, j'imagine que m'sieur Cune\nvoulait te parler ? C'est lui qui\ntient la boutique, comme tu le sais.{{pageBreak}}Bref, il m'a dit que t'avais la classe,\nou je sais pas quoi. Pis il s'est mis à\nse trémousser de façon chelou, j'ai\npas tout pigé. Je crois qu'il cherche\nde nouveaux articles pour toi."
  },
  {
    "label": "Goods_WelcomeRankB_00",
    "text": "... 'lut. Bienvenue chez Coolypso.{{pageBreak}}Ah, m'sieur Cune, le proprio... Il m'a\nlaissé un message pour toi. Il voulait\nque je le répète en faisant un cœur\navec les doigts, mais je vais faire\nl'impasse là-dessus si tu veux bien.{{pageBreak}}Bref, il m'a dit de te dire que tu fais\npartie des meilleurs clients et\nqu'il faut que tu reviennes souvent.{{pageBreak}}Et il a ajouté une trentaine de « yo »\nen agitant les guibolles dans une\nchoré bizarre. Je sais pas si ça\nfaisait partie du message, ceci dit."
  },
  {
    "label": "Goods_First_00",
    "text": "... 'lut. Bienvenue chez Coolypso.{{pageBreak}}Tu sais, je bosse pas vraiment ici,\nmais puisque je suis là, je peux\nte vendre une ou deux bricoles\nsi tu veux.{{pageBreak}}Par contre, faut pas me demander\nà quoi sert tout ce bazar. À remplir\nson {{color id=\"1\"}}casier{{color id=\"65535\"}}, j'imagine ? En tout cas,\ny a de tout, tu verras."
  },
  {
    "label": "Goods_First_01",
    "text": "Alors, ton {{color id=\"1\"}}casier {{color id=\"65535\"}}se trouve dans\nle {{color id=\"1\"}}vestiaire{{color id=\"65535\"}}. Tu pourras y jeter\nun coup d'œil plus tard.{{pageBreak}}Et s'il y a déjà des bricoles à\nl'intérieur, j'imagine qu'elles te\nreviennent de droit. C'est ton\ncasier, après tout."
  },
  {
    "label": "Goods_FirstCatalog_00",
    "text": "Ah, au fait, je suis censée te refiler\nça. C'est un {{color id=\"1\"}}catalogue{{color id=\"65535\"}}."
  },
  {
    "label": "Goods_FirstReward_00",
    "text": "T'es du genre à enquiller les matchs\net les missions chez M. Ours SA, je\nme trompe ? Du coup, tu peux\naccumuler une tripotée de {{color id=\"1\"}}points\nde catalogue{{color id=\"65535\"}}.{{pageBreak}}Et chaque fois que ton {{color id=\"1\"}}niveau de\ncatalogue{{color id=\"65535\"}} augmente, tu reçois une\nrécompense. Et moi, il faut que je\nfouille dans ce fatras pour te la\ndénicher. Super.{{pageBreak}}Et justement, voilà la première.\nTa première récompense.\nC'est un grand jour."
  },
  {
    "label": "Goods_FirstRewardAfter_00",
    "text": "Bref, je vais te laisser faire\nton shopping."
  },
  {
    "label": "Goods_NewReward_00",
    "text": "Tiens, ton niveau de catalogue a\naugmenté. Voilà ta récompense."
  },
  {
    "label": "Goods_NewRewardAfter_00",
    "text": "Continue à... faire du bon boulot.\nEnfin, tu me diras... Le shopping,\nc'est pas vraiment du boulot.\nBref, je sais pas au juste ce\nque c'est, mais continue, quoi."
  },
  {
    "label": "Goods_ExchangeCatalog_00",
    "text": "Oh, t'as obtenu tous les articles\nde ce catalogue ? Pas mal.{{pageBreak}}Eh bien, euh... ça tombe bien, j'en ai\nun nouveau pour toi."
  },
  {
    "label": "Goods_ExchangeCatalogAfter_00",
    "text": "Continue à... cataloguer dans la joie.\nC'est sûrement une bonne chose."
  },
  {
    "label": "Goods_Offline_00",
    "text": "Tiens, coucou. Enfin, bonjour. Bref.{{pageBreak}}Pfff, t'es hors ligne. Je vois le genre.\nDésolée, mais va falloir songer à\nte connecter à {{color id=\"1\"}}Internet{{color id=\"65535\"}} si tu veux\nm'acheter un truc. Commence par\nte pointer dans le {{color id=\"1\"}}hall{{color id=\"65535\"}}."
  },
  {
    "label": "Goods_RankShortage_00",
    "text": "... 'lut. Bienvenue chez Coo...\nEuh, nan, j'ai rien dit. C'est pas\nencore le moment.{{pageBreak}}Faut être au moins de {{color id=\"1\"}}niveau 4{{color id=\"65535\"}} pour\nposer les tentacules sur nos articles.\nDésolée, c'est pas moi qui ai pondu\nles règles. Va dans le {{color id=\"1\"}}hall{{color id=\"65535\"}} et enquille\nquelques {{color id=\"1\"}}guerres de territoire{{color id=\"65535\"}}, OK ?"
  },
  {
    "label": "Goods_BuyS",
    "text": "T'en veux combien ?"
  },
  {
    "label": "Goods_MoneyShortage_00",
    "text": "Euh, ça va pas faire le compte, là..."
  },
  {
    "label": "Goods_SoldOut_00",
    "text": "Ah, on est en rupture de stock.\nDésolée."
  },
  {
    "label": "Goods_ThankYou_00",
    "text": "Cool, merci. Et, euh... Bah, j'espère\nque t'auras le casier le plus classe\ndu vestiaire."
  },
  {
    "label": "Goods_ThanksBadgeA_00",
    "text": "Oh, t'as acheté pas mal de\nmatos ici, au final...{{pageBreak}}Du coup, m'sieur Cune voulait te\ntransmettre un message spécial.{{pageBreak}}Il m'a demandé de te remercier\npour ta fidélité.{{pageBreak}}Après ça, il s'est lancé dans un laïus\ninfernal en m'expliquant que je devais\nte filer un {{color id=\"1\"}}badge{{color id=\"65535\"}} tout en te faisant\nmarrer avec un genre de sketch...{{pageBreak}}Mais le stand-up et moi, ça fait\ntrois, alors je vais me contenter\nde te donner le badge. Et encore\nmerci pour toutes tes emplettes."
  },
  {
    "label": "Goods_ThanksBadgeB_00",
    "text": "Oh, dis donc, t'as acheté un sacré\npaquet de bricoles dans cette\nboutique...{{pageBreak}}Du coup, m'sieur Cune a un nouveau\nmessage pour toi.{{pageBreak}}Je suis censée passer en mode super\ngnan-gnan et t'expliquer que c'est\ntrop formidable de te compter parmi\nnos clients privilégiés... Alors voilà :\nbravo pour avoir... acheté des trucs.{{pageBreak}}Après ça, je dois enquiller sur une\nnouvelle cérémonie de remise de\n{{color id=\"1\"}}badge{{color id=\"65535\"}}, avec la poignée de mains,\nla séance photos, et tout le tralala...{{pageBreak}}Il voulait même que je pousse la\nchansonnette en guise de bouquet\nfinal... Chansonnette qu'il a écrite\nlui-même, ça va de soi.{{pageBreak}}Enfin bref... Tiens, ton badge.\nTa-daaa."
  },
  {
    "label": "Goods_BeforeReleaseABXY_00",
    "text": "... 'lut. Bienvenue chez Coolypso.{{pageBreak}}Attends, c'était pas tout, je voulais\nte dire un autre truc...{{pageBreak}}Ah ouais. Les Chirpy Chips vont sortir\ndeux nouveaux morceaux. Cool, non ?"
  },
  {
    "label": "Goods_AfterReleaseABXY_00",
    "text": "'lut. Bienvenue chez Coolypso.{{pageBreak}}Attends, c'était pas tout, je voulais\nte dire un autre truc...{{pageBreak}}Ah ouais, j'ai un message pour toi.\nBouge pas, je te le lis :\n« Yo ! Les Chirpy Chips déboulent\navec deux morceaux super cool !{{pageBreak}}D'abord, une chanson de nos débuts\nqu'on jouait seulement en live :\nelle s'appelle Slopping Spree\net j'espère que ça vous plaira !{{pageBreak}}Monia, je compte sur toi pour lire\nexactement ce que j'ai écrit, parce\nque j'ai fignolé le texte à fond ! »\nOups, il fallait pas le lire, ça... Bref.{{pageBreak}}« Et oublie pas de mentionner la\nfaçon dont tu fredonnes de temps\nen temps. Toute la chanson est\nbasée là-dessus.{{pageBreak}}Deuxième morceau : No Quarters !\nOn espère de tout cœur que vous\nferez chauffer le dancefloor sur\nce titre, parce que nous... on sait\npas danser. »{{pageBreak}}Pff, c'était interminable, ce message.\nOrion a tendance à jacter encore plus\nqu'il joue de la basse... C'est-à-dire\nsans arrêt. Enfin, j'espère que\nles morceaux te plairont."
  }
]