[
  {
    "label": "Weapon_Welcome_00",
    "text": "Salut, salut ! Qu'est-ce que tu\nveux acheter de beau, aujourd'hui ?"
  },
  {
    "label": "Weapon_WelcomeS",
    "text": "Salut, salut !"
  },
  {
    "label": "Weapon_First_00",
    "text": "Salut, salut ! Tu veux des, euh...\ndes armes ? Ça tombe bien, on en\na des... des tas ! T'as l'embarras\nde... de l'anchois !{{pageBreak}}On les vend par, euh... par paquet\nde trois : une {{color id=\"1\"}}principale {{color id=\"65535\"}}qu'on\nactionne avec {{icon id=\"12\" arg=\"0x0000803F00000000\"}}, une {{color id=\"1\"}}secondaire{{color id=\"65535\"}}\navec {{icon id=\"10\" arg=\"0x0000803F00000000\"}} et... c'était quoi, déjà ?\nAh oui, une {{color id=\"1\"}}spéciale{{color id=\"65535\"}} !{{pageBreak}}Tu trouves ça, euh... hareng-biqué ?\nT'as l'impression de nager un peu ?\nC'est pas grave ! Tu peux essayer\navant d'acheter en appuyant sur {{icon id=\"3\" arg=\"0x0000803F00000000\"}}."
  },
  {
    "label": "Weapon_First_01",
    "text": "Tu peux obtenir nos, euh...\nnos armes en échange de\n{{color id=\"1\"}}brevets Cartouche{{color id=\"65535\"}} {{icon id=\"28\" arg=\"0x295C4F3F00000000\"}} !"
  },
  {
    "label": "Weapon_EndCloseUp_00",
    "text": "Et tu peux te mettre des brevets\nCartouche {{icon id=\"28\" arg=\"0x295C4F3F00000000\"}} plein les... les loches\nen enchaînant les, euh... les matchs\net en montant de... de niveau ! Ou\nalors en utilisant une arme à fond !"
  },
  {
    "label": "Weapon_EndCloseUpS",
    "text": "Vive les échanzes !"
  },
  {
    "label": "Weapon_FirstWithSaveTransfer_00",
    "text": "Salut, salut ! Tu veux des, euh...\ndes armes ? Ça tombe bien, on en\na des... des tas ! T'as l'embarras\nde... de l'anchois !{{pageBreak}}Ouah... C'est quoi, ça ? Je savais\npas que les armes... raie-trop, ça\nte branchait ! Les vieux machins,\nc'est... c'est carpe-tivant, mais il\nte faut un truc plus classe."
  },
  {
    "label": "Weapon_FirstWithSaveTransfer_01",
    "text": "Bien... Bien sûr, avant de rentrer chez\ntoi avec un petit bijou qui rendra tout\nle monde vert de... de ja-loup-sie,\ntu devras avoir le bon {{color id=\"1\"}}brevet\nCartouche {{color id=\"65535\"}}{{icon id=\"28\" arg=\"0x295C4F3F00000000\"}}, ça va de soi."
  },
  {
    "label": "Weapon_EndCloseUpWithSaveTransfer_00",
    "text": "Et les brevets Cartouche {{icon id=\"28\" arg=\"0x295C4F3F00000000\"}}, on les\nreçoit en enchaînant les matchs et...\net les niveaux. Ou alors en devenant\nle pro d'une euh... arme en particulier\nqu'on utilise à tout bout de champ.{{pageBreak}}Oh, j'en crois pas mes yeux !\nTu as déjà au moins un...\nun {{color id=\"1\"}}brevet Cartouche Or{{color id=\"65535\"}} {{icon id=\"29\" arg=\"0x295C4F3F00000000\"}} ?\nTu mets les... les brochets\ndoubles, dis-moi !{{pageBreak}}Alors bonne nouvelle ! Maintenant,\ntu as accès à des euh... armes\nexclusives. Cha... Chabot bas !"
  },
  {
    "label": "Weapon_EndCloseUpWithSaveTransferS",
    "text": "Zuste pour toi !"
  },
  {
    "label": "Weapon_Offline_00",
    "text": "Salut, sa...{{pageBreak}}Oh, tu es hors ligne. Reviens quand tu\nauras une euh... connexion à euh...\n{{color id=\"1\"}}Internet{{color id=\"65535\"}}. C'est dans le {{color id=\"1\"}}hall {{color id=\"65535\"}}que ça\nse passe !"
  },
  {
    "label": "Weapon_OfflineS",
    "text": "Z'adore le hall !"
  },
  {
    "label": "Weapon_RankShortage_00",
    "text": "Salut, sa... Oh, me dis pas\nque c'est la seule euh... arme que\nt'as dans ton... ton bar-se-nal ?{{pageBreak}}Je te montrerais volontiers ce que\nj'ai en stock, mais tu pourras pas\nmaîtriser une telle plie... plie-ssance\nde feu avec ton mini-niveau 1 de rien\ndu tout...{{pageBreak}}Mais c'est pas grave, j'ai un plan. Et\nça va marcher. Va dans le {{color id=\"1\"}}hall{{color id=\"65535\"}}, fais\ndes {{color id=\"1\"}}matchs classiques{{color id=\"65535\"}}. Atteins...\ndisons le {{color id=\"1\"}}niveau 2{{color id=\"65535\"}}... Et reviens !"
  },
  {
    "label": "Weapon_RankShortageS",
    "text": "Z'ai hâte !"
  },
  {
    "label": "Weapon_License_00",
    "text": "Vu ton... {{color id=\"1\"}}niveau {{color id=\"65535\"}}actuel, je pense pas\nque tu puisses exploiter cette euh...\narme à son plein po... po-thon-ciel...{{pageBreak}}Si vraiment tu insistes pour l'avoir\ntout de... tout de truite, tu peux\nl'obtenir en échange de {{color id=\"1\"}}trois{{color id=\"65535\"}}\nbrevets Cartouche {{icon id=\"28\" arg=\"0x295C4F3F00000000\"}} !"
  },
  {
    "label": "Weapon_GoldLicense_00",
    "text": "Vu ton... {{color id=\"1\"}}niveau {{color id=\"65535\"}}actuel, je pense pas\nque tu puisses exploiter cette euh...\narme à son plein po... po-thon-ciel...{{pageBreak}}Si vraiment tu insistes pour l'avoir\ntout de... tout de truite, tu peux\nl'obtenir en échange d'{{color id=\"1\"}}un{{color id=\"65535\"}} brevet\nCartouche Or {{icon id=\"29\" arg=\"0x295C4F3F00000000\"}} !"
  },
  {
    "label": "Weapon_GoldLicenseConfirm_00",
    "text": "Oh, quelle dé-cep-thon. Aucun brevet\nCartouche à l'horizon. Par contre,\nje vois {{color id=\"1\"}}un{{color id=\"65535\"}} brevet Cartouche Or.\nEt ça marche aussi. Mais...{{pageBreak}}Ce serait un peu du gâchis. Comme\nde mer... de merlan-ger les saumons\net les crevettes. Tu veux vraiment\nte séparer d'un précieux brevet\nCartouche Or {{icon id=\"29\" arg=\"0x295C4F3F00000000\"}} juste pour ça ?"
  },
  {
    "label": "Weapon_LowRankS",
    "text": "Prix : 1 {{icon id=\"28\" arg=\"0x0000803F00000000\"}}\nau niveau {{number index=\"0\" type=\"2\" arg3=\"0\" arg4=\"0\"}}"
  },
  {
    "label": "Weapon_BuyS",
    "text": "Tu l'achètes ?"
  },
  {
    "label": "Weapon_BuyGoldS",
    "text": "Tu l'achètes ?"
  },
  {
    "label": "Weapon_ShootingRangeS",
    "text": "Tu l'essaies ?"
  },
  {
    "label": "Weapon_EquipS",
    "text": "Tu t'en équipes ?"
  },
  {
    "label": "Weapon_LicenseShortage_00",
    "text": "Malheureusement, soit j'ai la...\nj'ai la merlu, soit t'as zéro brevet\nen poche... On va quand même pas\nbrader la marchandise de Cartouche !"
  },
  {
    "label": "Weapon_LicenseShortageS",
    "text": "C'est inimazinable !"
  },
  {
    "label": "Weapon_SoldOut_00",
    "text": "Je salue ta perche-évérance, mais\ntu as déjà cette arme !"
  },
  {
    "label": "Weapon_SoldOutS",
    "text": "Oui, tu l'as dézà !"
  },
  {
    "label": "Weapon_ThankYou_00",
    "text": "Merci ! Avec ça, je suis sûr que tu\nferas un... un gardon. Et oublie pas :\npour équiper une euh... arme, c'est\ndans le menu de {{color id=\"1\"}}personnalisation {{color id=\"65535\"}}{{icon id=\"5\" arg=\"0x0000803F00000000\"}}\nque ça se passe !"
  },
  {
    "label": "Weapon_ThankYouS",
    "text": "Un zoli zouzou !"
  },
  {
    "label": "Weapon_ThankYouGoldLicense_00",
    "text": "Merci ! Avec ça, je suis sûr que tu\nferas un... un gardon. Et oublie pas :\npour équiper une euh... arme, c'est\ndans le menu de {{color id=\"1\"}}personnalisation {{color id=\"65535\"}}{{icon id=\"5\" arg=\"0x0000803F00000000\"}}\nque ça se passe !{{pageBreak}}Je me demande combien de brevets\nCartouche Or {{icon id=\"29\" arg=\"0x295C4F3F00000000\"}} tu as encore dans\nta besace. Laisse-moi jeter un coup\nd'œil... Ah ! Il t'en reste {{color id=\"1\"}}{{number index=\"0\" type=\"1\" arg3=\"0\" arg4=\"0\"}}{{color id=\"65535\"}}."
  },
  {
    "label": "Weapon_ThankYouGoldLicenseS",
    "text": "C'est touzours ça."
  },
  {
    "label": "Weapon_ThankYouLastGoldLicense_00",
    "text": "Merci ! Avec ça, je suis sûr que tu\nferas un... un gardon. Et oublie pas :\npour équiper une euh... arme, c'est\ndans le menu de {{color id=\"1\"}}personnalisation {{color id=\"65535\"}}{{icon id=\"5\" arg=\"0x0000803F00000000\"}}\nque ça se passe !{{pageBreak}}Ça y est, tu as utilisé tous les\nbrevets Cartouche Or {{icon id=\"29\" arg=\"0x295C4F3F00000000\"}} que\ntu avais !"
  },
  {
    "label": "Weapon_ThankYouLastGoldLicenseS",
    "text": "Zusqu'au dernier !"
  },
  {
    "label": "Weapon_UnlockA_00",
    "text": "Z'ai le plaisir de t'annoncer que\nz'ai de nouveaux articles en magasin.\nZette donc un œil à la sélection !"
  },
  {
    "label": "Weapon_UnlockA_01",
    "text": "Z'ai la zoie de t'annoncer que\ntu peux désormais manier\nmon {{color id=\"1\"}}{{string value=\"WeaponName\" arg1=\"0\" arg3=\"0\"}}{{color id=\"65535\"}}\nsi le cœur t'en dit !"
  },
  {
    "label": "Weapon_UnlockB_00",
    "text": "Et c'est pas fini !\nZe peux aussi te confier\nmon {{color id=\"1\"}}{{string value=\"WeaponName\" arg1=\"0\" arg3=\"0\"}}{{color id=\"65535\"}}\nd'amour."
  },
  {
    "label": "Weapon_ExplainAfter_00",
    "text": "Comme dit ce cher Cartouche !"
  },
  {
    "label": "Weapon_ExplainAfterS",
    "text": "Mot pour mot !"
  },
  {
    "label": "Weapon_Complete_00",
    "text": "Ouah ! Tu as, euh... raie-uni toutes\nles, euh... armes... Tu as rassemblé\ntout le, euh... calamar-senal !{{pageBreak}}Si tu as des brevets Cartouche {{icon id=\"28\" arg=\"0x295C4F3F00000000\"}}\nen, euh... rab-illaud, tu peux les\néchanger contre des, euh...\n{{color id=\"1\"}}je-thons {{icon id=\"34\" arg=\"0xE17A943F00000000\"}} {{color id=\"65535\"}}au Capsulomate\ndu {{color id=\"1\"}}hall {{color id=\"65535\"}}!"
  },
  {
    "label": "Weapon_CompleteS",
    "text": "Alea zacta est."
  },
  {
    "label": "Weapon_Alone_00",
    "text": "Salut, salut ! Qu'est-ce que tu\nveux acheter de beau, aujourd'hui ?{{pageBreak}}Oh ? Tu te demandes où est passé\nLumi ?{{pageBreak}}Mimi a pris la, euh... tanche-ente\npour ouvrir une autre boutique\nquelque part.{{pageBreak}}Mais t'inquiète pas ! Je peux tout\ngérer moi-même, comme un grand !"
  },
  {
    "label": "Head_Welcome_00",
    "text": "Hé... Salut."
  },
  {
    "label": "Head_WelcomeS",
    "text": "Pas de lèche-vitrine !"
  },
  {
    "label": "Head_WelcomeRank04_00",
    "text": "Hé... Salut. Bienvenue dans ma\nboutique. Ça s'appelle Kamatête.{{pageBreak}}T'as l'air plutôt classe, j'crois.\nSi tu veux j'ter un coup d'œil à\nce que je vends, tu peux...\n{{size value=\"75\"}}Enfin... Si t'as envie, quoi...{{size value=\"100\"}}"
  },
  {
    "label": "Head_ExpFirst_00",
    "text": "Notre spécialité, chez Kamatête,\nc'est... les trucs qu'on met sur...\nt'sais, euh, la tête.{{pageBreak}}Et ils ont tous des trucs, là... des\n{{color id=\"1\"}}bonus d'équipement{{color id=\"65535\"}}, voilà. Ça peut\nservir en match, c'est clair.{{pageBreak}}Si ça t'chante, tu peux appuyer\nsur {{icon id=\"11\" arg=\"0x0000803F00000000\"}} pour en savoir plus.\nTant que... {{size value=\"75\"}}tu m'demandes pas à moi...{{size value=\"100\"}}"
  },
  {
    "label": "Head_ExpFirstS",
    "text": "Lis les infos !"
  },
  {
    "label": "Head_WelcomeRank10_00",
    "text": "Hé... Salut. Bienvenue chez Kamatête.{{pageBreak}}T'es, euh... carrément classe.\nSi tu veux faire tes achats ici,\nhésite pas. J'espère juste que\nnotre matos est...{{size value=\"75\"}} pas trop pourrave\npour toi...{{size value=\"100\"}}"
  },
  {
    "label": "Head_WelcomeRank10S",
    "text": "Change de sapes !"
  },
  {
    "label": "Head_WelcomeRank20_00",
    "text": "Hé... Salut. Bienvenue chez Kamatête.{{pageBreak}}T'es, euh... classe de chez classe.\nVa peut-être falloir que j'renouvelle\nun peu mon stock, histoire de\nt'fourguer... {{size value=\"75\"}}du matos potable...{{size value=\"100\"}}"
  },
  {
    "label": "Head_WelcomeRank20S",
    "text": "Que de la frime !"
  },
  {
    "label": "Head_WelcomeRank30_00",
    "text": "Hé... Salut. Bienvenue chez Kamatête.{{pageBreak}}Comment... Comment tu fais pour\nêtre aussi classe ? Sérieux,\nj'mérite pas d'avoir des clients\naussi...{{size value=\"75\"}} hallucinants que toi...{{size value=\"100\"}}"
  },
  {
    "label": "Head_WelcomeRank30S",
    "text": "Je suis l'plus classe !"
  },
  {
    "label": "Head_Offline_00",
    "text": "Hé... Salut.{{pageBreak}}Euh, j'veux pas dire, mais j'crois\nque t'es hors ligne. Faut que t'ailles\ndans le {{color id=\"1\"}}hall{{color id=\"65535\"}}... tu pourras t'connecter\nà {{color id=\"1\"}}Internet {{color id=\"65535\"}}là-bas..."
  },
  {
    "label": "Head_OfflineS",
    "text": "On se connecte !"
  },
  {
    "label": "Head_RankShortage_00",
    "text": "Hé... Salut... Oups, je voulais\ndire « désolée ».{{pageBreak}}Y a une règle ici... on vend rien aux\nclients qui sont pas... euh, comment\ndire... assez classe.{{pageBreak}}Tu vois, il faut être {{color id=\"1\"}}niveau 4{{color id=\"65535\"}}...\nÇa, c'est classe... Enfin, j'crois.{{pageBreak}}Va faire quelques {{color id=\"1\"}}matchs de guerre\nde territoire{{color id=\"65535\"}} dans le {{color id=\"1\"}}hall{{color id=\"65535\"}}... Enfin,\nsi ça t'dérange pas, hein...\n{{size value=\"75\"}}Personne te force...{{size value=\"100\"}}"
  },
  {
    "label": "Head_RankShortageS",
    "text": "Au boulot !"
  },
  {
    "label": "Head_BuyS",
    "text": "Tu... Tu achètes ?"
  },
  {
    "label": "Head_EquipS",
    "text": "Tu t'en équipes ?"
  },
  {
    "label": "Head_MoneyShortage_00",
    "text": "Hé... J'sais pas si t'es au courant...\nEnfin, le prends pas mal, mais...\nT'es à court de cash, j'crois."
  },
  {
    "label": "Head_MoneyShortageS",
    "text": "Allez, dehors !"
  },
  {
    "label": "Head_RarityMax_00",
    "text": "Ah... J'espère que ça te tenait pas\ntrop à cœur, parce que c'est râpé.\nEnfin, faut m'comprendre... le nombre\nd'étoiles est au max, j'peux rien faire\nde plus, moi..."
  },
  {
    "label": "Head_RarityMaxS",
    "text": "Pas d'bol !"
  },
  {
    "label": "Head_BasicSkillSame_00",
    "text": "Alors en fait... Cette pièce\nd'équipement a exactement le même\neffet... J'vois pas trop l'intérêt de\nl'échanger..."
  },
  {
    "label": "Head_BasicSkillSameS",
    "text": "Quelle idée naze !"
  },
  {
    "label": "Head_SoldOut_00",
    "text": "Oh, euh... On l'a plus en stock.\nFranchement, j'suis la première\nà le regretter, mais c'est comme ça...\nJ'déteste envoyer bouler les clients\nqui... {{size value=\"75\"}}veulent acheter un truc...{{size value=\"100\"}}"
  },
  {
    "label": "Head_SoldOutS",
    "text": "Tu peux oublier !"
  },
  {
    "label": "Head_SoldOtherHome_00",
    "text": "Quoi ? Oh, euh... En fait...\nOn en a plus en stock, désolée..."
  },
  {
    "label": "Head_SoldOtherHomeS",
    "text": "C'est le bide !"
  },
  {
    "label": "Head_ExpRarityUpAndReplace_00",
    "text": "Oh, euh... On a une bricole en stock\nque t'as déjà dans ton inventaire.\nAlors bon, si tu veux, on peut\n{{color id=\"1\"}}augmenter son nombre d'étoiles{{color id=\"65535\"}}\nou bien l'{{color id=\"1\"}}échanger{{color id=\"65535\"}}...{{pageBreak}}Avec {{color id=\"1\"}}plus d'étoiles{{color id=\"65535\"}}, tu pourras avoir\nplus de bonus, pis ça augmentera\nl'EXP que tu ramasses... Et l'idée de\nl'{{color id=\"1\"}}échange{{color id=\"65535\"}}, c'est d'te filer le même\nmatos, mais avec d'autres bonus.{{pageBreak}}C'est pas mal, non ? Non ?\nHé hé... hé. {{size value=\"75\"}}Hé...{{size value=\"100\"}}"
  },
  {
    "label": "Head_RarityUp_00",
    "text": "Oh, euh... J'veux pas dire, mais...\nTu l'as déjà, ça. Tu veux... j'sais pas,\nmoi... {{color id=\"1\"}}augmenter le nombre d'étoiles{{color id=\"65535\"}}\nou... ou l'{{color id=\"1\"}}échanger{{color id=\"65535\"}}, p'têt' ?"
  },
  {
    "label": "Head_ReplaceConfirm_00",
    "text": "Le {{color id=\"1\"}}nombre d'étoiles{{color id=\"65535\"}} et les {{color id=\"1\"}}bonus\nadditionnels{{color id=\"65535\"}} de la pièce d'équipement\nseront réinitialisés. Ça t'va ?"
  },
  {
    "label": "Head_ThankYou_00",
    "text": "Nickel... Bon, si tu veux t'équiper\nde ton nouveau matos, le menu de\n{{color id=\"1\"}}personnalisation {{color id=\"65535\"}}{{icon id=\"5\" arg=\"0x0000803F00000000\"}} est là pour ça...\n{{size value=\"75\"}}Mais bon, j'imagine que je t'apprends rien...{{size value=\"100\"}}"
  },
  {
    "label": "Head_ThankYouS",
    "text": "À plus, mollusque !"
  },
  {
    "label": "Head_ThanksBadgeA_00",
    "text": "Oh... Ah... Euh... Ouah...{{pageBreak}}On a un... T'sais, un {{color id=\"1\"}}badge {{color id=\"65535\"}}qu'on file\nà nos clients privilégiés. Histoire de...\n{{size value=\"75\"}}les remercier, tu vois.{{size value=\"100\"}}"
  },
  {
    "label": "Head_ThanksBadgeAS",
    "text": "Prends et dégage !"
  },
  {
    "label": "Head_ThanksBadgeB_00",
    "text": "Ouah... Sérieux... ?{{pageBreak}}T'sais, on a un {{color id=\"1\"}}badge {{color id=\"65535\"}}un peu spécial\npour nos clients... privilégiés...\nNos p'tits chouchous, si tu veux...{{pageBreak}}Ça serait sympa si tu... genre, si tu\nl'portais, ou... J'sais pas, si ça te\nbranche, quoi... {{size value=\"75\"}}Si t'as envie...{{size value=\"100\"}}"
  },
  {
    "label": "Head_ThanksBadgeBS",
    "text": "Merci pour le blé !"
  },
  {
    "label": "Clothes_Welcome_00",
    "text": "Bienvenue chez Octo'Mode, bloup..."
  },
  {
    "label": "Clothes_WelcomeS",
    "text": "Bienvenue !"
  },
  {
    "label": "Clothes_WelcomeRank04_00",
    "text": "Bienvenue chez Octo'Mode ! Bloup...{{pageBreak}}On se connaît, je me trompe ? J'ai\nétudié la langue et la mode d'ici, mais\nj'ai toujours autant de mal à me\nsouvenir des visages, bloup bloup.{{pageBreak}}Bon, assez parlé de moi. Tu as l'air\nd'avoir la classe requise pour faire\ntes emplettes ici, alors te gêne pas !"
  },
  {
    "label": "Clothes_ExpFirst_00",
    "text": "Tu sais ce qui me plaît le plus avec\nles vêtements ? C'est qu'ils ont leurs\npropres {{color id=\"1\"}}bonus{{color id=\"65535\"}}, bloup !{{pageBreak}}Si le sujet te passionne autant que\nmoi, appuie sur {{icon id=\"11\" arg=\"0x0000803F00000000\"}} et tu pourras en\napprendre plus."
  },
  {
    "label": "Clothes_WelcomeRank10_00",
    "text": "Bienvenue chez Octo'Mode ! Bloup...{{pageBreak}}Dis donc, tu es plus classe que\njamais ! Crois-moi, je sens ce genre\nde choses. Du coup, tu n'as pas envie\nde revoir ta garde-robe, bloup ?"
  },
  {
    "label": "Clothes_WelcomeRank20_00",
    "text": "Bienvenue chez Octo'Mode ! Bloup...{{pageBreak}}Tu as amélioré ta classe ? Bloup\nalors, bien sûr que je l'ai remarqué !\nJ'espère que tu trouveras ton\nbonheur parmi mes articles."
  },
  {
    "label": "Clothes_WelcomeRank30_00",
    "text": "Bienvenue chez Octo'Mode ! Bloup...{{pageBreak}}Saperlipopette, tu fais plus de\nprogrès en classe que moi dans ta\nlangue ! N'hésite pas à regarder ce\nqu'on a en stock."
  },
  {
    "label": "Clothes_Offline_00",
    "text": "Bienvenue chez Octo'Mode ! Blo... Bl...\nOh non, tu es hors ligne ! Ça va pas\ndu tout ! Tu vas devoir te connecter\nà {{color id=\"1\"}}Internet {{color id=\"65535\"}}depuis le {{color id=\"1\"}}hall {{color id=\"65535\"}}si tu veux\nqu'on fasse affaire."
  },
  {
    "label": "Clothes_RankShortage_00",
    "text": "Bienvenue chez Octo'Mode ! Bloup...\nBloup ? Oh nooon !{{pageBreak}}Il doit y avoir un problème, ou est-ce\nque tu serais pas... en manque\nflagrant de classe ?{{pageBreak}}Je suis navré, mais je ne peux te\nvendre des vêtements que si tu as au\nmoins atteint le {{color id=\"1\"}}niveau 4{{color id=\"65535\"}}. Si tu n'y es\npas, je ne peux rien faire pour toi,\ndésolé !{{pageBreak}}Ah si, tiens ! Je peux te conseiller de\nparticiper à des {{color id=\"1\"}}matchs de guerre de\nterritoire{{color id=\"65535\"}} dans le {{color id=\"1\"}}hall {{color id=\"65535\"}}pour monter ton\nniveau. Ensuite, reviens et je serai\nheureux de t'aider."
  },
  {
    "label": "Clothes_BuyS",
    "text": "On passe à la caisse ?"
  },
  {
    "label": "Clothes_EquipS",
    "text": "Tu t'en équipes ?"
  },
  {
    "label": "Clothes_MoneyShortage_00",
    "text": "Blouuup. Pendant les cours de langue,\non s'exerçait à diverses situations,\npar exemple expliquer à un client qu'il\nn'a pas assez d'argent. Comme\nmaintenant, en fait..."
  },
  {
    "label": "Clothes_RarityMax_00",
    "text": "Oh zut, ce vêtement dispose déjà du\nnombre maximum d'étoiles. Je peux\npas en rajouter !"
  },
  {
    "label": "Clothes_BasicSkillSame_00",
    "text": "Hmm, je peux pas te laisser faire ça.\nLe bonus principal de ces deux\nvêtements est identique."
  },
  {
    "label": "Clothes_SoldOut_00",
    "text": "C'est délicat, mais... je n'ai plus\ncet article en stock."
  },
  {
    "label": "Clothes_SoldOtherHome_00",
    "text": "Oh, en fait... j'en ai plus. Désolé."
  },
  {
    "label": "Clothes_ExpRarityUpAndReplace_00",
    "text": "Alors comme ça, tu t'intéresses au\n{{color id=\"1\"}}nombre d'étoiles{{color id=\"65535\"}} et à l'{{color id=\"1\"}}échange{{color id=\"65535\"}} des\nvêtements... Chouette, j'ai pas appris\ntout ça par cœur pour rien !{{pageBreak}}Ahem... Les {{color id=\"1\"}}étoiles{{color id=\"65535\"}} augmentent le\nnombre d'emplacements et permettent\nau vêtement de gagner de l'EXP plus\nrapidement.{{pageBreak}}{{color id=\"1\"}}Échanger {{color id=\"65535\"}}des vêtements renouvelle\nles bonus qui y sont associés. C'est\nsimple comme bloup ! Et sur ce, je te\nsouhaite de bonnes emplettes !"
  },
  {
    "label": "Clothes_RarityUp_00",
    "text": "Tu veux donc {{color id=\"1\"}}augmenter le nombre\nd'étoiles {{color id=\"65535\"}}de tes vêtements ou\nles {{color id=\"1\"}}échanger {{color id=\"65535\"}}?"
  },
  {
    "label": "Clothes_ReplaceConfirm_00",
    "text": "Le {{color id=\"1\"}}nombre d'étoiles {{color id=\"65535\"}}et les {{color id=\"1\"}}bonus\nadditionnels{{color id=\"65535\"}} seront réinitialisés. C'est\nta dernière chance... Tu confirmes ?"
  },
  {
    "label": "Clothes_ThankYou_00",
    "text": "Merci pour tes achats ! Et n'oublie\npas d'aller dans le menu de\n{{color id=\"1\"}}personnalisation{{color id=\"65535\"}} {{icon id=\"5\" arg=\"0x0000803F00000000\"}} si tu veux\nte changer."
  },
  {
    "label": "Clothes_ThankYouButFestT_00",
    "text": "Blouuuup. Désolé, mais j'ai appris une\nphrase par cœur qui correspond à\ncette situation : il est formellement\ninterdit de changer de vêtements\npendant un {{color id=\"1\"}}festival{{color id=\"65535\"}}."
  },
  {
    "label": "Clothes_ThanksBadgeA_00",
    "text": "Mille mercis pour tout ce que tu as\nacheté ici ! On apprécie vraiment que\ntu fasses vivre ce commerce !{{pageBreak}}Et comme un petit cadeau vaut mieux\nqu'un long discours, je voudrais que\ntu acceptes ce {{color id=\"1\"}}badge {{color id=\"65535\"}}honorifique\namplement mérité. Au plaisir de faire\nencore affaire avec toi !"
  },
  {
    "label": "Clothes_ThanksBadgeB_00",
    "text": "Merci de ta visite chez Octo'Mooode,\nbloup ! Pardon, je peux parfois\nm'emporter...{{pageBreak}}Mais aujourd'hui, j'ai une bonne\nraison ! J'ai l'honneur de t'offrir LE\n{{color id=\"1\"}}badge {{color id=\"65535\"}}ultime, celui réservé à nos\nclients privilégiés, pour l'ensemble\nde tes achats dans ma boutique."
  },
  {
    "label": "Shoes_Welcome_00",
    "text": "Salut ! Ça roule ?"
  },
  {
    "label": "Shoes_WelcomeS",
    "text": "Salut ! Ça roule ?"
  },
  {
    "label": "Shoes_WelcomeRank04_00",
    "text": "Salut ! Ça roule ?\nBienvenue chez Crustapied !{{pageBreak}}Oh, visez-moi un peu cette classe !\nToi, tu mérites de voir toutes les\npompes que j'ai en stock !"
  },
  {
    "label": "Shoes_ExpFirst_00",
    "text": "Je t'apprends rien en disant qu'nos\npompes ont un p'tit quelque chose\nbien à elles... j'ai nommé le {{color id=\"1\"}}bonus\nd'équipement {{color id=\"65535\"}}!{{pageBreak}}Tant mieux si tu l'sais, d'ailleurs, vu\nque j'ai la flemme de t'expliquer. Elles\nsont classe et elles rendent classe,\ny a rien d'autre à dire. Si tu veux en\nsavoir plus, faudra appuyer sur {{icon id=\"11\" arg=\"0x0000803F00000000\"}}."
  },
  {
    "label": "Shoes_WelcomeRank10_00",
    "text": "Salut ! Ça roule ?\nBienvenue chez Crustapied !{{pageBreak}}Hé, mon p'tit doigt d'pied me dit\nque t'as suffisamment d'classe\npour essayer nos dernières pompes !"
  },
  {
    "label": "Shoes_WelcomeRank20_00",
    "text": "Salut ! Ça roule ?\nBienvenue chez Crustapied !{{pageBreak}}Ouah, j'en crois pas mes orteils !\nT'as la classe marine ! Mais avec\nnos pompes, tu vas avoir la classe\nocéanique, j'te dis que ça !"
  },
  {
    "label": "Shoes_WelcomeRank30_00",
    "text": "Salut ! Ça roule ?\nBienvenue chez Crustapied !{{pageBreak}}J'ai du jus d'citron dans les mirettes\nou j'vois bien c'que j'vois ? T'as\natteint la classe maximale, t'es\ncarrément hors concours ! J'espère\nque j'vais être à la hauteur..."
  },
  {
    "label": "Shoes_Offline_00",
    "text": "Salut, ça rou... Oh !{{pageBreak}}T'es hors ligne ! Sérieux, personne a\njamais acheté de pompes hors ligne !\nDans toute l'histoire des pompes !\nVa vite te connecter à {{color id=\"1\"}}Internet {{color id=\"65535\"}}depuis\nle {{color id=\"1\"}}hall{{color id=\"65535\"}}, tu m'fais de la peine, là."
  },
  {
    "label": "Shoes_RankShortage_00",
    "text": "Salut, ça roule ? J'voudrais pas\nêtre désagréable, mais niveau classe,\nc'est pas l'pied.{{pageBreak}}Je peux rien t'fourguer tant que t'es\npas au moins {{color id=\"1\"}}niveau 4{{color id=\"65535\"}}. J'y peux rien,\nc'est la dure loi des chaussures. Va\ndans le {{color id=\"1\"}}hall {{color id=\"65535\"}}faire quelques {{color id=\"1\"}}matchs de\nguerre de territoire{{color id=\"65535\"}} et reviens, OK ?"
  },
  {
    "label": "Shoes_BuyS",
    "text": "Celles-là ?"
  },
  {
    "label": "Shoes_EquipS",
    "text": "Tu les mets ?"
  },
  {
    "label": "Shoes_MoneyShortage_00",
    "text": "Oh, t'es à sec..."
  },
  {
    "label": "Shoes_RarityMax_00",
    "text": "J'veux pas la ramener, mais le nombre\nd'étoiles est déjà au max, là..."
  },
  {
    "label": "Shoes_BasicSkillSame_00",
    "text": "Euh, ces pompes ont l'même bonus\nprincipal, alors ça change rien, c'est\ncomme la mayo et l'aïoli : bonnet\nblanc et blanc bonnet... C'est bien\ndeux noms pour le même truc, hein ?"
  },
  {
    "label": "Shoes_SoldOut_00",
    "text": "Désolé, ces pompes sont en rupture\nde stock."
  },
  {
    "label": "Shoes_SoldOtherHome_00",
    "text": "Pas d'bol, j'ai déjà vendu tout ce que\nj'avais en stock."
  },
  {
    "label": "Shoes_ExpRarityUpAndReplace_00",
    "text": "Eh, j'crois que t'as une paire de\npompes dans ton inventaire qu'on a\naussi dans nos stocks. Du coup, tu\npeux {{color id=\"1\"}}échanger {{color id=\"65535\"}}ton exemplaire ou\naugmenter son {{color id=\"1\"}}nombre d'étoiles{{color id=\"65535\"}} !{{pageBreak}}{{color id=\"1\"}}Augmenter le nombre d'étoiles{{color id=\"65535\"}} permet\nd'augmenter les emplacements\nde bonus et l'EXP que tu t'fais en\nmatch ! Et l'{{color id=\"1\"}}échange{{color id=\"65535\"}}, ça permet\nd'changer les bonus principaux."
  },
  {
    "label": "Shoes_RarityUp_00",
    "text": "Eh, t'as déjà cette paire de pompes.\nTu veux {{color id=\"1\"}}augmenter son nombre\nd'étoiles{{color id=\"65535\"}} ou tu veux l'{{color id=\"1\"}}échanger{{color id=\"65535\"}}\ncontre une des nôtres ?"
  },
  {
    "label": "Shoes_ReplaceConfirm_00",
    "text": "Le {{color id=\"1\"}}nombre d'étoiles{{color id=\"65535\"}} et les {{color id=\"1\"}}bonus\nadditionnels{{color id=\"65535\"}} seront réinitialisés,\non est d'accord ?"
  },
  {
    "label": "Shoes_ThankYou_00",
    "text": "T'as bien raison. Et oublie pas,\ntu peux t'changer en utilisant\nl'menu de {{color id=\"1\"}}personnalisation {{color id=\"65535\"}}{{icon id=\"5\" arg=\"0x0000803F00000000\"}}."
  },
  {
    "label": "Shoes_ThanksBadgeA_00",
    "text": "Eh, tu t'radines toujours chez moi\npour acheter plein d'matos. T'assures\nun max !{{pageBreak}}D'ailleurs, pour te prouver que j'suis\npas ingrat, j'vais t'refiler un truc que\nj'refile qu'à mes meilleurs clients...\nUn {{color id=\"1\"}}badge {{color id=\"65535\"}}! Avec ça, tu vas en coller\nplein la tronche à tout l'monde !"
  },
  {
    "label": "Shoes_ThanksBadgeB_00",
    "text": "Ouah, t'as acheté des tonnes de\npompes dans ma boutique. Des clients\ncomme toi, ça court pas les rues.{{pageBreak}}Alors t'as bien mérité ça. Un {{color id=\"1\"}}badge{{color id=\"65535\"}}\nspécial réservé à l'élite de nos\nclients. Eh non, tu rêves pas !{{pageBreak}}J'en vois presque jamais et pourtant,\nc'est limite si j'pieute pas ici !\nLa preuve que ça doit être carrément\nrarissime. Les autres joueurs vont\nfaire une jaunisse en voyant ça !"
  }
]