[
  {
    "label": "Area04_Hidden_L01",
    "text": "ĂŦŴŲĩŋŇĤćĀǔǆȚ₧ỳ∑≒ŖŒĤŚ∫≫₂⁴ΤΖ·ΪηβπχψΘ΄΅ΉΪθδςΡΐ₂¤Óæ!+;*(}~2%#"
  },
  {
    "label": "Area04_Hidden_L02",
    "text": "dA`H%\"&J…„kdyt~θΦΙάΝΎ;΅‖₤£æ÷ùº©ÑÐða!59;ĕœġŶűŢŊ₂Ḃṫ‡∇≒∥∠ΡώξǆķĦŬŧV%"
  },
  {
    "label": "Area04_Hidden_L03",
    "text": "₁ṁỲ′•‐ĈŘŦĵē∠∀ΡΆθζφχΚΫ∴≈ƒǒș#3:hcr`}_?/\\;hąĿů₯₽ǆU$ɑ‐₣łŘ∥⊥※„Ǿß¤"
  },
  {
    "label": "Area04_Hidden_L04",
    "text": "¶µæÒ¡¡¢±»ºª¨©§ø÷ûë×ÒΩμàð₤‒―…‥※›⁚⁄′‰dB6Ykqb$#(*]^>?ΦΖΚϋεÑÐΦο₄ⁿ"
  },
  {
    "label": "Area04_Hidden_L05",
    "text": "−∨ǀǚț≪√ƒẃḂ£¥÷¾ÿ¬∵∥‼B@[gδΈͺ‡…※¢¡°₣_~/$¥¤±³µ₄∠∑ģŖŵĨQj"
  },
  {
    "label": "Area04_Hidden_L06",
    "text": "fC&Q3zvDBc₩₽₯Ḋẞ‧‚”⁚⋮⊿√∞¦¥¼ßçÕ∧∪‖ṖYGU$+LmxĕŅÃ÷×ŗŖŦεΔνω"
  },
  {
    "label": "Area04_Hidden_L07",
    "text": "ỳẞ₄※„ΆεΨν3ΞḊțẄ¥¿®º¸₄₤∇∵⊆⊥‘※ǆṖζΛ7έLlɑ†∫ƒǐǀ₃∀ĹŅŒŦ₤"
  },
  {
    "label": "Area04_Hidden_L08",
    "text": "‰ΥΩΊΉḊ…‛∧∥∵≧ηΗήξώ⁝₄ḟŻ?Ǿ¥¤±â×êΡΣΓ‡‛‾ŌĸŦſ…⁄≦∭©¿₩E<8ù"
  },
  {
    "label": "Area04_Hidden_L09",
    "text": "@$1[_/>L\\^LM~}xeTX6%…‖“※‹εΉΏǹ※ṗḿ%ΕΖΆćśĥⁿ∋∝¦Øþÿ¼¬₤.à'"
  },
  {
    "label": "Area04_Hidden_L10",
    "text": "6%zH⁝‼€ḟ¥¿ÝÞ¯¥¦§₃∑≒≈‡CSq{J)>/ζΆ΄Ξ©û÷₩‖—⁄EĉĸĴş₽∥∵ξΏΎͺ"
  },
  {
    "label": "Area04_Hidden_L11",
    "text": "∩∙ṁ€§¶Ç₤ṫⁿǽȘ&ÖÍýß¾6=+?t}ΦΘΈ·₁ġĦĿďĞW\""
  },
  {
    "label": "Area04_Hidden_L12",
    "text": "S#+_N?|~vU∵Ŏĝ∭∮VJlx₤ṗķřşfFN^≈⊿jZ‖’‥±¡òçS3@‡※ΓΕξΏ‘¿ÿ6ǜŊż₽ǔ´5"
  },
  {
    "label": "Area04_Analyzed_Title",
    "text": "El último día de la humanidad"
  },
  {
    "label": "Area04_Analyzed_L01",
    "text": "Con el paso de los años, la prosperidad llegó a Alterna y su población\naumentó cual marea en ascenso."
  },
  {
    "label": "Area04_Analyzed_L02",
    "text": "Los científicos que encabezaban estos grandes avances, ya ancianos,\nconsideraron que no podían hacer nada más por la civilización de Alterna."
  },
  {
    "label": "Area04_Analyzed_L03",
    "text": "Así que se dispusieron a elegir nuevos líderes para que ocuparan su lugar\nal frente del mundo reconstruido."
  },
  {
    "label": "Area04_Analyzed_L04",
    "text": "Sus jóvenes sucesores heredaron de ellos no solo su genialidad, sino\ntambién su enorme afán de innovación."
  },
  {
    "label": "Area04_Analyzed_L05",
    "text": "Esta nueva generación, nacida y educada en las profundidades de Alterna,\ndemostraría estar totalmente a la altura de sus antecesores."
  },
  {
    "label": "Area04_Analyzed_L06",
    "text": "No tardó en llegar el día en que, cansados de mirar el manto de cristales\nlíquidos sobre sus cabezas, se obsesionaron con poder contemplar el verdadero\ncielo del exterior."
  },
  {
    "label": "Area04_Analyzed_L07",
    "text": "Los ancianos del lugar, aquellos que en el pasado habían logrado huir\nde la devastación de la superficie, intentaron con vehemencia hacerlos\ndesistir de esa idea."
  },
  {
    "label": "Area04_Analyzed_L08",
    "text": "Sin embargo, pese a la oposición de los viejos científicos, los jóvenes\nprosiguieron con sus planes y construyeron un gigantesco cohete."
  },
  {
    "label": "Area04_Analyzed_L09",
    "text": "Hasta que un día, al efectuar una prueba de funcionamiento de los\npropulsores del cohete, sucedió la tragedia."
  },
  {
    "label": "Area04_Analyzed_L10",
    "text": "La energía liberada por los propulsores alcanzó los cristales líquidos\nque recubrían Alterna y se produjo una violenta reacción."
  },
  {
    "label": "Area04_Analyzed_L11",
    "text": "Debido a esta reacción, las rocas de las paredes interiores de Alterna\nse derrumbaron sobre la gente sin previo aviso."
  },
  {
    "label": "Area04_Analyzed_L12",
    "text": "Esto supuso el fin de Alterna, el último vestigio de civilización de\nla alguna vez próspera humanidad. Esta vez, ninguno de sus miembros\npudo sobrevivir por mucho tiempo."
  },
  {
    "label": "Area04_Analyze01_Title",
    "text": "El último día de la humanidad"
  },
  {
    "label": "Area04_Analyze01_T0",
    "text": "ĂŦŴŲĩŋŇĤćĀǔǆȚ₧ỳ∑≒ŖŒĤŚ∫≫₂⁴ΤΖ·ΪηβπχψΘ΄΅ΉΪθδςΡΐ₂¤Óæ!+;*(}~2%#\ndA`H%\"&J…„kdyt~θΦΙάΝΎ;΅‖₤£æ÷ùº©ÑÐða!59;ĕœġŶűŢŊ₂Ḃṫ‡∇≒∥∠ΡώξǆķĦŬŧV%\n₁ṁỲ′•‐ĈŘŦĵē∠∀ΡΆθζφχΚΫ∴≈ƒǒș#3:hcr`}_?/\\;hąĿů₯₽ǆU$ɑ‐₣łŘ∥⊥※„Ǿß¤\n¶µæÒ¡¡¢±»ºª¨©§ø÷ûë×ÒΩμàð₤‒―…‥※›⁚⁄′‰dB6Ykqb$#(*]^>?ΦΖΚϋεÑÐΦο₄ⁿ\n−∨ǀǚț≪√ƒẃḂ£¥÷¾ÿ¬∵∥‼B@[gδΈͺ‡…※¢¡°₣_~/$¥¤±³µ₄∠∑ģŖŵĨQj\nfC&Q3zvDBc₩₽₯Ḋẞ‧‚”⁚⋮⊿√∞¦¥¼ßçÕ∧∪‖ṖYGU$+LmxĕŅÃ÷×ŗŖŦεΔνω"
  },
  {
    "label": "Area04_Analyze01_T1",
    "text": "ỳẞ₄※„ΆεΨν3ΞḊțẄ¥¿®º¸₄₤∇∵⊆⊥‘※ǆṖζΛ7έLlɑ†∫ƒǐǀ₃∀ĹŅŒŦ₤\n‰ΥΩΊΉḊ…‛∧∥∵≧ηΗήξώ⁝₄ḟŻ?Ǿ¥¤±â×êΡΣΓ‡‛‾ŌĸŦſ…⁄≦∭©¿₩E<8ù\n@$1[_/>L\\^LM~}xeTX6%…‖“※‹εΉΏǹ※ṗḿ%ΕΖΆćśĥⁿ∋∝¦Øþÿ¼¬₤.à'\n6%zH⁝‼€ḟ¥¿ÝÞ¯¥¦§₃∑≒≈‡CSq{J)>/ζΆ΄Ξ©û÷₩‖—⁄EĉĸĴş₽∥∵ξΏΎͺ\n∩∙ṁ€§¶Ç₤ṫⁿǽȘ&ÖÍýß¾6=+?t}ΦΘΈ·₁ġĦĿďĞW\"\nS#+_N?|~vU∵Ŏĝ∭∮VJlx₤ṗķřşfFN^≈⊿jZ‖’‥±¡òçS3@‡※ΓΕξΏ‘¿ÿ6ǜŊż₽ǔ´5"
  },
  {
    "label": "Area04_Analyze02_Title",
    "text": "El último día de la humanidad"
  },
  {
    "label": "Area04_Analyze02_T0",
    "text": "Con el paso de los años, la prosperidad llegó a Alterna y su población\naumentó cual marea en ascenso.\ndA`H%\"&J…„kdyt~θΦΙάΝΎ;΅‖₤£æ÷ùº©ÑÐða!59;ĕœġŶűŢŊ₂Ḃṫ‡∇≒∥∠ΡώξǆķĦŬŧV%\n₁ṁỲ′•‐ĈŘŦĵē∠∀ΡΆθζφχΚΫ∴≈ƒǒș#3:hcr`}_?/\\;hąĿů₯₽ǆU$ɑ‐₣łŘ∥⊥※„Ǿß¤\n¶µæÒ¡¡¢±»ºª¨©§ø÷ûë×ÒΩμàð₤‒―…‥※›⁚⁄′‰dB6Ykqb$#(*]^>?ΦΖΚϋεÑÐΦο₄ⁿ\n−∨ǀǚț≪√ƒẃḂ£¥÷¾ÿ¬∵∥‼B@[gδΈͺ‡…※¢¡°₣_~/$¥¤±³µ₄∠∑ģŖŵĨQj\nfC&Q3zvDBc₩₽₯Ḋẞ‧‚”⁚⋮⊿√∞¦¥¼ßçÕ∧∪‖ṖYGU$+LmxĕŅÃ÷×ŗŖŦεΔνω"
  },
  {
    "label": "Area04_Analyze02_T1",
    "text": "ỳẞ₄※„ΆεΨν3ΞḊțẄ¥¿®º¸₄₤∇∵⊆⊥‘※ǆṖζΛ7έLlɑ†∫ƒǐǀ₃∀ĹŅŒŦ₤\n‰ΥΩΊΉḊ…‛∧∥∵≧ηΗήξώ⁝₄ḟŻ?Ǿ¥¤±â×êΡΣΓ‡‛‾ŌĸŦſ…⁄≦∭©¿₩E<8ù\n@$1[_/>L\\^LM~}xeTX6%…‖“※‹εΉΏǹ※ṗḿ%ΕΖΆćśĥⁿ∋∝¦Øþÿ¼¬₤.à'\n6%zH⁝‼€ḟ¥¿ÝÞ¯¥¦§₃∑≒≈‡CSq{J)>/ζΆ΄Ξ©û÷₩‖—⁄EĉĸĴş₽∥∵ξΏΎͺ\n∩∙ṁ€§¶Ç₤ṫⁿǽȘ&ÖÍýß¾6=+?t}ΦΘΈ·₁ġĦĿďĞW\"\nS#+_N?|~vU∵Ŏĝ∭∮VJlx₤ṗķřşfFN^≈⊿jZ‖’‥±¡òçS3@‡※ΓΕξΏ‘¿ÿ6ǜŊż₽ǔ´5"
  },
  {
    "label": "Area04_Analyze03_Title",
    "text": "El último día de la humanidad"
  },
  {
    "label": "Area04_Analyze03_T0",
    "text": "Con el paso de los años, la prosperidad llegó a Alterna y su población\naumentó cual marea en ascenso.\nLos científicos que encabezaban estos grandes avances, ya ancianos,\nconsideraron que no podían hacer nada más por la civilización de Alterna.\n₁ṁỲ′•‐ĈŘŦĵē∠∀ΡΆθζφχΚΫ∴≈ƒǒș#3:hcr`}_?/\\;hąĿů₯₽ǆU$ɑ‐₣łŘ∥⊥※„Ǿß¤\n¶µæÒ¡¡¢±»ºª¨©§ø÷ûë×ÒΩμàð₤‒―…‥※›⁚⁄′‰dB6Ykqb$#(*]^>?ΦΖΚϋεÑÐΦο₄ⁿ\n−∨ǀǚț≪√ƒẃḂ£¥÷¾ÿ¬∵∥‼B@[gδΈͺ‡…※¢¡°₣_~/$¥¤±³µ₄∠∑ģŖŵĨQj\nfC&Q3zvDBc₩₽₯Ḋẞ‧‚”⁚⋮⊿√∞¦¥¼ßçÕ∧∪‖ṖYGU$+LmxĕŅÃ÷×ŗŖŦεΔνω"
  },
  {
    "label": "Area04_Analyze03_T1",
    "text": "ỳẞ₄※„ΆεΨν3ΞḊțẄ¥¿®º¸₄₤∇∵⊆⊥‘※ǆṖζΛ7έLlɑ†∫ƒǐǀ₃∀ĹŅŒŦ₤\n‰ΥΩΊΉḊ…‛∧∥∵≧ηΗήξώ⁝₄ḟŻ?Ǿ¥¤±â×êΡΣΓ‡‛‾ŌĸŦſ…⁄≦∭©¿₩E<8ù\n@$1[_/>L\\^LM~}xeTX6%…‖“※‹εΉΏǹ※ṗḿ%ΕΖΆćśĥⁿ∋∝¦Øþÿ¼¬₤.à'\n6%zH⁝‼€ḟ¥¿ÝÞ¯¥¦§₃∑≒≈‡CSq{J)>/ζΆ΄Ξ©û÷₩‖—⁄EĉĸĴş₽∥∵ξΏΎͺ\n∩∙ṁ€§¶Ç₤ṫⁿǽȘ&ÖÍýß¾6=+?t}ΦΘΈ·₁ġĦĿďĞW\"\nS#+_N?|~vU∵Ŏĝ∭∮VJlx₤ṗķřşfFN^≈⊿jZ‖’‥±¡òçS3@‡※ΓΕξΏ‘¿ÿ6ǜŊż₽ǔ´5"
  },
  {
    "label": "Area04_Analyze04_Title",
    "text": "El último día de la humanidad"
  },
  {
    "label": "Area04_Analyze04_T0",
    "text": "Con el paso de los años, la prosperidad llegó a Alterna y su población\naumentó cual marea en ascenso.\nLos científicos que encabezaban estos grandes avances, ya ancianos,\nconsideraron que no podían hacer nada más por la civilización de Alterna.\nAsí que se dispusieron a elegir nuevos líderes para que ocuparan su lugar\nal frente del mundo reconstruido.\n¶µæÒ¡¡¢±»ºª¨©§ø÷ûë×ÒΩμàð₤‒―…‥※›⁚⁄′‰dB6Ykqb$#(*]^>?ΦΖΚϋεÑÐΦο₄ⁿ\n−∨ǀǚț≪√ƒẃḂ£¥÷¾ÿ¬∵∥‼B@[gδΈͺ‡…※¢¡°₣_~/$¥¤±³µ₄∠∑ģŖŵĨQj\nfC&Q3zvDBc₩₽₯Ḋẞ‧‚”⁚⋮⊿√∞¦¥¼ßçÕ∧∪‖ṖYGU$+LmxĕŅÃ÷×ŗŖŦεΔνω"
  },
  {
    "label": "Area04_Analyze04_T1",
    "text": "ỳẞ₄※„ΆεΨν3ΞḊțẄ¥¿®º¸₄₤∇∵⊆⊥‘※ǆṖζΛ7έLlɑ†∫ƒǐǀ₃∀ĹŅŒŦ₤\n‰ΥΩΊΉḊ…‛∧∥∵≧ηΗήξώ⁝₄ḟŻ?Ǿ¥¤±â×êΡΣΓ‡‛‾ŌĸŦſ…⁄≦∭©¿₩E<8ù\n@$1[_/>L\\^LM~}xeTX6%…‖“※‹εΉΏǹ※ṗḿ%ΕΖΆćśĥⁿ∋∝¦Øþÿ¼¬₤.à'\n6%zH⁝‼€ḟ¥¿ÝÞ¯¥¦§₃∑≒≈‡CSq{J)>/ζΆ΄Ξ©û÷₩‖—⁄EĉĸĴş₽∥∵ξΏΎͺ\n∩∙ṁ€§¶Ç₤ṫⁿǽȘ&ÖÍýß¾6=+?t}ΦΘΈ·₁ġĦĿďĞW\"\nS#+_N?|~vU∵Ŏĝ∭∮VJlx₤ṗķřşfFN^≈⊿jZ‖’‥±¡òçS3@‡※ΓΕξΏ‘¿ÿ6ǜŊż₽ǔ´5"
  },
  {
    "label": "Area04_Analyze05_Title",
    "text": "El último día de la humanidad"
  },
  {
    "label": "Area04_Analyze05_T0",
    "text": "Con el paso de los años, la prosperidad llegó a Alterna y su población\naumentó cual marea en ascenso.\nLos científicos que encabezaban estos grandes avances, ya ancianos,\nconsideraron que no podían hacer nada más por la civilización de Alterna.\nAsí que se dispusieron a elegir nuevos líderes para que ocuparan su lugar\nal frente del mundo reconstruido.\nSus jóvenes sucesores heredaron de ellos no solo su genialidad, sino\ntambién su enorme afán de innovación.\n−∨ǀǚț≪√ƒẃḂ£¥÷¾ÿ¬∵∥‼B@[gδΈͺ‡…※¢¡°₣_~/$¥¤±³µ₄∠∑ģŖŵĨQj\nfC&Q3zvDBc₩₽₯Ḋẞ‧‚”⁚⋮⊿√∞¦¥¼ßçÕ∧∪‖ṖYGU$+LmxĕŅÃ÷×ŗŖŦεΔνω"
  },
  {
    "label": "Area04_Analyze05_T1",
    "text": "ỳẞ₄※„ΆεΨν3ΞḊțẄ¥¿®º¸₄₤∇∵⊆⊥‘※ǆṖζΛ7έLlɑ†∫ƒǐǀ₃∀ĹŅŒŦ₤\n‰ΥΩΊΉḊ…‛∧∥∵≧ηΗήξώ⁝₄ḟŻ?Ǿ¥¤±â×êΡΣΓ‡‛‾ŌĸŦſ…⁄≦∭©¿₩E<8ù\n@$1[_/>L\\^LM~}xeTX6%…‖“※‹εΉΏǹ※ṗḿ%ΕΖΆćśĥⁿ∋∝¦Øþÿ¼¬₤.à'\n6%zH⁝‼€ḟ¥¿ÝÞ¯¥¦§₃∑≒≈‡CSq{J)>/ζΆ΄Ξ©û÷₩‖—⁄EĉĸĴş₽∥∵ξΏΎͺ\n∩∙ṁ€§¶Ç₤ṫⁿǽȘ&ÖÍýß¾6=+?t}ΦΘΈ·₁ġĦĿďĞW\"\nS#+_N?|~vU∵Ŏĝ∭∮VJlx₤ṗķřşfFN^≈⊿jZ‖’‥±¡òçS3@‡※ΓΕξΏ‘¿ÿ6ǜŊż₽ǔ´5"
  },
  {
    "label": "Area04_Analyze06_Title",
    "text": "El último día de la humanidad"
  },
  {
    "label": "Area04_Analyze06_T0",
    "text": "Con el paso de los años, la prosperidad llegó a Alterna y su población\naumentó cual marea en ascenso.\nLos científicos que encabezaban estos grandes avances, ya ancianos,\nconsideraron que no podían hacer nada más por la civilización de Alterna.\nAsí que se dispusieron a elegir nuevos líderes para que ocuparan su lugar\nal frente del mundo reconstruido.\nSus jóvenes sucesores heredaron de ellos no solo su genialidad, sino\ntambién su enorme afán de innovación.\nEsta nueva generación, nacida y educada en las profundidades de Alterna,\ndemostraría estar totalmente a la altura de sus antecesores.\nfC&Q3zvDBc₩₽₯Ḋẞ‧‚”⁚⋮⊿√∞¦¥¼ßçÕ∧∪‖ṖYGU$+LmxĕŅÃ÷×ŗŖŦεΔνω"
  },
  {
    "label": "Area04_Analyze06_T1",
    "text": "ỳẞ₄※„ΆεΨν3ΞḊțẄ¥¿®º¸₄₤∇∵⊆⊥‘※ǆṖζΛ7έLlɑ†∫ƒǐǀ₃∀ĹŅŒŦ₤\n‰ΥΩΊΉḊ…‛∧∥∵≧ηΗήξώ⁝₄ḟŻ?Ǿ¥¤±â×êΡΣΓ‡‛‾ŌĸŦſ…⁄≦∭©¿₩E<8ù\n@$1[_/>L\\^LM~}xeTX6%…‖“※‹εΉΏǹ※ṗḿ%ΕΖΆćśĥⁿ∋∝¦Øþÿ¼¬₤.à'\n6%zH⁝‼€ḟ¥¿ÝÞ¯¥¦§₃∑≒≈‡CSq{J)>/ζΆ΄Ξ©û÷₩‖—⁄EĉĸĴş₽∥∵ξΏΎͺ\n∩∙ṁ€§¶Ç₤ṫⁿǽȘ&ÖÍýß¾6=+?t}ΦΘΈ·₁ġĦĿďĞW\"\nS#+_N?|~vU∵Ŏĝ∭∮VJlx₤ṗķřşfFN^≈⊿jZ‖’‥±¡òçS3@‡※ΓΕξΏ‘¿ÿ6ǜŊż₽ǔ´5"
  },
  {
    "label": "Area04_Analyze07_Title",
    "text": "El último día de la humanidad"
  },
  {
    "label": "Area04_Analyze07_T0",
    "text": "Con el paso de los años, la prosperidad llegó a Alterna y su población\naumentó cual marea en ascenso.\nLos científicos que encabezaban estos grandes avances, ya ancianos,\nconsideraron que no podían hacer nada más por la civilización de Alterna.\nAsí que se dispusieron a elegir nuevos líderes para que ocuparan su lugar\nal frente del mundo reconstruido.\nSus jóvenes sucesores heredaron de ellos no solo su genialidad, sino\ntambién su enorme afán de innovación.\nEsta nueva generación, nacida y educada en las profundidades de Alterna,\ndemostraría estar totalmente a la altura de sus antecesores.\nNo tardó en llegar el día en que, cansados de mirar el manto de cristales\nlíquidos sobre sus cabezas, se obsesionaron con poder contemplar el verdadero\ncielo del exterior."
  },
  {
    "label": "Area04_Analyze07_T1",
    "text": "ỳẞ₄※„ΆεΨν3ΞḊțẄ¥¿®º¸₄₤∇∵⊆⊥‘※ǆṖζΛ7έLlɑ†∫ƒǐǀ₃∀ĹŅŒŦ₤\n‰ΥΩΊΉḊ…‛∧∥∵≧ηΗήξώ⁝₄ḟŻ?Ǿ¥¤±â×êΡΣΓ‡‛‾ŌĸŦſ…⁄≦∭©¿₩E<8ù\n@$1[_/>L\\^LM~}xeTX6%…‖“※‹εΉΏǹ※ṗḿ%ΕΖΆćśĥⁿ∋∝¦Øþÿ¼¬₤.à'\n6%zH⁝‼€ḟ¥¿ÝÞ¯¥¦§₃∑≒≈‡CSq{J)>/ζΆ΄Ξ©û÷₩‖—⁄EĉĸĴş₽∥∵ξΏΎͺ\n∩∙ṁ€§¶Ç₤ṫⁿǽȘ&ÖÍýß¾6=+?t}ΦΘΈ·₁ġĦĿďĞW\"\nS#+_N?|~vU∵Ŏĝ∭∮VJlx₤ṗķřşfFN^≈⊿jZ‖’‥±¡òçS3@‡※ΓΕξΏ‘¿ÿ6ǜŊż₽ǔ´5"
  },
  {
    "label": "Area04_Analyze08_Title",
    "text": "El último día de la humanidad"
  },
  {
    "label": "Area04_Analyze08_T0",
    "text": "Con el paso de los años, la prosperidad llegó a Alterna y su población\naumentó cual marea en ascenso.\nLos científicos que encabezaban estos grandes avances, ya ancianos,\nconsideraron que no podían hacer nada más por la civilización de Alterna.\nAsí que se dispusieron a elegir nuevos líderes para que ocuparan su lugar\nal frente del mundo reconstruido.\nSus jóvenes sucesores heredaron de ellos no solo su genialidad, sino\ntambién su enorme afán de innovación.\nEsta nueva generación, nacida y educada en las profundidades de Alterna,\ndemostraría estar totalmente a la altura de sus antecesores.\nNo tardó en llegar el día en que, cansados de mirar el manto de cristales\nlíquidos sobre sus cabezas, se obsesionaron con poder contemplar el verdadero\ncielo del exterior."
  },
  {
    "label": "Area04_Analyze08_T1",
    "text": "Los ancianos del lugar, aquellos que en el pasado habían logrado huir\nde la devastación de la superficie, intentaron con vehemencia hacerlos\ndesistir de esa idea.\n‰ΥΩΊΉḊ…‛∧∥∵≧ηΗήξώ⁝₄ḟŻ?Ǿ¥¤±â×êΡΣΓ‡‛‾ŌĸŦſ…⁄≦∭©¿₩E<8ù\n@$1[_/>L\\^LM~}xeTX6%…‖“※‹εΉΏǹ※ṗḿ%ΕΖΆćśĥⁿ∋∝¦Øþÿ¼¬₤.à'\n6%zH⁝‼€ḟ¥¿ÝÞ¯¥¦§₃∑≒≈‡CSq{J)>/ζΆ΄Ξ©û÷₩‖—⁄EĉĸĴş₽∥∵ξΏΎͺ\n∩∙ṁ€§¶Ç₤ṫⁿǽȘ&ÖÍýß¾6=+?t}ΦΘΈ·₁ġĦĿďĞW\"\nS#+_N?|~vU∵Ŏĝ∭∮VJlx₤ṗķřşfFN^≈⊿jZ‖’‥±¡òçS3@‡※ΓΕξΏ‘¿ÿ6ǜŊż₽ǔ´5"
  },
  {
    "label": "Area04_Analyze09_Title",
    "text": "El último día de la humanidad"
  },
  {
    "label": "Area04_Analyze09_T0",
    "text": "Con el paso de los años, la prosperidad llegó a Alterna y su población\naumentó cual marea en ascenso.\nLos científicos que encabezaban estos grandes avances, ya ancianos,\nconsideraron que no podían hacer nada más por la civilización de Alterna.\nAsí que se dispusieron a elegir nuevos líderes para que ocuparan su lugar\nal frente del mundo reconstruido.\nSus jóvenes sucesores heredaron de ellos no solo su genialidad, sino\ntambién su enorme afán de innovación.\nEsta nueva generación, nacida y educada en las profundidades de Alterna,\ndemostraría estar totalmente a la altura de sus antecesores.\nNo tardó en llegar el día en que, cansados de mirar el manto de cristales\nlíquidos sobre sus cabezas, se obsesionaron con poder contemplar el verdadero\ncielo del exterior."
  },
  {
    "label": "Area04_Analyze09_T1",
    "text": "Los ancianos del lugar, aquellos que en el pasado habían logrado huir\nde la devastación de la superficie, intentaron con vehemencia hacerlos\ndesistir de esa idea.\nSin embargo, pese a la oposición de los viejos científicos, los jóvenes\nprosiguieron con sus planes y construyeron un gigantesco cohete.\n@$1[_/>L\\^LM~}xeTX6%…‖“※‹εΉΏǹ※ṗḿ%ΕΖΆćśĥⁿ∋∝¦Øþÿ¼¬₤.à'\n6%zH⁝‼€ḟ¥¿ÝÞ¯¥¦§₃∑≒≈‡CSq{J)>/ζΆ΄Ξ©û÷₩‖—⁄EĉĸĴş₽∥∵ξΏΎͺ\n∩∙ṁ€§¶Ç₤ṫⁿǽȘ&ÖÍýß¾6=+?t}ΦΘΈ·₁ġĦĿďĞW\"\nS#+_N?|~vU∵Ŏĝ∭∮VJlx₤ṗķřşfFN^≈⊿jZ‖’‥±¡òçS3@‡※ΓΕξΏ‘¿ÿ6ǜŊż₽ǔ´5"
  },
  {
    "label": "Area04_Analyze10_Title",
    "text": "El último día de la humanidad"
  },
  {
    "label": "Area04_Analyze10_T0",
    "text": "Con el paso de los años, la prosperidad llegó a Alterna y su población\naumentó cual marea en ascenso.\nLos científicos que encabezaban estos grandes avances, ya ancianos,\nconsideraron que no podían hacer nada más por la civilización de Alterna.\nAsí que se dispusieron a elegir nuevos líderes para que ocuparan su lugar\nal frente del mundo reconstruido.\nSus jóvenes sucesores heredaron de ellos no solo su genialidad, sino\ntambién su enorme afán de innovación.\nEsta nueva generación, nacida y educada en las profundidades de Alterna,\ndemostraría estar totalmente a la altura de sus antecesores.\nNo tardó en llegar el día en que, cansados de mirar el manto de cristales\nlíquidos sobre sus cabezas, se obsesionaron con poder contemplar el verdadero\ncielo del exterior."
  },
  {
    "label": "Area04_Analyze10_T1",
    "text": "Los ancianos del lugar, aquellos que en el pasado habían logrado huir\nde la devastación de la superficie, intentaron con vehemencia hacerlos\ndesistir de esa idea.\nSin embargo, pese a la oposición de los viejos científicos, los jóvenes\nprosiguieron con sus planes y construyeron un gigantesco cohete.\nHasta que un día, al efectuar una prueba de funcionamiento de los\npropulsores del cohete, sucedió la tragedia.\n6%zH⁝‼€ḟ¥¿ÝÞ¯¥¦§₃∑≒≈‡CSq{J)>/ζΆ΄Ξ©û÷₩‖—⁄EĉĸĴş₽∥∵ξΏΎͺ\n∩∙ṁ€§¶Ç₤ṫⁿǽȘ&ÖÍýß¾6=+?t}ΦΘΈ·₁ġĦĿďĞW\"\nS#+_N?|~vU∵Ŏĝ∭∮VJlx₤ṗķřşfFN^≈⊿jZ‖’‥±¡òçS3@‡※ΓΕξΏ‘¿ÿ6ǜŊż₽ǔ´5"
  },
  {
    "label": "Area04_Analyze11_Title",
    "text": "El último día de la humanidad"
  },
  {
    "label": "Area04_Analyze11_T0",
    "text": "Con el paso de los años, la prosperidad llegó a Alterna y su población\naumentó cual marea en ascenso.\nLos científicos que encabezaban estos grandes avances, ya ancianos,\nconsideraron que no podían hacer nada más por la civilización de Alterna.\nAsí que se dispusieron a elegir nuevos líderes para que ocuparan su lugar\nal frente del mundo reconstruido.\nSus jóvenes sucesores heredaron de ellos no solo su genialidad, sino\ntambién su enorme afán de innovación.\nEsta nueva generación, nacida y educada en las profundidades de Alterna,\ndemostraría estar totalmente a la altura de sus antecesores.\nNo tardó en llegar el día en que, cansados de mirar el manto de cristales\nlíquidos sobre sus cabezas, se obsesionaron con poder contemplar el verdadero\ncielo del exterior."
  },
  {
    "label": "Area04_Analyze11_T1",
    "text": "Los ancianos del lugar, aquellos que en el pasado habían logrado huir\nde la devastación de la superficie, intentaron con vehemencia hacerlos\ndesistir de esa idea.\nSin embargo, pese a la oposición de los viejos científicos, los jóvenes\nprosiguieron con sus planes y construyeron un gigantesco cohete.\nHasta que un día, al efectuar una prueba de funcionamiento de los\npropulsores del cohete, sucedió la tragedia.\nLa energía liberada por los propulsores alcanzó los cristales líquidos\nque recubrían Alterna y se produjo una violenta reacción.\n∩∙ṁ€§¶Ç₤ṫⁿǽȘ&ÖÍýß¾6=+?t}ΦΘΈ·₁ġĦĿďĞW\"\nS#+_N?|~vU∵Ŏĝ∭∮VJlx₤ṗķřşfFN^≈⊿jZ‖’‥±¡òçS3@‡※ΓΕξΏ‘¿ÿ6ǜŊż₽ǔ´5"
  },
  {
    "label": "Area04_Analyze12_Title",
    "text": "El último día de la humanidad"
  },
  {
    "label": "Area04_Analyze12_T0",
    "text": "Con el paso de los años, la prosperidad llegó a Alterna y su población\naumentó cual marea en ascenso.\nLos científicos que encabezaban estos grandes avances, ya ancianos,\nconsideraron que no podían hacer nada más por la civilización de Alterna.\nAsí que se dispusieron a elegir nuevos líderes para que ocuparan su lugar\nal frente del mundo reconstruido.\nSus jóvenes sucesores heredaron de ellos no solo su genialidad, sino\ntambién su enorme afán de innovación.\nEsta nueva generación, nacida y educada en las profundidades de Alterna,\ndemostraría estar totalmente a la altura de sus antecesores.\nNo tardó en llegar el día en que, cansados de mirar el manto de cristales\nlíquidos sobre sus cabezas, se obsesionaron con poder contemplar el verdadero\ncielo del exterior."
  },
  {
    "label": "Area04_Analyze12_T1",
    "text": "Los ancianos del lugar, aquellos que en el pasado habían logrado huir\nde la devastación de la superficie, intentaron con vehemencia hacerlos\ndesistir de esa idea.\nSin embargo, pese a la oposición de los viejos científicos, los jóvenes\nprosiguieron con sus planes y construyeron un gigantesco cohete.\nHasta que un día, al efectuar una prueba de funcionamiento de los\npropulsores del cohete, sucedió la tragedia.\nLa energía liberada por los propulsores alcanzó los cristales líquidos\nque recubrían Alterna y se produjo una violenta reacción.\nDebido a esta reacción, las rocas de las paredes interiores de Alterna\nse derrumbaron sobre la gente sin previo aviso.\nS#+_N?|~vU∵Ŏĝ∭∮VJlx₤ṗķřşfFN^≈⊿jZ‖’‥±¡òçS3@‡※ΓΕξΏ‘¿ÿ6ǜŊż₽ǔ´5"
  },
  {
    "label": "Area04_Analyze13_Title",
    "text": "El último día de la humanidad"
  },
  {
    "label": "Area04_Analyze13_T0",
    "text": "Con el paso de los años, la prosperidad llegó a Alterna y su población\naumentó cual marea en ascenso.\nLos científicos que encabezaban estos grandes avances, ya ancianos,\nconsideraron que no podían hacer nada más por la civilización de Alterna.\nAsí que se dispusieron a elegir nuevos líderes para que ocuparan su lugar\nal frente del mundo reconstruido.\nSus jóvenes sucesores heredaron de ellos no solo su genialidad, sino\ntambién su enorme afán de innovación.\nEsta nueva generación, nacida y educada en las profundidades de Alterna,\ndemostraría estar totalmente a la altura de sus antecesores.\nNo tardó en llegar el día en que, cansados de mirar el manto de cristales\nlíquidos sobre sus cabezas, se obsesionaron con poder contemplar el verdadero\ncielo del exterior."
  },
  {
    "label": "Area04_Analyze13_T1",
    "text": "Los ancianos del lugar, aquellos que en el pasado habían logrado huir\nde la devastación de la superficie, intentaron con vehemencia hacerlos\ndesistir de esa idea.\nSin embargo, pese a la oposición de los viejos científicos, los jóvenes\nprosiguieron con sus planes y construyeron un gigantesco cohete.\nHasta que un día, al efectuar una prueba de funcionamiento de los\npropulsores del cohete, sucedió la tragedia.\nLa energía liberada por los propulsores alcanzó los cristales líquidos\nque recubrían Alterna y se produjo una violenta reacción.\nDebido a esta reacción, las rocas de las paredes interiores de Alterna\nse derrumbaron sobre la gente sin previo aviso.\nEsto supuso el fin de Alterna, el último vestigio de civilización de\nla alguna vez próspera humanidad. Esta vez, ninguno de sus miembros\npudo sobrevivir por mucho tiempo."
  }
]