[
  {
    "label": "Hello",
    "text": "¡Hola, hola! ¿Cómo estás hoy?"
  },
  {
    "label": "FirstExplain",
    "text": "Es la primera vez que vienes por aquí,\n¿verdad? ¡Qué maravilla, mi clientela\nestá aumentando!{{pageBreak}}No es por presumir, pero la comida\nque ofrezco no se limita a quitar el\nhambre. ¡También te hace ganar más\ndinero y experiencia en los combates!{{pageBreak}}Solo un detallito más: en mi tienda\nno se puede pagar con dinero. Solo\nacepto boletos, sintiéndolo mucho.\nY ahora dime: ¿qué te gustaría?"
  },
  {
    "label": "Select",
    "text": "¡Todo está rico!"
  },
  {
    "label": "Confirm",
    "text": "¿Seguro?"
  },
  {
    "label": "OverwriteConfirm",
    "text": "¿En serio?"
  },
  {
    "label": "NoTicket",
    "text": "¿No tienes ni un solo boleto?\nLamento no poder ayudarte a calmar\ntu hambre, corazón, pero tendrás\nque conseguir boletos primero."
  },
  {
    "label": "RemainOtherBoost",
    "text": "Me parece que todavía tienes encima\nel efecto de lo último que me pediste.\n¿Y aún así tienes apetito?{{pageBreak}}Te puedo preparar otra cosa, pero\nsu efecto sustituirá al que tienes\nahora. ¿Seguro que es eso\nlo que quieres?"
  },
  {
    "label": "Bye",
    "text": "¡Gracias y vuelve pronto!"
  }
]