[
  {
    "label": "PartyMoney_Up",
    "text": "Combo Maridori con todo"
  },
  {
    "label": "PartyExp_Up",
    "text": "Combo Maridori con vegetales"
  },
  {
    "label": "BattleMoney_Up_01",
    "text": "Arepa crustácea"
  },
  {
    "label": "BattleMoney_Up_02",
    "text": "Arepa crustácea doble"
  },
  {
    "label": "BattleExp_Up_01",
    "text": "Enrollado experimental"
  },
  {
    "label": "BattleExp_Up_02",
    "text": "Enrollado superexperimental"
  },
  {
    "label": "MainInk_Save",
    "text": "Limonada ahorradora principal"
  },
  {
    "label": "SubInk_Save",
    "text": "Mora ahorradora secundaria"
  },
  {
    "label": "InkRecovery_Up",
    "text": "Melón recargador"
  },
  {
    "label": "HumanMove_Up",
    "text": "Tomate acelerador"
  },
  {
    "label": "SquidMove_Up",
    "text": "Cereza nadadora"
  },
  {
    "label": "SpecialIncrease_Up",
    "text": "Refresco especial sobrecargado"
  },
  {
    "label": "RespawnSpecialGauge_Save",
    "text": "Elixir antirreductor"
  },
  {
    "label": "SpecialTime_Up",
    "text": "Refresco superespecial"
  },
  {
    "label": "RespawnTime_Save",
    "text": "Té reanimador"
  },
  {
    "label": "JumpTime_Save",
    "text": "Naranja saltarina"
  },
  {
    "label": "BombDistance_Up",
    "text": "Jugo supersecundario"
  },
  {
    "label": "OpInkEffect_Reduction",
    "text": "Uva antitinta"
  },
  {
    "label": "SubEffect_Reduction",
    "text": "Néctar antisecundario"
  },
  {
    "label": "Action_Up",
    "text": "Concentrado agilizante"
  }
]