[
  {
    "label": "Msg_NoContest",
    "text": "Uno o más participantes se han desconectado\npoco después de comenzar el combate, así que\nel resultado queda invalidado. (A quienes se han\ndesconectado se les asignará una derrota.)"
  },
  {
    "label": "Msg_NoContest_Group",
    "text": "El combate ha finalizado porque uno o más\nparticipantes a los que te habías unido se han\ndesconectado. Se te asignará una derrota."
  },
  {
    "label": "Msg_NoContest_Private",
    "text": "{{color id=\"1\"}}{{string value=\"PlayerName\" arg1=\"0\" arg3=\"0\"}}{{color id=\"65535\"}} ha finalizado el combate."
  },
  {
    "label": "Msg_SpectatorCannotPhoto",
    "text": "Los espectadores no pueden sacar fotos."
  }
]