[
  {
    "label": "Shooter_Short_00",
    "text": "广域标记枪"
  },
  {
    "label": "Shooter_Short_01",
    "text": "广域标记枪 新型"
  },
  {
    "label": "Shooter_First_00",
    "text": "新叶射击枪"
  },
  {
    "label": "Shooter_First_01",
    "text": "枫叶射击枪"
  },
  {
    "label": "Shooter_Precision_00",
    "text": "窄域标记枪"
  },
  {
    "label": "Shooter_Precision_01",
    "text": "窄域标记枪 新型"
  },
  {
    "label": "Shooter_Blaze_00",
    "text": "专业模型枪MG"
  },
  {
    "label": "Shooter_Blaze_01",
    "text": "专业模型枪RG"
  },
  {
    "label": "Shooter_Normal_00",
    "text": "斯普拉射击枪"
  },
  {
    "label": "Shooter_Normal_01",
    "text": "斯普拉射击枪 联名"
  },
  {
    "label": "Shooter_Normal_H",
    "text": "英雄射击枪 复制"
  },
  {
    "label": "Shooter_Normal_Oct",
    "text": "章鱼射击枪 复制"
  },
  {
    "label": "Shooter_Gravity_00",
    "text": ".52加仑"
  },
  {
    "label": "Shooter_Gravity_01",
    "text": ".52加仑 装饰"
  },
  {
    "label": "Shooter_QuickMiddle_00",
    "text": "N-ZAP85"
  },
  {
    "label": "Shooter_QuickMiddle_01",
    "text": "N-ZAP89"
  },
  {
    "label": "Shooter_Expert_00",
    "text": "顶尖射击枪"
  },
  {
    "label": "Shooter_Expert_01",
    "text": "顶尖射击枪 联名"
  },
  {
    "label": "Shooter_Heavy_00",
    "text": ".96加仑"
  },
  {
    "label": "Shooter_Heavy_01",
    "text": ".96加仑 装饰"
  },
  {
    "label": "Shooter_Long_00",
    "text": "喷射清洁枪"
  },
  {
    "label": "Shooter_Long_01",
    "text": "喷射清洁枪 改装"
  },
  {
    "label": "Blaster_Short_00",
    "text": "新星爆破枪"
  },
  {
    "label": "Blaster_Short_01",
    "text": "新星爆破枪 新型"
  },
  {
    "label": "Blaster_Middle_00",
    "text": "火热爆破枪"
  },
  {
    "label": "Blaster_Middle_01",
    "text": "火热爆破枪 改装"
  },
  {
    "label": "Blaster_Long_00",
    "text": "远距爆破枪"
  },
  {
    "label": "Blaster_Long_01",
    "text": "远距爆破枪 改装"
  },
  {
    "label": "Blaster_LightShort_00",
    "text": "冲涂爆破枪"
  },
  {
    "label": "Blaster_LightShort_01",
    "text": "冲涂爆破枪 新型"
  },
  {
    "label": "Blaster_Light_00",
    "text": "快速爆破枪"
  },
  {
    "label": "Blaster_Light_01",
    "text": "快速爆破枪 装饰"
  },
  {
    "label": "Blaster_LightLong_00",
    "text": "快速爆破枪 精英"
  },
  {
    "label": "Blaster_LightLong_01",
    "text": "快速爆破枪 精英装饰"
  },
  {
    "label": "Shooter_TripleQuick_00",
    "text": "L3卷管枪"
  },
  {
    "label": "Shooter_TripleQuick_01",
    "text": "L3卷管枪D"
  },
  {
    "label": "Shooter_TripleMiddle_00",
    "text": "H3卷管枪"
  },
  {
    "label": "Shooter_TripleMiddle_01",
    "text": "H3卷管枪D"
  },
  {
    "label": "Shooter_Flash_00",
    "text": "开瓶喷泉枪"
  },
  {
    "label": "Shooter_Flash_01",
    "text": "开瓶喷泉枪 金属箔"
  },
  {
    "label": "Roller_Compact_00",
    "text": "碳纤维滚筒"
  },
  {
    "label": "Roller_Compact_01",
    "text": "碳纤维滚筒 装饰"
  },
  {
    "label": "Roller_Normal_00",
    "text": "斯普拉滚筒"
  },
  {
    "label": "Roller_Normal_01",
    "text": "斯普拉滚筒 联名"
  },
  {
    "label": "Roller_Heavy_00",
    "text": "电动马达滚筒"
  },
  {
    "label": "Roller_Heavy_01",
    "text": "电动马达滚筒 高磁波"
  },
  {
    "label": "Roller_Hunter_00",
    "text": "可变式滚筒"
  },
  {
    "label": "Roller_Hunter_01",
    "text": "可变式滚筒 金属箔"
  },
  {
    "label": "Brush_Mini_00",
    "text": "巴勃罗"
  },
  {
    "label": "Brush_Mini_01",
    "text": "巴勃罗·新艺术"
  },
  {
    "label": "Brush_Normal_00",
    "text": "北斋"
  },
  {
    "label": "Brush_Normal_01",
    "text": "北斋·新艺术"
  },
  {
    "label": "Charger_Quick_00",
    "text": "鱿快洁α"
  },
  {
    "label": "Charger_Quick_01",
    "text": "鱿快洁β"
  },
  {
    "label": "Charger_Normal_00",
    "text": "斯普拉蓄力狙击枪"
  },
  {
    "label": "Charger_Normal_01",
    "text": "斯普拉蓄力狙击枪 联名"
  },
  {
    "label": "Charger_NormalScope_00",
    "text": "斯普拉准星枪"
  },
  {
    "label": "Charger_NormalScope_01",
    "text": "斯普拉准星枪 联名"
  },
  {
    "label": "Charger_Long_00",
    "text": "公升4K"
  },
  {
    "label": "Charger_Long_01",
    "text": "公升4K 改装"
  },
  {
    "label": "Charger_LongScope_00",
    "text": "4K准星枪"
  },
  {
    "label": "Charger_LongScope_01",
    "text": "4K准星枪 改装"
  },
  {
    "label": "Charger_Light_00",
    "text": "14式竹筒枪·甲"
  },
  {
    "label": "Charger_Light_01",
    "text": "14式竹筒枪·乙"
  },
  {
    "label": "Charger_Keeper_00",
    "text": "高压油管枪"
  },
  {
    "label": "Charger_Keeper_01",
    "text": "高压油管枪 改装"
  },
  {
    "label": "Slosher_Strong_00",
    "text": "飞溅泼桶"
  },
  {
    "label": "Slosher_Strong_01",
    "text": "飞溅泼桶 装饰"
  },
  {
    "label": "Slosher_Diffusion_00",
    "text": "洗笔桶"
  },
  {
    "label": "Slosher_Diffusion_01",
    "text": "洗笔桶·新艺术"
  },
  {
    "label": "Slosher_Launcher_00",
    "text": "回旋泼桶"
  },
  {
    "label": "Slosher_Launcher_01",
    "text": "回旋泼桶 新型"
  },
  {
    "label": "Slosher_Bathtub_00",
    "text": "满溢泡澡泼桶"
  },
  {
    "label": "Slosher_Bathtub_01",
    "text": "满溢泡澡泼桶 装饰"
  },
  {
    "label": "Slosher_Washtub_00",
    "text": "爆炸泼桶"
  },
  {
    "label": "Slosher_Washtub_01",
    "text": "爆炸泼桶 改装"
  },
  {
    "label": "Spinner_Quick_00",
    "text": "斯普拉旋转枪"
  },
  {
    "label": "Spinner_Quick_01",
    "text": "斯普拉旋转枪 联名"
  },
  {
    "label": "Spinner_Standard_00",
    "text": "桶装旋转枪"
  },
  {
    "label": "Spinner_Standard_01",
    "text": "桶装旋转枪 装饰"
  },
  {
    "label": "Spinner_Hyper_00",
    "text": "消防栓旋转枪"
  },
  {
    "label": "Spinner_Hyper_01",
    "text": "消防栓旋转枪 改装"
  },
  {
    "label": "Spinner_Downpour_00",
    "text": "圆珠笔"
  },
  {
    "label": "Spinner_Downpour_01",
    "text": "圆珠笔·新艺术"
  },
  {
    "label": "Spinner_Serein_00",
    "text": "鹦鹉螺号47"
  },
  {
    "label": "Spinner_Serein_01",
    "text": "鹦鹉螺号79"
  },
  {
    "label": "Maneuver_Short_00",
    "text": "溅镀枪"
  },
  {
    "label": "Maneuver_Short_01",
    "text": "溅镀枪·新艺术"
  },
  {
    "label": "Maneuver_Normal_00",
    "text": "斯普拉机动枪"
  },
  {
    "label": "Maneuver_Normal_01",
    "text": "斯普拉机动枪 联名"
  },
  {
    "label": "Maneuver_Gallon_00",
    "text": "开尔文525"
  },
  {
    "label": "Maneuver_Gallon_01",
    "text": "开尔文525 装饰"
  },
  {
    "label": "Maneuver_Dual_00",
    "text": "双重清洁枪"
  },
  {
    "label": "Maneuver_Dual_01",
    "text": "双重清洁枪 改装"
  },
  {
    "label": "Maneuver_Stepper_00",
    "text": "四重弹跳手枪 黑"
  },
  {
    "label": "Maneuver_Stepper_01",
    "text": "四重弹跳手枪 白"
  },
  {
    "label": "Shelter_Normal_00",
    "text": "遮阳防空伞"
  },
  {
    "label": "Shelter_Normal_01",
    "text": "遮阳防空伞 姐妹"
  },
  {
    "label": "Shelter_Wide_00",
    "text": "露营防空伞"
  },
  {
    "label": "Shelter_Wide_01",
    "text": "露营防空伞 姐妹"
  },
  {
    "label": "Stringer_Normal_00",
    "text": "三发猎鱼弓"
  },
  {
    "label": "Stringer_Normal_01",
    "text": "三发猎鱼弓 联名"
  },
  {
    "label": "Stringer_Explosion_00",
    "text": "邦普V"
  },
  {
    "label": "Stringer_Explosion_01",
    "text": "邦普V 改装"
  },
  {
    "label": "Stringer_Short_00",
    "text": "LACT-450"
  },
  {
    "label": "Stringer_Short_01",
    "text": "LACT-450 装饰"
  },
  {
    "label": "Shelter_Compact_00",
    "text": "特工配件"
  },
  {
    "label": "Shelter_Compact_01",
    "text": "特工配件 姐妹"
  },
  {
    "label": "Saber_Normal_00",
    "text": "工作刮水刀"
  },
  {
    "label": "Saber_Normal_01",
    "text": "工作刮水刀·新艺术"
  },
  {
    "label": "Saber_Heavy_00",
    "text": "巨齿刮水刀 薄荷"
  },
  {
    "label": "Saber_Heavy_01",
    "text": "巨齿刮水刀 墨黑"
  },
  {
    "label": "Saber_Lite_00",
    "text": "雨刷刮水刀"
  },
  {
    "label": "Saber_Lite_01",
    "text": "雨刷刮水刀 装饰"
  },
  {
    "label": "Shooter_QuickLong_00",
    "text": "太空射击枪"
  },
  {
    "label": "Shooter_QuickLong_01",
    "text": "太空射击枪 联名"
  },
  {
    "label": "Roller_Wide_00",
    "text": "宽滚筒"
  },
  {
    "label": "Roller_Wide_01",
    "text": "宽滚筒 联名"
  },
  {
    "label": "Brush_Heavy_00",
    "text": "文森"
  },
  {
    "label": "Brush_Heavy_01",
    "text": "文森·新艺术"
  },
  {
    "label": "Charger_Pencil_00",
    "text": "R-PEN/5H"
  },
  {
    "label": "Charger_Pencil_01",
    "text": "R-PEN/5B"
  },
  {
    "label": "Blaster_Precision_00",
    "text": "S-BLAST92"
  },
  {
    "label": "Blaster_Precision_01",
    "text": "S-BLAST91"
  },
  {
    "label": "Spinner_HyperShort_00",
    "text": "审查者"
  },
  {
    "label": "Spinner_HyperShort_01",
    "text": "审查者·新艺术"
  },
  {
    "label": "Slosher_Double_00",
    "text": "墨瀑淋"
  },
  {
    "label": "Slosher_Double_01",
    "text": "墨瀑淋D"
  },
  {
    "label": "Maneuver_Long_00",
    "text": "灭熄FF"
  },
  {
    "label": "Maneuver_Long_01",
    "text": "灭熄FF 改装"
  },
  {
    "label": "Shelter_Focus_00",
    "text": "24式可替换伞·甲"
  },
  {
    "label": "Shelter_Focus_01",
    "text": "24式可替换伞·乙"
  },
  {
    "label": "Maneuver_Normal_O",
    "text": "秩序机动枪 复制"
  },
  {
    "label": "Shelter_Normal_O",
    "text": "秩序防空伞 复制"
  },
  {
    "label": "Shooter_Normal_O",
    "text": "秩序射击枪 复制"
  },
  {
    "label": "Roller_Normal_O",
    "text": "秩序滚筒 复制"
  },
  {
    "label": "Charger_Normal_O",
    "text": "秩序蓄力狙击枪 复制"
  },
  {
    "label": "Slosher_Strong_O",
    "text": "秩序泼桶 复制"
  },
  {
    "label": "Spinner_Standard_O",
    "text": "秩序旋转枪 复制"
  },
  {
    "label": "Blaster_Short_O",
    "text": "秩序爆破枪 复制"
  },
  {
    "label": "Brush_Normal_O",
    "text": "秩序排刷 复制"
  },
  {
    "label": "Stringer_Normal_O",
    "text": "秩序猎鱼弓 复制"
  },
  {
    "label": "Saber_Normal_O",
    "text": "秩序刮水刀 复制"
  },
  {
    "label": "Blaster_Light_Coop",
    "text": "快速爆破枪"
  },
  {
    "label": "Blaster_LightLong_Coop",
    "text": "快速爆破枪 精英"
  },
  {
    "label": "Blaster_LightShort_Coop",
    "text": "冲涂爆破枪"
  },
  {
    "label": "Blaster_Long_Coop",
    "text": "远距爆破枪"
  },
  {
    "label": "Blaster_Middle_Coop",
    "text": "火热爆破枪"
  },
  {
    "label": "Blaster_Short_Coop",
    "text": "新星爆破枪"
  },
  {
    "label": "Brush_Mini_Coop",
    "text": "巴勃罗"
  },
  {
    "label": "Brush_Normal_Coop",
    "text": "北斋"
  },
  {
    "label": "Charger_Keeper_Coop",
    "text": "高压油管枪"
  },
  {
    "label": "Charger_Light_Coop",
    "text": "14式竹筒枪·甲"
  },
  {
    "label": "Charger_Long_Coop",
    "text": "公升4K"
  },
  {
    "label": "Charger_Normal_Coop",
    "text": "斯普拉蓄力狙击枪"
  },
  {
    "label": "Charger_Quick_Coop",
    "text": "鱿快洁α"
  },
  {
    "label": "Maneuver_Dual_Coop",
    "text": "双重清洁枪"
  },
  {
    "label": "Maneuver_Gallon_Coop",
    "text": "开尔文525"
  },
  {
    "label": "Maneuver_Normal_Coop",
    "text": "斯普拉机动枪"
  },
  {
    "label": "Maneuver_Short_Coop",
    "text": "溅镀枪"
  },
  {
    "label": "Maneuver_Stepper_Coop",
    "text": "四重弹跳手枪 黑"
  },
  {
    "label": "Roller_Compact_Coop",
    "text": "碳纤维滚筒"
  },
  {
    "label": "Roller_Heavy_Coop",
    "text": "电动马达滚筒"
  },
  {
    "label": "Roller_Hunter_Coop",
    "text": "可变式滚筒"
  },
  {
    "label": "Roller_Normal_Coop",
    "text": "斯普拉滚筒"
  },
  {
    "label": "Shelter_Compact_Coop",
    "text": "特工配件"
  },
  {
    "label": "Shelter_Normal_Coop",
    "text": "遮阳防空伞"
  },
  {
    "label": "Shelter_Wide_Coop",
    "text": "露营防空伞"
  },
  {
    "label": "Shooter_Blaze_Coop",
    "text": "专业模型枪MG"
  },
  {
    "label": "Shooter_Expert_Coop",
    "text": "顶尖射击枪"
  },
  {
    "label": "Shooter_First_Coop",
    "text": "新叶射击枪"
  },
  {
    "label": "Shooter_Flash_Coop",
    "text": "开瓶喷泉枪"
  },
  {
    "label": "Shooter_Gravity_Coop",
    "text": ".52加仑"
  },
  {
    "label": "Shooter_Heavy_Coop",
    "text": ".96加仑"
  },
  {
    "label": "Shooter_Long_Coop",
    "text": "喷射清洁枪"
  },
  {
    "label": "Shooter_Normal_Coop",
    "text": "斯普拉射击枪"
  },
  {
    "label": "Shooter_Precision_Coop",
    "text": "窄域标记枪"
  },
  {
    "label": "Shooter_QuickMiddle_Coop",
    "text": "N-ZAP85"
  },
  {
    "label": "Shooter_Short_Coop",
    "text": "广域标记枪"
  },
  {
    "label": "Shooter_TripleMiddle_Coop",
    "text": "H3卷管枪"
  },
  {
    "label": "Shooter_TripleQuick_Coop",
    "text": "L3卷管枪"
  },
  {
    "label": "Slosher_Bathtub_Coop",
    "text": "满溢泡澡泼桶"
  },
  {
    "label": "Slosher_Diffusion_Coop",
    "text": "洗笔桶"
  },
  {
    "label": "Slosher_Launcher_Coop",
    "text": "回旋泼桶"
  },
  {
    "label": "Slosher_Strong_Coop",
    "text": "飞溅泼桶"
  },
  {
    "label": "Slosher_Washtub_Coop",
    "text": "爆炸泼桶"
  },
  {
    "label": "Spinner_Downpour_Coop",
    "text": "圆珠笔"
  },
  {
    "label": "Spinner_Hyper_Coop",
    "text": "消防栓旋转枪"
  },
  {
    "label": "Spinner_Quick_Coop",
    "text": "斯普拉旋转枪"
  },
  {
    "label": "Spinner_Serein_Coop",
    "text": "鹦鹉螺号47"
  },
  {
    "label": "Spinner_Standard_Coop",
    "text": "桶装旋转枪"
  },
  {
    "label": "Stringer_Normal_Coop",
    "text": "三发猎鱼弓"
  },
  {
    "label": "Stringer_Short_Coop",
    "text": "LACT-450"
  },
  {
    "label": "Saber_Normal_Coop",
    "text": "工作刮水刀"
  },
  {
    "label": "Saber_Lite_Coop",
    "text": "雨刷刮水刀"
  },
  {
    "label": "Shooter_QuickLong_Coop",
    "text": "太空射击枪"
  },
  {
    "label": "Roller_Wide_Coop",
    "text": "宽滚筒"
  },
  {
    "label": "Charger_Pencil_Coop",
    "text": "R-PEN/5H"
  },
  {
    "label": "Brush_Heavy_Coop",
    "text": "文森"
  },
  {
    "label": "Blaster_Precision_Coop",
    "text": "S-BLAST92"
  },
  {
    "label": "Slosher_Double_Coop",
    "text": "墨瀑淋"
  },
  {
    "label": "Spinner_HyperShort_Coop",
    "text": "审查者"
  },
  {
    "label": "Maneuver_Long_Coop",
    "text": "灭熄FF"
  },
  {
    "label": "Shelter_Focus_Coop",
    "text": "24式可替换伞·甲"
  },
  {
    "label": "Saber_Heavy_Coop",
    "text": "巨齿刮水刀 薄荷"
  },
  {
    "label": "Stringer_Explosion_Coop",
    "text": "邦普V"
  },
  {
    "label": "Blaster_Bear_Coop",
    "text": "熊先生印章爆破枪"
  },
  {
    "label": "Charger_Bear_Coop",
    "text": "熊先生印章狙击枪"
  },
  {
    "label": "Saber_Bear_Coop",
    "text": "熊先生印章刮水刀"
  },
  {
    "label": "Shelter_Bear_Coop",
    "text": "熊先生印章防空伞"
  },
  {
    "label": "Slosher_Bear_Coop",
    "text": "熊先生印章泼桶"
  },
  {
    "label": "Stringer_Bear_Coop",
    "text": "熊先生印章猎鱼弓"
  },
  {
    "label": "Maneuver_Bear_Coop",
    "text": "熊先生印章机动枪"
  },
  {
    "label": "Roller_Bear_Coop",
    "text": "熊先生印章滚筒"
  },
  {
    "label": "Free",
    "text": "-"
  },
  {
    "label": "Shooter_RivalLv1_00",
    "text": "-"
  },
  {
    "label": "Shooter_RivalLv2_00",
    "text": "-"
  },
  {
    "label": "Blaster_RivalLv1_00",
    "text": "-"
  },
  {
    "label": "Blaster_RivalLv2_00",
    "text": "-"
  },
  {
    "label": "Brush_RivalLv1_00",
    "text": "-"
  },
  {
    "label": "Brush_RivalLv2_00",
    "text": "-"
  },
  {
    "label": "Maneuver_RivalLv1_00",
    "text": "-"
  },
  {
    "label": "Maneuver_RivalLv2_00",
    "text": "-"
  },
  {
    "label": "Roller_RivalLv1_00",
    "text": "-"
  },
  {
    "label": "Roller_RivalLv2_00",
    "text": "-"
  },
  {
    "label": "Shelter_RivalLv1_00",
    "text": "-"
  },
  {
    "label": "Shelter_RivalLv2_00",
    "text": "-"
  },
  {
    "label": "Slosher_RivalLv1_00",
    "text": "-"
  },
  {
    "label": "Slosher_RivalLv2_00",
    "text": "-"
  },
  {
    "label": "Shooter_MissionLv1_00",
    "text": "ヒーローシューターLv1"
  },
  {
    "label": "Shooter_MissionLv2_00",
    "text": "ヒーローシューターLv2"
  },
  {
    "label": "Shooter_MissionLv3_00",
    "text": "ヒーローシューターLv3"
  },
  {
    "label": "Blaster_LightLong_Msn",
    "text": "快速爆破枪 精英"
  },
  {
    "label": "Blaster_LightShort_Msn",
    "text": "冲涂爆破枪"
  },
  {
    "label": "Blaster_Light_Msn",
    "text": "快速爆破枪"
  },
  {
    "label": "Blaster_Long_Msn",
    "text": "远距爆破枪"
  },
  {
    "label": "Blaster_Middle_Msn",
    "text": "火热爆破枪"
  },
  {
    "label": "Blaster_Short_Msn",
    "text": "新星爆破枪"
  },
  {
    "label": "Brush_Mini_Msn",
    "text": "巴勃罗"
  },
  {
    "label": "Brush_Normal_Msn",
    "text": "北斋"
  },
  {
    "label": "Charger_Keeper_Msn",
    "text": "高压油管枪"
  },
  {
    "label": "Charger_Light_Msn",
    "text": "14式竹筒枪·甲"
  },
  {
    "label": "Charger_LongScope_Msn",
    "text": "4K准星枪"
  },
  {
    "label": "Charger_Long_Msn",
    "text": "公升4K"
  },
  {
    "label": "Charger_NormalScope_Msn",
    "text": "斯普拉准星枪"
  },
  {
    "label": "Charger_Normal_Msn",
    "text": "斯普拉蓄力狙击枪"
  },
  {
    "label": "Charger_Quick_Msn",
    "text": "鱿快洁α"
  },
  {
    "label": "Maneuver_Dual_Msn",
    "text": "双重清洁枪"
  },
  {
    "label": "Maneuver_Gallon_Msn",
    "text": "开尔文525"
  },
  {
    "label": "Maneuver_Normal_Msn",
    "text": "斯普拉机动枪"
  },
  {
    "label": "Maneuver_Short_Msn",
    "text": "溅镀枪"
  },
  {
    "label": "Maneuver_Stepper_Msn",
    "text": "四重弹跳手枪 黑"
  },
  {
    "label": "Roller_Compact_Msn",
    "text": "碳纤维滚筒"
  },
  {
    "label": "Roller_Heavy_Msn",
    "text": "电动马达滚筒"
  },
  {
    "label": "Roller_Hunter_Msn",
    "text": "可变式滚筒"
  },
  {
    "label": "Roller_Normal_Msn",
    "text": "斯普拉滚筒"
  },
  {
    "label": "Saber_Normal_Msn",
    "text": "工作刮水刀"
  },
  {
    "label": "Shelter_Compact_Msn",
    "text": "特工配件"
  },
  {
    "label": "Shelter_Normal_Msn",
    "text": "遮阳防空伞"
  },
  {
    "label": "Shelter_Wide_Msn",
    "text": "露营防空伞"
  },
  {
    "label": "Shooter_Blaze_Msn",
    "text": "专业模型枪MG"
  },
  {
    "label": "Shooter_Expert_Msn",
    "text": "顶尖射击枪"
  },
  {
    "label": "Shooter_First_Msn",
    "text": "新叶射击枪"
  },
  {
    "label": "Shooter_Flash_Msn",
    "text": "开瓶喷泉枪"
  },
  {
    "label": "Shooter_Gravity_Msn",
    "text": ".52加仑"
  },
  {
    "label": "Shooter_Heavy_Msn",
    "text": ".96加仑"
  },
  {
    "label": "Shooter_Long_Msn",
    "text": "喷射清洁枪"
  },
  {
    "label": "Shooter_Normal_Msn",
    "text": "斯普拉射击枪"
  },
  {
    "label": "Shooter_Precision_Msn",
    "text": "窄域标记枪"
  },
  {
    "label": "Shooter_QuickMiddle_Msn",
    "text": "N-ZAP85"
  },
  {
    "label": "Shooter_Short_Msn",
    "text": "广域标记枪"
  },
  {
    "label": "Shooter_TripleMiddle_Msn",
    "text": "H3卷管枪"
  },
  {
    "label": "Shooter_TripleQuick_Msn",
    "text": "L3卷管枪"
  },
  {
    "label": "Slosher_Bathtub_Msn",
    "text": "满溢泡澡泼桶"
  },
  {
    "label": "Slosher_Diffusion_Msn",
    "text": "洗笔桶"
  },
  {
    "label": "Slosher_Launcher_Msn",
    "text": "回旋泼桶"
  },
  {
    "label": "Slosher_Strong_Msn",
    "text": "飞溅泼桶"
  },
  {
    "label": "Slosher_Washtub_Msn",
    "text": "爆炸泼桶"
  },
  {
    "label": "Spinner_Downpour_Msn",
    "text": "圆珠笔"
  },
  {
    "label": "Spinner_Hyper_Msn",
    "text": "消防栓旋转枪"
  },
  {
    "label": "Spinner_Quick_Msn",
    "text": "斯普拉旋转枪"
  },
  {
    "label": "Spinner_Serein_Msn",
    "text": "鹦鹉螺号47"
  },
  {
    "label": "Spinner_Standard_Msn",
    "text": "桶装旋转枪"
  },
  {
    "label": "Stringer_Normal_Msn",
    "text": "三发猎鱼弓"
  },
  {
    "label": "Shooter_ExtraOne_Sdodr",
    "text": "シューター"
  },
  {
    "label": "Shooter_ExtraTwo_Sdodr",
    "text": "オクタシューター"
  },
  {
    "label": "Blaster_ExtraOne_Sdodr",
    "text": "ブラスター"
  },
  {
    "label": "Charger_ExtraOne_Sdodr",
    "text": "チャージャー"
  },
  {
    "label": "Brush_Sdodr",
    "text": "フデ"
  },
  {
    "label": "Maneuver_Sdodr",
    "text": "マニューバー"
  },
  {
    "label": "Roller_Sdodr",
    "text": "ローラー"
  },
  {
    "label": "Saber_Sdodr",
    "text": "ワイパー"
  },
  {
    "label": "Shelter_Sdodr",
    "text": "シェルター"
  },
  {
    "label": "Slosher_Sdodr",
    "text": "スロッシャー"
  },
  {
    "label": "Spinner_Sdodr",
    "text": "スピナー"
  },
  {
    "label": "Stringer_Sdodr",
    "text": "ストリンガー"
  }
]