[
  {
    "label": "063057dc-6367-46c7-ad8c-4157a13ecf6f",
    "text": "Hey, those're {{color id=\"1\"}}dash tracks {{color id=\"65535\"}}up ahead! Dive onto one,\nand you'll go flyin'!"
  },
  {
    "label": "3c65ff85-1310-4b35-a2d7-39789d76a492",
    "text": "Booyah! Now just grab that {{color id=\"1\"}}Zapfish{{color id=\"65535\"}} and skedaddle!"
  },
  {
    "label": "762f2d5c-6af2-4c2f-8784-fdaeda4a9452",
    "text": "Not sure what you're lookin' for, but I don't think\nit's here, kiddo."
  },
  {
    "label": "bd6545ac-4bde-419d-afd5-009d3f4b1b63",
    "text": "Now's the time to squid after it! Press {{icon id=\"11\" arg=\"0x0000803F00000000\"}} to\nbloop {{color id=\"1\"}}into the ink{{color id=\"65535\"}} and start swimmin'!"
  },
  {
    "label": "9be47f6d-1fca-4d29-a4a2-cb046ec2465d",
    "text": "Remember...you can {{color id=\"1\"}}jump {{color id=\"65535\"}}with {{icon id=\"1\" arg=\"0x0000803F00000000\"}}!"
  }
]