[
  {
    "label": "272d8490-91e2-42c0-8868-f8836d972cf4",
    "text": "Aaaaaand done! Behold!"
  },
  {
    "label": "4182c9c6-a44c-4e3a-8bf9-57678a27adea",
    "text": "Hm. Why does it look so familiar..."
  },
  {
    "label": "42db31ea-9c2b-4928-b6b1-efcdca1f50cd",
    "text": "It's all good—don't sweat it. Just keep calm\nand take your time."
  },
  {
    "label": "458e5e6e-38b2-47fe-b285-f72b1b083cff",
    "text": "Don't forget to admire your handiwork."
  },
  {
    "label": "6993ef7d-ea58-4769-ac53-4c825a89fa88",
    "text": "Art takes time, even if you're copying. Don't rush it."
  },
  {
    "label": "6c92dd11-6960-4da7-aecc-b7207d940c7b",
    "text": "We're stuck here if you mess up, so think BEFORE\nyou ink those crates!"
  },
  {
    "label": "7239c43a-a753-460e-a78a-f8ab10a1d5d6",
    "text": "I think you gotta copy what's on the left."
  },
  {
    "label": "79e5828f-4287-43ee-a157-a82d0b25f65d",
    "text": "We HAVE seen that somewhere, right?"
  },
  {
    "label": "7e9d47e2-5efe-45da-967e-3edd35b846a3",
    "text": "{{string value=\"5\"}}... ... ...{{fun_000F_0004 arg=\"0x0500\"}}"
  },
  {
    "label": "81dfb674-1ad3-4e98-851d-dab1ff6588a3",
    "text": "You can use the {{color id=\"1\"}}Zipcaster {{color id=\"65535\"}}to get to those platforms.\nJust hit {{color id=\"1\"}}{{icon id=\"10\" arg=\"0x0000803F00000000\"}}{{color id=\"65535\"}}."
  },
  {
    "label": "90757e58-3cfd-4b1e-969a-ef1fbb908c7f",
    "text": "Remember—the {{color id=\"1\"}}Sloshing Machine{{color id=\"65535\"}} flings ink in an arc."
  },
  {
    "label": "99e84346-adcc-4a32-936d-79859bbab28d",
    "text": "{{string value=\"5\"}}... ... ...{{fun_000F_0004 arg=\"0x0500\"}}"
  },
  {
    "label": "a32fe856-865d-412b-a799-a1233705f020",
    "text": "It looks even cooler from here!"
  },
  {
    "label": "a889ec2e-d131-4245-b674-ee0f41104f30",
    "text": "Want to take a closer look at your masterpiece?\nOr just hit the road?"
  },
  {
    "label": "a92b8578-0739-44d2-b231-2174a993378d",
    "text": "It's all good—don't sweat it. Just keep calm\nand take your time."
  },
  {
    "label": "ba8b2fba-02e7-4a88-8fc6-db674e0fc40c",
    "text": "Hey, there's no messing up in art! But do be\ncareful, Agent 3."
  },
  {
    "label": "cf74fc31-9d8e-4ed5-9c15-71842f909756",
    "text": "Y'know, a fully charged shot will blast right through\nthose crates. Just sayin'."
  },
  {
    "label": "d1e6e852-2623-4cd2-8bcb-02fc42716ded",
    "text": "It's all good—don't sweat it. Just keep calm\nand take your time."
  },
  {
    "label": "d9c88c5f-2b17-464e-83af-49780860420e",
    "text": "If you REALLY need to get the ink out there, tap {{icon id=\"12\" arg=\"0x0000803F00000000\"}}!"
  },
  {
    "label": "fc743b58-e36f-463e-9894-b73e10e79382",
    "text": "Ooo, that part looks complicated..."
  }
]