[
  {
    "label": "09439641-2adb-4069-8f5d-3af8046ad294",
    "text": "Nice! Keep it up!"
  },
  {
    "label": "1205a3dd-d2c5-4bed-86aa-141f82aa3448",
    "text": "GO, GO, GO!"
  },
  {
    "label": "3aeafc61-b444-4f78-9dd1-c62f71768f1b",
    "text": "I think you missed something..."
  },
  {
    "label": "41e09780-9027-4838-965f-62db9c954cf9",
    "text": "That was tense! Even Smallfry was bouncin'!"
  },
  {
    "label": "4829f9d3-4c0e-44e3-ac16-317e719c734c",
    "text": "Those refill your ink, so grab 'em when you see 'em."
  },
  {
    "label": "49f37cc4-ca22-4a26-8f11-0b651a025172",
    "text": "Did you miss a {{color id=\"1\"}}splat switch{{color id=\"65535\"}}? 'Cause I feel like you\nmissed a {{color id=\"1\"}}splat switch{{color id=\"65535\"}}..."
  },
  {
    "label": "4eb020db-1dec-413e-bf3b-38018d2a0b89",
    "text": "Don't stop now!"
  },
  {
    "label": "4fcf7db1-294f-497d-bc0c-0cde352bc120",
    "text": "I see one, two...{{delay frames=\"5\"}} Whew! That's a LOT of {{color id=\"1\"}}splat switches{{color id=\"65535\"}}.{{delay frames=\"5\"}}\nJust ink 'em in order, I guess!"
  },
  {
    "label": "4fd7c4c3-cd03-43a8-ae17-badcc7024e24",
    "text": "Nice! Hope you're feeling all warmed up, 'cause it's\nabout to get serious."
  },
  {
    "label": "6e374df9-0208-4fb0-946d-8f2e398fe0cf",
    "text": "I'd say we've earned a few Power Eggs."
  },
  {
    "label": "73137a92-9bab-438f-a36b-c54ec985875d",
    "text": "I'm not gonna lie. You KINDA made an inky mess of\nthe place. But at least you made it to the end!"
  },
  {
    "label": "777c0315-99a6-435b-ac5a-d27e77975072",
    "text": "You can't miss ANY {{color id=\"1\"}}splat switches{{color id=\"65535\"}}!"
  },
  {
    "label": "8ec782e5-ab00-4e0e-8aea-53b3aa80e0e3",
    "text": "Wow... I would NOT wanna be the one to have to clean\nthis place up. What a mess."
  },
  {
    "label": "96935915-b31b-45b5-aae8-abeb93bd9a5d",
    "text": "And TIME!"
  },
  {
    "label": "af3e5138-492b-4a4f-bf6a-a462947e7688",
    "text": "Yeah, that was pretty good! By the way,\nhave you seen this?"
  },
  {
    "label": "db3d0bc3-89a2-483a-aa64-5a12cb03fccc",
    "text": "Yeah, that was pretty good! By the way,\nhave you seen this?"
  },
  {
    "label": "e7c28788-8e85-4de4-bd90-0ac454e0e331",
    "text": "You can ink a lot of ground by holding {{icon id=\"12\" arg=\"0x0000803F00000000\"}} while you're\non the move."
  },
  {
    "label": "f3841151-f955-4c0f-8a87-83bcb291ef0c",
    "text": "That was tense! Even Smallfry was bouncin'!"
  }
]