[
  {
    "label": "0fb02278-90e5-4617-8e0a-b5cd6ee45bc6",
    "text": "Marina? Helloooooo! 'Riiinaaa!"
  },
  {
    "label": "2874d094-88fb-4264-a4d4-a581574cfe61",
    "text": "This place kiiinda looks like Inkopolis Square.\nBut how'd it get like this?"
  },
  {
    "label": "c2d55068-b052-4a68-bf3a-8eb61b3a65dc",
    "text": "Are those lockers? I don't remember those bein' there."
  },
  {
    "label": "f1d0167f-812c-4bd4-8806-0294e163c690",
    "text": "Although...somethin' about these lockers feels\nREAL familiar."
  }
]