[
  {
    "label": "9c587cab-3e7b-4057-b888-d0832c9b56c4",
    "text": "What's this funnel-lookin' thing?"
  },
  {
    "label": "1bed1adf-33dd-4555-b2d1-9ff4ad1b525f",
    "text": "Stare too long at that thing, and you'll go cross-eyed."
  },
  {
    "label": "6ac09845-6b16-4414-a27e-c357181a9591",
    "text": "This thing again? Let's cut it down to size."
  },
  {
    "label": "4a878929-b755-4feb-b137-596fd82a6b12",
    "text": "It's a tough enemy, but you're tougher!\nGood luck, Eight!"
  },
  {
    "label": "16bb9c5b-ae56-4ee2-81c8-3e341c5a7410",
    "text": "Probably shouldn't have let that {{color id=\"4\"}}searchlight {{color id=\"65535\"}}see us."
  },
  {
    "label": "95821f05-8565-4b7f-811d-2638cd3caa9e",
    "text": "We better hightail it, Eight!"
  },
  {
    "label": "6850dc3d-817b-4329-9ea1-174676777826",
    "text": "You've been spotted. Time to cut and run."
  },
  {
    "label": "6e4389d1-2e3d-4224-a33a-9d6c029aacb9",
    "text": "Now that it's seen you, it's going to attack. Run!"
  },
  {
    "label": "83333d96-d700-449d-bc73-0ab377def2dd",
    "text": "It saw us! Book it, Eight!"
  },
  {
    "label": "81cf2207-5289-468b-8be0-3020317ae4ea",
    "text": "When it stretches up like that, it's telegraphing\na wave attack. So watch your step."
  },
  {
    "label": "a7a51ad3-eb23-4afe-bd3b-fd0d17d92dfe",
    "text": "It's starting to smoke. This could be our chance."
  },
  {
    "label": "f2781e80-dbc3-4943-9b2c-f751cd9c70d7",
    "text": "Weird how the thing stretches up when you get close."
  },
  {
    "label": "823a540d-8c9a-454f-b494-9b9169ccd1ed",
    "text": "Uh-oh, that can't be good. Watch yourself!"
  },
  {
    "label": "9d7a0624-5217-494d-be02-0767ead6dcb5",
    "text": "It's up to something. Stay sharp."
  },
  {
    "label": "6f372fbc-0837-4d20-91b5-213ab45ffa7b",
    "text": "Be careful! It's on the attack!"
  },
  {
    "label": "e04e99ff-a7cf-4f3f-bf85-9fb929685434",
    "text": "Eight! Something's coming at us!"
  },
  {
    "label": "53c56fc0-8621-4073-88fa-45def26e7b40",
    "text": "Eight! Watch out for the homing ones!"
  },
  {
    "label": "9598a1a3-0716-4f56-a040-0e3af647db68",
    "text": "Heads up! You got incoming."
  },
  {
    "label": "805fc56f-7570-4aa4-bc16-ee65e5ce1f68",
    "text": "What's with all the cheap bomb spam?!"
  },
  {
    "label": "f60d28f6-18d2-416b-9231-aa33c0418250",
    "text": "It's got bombs?! Get outta there, Eight!"
  },
  {
    "label": "48871f26-2120-46f8-a0a0-0e76fee4c87e",
    "text": "Aw yeah! Pour it on!"
  },
  {
    "label": "edd311c4-c260-4e3f-b034-9833b5a60064",
    "text": "Nice! You're chewing through the stack!"
  },
  {
    "label": "8ac55961-da9c-43ab-8587-646286c1f5e6",
    "text": "Keep it up. Don't stop until it's over."
  },
  {
    "label": "366705e6-00f9-4e0f-9905-8dbff8dc51ac",
    "text": "WHAM! One down, a whole bunch to go!"
  },
  {
    "label": "6faa4033-3e2b-4f6f-b8e6-d45bcd744f20",
    "text": "Aw yeah! That's what I call a good start!"
  },
  {
    "label": "fc648494-7a29-4781-9cd2-6bbb21129796",
    "text": "BOOYAH! Take that!"
  },
  {
    "label": "00277b56-c5b4-49df-925c-8bafe60853bb",
    "text": "Glad it's not me having to take that thing down.\nReally nice work, Eight."
  },
  {
    "label": "f5103654-3515-4747-bf23-3320102022d9",
    "text": "We did it? Eight! Pearl! We did it!"
  },
  {
    "label": "1a5ec2a8-40f4-4fcc-8b69-d9a687c18869",
    "text": "It's slowing down. Now's your chance to get in there!"
  },
  {
    "label": "6470af20-1d54-47eb-a3dc-ce3a10fbf88c",
    "text": "It's looking pretty wobbly. Now's the time to go in\nfor the finisher!"
  },
  {
    "label": "745feb7b-98c3-4725-80fd-d278b884b80b",
    "text": "Now's your chance, Eight. Go for the face!\nWhich face? ANY FACE!"
  }
]