[
  {
    "label": "1bef1742-e641-43bd-b6b8-91996e07de4b",
    "text": "They're slippery, but there's only one left."
  },
  {
    "label": "2ff46da6-802e-43cf-bbba-e922a0b0eb6a",
    "text": "Try inking the ground around where {{icon id=\"60\" arg=\"0x0000803F00000000\"}}they're\nchilling. That should halt them in their tracks."
  },
  {
    "label": "3cc92024-c9b0-4a0b-b289-d87aff48eb4c",
    "text": "Armor's good insurance against getting splatted."
  },
  {
    "label": "71d1ebe6-2d88-418b-a8bf-31f5acc6cafd",
    "text": "I should've mentioned this, but you can make the\ncage go faster by tilting {{icon id=\"75\" arg=\"0xEC51383FFEFFFFFF\"}}."
  },
  {
    "label": "880f8768-74e2-426b-9592-08caa8f30d82",
    "text": "Nice!"
  },
  {
    "label": "a6335c97-396f-4633-ac23-781c83b5712b",
    "text": "I see some {{icon id=\"65\" arg=\"0x0000803F00000000\"}}{{color id=\"4\"}}armor{{color id=\"65535\"}}!"
  }
]