[
  {
    "label": "Painted",
    "text": "Прокрашено врагами"
  },
  {
    "label": "NoItemDrop",
    "text": "Без предметов"
  },
  {
    "label": "NoDroneBuddy",
    "text": "Без дрона"
  },
  {
    "label": "ReinforceEnemy",
    "text": "Сильные консервиторы"
  },
  {
    "label": "InfiniteTreeMissile",
    "text": "Торпеджиата"
  },
  {
    "label": "Fog",
    "text": "Темнота"
  },
  {
    "label": "Painted_Fog",
    "text": "Темнота + Прокрашено врагами"
  },
  {
    "label": "ReinforceEnemy_InfiniteTreeMissile",
    "text": "Сильные консервиторы + Торпеджиата"
  },
  {
    "label": "NoItemDrop_NoDroneBuddy",
    "text": "Без дрона + Без предметов"
  }
]