[
  {
    "label": "antHell_ball",
    "text": "Файл этажа: Впадина.floor"
  },
  {
    "label": "antHell_area",
    "text": "Файл этажа: Атака(Впадина).floor"
  },
  {
    "label": "antHell_chase",
    "text": "Файл этажа: Впадина.floor"
  },
  {
    "label": "antHell_spawner",
    "text": "Файл этажа: Горячая_точка(Впадина).floor"
  },
  {
    "label": "antHell_spawner_2",
    "text": "Файл этажа: Впадина.floor"
  },
  {
    "label": "antHell_lift",
    "text": "Файл этажа: Впадина.floor"
  },
  {
    "label": "smallPyramid_ball",
    "text": "Файл этажа: Пирамида.floor"
  },
  {
    "label": "smallPyramid_area",
    "text": "Файл этажа: Пирамида.floor"
  },
  {
    "label": "smallPyramid_chase",
    "text": "Файл этажа: Ловкая_атлетика(Пирамида).floor"
  },
  {
    "label": "smallPyramid_spawner",
    "text": "Файл этажа: Трамплин(Пирамида).floor"
  },
  {
    "label": "smallPyramid_spawner_2",
    "text": "Файл этажа: Пирамида.floor"
  },
  {
    "label": "smallPyramid_lift",
    "text": "Файл этажа: Пирамида.floor"
  },
  {
    "label": "rising_ball",
    "text": "Файл этажа: Подъемник.floor"
  },
  {
    "label": "rising_area",
    "text": "Файл этажа: Открытая_зона(Подъемник).floor"
  },
  {
    "label": "rising_chase",
    "text": "Файл этажа: Подъемник.floor"
  },
  {
    "label": "rising_spawner",
    "text": "Файл этажа: Бомбардировка(Подъемник).floor"
  },
  {
    "label": "rising_spawner_2",
    "text": "Файл этажа: Подъемник.floor"
  },
  {
    "label": "rising_lift",
    "text": "Файл этажа: Подъемник.floor"
  },
  {
    "label": "tower_ball",
    "text": "Файл этажа: Башня.floor"
  },
  {
    "label": "tower_area",
    "text": "Файл этажа: Башня.floor"
  },
  {
    "label": "tower_chase",
    "text": "Файл этажа: Вверх_вниз(Башня).floor"
  },
  {
    "label": "tower_spawner",
    "text": "Файл этажа: Башня.floor"
  },
  {
    "label": "tower_spawner_2",
    "text": "Файл этажа: Башня.floor"
  },
  {
    "label": "tower_lift",
    "text": "Файл этажа: Башня.floor"
  },
  {
    "label": "meadow_ball",
    "text": "Файл этажа: Эспланада.floor"
  },
  {
    "label": "meadow_area",
    "text": "Файл этажа: Эспланада.floor"
  },
  {
    "label": "meadow_chase",
    "text": "Файл этажа: Погоня(Эспланада).floor"
  },
  {
    "label": "meadow_spawner",
    "text": "Файл этажа: Без_укрытия(Эспланада).floor"
  },
  {
    "label": "meadow_spawner_2",
    "text": "Файл этажа: Эспланада.floor"
  },
  {
    "label": "meadow_lift",
    "text": "Файл этажа: Эспланада.floor"
  },
  {
    "label": "golf_ball",
    "text": "Файл этажа: Макси_гольф.floor"
  },
  {
    "label": "spongeHidding_chase",
    "text": "Файл этажа: Снайпер.floor"
  },
  {
    "label": "dash_spawner",
    "text": "Файл этажа: Треугольная_акробатика.floor"
  },
  {
    "label": "shells_area",
    "text": "Файл этажа: Вертушки_в_стае.floor"
  },
  {
    "label": "bombs_spawner",
    "text": "Файл этажа: Взрывфест.floor"
  },
  {
    "label": "grindRail_chase",
    "text": "Файл этажа: Орбитрельсы.floor"
  },
  {
    "label": "oneRoad_ball",
    "text": "Файл этажа: Давилка.floor"
  },
  {
    "label": "bigSlope_ball",
    "text": "Файл этажа: В_гору.floor"
  },
  {
    "label": "spiderweb_area",
    "text": "Файл этажа: Уклоняемся_туда_сюда.floor"
  },
  {
    "label": "stones_lift",
    "text": "Файл этажа: Хитрые_ступеньки.floor"
  },
  {
    "label": "windingRoad_ball",
    "text": "Файл этажа: Зигзаг.floor"
  },
  {
    "label": "windingRoad_area",
    "text": "Файл этажа: Открытая_зона(Зигзаг).floor"
  },
  {
    "label": "windingRoad_chase",
    "text": "Файл этажа: Прыжки_с_края(Зигзаг).floor"
  },
  {
    "label": "windingRoad_spawner",
    "text": "Файл этажа: Горячая_точка(Зигзаг).floor"
  },
  {
    "label": "windingRoad_lift",
    "text": "Файл этажа: Сезон_охоты(Зигзаг).floor"
  },
  {
    "label": "x_ball",
    "text": "Файл этажа: Сезон_охоты(Икс).floor"
  },
  {
    "label": "x_area",
    "text": "Файл этажа: Двухъярусная_суматоха(Икс).floor"
  },
  {
    "label": "x_chase",
    "text": "Файл этажа: Икс.floor"
  },
  {
    "label": "x_spawner",
    "text": "Файл этажа: Икс.floor"
  },
  {
    "label": "x_lift",
    "text": "Файл этажа: Горячая_точка(Икс).floor"
  },
  {
    "label": "hills_ball",
    "text": "Файл этажа: Катушки(Два_холма).floor"
  },
  {
    "label": "hills_area",
    "text": "Файл этажа: Пинг_понг(Два_холма).floor"
  },
  {
    "label": "hills_chase",
    "text": "Файл этажа: Два_холма.floor"
  },
  {
    "label": "hills_spawner",
    "text": "Файл этажа: Прыгуны_в_стае(Два_холма).floor"
  },
  {
    "label": "hills_lift",
    "text": "Файл этажа: Прыгуны(Два_холма).floor"
  },
  {
    "label": "lunarSurface_ball",
    "text": "Файл этажа: Горячая_точка(Кочки).floor"
  },
  {
    "label": "lunarSurface_area",
    "text": "Файл этажа: Экстрим_снаряды(Кочки).floor"
  },
  {
    "label": "lunarSurface_chase",
    "text": "Файл этажа: Прыгуны(Кочки).floor"
  },
  {
    "label": "lunarSurface_spawner",
    "text": "Файл этажа: Тянемся_вовсю(Кочки).floor"
  },
  {
    "label": "lunarSurface_lift",
    "text": "Файл этажа: Экстрим_сезон_охоты(Кочки).floor"
  },
  {
    "label": "fortress_ball",
    "text": "Файл этажа: Крепость.floor"
  },
  {
    "label": "fortress_area",
    "text": "Файл этажа: Кровожадный_косяк(Крепость).floor"
  },
  {
    "label": "fortress_chase",
    "text": "Файл этажа: Ловкая_атлетика(Крепость).floor"
  },
  {
    "label": "fortress_spawner",
    "text": "Файл этажа: Штурм_без_укрытия(Крепость).floor"
  },
  {
    "label": "fortress_lift",
    "text": "Файл этажа: Сезон_охоты(Крепость).floor"
  },
  {
    "label": "shellsParty_ball",
    "text": "Файл этажа: Механизмы_вращения.floor"
  },
  {
    "label": "shellsDash_spawner",
    "text": "Файл этажа: Обратный_снайпер.floor"
  },
  {
    "label": "propellerRising_spawner",
    "text": "Файл этажа: Мега_вверх_вниз_без_укрытия.floor"
  },
  {
    "label": "bombers_area",
    "text": "Файл этажа: Открытая_зона_под_обстрелом.floor"
  },
  {
    "label": "centralSniper_lift",
    "text": "Файл этажа: Вечный_побег_кругами.floor"
  },
  {
    "label": "ancientTomb_area",
    "text": "Файл этажа: Прыгфест.floor"
  },
  {
    "label": "bigPyramid_ball",
    "text": "Файл этажа: Горячая_точка(Крыша).floor"
  },
  {
    "label": "bigPyramid_area",
    "text": "Файл этажа: Нас_окружают(Крыша).floor"
  },
  {
    "label": "bigPyramid_chase",
    "text": "Файл этажа: Мечемся_туда_сюда(Крыша).floor"
  },
  {
    "label": "bigPyramid_spawner",
    "text": "Файл этажа: Мегатоннель(Крыша).floor"
  },
  {
    "label": "bigPyramid_lift",
    "text": "Файл этажа: Круговая_карусель(Крыша).floor"
  },
  {
    "label": "bridges_ball",
    "text": "Файл этажа: Сезон_охоты_в_краске(Два_моста).floor"
  },
  {
    "label": "bridges_area",
    "text": "Файл этажа: Мы_окружены(Два_моста).floor"
  },
  {
    "label": "bridges_chase",
    "text": "Файл этажа: Бежим_не_глядя(Два_моста).floor"
  },
  {
    "label": "bridges_spawner",
    "text": "Файл этажа: Засилье_вертушек(Два_моста).floor"
  },
  {
    "label": "bridges_lift",
    "text": "Файл этажа: Стая_без_укрытия(Два_моста).floor"
  },
  {
    "label": "valley_ball",
    "text": "Файл этажа: Вертушки_под_обстрелом(Половинки).floor"
  },
  {
    "label": "valley_area",
    "text": "Файл этажа: Сверхгорячая_точка(Половинки).floor"
  },
  {
    "label": "valley_chase",
    "text": "Файл этажа: Норм_снаряды(Половинки).floor"
  },
  {
    "label": "valley_spawner",
    "text": "Файл этажа: Охота_прыгунов(Половинки).floor"
  },
  {
    "label": "valley_lift",
    "text": "Файл этажа: Охота_прыг_летунов(Половинки).floor"
  },
  {
    "label": "koguchi_ball",
    "text": "Файл этажа: Прыгуны(Ворота).floor"
  },
  {
    "label": "koguchi_area",
    "text": "Файл этажа: Вечный_кошмар_без_укрытия(Ворота).floor"
  },
  {
    "label": "koguchi_chase",
    "text": "Файл этажа: Река_краски(Ворота).floor"
  },
  {
    "label": "koguchi_spawner",
    "text": "Файл этажа: Охота_гигантов(Ворота).floor"
  },
  {
    "label": "koguchi_lift",
    "text": "Файл этажа: Торпедная_стая(Ворота).floor"
  },
  {
    "label": "infinity_area",
    "text": "Файл этажа: Жуткий_цикличный_демотиватор.floor"
  },
  {
    "label": "allStar_spawner",
    "text": "Файл этажа: Вражеское_комбо.floor"
  },
  {
    "label": "jumpjump_spawner",
    "text": "Файл этажа: Головокружительный_трамплин.floor"
  },
  {
    "label": "wideArea_area",
    "text": "Файл этажа: Заминированная_зона.floor"
  },
  {
    "label": "snakeBlocks_area",
    "text": "Файл этажа: Экстрим_блокада_змееблоков.floor"
  },
  {
    "label": "climbing_spawner",
    "text": "Файл этажа: Неподъемный_подъем.floor"
  },
  {
    "label": "airLift_lift",
    "text": "Файл этажа: Крутой_паркур_вверх_и_вниз.floor"
  },
  {
    "label": "Sdodr_beginning_1F",
    "text": "Файл этажа: Начало.floor"
  },
  {
    "label": "Sdodr_beginning_2F",
    "text": "Файл этажа: Районный_прокрас.floor"
  },
  {
    "label": "Sdodr_beginning_3F",
    "text": "Файл этажа: Особый_сюрприз.floor"
  },
  {
    "label": "Sdodr_beginning_4F",
    "text": "Файл этажа: Парение.floor"
  },
  {
    "label": "Sdodr_beginning_5F",
    "text": "Файл этажа: Прыгуны.floor"
  },
  {
    "label": "Sdodr_beginning_6F",
    "text": "Файл этажа: Две_зоны.floor"
  },
  {
    "label": "Sdodr_beginning_7F",
    "text": "Файл этажа: Недотроги.floor"
  },
  {
    "label": "Sdodr_beginning_8F",
    "text": "Файл этажа: Вертушки.floor"
  },
  {
    "label": "Sdodr_beginning_9F",
    "text": "Файл этажа: Шары.floor"
  },
  {
    "label": "RivalKing_10F",
    "text": "Файл этажа: Гармония.floor"
  },
  {
    "label": "RivalKing_20F",
    "text": "Файл этажа: Гармония.floor"
  },
  {
    "label": "TowerKing_10F",
    "text": "Файл этажа: Юла.floor"
  },
  {
    "label": "TowerKing_20F",
    "text": "Файл этажа: Юла.floor"
  },
  {
    "label": "BalllKing_10F",
    "text": "Файл этажа: Мегашар.floor"
  },
  {
    "label": "BalllKing_20F",
    "text": "Файл этажа: Мегашар.floor"
  },
  {
    "label": "BarrierKingSdodrIida",
    "text": "Диспетчерская"
  },
  {
    "label": "BarrierKingSdodrOdako",
    "text": "Диспетчерская"
  },
  {
    "label": "BarrierKingSdodrOdako_story",
    "text": "Диспетчерская"
  },
  {
    "label": "BarrierKingSdodrOdakoEx",
    "text": "Диспетчерская"
  },
  {
    "label": "map_antHell",
    "text": "Файл этажа: Впадина.floor"
  },
  {
    "label": "map_smallPyramid",
    "text": "Файл этажа: Пирамида.floor"
  },
  {
    "label": "map_rising",
    "text": "Файл этажа: Подъемник.floor"
  },
  {
    "label": "map_tower",
    "text": "Файл этажа: Башня.floor"
  },
  {
    "label": "map_meadow",
    "text": "Файл этажа: Эспланада.floor"
  },
  {
    "label": "map_windingRoad",
    "text": "Файл этажа: Зигзаг.floor"
  },
  {
    "label": "map_x",
    "text": "Файл этажа: Икс.floor"
  },
  {
    "label": "map_hills",
    "text": "Файл этажа: Два_холма.floor"
  },
  {
    "label": "map_lunarSurface",
    "text": "Файл этажа: Кочки.floor"
  },
  {
    "label": "map_fortress",
    "text": "Файл этажа: Крепость.floor"
  },
  {
    "label": "map_bigPyramid",
    "text": "Файл этажа: Крыша.floor"
  },
  {
    "label": "map_bridges",
    "text": "Файл этажа: Два_моста.floor"
  },
  {
    "label": "map_valley",
    "text": "Файл этажа: Половинки.floor"
  },
  {
    "label": "map_koguchi",
    "text": "Файл этажа: Ворота.floor"
  },
  {
    "label": "Sdodr_FloorShop",
    "text": "Уголок с консервоматом"
  }
]