[
  {
    "label": "000",
    "locale": {
      "CNzh": "要我帮忙骇解吗？",
      "EUde": "Soll ich etwas für dich hacken?",
      "EUen": "Want me to do some hacking?",
      "EUes": "¿Hackeamos algo?",
      "EUfr": "Tu as besoin d'une experte en hacking ?",
      "EUit": "Vuoi farmi hackerare qualcosa?",
      "EUnl": "Zal ik wat voor je hacken?",
      "EUru": "Хочешь, чтобы я установила моды?",
      "JPja": "ハッキングしましょうか？",
      "KRko": "해킹할까요?",
      "TWzh": "要我幫忙駭解嗎？",
      "USen": "Want me to do some hacking?",
      "USes": "¿Hackeamos algo?",
      "USfr": "Tu as besoin d'une experte en piratage?"
    }
  },
  {
    "label": "001",
    "locale": {
      "CNzh": "要使用珍珠进行骇解吗？",
      "EUde": "Möchtest du dafür PRLN ausgeben?",
      "EUen": "Want to spend some Prlz on that?",
      "EUes": "¿Lo hackeamos con perlas?",
      "EUfr": "Tu veux dépenser des péperles pour ça ?",
      "EUit": "Hackeriamo con le perle?",
      "EUnl": "Wil je daar wat parels aan spenderen?",
      "EUru": "Потратить жемкойны?",
      "JPja": "シンジュを使ってハッキングしますか？",
      "KRko": "진주를 사용해서 해킹할까요?",
      "TWzh": "要使用珍珠駭解嗎？",
      "USen": "Want to spend some Prlz on that?",
      "USes": "¿Lo hackeamos con perlas?",
      "USfr": "Tu veux dépenser des Perlidous pour ça?"
    }
  },
  {
    "label": "002",
    "locale": {
      "CNzh": "效果会降低，没关系吗？",
      "EUde": "Möchtest du das wirklich deaktivieren?",
      "EUen": "Are you sure you want to deactivate that?",
      "EUes": "¿Desactivamos el efecto?",
      "EUfr": "Tu veux vraiment désactiver ça ?",
      "EUit": "Vuoi davvero disattivare l'effetto?",
      "EUnl": "Weet je zeker dat je dat wilt deactiveren?",
      "EUru": "Точно отключить?",
      "JPja": "効果を下げちゃっていいですか？",
      "KRko": "효과를 낮춰도 괜찮으시겠어요?",
      "TWzh": "確定要降低效果嗎？",
      "USen": "Are you sure you want to deactivate that?",
      "USes": "¿Desactivamos el efecto?",
      "USfr": "Tu veux vraiment désactiver ça?"
    }
  },
  {
    "label": "003",
    "locale": {
      "CNzh": "小八，你的珍珠不够哦～",
      "EUde": "Äh... Nr. 8, du hast nicht genug PRLN!",
      "EUen": "Um...Eight, you don't have the Prlz for that!",
      "EUes": "No tienes las perlas necesarias, Ocho...",
      "EUfr": "Euh... Huit, t'as pas assez de péperles pour ça !",
      "EUit": "Uhm... Otto, non hai abbastanza perle!",
      "EUnl": "Uh... Acht, daarvoor heb je niet genoeg parels!",
      "EUru": "М-м-м... Восьмерка, маловато жемкойнов!",
      "JPja": "ハチさん、シンジュが足りませんよ～",
      "KRko": "에이트 씨, 진주가 부족해요～",
      "TWzh": "小八，珍珠不夠多喔～",
      "USen": "Um...Eight, you don't have the Prlz for that!",
      "USes": "No tienes las perlas necesarias, Ocho...",
      "USfr": "Euh... Huit, t'as pas assez de Perlidous pour ça!"
    }
  },
  {
    "label": "004",
    "locale": {
      "CNzh": "要重新开始哪项记录？",
      "EUde": "Von welchem Durchgang möchtest du beginnen?",
      "EUen": "Which run do you want to start from?",
      "EUes": "¿Qué registro quieres reintentar?",
      "EUfr": "Tu veux reprendre quelle ascension ?",
      "EUit": "Quale assalto vuoi riprovare?",
      "EUnl": "Met welke poging wil je beginnen?",
      "EUru": "Данные какой попытки загрузить?",
      "JPja": "どの きろくをリトライしますか？",
      "KRko": "어느 기록을 재도전하시겠어요?",
      "TWzh": "要重新挑戰哪個記錄呢？",
      "USen": "Which run do you want to start from?",
      "USes": "¿Qué registro quieres reintentar?",
      "USfr": "Tu veux reprendre quelle ascension?"
    }
  },
  {
    "label": "005",
    "locale": {
      "CNzh": "没有可以重新开始的记录～",
      "EUde": "Es gibt keine Durchgänge, von denen aus du beginnen kannst.",
      "EUen": "You don't have any runs you can start from.",
      "EUes": "No hay registros que se puedan reintentar.",
      "EUfr": "Y a pas d'ascension que tu puisses continuer\nà l'heure actuelle.",
      "EUit": "Non hai nessun assalto da riprovare.",
      "EUnl": "Je hebt geen pogingen om mee te beginnen.",
      "EUru": "У тебя нет подходящих попыток.",
      "JPja": "リトライできる きろくがないです～",
      "KRko": "재도전할 수 있는 기록이 없어요～",
      "TWzh": "沒有可以重新挑戰的記錄喔～",
      "USen": "You don't have any runs you can start from.",
      "USes": "No hay registros que se puedan reintentar.",
      "USfr": "Y'a pas d'ascension que tu puisses continuer\nà l'heure actuelle."
    }
  },
  {
    "label": "006",
    "locale": {
      "CNzh": "啊，小八，\n你来得正好。{{pageBreak}}从阵亡的楼层{{color id=\"4\"}}重新开始{{color id=\"65535\"}}的\n功能已经完成了！{{pageBreak}}按{{icon id=\"73\" arg=\"0x0000803F00000000\"}}可以选择想要重新开始的记录，\n不嫌弃的话，就请尝试一下吧～",
      "EUde": "Oh, Nr. 8! Hör mal!{{pageBreak}}Ich habe eine Funktion entwickelt,\nmit der du einen Durchgang auf der\nEtage {{color id=\"4\"}}starten{{color id=\"65535\"}} kannst, auf der er\ngeendet hat!{{pageBreak}}Du kannst den Durchgang,\nvon dem aus du starten möchtest,\nmithilfe von {{icon id=\"73\" arg=\"0x0000803F00000000\"}} auswählen.\nDas wird eine Menge Zeit sparen!",
      "EUen": "Oh, Eight! Guess what?{{pageBreak}}I just finished a feature that lets\nyou {{color id=\"4\"}}start{{color id=\"65535\"}} a run from a floor where\nit ended!{{pageBreak}}You can choose a run to start from\nwith {{icon id=\"73\" arg=\"0x0000803F00000000\"}}. It'll be a real time-saver!",
      "EUes": "¡Ocho! Apareces justo cuando\nhe completado mi último apaño.{{pageBreak}}Ahora podrás {{color id=\"4\"}}intentarlo de nuevo{{color id=\"65535\"}}\ndesde el piso donde la pifiaste.{{pageBreak}}Solo tienes que pulsar {{icon id=\"73\" arg=\"0x0000803F00000000\"}} y elegir\nla opción de reintentar un registro.",
      "EUfr": "Hé, Huit ! Tu sais quoi ?{{pageBreak}}Je viens d'ajouter une fonctionnalité\npour {{color id=\"4\"}}démarrer{{color id=\"65535\"}} une ascension depuis\nl'étage où elle s'est terminée !{{pageBreak}}Tu peux choisir l'ascension que tu\nveux reprendre avec {{icon id=\"73\" arg=\"0x0000803F00000000\"}}. Ça va\nte faire gagner un temps fou !",
      "EUit": "Oh, Otto! Indovina!{{pageBreak}}Ho appena completato una\nfunzione che ti permette di\n{{color id=\"4\"}}riprovare {{color id=\"65535\"}}un assalto dal piano\nin cui si era interrotto!{{pageBreak}}Puoi scegliere un assalto da cui\nricominciare con {{icon id=\"73\" arg=\"0x0000803F00000000\"}}. Ti farà\nrisparmiare un bel po' di tempo!",
      "EUnl": "O, Acht! Moet je horen!{{pageBreak}}Ik heb net een nieuwe functie\nontwikkeld, waarmee je een poging\nkunt {{color id=\"4\"}}beginnen {{color id=\"65535\"}}vanaf de etage waarop\nhij is geëindigd!{{pageBreak}}Je kunt met {{icon id=\"73\" arg=\"0x0000803F00000000\"}} een poging kiezen\nom mee te beginnen. Dat gaat je\nzoveel tijd besparen!",
      "EUru": "А, Восьмерка! Ни за что не\nдогадаешься!{{pageBreak}}Я добавила новую функцию — она\nпозволит тебе {{color id=\"4\"}}вернуться {{color id=\"65535\"}}на этаж\nи продолжить неудавшийся заход!{{pageBreak}}Просто нажми {{icon id=\"73\" arg=\"0x0000803F00000000\"}} и выбери нужные\nданные. Кучу времени сэкономишь!",
      "JPja": "あっ、ハチさん\nちょうどよいところに{{pageBreak}}やられてしまったフロアから\n{{color id=\"4\"}}リトライ{{color id=\"65535\"}}できる機能が完成しました！{{pageBreak}}{{icon id=\"73\" arg=\"0x0000803F00000000\"}}で、リトライする きろくを選べるので、\nよろしければ お試しください～",
      "KRko": "앗, 에이트 씨\n마침 잘 오셨어요{{pageBreak}}당해 버린 플로어부터\n{{color id=\"4\"}}재도전{{color id=\"65535\"}}할 수 있는 기능이 완성됐답니다!{{pageBreak}}{{icon id=\"73\" arg=\"0x0000803F00000000\"}}로 재도전할 기록을 고를 수 있으니\n관심이 있으시면 시험해 보세요～",
      "TWzh": "啊，小八。\n你來得正好。{{pageBreak}}可以讓你從陣亡的樓層\n{{color id=\"4\"}}重新挑戰{{color id=\"65535\"}}的功能已經完成了！{{pageBreak}}按下{{icon id=\"73\" arg=\"0x0000803F00000000\"}}就能選擇要重新挑戰的記錄了，\n有需要的話就試試看吧～",
      "USen": "Oh, Eight! Guess what?{{pageBreak}}I just finished a feature that lets\nyou {{color id=\"4\"}}start{{color id=\"65535\"}} a run from a floor where\nit ended!{{pageBreak}}You can choose a run to start from\nwith {{icon id=\"73\" arg=\"0x0000803F00000000\"}}. It'll be a real time-saver!",
      "USes": "¡Ocho! ¡Tengo buenas noticias!{{pageBreak}}Agregué una nueva función: ¡ahora\npodrás {{color id=\"4\"}}intentarlo de nuevo {{color id=\"65535\"}}desde\nel piso donde fallaste!{{pageBreak}}Solo tienes que oprimir {{icon id=\"73\" arg=\"0x0000803F00000000\"}} y elegir\nun registro para reintentarlo.",
      "USfr": "Hé, Huit! Tu sais quoi?{{pageBreak}}Je viens d'ajouter une fonctionnalité\npour {{color id=\"4\"}}démarrer{{color id=\"65535\"}} une ascension depuis\nl'étage où elle s'est terminée!{{pageBreak}}Tu peux choisir l'ascension que tu\nveux reprendre avec {{icon id=\"73\" arg=\"0x0000803F00000000\"}}. Ça va\nte faire gagner un temps fou!"
    }
  },
  {
    "label": "007",
    "locale": {
      "CNzh": "小八，能骇解的内容增加了哦！\n来看看吧～",
      "EUde": "Nr. 8! Ich habe jetzt noch\nmehr Hacks zur Verfügung.\nSieh sie dir mal an!",
      "EUen": "Eight! I have even more hacks ready\nto deploy now. Take a look!",
      "EUes": "Ahora podemos hackear más cosas.\n¡Echa un vistazo, Ocho!",
      "EUfr": "Huit ! J'ai de nouvelles techniques\nde hacking à te montrer. Viens voir !",
      "EUit": "Otto! Sai che adesso posso fare\nancora più modifiche al sistema?\nDai un'occhiata!",
      "EUnl": "Acht! Ik heb nog meer hacks voor je!\nMoet je vooral eens bekijken!",
      "EUru": "Восьмерка, смотри, у меня тут\nеще несколько модов готово!",
      "JPja": "ハチさん、ハッキングできることが増えましたよ！\n見ていってください～",
      "KRko": "에이트 씨, 해킹할 수 있는 것이 늘어났어요!\n한번 보고 가세요～",
      "TWzh": "小八，可以駭解的東西變多囉！\n快來看看吧～",
      "USen": "Eight! I have even more hacks ready\nto deploy now. Take a look!",
      "USes": "¡Ahora podemos hackear más cosas,\nOcho! ¿Quieres intentarlo?",
      "USfr": "Huit! J'ai de nouvelles techniques\nde piratage à te montrer. Viens voir!"
    }
  },
  {
    "label": "008",
    "locale": {
      "CNzh": "小八，小八，\n现在终于可以骇解\n{{color id=\"4\"}}高风险高回报{{color id=\"65535\"}}了！{{pageBreak}}以减小骇解效果的状态通关秩序之塔时，\n可以获得比平时更多的珍珠！\n最多3倍！{{pageBreak}}不过要注意的是，\n未能成功通关时无法获得珍珠。{{pageBreak}}开始习惯攻略秩序之塔，\n觉得“好像能轻易通关～”的时候，\n就请试试看吧！",
      "EUde": "Hey, Nr. 8! Der Hack {{color id=\"4\"}}Risiko-Bonus{{color id=\"65535\"}}\nist endlich fertig!{{pageBreak}}Je weniger Hacks du beim Abschluss\ndes Turms der Ordnung verwendet\nhast, desto mehr PRLN bekommst du.\nSogar bis zu dreimal mehr!{{pageBreak}}Aber du musst den Turm abschließen.\nWenn du es nicht schaffst, gibt es\ngar keine PRLN.{{pageBreak}}Wenn du den Dreh raus hast beim\nAbschließen des Turms und keine\nHilfe mehr brauchst, dann solltest du\ndiesen Hack unbedingt ausprobieren!",
      "EUen": "Guess what, Eight? The hack I'm\ncalling {{color id=\"4\"}}Risky Rewards {{color id=\"65535\"}}is finally\nready for you!{{pageBreak}}The fewer hacks you have active\nwhen you clear the Spire of Order,\nthe more Prlz you get. Up to three\ntimes as many, in fact!{{pageBreak}}But you do have to clear it. Wash out\npartway through—no Prlz for you.{{pageBreak}}Once you get the hang of clearing\nthe Spire and think you don't need\nhelp with it, give this hack a try!",
      "EUes": "Mira, Ocho, ¡al fin puedo ofrecerte\nel hackeo {{color id=\"4\"}}recompensa con riesgo{{color id=\"65535\"}}!{{pageBreak}}Así, cuantos menos hackeos tengas\nactivados al completar la Torre del\nOrden, mayor número de perlas\nobtendrás. ¡Hasta el triple!{{pageBreak}}Pero tienes que completarla. Si te\nquedas a medias, no hay perlas.{{pageBreak}}Cuando ya tengas dominada la torre y\ncreas que no necesitas tanta ayuda,\n¡prueba esto!",
      "EUfr": "Tu sais quoi, Huit ? La technique\nde hacking que j'ai baptisée « {{color id=\"4\"}}Plus\nou rien{{color id=\"65535\"}} » est enfin prête !{{pageBreak}}Je t'explique le principe : moins tu as\nde techniques actives en terminant\nla tour de l'Ordre, plus tu obtiens de\npéperles. Jusqu'à trois fois plus,\npour être précise !{{pageBreak}}Par contre, il faut terminer la tour.\nSi tu te fais liquider en chemin,\ntu peux dire adieu aux péperles.{{pageBreak}}Une fois que tu seras suffisamment\nà l'aise pour espérer voir le bout de\nla tour sans trop d'aide, essaie cette\ntechnique !",
      "EUit": "Indovina un po', Otto: la modifica\n{{color id=\"4\"}}Ricompense rischiose {{color id=\"65535\"}}è pronta per\nl'implementazione!{{pageBreak}}Meno modifiche attivi mentre scali la\nTorre dell'Ordine, più perle otterrai.\nFino al triplo, per la precisione!{{pageBreak}}Ma devi arrivare in cima.\nNiente vetta, niente perle.{{pageBreak}}Insomma, se hai dimestichezza con\nla torre e pensi che non ti serva\naiuto, prova questa modifica!",
      "EUnl": "Hé, Acht! Ik ben eindelijk klaar met de\nhack {{color id=\"4\"}}Riskante beloningen{{color id=\"65535\"}}!{{pageBreak}}Hoe minder hacks je gebruikt om de\nToren der Orde te voltooien, hoe meer\nparels je daarmee verdient. Tot drie\nkeer zoveel, zelfs!{{pageBreak}}Maar dan moet je hem wel echt\nhelemaal uitspelen. Als je onderweg\nten onder gaat, krijg je geen enkele\nparel.{{pageBreak}}Als je eenmaal je draai hebt gevonden\nmet het voltooien van de Toren en\nhet zonder hulp afkunt, moet je deze\nhack echt eens proberen!",
      "EUru": "Восьмерка, отличные новости!\nЯ закончила мод {{color id=\"4\"}}Рентабельные\nриски{{color id=\"65535\"}}!{{pageBreak}}Чем меньше у тебя активных модов\nв конце башни Порядка, тем больше\nжемкойнов выдадут. Иногда втрое!{{pageBreak}}Но имей в виду: если провалишь\nзаход на полпути, то вовсе не\nполучишь жемкойнов...{{pageBreak}}Когда наловчишься забираться на\nсамый верх на одном дыхании,\nиспытай этот мод на деле!",
      "JPja": "ハチさん、ハチさん\nついに、{{color id=\"4\"}}ハイリスクハイリターン{{color id=\"65535\"}}を\nハッキングできるようになったんですよ！{{pageBreak}}ハッキングの効果を小さくした状態で\n秩序の塔をクリアすると、もらえるシンジュが\nいつもより増えるんです！ 最大３倍です！{{pageBreak}}でも、クリアできないとシンジュは\nもらえないので、ご注意ください{{pageBreak}}塔の攻略に慣れてきて\n「簡単にクリアできるな～」ってなったら\n試してくださいね！",
      "KRko": "에이트 씨, 에이트 씨\n드디어 {{color id=\"4\"}}하이 리스크 하이 리턴{{color id=\"65535\"}}을\n해킹할 수 있게 됐어요!{{pageBreak}}해킹 효과를 낮게 설정한 상태에서\n질서의 탑을 클리어하면 받을 수 있는 진주가\n평소보다 최대 3배나 많아져요!{{pageBreak}}하지만 클리어를 실패하면\n진주를 받을 수 없으니 조심하세요{{pageBreak}}탑을 공략하는 데 익숙해져서\n「클리어하기 쉽네～」 하는 생각이 든다면\n시험해 보세요!",
      "TWzh": "小八、小八，\n現在終於可以駭解{{color id=\"4\"}}高風險高報酬{{color id=\"65535\"}}了喔！{{pageBreak}}只要以縮減駭解效果的狀態通過秩序之塔，\n可以獲得的珍珠就會比平時還要來得更多！\n最多可達3倍！{{pageBreak}}但要是無法通過的話就沒辦法獲得珍珠了，\n這是必須注意的地方。{{pageBreak}}等你慢慢習慣攻略塔的流程，\n到了「感覺可以輕易通過」的時候\n就來試試看吧！",
      "USen": "Guess what, Eight? The hack I'm\ncalling {{color id=\"4\"}}Risky Rewards {{color id=\"65535\"}}is finally\nready for you!{{pageBreak}}The fewer hacks you have active\nwhen you clear the Spire of Order,\nthe more Prlz you get. Up to three\ntimes as many, in fact!{{pageBreak}}But you do have to clear it. Wash out\npartway through—no Prlz for you.{{pageBreak}}Once you get the hang of clearing\nthe Spire and think you don't need\nhelp with it, give this hack a try!",
      "USes": "Mira, Ocho, ¡por fin puedo ofrecerte\nel hackeo {{color id=\"4\"}}recompensa con riesgo{{color id=\"65535\"}}!{{pageBreak}}Así, cuantos menos hackeos tengas\nactivados al completar la Torre del\nOrden, más perlas obtendrás.\n¡Hasta el triple!{{pageBreak}}Pero tienes que completarla. Si te\nquedas a medias, no hay perlas.{{pageBreak}}Cuando ya tengas dominada la torre y\ncreas que no necesitas tanta ayuda,\n¡prueba esto!",
      "USfr": "Tu sais quoi, Huit? La technique\nde piratage que j'ai baptisée\n« {{color id=\"4\"}}Plus ou rien{{color id=\"65535\"}} » est enfin prête!{{pageBreak}}Je t'explique le principe : moins tu as\nde techniques actives en terminant\nla tour de l'Ordre, plus tu obtiens de\nPerlidous. Jusqu'à trois fois plus,\npour être précise!{{pageBreak}}Par contre, il faut terminer la tour.\nSi tu te fais liquider en chemin,\ntu peux dire adieux aux Perlidous.{{pageBreak}}Une fois que tu seras suffisamment\nà l'aise pour espérer voir le bout de\nla tour sans trop d'aide, essaie cette\ntechnique!"
    }
  }
]