[
  {
    "label": "XMatch_Button01",
    "text": "Xマッチ"
  },
  {
    "label": "XMatch_Button02",
    "text": "ガチエリア"
  },
  {
    "label": "XMatch_Button03",
    "text": "ガチヤグラ"
  },
  {
    "label": "XMatch_Button04",
    "text": "ガチホコバトル"
  },
  {
    "label": "XMatch_Button05",
    "text": "ガチアサリ"
  },
  {
    "label": "XMatch_Title",
    "text": "Xマッチとは"
  },
  {
    "label": "XMatch_Manual00",
    "text": "高みを目指す者たちの「頂点」が決まる！"
  },
  {
    "label": "XMatch_Manual01",
    "text": "Xマッチは、ツワモノたちの頂点を決めるバトルだ！\n\nウデマエＳ+{{size value=\"75\"}}0{{size value=\"100\"}}以上のプレイヤーだけが１人で参加でき、\nウデマエではなく{{color id=\"1\"}}Xパワー{{color id=\"65535\"}}をかけて戦う。\n\nXマッチのルールはバンカラマッチと同じ４つだ。\n{{color id=\"1\"}}ルールごとに{{color id=\"65535\"}}Xパワーがあるぞ。"
  },
  {
    "label": "XMatch_Manual02",
    "text": "Xパワーはプレイヤーの実力を示す数値だ。\n{{color id=\"1\"}}最初に５戦する{{color id=\"65535\"}}と計測が完了してXパワーが決まり、\nXパワーをかけた挑戦が始まる！\n\n一度の挑戦は{{color id=\"1\"}}３勝するか３敗する{{color id=\"65535\"}}まで続き、\n終了時に、勝敗に応じてXパワーが上下する。\n\n計測や挑戦の状態はルールごとに記録されるぞ。"
  },
  {
    "label": "XMatch_Manual03",
    "text": "Xパワーが上がるとXランキングに登録される。\nXランキング上位者はプレイヤー名に王冠がつくぞ！\n\nXパワーは{{color id=\"1\"}}シーズンごとに再計測{{color id=\"65535\"}}される。\nシーズン中にランキング上位を目指そう！\n\nイカリング３を使えば、ルールやブキごとの\nランキングを確認できるぞ。"
  },
  {
    "label": "XMatch_Gachiarea_Title",
    "text": "ガチエリアのルール"
  },
  {
    "label": "XMatch_Gachiarea_Manual00",
    "text": "ガチエリアを塗って、一定時間確保したチームが勝利！"
  },
  {
    "label": "XMatch_Gachiarea_Manual01",
    "text": "１．ガチエリア\n２．エリアの確保状況\n３．カウント\n４．ペナルティカウント"
  },
  {
    "label": "XMatch_Gachiarea_Manual02",
    "text": "ステージ内の{{color id=\"1\"}}ガチエリア{{color id=\"65535\"}}を一定時間確保した\nチームが勝利だ！\n\nまずはガチエリアを塗って確保しよう。\nどれくらい塗られているかは、{{color id=\"1\"}}エリアの確保状況{{color id=\"65535\"}}を\n見ればわかるぞ。 ガチエリアをすべて確保すると、\n確保したチームの{{color id=\"1\"}}カウント{{color id=\"65535\"}}が{{color id=\"1\"}}減って{{color id=\"65535\"}}いく。\nカウントが０になったら、ノックアウト勝利だ！"
  },
  {
    "label": "XMatch_Gachiarea_Manual03_Title",
    "text": "ガチエリアのコツ"
  },
  {
    "label": "XMatch_Gachiarea_Manual03",
    "text": "・ 仲間と協力しよう！\n    相手が守っているガチエリアを１人で取り返すのは難しい。 仲間と息を合わせて４人で攻撃だ！\n    逆に、自分たちが確保しているときは、相手がそろう前にたおしていこう。\n\n・ 負けていてもあきらめるな！\n    相手チームがエリアを確保しているときや、カウントが負けているときは、スペシャルゲージが\n    自動でたまっていくぞ！"
  },
  {
    "label": "XMatch_Gachiarea_Manual04",
    "text": "・ 延長戦で逆転をねらえ！\n    時間切れの際、負けているチームがエリアを確保していると延長戦が発生！\n    最後まであきらめなければ延長戦で逆転できるかも？"
  },
  {
    "label": "XMatch_Gachiyagura_Title",
    "text": "ガチヤグラのルール"
  },
  {
    "label": "XMatch_Gachiyagura_Manual00",
    "text": "ガチヤグラに乗って、相手陣地のゴールまでガチヤグラを運んだチームが勝利！"
  },
  {
    "label": "XMatch_Gachiyagura_Manual01",
    "text": "１．ガチヤグラ\n２．ゴール\n３．カンモン\n４．残りカウント"
  },
  {
    "label": "XMatch_Gachiyagura_Manual02",
    "text": "ステージ中央に配置された{{color id=\"1\"}}ガチヤグラ{{color id=\"65535\"}}を相手陣地の\n{{color id=\"1\"}}ゴール{{color id=\"65535\"}}まで運んだチームが勝利だ！\n\nまずはガチヤグラの側面を塗り、上に登って確保しよう。 \nガチヤグラが相手陣地に進んでいくぞ！\n\n相手にやられてうばわれたり、\n仲間がひとりも乗っていない状態が続いたりすると、\nガチヤグラは中央にもどっていくぞ。"
  },
  {
    "label": "XMatch_Gachiyagura_Manual03",
    "text": "ゴールへの道には{{color id=\"1\"}}カンモン{{color id=\"65535\"}}が配置されている。 \nガチヤグラがカンモンに乗ると、一時停止するぞ。\nカンモンの耐久値が０になるまでガチヤグラを\n確保し続けて突破しよう。\n\n突破したカンモンは、次からは素通りできる。\n突破できなかったら耐久値が回復してしまうぞ。"
  },
  {
    "label": "XMatch_Gachiyagura_Manual04",
    "text": "相手ゴールに近づくほど、{{color id=\"1\"}}残りカウント{{color id=\"65535\"}}は{{color id=\"1\"}}減って{{color id=\"65535\"}}いく。\n制限時間内にゴールに運べなかったら、よりカウントを\n減らしたチームの勝利だ。"
  },
  {
    "label": "XMatch_Gachiyagura_Manual04_Title",
    "text": "ガチヤグラのコツ"
  },
  {
    "label": "XMatch_Gachiyagura_Manual05",
    "text": "・ ガチヤグラを守れ！\n    ガチヤグラに乗っているプレイヤーはねらわれやすいぞ。 乗っていない仲間はガチヤグラの\n    前に出て、安全を確保しよう！\n\n・ カンモンでうばい返せ！\n    相手が確保したガチヤグラがカンモンで停止するときは、うばい返すチャンスだ。\n    仲間と息を合わせて攻撃しよう！"
  },
  {
    "label": "XMatch_Gachiyagura_Manual06",
    "text": "・ 延長戦で逆転をねらえ！\n    時間切れの際、負けているチームがガチヤグラを確保していると延長戦が発生！\n    最後まであきらめなければ延長戦で逆転できるかも？"
  },
  {
    "label": "XMatch_Gachihoko_Title",
    "text": "ガチホコバトルのルール"
  },
  {
    "label": "XMatch_Gachihoko_Manual00",
    "text": "ガチホコを持って、相手陣地のゴールまでガチホコを運んだチームが勝利！"
  },
  {
    "label": "XMatch_Gachihoko_Manual01",
    "text": "１．ガチホコ\n２．ゴール\n３．ガチホコを持てる時間\n４．残りカウント\n５．カンモン"
  },
  {
    "label": "XMatch_Gachihoko_Manual02",
    "text": "{{color id=\"1\"}}ガチホコ{{color id=\"65535\"}}を持って、相手陣地の{{color id=\"1\"}}ゴール{{color id=\"65535\"}}へ運んだチームが\n勝利だ！\n\nまずはステージ中央にあるガチホコへ向かおう。\nガチホコはバリアに包まれているので、攻撃してバリアを\n割ってから拾おう。\n\nガチホコを落とすと、バリアが復活する。そのまま放置\nしていると、勝手に中央にもどるぞ。"
  },
  {
    "label": "XMatch_Gachihoko_Manual03",
    "text": "ガチホコを持っている間は、通常のブキや\nスーパージャンプが使えない。 その代わり、ガチホコから\n強力な{{color id=\"1\"}}ガチホコショット{{color id=\"65535\"}}を発射できるぞ！\n\nガチホコは持っていられる時間に制限があり、時間が\n０になったら爆発してしまうから気をつけよう。"
  },
  {
    "label": "XMatch_Gachihoko_Manual04",
    "text": "ガチホコを持ったら、まずは相手の{{color id=\"1\"}}カンモン{{color id=\"65535\"}}へ向かおう。\n\nカンモンを突破したら、次は相手ゴールを目指そう！\n突破したカンモンは素通りできるぞ。\n\nカンモンや相手ゴールに近づくほど、{{color id=\"1\"}}残りカウント{{color id=\"65535\"}}は\n{{color id=\"1\"}}減って{{color id=\"65535\"}}いく。 制限時間内にゴールに運べなかったら、\nよりカウントを減らしたチームの勝利だ。"
  },
  {
    "label": "XMatch_Gachihoko_Manual05_Title",
    "text": "ガチホコバトルのコツ"
  },
  {
    "label": "XMatch_Gachihoko_Manual05",
    "text": "・ ガチホコを運べ！\n    一番大事なのは、ガチホコを前に運ぶことだ！ ガチホコを持ったら積極的に前進しよう。\n    仲間がガチホコを持ったら、前に出てガチホコの進路を切り開こう！\n\n・ 負けていてもあきらめるな！\n    相手がガチホコを持っているときや、味方がガチホコを持っていない状態でカウントが\n    負けているときは、スペシャルゲージが自動でたまっていくぞ！"
  },
  {
    "label": "XMatch_Gachihoko_Manual06",
    "text": "・ 延長戦で逆転をねらえ！\n    時間切れの際、負けているチームがガチホコを確保しているか、勝っているチームがガチホコを落とすと\n    延長戦が発生！ 最後まであきらめなければ延長戦で逆転できるかも？"
  },
  {
    "label": "XMatch_Gachiasari_Title",
    "text": "ガチアサリのルール"
  },
  {
    "label": "XMatch_Gachiasari_Manual00",
    "text": "ガチアサリで相手ゴールのアサリバリアを壊し、アサリを多く投げ入れたチームが勝利！"
  },
  {
    "label": "XMatch_Gachiasari_Manual01",
    "text": "１．アサリ\n２．ガチアサリ\n３．ゴール\n４．カウント"
  },
  {
    "label": "XMatch_Gachiasari_Manual02",
    "text": "５．チャンスタイムの残り時間\n６．チーム全体のアサリ総数\n７．自分が持っているアサリの数\n８．アサリを一番多く持っている味方"
  },
  {
    "label": "XMatch_Gachiasari_Manual03",
    "text": "相手ゴールに{{color id=\"1\"}}アサリ{{color id=\"65535\"}}を多く投げ入れたチームが勝利だ！\nただし、相手ゴールは{{color id=\"1\"}}アサリバリア{{color id=\"65535\"}}で守られている。\n\nまずは、アサリバリアを壊す準備だ。\nステージに散らばっているアサリを集めよう。"
  },
  {
    "label": "XMatch_Gachiasari_Manual04",
    "text": "アサリを{{color id=\"1\"}}８個{{color id=\"65535\"}}集めると、{{color id=\"1\"}}ガチアサリ{{color id=\"65535\"}}に変化するぞ。\nこれで、アサリバリアを壊す準備完了だ！"
  },
  {
    "label": "XMatch_Gachiasari_Manual05",
    "text": "アサリとガチアサリは{{icon id=\"0\" arg=\"0x52B85E3F03000000\"}}か{{icon id=\"9\" arg=\"0x52B85E3F03000000\"}}で\n投げることができる。\n\n相手ゴールにガチアサリを投げつけて\nアサリバリアを壊したら、\n{{color id=\"1\"}}チャンスタイム{{color id=\"65535\"}}の始まりだ！"
  },
  {
    "label": "XMatch_Gachiasari_Manual06",
    "text": "アサリやガチアサリをどんどん投げ入れよう！\n\nアサリを入れると{{color id=\"1\"}}３{{color id=\"65535\"}}、ガチアサリなら{{color id=\"1\"}}２０{{color id=\"65535\"}}、{{color id=\"1\"}}カウント{{color id=\"65535\"}}を{{color id=\"1\"}}\n減らせる{{color id=\"65535\"}}ぞ。 ０になったらノックアウト勝利だ！\n\nさらに、アサリやガチアサリを投げ入れると\n{{color id=\"1\"}}チャンスタイムの残り時間{{color id=\"65535\"}}を回復できる。\n残り時間がなくなったらチャンスタイム終了だ。"
  },
  {
    "label": "XMatch_Gachiasari_Manual07",
    "text": "相手のチャンスタイム中は、相手ゴールを攻撃できない。\n味方ゴールの守りに集中だ！ アサリを持っている\n相手をたおして、早くチャンスタイムを終わらせよう。\n\n相手のチャンスタイムが終わると、味方ゴールの下に\n{{color id=\"1\"}}反撃用のガチアサリ{{color id=\"65535\"}}が生まれるぞ！"
  },
  {
    "label": "XMatch_Gachiasari_Manual08",
    "text": "相手をたおすと、相手が持っていたアサリがいくつか\n落ちる。 落ちたアサリは一定時間で消えるので、\n急いで回収しよう。\n\n相手が落としたガチアサリは拾えない。\n消えるまで、他の相手に拾われるのを防ごう。"
  },
  {
    "label": "XMatch_Gachiasari_Manual09",
    "text": "味方チームのインク上にあるアサリは、マークが\nつくので見つけやすいぞ。\nナワバリマップにも表示される。\n\nアサリは一定時間ごとにステージのどこかに\n生まれる。 あらかじめナワバリを広げておけば\n相手より先に拾いにいけるぞ！"
  },
  {
    "label": "XMatch_Gachiasari_Manual10_Title",
    "text": "ガチアサリのコツ"
  },
  {
    "label": "XMatch_Gachiasari_Manual10",
    "text": "・ ステージをさんぽしよう！\n    ステージをさんぽして、ゴールの場所やゴールに向かうルートを覚えておこう。\n    本番のガチアサリで有利に立ち回れるぞ！\n\n・ ナワバリを広げよう！\n    地面にインクを塗りまくってナワバリを広げておけば、追加で生まれるアサリを\n    見つけやすくなるぞ！"
  },
  {
    "label": "XMatch_Gachiasari_Manual11",
    "text": "・ 負けていてもあきらめるな！\n    どちらのチームもガチアサリを持っていないときや、両チームともガチアサリを持っているときは、\n    負けているチームのスペシャルゲージが自動でたまっていくぞ！\n\n・ 延長戦で逆転をねらえ！\n    時間切れの際、負けているチームがガチアサリを持っているか、チャンスタイム中なら延長戦が発生！\n    最後まであきらめなければ延長戦で逆転できるかも？"
  }
]