[
  {
    "label": "Weapon_Welcome_00",
    "text": "Здравия желаю! Какое оружие\nтебе по душе?"
  },
  {
    "label": "Weapon_WelcomeS",
    "text": "Здравия желаю!"
  },
  {
    "label": "Weapon_First_00",
    "text": "Здравия желаю! Дай-ка угадаю —\nоружие ищешь? Тогда ты как раз\nпо адресу!{{pageBreak}}Оружие идет сбалансированными\nкомплектами — {{color id=\"1\"}}основное {{color id=\"65535\"}}({{icon id=\"12\" arg=\"0x0000803F00000000\"}}),\nплюс {{color id=\"1\"}}запасное {{color id=\"65535\"}}({{icon id=\"10\" arg=\"0x0000803F00000000\"}}), плюс,\nконечно же, {{color id=\"1\"}}особое{{color id=\"65535\"}}!{{pageBreak}}Что, сложно? Только спокойствие!\nНажми {{icon id=\"3\" arg=\"0x0000803F00000000\"}}, и сможешь опробовать\nприглянувшееся оружие перед тем,\nкак его купить!"
  },
  {
    "label": "Weapon_First_01",
    "text": "Да, ты ведь знаешь, что можешь\nобменять {{icon id=\"28\" arg=\"0x295C4F3F00000000\"}} {{color id=\"1\"}}лицензии Пушкина{{color id=\"65535\"}}\nна чудесное новенькое, просто\nсверкающее новизной оружие?"
  },
  {
    "label": "Weapon_EndCloseUp_00",
    "text": "А сами {{icon id=\"28\" arg=\"0x295C4F3F00000000\"}} лицензии Пушкина ты\nможешь получить, участвуя в боях\nи повышая свой уровень... или даже\nулучшая навыки, когда часто\nпользуешься одним оружием."
  },
  {
    "label": "Weapon_FirstWithSaveTransfer_00",
    "text": "Здравия желаю! Дай-ка угадаю —\nоружие ищешь? Тогда ты как раз\nпо адресу!{{pageBreak}}Минуточку! Это что у тебя такое?!\nТы, оказывается, старинное оружие\nколлекционируешь? Это, конечно,\nинтересно, но в Плюхтонии тебе\nпонадобится что-нибудь посвежее!"
  },
  {
    "label": "Weapon_FirstWithSaveTransfer_01",
    "text": "Конечно, чтобы получить новенькое\nблестящее оружие, тебе нужна\n{{icon id=\"28\" arg=\"0x295C4F3F00000000\"}} {{color id=\"1\"}}лицензия Пушкина{{color id=\"65535\"}}, ты же\nзнаешь?"
  },
  {
    "label": "Weapon_EndCloseUpWithSaveTransfer_00",
    "text": "А сами {{icon id=\"28\" arg=\"0x295C4F3F00000000\"}} лицензии Пушкина ты\nможешь получить, участвуя в боях\nи повышая свой уровень... или даже\nулучшая навыки, часто используя\nодно и то же оружие.{{pageBreak}}Ой! Сегодня прямо сюрприз на\nсюрпризе! У тебя, оказывается, есть\n{{icon id=\"29\" arg=\"0x295C4F3F00000000\"}} {{color id=\"1\"}}золотая лицензия Пушкина{{color id=\"65535\"}}?!\nДа ты и правда коллекционер!{{pageBreak}}В таком случае непередаваемо рад\nсообщить, что тебе с самого начала\nбудет доступен более широкий\nассортимент оружия. Ура!"
  },
  {
    "label": "Weapon_Offline_00",
    "text": "Здравия жел...{{pageBreak}}Ой! Да ты, похоже, не в сети.\nВозвращайся, когда подключишься\nк {{color id=\"1\"}}Интернету{{color id=\"65535\"}}!"
  },
  {
    "label": "Weapon_RankShortage_00",
    "text": "Здравия желаю! Ой-йо, у тебя\nчто, только одно оружие?!{{pageBreak}}Я бы с удовольствием показал тебе,\nкакие чудесные экземпляры\nхранятся у меня в закромах...\nНо не уверен, что боец первого\nуровня готов к моим пушкам!{{pageBreak}}Не-е, определенно нет! Я просто\nне могу доверить их такому\nзеленому кальмару, как ты!\nУровень 2 — это минимум!{{pageBreak}}Но спокойствие! У меня есть план.\nИди в {{color id=\"1\"}}Холл {{color id=\"65535\"}}и поучаствуй в {{color id=\"1\"}}боях\nсалаг{{color id=\"65535\"}}. Пока не получишь хотя бы...\nскажем, {{color id=\"1\"}}уровень 2{{color id=\"65535\"}}.\nА потом и ко мне приходи!"
  },
  {
    "label": "Weapon_License_00",
    "text": "Хм... Для твоего {{color id=\"1\"}}уровня {{color id=\"65535\"}}это оружие,\nкак бы тебе сказать... крутовато.\nНо может быть, мы что-нибудь\nпридумаем...{{pageBreak}}Раз уж тебе так его хочется,\nя согласен уступить прямо сейчас,\nно за {{color id=\"1\"}}3{{color id=\"65535\"}} {{icon id=\"28\" arg=\"0x295C4F3F00000000\"}} лицензии Пушкина!"
  },
  {
    "label": "Weapon_GoldLicense_00",
    "text": "Хм... Для твоего {{color id=\"1\"}}уровня {{color id=\"65535\"}}это оружие,\nкак бы тебе сказать... крутовато.\nНо может быть, мы что-нибудь\nпридумаем...{{pageBreak}}Раз уж тебе так его хочется,\nя согласен уступить прямо сейчас,\nно за {{color id=\"1\"}}1{{color id=\"65535\"}} {{icon id=\"29\" arg=\"0x295C4F3F00000000\"}} золотую лицензию\nПушкина!"
  },
  {
    "label": "Weapon_GoldLicenseConfirm_00",
    "text": "Хм, печально. У тебя, похоже, нет\n{{icon id=\"28\" arg=\"0x295C4F3F00000000\"}} лицензий Пушкина. Зато есть\n{{color id=\"1\"}}1{{color id=\"65535\"}} {{icon id=\"29\" arg=\"0x295C4F3F00000000\"}} золотая лицензия Пушкина,\nи я с преогромнейшей радостью\nее приму, но...{{pageBreak}}По правде говоря, обмен будет\nнесправедливый. Ты точно хочешь\nпотратить на это {{icon id=\"29\" arg=\"0x295C4F3F00000000\"}} золотую\nлицензию Пушкина?"
  },
  {
    "label": "Weapon_LowRankS",
    "text": "Цена: 1 {{icon id=\"28\" arg=\"0x0000803F00000000\"}} на ур. {{number index=\"0\" type=\"2\" arg3=\"0\" arg4=\"0\"}}"
  },
  {
    "label": "Weapon_BuyS",
    "text": "Берешь?"
  },
  {
    "label": "Weapon_BuyGoldS",
    "text": "Берешь?"
  },
  {
    "label": "Weapon_ShootingRangeS",
    "text": "Хочешь опробовать?"
  },
  {
    "label": "Weapon_EquipS",
    "text": "Сразу на изготовку?"
  },
  {
    "label": "Weapon_LicenseShortage_00",
    "text": "Как бы это помягче сказать...\nЛицензий-то у тебя нема!\nУ меня первоклассное оружие,\nи скидок на него я не даю!"
  },
  {
    "label": "Weapon_SoldOut_00",
    "text": "Понимаю, сам от этого оружия\nфанатею, но одного экземпляра\nтебе вполне достаточно."
  },
  {
    "label": "Weapon_ThankYou_00",
    "text": "Спасибо! Уверен, вы поладите.\nСменить оружие ты можешь\nв меню {{icon id=\"5\" arg=\"0x0000803F00000000\"}} {{color id=\"1\"}}«Снаряжение»{{color id=\"65535\"}}."
  },
  {
    "label": "Weapon_ThankYouGoldLicense_00",
    "text": "Спасибо! Уверен, вы поладите.\nСменить оружие ты можешь\nв меню {{icon id=\"5\" arg=\"0x0000803F00000000\"}} {{color id=\"1\"}}«Снаряжение»{{color id=\"65535\"}}.{{pageBreak}}Хочешь проверить, сколько у тебя\nосталось {{icon id=\"29\" arg=\"0x295C4F3F00000000\"}} золотых лицензий\nПушкина? Сейчас посмотрим... {{color id=\"1\"}}{{number index=\"0\" type=\"1\" arg3=\"0\" arg4=\"0\"}}{{color id=\"65535\"}}!"
  },
  {
    "label": "Weapon_ThankYouLastGoldLicense_00",
    "text": "Спасибо! Уверен, вы поладите.\nСменить оружие ты можешь\nв меню {{icon id=\"5\" arg=\"0x0000803F00000000\"}} {{color id=\"1\"}}«Снаряжение»{{color id=\"65535\"}}.{{pageBreak}}И на этом у тебя закончились все\n{{icon id=\"29\" arg=\"0x295C4F3F00000000\"}} золотые лицензии Пушкина!"
  },
  {
    "label": "Weapon_UnlockA_00",
    "text": "Мой и без того несравненный\nассортимент оружия стал еще\nнесравненнее! Гляди!"
  },
  {
    "label": "Weapon_UnlockA_01",
    "text": "{{color id=\"1\"}}{{string value=\"WeaponName\" arg1=\"0\" arg3=\"0\"}}{{color id=\"65535\"}}!"
  },
  {
    "label": "Weapon_UnlockB_00",
    "text": "{{color id=\"1\"}}{{string value=\"WeaponName\" arg1=\"0\" arg3=\"0\"}}{{color id=\"65535\"}}!"
  },
  {
    "label": "Weapon_Complete_00",
    "text": "Ишь ты! У тебя собрано все оружие,\nкоторое я предлагаю в своем\nмагазине. Я наблюдаю в тебе\nнекоторую любовь к артиллерии.{{pageBreak}}А если у тебя остались лишние\n{{icon id=\"28\" arg=\"0x295C4F3F00000000\"}} лицензии Пушкина, ты можешь\nобменять их на {{icon id=\"34\" arg=\"0xE17A943F00000000\"}} {{color id=\"1\"}}капсульные\nжетоны {{color id=\"65535\"}}в капсульном автомате\nв {{color id=\"1\"}}Холле{{color id=\"65535\"}}."
  },
  {
    "label": "Head_Welcome_00",
    "text": "Йо! Вливайся в Шмот-кутюр..."
  },
  {
    "label": "Head_WelcomeS",
    "text": "Привет, суперзвезда!"
  },
  {
    "label": "Head_WelcomeRank04_00",
    "text": "Йо! Вливайся в Шмот-кутюр...\nО... Да ты совсем малек еще..."
  },
  {
    "label": "Head_ExpFirst_00",
    "text": "Я тут, в общем... продаю всякие\nштуки, которые на голову надевают.\nНу, шапки там... и прочее,\nчто налезет.{{pageBreak}}Только это штуки не обычные!\nВечно я забываю сказать...\nУ них, типа, {{color id=\"1\"}}свойства снаряжения{{color id=\"65535\"}}\nесть. Такие дела.{{pageBreak}}Это чтобы в боях круче быть...\nвроде бы. Знаешь, я в этом не особо\nразбираюсь. Я ведь просто штуки\nпродаю. Ты лучше там как-нибудь\n{{icon id=\"11\" arg=\"0x0000803F00000000\"}} нажми."
  },
  {
    "label": "Head_ExpFirstS",
    "text": "Зацени!"
  },
  {
    "label": "Head_WelcomeRank10_00",
    "text": "Йо! Вливайся в Шмот-кутюр.{{pageBreak}}О. А ты чуть покруче, чем раньше.\nВот и отлично, как раз смогу тебе\nсвежие шмотки показать. Будешь\nсмотреть, шеф?"
  },
  {
    "label": "Head_WelcomeRank10S",
    "text": "Вот, гляди!"
  },
  {
    "label": "Head_WelcomeRank20_00",
    "text": "Йо! Вливайся в Шмот-кутюр.{{pageBreak}}Ого! Да ты прямо на глазах\nкрутеешь. Я тут, конечно, просто\nпродавец, но... круто, что такие\nклиенты заходят!"
  },
  {
    "label": "Head_WelcomeRank20S",
    "text": "Считай, ты VIP!"
  },
  {
    "label": "Head_WelcomeRank30_00",
    "text": "Йо! Вливайся в Шмот-кутюр.{{pageBreak}}Обомлеть! Да ты... в общем, круче\nтебя теперь, наверное, и нет никого.\nТы точно не хочешь в каком-нибудь\nмагазине помоднее закупаться?"
  },
  {
    "label": "Head_WelcomeRank30S",
    "text": "Не пугай мальков!"
  },
  {
    "label": "Head_Offline_00",
    "text": "Йо... приветствую в моем магазе.{{pageBreak}}Ой! Да ты офлайн! Давай-ка\nвливайся в {{color id=\"1\"}}Интернет{{color id=\"65535\"}}, а потом\nприходи, ладненько?"
  },
  {
    "label": "Head_OfflineS",
    "text": "Заходи еще!"
  },
  {
    "label": "Head_RankShortage_00",
    "text": "О, привет...{{pageBreak}}Знаю, это очень не круто, но...\nпо правилам магазина здесь\nможно закупаться только\nс{{color id=\"1\"}} уровня 4{{color id=\"65535\"}}.{{pageBreak}}Может, сходи в {{color id=\"1\"}}Холл {{color id=\"65535\"}}и поднаберись\nкрутости в {{color id=\"1\"}}боях за район{{color id=\"65535\"}}?"
  },
  {
    "label": "Head_RankShortageS",
    "text": "Покрутей!"
  },
  {
    "label": "Head_BuyS",
    "text": "Ну, берешь?"
  },
  {
    "label": "Head_EquipS",
    "text": "Сразу нахлобучишь?"
  },
  {
    "label": "Head_MoneyShortage_00",
    "text": "У тебя не хватает."
  },
  {
    "label": "Head_MoneyShortageS",
    "text": "Мода стоит денег!"
  },
  {
    "label": "Head_RarityMax_00",
    "text": "Хм. На этой штуке звезд уже\nбольше, чем на небе. Больше\nне влезет!"
  },
  {
    "label": "Head_RarityMaxS",
    "text": "Круче некуда!"
  },
  {
    "label": "Head_BasicSkillSame_00",
    "text": "Хм, я в этом, конечно, плохо\nразбираюсь, но... у этих штук\nосновные свойства одинаковые."
  },
  {
    "label": "Head_BasicSkillSameS",
    "text": "Не советую!"
  },
  {
    "label": "Head_SoldOut_00",
    "text": "Ну надо же... закончились!"
  },
  {
    "label": "Head_SoldOutS",
    "text": "Больше нету!"
  },
  {
    "label": "Head_SoldOtherHome_00",
    "text": "Хм... похоже, у нас таких больше\nне осталось..."
  },
  {
    "label": "Head_SoldOtherHomeS",
    "text": "Не повезло!"
  },
  {
    "label": "Head_ExpRarityUpAndReplace_00",
    "text": "О, слушай. Мне тут нужно тебе\nодну сложную штуку объяснить.\nВ общем...{{pageBreak}}У нас в ассортименте сейчас есть\nтакая же шапка, как у тебя уже\nимеется. А это значит, что ты\nможешь {{color id=\"1\"}}добавить звезд{{color id=\"65535\"}} своей.\nКак-то так.{{pageBreak}}Или наоборот, можешь {{color id=\"1\"}}обменять\nсвою{{color id=\"65535\"}} на такую же... только новую.\nНу, типа если ты хочешь свойства\nснаряжения сбросить. О, круто...\nПо-моему, я даже сам понял!"
  },
  {
    "label": "Head_RarityUp_00",
    "text": "А, у тебя такое уже есть. Хочешь\n{{color id=\"1\"}}добавить звезд{{color id=\"65535\"}} или {{color id=\"1\"}}обменять{{color id=\"65535\"}}?"
  },
  {
    "label": "Head_ReplaceConfirm_00",
    "text": "После обмена {{color id=\"1\"}}дополнительные\nсвойства {{color id=\"65535\"}}и {{color id=\"1\"}}звезды {{color id=\"65535\"}}на твоей штуке\nпропадут. Точно будем менять?"
  },
  {
    "label": "Head_ThankYou_00",
    "text": "Носи на здоровье. Ну а если\nзахочешь сменить, это в меню\n{{icon id=\"5\" arg=\"0x0000803F00000000\"}} {{color id=\"1\"}}«Снаряжение»{{color id=\"65535\"}}."
  },
  {
    "label": "Head_ThankYouS",
    "text": "Спасибо-за-покупку!"
  },
  {
    "label": "Head_ThanksBadgeA_00",
    "text": "Ой, слушай... У тебя есть минутка?{{pageBreak}}Тут такое дело... Ты вроде как\nсреди наших лучших клиентов,\nи по правилам магазина тебя\nнужно отблагодарить.{{pageBreak}}Мелочь, конечно, но вот тебе крутой\n{{color id=\"1\"}}значок{{color id=\"65535\"}}, можешь всем хвастаться...\nНу, если хочешь, конечно."
  },
  {
    "label": "Head_ThanksBadgeAS",
    "text": "Носи с гордостью!"
  },
  {
    "label": "Head_ThanksBadgeB_00",
    "text": "Слу-у-ушай... Прости, что снова\nпо этому вопросу дергаю, но...{{pageBreak}}Ты теперь среди наших вообще\nсамых-самых лучших клиентов.\nА то и вовсе на первом месте.\nТак что мы тебе тут еще более\nкрутой {{color id=\"1\"}}значок{{color id=\"65535\"}} подготовили.{{pageBreak}}Прицепи, будет здорово. Ну, если\nхочешь, конечно. Твой значок, твое\nдело..."
  },
  {
    "label": "Head_ThanksBadgeBS",
    "text": "Круче всех!"
  },
  {
    "label": "Clothes_Welcome_00",
    "text": "А, это ты. Весьма я рад."
  },
  {
    "label": "Clothes_WelcomeS",
    "text": "А, это ты. Весьма я рад."
  },
  {
    "label": "Clothes_WelcomeRank04_00",
    "text": "А, это ты. Весьма я рад тебя\nя видеть в «Каравелле»!{{pageBreak}}Свежее лицо и стиль весьма\nнедурен, таким клиентам дверь\nвсегда открыта. Но лишь прошу,\nк товарам относись с почтением!\nВход в магазин закрыт с печеньем!"
  },
  {
    "label": "Clothes_ExpFirst_00",
    "text": "Конечно, слышал ты уже\nо {{color id=\"1\"}}свойствах снаряжения{{color id=\"65535\"}}. Они весьма\nполезны в битвах и всегда!{{pageBreak}}А если хочешь знания обрести\nи знать все то, что знаю я,\nнажми лишь {{icon id=\"11\" arg=\"0x0000803F00000000\"}}!"
  },
  {
    "label": "Clothes_WelcomeRank10_00",
    "text": "А, это ты. Весьма рад тебя\nя видеть в «Каравелле»!{{pageBreak}}И зря пытаешься ты скрыть свой \nуровень. 10?! Такое никому\nне утаить!{{pageBreak}}Но в магазине этом для всех\nесть снаряжение. Поверь,\nи для себя найдешь ты что-то\nбез сомнения!"
  },
  {
    "label": "Clothes_WelcomeRank20_00",
    "text": "А, это ты. Весьма я рад тебя\nя видеть в «Каравелле»!{{pageBreak}}Свежеешь ты как на дрожжах,\nзамечу я с волнением! Но гордость\nты свою умерь, я все-таки свежее\nи намного, ты уж поверь!"
  },
  {
    "label": "Clothes_WelcomeRank30_00",
    "text": "А, это ты. Весьма я рад тебя\nя видеть в «Каравелле»!{{pageBreak}}И все-таки пришел сей день.\nОт свежести твоей не устоять,\nи даже я не в силах отрицать,\nчто с трона стиля я смещен.\nНадолго? Навсегда?"
  },
  {
    "label": "Clothes_Offline_00",
    "text": "А это ты. Весьма я рад!{{pageBreak}}Ох, радость мою украла печаль!\n{{color id=\"1\"}}Интернет {{color id=\"65535\"}}улетел в далекую даль!\nИ рад бы напасть сию одолеть, но,\nувы, ничего без него не продать!"
  },
  {
    "label": "Clothes_RankShortage_00",
    "text": "А, это ты. Весьма я рад!{{pageBreak}}Или не рад? Скажи, как можно\nдумать о покупках до {{color id=\"1\"}}уровня 4{{color id=\"65535\"}}?\nТакого не видал я в мире!{{pageBreak}}Прошу, отправься ты скорее в {{color id=\"1\"}}Холл{{color id=\"65535\"}}\nи в {{color id=\"1\"}}бою за район{{color id=\"65535\"}} прими участие.\nУвы, таков закон: без боя\nнет и счастья!"
  },
  {
    "label": "Clothes_BuyS",
    "text": "Решение принято?"
  },
  {
    "label": "Clothes_EquipS",
    "text": "Сразу облачишься?"
  },
  {
    "label": "Clothes_MoneyShortage_00",
    "text": "Терпения моего на всех не хватит!\nНет денег у тебя, и кто, позволь\nспросить, тогда заплатит?!"
  },
  {
    "label": "Clothes_RarityMax_00",
    "text": "О нет, товар сей редкостью\nнасквозь пропитан! Как можно\nбольшего желать?!"
  },
  {
    "label": "Clothes_BasicSkillSame_00",
    "text": "О нет, товар сей оснащен уже\nспособностью, которая твой взор\nк себе так привлекла! Давай\nне будем умножать бессмысленных\nпоступков, их в мире сем не счесть."
  },
  {
    "label": "Clothes_SoldOut_00",
    "text": "Товар сей хочешь вновь купить?\nПожалуй, мысль неплоха...\nХотя, возможно, вкралась\nтут ошибка..."
  },
  {
    "label": "Clothes_SoldOtherHome_00",
    "text": "Увы, распродан весь товар,\nк которому душа твоя тянулась..."
  },
  {
    "label": "Clothes_ExpRarityUpAndReplace_00",
    "text": "Пора мне разъяснить законы моды!\nЗаконы выбора идей и стиля!{{pageBreak}}Когда ты обладаешь одеждой той,\nчто есть в ассортименте,\nто можешь {{color id=\"1\"}}редкости добавить\nей {{color id=\"65535\"}}иль {{color id=\"1\"}}обменять{{color id=\"65535\"}} на новую\nбез старых свойств.{{pageBreak}}Ну как? Пришло ли осознание?\nНаверняка! Ведь я источник знания!"
  },
  {
    "label": "Clothes_RarityUp_00",
    "text": "Всегда так в жизни — нужно\nвыбирать!\nДобавить {{color id=\"1\"}}звезд и редкости{{color id=\"65535\"}} товару\nиль {{color id=\"1\"}}обменять его{{color id=\"65535\"}}, дабы начать\nвсе с чистого листа?"
  },
  {
    "label": "Clothes_ReplaceConfirm_00",
    "text": "Я должен все-таки еще раз\nобъяснить. Товар сей {{color id=\"1\"}}свойства{{color id=\"65535\"}}, да{{color id=\"1\"}}{{color id=\"65535\"}}\nи {{color id=\"1\"}}редкость {{color id=\"65535\"}}потеряет. Продолжаем?"
  },
  {
    "label": "Clothes_ThankYou_00",
    "text": "Прекрасно. Захочешь вдруг сменить\nодежду, открой, прошу, меню\nты {{icon id=\"5\" arg=\"0x0000803F00000000\"}} {{color id=\"1\"}}«Снаряжение»{{color id=\"65535\"}}."
  },
  {
    "label": "Clothes_ThankYouButFestT_00",
    "text": "Весьма я благодарен. Но, извини,\nсменить одежду в данный миг\nникак нельзя! Сплатфест идет,\nв такой момент все будет зря!"
  },
  {
    "label": "Clothes_ThanksBadgeA_00",
    "text": "Я попрошу внимания твоего, есть\nновость у меня, весьма важна она.{{pageBreak}}Тобой приобретено немало у меня\nтоваров. Я тронут так, что чувствую\nсебя омаром! Мой долг тебя\nотблагодарить!{{pageBreak}}Прошу! Прими сей модный {{color id=\"1\"}}бейдж{{color id=\"65535\"}}.\nНоси и стиль свой не теряй!"
  },
  {
    "label": "Clothes_ThanksBadgeB_00",
    "text": "Прости мою ты беспардонность,\nно вынужден сказать...{{pageBreak}}Клиента лучше не встречал я!\nА свежесть! Твой стиль заоблачных\nвысот безмолвным делает меня!\nПоэтому без лишних слов вручаю\nлучший {{color id=\"1\"}}значок {{color id=\"65535\"}}тебе! Вуаля!{{pageBreak}}Прошу, оставь слова мои себе.\nНо бейдж носи и не скрывай!\nБлагодарю тебя, бывай!"
  },
  {
    "label": "Shoes_Welcome_00",
    "text": "Здоров! Дай краба!"
  },
  {
    "label": "Shoes_WelcomeS",
    "text": "Здоров! Дай краба!"
  },
  {
    "label": "Shoes_WelcomeRank04_00",
    "text": "Дай краба! Добро пожаловать\nв «Водокач»!{{pageBreak}}Ух, да ты сегодня свежачком!\nНо с новенькими тапами на лапах\nстанешь еще свежее! Точно тебе\nговорю!"
  },
  {
    "label": "Shoes_ExpFirst_00",
    "text": "Погодь, ты про {{color id=\"1\"}}свойства снаряжения{{color id=\"65535\"}}\nзнаешь? Ну, про эти полезные\nбонусы, благодаря которым ты\nв новых тапах готов хоть тысячу\nжимов с булк... балкой сделать?{{pageBreak}}Аж оговорился. Гы-гы! Но понятно\nхоть, о чем я? Когда что-то\nнепонятно, жми {{icon id=\"11\" arg=\"0x0000803F00000000\"}}."
  },
  {
    "label": "Shoes_WelcomeRank10_00",
    "text": "Дай краба! Добро пожаловать\nв «Водокач»!{{pageBreak}}Ого! Да ты свежее свежего! Мощно!\nДай-ка я погляжу, что можно\nпредложить бойцу твоего калибра..."
  },
  {
    "label": "Shoes_WelcomeRank20_00",
    "text": "Дай краба! Добро пожаловать\nв «Водокач»!{{pageBreak}}Гы-гы! Да ты все свежеешь\nи свежеешь! В качалку ходишь?\nПо спецпрограмме? Расскажи!\nЛадно, не буду клешнями щелкать,\nпоищу тебе модные тапы..."
  },
  {
    "label": "Shoes_WelcomeRank30_00",
    "text": "Дай краба! Добро пожаловать\nв «Водокач»!{{pageBreak}}Кокос мне в нос! Ты своей\nнепередаваемой крутостью\nаж с ног сбиваешь — видишь,\nя чуть не упал! Гы-гы! Ладно,\nшучу. Но ты и правда свежачком!"
  },
  {
    "label": "Shoes_Offline_00",
    "text": "Дай краба! Добро пожа... Ой!{{pageBreak}}Да ты офлайн! Спокойно. Выдохни,\nвдохни, наберись мужества\nи подключись к {{color id=\"1\"}}Интернету {{color id=\"65535\"}}в {{color id=\"1\"}}Холле{{color id=\"65535\"}}.\nУ тебя все получится!"
  },
  {
    "label": "Shoes_RankShortage_00",
    "text": "Дай краба! Добро пожа...{{pageBreak}}Ба, да ты как-то... не свежачком\nвовсе. У тебя все лады?{{pageBreak}}Так, главное не унывай. Все будет!\nСлушай меня. Дуй в {{color id=\"1\"}}Холл{{color id=\"65535\"}}.\nТам запишись на {{color id=\"1\"}}бои за район{{color id=\"65535\"}}.\nЗадай им жару и подними уровень!{{pageBreak}}Ну а когда доберешься до {{color id=\"1\"}}уровня 4{{color id=\"65535\"}},\nприходи и мы напялим тебе модные\nтапы на лапы! Гы-гы!"
  },
  {
    "label": "Shoes_BuyS",
    "text": "Берешь эти тапы?"
  },
  {
    "label": "Shoes_EquipS",
    "text": "Сразу на лапы?"
  },
  {
    "label": "Shoes_MoneyShortage_00",
    "text": "Аврал! У тебя ж денег не хватает!"
  },
  {
    "label": "Shoes_RarityMax_00",
    "text": "Фу-ты ну-ты! Эти тапы звездами\nуже под завязку накачаны!"
  },
  {
    "label": "Shoes_BasicSkillSame_00",
    "text": "Э, погодь! У этих тап одинаковые\nосновные свойства. Подумай!"
  },
  {
    "label": "Shoes_SoldOut_00",
    "text": "Во даешь! Куда тебе вторая пара,\nу тебя и ног-то столько нет!"
  },
  {
    "label": "Shoes_SoldOtherHome_00",
    "text": "Тьфу ты! Таких же больше\nне осталось! Извиняй!"
  },
  {
    "label": "Shoes_ExpRarityUpAndReplace_00",
    "text": "Ух, что я тебе скажу! Мощная\nинформация, точно тебе говорю!\nСейчас озвучу, готовься...{{pageBreak}}Сегодня я продаю тапы, которые\nу тебя уже есть. А это значит, что\nты можешь {{color id=\"1\"}}добавить звезд {{color id=\"65535\"}}твоим\nили {{color id=\"1\"}}обменять{{color id=\"65535\"}} твои на такие же,\nно новые, чтобы сбросить свойства.{{pageBreak}}Донес информацию? Отлично!\nНу, теперь решай..."
  },
  {
    "label": "Shoes_RarityUp_00",
    "text": "Ага! Дружище, у тебя такие тапы\nуже есть! Хочешь {{color id=\"1\"}}добавить им\nзвезд {{color id=\"65535\"}}или {{color id=\"1\"}}обменять{{color id=\"65535\"}} твои на новые,\nчтобы сбросить свойства?"
  },
  {
    "label": "Shoes_ReplaceConfirm_00",
    "text": "Не вопрос! Но ты смотри, {{color id=\"1\"}}звезды{{color id=\"65535\"}}\nи {{color id=\"1\"}}дополнительные свойства{{color id=\"65535\"}} тап{{color id=\"1\"}}{{color id=\"65535\"}}\nпропадут. Меняем?"
  },
  {
    "label": "Shoes_ThankYou_00",
    "text": "Мощное спасибо! Если что,\nсменить тапы ты можешь в меню\n{{icon id=\"5\" arg=\"0x0000803F00000000\"}} {{color id=\"1\"}}«Снаряжение»{{color id=\"65535\"}}!"
  },
  {
    "label": "Shoes_ThanksBadgeA_00",
    "text": "О! Я тебе как раз кое-что сказать\nхотел!{{pageBreak}}Ты часто ко мне в «Водокач»\nзаглядываешь, да и тапы очень\nлюбишь, это сразу видно...{{pageBreak}}Сделай одолжение, прими от меня\nв подарок этот {{color id=\"1\"}}значок{{color id=\"65535\"}}. Я их только\nпостоянным клиентам дарю!\nТак что смотри, в Интернете\nне продавай! Гы-гы!"
  },
  {
    "label": "Shoes_ThanksBadgeB_00",
    "text": "Слушай, у меня тут одно дело,\nне связанное с тапами...{{pageBreak}}Помнишь, я тебе значок подарил?\nВ общем...{{pageBreak}}У меня еще никогда не было таких\nмодных клиентов! Ты для меня\nпрямо источник вдохновения!\nТак что я взял и сделал для тебя\nеще более мощный {{color id=\"1\"}}значок{{color id=\"65535\"}}. Держи!"
  },
  {
    "label": "Goods_Welcome_00",
    "text": "М-м-м, привет."
  },
  {
    "label": "Goods_WelcomeS",
    "text": "М-м-м, привет."
  },
  {
    "label": "Goods_WelcomeRankA_00",
    "text": "М-м-м, привет. Добро пожаловать\nв «Хитлантиду»!{{pageBreak}}Тут Барри тебе кое-что передавал.\nНу, Барри, хозяин этого магазина...{{pageBreak}}Короче, он сказал, что ты свежачком\nили что-то типа того? Я не очень\nслушала. А потом он какой-то\nтанец изобразил. К чему бы это...\nВ общем, он новый товар ищет."
  },
  {
    "label": "Goods_WelcomeRankB_00",
    "text": "М-м-м, привет. Добро пожаловать\nв «Хитлантиду»!{{pageBreak}}Барри снова просил тебе кое-что\nпередать.{{pageBreak}}Изображать руками сердечко\nя не буду, как бы он ни просил.\nА вообще он сказал что-то вроде\n«Ты чудесный клиент, приходи\nеще!».{{pageBreak}}А потом раз тридцать подряд\nсказал «Йо!» и снова что-то\nсплясал. Но это, наверное,\nк тебе уже не относилось."
  },
  {
    "label": "Goods_First_00",
    "text": "М-м-м, привет. Добро пожаловать\nв «Хитлантиду»!{{pageBreak}}Я тут вообще-то не работаю,\nно если что понравится, продам.{{pageBreak}}Только не спрашивай, зачем все\nэто нужно. Можешь хоть {{color id=\"1\"}}шкафчик{{color id=\"65535\"}}\nукрасить, дело твое. Тут всякой\nвсячины полно, ты увидишь."
  },
  {
    "label": "Goods_First_01",
    "text": "Твой {{color id=\"1\"}}шкафчик {{color id=\"65535\"}}в {{color id=\"1\"}}комнате со\nшкафчиками{{color id=\"65535\"}}. Очевидно же, нет?\nМожешь потом сходить посмотреть.{{pageBreak}}Если в нем что-то лежит, считай,\nэто твое."
  },
  {
    "label": "Goods_FirstCatalog_00",
    "text": "А, забыла тебе {{color id=\"1\"}}каталог {{color id=\"65535\"}}дать.\nДержи."
  },
  {
    "label": "Goods_FirstReward_00",
    "text": "Ты, наверное, участвуешь в боях\nи на Потапыча работаешь? За это\nты набираешь {{color id=\"1\"}}очки каталога{{color id=\"65535\"}}.{{pageBreak}}И каждый раз, когда повышается\n{{color id=\"1\"}}уровень каталога{{color id=\"65535\"}}, тебе полагается\nприз. Который мне придется во всем\nэтом хламе выкапывать. Ура-ура...{{pageBreak}}К счастью, первый я уже выкопала.\nТак что вот, держи. Твой первый\nприз. Поздравляю."
  },
  {
    "label": "Goods_FirstRewardAfter_00",
    "text": "Ладно, можешь смотреть дальше,\nне буду отвлекать."
  },
  {
    "label": "Goods_NewReward_00",
    "text": "Хм, у тебя уровень каталога\nповысился. Вот тебе приз."
  },
  {
    "label": "Goods_NewRewardAfter_00",
    "text": "Отличная работа. Это ведь работа?\nКакая разница. Короче, продолжай\nв том же духе и все такое..."
  },
  {
    "label": "Goods_ExchangeCatalog_00",
    "text": "Ого. Тебе нужен новый каталог?\nА тот что... все?{{pageBreak}}Вот, держи новый."
  },
  {
    "label": "Goods_ExchangeCatalogAfter_00",
    "text": "Так держать! Хотя какое держать,\nты же не рулевой. Короче, молодец!"
  },
  {
    "label": "Goods_Offline_00",
    "text": "М-м-м, привет. Добро пожаловать\nв «Хитлантиду»!{{pageBreak}}Э, да ты не в Сети. Если хочешь\nчто-то тут купить, сначала все же\nподключись к {{color id=\"1\"}}Интернету{{color id=\"65535\"}}."
  },
  {
    "label": "Goods_RankShortage_00",
    "text": "М-м-м, привет. Добро пожаловать\nв «Хитлантиду»... Хотя нет, стоп\nмашина. Не добро и не пожаловать.{{pageBreak}}Сюда только с {{color id=\"1\"}}уровня 4{{color id=\"65535\"}} пускают.\nЕсли что, правила не я придумала.\nСходи в {{color id=\"1\"}}Холл{{color id=\"65535\"}}, поучаствуй в {{color id=\"1\"}}боях за\nрайон{{color id=\"65535\"}}, что ли..."
  },
  {
    "label": "Goods_BuyS",
    "text": "Сколько возьмешь?"
  },
  {
    "label": "Goods_MoneyShortage_00",
    "text": "Наличных не хватает. Посчитай."
  },
  {
    "label": "Goods_SoldOut_00",
    "text": "Хм. Больше нету, извини."
  },
  {
    "label": "Goods_ThankYou_00",
    "text": "Пасиб. Надеюсь, твой шкафчик\nтеперь свежачком. Ну или вроде\nтого."
  },
  {
    "label": "Goods_ThanksBadgeA_00",
    "text": "Э-э-э... Слушай, ты тут так часто\nзатовариваешься...{{pageBreak}}По этому поводу Барри тебе кое-что\nпросил передать.{{pageBreak}}Сказал поблагодарить тебя за то,\nчто ты такой лояльный клиент.{{pageBreak}}И попросил произнести «забавную\nречь» и вручить тебе {{color id=\"1\"}}значок{{color id=\"65535\"}}...{{pageBreak}}Но знаешь, я тебе его просто так\nвручу. Потребляй, потребитель..."
  },
  {
    "label": "Goods_ThanksBadgeB_00",
    "text": "О... Слушай, ты не представляешь,\nсколько мы тебе всего уже продали.{{pageBreak}}Барри на такой случай оставил\nинструкции.{{pageBreak}}То есть на случай, если клиент\nскупит тонну всячины. Как ты.\nЯ должна «растрогаться и тебя\nпоблагодарить». Что ж, спасибо\nза покупку тонны всячины. Ура.{{pageBreak}}А потом я должна торжественно\nвручить тебе еще один {{color id=\"1\"}}значок{{color id=\"65535\"}},\nс рукопожатием, прессой и даже\nисполнением пародийной песни,\nсочиненной на этот случай Барри...{{pageBreak}}Короче, вот тебе второй значок."
  },
  {
    "label": "Goods_BeforeReleaseABXY_00",
    "text": "М-м-м, привет... Добро пожаловать\nв «Хитлантиду».{{pageBreak}}Погоди, была же какая-то новость...{{pageBreak}}А, ну да. Мы с Chirpy Chips скоро\nвыпустим две новые песни.\nВот, собственно, и вся новость."
  },
  {
    "label": "Goods_AfterReleaseABXY_00",
    "text": "М-м-м, привет... Добро пожаловать\nв «Хитлантиду».{{pageBreak}}Погоди, было же что-то...{{pageBreak}}А, да. У меня для тебя сообщение.\nЗнаешь, я его тебе прямо с бумажки\nзачитаю, ладно? «Йо! Chirpy Chips\nвыпустили две новые песни!»{{pageBreak}}«Первую мы раньше играли\nтолько лайвом. Она называется\nSlopping Spree. Надеюсь, что она\nтебе зайдет!»{{pageBreak}}«Актавия, прочитай дословно —\nя уйму времени на это объявление\nпотратил!» А... это, наверное,\nне нужно было читать.{{pageBreak}}«И не забудь рассказать, что\nосновой для песни послужила\nслучайная мелодия, которую ты\nсебе под нос бубнила». Гхм, так...{{pageBreak}}«Вторая песня называется\nNo Quarters. Мы надеемся,\nчто под нее все будут танцевать.\nПотому что мы сами не умеем».{{pageBreak}}Ох, ну Орион понаписал. Даром что\nбасист. Ну да ладно. Надеюсь,\nнаши песни тебе понравятся и все\nтакое."
  }
]