{
  "version": 7,
  "rootNode": {
    "EventSettingComponentList": "Work/Event/EventSetting/EventSettingComponentList/News.engine__event__EventSettingComponentList.gyml",
    "EventXLinkSetting": {
      "IsCreateSLink": true
    },
    "FlowchartFileName": "Work/EventFlowFest/Fest_JUEA-SAND_WinB.evfc"
  }
}