[
  {
    "label": "SpInkStorm",
    "text": "Spetterbui"
  },
  {
    "label": "SpUltraShot",
    "text": "Trizooka"
  },
  {
    "label": "SpUltraStamp",
    "text": "Ultrastempel"
  },
  {
    "label": "SpGachihoko",
    "text": "Bazookarper"
  },
  {
    "label": "SpGreatBarrier",
    "text": "Joekelschild"
  },
  {
    "label": "SpJetpack",
    "text": "Inktjet"
  },
  {
    "label": "SpShockSonar",
    "text": "Golfbeker"
  },
  {
    "label": "SpSuperHook",
    "text": "Tentakabel"
  },
  {
    "label": "SpSuperLanding",
    "text": "Superlanding"
  },
  {
    "label": "SpSkewer",
    "text": "Opblaashaai"
  },
  {
    "label": "SpChariot",
    "text": "Krabbentank"
  },
  {
    "label": "SpNiceBall",
    "text": "Coole bom"
  },
  {
    "label": "SpBlower",
    "text": "Inktdief"
  },
  {
    "label": "SpMultiMissile",
    "text": "Spetterraketten"
  },
  {
    "label": "SpMicroLaser",
    "text": "Megalofoon 5.1"
  },
  {
    "label": "SpTripleTornado",
    "text": "Tri-tornado"
  },
  {
    "label": "SpEnergyStand",
    "text": "Reddingsbar"
  },
  {
    "label": "SpFirework",
    "text": "Voorschutter"
  },
  {
    "label": "SpCastle",
    "text": "Monstermorfose"
  },
  {
    "label": "SpChimney",
    "text": "PLED-scherm"
  },
  {
    "label": "SpPogo",
    "text": "Ultralanding"
  },
  {
    "label": "SpIkuraShoot",
    "text": "-"
  },
  {
    "label": "SpGreatBarrier_Rival",
    "text": "-"
  },
  {
    "label": "SpInkStorm_Rival",
    "text": "-"
  },
  {
    "label": "SpJetpack_Rival",
    "text": "-"
  },
  {
    "label": "SpMultiMissile_Rival",
    "text": "-"
  },
  {
    "label": "SpShockSonar_Rival",
    "text": "-"
  },
  {
    "label": "SpSuperLanding_Rival",
    "text": "-"
  },
  {
    "label": "SpBlower_Mission",
    "text": "Inktdief"
  },
  {
    "label": "SpChariot_Mission",
    "text": "Krabbentank"
  },
  {
    "label": "SpInkStorm_Mission",
    "text": "Spetterbui"
  },
  {
    "label": "SpMicroLaser_Mission",
    "text": "Megalofoon 5.1"
  },
  {
    "label": "SpMultiMissile_Mission",
    "text": "Spetterraketten"
  },
  {
    "label": "SpShockSonar_Mission",
    "text": "Golfbeker"
  },
  {
    "label": "SpSkewer_Mission",
    "text": "Opblaashaai"
  },
  {
    "label": "SpSuperHook_Mission",
    "text": "Tentakabel"
  },
  {
    "label": "SpTripleTornado_Mission",
    "text": "Tri-tornado"
  },
  {
    "label": "SpUltraShot_Mission",
    "text": "Trizooka"
  },
  {
    "label": "SpUltraStamp_Mission",
    "text": "Ultrastempel"
  },
  {
    "label": "SpJetpack_Mission",
    "text": "Inktjet"
  },
  {
    "label": "SpUltraShot_Coop",
    "text": "Trizooka"
  },
  {
    "label": "SpJetpack_Coop",
    "text": "Inktjet"
  },
  {
    "label": "SpShockSonar_Coop",
    "text": "Golfbeker"
  },
  {
    "label": "SpSuperLanding_Coop",
    "text": "Superlanding"
  },
  {
    "label": "SpSkewer_Coop",
    "text": "Opblaashaai"
  },
  {
    "label": "SpChariot_Coop",
    "text": "Krabbentank"
  },
  {
    "label": "SpNiceBall_Coop",
    "text": "Coole bom"
  },
  {
    "label": "SpMicroLaser_Coop",
    "text": "Megalofoon 5.1"
  },
  {
    "label": "SpTripleTornado_Coop",
    "text": "Tri-tornado"
  },
  {
    "label": "SpCastle_Coop",
    "text": "Monstermorfose"
  },
  {
    "label": "SpPogo_Coop",
    "text": "Ultralanding"
  },
  {
    "label": "SpGachihokoForEventMatch",
    "text": "Bazookarper"
  },
  {
    "label": "SpMicroLaserSdodr",
    "text": "Megalofoon 5.1"
  },
  {
    "label": "SpShockSonarSdodr",
    "text": "Golfbeker"
  },
  {
    "label": "SpSkewerSdodr",
    "text": "Opblaashaai"
  },
  {
    "label": "SpInkStormSdodr",
    "text": "Spetterbui"
  },
  {
    "label": "SpTripleTornadoSdodr",
    "text": "Tri-tornado"
  },
  {
    "label": "SpChariotSdodr",
    "text": "Krabbentank"
  },
  {
    "label": "SpCastleSdodr",
    "text": "Monstermorfose"
  },
  {
    "label": "SpNiceBallSdodr",
    "text": "Coole bom"
  },
  {
    "label": "SpUltraStampSdodr",
    "text": "Ultrastempel"
  },
  {
    "label": "SpUltraShotSdodr",
    "text": "Trizooka"
  },
  {
    "label": "SpPogoSdodr",
    "text": "Ultralanding"
  },
  {
    "label": "SpPogo_Rival",
    "text": "-"
  },
  {
    "label": "SpDroneBuddySdodr",
    "text": "-"
  }
]