[
  {
    "label": "Spring",
    "text": "Saison des bourgeons"
  },
  {
    "label": "Summer",
    "text": "Saison du soleil"
  },
  {
    "label": "Autumn",
    "text": "Saison des averses"
  },
  {
    "label": "Winter",
    "text": "Saison du frimas"
  }
]