[
  {
    "label": "000",
    "text": "What do you want to call yourself?\nYou can change this later."
  },
  {
    "label": "000_Eve",
    "text": "What do you want to call yourself?\nNote: You cannot change this later within\nthe Splatfest World Premiere."
  },
  {
    "label": "001",
    "text": "Does that look right? Remember that others\nwill see this nickname."
  },
  {
    "label": "003",
    "text": "Nickname registered.\nYou've also received an ID beginning with #.\nIf you change your nickname, this ID will also change."
  },
  {
    "label": "L_BtnL_00-T_Btn_00",
    "text": "Try Again"
  },
  {
    "label": "L_BtnR_00-T_Btn_00",
    "text": "Looks Good"
  },
  {
    "label": "Msg_ConfirmLimitOnlinePlay",
    "text": "Choosing a nickname that violates Nintendo's\nCommunity Guidelines may result in being\nrestricted from online play. The Community\nGuidelines can be found on our website."
  },
  {
    "label": "BtnL_ConfirmLimitOnlinePlay",
    "text": "Try Again"
  },
  {
    "label": "BtnR_ConfirmLimitOnlinePlay",
    "text": "OK"
  },
  {
    "label": "Msg_ConfirmLimitOnlinePlay2",
    "text": "Choosing a nickname that violates Nintendo's\nCommunity Guidelines may result in being\nrestricted from online play. The Community\nGuidelines can be found on our website."
  },
  {
    "label": "BtnL_ConfirmLimitOnlinePlay2",
    "text": "Quit"
  },
  {
    "label": "BtnR_ConfirmLimitOnlinePlay2",
    "text": "OK"
  }
]