[
  {
    "label": "000",
    "text": "+{{number index=\"0\" type=\"4\" arg3=\"0\" arg4=\"0\"}}"
  },
  {
    "label": "001",
    "text": "x{{number index=\"0\" type=\"1\" arg3=\"0\" arg4=\"0\"}}.{{number index=\"1\" type=\"1\" arg3=\"0\" arg4=\"0\"}}"
  },
  {
    "label": "002",
    "text": "VICTORY"
  },
  {
    "label": "003",
    "text": "Turf Inked"
  },
  {
    "label": "004",
    "text": "Synergy\nBonus"
  },
  {
    "label": "010",
    "text": "Ultra Signal\nSecured!"
  },
  {
    "label": "011",
    "text": "Ultra Signal\nAttempt!"
  },
  {
    "label": "020",
    "text": "Battle\nBonus"
  },
  {
    "label": "021",
    "text": "Ink Bonus\nfor {{number index=\"0\" type=\"4\" arg3=\"0\" arg4=\"0\"}}p!"
  },
  {
    "label": "022",
    "text": "Synergy\nBonus"
  },
  {
    "label": "023",
    "text": "Attack\nBonus"
  },
  {
    "label": "024",
    "text": "Defense\nBonus"
  },
  {
    "label": "100",
    "text": "10x Battle"
  },
  {
    "label": "101",
    "text": "100x Battle"
  },
  {
    "label": "102",
    "text": "333x Battle"
  },
  {
    "label": "103",
    "text": "Tricolor Turf War"
  },
  {
    "label": "T_FestPoint_00",
    "text": "Splatfest Points"
  },
  {
    "label": "T_Title_00",
    "text": "Clout"
  },
  {
    "label": "T_Total_00",
    "text": "Total Clout"
  },
  {
    "label": "L_FestMeter_00-T_RankUpDown_00",
    "text": "New Splatfest Title!"
  },
  {
    "label": "L_FestMeter_00-T_Max_00",
    "text": "MAX"
  },
  {
    "label": "T_Get_00",
    "text": "Yes! Festival shells!"
  },
  {
    "label": "T_Get_01",
    "text": "Total"
  },
  {
    "label": "T_Max_00",
    "text": "MAX"
  },
  {
    "label": "T_Open_00",
    "text": "Splatfest Battle (Open)"
  },
  {
    "label": "T_Challenge_00",
    "text": "Splatfest Battle (Pro)"
  },
  {
    "label": "T_Progress_00",
    "text": "Calculating X Power..."
  },
  {
    "label": "T_Rank_00",
    "text": "All done!"
  },
  {
    "label": "T_NumProgress_01",
    "text": "/5"
  },
  {
    "label": "T_XRankTitle_00",
    "text": "Position"
  },
  {
    "label": "T_XRankTitle_01",
    "text": "Estimate"
  },
  {
    "label": "200",
    "text": "#{{number index=\"0\" type=\"4\" arg3=\"0\" arg4=\"0\"}}"
  }
]