[
  {
    "label": "002",
    "text": "Got {{number index=\"0\" type=\"2\" arg3=\"0\" arg4=\"0\"}}!"
  },
  {
    "label": "T_Time_00",
    "text": "Time"
  },
  {
    "label": "T_Reward_00",
    "text": "Clear!"
  },
  {
    "label": "T_Bonus_00",
    "text": "First-Time Bonus!"
  },
  {
    "label": "T_IrikoReward_00",
    "text": "x3"
  },
  {
    "label": "T_Record_00",
    "text": "New Record!"
  }
]