[
  {
    "label": "000",
    "text": "+{{number index=\"0\" type=\"3\" arg3=\"0\" arg4=\"0\"}}"
  },
  {
    "label": "001",
    "text": "{{number index=\"0\" type=\"3\" arg3=\"0\" arg4=\"0\"}}"
  },
  {
    "label": "002",
    "text": "+{{number index=\"0\" type=\"2\" arg3=\"0\" arg4=\"0\"}} sec."
  },
  {
    "label": "L_Level_00-T_Max_00",
    "text": "MAX"
  },
  {
    "label": "L_SuperGauge_00-T_Max_01",
    "text": "Charged!"
  },
  {
    "label": "L_SuperGauge_00-T_Press_00",
    "text": "Press"
  },
  {
    "label": "T_Go_00",
    "text": "GO!"
  },
  {
    "label": "L_Pause_00-T_Info_00",
    "text": "Menu"
  },
  {
    "label": "L_Reset_00-T_Info_00",
    "text": "Reset Camera"
  },
  {
    "label": "L_BuddySP_00-T_Press_00",
    "text": "Press"
  },
  {
    "label": "T_Rest_00",
    "text": "Remaining"
  },
  {
    "label": "L_MsnGauge_00-T_StartText_00",
    "text": "MAX"
  }
]