[
  {
    "label": "000",
    "text": "{{number index=\"0\" type=\"2\" arg3=\"0\" arg4=\"0\"}} Ability Chunks Needed"
  },
  {
    "label": "L_Btn_00-T_Btn_00",
    "text": "Nah"
  },
  {
    "label": "200",
    "text": "Buy!"
  },
  {
    "label": "201",
    "text": "Boost It!"
  },
  {
    "label": "202",
    "text": "Scrub It!"
  },
  {
    "label": "203",
    "text": "Do It!"
  },
  {
    "label": "204",
    "text": "Reroll!"
  },
  {
    "label": "300",
    "text": "One sec..."
  },
  {
    "label": "301",
    "text": "Boosting star power..."
  },
  {
    "label": "302",
    "text": "Scrub-a-dub-dub..."
  },
  {
    "label": "303",
    "text": "Rerolling..."
  },
  {
    "label": "400",
    "text": "x{{number index=\"0\" type=\"1\" arg3=\"0\" arg4=\"0\"}}"
  }
]