[
  {
    "label": "000",
    "text": "Choose a team!"
  },
  {
    "label": "001",
    "text": "Join this team?\n(You can't change it later!)"
  },
  {
    "label": "002",
    "text": "You joined a team! Enjoy your {{color id=\"1\"}}Splatfest Tee{{color id=\"65535\"}}!\n(But...you gotta {{color id=\"1\"}}return {{color id=\"65535\"}}it after the fest. Sorry!)"
  },
  {
    "label": "003",
    "text": "You joined this team!"
  },
  {
    "label": "004",
    "text": "You can board the Splatfest Float at the Splatsville Pledge Box!"
  },
  {
    "label": "L_GuideRule_00-T_Info_00",
    "text": "Splatfest Info"
  },
  {
    "label": "L_Btn_00-T_Btn_00",
    "text": "Nah"
  },
  {
    "label": "L_Btn_01-T_Btn_00",
    "text": "Join!"
  },
  {
    "label": "L_Btn_02-T_Btn_00",
    "text": "OK!"
  },
  {
    "label": "L_BtnTeamC_00-T_ATitle_00",
    "text": "Halftime"
  },
  {
    "label": "L_BtnTeamC_00-T_ARanking_00",
    "text": "1st"
  },
  {
    "label": "L_GuideRule_01-T_Info_00",
    "text": "Back"
  },
  {
    "label": "L_Btn_03-T_Btn_00",
    "text": "Board a Float!"
  },
  {
    "label": "L_Btn_04-T_Btn_00",
    "text": "Take the Stage!"
  }
]