[
  {
    "label": "T_RestA_00",
    "text": "Remaining"
  },
  {
    "label": "010",
    "text": "+{{number index=\"0\" type=\"2\" arg3=\"0\" arg4=\"0\"}}"
  },
  {
    "label": "L_Score_00-T_Unit_00",
    "text": "%"
  },
  {
    "label": "L_Score_00-T_Unit_01",
    "text": "Score:"
  },
  {
    "label": "020",
    "text": "{{number index=\"0\" type=\"2\" arg3=\"0\" arg4=\"0\"}}.{{number index=\"1\" type=\"1\" arg3=\"0\" arg4=\"0\"}}"
  }
]