[
  {
    "label": "SpInkStorm",
    "text": "{{icon id=\"78\" arg=\"0x00006040F9FFFFFF\"}}Make it rain!"
  },
  {
    "label": "SpUltraShot",
    "text": "{{icon id=\"80\" arg=\"0xCDCC4C4000000000\"}}Take the shot!"
  },
  {
    "label": "SpUltraStamp",
    "text": "{{icon id=\"80\" arg=\"0xCDCC4C4000000000\"}}Stamp 'em!"
  },
  {
    "label": "SpShockSonar",
    "text": "{{icon id=\"78\" arg=\"0x00006040F9FFFFFF\"}}Make waves!"
  },
  {
    "label": "SpTripleTornado",
    "text": "{{icon id=\"78\" arg=\"0x00006040F9FFFFFF\"}}Twister time!"
  },
  {
    "label": "SpSkewer",
    "text": "{{icon id=\"80\" arg=\"0xCDCC4C4000000000\"}}Stop and explode!"
  },
  {
    "label": "SpChariot",
    "text": "{{icon id=\"78\" arg=\"0x00006040F9FFFFFF\"}}{{icon id=\"80\" arg=\"0xCDCC4C4000000000\"}}Fire at will!"
  },
  {
    "label": "SpNiceBall",
    "text": "{{icon id=\"78\" arg=\"0x00006040F9FFFFFF\"}}Unleash"
  },
  {
    "label": "SpCastle",
    "text": "{{icon id=\"80\" arg=\"0xCDCC4C4000000000\"}}Hold and charge ahead!"
  },
  {
    "label": "SpDroneBuddySdodr",
    "text": "{{icon id=\"76\" arg=\"0x0000204000000000\"}}Press in to activate!"
  }
]