[
  {
    "label": "L_Info_00-T_Info_00",
    "text": "Reset Camera"
  },
  {
    "label": "L_Info_01-T_Info_00",
    "text": "Pause"
  },
  {
    "label": "L_SuperGauge_00-T_Max_01",
    "text": "Charged!"
  },
  {
    "label": "L_SuperGauge_00-T_Press_00",
    "text": "Press"
  },
  {
    "label": "L_Combo_00-T_Combo_01",
    "text": "CHAIN!"
  },
  {
    "label": "L_Combo_00-T_Max_00",
    "text": "MAX!"
  },
  {
    "label": "L_SuperGauge_00-T_Max_02",
    "text": "Full Spectrum!"
  }
]