[
  {
    "label": "Armor",
    "text": "Got armor!"
  },
  {
    "label": "InkBottle",
    "text": "Got ink!"
  },
  {
    "label": "SpecialCharge",
    "text": "Special gauge up!"
  },
  {
    "label": "DroneBattery",
    "text": "Drone gauge up!"
  },
  {
    "label": "StunBombA",
    "text": "Got a disc piece!"
  },
  {
    "label": "StunBombB",
    "text": "Got a disc piece!"
  },
  {
    "label": "StunBombC",
    "text": "Got a disc piece!"
  },
  {
    "label": "ColorTip",
    "text": "Got color chips!"
  }
]