[
  {
    "label": "T_Msg_00",
    "text": "Think you're fresh?"
  },
  {
    "label": "T_Msg_01",
    "text": "Start splattin', and we'll see!"
  },
  {
    "label": "T_Msg_02",
    "text": "Before you hit the Crater..."
  },
  {
    "label": "T_Msg_03",
    "text": "we'll hit you with the basics!"
  }
]