[
  {
    "label": "Versus_Thunder_01",
    "text": "Clickbait"
  },
  {
    "label": "Versus_Thunder_02",
    "text": "Splattack!"
  },
  {
    "label": "Versus_Thunder_03",
    "text": "Headhammer"
  },
  {
    "label": "Versus_Thunder_04",
    "text": "Paintscraper"
  },
  {
    "label": "Versus_Thunder_05",
    "text": "Triple Dip"
  },
  {
    "label": "Versus_Thunder_06",
    "text": "Sea Me Now"
  },
  {
    "label": "Versus_Thunder_07",
    "text": "Sandy Side Up"
  },
  {
    "label": "Versus_Thunder_08",
    "text": "Candy-Coated Rocks"
  },
  {
    "label": "Versus_Thunder_09",
    "text": "Tentacle to the Metal"
  },
  {
    "label": "Versus_Last1Min",
    "text": "Now or Never!"
  },
  {
    "label": "Versus_Fes_Thunder_01",
    "text": "Fins in the Air"
  },
  {
    "label": "Versus_Fes_Thunder_02",
    "text": "Till Depth Do Us Part"
  },
  {
    "label": "BGM_Versus_Fes_Thunder_04",
    "text": "Liquid Sunshine"
  },
  {
    "label": "Versus_Fes_Thunder_Last1Min",
    "text": "Now or Never!"
  },
  {
    "label": "Gambit_SquidSquad_01",
    "text": "Splattack!"
  },
  {
    "label": "Gambit_SquidSquad_02",
    "text": "Ink or Sink"
  },
  {
    "label": "Gambit_SquidSquad_03",
    "text": "Seaskape"
  },
  {
    "label": "Gambit_SquidSquad_04",
    "text": "Kraken Up"
  },
  {
    "label": "Gambit_SquidSquad_05",
    "text": "Metalopod"
  },
  {
    "label": "Gambit_ABXY_01",
    "text": "Shellfie"
  },
  {
    "label": "Gambit_ABXY_02",
    "text": "Split & Splat"
  },
  {
    "label": "Gambit_HightideEra_01",
    "text": "Hooked"
  },
  {
    "label": "Gambit_HightideEra_02",
    "text": "Sucker Punch"
  },
  {
    "label": "Versus_GambitLast1min",
    "text": "Now or Never!"
  },
  {
    "label": "Blitz_WetFloor_01",
    "text": "Inkoming!"
  },
  {
    "label": "Blitz_WetFloor_02",
    "text": "Rip Entry"
  },
  {
    "label": "Blitz_WetFloor_03",
    "text": "Undertow"
  },
  {
    "label": "Blitz_WetFloor_04",
    "text": "Don't Slip"
  },
  {
    "label": "Blitz_WetFloor_05",
    "text": "Endolphin Surge"
  },
  {
    "label": "Blitz_ABXY_01",
    "text": "Blitz It!"
  },
  {
    "label": "Blitz_ABXY_02",
    "text": "Wave Prism"
  },
  {
    "label": "Blitz_Gasshokukin_01",
    "text": "Seasick"
  },
  {
    "label": "Blitz_Gasshokukin_02",
    "text": "Kinetosis"
  },
  {
    "label": "Blitz_SashiMori_01",
    "text": "Chopscrewey"
  },
  {
    "label": "Blitz_SashiMori_02",
    "text": "Entropical"
  },
  {
    "label": "Blitz_CurrentRip_01",
    "text": "Broken Coral"
  },
  {
    "label": "Blitz_CurrentRip_02",
    "text": "Riptide Rupture"
  },
  {
    "label": "Blitz_FromBottom_01",
    "text": "Shipwreckin’"
  },
  {
    "label": "Blitz_FromBottom_02",
    "text": "Fins & Fiddles"
  },
  {
    "label": "Blitz_FromBottom_03",
    "text": "Seafoam Shanty"
  },
  {
    "label": "Versus_BlitzLast1min",
    "text": "Now or Never!"
  },
  {
    "label": "FirstLaunch_PlayerMake_temp",
    "text": "What's Your Style?"
  },
  {
    "label": "WarmingUp",
    "text": "Clickbait (Splash Sessions Demo)"
  },
  {
    "label": "Plaza_News",
    "text": "Anarchy Splatcast"
  },
  {
    "label": "Plaza_GearShop",
    "text": "Dripping with Style"
  },
  {
    "label": "Plaza_Fes_Day1_Mikoshi_Fuuka",
    "text": "Anarchy Poisons (Bird Mix)"
  },
  {
    "label": "Plaza_Fes_Day1_Mikoshi_Utsuho",
    "text": "Anarchy Poisons (Snake Mix)"
  },
  {
    "label": "Plaza_Fes_Day1_Mikoshi_Mantaro",
    "text": "Anarchy Poisons (Boar Mix)"
  },
  {
    "label": "Plaza_Fes_Day2_IdolSong",
    "text": "Anarchy Rainbow"
  },
  {
    "label": "LobbyLocal",
    "text": "The Shoal"
  },
  {
    "label": "LobbyVersus_Weekday_Main_01",
    "text": "Sinkopated"
  },
  {
    "label": "LobbyVersus_Holiday_Main_01",
    "text": "Drip Feed"
  },
  {
    "label": "LobbyVersus_Sub_01",
    "text": "Heliocentri City"
  },
  {
    "label": "LobbyVersus_Sub_02",
    "text": "Fuzzy Dazzler"
  },
  {
    "label": "LobbyVersus_Sub_03",
    "text": "Blop Bop"
  },
  {
    "label": "LobbyVersus_Sub_04",
    "text": "Gilded Cage"
  },
  {
    "label": "LobbyVersus_Sub_05",
    "text": "Dressed to Krill"
  },
  {
    "label": "LobbyVersus_Sub_06",
    "text": "Slick Moves"
  },
  {
    "label": "LobbyVersus_Sub_07",
    "text": "Belly Flop"
  },
  {
    "label": "LobbyVersus_Sub_08",
    "text": "Gillty"
  },
  {
    "label": "LobbyVersus_Sub_09",
    "text": "Pour It On"
  },
  {
    "label": "LobbyVersus_Fes_02",
    "text": "Soak & Stomp"
  },
  {
    "label": "LobbyVersus_01_Fsodr",
    "text": "Inkopolis Lobby"
  },
  {
    "label": "LobbyVersus_03_Fsodr",
    "text": "Inkopolis News"
  },
  {
    "label": "Coop_Menu",
    "text": "Happy Little Workers - 24/7 Mix"
  },
  {
    "label": "Coop_Main",
    "text": "Deluge Dirge"
  },
  {
    "label": "Coop_Heavy",
    "text": "Frantic Aspic"
  },
  {
    "label": "Coop_Event",
    "text": "Fishing Frenzy"
  },
  {
    "label": "Coop_Event2",
    "text": "Frothy Waters"
  },
  {
    "label": "Coop_Okashira",
    "text": "Toxic Anoxic"
  },
  {
    "label": "Coop_Result",
    "text": "Not Bad (Do Better)"
  },
  {
    "label": "Coop_BigRun",
    "text": "Bait & Click"
  },
  {
    "label": "Coop_Menu_BigRun",
    "text": "Bait & Click (Mutation)"
  },
  {
    "label": "Mission_DemoScene_D1_01",
    "text": "Cap'n Cuttlefish's Theme"
  },
  {
    "label": "Mission_DemoScene_D3_03",
    "text": "Meeting the New Squidbeak Splatoon"
  },
  {
    "label": "Mission_Demo_SurimiTheme",
    "text": "Deep Cut's Theme"
  },
  {
    "label": "Mission_World_Crater_01",
    "text": "The Crater"
  },
  {
    "label": "Mission_World_Alterna_1_03",
    "text": "Sandcastles"
  },
  {
    "label": "Mission_World_Alterna_2_03",
    "text": "Sudden Depth"
  },
  {
    "label": "Mission_World_Alterna_3_03",
    "text": "Two Shadows in the Sun"
  },
  {
    "label": "Mission_World_Alterna_4_03",
    "text": "Dead Sea"
  },
  {
    "label": "Mission_World_Alterna_5_03",
    "text": "Whirlpool Tune"
  },
  {
    "label": "Mission_World_Alterna_6_03",
    "text": "Hyper Diver"
  },
  {
    "label": "Mission_Stage_Crater_01",
    "text": "Crater Eighters Routine"
  },
  {
    "label": "Mission_Stage_Alterna_01",
    "text": "Nine Out of Tension"
  },
  {
    "label": "Mission_Stage_Alterna_02",
    "text": "Underwater Neon"
  },
  {
    "label": "Mission_Stage_Alterna_03",
    "text": "Flop to It"
  },
  {
    "label": "Mission_Stage_Alterna_04",
    "text": "Octoling Rendezvous"
  },
  {
    "label": "Mission_Stage_Alterna_C01",
    "text": "Smoke and Mirrors"
  },
  {
    "label": "Mission_Stage_Alterna_C02",
    "text": "Ride or Fry"
  },
  {
    "label": "Mission_Stage_Alterna_C03",
    "text": "With Flying Colors"
  },
  {
    "label": "Mission_Stage_Alterna_C04",
    "text": "Seep & Destroy"
  },
  {
    "label": "Mission_Stage_Alterna_C05",
    "text": "Marine Machines"
  },
  {
    "label": "Mission_Stage_Alterna_C06",
    "text": "#35 caught"
  },
  {
    "label": "Mission_Stage_Alterna_C07",
    "text": "Don't Flinch"
  },
  {
    "label": "Mission_Stage_Rocket_01",
    "text": "In Filtration"
  },
  {
    "label": "Mission_Stage_Rocket_02",
    "text": "Hide and Sleek"
  },
  {
    "label": "Mission_Stage_Rocket_04",
    "text": "Smeared Canvas"
  },
  {
    "label": "Mission_Boss_Takowasa",
    "text": "I'm Octavio (F34RME Remix)"
  },
  {
    "label": "Mission_Boss_Surimi03",
    "text": "Surprise and Shine"
  },
  {
    "label": "Mission_Boss_Kumasan01",
    "text": "Bear with Me"
  },
  {
    "label": "Mission_Boss_Kumasan02",
    "text": "Calamari Inkantation 3MIX"
  },
  {
    "label": "Mission_Staffroll",
    "text": "Wave Goodbye"
  },
  {
    "label": "Minigame_Levelselect",
    "text": "Tableturf Level Selection"
  },
  {
    "label": "Minigame_Itemselect",
    "text": "Tableturf Deck Selection"
  },
  {
    "label": "Minigame_Battle_01",
    "text": "Tableturf Main Theme"
  },
  {
    "label": "Minigame_Last3Turn",
    "text": "Tableturf Three Turns Remaining"
  },
  {
    "label": "Minigame_Result_01",
    "text": "Tableturf Win Theme"
  },
  {
    "label": "Minigame_Result_02",
    "text": "Tableturf Loss or Draw Theme"
  },
  {
    "label": "Minigame_Edit",
    "text": "Tableturf Card List"
  },
  {
    "label": "Plaza_Fes_Day1_Fsodr",
    "text": "City of Color (2023)"
  },
  {
    "label": "Plaza_Fes_Day2_Fsodr",
    "text": "Tomorrow's Nostalgia Today"
  },
  {
    "label": "Privilege01_Fsodr",
    "text": "Ink Me Up"
  },
  {
    "label": "Privilege02_Fsodr",
    "text": "Now or Never!"
  },
  {
    "label": "Privilege03_Fsodr",
    "text": "Maritime Memory"
  },
  {
    "label": "Privilege04_Fsodr",
    "text": "Calamari Inkantation"
  },
  {
    "label": "Privilege05_Fsodr",
    "text": "Bomb Rush Blush"
  },
  {
    "label": "Privilege06_Fsodr",
    "text": "Tide Goes Out"
  },
  {
    "label": "Privilege07_Fsodr",
    "text": "City of Color"
  },
  {
    "label": "Versus_Thunder_10",
    "text": "Ska-BLAM"
  },
  {
    "label": "Versus_Thunder_11",
    "text": "Three-Horn Circus"
  },
  {
    "label": "Versus_Thunder_12",
    "text": "Rockagilly Blues"
  },
  {
    "label": "LobbyVersus_Sub_10",
    "text": "Pop 'n' Schlock"
  },
  {
    "label": "LobbyVersus_Sub_11",
    "text": "Clashing Colors"
  },
  {
    "label": "LobbyVersus_Sub_12",
    "text": "Dorsal Slicer"
  },
  {
    "label": "Versus_Thunder_13",
    "text": "Ripstop & Go"
  },
  {
    "label": "Versus_Thunder_14",
    "text": "Aquasonic"
  },
  {
    "label": "Versus_Fes_Thunder_04",
    "text": "Big Betrayal"
  },
  {
    "label": "Plaza_Fes_Afterfes_IdolSong",
    "text": "Daybreaker Anthem"
  },
  {
    "label": "LobbyVersus_Fes_Maple",
    "text": "Deepers Creepers"
  },
  {
    "label": "Privilege01_Sdodr",
    "text": "Ebb & Flow"
  },
  {
    "label": "Privilege02_Sdodr",
    "text": "Acid Hues"
  },
  {
    "label": "Privilege03_Sdodr",
    "text": "Muck Warfare"
  },
  {
    "label": "Privilege04_Sdodr",
    "text": "Now or Never!"
  },
  {
    "label": "Privilege05_Sdodr",
    "text": "Color Pulse"
  },
  {
    "label": "Privilege06_Sdodr",
    "text": "Nasty Majesty"
  },
  {
    "label": "Privilege07_Sdodr",
    "text": "Shark Bytes"
  },
  {
    "label": "Privilege08_Sdodr",
    "text": "Fly Octo Fly - Ebb & Flow (Octo)"
  },
  {
    "label": "Privilege09_Sdodr",
    "text": "Into the Light"
  },
  {
    "label": "Privilege11_Sdodr",
    "text": "Fresh Start"
  },
  {
    "label": "Privilege10_Sdodr",
    "text": "Spicy Calamari Inkantation"
  },
  {
    "label": "Privilege12_Sdodr",
    "text": "Bomb Rush Blush"
  },
  {
    "label": "Privilege13_Sdodr",
    "text": "Tidal Rush"
  },
  {
    "label": "LobbyVersus_03_Sdodr",
    "text": "Inkopolis News"
  },
  {
    "label": "LobbyVersus_01_Sdodr",
    "text": "Without a Dop Doubt"
  },
  {
    "label": "Versus_Thunder_15",
    "text": "Slopping Spree"
  },
  {
    "label": "Versus_Thunder_16",
    "text": "No Quarters"
  },
  {
    "label": "LobbyVersus_Fes_Stove",
    "text": "Yule Tide"
  },
  {
    "label": "Versus_Thunder_17",
    "text": "Shifting Stars"
  },
  {
    "label": "Versus_Thunder_18",
    "text": "No Plan Survives"
  },
  {
    "label": "Versus_Fes_Thunder_05",
    "text": "Suffer No Fools"
  },
  {
    "label": "Plaza_Fes_Day1_Sdodr",
    "text": "Color Pulse (2024)"
  },
  {
    "label": "Plaza_Fes_Day2_Sdodr",
    "text": "We're So Back"
  },
  {
    "label": "LobbyVersus_Fes_Dumpling",
    "text": "Meadowlark"
  },
  {
    "label": "Versus_Thunder_19",
    "text": "Amalgamania"
  },
  {
    "label": "Versus_Thunder_20",
    "text": "Seasource"
  },
  {
    "label": "LobbyVersus_Fes_Sweat",
    "text": "Suntan Ocean"
  },
  {
    "label": "Sdodr_PlayerMake",
    "text": "#0.1 style"
  },
  {
    "label": "Sdodr_DemoScene_D020",
    "text": "Leaving with Pearl"
  },
  {
    "label": "Sdodr_DemoScene_D040",
    "text": "#12.2 awakened"
  },
  {
    "label": "Sdodr_DemoScene_D070",
    "text": "Origin of Order"
  },
  {
    "label": "Sdodr_Stage_Spawner_01",
    "text": "demol1sh"
  },
  {
    "label": "Sdodr_Stage_Spawner_02",
    "text": "demoli2h"
  },
  {
    "label": "Sdodr_Stage_Spawner_03",
    "text": "d3molish"
  },
  {
    "label": "Sdodr_Stage_Escaper_01",
    "text": "jest1ng"
  },
  {
    "label": "Sdodr_Stage_Escaper_02",
    "text": "je2ting"
  },
  {
    "label": "Sdodr_Stage_Escaper_03",
    "text": "j3sting"
  },
  {
    "label": "Sdodr_Stage_Area_01",
    "text": "rout1nes"
  },
  {
    "label": "Sdodr_Stage_Area_02",
    "text": "routine2"
  },
  {
    "label": "Sdodr_Stage_Area_03",
    "text": "routin3s"
  },
  {
    "label": "Sdodr_Stage_8ball_01",
    "text": "souven1r"
  },
  {
    "label": "Sdodr_Stage_8ball_02",
    "text": "2ouvenir"
  },
  {
    "label": "Sdodr_Stage_8ball_03",
    "text": "souv3nir"
  },
  {
    "label": "Sdodr_Stage_Yagura_01",
    "text": "j1tters"
  },
  {
    "label": "Sdodr_Stage_Yagura_02",
    "text": "jitter2"
  },
  {
    "label": "Sdodr_Stage_Yagura_03",
    "text": "jitt3rs"
  },
  {
    "label": "Sdodr_Stage_Boss_BallKing",
    "text": "CΘld StΘrage"
  },
  {
    "label": "Sdodr_Stage_Boss_TowerKing",
    "text": "ΘctΘpticΘn"
  },
  {
    "label": "Sdodr_Stage_Boss_RivalKing",
    "text": "EchΘ Θnslaught"
  },
  {
    "label": "Sdodr_Stage_Boss_Iida",
    "text": "Unconscience"
  },
  {
    "label": "Sdodr_Stage_Boss_Ooda_01",
    "text": "New World Order"
  },
  {
    "label": "Sdodr_Stage_Boss_Ooda_02",
    "text": "Spectrum Obligato ~ Ebb & Flow (Out of Order)"
  },
  {
    "label": "Sdodr_Stage_Boss_Ooda_EX",
    "text": "Short Order"
  },
  {
    "label": "Sdodr_StaffRoll",
    "text": "#47 onward"
  },
  {
    "label": "Coop_Menu_Sub_Thanks",
    "text": "Happy Little Workers - 24/7 Deep Mix"
  },
  {
    "label": "Coop_Thanks",
    "text": "Double Clickbait"
  },
  {
    "label": "Coop_Result_Thanks",
    "text": "Not Bad (Catch Ya Better)"
  },
  {
    "label": "Plaza_SAND_Live_3Idol",
    "text": "Three Wishes"
  },
  {
    "label": "LobbyVersus_Fes_SAND",
    "text": "Soak & Stomp (Grand Mix)"
  },
  {
    "label": "Versus_Fes_SAND_01",
    "text": "Blushing Tide"
  },
  {
    "label": "Versus_Fes_SAND_02",
    "text": "Shark Bytes"
  },
  {
    "label": "Versus_Fes_SAND_03",
    "text": "Smeared Canvas"
  },
  {
    "label": "Versus_Fes_SAND_04",
    "text": "Rainbow Color Inkantation"
  },
  {
    "label": "BGM_Plaza_SAND_Live_Gambit_5",
    "text": "Liquid Sunshine"
  }
]