[
  {
    "label": "Msg_Resume",
    "text": "インターネット対戦などで遊ぶ前に\n必要な初回設定を行います"
  },
  {
    "label": "Msg_DoTransfer",
    "text": "セーブデータを引き継ぎました\n引き継ぎ特典の {{icon id=\"29\" arg=\"0xF6285C3F00000000\"}}ゴールドブキチライセンスは、\nロビーで{{color id=\"1\"}}最初のバトルを終えたあと{{color id=\"65535\"}}に受け取れます"
  },
  {
    "label": "Msg_IntroduceFest",
    "text": "- フェスの地域設定 -\n本作では、プレイヤーが３つの勢力に分かれてバトルする\n{{color id=\"1\"}}フェス{{color id=\"65535\"}}というイベントが開催されることがあります\n\nフェスの内容や開催日は、地域によって異なります\nどの地域のフェスに参加するかを決めてください"
  },
  {
    "label": "Msg_NetworkAnalyze",
    "text": "おすすめの地域を確認中…"
  },
  {
    "label": "Msg_ConfirmFestRegion",
    "text": "この地域のフェスでよろしいですか？\n\n{{color id=\"1\"}}{{string value=\"SelectedSplatfestRegion\" arg1=\"0\" arg3=\"0\"}}{{color id=\"65535\"}}"
  },
  {
    "label": "BtnL_ConfirmFestRegion",
    "text": "選び直す"
  },
  {
    "label": "BtnR_ConfirmFestRegion",
    "text": "OK！"
  },
  {
    "label": "Msg_ConfirmFestRegion_First",
    "text": "この地域のフェスでよろしいですか？\n\n{{color id=\"1\"}}{{string value=\"SelectedSplatfestRegion\" arg1=\"0\" arg3=\"0\"}}{{color id=\"65535\"}}\n\n※あとから変更できますが、フェスに参加すると\nしばらくの間は変更できなくなります"
  },
  {
    "label": "BtnL_ConfirmFestRegion_First",
    "text": "変更する"
  },
  {
    "label": "BtnR_ConfirmFestRegion_First",
    "text": "OK！"
  },
  {
    "label": "Msg_ConfirmFestRegion_AltLang",
    "text": "{{color id=\"1\"}}{{string value=\"SelectedSplatfestRegion\" arg1=\"0\" arg3=\"0\"}}{{color id=\"65535\"}}向けのフェスは、\n日本語に対応していません\nフェスの開催中は、一部の表示が{{color id=\"1\"}}{{string value=\"SelectedSplatfestLanguage\" arg1=\"0\" arg3=\"0\"}}{{color id=\"65535\"}}になります\nそれでもよろしいですか？"
  },
  {
    "label": "BtnL_ConfirmFestRegion_AltLang",
    "text": "選び直す"
  },
  {
    "label": "BtnR_ConfirmFestRegion_AltLang",
    "text": "OK！"
  },
  {
    "label": "Msg_ConfirmFestRegion_Reboot",
    "text": "{{color id=\"1\"}}{{string value=\"SelectedSplatfestRegion\" arg1=\"0\" arg3=\"0\"}}{{color id=\"65535\"}}向けのフェスは、\n日本語に対応していません\nフェスの開催中は、ソフトを再起動してゲーム内の表示を\n{{color id=\"1\"}}{{string value=\"SelectedSplatfestLanguage\" arg1=\"0\" arg3=\"0\"}}{{color id=\"65535\"}}に切り替える必要があります\nそれでもよろしいですか？"
  },
  {
    "label": "BtnL_ConfirmFestRegion_Reboot",
    "text": "選び直す"
  },
  {
    "label": "BtnR_ConfirmFestRegion_Reboot",
    "text": "OK！"
  },
  {
    "label": "Msg_FestRegionChanged",
    "text": "フェスの地域を\n{{color id=\"1\"}}{{string value=\"SelectedSplatfestRegion\" arg1=\"0\" arg3=\"0\"}}{{color id=\"65535\"}}\nに設定しました"
  },
  {
    "label": "Msg_DeviceIdChanged",
    "text": "そうびやカメラオプションなどを、別のSwitch本体から\n最後にオンラインで遊んだ時と同じ状態にしました"
  }
]