{
  "version": 7,
  "rootNode": {
    "DevName": "遠距離ダメージ変動：フデ",
    "Param": {
      "$type": "spl__SdodrAbilityCustom__ArrayF32Param",
      "Array": [1.0,1.15,1.3,1.45,1.6,2.0],
      "CorrespondTip": "FarDamageRatioUp"
    }
  }
}