{
  "version": 7,
  "rootNode": {
    "DevName": "メイン塗り",
    "Param": {
      "$type": "spl__SdodrAbilityCustom__ArrayF32Param",
      "Array": [1.0,1.3,1.45,1.6,1.7,2.0],
      "CorrespondTip": "MainPaintUp"
    }
  }
}