[
  {
    "label": "000",
    "text": "¡Victoria ×100! ¡Bravo!"
  },
  {
    "label": "001",
    "text": "¡Puedes subirte a una {{color id=\"1\"}}plataforma festiva {{color id=\"65535\"}}en la\nplaza de Tintelia gracias a tu gran participación!{{pageBreak}}La encontrarás en el {{color id=\"1\"}}kiosco del festival{{color id=\"65535\"}}.\n¡Y tómale una foto de recuerdo!"
  },
  {
    "label": "002",
    "text": "Puedes subir al {{color id=\"1\"}}palco del escenario{{color id=\"65535\"}} gracias a\ntu gran participación!{{pageBreak}}Accede a él desde el {{color id=\"1\"}}kiosco del festival{{color id=\"65535\"}}. ¡Y no\nolvides tomar unas fotos de recuerdo!"
  }
]