[
  {
    "label": "C4_S02_00",
    "text": "Muy bien hecho, Agente 3.{{pageBreak}}Bueno, seguimos sin encontrar al abuelo, pero al menos\nconseguimos otro de esos \"tesoros\". ¡No está mal!"
  },
  {
    "label": "C4_S02_01",
    "text": "{{string value=\"6\"}}Bzzz-bzzz...{{fun_000F_0004 arg=\"0x0600\"}}{{delay frames=\"30\"}}{{string value=\"6\"}} ¡Bzzzt!{{fun_000F_0004 arg=\"0x0600\"}} Hola, ¿me escuchan?\n¡Cambio!"
  },
  {
    "label": "C4_S02_02",
    "text": "¡Es el abuelo! ¡Hola, abuelo!"
  },
  {
    "label": "C4_S02_03",
    "text": "¡Ah, Agente 1!{{delay frames=\"15\"}} Qué bueno oír tu voz.{{pageBreak}}Sigo... encerrado en una especie de habitación.\n¡Y encontrar la salida es más difícil que buscar\nun microcangrejo en un arrecife de coral!{{pageBreak}}¡Uy!{{delay frames=\"15\"}} Oye, {{size value=\"75\"}}eh... mejor bajo la voz.{{delay frames=\"15\"}} ¡QUE VIENE ALGUIEN!{{size value=\"100\"}}"
  },
  {
    "label": "C4_S02_04",
    "text": "Ah. Conque te despertaste ya, ¿eh, Jibión?"
  },
  {
    "label": "C4_S02_05",
    "text": "¡Ejem! Se me conoce como \"excapitán\" Jibión...{{pageBreak}}¿Y tú quién eres si se puede saber? ¡Identifícate!"
  },
  {
    "label": "C4_S02_06",
    "text": "¡Ja, ja, ja! Sí que tienes energía para ser un viejo\nsaco de...{{delay frames=\"15\"}} ¿Los de tu especie tienen huesos?{{delay frames=\"15\"}}\nBueno, ¡da igual!{{pageBreak}}En cuanto a mi identidad, puedes llamarme...{{delay frames=\"15\"}}{{color id=\"1\"}} Don Oso{{color id=\"65535\"}}."
  },
  {
    "label": "C4_S02_07",
    "text": "¿\"Pomposo\"?{{delay frames=\"10\"}} {{string value=\"6\"}}Bzzz...{{fun_000F_0004 arg=\"0x0600\"}} {{delay frames=\"10\"}}Ese nombre no te pega para\nnada...{{delay frames=\"10\"}} {{string value=\"6\"}}Bzzz-bzzz...{{fun_000F_0004 arg=\"0x0600\"}}{{delay frames=\"10\"}} ¡No pienso llamarte así!"
  },
  {
    "label": "C4_S02_08",
    "text": "{{string value=\"6\"}}¡Bzzzzzzt!{{fun_000F_0004 arg=\"0x0600\"}}"
  },
  {
    "label": "C4_S02_09",
    "text": "¡Nooo! ¡Con lo bien que íbamos!{{delay frames=\"30\"}} ¿Abuelo?\n¿Sigues ahí?{{pageBreak}}¡Agh! Creo que lo perdimos. Pero podremos encontrarlo\nen carne y hueso si continuamos rastreando la señal.{{pageBreak}}¡Adelante, Agente 3!"
  }
]