[
  {
    "label": "000",
    "text": "¡Ay, no!{{delay frames=\"15\"}} ¡Te quedaste sin equipamiento de élite!"
  },
  {
    "label": "001",
    "text": "Uf... O sea, ni siquiera los sorprendimos."
  },
  {
    "label": "002",
    "text": "No tienen mucha idea de cómo se tiende\nuna trampa, ¿verdad?"
  },
  {
    "label": "003",
    "text": "¡Zasss! {{string value=\"5\"}}(¡Veo tu equipamiento de élite! Podrías\nrecuperarlo si lograras avanzar...){{fun_000F_0004 arg=\"0x0500\"}}"
  },
  {
    "label": "004",
    "text": "¿Quizá Escamita podría ayudarte, Agente 3?"
  },
  {
    "label": "005",
    "text": "Qué cosas se te ocurren a veces, Agente 1..."
  },
  {
    "label": "100",
    "text": "¡Uuu, recuperaste tu equipamiento!"
  },
  {
    "label": "101",
    "text": "Ve con cuidado, Agente 3. Es probable que te topes\ncon más trampas."
  }
]