[
  {
    "label": "C4_S03_00",
    "text": "Hum... Mmm... Mmm..."
  },
  {
    "label": "C4_S03_01",
    "text": "¡{{string value=\"11\" arg1=\"20\" arg3=\"69\"}} dijo que estuviste excelente, Agente 3!{{pageBreak}}También me contó lo que piensa sobre el tal\nClan Surimi, pero mejor no te lo digo..."
  },
  {
    "label": "C4_S03_02",
    "text": "{{string value=\"6\"}}Bzzz...{{fun_000F_0004 arg=\"0x0600\"}} ¿Hola? ¿Hola?...{{pageBreak}}¿Alguien me recibe?"
  },
  {
    "label": "C4_S03_03",
    "text": "¡Te escuchamos, abuelo! No muy alto ni muy claro,\n¡pero te escuchamos!{{delay frames=\"15\"}} ¿Qué pasó?"
  },
  {
    "label": "C4_S03_04",
    "text": "¿Estás bien?{{delay frames=\"15\"}} ¡Cuéntanos!"
  },
  {
    "label": "C4_S03_05",
    "text": "¡Ah! ¡Por fin logro hacer funcionar esta cosa!{{delay frames=\"15\"}}\nBueno, ahí va mi informe.{{pageBreak}}Me tiene cautivo algo o alguien que se hace llamar\n\"Don Oso\". Eso SÍ que lo escuché alto y claro.{{pageBreak}}Ni idea de dónde estoy, pero me duele mucho la rodilla\nizquierda, así que debo estar a una gran altura.\n¡La rodilla es un buen indicador!"
  },
  {
    "label": "C4_S03_06",
    "text": "Esa pista no está nada mal. Y me parece que hay un\nsolo lugar que encaja con esa descripción..."
  },
  {
    "label": "C4_S03_07",
    "text": "Vaya, vaya... Conque la rodilla delató nuestra ubicación.\nBueno, da igual, ¡una articulación artrítica\nno alterará mis planes!{{pageBreak}}Supongo que no debo subestimar a alguien que fue\nlíder del legendario Comando Branquias, así que...{{pageBreak}}Creo que tendré que encargarme de ti ahora, antes\nde que me causes problemas más serios."
  },
  {
    "label": "C4_S03_08",
    "text": "Un momento... ¡Ey! ¡¿Qué estás haciendo?!{{pageBreak}}¡Aaah!"
  },
  {
    "label": "C4_S03_09",
    "text": "Ay... {{delay frames=\"15\"}}Estoy segura de que ese no fue\nun grito de alegría."
  },
  {
    "label": "C4_S03_10",
    "text": "¡Sé fuerte, abuelo! ¡Vamos por ti!"
  },
  {
    "label": "C4_S03_11",
    "text": "En cuanto descubramos exactamente dónde estás..."
  },
  {
    "label": "C4_S03_12",
    "text": "¿Crees que esas cosas que recogimos\ntengan alguna utilidad?{{pageBreak}}Agente 3, cuando quieras acceder al cohete,\ninspecciónalas a ver si te sirven de ayuda."
  }
]