[
  {
    "label": "001",
    "text": "Ay...{{delay frames=\"30\"}} Tendremos que terminar la lección por hoy."
  },
  {
    "label": "003",
    "text": "Aunque el Clan Surimi todavía te podría sorprender."
  },
  {
    "label": "004",
    "text": "Habrá que retirarse...{{delay frames=\"15\"}} ¿Eh?"
  }
]