[
  {
    "label": "000",
    "text": "¡Oh! Parece que Pirañalandia está cerrado\ntemporalmente por lo de Big Run."
  },
  {
    "label": "001",
    "text": "Y yo que iba a ir este finde...\nprobablemente."
  },
  {
    "label": "002",
    "text": "Pues en {{color id=\"1\"}}Don Oso, S. A.{{color id=\"65535\"}} están desesperados\nbuscando trabajadores para ese asunto..."
  },
  {
    "label": "003",
    "text": "¡Zasss!{{string value=\"5\"}} (¡A mí me interesa! ¿Me dejarán\nquedarme algún salmónido como mascota?){{fun_000F_0004 arg=\"0x0500\"}}"
  },
  {
    "label": "003_1",
    "text": "Mientras más huevecillos dorados se consigan,\nmejor será la recompensa, ¿verdad?"
  },
  {
    "label": "003_2",
    "text": "¡Zasss! {{string value=\"5\"}}(Más o menos. Aunque logres una\ngran marca, ¡siempre puedes mejorarla!){{fun_000F_0004 arg=\"0x0500\"}}"
  },
  {
    "label": "003_3",
    "text": "Claro, siempre está la motivación de\nno dejar escapar un regalito bien jugoso."
  },
  {
    "label": "006",
    "text": "Zasss.{{string value=\"5\"}} (Además ayudamos mantener la\nciudad a salvo, ¿no?){{fun_000F_0004 arg=\"0x0500\"}}"
  },
  {
    "label": "007",
    "text": "Estamos en pleno Big Run ahora mismo, así\nque intenta evitar el Instituto Coralino..."
  },
  {
    "label": "008",
    "text": "En teoría hay clases, pero no como te las\nimaginas. Quizá hoy conviene faltar..."
  },
  {
    "label": "009",
    "text": "Hay una alerta de Big Run ahora mismo y\nse prohíbe el acceso a Desagüe Navajuela."
  },
  {
    "label": "010",
    "text": "¿Y si les prohibimos el acceso a los\nsalmónidos también? Qué gran idea, ¿no?"
  },
  {
    "label": "011",
    "text": "Como si hubiera pocos visitantes en Ruinas\nCeviche, ahora hay salmónidos a lo loco."
  },
  {
    "label": "012",
    "text": "¡Y dudo que estén ahí para estudiar el\nvalor arqueológico del lugar, precisamente!"
  },
  {
    "label": "013",
    "text": "Algunas tiendas del Unicentro Carite\nestán cerradas por la alerta de Big Run."
  },
  {
    "label": "014",
    "text": "¿Solo algunas? ¿Quieres decir que aún\nse puede ir de compras durante Big Run?"
  },
  {
    "label": "015",
    "text": "Con lo de Big Run, les recomiendo que no\ntomen atajos por Callejones Crustáceo."
  },
  {
    "label": "016",
    "text": "¡A no ser que quieran llegar a un lugar\natiborrado de salmónidos enloquecidos!"
  },
  {
    "label": "017",
    "text": "¿{{color id=\"1\"}}BIG Big Run{{color id=\"65535\"}}? ¡Solo el nombre ya suena\na una incursión salmónida catastrófica!"
  },
  {
    "label": "018",
    "text": "¡Zasss! {{string value=\"5\"}}(¡Incluso se avistaron grandes\njefes atacando en grupo! ¡Es el acabose!){{fun_000F_0004 arg=\"0x0500\"}}"
  },
  {
    "label": "019",
    "text": "¡{{color id=\"1\"}}Don Oso, S. A.{{color id=\"65535\"}} contrata a cada fulano,\nmengano y zutano para echar una mano!"
  },
  {
    "label": "020",
    "text": "No sabrán dónde trabajarán hasta llegar,\npero... ¿qué es lo peor que podría pasar?"
  },
  {
    "label": "500",
    "text": "¡{{color id=\"1\"}}Don Oso, S. A.{{color id=\"65535\"}} necesita desesperadamente\nempleados para eliminar salmónidos!"
  },
  {
    "label": "501",
    "text": "¿Zasss? {{string value=\"5\"}}(Y tienen recompensas para\nquienes participen, ¿verdad?){{fun_000F_0004 arg=\"0x0500\"}}"
  },
  {
    "label": "502",
    "text": "Así es, aunque la prioridad es recuperar\nTintelia como zona libre de salmónidos."
  },
  {
    "label": "503",
    "text": "¡Zasss! {{string value=\"5\"}}(¡Vamos a dejarles bien clarito\nque no son bienvenidos en esta región!){{fun_000F_0004 arg=\"0x0500\"}}"
  },
  {
    "label": "504",
    "text": "Por cierto, antes de empezar a trabajar,\nrecuerden elegir un equipo para el festival."
  },
  {
    "label": "505",
    "text": "¡A acumular caracolas se ha dicho!"
  },
  {
    "label": "506",
    "text": "¡Los salmónidos llegaron incluso\na la sede del Grand Festival!"
  },
  {
    "label": "507",
    "text": "¡{{color id=\"1\"}}Don Oso, S. A.{{color id=\"65535\"}} está reclutando personal!\n¡No sobrará ninguna ayuda!"
  },
  {
    "label": "508",
    "text": "Mientras más huevecillos dorados se consigan,\nmejor será la recompensa, ¿verdad?"
  },
  {
    "label": "509",
    "text": "¡Zasss! {{string value=\"5\"}}(Más o menos. Aunque logres una\ngran marca, ¡siempre puedes mejorarla!){{fun_000F_0004 arg=\"0x0500\"}}"
  },
  {
    "label": "510",
    "text": "Y esta vez habrá algo diferente\ncon la puntuación."
  },
  {
    "label": "511",
    "text": "¡Don Oso, S. A. contará los {{color id=\"1\"}}huevecillos\ndorados acumulados por todo el mundo{{color id=\"65535\"}}!"
  },
  {
    "label": "512",
    "text": "¡Zasss! {{string value=\"5\"}}(Y, si se supera el {{color id=\"1\"}}cupo{{color id=\"65535\"}}, ¡todos\nlos participantes recibirán {{color id=\"1\"}}escamas{{color id=\"65535\"}}!){{fun_000F_0004 arg=\"0x0500\"}}"
  },
  {
    "label": "513",
    "text": "¡No me parece mala idea! ¿Y sabemos qué\ncantidad será exactamente el cupo ese?"
  },
  {
    "label": "514",
    "text": "Zasss. {{string value=\"5\"}}(Apuesto a que todo el mundo se\npregunta eso. Y tenemos la respuesta).{{fun_000F_0004 arg=\"0x0500\"}}"
  },
  {
    "label": "515",
    "text": "A ver ese redoble de tambores...\n{{size value=\"150\"}}¡T-R-R-R-R...!{{size value=\"100\"}}"
  },
  {
    "label": "516",
    "text": "¡Ufff! ¡Creo que ni una calculadora\npuede leer esa cifra!"
  },
  {
    "label": "517",
    "text": "¿Qué?{{delay frames=\"30\"}} ¡¿{{color id=\"1\"}}700 000 000{{color id=\"65535\"}}?!"
  },
  {
    "label": "518",
    "text": "¡Es una locura! ¿En serio Don Oso cree\nque podemos llegar a esa cantidad?"
  },
  {
    "label": "519",
    "text": "Zasss... {{string value=\"5\"}}(Parece imposible... pero tal vez\nlo logramos si unimos fuerzas...).{{fun_000F_0004 arg=\"0x0500\"}}"
  },
  {
    "label": "520",
    "text": "Intentémoslo. Podemos conseguir escamas,\ny proteger el festival es una buena causa."
  },
  {
    "label": "521",
    "text": "Yo no lo veo tan posible, pero en fin...\nA trabajar se ha dicho."
  },
  {
    "label": "522",
    "text": "Cuenten con mi apoyo. Aunque no nos\nveamos en combate, estoy con ustedes."
  },
  {
    "label": "523",
    "text": "A mí me detectan fácil cuando estoy\ncerca. Yo no paso desapercibida."
  },
  {
    "label": "524",
    "text": "¡Zasss! {{string value=\"5\"}}(Por cierto... ¡Hay que escoger\nequipo para el festival!){{fun_000F_0004 arg=\"0x0500\"}}"
  },
  {
    "label": "525",
    "text": "¡Cierto! A ver si también conseguimos\nunas caracolas liquidando salmónidos."
  }
]