[
  {
    "label": "001",
    "text": "Así se habla, Angie. ¡Y así se empieza una\nnueva temporada como es debido!"
  },
  {
    "label": "002",
    "text": "Sí, pero no te acerques mucho a mí,\n¡porque vas a llevar tinta! ¡Muajaja!"
  }
]