[
  {
    "label": "000",
    "text": "¡Veamos los escenarios actuales del festival!"
  },
  {
    "label": "001",
    "text": "Redoble de tambores... ¡Taaa-rááán!"
  },
  {
    "label": "002",
    "text": "¡Me encantan los escenarios nocturnos!\nMe dan ganas de cantar y bailar. ¡Y luchar!"
  },
  {
    "label": "003",
    "text": "¡Zas, zas!{{string value=\"5\"}} (¡Eso puede ser un próximo éxito!)\n(¡Rápido, escríbelo en algún lado!){{fun_000F_0004 arg=\"0x0500\"}}"
  },
  {
    "label": "004",
    "text": "¡Tengan cuidado para no agotarse antes de\nque acabe el festival!"
  },
  {
    "label": "005",
    "text": "¡Para nada! ¡Voy a darlo todo hasta\nel final!"
  },
  {
    "label": "006",
    "text": "Qué tranquilidad se siente por las noches.\nEs tan diferente de la atmósfera diurna..."
  },
  {
    "label": "007",
    "text": "¡Zas! {{string value=\"5\"}}(Y este aire es bueno para mi piel...\n¡Estoy hidratado y listo para lo que sea!){{fun_000F_0004 arg=\"0x0500\"}}"
  },
  {
    "label": "Yunohana_00_0000",
    "text": "Zasss.{{string value=\"5\"}} (Desfiladero Fumarola es un lugar\nideal para admirar el firmamento de noche).{{fun_000F_0004 arg=\"0x0500\"}}"
  },
  {
    "label": "Yunohana_00_0001",
    "text": "¡Pero no te dejes distraer demasiado por\nlas estrellas, o acabarás \"estrellado\"!"
  },
  {
    "label": "District_00_0000",
    "text": "Ojalá hubiera tiendas que abrieran por\nla noche en Callejones Crustáceo."
  },
  {
    "label": "District_00_0001",
    "text": "O por la mañana. ¡Siempre están cerradas!"
  },
  {
    "label": "Yagara_00_0000",
    "text": "¡El ambiente nocturno de Mercado Lenguado\ntiene muchísimo encanto!"
  },
  {
    "label": "Yagara_00_0001",
    "text": "¡Ay, sí! Con todas esas lucecitas...\ny los barquitos en la lejanía..."
  },
  {
    "label": "Temple_00_0000",
    "text": "La manera en que se refleja la luz en\nDesagüe Navajuela tiene algo de etéreo..."
  },
  {
    "label": "Temple_00_0001",
    "text": "¡Zasss!{{string value=\"5\"}} (¡Sin duda! Son las instalaciones de\nalcantarillado más etéreas que he visto).{{fun_000F_0004 arg=\"0x0500\"}}"
  },
  {
    "label": "Factory_00_0000",
    "text": "Los festivales son la única oportunidad de\ncombatir en Ruinas Ceviche por la noche."
  },
  {
    "label": "Factory_00_0001",
    "text": "¡Zasss!{{string value=\"5\"}} (¡Ah, claro! Porque suelen dar esas\nvisitas guiadas nocturnas para turistas).{{fun_000F_0004 arg=\"0x0500\"}}"
  },
  {
    "label": "Scrap_00_0000",
    "text": "En Desguace Mero la frenética actividad\nes constante, tanto de día como de noche."
  },
  {
    "label": "Scrap_00_0001",
    "text": "¡Zasss!{{string value=\"5\"}} (Como debe ser... ¡Desguazar\nsin descansar para luego reutilizar!){{fun_000F_0004 arg=\"0x0500\"}}"
  },
  {
    "label": "BigSlope_00_0000",
    "text": "¡Zasss!{{string value=\"5\"}} (¡Dicen que durante los festivales\nla entrada a Balneario Aguasal es gratis!){{fun_000F_0004 arg=\"0x0500\"}}"
  },
  {
    "label": "BigSlope_00_0001",
    "text": "Y las medusas lo saben. ¡Ya reservaron\ntodas las habitaciones en las posadas!"
  },
  {
    "label": "Section_00_0000",
    "text": "¿Combatir les da hambre? ¡Disfruten de la\ngran oferta culinaria en Unicentro Carite!"
  },
  {
    "label": "Section_00_0001",
    "text": "¿Por qué hablas así, Megan? Ah, es verdad,\nes uno de nuestros patrocinadores..."
  },
  {
    "label": "Jyoheki_00_0000",
    "text": "Zasss.{{string value=\"5\"}} (Hay que tener cuidado para no\nmolestar a los vecinos en Complejo Medusa).{{fun_000F_0004 arg=\"0x0500\"}}"
  },
  {
    "label": "Jyoheki_00_0001",
    "text": "¡Pero es el festival! Y aparte, ¿no están\nacostumbrados ya al ruido?"
  },
  {
    "label": "Kaisou_00_0000",
    "text": "¿Soy yo la única que se congela de frío en\nPuente Salmón por la noche?"
  },
  {
    "label": "Kaisou_00_0001",
    "text": "Seguramente, porque yo, en cambio, termino\nsudando a mares por el calor."
  },
  {
    "label": "Pivot_00_0000",
    "text": "Me dan cosa los museos por la noche.\nEs como si las estatuas me observaran..."
  },
  {
    "label": "Pivot_00_0001",
    "text": "¡¿Zasss?!{{string value=\"5\"}} (¡¿Por qué me cuentas estas\ncosas?! ¡Ahora no voy a poder dormir!){{fun_000F_0004 arg=\"0x0500\"}}"
  },
  {
    "label": "Hiagari_00_0000",
    "text": "El agua de Spa Cala Bacalao se ve muy linda\npor la noche... "
  },
  {
    "label": "Hiagari_00_0001",
    "text": "No te vas a meter al agua, ¿verdad?"
  },
  {
    "label": "Upland_00_0000",
    "text": "¿Conocen la historia del espíritu que\nvaga por Instituto Coralino?"
  },
  {
    "label": "Upland_00_0001",
    "text": "¡Zaaasss!{{string value=\"5\"}} (¡NO! ¡NI QUIERO!){{fun_000F_0004 arg=\"0x0500\"}}"
  },
  {
    "label": "Nagasaki_00_0000",
    "text": "Juraría que una vez en Astillero Beluga\nvi a la vendedora del vestíbulo."
  },
  {
    "label": "Nagasaki_00_0001",
    "text": "¿Zasss?{{string value=\"5\"}} (¿Estás segura? Yo a veces veo\nallí a la señora que hace de guía).{{fun_000F_0004 arg=\"0x0500\"}}"
  },
  {
    "label": "Line_00_0000",
    "text": "¿Cómo hay tanto bullicio en Ultramarinos\nOrca por la noche? ¿Nunca cierran?"
  },
  {
    "label": "Line_00_0001",
    "text": "¡Es la mejor opción si se te antojan papitas\ny jugo de naranja a las 3 de la mañana!"
  },
  {
    "label": "Carousel_00_0000",
    "text": "¡Zasss!{{string value=\"5\"}} (¡Miren! ¡La rueda de Pirañalandia\nse ilumina por la noche!){{fun_000F_0004 arg=\"0x0500\"}}"
  },
  {
    "label": "Carousel_00_0001",
    "text": "¡SÍ! ¡Quiero subirme!"
  },
  {
    "label": "Wave_00_0000",
    "text": "En el Tiburódromo, procuren no ir en sentido\ncontrario a las flechas durante la noche."
  },
  {
    "label": "Wave_00_0001",
    "text": "¿Y eso? ¿Te volviste supersticiosa\nde repente?"
  },
  {
    "label": "Pillar_00_0000",
    "text": "De noche, la cubierta de Corbeta Corvina\nme hace sentir como una corsaria. ¡Arrr!"
  },
  {
    "label": "Pillar_00_0001",
    "text": "Zasss...{{string value=\"5\"}} (Será porque te gusta buscar\ntesoros ajenos...){{fun_000F_0004 arg=\"0x0500\"}}"
  },
  {
    "label": "Spider_00_0000",
    "text": "La vista del atardecer desde lo alto de los\nrascacielos es espectacular, ¿verdad?"
  },
  {
    "label": "Spider_00_0001",
    "text": "Zasss... {{string value=\"5\"}}(Sí, claro... ¡pero ponte a entintar\ncuando termines de contemplar!){{fun_000F_0004 arg=\"0x0500\"}}"
  },
  {
    "label": "Twist_00_0000",
    "text": "Cuentan que, si viajas en Carguero Platija,\npor las noches, entre la niebla, se ve..."
  },
  {
    "label": "Twist_00_0001",
    "text": "¡Zasss! {{string value=\"5\"}}(¡Tu respiración! Porque este frío\nestá implacable).{{fun_000F_0004 arg=\"0x0500\"}}"
  },
  {
    "label": "Cross_00_0000",
    "text": "Mmm... El plato de fideos gigante de\nFactoría RAMen tiene buena pinta..."
  },
  {
    "label": "Cross_00_0001",
    "text": "Zasss... ¡¿zasss?! {{string value=\"5\"}}(No estarás pensando\nen echarte un chapuzón ahí... ¡¿verdad?!){{fun_000F_0004 arg=\"0x0500\"}}"
  },
  {
    "label": "Ruins_00_0000",
    "text": "La mina costera es preciosa de noche, con\ntodas las luces de los barcos alumbrando..."
  },
  {
    "label": "Ruins_00_0001",
    "text": "Mientras más los miro, más ganas me dan\nde asaltar uno... ¡digo de comprar uno!"
  },
  {
    "label": "Propeller_00_0000",
    "text": "¡Zasss! {{string value=\"5\"}}(¡Las luces de Tintelia se ven\npreciosas desde un avión!){{fun_000F_0004 arg=\"0x0500\"}}"
  },
  {
    "label": "Propeller_00_0001",
    "text": "Tienen unos vuelos nocturnos increíbles.\n¡Y lo digo sin que nos patrocinen!"
  },
  {
    "label": "AutoWalk_00_0000",
    "text": "¡Zasss! {{string value=\"5\"}}(¡Desde Terminal Dragón se ven\nlos fuegos artificiales de El Cráter!){{fun_000F_0004 arg=\"0x0500\"}}"
  },
  {
    "label": "AutoWalk_00_0001",
    "text": "No se me ocurre mejor camuflaje para tirar\nunas cuantas bombas festivas, je, je."
  }
]