[
  {
    "label": "000",
    "text": "¿Eh?{{delay frames=\"30\"}} Hay algo raro en el siguiente piso."
  },
  {
    "label": "001",
    "text": "Sí, se nota el {{color id=\"4\"}}peligro{{color id=\"65535\"}}.{{delay frames=\"30\"}} Nada bonito se puede esperar\nde un piso como ese."
  },
  {
    "label": "002",
    "text": "¿En serio?{{delay frames=\"30\"}} Bueno, pues ya sabemos lo que no hay que\nelegir."
  },
  {
    "label": "003",
    "text": "Pero es que...{{delay frames=\"15\"}} si los evitas, los pisos con peligros\naparecerán con más y más frecuencia."
  },
  {
    "label": "004",
    "text": "¡¿En serio?!{{delay frames=\"15\"}} Entonces quizá convenga pasar por\nel trago amargo ahora..."
  },
  {
    "label": "005",
    "text": "Tal vez sí.{{delay frames=\"15\"}} Si resulta demasiado difícil, puedes gastar\nalgunas pastimonedas {{icon id=\"63\" arg=\"0x0000803F00000000\"}} para volver al elevador."
  },
  {
    "label": "006",
    "text": "Bueno...{{delay frames=\"30\"}} Pues no sé, Ocho.{{delay frames=\"15\"}} ¡Tú decides!"
  }
]