[
  {
    "label": "001",
    "text": "¡Nooo! ¡Me ganaron de nuevo!{{delay frames=\"30\"}} ¡Hiciedon trampa!\n¡No es justooooo!"
  },
  {
    "label": "002",
    "text": "¡Así se hace, Ocho!{{delay frames=\"30\"}} ¡Otra paleta que\nqueda reconfigurada por completo!"
  },
  {
    "label": "003",
    "text": "¡BUEEE!{{delay frames=\"15\"}} Pero eto no temina aquí.{{delay frames=\"30\"}} ¡Voy a seguir\nintetádolo! ¡Por los sueños de todos!"
  },
  {
    "label": "011",
    "text": "¡Bien!{{delay frames=\"30\"}} ¡Ahora podemos reconfigurar otra paleta!"
  },
  {
    "label": "012",
    "text": "¡BUAAAH!{{delay frames=\"15\"}} ¡PERDÍ DE NUEVO!{{delay frames=\"30\"}} ¡SIEMPRE HACEN TRAMPA!\n¡NO ES JUSTOOO!"
  },
  {
    "label": "013",
    "text": "¿Y si tiras la toalla?"
  },
  {
    "label": "014",
    "text": "¡No! ¡NUNCA!{{delay frames=\"30\"}} ¡Voy a crear un mundo de orden\ndonde todos podán ser felices!"
  },
  {
    "label": "015",
    "text": "Ay, Pulpín...{{delay frames=\"15\"}} No te enojes, pequeñito."
  },
  {
    "label": "021",
    "text": "Eso es,{{delay frames=\"15\"}} otra paleta reconfigurada."
  },
  {
    "label": "022",
    "text": "¡¿Por quééé no puedo ganaaar?!{{delay frames=\"30\"}}\n¡Eto es muy injustooo!"
  },
  {
    "label": "023",
    "text": "¡Todo el mundo ayudó a fodmar el Pastiverso!{{delay frames=\"15\"}}\n¡Debería covetirse en lo que todos desean!"
  },
  {
    "label": "024",
    "text": "¿\"Todo el mundo\"?{{delay frames=\"30\"}} ¿Pero no fue Marina\nquien inventó todo esto del Pastiverso?"
  },
  {
    "label": "025",
    "text": "¡Buah, ya me hadtaron, cefapólodos tontos!{{delay frames=\"30\"}}\n¡Váyanse ya, porfa!{{delay frames=\"30\"}} ¡Pfpfpft!"
  },
  {
    "label": "031",
    "text": "¿Ves? Otra derrota.{{delay frames=\"30\"}} Ahora, cuéntanos...{{delay frames=\"15\"}}\n¿Qué tienes que ver tú con la creación del Pastiverso?"
  },
  {
    "label": "032",
    "text": "¡Ay!{{delay frames=\"30\"}} ¡Me encanta cuando mi Perlita se pone seria!"
  },
  {
    "label": "033",
    "text": "Juuum... no se rinden...{{delay frames=\"15\"}} Pero, bueno, yo siempre\ncumplo mis pomesas,{{delay frames=\"30\"}} así que les cuento alguito."
  },
  {
    "label": "034",
    "text": "Los igenieros octoling que crearon el Pastiverso...{{delay frames=\"30\"}}\nabedgaban una misma filofosía en sus corazones."
  },
  {
    "label": "035",
    "text": "No lo expesaban cosientemente,{{delay frames=\"15\"}} pero deseaban\nvivir en un mundo que nunca cambiaría."
  },
  {
    "label": "036",
    "text": "¿Quieres decir que...{{delay frames=\"15\"}} esos deseos dieron forma\nal Pastiverso y a raíz de eso...{{delay frames=\"15\"}} surgió Ordon?"
  },
  {
    "label": "037",
    "text": "Pero ¿para qué querrían vivir en un mundo que\nnunca cambia?"
  },
  {
    "label": "038",
    "text": "Muy buena pegunta.{{delay frames=\"30\"}} ¡Pero no les pienso dar la repuesta!"
  },
  {
    "label": "039",
    "text": "Qué terco..."
  },
  {
    "label": "041",
    "text": "Ffffff..."
  },
  {
    "label": "042",
    "text": "Pareces el balón más viejo del patio de recreo."
  },
  {
    "label": "043",
    "text": "Perdí de nuevo...{{delay frames=\"30\"}} ¡¿Por qué nunca puedo ganar?!\n¡Si yo estoy del lado de la juticia!"
  },
  {
    "label": "044",
    "text": "Snif...{{delay frames=\"30\"}} snif..."
  },
  {
    "label": "045",
    "text": "{{size value=\"150\"}}¡BUUUAAAAAAH!{{size value=\"100\"}}"
  },
  {
    "label": "051",
    "text": "¡Qué paliza me dieron!{{delay frames=\"30\"}} ¡BUUUAAAH!"
  },
  {
    "label": "052",
    "text": "A ver...{{delay frames=\"15\"}} Explícanos bien eso de que los octolings\nquerían vivir en un mundo sin cambios.{{delay frames=\"15\"}} ¿Por qué?"
  },
  {
    "label": "053",
    "text": "Snif... Snif..."
  },
  {
    "label": "054",
    "text": "Pues... como ya sabán,{{delay frames=\"15\"}} hace unos 5 años comenzó\nun ésodo masivo de pulpos hacia la supeficie."
  },
  {
    "label": "055",
    "text": "El mundo octoling solía ser muy pafícico y estable,\npero hubo desagadables ateraciones.{{delay frames=\"15\"}} ¡Todo por\nnecios que asiaban vivir en la supeficie!"
  },
  {
    "label": "056",
    "text": "Algunos estaban en contra del éxodo.{{delay frames=\"30\"}} ¿Dices que ese\nsentimiento predominaba entre la comunidad que ayudó\na crear el Pastiverso?"
  },
  {
    "label": "057",
    "text": "Preferían un mundo inmutable..."
  },
  {
    "label": "058",
    "text": "¡SIP!{{delay frames=\"30\"}} Y ahora todos odian a los cefapólodos tontos que\naduinaron el mundo octoling de antes.{{delay frames=\"30\"}} ¡O sea USTEDES,\nOcho y Madina!"
  },
  {
    "label": "061",
    "text": "Ffffff..."
  },
  {
    "label": "062",
    "text": "No es por nada...{{delay frames=\"15\"}} pero te veo algo desinflado."
  },
  {
    "label": "063",
    "text": "¿Ffffff?"
  },
  {
    "label": "064",
    "text": "¿Eh?{{delay frames=\"15\"}} ¿Qué quieres decir, Perla?"
  },
  {
    "label": "065",
    "text": "A mí esto no me cuadra... Una misión... Los deseos\nde la gente...{{delay frames=\"15\"}} ¿Pero seguro que es lo que TÚ quieres?"
  },
  {
    "label": "066",
    "text": "¡P-por supueto!{{delay frames=\"30\"}} ¡Claro que es lo que quiero!{{delay frames=\"30\"}}\n¡¿Quién dijo que no?!"
  },
  {
    "label": "067",
    "text": "No sé...{{delay frames=\"15\"}} Algo me dice que no es así.{{delay frames=\"30\"}} Pero bueno.{{delay frames=\"15\"}}\n¡A reconfigurar la paleta!"
  },
  {
    "label": "068",
    "text": "{{string value=\"5\"}}({{delay frames=\"5\"}}.{{delay frames=\"5\"}}.{{delay frames=\"5\"}}.{{delay frames=\"5\"}}){{fun_000F_0004 arg=\"0x0500\"}}"
  },
  {
    "label": "071",
    "text": "Perdí de nuevo... claro.{{delay frames=\"30\"}} No soy más que un... snif...\n¡bebito débil! ¡BUAAAH!"
  },
  {
    "label": "072",
    "text": "¿\"Bebito débil\"?{{delay frames=\"30\"}} Ufff, no soporto que un oponente\nfuerte hable así."
  },
  {
    "label": "073",
    "text": "¿Entonces cosideras...{{delay frames=\"15\"}} que soy fuerte?"
  },
  {
    "label": "074",
    "text": "Lo acabo de decir, ¿no?{{delay frames=\"30\"}} Nos lo pones superdifícil\nuna vez tras otra. ¡Y ahí sigues!"
  },
  {
    "label": "075",
    "text": "{{size value=\"75\"}}¡Aaaay, Pedla!...{{size value=\"100\"}}"
  },
  {
    "label": "076",
    "text": "Pues... bueno... esta vez...{{delay frames=\"30\"}} ¡No me intepondé!{{delay frames=\"30\"}}\n¡Hagan lo que tengan que hacer y láguense!"
  },
  {
    "label": "081",
    "text": "¡BUAAAH, perdí!{{delay frames=\"30\"}} ¡Ota vez!"
  },
  {
    "label": "082",
    "text": "Bueno, no tengo más remedio que acetarlo.{{delay frames=\"30\"}}\n¡Hagan lo que quieran con esa paleta!"
  },
  {
    "label": "083",
    "text": "¿Y si...{{delay frames=\"15\"}} te rindieras de una vez?"
  },
  {
    "label": "084",
    "text": "¡Que no!{{delay frames=\"30\"}} Si dejo que recofiguren todas las paletas..."
  },
  {
    "label": "085",
    "text": "¿Qué pasará?"
  },
  {
    "label": "086",
    "text": "¡BUAAAH!{{delay frames=\"30\"}} ¡Olvídenlo! ¡No pienso darme por vecido!"
  },
  {
    "label": "091",
    "text": "¡Lista!{{delay frames=\"15\"}} ¡Otra paleta que reconfiguramos!"
  },
  {
    "label": "092",
    "text": "Y... este...{{delay frames=\"15\"}} ¿Ya se van?"
  },
  {
    "label": "093",
    "text": "Tranquilo, todavía nos quedan paletas por reconfigurar.{{delay frames=\"30\"}}\nNo tardaremos en volver."
  },
  {
    "label": "094",
    "text": "¡Más vale que no!{{delay frames=\"15\"}} ¡La póxima vez les voy a ganar!{{delay frames=\"30\"}}\nAnsío poder{{string value=\"5\"}}...{{fun_000F_0004 arg=\"0x0500\"}}"
  },
  {
    "label": "095",
    "text": "{{size value=\"150\"}}¡NADA!{{delay frames=\"30\"}} ¡No iba a decir nada!{{size value=\"100\"}}"
  },
  {
    "label": "101",
    "text": "¡Listo, Ocho!{{delay frames=\"30\"}} ¡Ya está por fin reconfigurada tu paleta!"
  },
  {
    "label": "102",
    "text": "Qué alivio, ¿verdad?"
  },
  {
    "label": "103",
    "text": "Así que este es el fin.{{delay frames=\"30\"}} Me ganaron, cefapólodos tontos...{{delay frames=\"30\"}}\nemmm... digo...{{delay frames=\"15\"}} me ganaron y punto. Fue justo."
  },
  {
    "label": "104",
    "text": "Parece que Pulpín se rinde al fin."
  },
  {
    "label": "105",
    "text": "El Pastiverso va a salvar a los pulpos,{{delay frames=\"15\"}}\ncomo Madina había planeado al principio."
  },
  {
    "label": "106",
    "text": "Bueno, tendremos que renuciar a nuesto sueño\nde vivir en un mundo de orden..."
  },
  {
    "label": "107",
    "text": "¡Pero nada! Me quedaré en esta torre como\nemenigo final.{{delay frames=\"15\"}} No está tan mal..."
  },
  {
    "label": "108",
    "text": "Ay, Pulpín..."
  },
  {
    "label": "109",
    "text": "La verdad es que me alegaba un poco{{delay frames=\"15\"}}\ncada vez que pasaban por aquí."
  },
  {
    "label": "110",
    "text": "¡Tengan cuidado en el mundo real!{{delay frames=\"30\"}} ¿Porfa?"
  },
  {
    "label": "111",
    "text": "Y, este...{{delay frames=\"30\"}} si algún día quieren alegarme...\npasen a visitadme, ¿sí?"
  },
  {
    "label": "301",
    "text": "¡Arrrg!{{delay frames=\"15\"}} No hay quien les gane. "
  },
  {
    "label": "302",
    "text": "Fiu... Nos podría haber ido mucho peor."
  },
  {
    "label": "303",
    "text": "¡JUUUUM!{{delay frames=\"30\"}} ¡La póxima vez ganaré yo!"
  },
  {
    "label": "311",
    "text": "Aaaay... pensé que el resutado sería distinto..."
  },
  {
    "label": "312",
    "text": "¡Un punto más para el equipo bueno!"
  },
  {
    "label": "313",
    "text": "¡Arrrggg!{{delay frames=\"15\"}} ¡La póxima vez será distinto!{{delay frames=\"30\"}}\n¡Ahora, váyanse, cefapólodos tontos!"
  },
  {
    "label": "321",
    "text": "Fff...{{delay frames=\"15\"}} Pfff...{{delay frames=\"30\"}} La póxima vez no dejaré que se salgan\ncon la suya. Es una pomesa."
  },
  {
    "label": "322",
    "text": "¿Y esa frase de villano de caricaturas?{{delay frames=\"30\"}}\n¿De dónde la sacaste?"
  },
  {
    "label": "323",
    "text": "¡BUAH! ¡Nada de querer cofundirme, porfa!{{delay frames=\"15\"}}\n¡Y, ya, váyanse de aquí, misedables!"
  },
  {
    "label": "501",
    "text": "¡Guau!{{delay frames=\"15\"}} ¡Pedla y tú son superfuedtes, Ocho!"
  },
  {
    "label": "502",
    "text": "También tú, pequeñito. ¡Igual que siempre!"
  },
  {
    "label": "503",
    "text": "Me divertí.{{delay frames=\"30\"}} ¡Vuelvan a jugar conmigo de nuevo, porfa!"
  },
  {
    "label": "511",
    "text": "¡Guau! ¡Pelearon con ganas!"
  },
  {
    "label": "512",
    "text": "¡Igualmente, Pulpín!{{delay frames=\"30\"}} Estoy muy orgullosa de ti.\n¡Espero que te quedes como enemigo final para la torre!"
  },
  {
    "label": "513",
    "text": "¡Claro que sí!{{delay frames=\"15\"}} ¡Ansío conocer a todos los octolings\nque se enfetarán a mí!{{delay frames=\"30\"}} Y ustedes también pasen de\nvez en cuando, porfa."
  },
  {
    "label": "521",
    "text": "¡Impesionante, Ocho!{{delay frames=\"30\"}} ¡Eres supedveloz y fuerte!"
  },
  {
    "label": "522",
    "text": "Tú también te esforzaste mucho, Pulpín.{{delay frames=\"15\"}} Tienes estilo.{{delay frames=\"30\"}}\nPerdón si te interrumpimos la siesta."
  },
  {
    "label": "523",
    "text": "¡JUM! ¡Yo no tomo siestas!{{delay frames=\"30\"}} ¡Ya verán la póxima vez!\n¡No me contedré!"
  }
]