[
  {
    "label": "000",
    "text": "Esta vez veo {{color id=\"4\"}}3{{color id=\"65535\"}} portales {{icon id=\"61\" arg=\"0x0000803F00000000\"}}."
  },
  {
    "label": "001",
    "text": "¿Y los reventamos igual que antes? ¡Sin problema!"
  },
  {
    "label": "002",
    "text": "El cromochip \"tinta tóxica\" es muy útil.{{delay frames=\"15\"}} Hace que {{color id=\"4\"}}los\nenemigos sufran más daño cuando pisan tu tinta{{color id=\"65535\"}}."
  },
  {
    "label": "003",
    "text": "Ah, ¿sí? ¡Quiero verlo! Dispara un poco de tinta\nen torno a la base de aquel blanco."
  }
]