[
  {
    "label": "000",
    "text": "Ya estamos bastante arriba, ¿no?{{delay frames=\"30\"}} Seguro que vamos\nmuy bien con los cromochips."
  },
  {
    "label": "001",
    "text": "Échales un vistazo. Para ver la paleta, solo tienes\nque oprimir {{icon id=\"72\" arg=\"0x0000803F00000000\"}}."
  },
  {
    "label": "002",
    "text": "Uno,{{delay frames=\"5\"}} dos,{{delay frames=\"5\"}} tres...{{delay frames=\"30\"}} ¡Oye, no está mal!{{pageBreak}}Eh...{{delay frames=\"15\"}} ¿Qué es eso a la izquierda? \"Alcance\",\n\"potencia\" y todo eso."
  },
  {
    "label": "003",
    "text": "Esas son {{color id=\"4\"}}tonalidades {{color id=\"65535\"}}de los cromochips.{{pageBreak}}Los cromochips vienen en diferentes tonalidades, según\nlos efectos que tienen,{{delay frames=\"30\"}} cada uno con su propio color\ny diseño.{{pageBreak}}Los cromochips de colores rojizos corresponden\na la tonalidad de {{color id=\"4\"}}potencia{{color id=\"65535\"}};{{delay frames=\"15\"}} básicamente aumentan\nel daño que causan tus ataques.{{pageBreak}}Un vistazo a tu paleta te mostrará de qué colores tienes\nmás cromochips, lo que te da una idea de cuáles son tus\npuntos fuertes.{{pageBreak}}Bueno, en cuanto termines de mirar tu paleta...{{delay frames=\"15\"}}\npasaremos al siguiente piso."
  }
]