[
  {
    "label": "Weapon_Welcome_00",
    "text": "¡Adelante! Mi surtido de armas es\nde lo mejorcito."
  },
  {
    "label": "Weapon_WelcomeS",
    "text": "¡Adelante!"
  },
  {
    "label": "Weapon_First_00",
    "text": "Si buscas armamento de calidad,\n¡has venido al lugar indicado!{{pageBreak}}Las vendo en conjuntos: un {{color id=\"1\"}}arma\nprincipal{{color id=\"65535\"}} para usar con {{icon id=\"12\" arg=\"0x0000803F00000000\"}}, una\n{{color id=\"1\"}}secundaria{{color id=\"65535\"}} para {{icon id=\"10\" arg=\"0x0000803F00000000\"}} y una {{color id=\"1\"}}especial{{color id=\"65535\"}}.{{pageBreak}}¿No sabes si un arma te conviene\no no? ¡Sin problema! Pulsa {{icon id=\"3\" arg=\"0x0000803F00000000\"}}\npara probarla antes de decidirte."
  },
  {
    "label": "Weapon_First_01",
    "text": "Por cierto, sabrás que para obtener\nnuevos y exclusivos artículos puedes\ncanjear {{color id=\"1\"}}licencias de Jairo{{color id=\"65535\"}} {{icon id=\"28\" arg=\"0x295C4F3F00000000\"}}, ¿no?"
  },
  {
    "label": "Weapon_EndCloseUp_00",
    "text": "Obtendrás licencias de Jairo {{icon id=\"28\" arg=\"0x295C4F3F00000000\"}}\nsubiendo de nivel en combates o\ndesarrollando tus habilidades con\narmas específicas."
  },
  {
    "label": "Weapon_FirstWithSaveTransfer_00",
    "text": "Si buscas armamento de calidad,\n¡has venido al lugar indicado!{{pageBreak}}Uy, pero bueno... ¿Adónde vas con\nesa arma tan simplona?{{pageBreak}}Si quieres que te tomen en serio\npor aquí, más te vale que amplíes\ntu surtido de armamento."
  },
  {
    "label": "Weapon_FirstWithSaveTransfer_01",
    "text": "Por cierto, sabrás que para obtener\nnuevos y exclusivos artículos puedes\ncanjear {{color id=\"1\"}}licencias de Jairo{{color id=\"65535\"}} {{icon id=\"28\" arg=\"0x295C4F3F00000000\"}}, ¿no?"
  },
  {
    "label": "Weapon_EndCloseUpWithSaveTransfer_00",
    "text": "Obtendrás licencias de Jairo {{icon id=\"28\" arg=\"0x295C4F3F00000000\"}}\nsubiendo de nivel en combates o\ndesarrollando tus habilidades con\narmas específicas.{{pageBreak}}¡Anda! No dejas de sorprenderme...\n¡¿Así que ya tienes incluso alguna\n{{color id=\"1\"}}licencia dorada de Jairo{{color id=\"65535\"}} {{icon id=\"29\" arg=\"0x295C4F3F00000000\"}}?! ¡Qué\ngran pasión por el coleccionismo!{{pageBreak}}En tal caso, me complace informarte\nde que gracias a ello puedes acceder\na una selección más amplia que la\nhabitual. ¡Enhorabuena!"
  },
  {
    "label": "Weapon_Offline_00",
    "text": "¡Hola, buen...!{{pageBreak}}Un momento... Parece que no tienes\nconexión ahora mismo. Vuelve por\naquí cuando hayas conectado la\nconsola a {{color id=\"1\"}}internet{{color id=\"65535\"}}. ¡Puedes hacerlo\nen el vestíbulo!"
  },
  {
    "label": "Weapon_RankShortage_00",
    "text": "¡Adelante! Uy, pero bueno...\n¿Adónde vas con esa arma\ntan simplona?{{pageBreak}}Si quieres que te tomen en serio\npor aquí, más te vale que amplíes\ntu surtido de armamento.{{pageBreak}}Te ayudaría encantado, pero\nno vendo nada a la gente de nivel 1.\nCuestión de principios, y tal.{{pageBreak}}En general los novatos no saben\napreciar un arma de calidad.\n¡Vuelve cuando llegues al {{color id=\"1\"}}nivel 2{{color id=\"65535\"}}!{{pageBreak}}Es tan fácil como pasarse por el\n{{color id=\"1\"}}vestíbulo{{color id=\"65535\"}} y participar en {{color id=\"1\"}}combates\namistosos{{color id=\"65535\"}} hasta ganar experiencia."
  },
  {
    "label": "Weapon_License_00",
    "text": "Mmm... Yo diría que para lo que es tu\n{{color id=\"1\"}}nivel{{color id=\"65535\"}} actual, esa arma te viene un\npoco grande. Pero tiene que haber\nuna solución...{{pageBreak}}Si realmente la quieres, ¡podría\nser tuya ahora mismo a cambio de\n{{color id=\"1\"}}3{{color id=\"65535\"}} licencias de Jairo {{icon id=\"28\" arg=\"0x295C4F3F00000000\"}}!"
  },
  {
    "label": "Weapon_GoldLicense_00",
    "text": "Mmm... Yo diría que para lo que es tu\n{{color id=\"1\"}}nivel{{color id=\"65535\"}} actual, esa arma te viene un\npoco grande. Pero tiene que haber\nuna solución...{{pageBreak}}Si realmente la quieres, ¡podría\nser tuya ahora mismo a cambio de\n{{color id=\"1\"}}1{{color id=\"65535\"}} licencia dorada de Jairo {{icon id=\"29\" arg=\"0x295C4F3F00000000\"}}!"
  },
  {
    "label": "Weapon_GoldLicenseConfirm_00",
    "text": "Vaya, qué mal... No tienes ninguna\nlicencia de Jairo {{icon id=\"28\" arg=\"0x295C4F3F00000000\"}}. Pero sí\n{{color id=\"1\"}}1{{color id=\"65535\"}} licencia de Jairo dorada {{icon id=\"29\" arg=\"0x295C4F3F00000000\"}}.\nTe la puedo aceptar, aunque no sería\nbuen negocio para ti.{{pageBreak}}¿Seguro que quieres usar tu licencia\nde Jairo dorada {{icon id=\"29\" arg=\"0x295C4F3F00000000\"}}?"
  },
  {
    "label": "Weapon_LowRankS",
    "text": "Requerido: 1 {{icon id=\"28\" arg=\"0x0000803F00000000\"}} y nivel {{number index=\"0\" type=\"2\" arg3=\"0\" arg4=\"0\"}}"
  },
  {
    "label": "Weapon_BuyS",
    "text": "¿Quieres esto?"
  },
  {
    "label": "Weapon_BuyGoldS",
    "text": "¿Quieres esto?"
  },
  {
    "label": "Weapon_ShootingRangeS",
    "text": "¿Quieres probarla?"
  },
  {
    "label": "Weapon_EquipS",
    "text": "¿La equipas?"
  },
  {
    "label": "Weapon_LicenseShortage_00",
    "text": "Me temo que te falta alguna que otra\nlicencia, y no puedo desprenderme de\nmis mercancías por menos de lo que\nvalen."
  },
  {
    "label": "Weapon_SoldOut_00",
    "text": "Tu entusiasmo es admirable, ¡pero\nesa arma ya la tienes!"
  },
  {
    "label": "Weapon_ThankYou_00",
    "text": "¡Gracias! Cuando quieras cambiar\nde arma, solo tienes que pulsar {{icon id=\"5\" arg=\"0x0000803F00000000\"}}\n y acceder a la pantalla de\n{{color id=\"1\"}}personalización{{color id=\"65535\"}}. ¡Trátala bien!"
  },
  {
    "label": "Weapon_ThankYouGoldLicense_00",
    "text": "¡Gracias! Cuando quieras cambiar\nde arma, solo tienes que pulsar {{icon id=\"5\" arg=\"0x0000803F00000000\"}}\n y acceder a la pantalla de\n{{color id=\"1\"}}personalización{{color id=\"65535\"}}. ¡Trátala bien!{{pageBreak}}Por cierto, ¿cuántas licencias\ndoradas de Jairo {{icon id=\"29\" arg=\"0x295C4F3F00000000\"}} llevas? A ver,\ndéjame que mire... Ah, tienes {{color id=\"1\"}}{{number index=\"0\" type=\"1\" arg3=\"0\" arg4=\"0\"}}{{color id=\"65535\"}}."
  },
  {
    "label": "Weapon_ThankYouLastGoldLicense_00",
    "text": "¡Gracias! Cuando quieras cambiar\nde arma, solo tienes que pulsar {{icon id=\"5\" arg=\"0x0000803F00000000\"}}\n y acceder a la pantalla de\n{{color id=\"1\"}}personalización{{color id=\"65535\"}}. ¡Trátala bien!{{pageBreak}}Bueno, pues con eso has usado tu\núltima licencia dorada de Jairo {{icon id=\"29\" arg=\"0x295C4F3F00000000\"}}."
  },
  {
    "label": "Weapon_UnlockA_00",
    "text": "Mi surtido armamentístico se ha\nampliado con nuevos artículos muy\napropiados para tu nivel. ¡Adelante,\necha un vistazo!"
  },
  {
    "label": "Weapon_UnlockA_01",
    "text": "¡Ya estás en condiciones de usar\nmi {{color id=\"1\"}}{{string value=\"WeaponName\" arg1=\"0\" arg3=\"0\"}}{{color id=\"65535\"}}!"
  },
  {
    "label": "Weapon_UnlockB_00",
    "text": "¡Y no queda ahí la cosa! También\npodrás sacarle todo el jugo a mi\n{{color id=\"1\"}}{{string value=\"WeaponName\" arg1=\"0\" arg3=\"0\"}}{{color id=\"65535\"}}."
  },
  {
    "label": "Weapon_Complete_00",
    "text": "¡Vaya! Te las has apañado para\nhacerte con todas las armas de\nmi inventario. ¡Felicidades, colega\nde artillería!{{pageBreak}}Si te sobran licencias de Jairo {{icon id=\"28\" arg=\"0x295C4F3F00000000\"}},\ntienes la posibilidad de canjearlas por\n{{color id=\"1\"}}fichas sacapremios{{color id=\"65535\"}} {{icon id=\"34\" arg=\"0xE17A943F00000000\"}} en la máquina\nsacapremios del {{color id=\"1\"}}vestíbulo{{color id=\"65535\"}}."
  },
  {
    "label": "Head_Welcome_00",
    "text": "Hola... ¡Estilo Nautilo celebra verte!"
  },
  {
    "label": "Head_WelcomeS",
    "text": "¡Hola, hola!"
  },
  {
    "label": "Head_WelcomeRank04_00",
    "text": "Hola... ¡Estilo Nautilo celebra verte!\nAnda, veo que ya tienes cierto nivel,\n¿eh?"
  },
  {
    "label": "Head_ExpFirst_00",
    "text": "Bien... Aquí vendemos cosas para\nllevar en la cabeza. Ya sabes, gorras\ny... bueno, cosas relacionadas con\nel cráneo.{{pageBreak}}Pero no son accesorios comunes y\ncorrientes, sino que además llevan\n{{color id=\"1\"}}potenciadores{{color id=\"65535\"}}.{{pageBreak}}Te serán muy útiles en combate, creo.\nNo sé explicarte cómo... pero tú\npulsa {{icon id=\"11\" arg=\"0x0000803F00000000\"}} y seguro que lo pillas."
  },
  {
    "label": "Head_ExpFirstS",
    "text": "¡Prueba a ver!"
  },
  {
    "label": "Head_WelcomeRank10_00",
    "text": "Hola... ¡Estilo Nautilo celebra verte!{{pageBreak}}Te veo con más nivel que la última\nvez, lo cual es muy positivo, porque\ntengo nuevo equipamiento, y es lo que\nandas buscando, ¿a que sí?"
  },
  {
    "label": "Head_WelcomeRank10S",
    "text": "¡Pues claro!"
  },
  {
    "label": "Head_WelcomeRank20_00",
    "text": "Hola... ¡Estilo Nautilo celebra verte!{{pageBreak}}¡Qué nivelazo tienes! No es por\nhacerte la pelota como cliente, ¡pero\nes un honor tenerte aquí!"
  },
  {
    "label": "Head_WelcomeRank20S",
    "text": "¡Qué categoría!"
  },
  {
    "label": "Head_WelcomeRank30_00",
    "text": "Hola... ¡Estilo Nautilo celebra verte!{{pageBreak}}¡Pero bueno! ¡Nunca he visto a nadie\ncon tanto nivel como tú! ¿De verdad\nte dignas a pasarte por esta humilde\ntienda?"
  },
  {
    "label": "Head_WelcomeRank30S",
    "text": "¡A por todas!"
  },
  {
    "label": "Head_Offline_00",
    "text": "Hola... ¡Estilo Nautilo celebra verte!{{pageBreak}}Anda... ¡pero si no tienes la consola\nconectada a {{color id=\"1\"}}internet{{color id=\"65535\"}}! Pásate por\nel {{color id=\"1\"}}vestíbulo {{color id=\"65535\"}}para conectarla y\nvuelve luego a verme, ¿vale?"
  },
  {
    "label": "Head_OfflineS",
    "text": "¡Vuelve pronto!"
  },
  {
    "label": "Head_RankShortage_00",
    "text": "Ah, hola...{{pageBreak}}Eh... Esto es un poco embarazoso,\npero no sé si tienes nivel suficiente\npara comprar aquí. Necesitas por lo\nmenos el {{color id=\"1\"}}nivel 4{{color id=\"65535\"}}.{{pageBreak}}¿Por qué no te pasas por el {{color id=\"1\"}}vestíbulo{{color id=\"65535\"}}\ny echas unos {{color id=\"1\"}}combates territoriales{{color id=\"65535\"}}?\nSegún dicen, ayudan a subir de nivel."
  },
  {
    "label": "Head_RankShortageS",
    "text": "¡Te espero!"
  },
  {
    "label": "Head_BuyS",
    "text": "¿Compras?"
  },
  {
    "label": "Head_EquipS",
    "text": "¿Lo equipas ahora?"
  },
  {
    "label": "Head_MoneyShortage_00",
    "text": "Mmm... No tienes suficiente dinero."
  },
  {
    "label": "Head_MoneyShortageS",
    "text": "¡La moda cuesta!"
  },
  {
    "label": "Head_RarityMax_00",
    "text": "Ese objeto ya ha alcanzado su\nmáximo grado de exclusividad.\n¡No se lo puedes aumentar más!"
  },
  {
    "label": "Head_RarityMaxS",
    "text": "¡Exclusividad, colega!"
  },
  {
    "label": "Head_BasicSkillSame_00",
    "text": "Mmm... No sé si entiendo lo que\nquieres hacer. Esos dos objetos\ntienen las mismas funciones básicas."
  },
  {
    "label": "Head_BasicSkillSameS",
    "text": "¡No te lo aconsejo!"
  },
  {
    "label": "Head_SoldOut_00",
    "text": "Vaya... No quedan existencias."
  },
  {
    "label": "Head_SoldOutS",
    "text": "¡Se agotó!"
  },
  {
    "label": "Head_SoldOtherHome_00",
    "text": "Vaya... Parece que ya no nos quedan."
  },
  {
    "label": "Head_SoldOtherHomeS",
    "text": "¡Lo siento, colega!"
  },
  {
    "label": "Head_ExpRarityUpAndReplace_00",
    "text": "Ah, hola... Oye, tengo que explicarte\nuna cosilla nueva que puede ser algo\ncomplicada.{{pageBreak}}Si compras un objeto igual a otro\nque ya tienes, puedes {{color id=\"1\"}}aumentar su\nexclusividad{{color id=\"65535\"}}.{{pageBreak}}Así contarás con más espacio para\npotenciadores y podrás ganar más\nexperiencia.{{pageBreak}}Otra opción es {{color id=\"1\"}}cambiar{{color id=\"65535\"}} tu artículo\npor uno nuevo, que sería igual pero...\ndiferente. Bueno, tú verás."
  },
  {
    "label": "Head_RarityUp_00",
    "text": "Ah... Parece que ya tienes ese objeto.\n¿Quieres {{color id=\"1\"}}aumentar su exclusividad{{color id=\"65535\"}}\ncon más estrellas o {{color id=\"1\"}}cambiarlo{{color id=\"65535\"}}?"
  },
  {
    "label": "Head_ReplaceConfirm_00",
    "text": "Se van a reiniciar los {{color id=\"1\"}}potenciadores\nsecundarios{{color id=\"65535\"}} y el grado de\n{{color id=\"1\"}}exclusividad{{color id=\"65535\"}}. ¿Lo tienes claro?"
  },
  {
    "label": "Head_ThankYou_00",
    "text": "Muy bien... Espero que te guste tu\nnuevo equipamiento. Para cambiar\nlo que llevas, accede a la pantalla de\nde {{color id=\"1\"}}personalización{{color id=\"65535\"}} con {{icon id=\"5\" arg=\"0x0000803F00000000\"}}, ¿vale?"
  },
  {
    "label": "Head_ThankYouS",
    "text": "¡Gracias!"
  },
  {
    "label": "Head_ThanksBadgeA_00",
    "text": "Oye... ¿Tienes un momento?{{pageBreak}}Verás, quería agradecerte de algún\nmodo que seas uno de nuestros\nclientes más destacados.{{pageBreak}}Tengo algo para ti. No es nada del\notro mundo, pero creo que esta {{color id=\"1\"}}chapa{{color id=\"65535\"}}\nde recuerdo te quedaría muy bien.\nSi quieres, claro."
  },
  {
    "label": "Head_ThanksBadgeAS",
    "text": "¡Llévala con orgullo!"
  },
  {
    "label": "Head_ThanksBadgeB_00",
    "text": "Eh... Disculpa que vuelva a\nmolestarte con este tema, pero...\nhe llegado a la conclusión de que\nningún cliente te supera.{{pageBreak}}Y por eso quería ofrecerte una {{color id=\"1\"}}chapa{{color id=\"65535\"}}\naún más exclusiva.{{pageBreak}}Nos honraría que la lucieses de vez\nen cuando. Pero no lo veas como una\nobligación, ¿eh?"
  },
  {
    "label": "Head_ThanksBadgeBS",
    "text": "¡Te la mereces!"
  },
  {
    "label": "Clothes_Welcome_00",
    "text": "Muy buenas, cortés visitante."
  },
  {
    "label": "Clothes_WelcomeS",
    "text": "Hola, cortés visitante."
  },
  {
    "label": "Clothes_WelcomeRank04_00",
    "text": "Muy buenas, cortés visitante.\nPrêt-à-Ventouse te da la bienvenida.{{pageBreak}}Veo que eres alguien de mucho nivel y\nque va a la moda, así que encajas en\nesta tienda. Peeero... ¡tienes que\nrespetar los artículos! ¡No se toca\nnada sin lavarse antes las manos!"
  },
  {
    "label": "Clothes_ExpFirst_00",
    "text": "Sabes lo que son los {{color id=\"1\"}}potenciadores{{color id=\"65535\"}},\n¿no? Son muy útiles para luchar\ny ganar combates.{{pageBreak}}¿Quieres conocerlos casi tan bien\ncomo yo? ¡Pues pulsa {{icon id=\"11\" arg=\"0x0000803F00000000\"}} y toma\nnota!"
  },
  {
    "label": "Clothes_WelcomeRank10_00",
    "text": "Muy buenas, cortés visitante.\nPrêt-à-Ventouse te da la bienvenida.{{pageBreak}}¿Crees que no me he dado cuenta?\n¡Has llegado al nivel 10! Nada escapa\na mi atención... De todos modos, ¡con\nnuestra ropa puedes además mejorar\ntu presencia!"
  },
  {
    "label": "Clothes_WelcomeRank20_00",
    "text": "Muy buenas, cortés visitante.\nPrêt-à-Ventouse te da la bienvenida.{{pageBreak}}Lo noto, lo percibo... ¡Tienes más\ncategoría que antes! Pero no creas\nque ya estás a la misma altura que\nel maestro de la moda, es decir, yo."
  },
  {
    "label": "Clothes_WelcomeRank30_00",
    "text": "Muy buenas, cortés visitante.\nPrêt-à-Ventouse te da la bienvenida.{{pageBreak}}Ha llegado el día en que tu nivelazo\nconsigue impresionarme. ¿Serás la\nnueva leyenda de la moda? Pondré\ntodo de mi parte para que sea así."
  },
  {
    "label": "Clothes_Offline_00",
    "text": "Muy buenas, cortés visitante.{{pageBreak}}Vaya, parece que no tienes la consola\nconectada a {{color id=\"1\"}}internet{{color id=\"65535\"}}. Así no puedo\nhacer nada. Pásate por el {{color id=\"1\"}}vestíbulo{{color id=\"65535\"}}\ny vuelve a conectarla antes de que\nla moda cambie demasiado."
  },
  {
    "label": "Clothes_RankShortage_00",
    "text": "Muy buenas, cortés visitante.\nPrêt-à-Ventouse te da la bienvenida.{{pageBreak}}Disculpa la pregunta, pero ¿es que\npor debajo del {{color id=\"1\"}}nivel 4{{color id=\"65535\"}} no os dais\ncuenta de vuestra escasa\ncategoría? ¡Así no se puede\ncomprar en mi tienda!{{pageBreak}}Te aconsejo que vayas al {{color id=\"1\"}}vestíbulo{{color id=\"65535\"}} y\nparticipes en unos cuantos {{color id=\"1\"}}combates\nterritoriales{{color id=\"65535\"}} antes de pasarte de\nnuevo por aquí."
  },
  {
    "label": "Clothes_BuyS",
    "text": "¿Seguro?"
  },
  {
    "label": "Clothes_EquipS",
    "text": "¿Te lo pones?"
  },
  {
    "label": "Clothes_MoneyShortage_00",
    "text": "¿Quieres poner a prueba la paciencia\nde M. Arqués o qué? ¡No tienes\nsuficiente dinero para esta\ntransacción!"
  },
  {
    "label": "Clothes_RarityMax_00",
    "text": "No, no, no y no. El objeto en cuestión\nya tiene el más alto grado de\nexclusividad. ¿A quién se le puede\nocurrir querer más?"
  },
  {
    "label": "Clothes_BasicSkillSame_00",
    "text": "No, no, no y no. El objeto en cuestión\nya tiene ese potenciador. Cambiar no\ntendría sentido. La estética es\nimportante, pero debe subordinarse\na la funcionalidad."
  },
  {
    "label": "Clothes_SoldOut_00",
    "text": "¿Te gusta tener cosas duplicadas?\nNo debería ser yo quien ponga\nobjeciones, pero piensa si no será\nun error..."
  },
  {
    "label": "Clothes_SoldOtherHome_00",
    "text": "Lo siento, esa prenda ya está vendida.\nSi te hubieras dado más prisa..."
  },
  {
    "label": "Clothes_ExpRarityUpAndReplace_00",
    "text": "Ah, esto es lo que yo llamo un\n«dilema de moda». Tendrás que\ntomar una decisión...{{pageBreak}}Si compras un artículo que ya tienes,\npuedes {{color id=\"1\"}}aumentar su exclusividad{{color id=\"65535\"}} con\nmás estrellas o bien {{color id=\"1\"}}cambiarlo{{color id=\"65535\"}} por\nel nuevo.{{pageBreak}}{{color id=\"1\"}}Más exclusividad{{color id=\"65535\"}} significa tener más\nespacio para potenciadores y poder\nganar más experiencia.{{pageBreak}}Si lo {{color id=\"1\"}}cambias{{color id=\"65535\"}}, tendrás un artículo\nigual... pero sin las características\ndel que ya tenías.{{pageBreak}}Bueno, tú verás lo que quieres hacer.\nM. Arqués no puede decidir por ti."
  },
  {
    "label": "Clothes_RarityUp_00",
    "text": "Se te presenta una gran oportunidad.{{pageBreak}}¿Quieres {{color id=\"1\"}}aumentar la exclusividad{{color id=\"65535\"}}\nde tu artículo o {{color id=\"1\"}}cambiarlo{{color id=\"65535\"}} por el\nnuevo?"
  },
  {
    "label": "Clothes_ReplaceConfirm_00",
    "text": "Te recuerdo que, si hacemos esto,\nse reiniciarán la {{color id=\"1\"}}exclusividad{{color id=\"65535\"}} y los\n{{color id=\"1\"}}potenciadores {{color id=\"65535\"}}del objeto. ¿Procedo?"
  },
  {
    "label": "Clothes_ThankYou_00",
    "text": "Estupendo. Si quieres cambiar de\nindumentaria, tendrás que acceder a\nla pantalla {{color id=\"1\"}}personalización{{color id=\"65535\"}} con {{icon id=\"5\" arg=\"0x0000803F00000000\"}}."
  },
  {
    "label": "Clothes_ThankYouButFestT_00",
    "text": "Muchísimas gracias, pero no puedes\ncambiar tu indumentaria ahora, ya\nque estamos en medio de un festival.\nSería simplemente indecoroso."
  },
  {
    "label": "Clothes_ThanksBadgeA_00",
    "text": "Ejem... Quisiera llamar tu atención\nacerca de un hecho notable.{{pageBreak}}Me has comprado mucha ropa, que\nsiempre has vestido con orgullo y...\ny elegancia. Por ello, tengo algo para\nti como muestra de agradecimiento.{{pageBreak}}Fíjate bien. Te voy a dar ahora la\n{{color id=\"1\"}}chapa {{color id=\"65535\"}}de la moda... A ver, no, que no\nte voy a soltar un rollo, sino que es\nuna chapa para que la lleves puesta\ny la luzcas con señorío."
  },
  {
    "label": "Clothes_ThanksBadgeB_00",
    "text": "Permíteme ahora que te dirija unas\nsolemnes palabras.{{pageBreak}}Pocos clientes tenemos tan fieles\ncomo tú. ¡Y con tan alto sentido de\nla moda! Así, pues, me honra poder\nconcederte la más especial de las\n{{color id=\"1\"}}chapas{{color id=\"65535\"}}.{{pageBreak}}No alardees de este galardón con\npalabras vanas. Hazlo con tus actos,\n¡luciéndolo siempre, dondequiera\nque vayas! Muchísimas gracias,\ny vuelve siempre que lo desees."
  },
  {
    "label": "Shoes_Welcome_00",
    "text": "¡Adelante, adelante!"
  },
  {
    "label": "Shoes_WelcomeS",
    "text": "¡Adelante, adelante!"
  },
  {
    "label": "Shoes_WelcomeRank04_00",
    "text": "¡Adelante! Entra con buen pie en\nCalzando Fuerte.{{pageBreak}}¡Oh! ¡Se nota que tienes nivel! Pero\npodrías tener aún más con algo nuevo\nen tus pies. ¿Tengo razón o no?\n¡Claro que sí!"
  },
  {
    "label": "Shoes_ExpFirst_00",
    "text": "Sabes lo que son los {{color id=\"1\"}}potenciadores{{color id=\"65535\"}},\n¿no? Sí, esos mágicos dispositivos\nque te vuelven más competente en\nel campo de batalla.{{pageBreak}}Eso me ha quedado un poco pedante.\nSi quieres saber más, pulsa {{icon id=\"11\" arg=\"0x0000803F00000000\"}}..."
  },
  {
    "label": "Shoes_WelcomeRank10_00",
    "text": "¡Adelante! Entra con buen pie en\nCalzando Fuerte.{{pageBreak}}¡Hala! ¡Tu nivel alcanza cotas de\nexcelencia! Déjame ver si tengo algo\npara alguien de tanta categoría..."
  },
  {
    "label": "Shoes_WelcomeRank20_00",
    "text": "¡Adelante! Entra con buen pie en\nCalzando Fuerte.{{pageBreak}}¡Hala! ¡Tu nivel alcanza cotas... casi\ninalcanzables! ¿Cómo podré renovar\nmi catálogo de artículos para seguir\na tu altura?"
  },
  {
    "label": "Shoes_WelcomeRank30_00",
    "text": "¡Adelante! Entra con buen pie en\nCalzando Fuerte.{{pageBreak}}¡Oooh! ¡El nivel que te da tu\ncalzado no se puede igualar ni con\nplataformas setenteras! ¡Me rindo!\nDe todos modos, ¿en qué puedo\nayudarte?"
  },
  {
    "label": "Shoes_Offline_00",
    "text": "¡Adelante! Entra con buen pie en\nCalzando Fuer...{{pageBreak}}¡Anda! ¡Pero si no tienes la consola\nconectada a {{color id=\"1\"}}internet{{color id=\"65535\"}}! Bueno, pásate\npor el {{color id=\"1\"}}vestíbulo{{color id=\"65535\"}} para conectarla y\nvuelve luego. ¡Te espero!"
  },
  {
    "label": "Shoes_RankShortage_00",
    "text": "¡Adelante! Entra con buen pie en\nCalzando Fuer...{{pageBreak}}Mmm... Te noto algo carente de nivel.\n¿Te sientes bien?{{pageBreak}}Déjame que te dé un consejo. Ve al\n{{color id=\"1\"}}vestíbulo{{color id=\"65535\"}}, participa en {{color id=\"1\"}}combates\nterritoriales{{color id=\"65535\"}} y... ¡machaca a tus\nrivales! Eso te dará nivel.{{pageBreak}}Vuelve cuando hayas alcanzado el\n{{color id=\"1\"}}nivel 4 {{color id=\"65535\"}}y juntos encontraremos un\nmejor estilo para ti."
  },
  {
    "label": "Shoes_BuyS",
    "text": "¿Está bien así?"
  },
  {
    "label": "Shoes_EquipS",
    "text": "¿Te calzas ahora?"
  },
  {
    "label": "Shoes_MoneyShortage_00",
    "text": "Vaya... ¡No tienes dinero suficiente!"
  },
  {
    "label": "Shoes_RarityMax_00",
    "text": "Lo siento, pero eso ya ha alcanzado\nsu máximo grado de exclusividad\nposible."
  },
  {
    "label": "Shoes_BasicSkillSame_00",
    "text": "Espera... ¿Para qué quieres cambiar\nalgo por otra cosa que tiene el mismo\npotenciador primario? Piénsalo dos\nveces..."
  },
  {
    "label": "Shoes_SoldOut_00",
    "text": "¿Eh? ¡Pero si ya no me quedan\nexistencias de eso!"
  },
  {
    "label": "Shoes_SoldOtherHome_00",
    "text": "Oh, oh... Me temo que ya he vendido\nese artículo. ¡Se siente! ☆"
  },
  {
    "label": "Shoes_ExpRarityUpAndReplace_00",
    "text": "¡Vaya! Qué interesante... ¿Quieres\nque comparta contigo algo de \ninformación? Bueno, ¡pues adelante!{{pageBreak}}Ya tienes ciertos modelos de calzado\nde los que ofrezco hoy, así que\npodrías {{color id=\"1\"}}hacerlos más exclusivos{{color id=\"65535\"}} o\n{{color id=\"1\"}}cambiarlos {{color id=\"65535\"}}para restablecer sus\npotenciadores.{{pageBreak}}Así me gusta, que escuches con\natención todo lo que te digo. Eso sí,\nahora decides tú."
  },
  {
    "label": "Shoes_RarityUp_00",
    "text": "¡Ah! ¡Pero si eso ya lo tienes!\n¿Quieres {{color id=\"1\"}}hacer más exclusivo {{color id=\"65535\"}}el par\nque ya tienes, o lo {{color id=\"1\"}}cambias {{color id=\"65535\"}}para\nreiniciar sus potenciadores?"
  },
  {
    "label": "Shoes_ReplaceConfirm_00",
    "text": "¡Muy bien! Eso sí, no olvides que la\n{{color id=\"1\"}}exclusividad{{color id=\"65535\"}} y los {{color id=\"1\"}}potenciadores\nsecundarios {{color id=\"65535\"}}se reiniciarán, ¿vale?"
  },
  {
    "label": "Shoes_ThankYou_00",
    "text": "¡Muchas gracias! Recuerda, siempre\nque quieras cambiar tu calzado, solo\ntienes que pulsar {{icon id=\"5\" arg=\"0x0000803F00000000\"}} para acceder\nal menú de {{color id=\"1\"}}personalización{{color id=\"65535\"}}."
  },
  {
    "label": "Shoes_ThanksBadgeA_00",
    "text": "¡Hola! ¿Tienes un segundo para que\nte cuente algo?{{pageBreak}}Estás en el selecto club de nuestros\nclientes más fieles, ¡se nota tu\ninterés por el mundo del calzado!{{pageBreak}}Así que quisiera concederte una\n{{color id=\"1\"}}chapa{{color id=\"65535\"}} conmemorativa, ¡solo para\nclientes como tú! No la vendas en\ninternet, ¿eh?"
  },
  {
    "label": "Shoes_ThanksBadgeB_00",
    "text": "Eh... Hay un asunto ajeno al mundo\ndel calzado que quisiera discutir\ncontigo.{{pageBreak}}¿Te acuerdas de esa chapa especial\nque te di? Bueno, pues resulta que...{{pageBreak}}¡Has superado mis expectativas\nmás optimistas! ¡Eres mi inspiración\npara alcanzar nuevos niveles de\nexcelencia! Así que quería otorgarte\nuna {{color id=\"1\"}}chapa{{color id=\"65535\"}} aún más especial."
  },
  {
    "label": "Goods_Welcome_00",
    "text": "Ah, hola..."
  },
  {
    "label": "Goods_WelcomeS",
    "text": "Ah, hola..."
  },
  {
    "label": "Goods_WelcomeRankA_00",
    "text": "Ah, hola... Miscelánea Abisal te da\nla bienvenida.{{pageBreak}}Creo que Diverto quería hablar\ncontigo. No en vano es el dueño\nde esta tienda.{{pageBreak}}Dijo algo de que te ve con buen nivel,\ny luego se puso a bailar. Un poco\nraro. No sé si significa algo, pero\ncreo que quiere venderte más cosas."
  },
  {
    "label": "Goods_WelcomeRankB_00",
    "text": "Ah, hola... Miscelánea Abisal te da\nla bienvenida.{{pageBreak}}Oye, tengo otro mensaje de Diverto\npara ti.{{pageBreak}}No te voy a hacer el gesto de un\ncorazón con las manos, tal como me\npidió, pero destacó tu gran fidelidad\nhacia nuestra tienda, que espera nos\nsigas visitando y tal...{{pageBreak}}Luego dijo «eh» lo menos 30 veces\ny se marcó otro baile, creo que\ndiferente del primero. Bueno, esto\núltimo no sé si tendría que habértelo\ncontado."
  },
  {
    "label": "Goods_First_00",
    "text": "Ah, hola... Miscelánea Abisal te da\nla bienvenida.{{pageBreak}}La tienda no es propiedad mía, pero\nte doy permiso para que mires todo\nlo que quieras, que yo te lo vendo.{{pageBreak}}Eso sí, no me preguntes para qué\nsirve cada cosa. Solo sé que tienes\nque ponerlo en tu {{color id=\"1\"}}taquilla{{color id=\"65535\"}}. Es todo\nun poco caótico, ya verás."
  },
  {
    "label": "Goods_First_01",
    "text": "Ah, sí, tu {{color id=\"1\"}}taquilla {{color id=\"65535\"}}está en la {{color id=\"1\"}}sala de\ntaquillas{{color id=\"65535\"}}; puedes pasarte luego a\necharle un vistazo.{{pageBreak}}Si hay algo dentro, supongo que te\npertenece por defecto."
  },
  {
    "label": "Goods_FirstCatalog_00",
    "text": "Ah, se supone que tengo que darte\nuno de estos. Toma, un {{color id=\"1\"}}catálogo{{color id=\"65535\"}}."
  },
  {
    "label": "Goods_FirstReward_00",
    "text": "¿Participas en combates y encargos\nde Don Oso? Tengo entendido que son\nuna buena fuente de {{color id=\"1\"}}puntos de\ncatálogo{{color id=\"65535\"}}.{{pageBreak}}Y cada vez que tu {{color id=\"1\"}}nivel de catálogo{{color id=\"65535\"}}\nsube, te dan una recompensa. Luego\nyo me encargo de rebuscar en esta\nmaraña de cosas para dártela.{{pageBreak}}El caso es que tengo aquí lo que\nserá tu primer premio. Espero que\nte guste."
  },
  {
    "label": "Goods_FirstRewardAfter_00",
    "text": "Vale, sigue mirando, o lo que quieras."
  },
  {
    "label": "Goods_NewReward_00",
    "text": "Anda, tu catálogo ha subido de nivel.\nBueno, pues aquí tienes tu premio."
  },
  {
    "label": "Goods_NewRewardAfter_00",
    "text": "Sigue trabajando como hasta ahora.\nPorque es un trabajo, ¿no? Bueno,\nsea lo que fuere, sigue así."
  },
  {
    "label": "Goods_ExchangeCatalog_00",
    "text": "Ah, ¿que de ese catálogo ya lo tienes\ntodo? Qué impresionante.{{pageBreak}}Bueno, pues aquí tienes uno nuevo."
  },
  {
    "label": "Goods_ExchangeCatalogAfter_00",
    "text": "Sigue acaparando. Ay, perdón, que\nesto no va de acaparar. Bueno, tú\nsigue como hasta ahora."
  },
  {
    "label": "Goods_Offline_00",
    "text": "Ah, hola... Miscelánea Abisal te da\nla bienvenida.{{pageBreak}}Vaya... Diría que tu consola no está\nconectada a {{color id=\"1\"}}internet{{color id=\"65535\"}}. Si quieres\ncomprarme algo, tendrás que ir al\n{{color id=\"1\"}}vestíbulo{{color id=\"65535\"}} y recuperar la conexión."
  },
  {
    "label": "Goods_RankShortage_00",
    "text": "Ah, hola... Miscelánea Abisal te da\nla bienvenida.{{pageBreak}}Para comprar aquí debes tener por\nlo menos {{color id=\"1\"}}nivel 4{{color id=\"65535\"}}. Lo siento, pero las\nreglas no las hago yo. Ve al {{color id=\"1\"}}vestíbulo{{color id=\"65535\"}}\ny échate unos {{color id=\"1\"}}combates territoriales{{color id=\"65535\"}},\n¿vale?"
  },
  {
    "label": "Goods_BuyS",
    "text": "¿Qué cantidad?"
  },
  {
    "label": "Goods_MoneyShortage_00",
    "text": "Ah... ¿Que no tienes suficiente\ndinero?"
  },
  {
    "label": "Goods_SoldOut_00",
    "text": "Vaya, se ha agotado. Lo siento."
  },
  {
    "label": "Goods_ThankYou_00",
    "text": "Gracias. Espero que tu taquilla se\nalegre con esta nueva adquisición."
  },
  {
    "label": "Goods_ThanksBadgeA_00",
    "text": "Ah, hola... Parece que has comprado\nmuchas cosas aquí.{{pageBreak}}Y es por eso que tengo para ti un\nmensaje especial de Diverto.{{pageBreak}}Quiere que te agradezca tu fidelidad\na nuestra tienda.{{pageBreak}}Se supone que debo decir un pequeño\ndiscurso, pero prefiero darte\ndirectamente otro tipo de {{color id=\"1\"}}chapa{{color id=\"65535\"}}...{{pageBreak}}Pues eso, que es para ti, por tu modo\nde consumir a lo grande. Sigue así."
  },
  {
    "label": "Goods_ThanksBadgeB_00",
    "text": "Ah, hola. Hay que ver la cantidad de\ncosas que has comprado aquí...{{pageBreak}}Y por eso tengo otro mensaje de\nDiverto para ti.{{pageBreak}}Me pidió que te agradezca y felicite\npor gastar tanto en nuestra tienda.\nAsí que... enhorabuena por consumir.\nGente como tú contribuye a aumentar\nel producto interior bruto.{{pageBreak}}Debo otorgarte otra {{color id=\"1\"}}chapa{{color id=\"65535\"}}, estrechar\ntu mano o tentáculo, hacerme fotos\ncontigo y cantarte una canción que\ncompuso para la ocasión...{{pageBreak}}Pero lo dejamos en la chapa, ¿vale?"
  },
  {
    "label": "Goods_BeforeReleaseABXY_00",
    "text": "Ah, buenas... Te doy la bienvenida\na Miscelánea Abisal.{{pageBreak}}Y... otra cosa más...{{pageBreak}}Chirpy Chips tiene dos temas nuevos.\nEsa era la cosa."
  },
  {
    "label": "Goods_AfterReleaseABXY_00",
    "text": "Ah... hola. Estás en Miscelánea\nAbisal.{{pageBreak}}Tenía por aquí un mensaje que darte.{{pageBreak}}Ah, sí. Aquí lo tengo... Te lo leo,\n¿vale?: «¡Qué pasa! ¡Chirpy Chips\nte trae un par de temas de aúpa!»{{pageBreak}}«El primero es uno que solíamos\ntocar en nuestros primeros bolos:\n\"Slopping Spree\". ¡Esperamos que\nos guste esta nueva versión!»{{pageBreak}}«Armonia, más vale que estés leyendo\nesto al pie de la letra, porque le he\nechado un buen rato.» Uy, a lo mejor\ntenía que saltarme esta parte...{{pageBreak}}«Asegúrate de contarle a la gente\nlo de tus tarareos, que es en lo que\nhemos basado este tema.»{{pageBreak}}«\"No Quarters\" es el segundo tema,\ny esperamos que la gente baile a tope\ncon él, porque ninguno de nosotros\nsabe bailar...»{{pageBreak}}Buf, qué cantidad de palabras.\nOrion se enrolla más que cuando\ntoca el bajo. Bueno, supongo que\nsolo me queda decirte que espero\nque te gusten los temas, ¿vale?"
  }
]