[
  {
    "label": "Coop_InGame_AppearTarget",
    "text": "Ajá, un {{color id=\"1\"}}gran salmónido{{color id=\"65535\"}}. No te dejes llevar por\nel pánico y procura liquidarlo cuanto antes."
  },
  {
    "label": "Coop_InGame_AppearBank",
    "text": "La nasa pesquera aguarda impaciente.\n¡Todo por la empresa!"
  },
  {
    "label": "Coop_InGame_DisappearBank",
    "text": "Venid con papá... ¡Y a seguir recolectando!"
  },
  {
    "label": "Coop_InGame_DisappearBank_Final",
    "text": "Bueno, pues ya están todos. Ahora súbete\nal helicóptero y vuelve."
  },
  {
    "label": "Coop_InGame_AppearBoss",
    "text": "Ahí viene un {{color id=\"1\"}}gran jefe salmónido{{color id=\"65535\"}}. Prepárate para hacer\nhoras extras. Coge este {{color id=\"1\"}}cañón alevínico{{color id=\"65535\"}} ¡y al tajo!"
  },
  {
    "label": "Coop_InGame_AppearBoss_Triple",
    "text": "¡¿Un trío de {{color id=\"1\"}}grandes jefes salmónidos{{color id=\"65535\"}}?! ¡Para\nestar a la altura, necesitarás usar {{color id=\"1\"}}2 cartuchos\nespeciales{{color id=\"65535\"}} y algún {{color id=\"1\"}}modelo particular de arma{{color id=\"65535\"}}!"
  },
  {
    "label": "Coop_InGame_DisappearBoss",
    "text": "¡Ni por un instante dudé que harías un gran trabajo!\nAhora vuelve al helicóptero, que la gasolina está cara."
  },
  {
    "label": "Coop_InGame_DisappearBoss_Triple",
    "text": "¡¿Qué?! ¿Que te los has ventilado a los tres?\nEsto tendré que apuntármelo para tu evaluación...\n¡Ve preparándote para subir al helicóptero!"
  },
  {
    "label": "Coop_InGame_EvtRally_Start",
    "text": "¿Un {{color id=\"1\"}}aerocriadero{{color id=\"65535\"}}? Bueno, no pierdas la calma. Todos\njuntos a por él y no habrá problema alguno... supongo."
  },
  {
    "label": "Coop_InGame_EvtRally_Start_WaterLow",
    "text": "Hay un {{color id=\"1\"}}aerocriadero{{color id=\"65535\"}} en la {{color id=\"1\"}}orilla{{color id=\"65535\"}}, pero que no cunda\nel pánico. Todo será cuestión de ir a por él juntos."
  },
  {
    "label": "Coop_InGame_EvtRally_Prepare",
    "text": "¡El {{color id=\"1\"}}aerocriadero{{color id=\"65535\"}} se aproxima a la nasa pesquera!"
  },
  {
    "label": "Coop_InGame_EvtRally_Attack",
    "text": "¡La {{color id=\"1\"}}nasa pesquera{{color id=\"65535\"}}! ¡No permitas que\nlos salmónidos le echen el guante!"
  },
  {
    "label": "Coop_InGame_EvtDozer_First",
    "text": "Un {{color id=\"1\"}}chaparrilla{{color id=\"65535\"}}... Debes dispararle a la parte trasera.\nPuede resultar algo indecoroso, pero es lo que hay."
  },
  {
    "label": "Coop_InGame_EvtDozer_Increment",
    "text": "Parece que hay dos chaparrillas más ahí fuera...\nSe nota que no les gustaba estar solos."
  },
  {
    "label": "Coop_InGame_EvtFog_Start",
    "text": "¿{{color id=\"1\"}}Niebla{{color id=\"65535\"}}? Esto no pinta nada bien... pero no pierdas\nel ánimo, que te necesito a tope de concentración."
  },
  {
    "label": "Coop_InGame_EvtFog_Start_WaterLow",
    "text": "Huelo un {{color id=\"1\"}}banco{{color id=\"65535\"}} de salmónidos en la {{color id=\"1\"}}orilla{{color id=\"65535\"}}.\n¡Dichosa {{color id=\"1\"}}niebla{{color id=\"65535\"}}!"
  },
  {
    "label": "Coop_InGame_EvtGeyser_Start",
    "text": "{{color id=\"1\"}}Surtidores{{color id=\"65535\"}}... ¡Hay un {{color id=\"1\"}}salmóreo{{color id=\"65535\"}} oculto por aquí!\n¡No os quedéis ahí mirando y buscadlo!"
  },
  {
    "label": "Coop_InGame_EvtGeyser_Appear",
    "text": "¡Ahí está el {{color id=\"1\"}}salmóreo{{color id=\"65535\"}}! Es nuestra oportunidad.\n¡Máxima concentración y a por él sin piedad!"
  },
  {
    "label": "Coop_InGame_EvtGeyser_Reset",
    "text": "Hmm... Parece que ese escurridizo {{color id=\"1\"}}salmóreo{{color id=\"65535\"}}\nse ha escondido. ¡Hay que encontrarlo!"
  },
  {
    "label": "Coop_InGame_EvtMissile_Start",
    "text": "Hay un {{color id=\"1\"}}banco de escamacarras{{color id=\"65535\"}} en la {{color id=\"1\"}}orilla{{color id=\"65535\"}}.\nUsa los cañones y haz lo que debes. ¡No me falles!"
  },
  {
    "label": "Coop_InGame_EvtRush_Start",
    "text": "{{color id=\"1\"}}Refulgectos{{color id=\"65535\"}}... Eso explica por qué los salmónidos están\ninquietos. Buena suerte si revolotean a tu alrededor."
  },
  {
    "label": "Coop_InGame_EvtRelay_Start",
    "text": "¡Un {{color id=\"1\"}}tornado gigante{{color id=\"65535\"}}! Los salmónidos que aspire caerán\ndonde {{color id=\"1\"}}el terreno se haya secado{{color id=\"65535\"}}. Ah, y parece que la\nnasa pesquera también está bloqueada junto al mar..."
  },
  {
    "label": "Coop_InGame_EvtRelay_BoxBreak",
    "text": "Como la nasa pesquera está lejos, contaré {{color id=\"1\"}}cada alevín\ncomo dos{{color id=\"65535\"}}. Ventajas de llevar mi propia contabilidad."
  },
  {
    "label": "Coop_InGame_EvtTamaire_Start",
    "text": "Hay un viejo dicho acerca de los {{color id=\"1\"}}morrolodos{{color id=\"65535\"}}... «Si ves\nuno salir de la tierra, lánzale una bomba a la boca».\nNo se puede ser más específico."
  },
  {
    "label": "Coop_InGame_EvtTamaire_Gold",
    "text": "Oye, ¡creo que he visto un {{color id=\"1\"}}morrolodo de oro{{color id=\"65535\"}}! Por cierto,\n¿qué es ese desfile de escamacarras? Qué raro."
  },
  {
    "label": "Coop_InGame_EvtNone_Start_WaterLow",
    "text": "Un {{color id=\"1\"}}banco de salmónidos{{color id=\"65535\"}} se reúne en la {{color id=\"1\"}}línea costera{{color id=\"65535\"}}.\n¡A por ellos!"
  },
  {
    "label": "Coop_InGame_Boss_Start_Giant_00",
    "text": "Eso de ahí es un {{color id=\"1\"}}salmonote{{color id=\"65535\"}}. No dejes que te aplaste...\nte va la vida en ello. Además de que te entintará."
  },
  {
    "label": "Coop_InGame_Boss_Start_Rope_00",
    "text": "¡Es un {{color id=\"1\"}}dragón{{color id=\"65535\"}}! Las bombas que lanza por la boca\nson temibles. ¡Ten mucho cuidado!"
  },
  {
    "label": "Coop_InGame_Boss_Start_Jaw_00",
    "text": "Es un {{color id=\"1\"}}megalodoncio{{color id=\"65535\"}}... Su voracidad no conoce límites,\n¡así que procura no acabar siendo su merienda!"
  },
  {
    "label": "Coop_InGame_Boss_Start_Triple_00",
    "text": "¿Sabes una cosa? Que no falte un {{color id=\"1\"}}cañón alevínico{{color id=\"65535\"}}.\nEspero que sepas sacarle partido y todos los cursillos\nteóricos de formación laboral hayan servido para algo."
  },
  {
    "label": "Coop_Tutorial_First_00",
    "text": "Esta primera clase práctica sirve de\nintroducción a los conceptos básicos."
  },
  {
    "label": "Coop_Tutorial_First_01",
    "text": "Los {{color id=\"1\"}}salmónidos{{color id=\"65535\"}} emergerán del agua."
  },
  {
    "label": "Coop_Tutorial_First_02",
    "text": "Tu cometido es entintarlos sin piedad.\nAl hacerlo, soltarán {{color id=\"1\"}}caviar rojo{{color id=\"65535\"}}."
  },
  {
    "label": "Coop_Tutorial_First_03",
    "text": "El deber de todo empleado es recolectar\ntanto {{color id=\"1\"}}caviar{{color id=\"65535\"}} como pueda para contribuir\na la competitividad de la empresa."
  },
  {
    "label": "Coop_Tutorial_ZakoAppear",
    "text": "¡Veamos dónde acechan esos {{color id=\"1\"}}salmónidos{{color id=\"65535\"}}!"
  },
  {
    "label": "Coop_Tutorial_ZakoDefeat",
    "text": "¿Te has fijado en las esferas rojizas? Sí, se trata\nde {{color id=\"1\"}}caviar rojo{{color id=\"65535\"}}. ¡Recoge tanto como puedas!"
  },
  {
    "label": "Coop_Tutorial_SquadAppear",
    "text": "Y recuerda: no bajes nunca la guardia;\nsiempre puede haber más {{color id=\"1\"}}salmónidos{{color id=\"65535\"}}."
  },
  {
    "label": "Coop_Tutorial_SquadDefeat",
    "text": "¡Buen trabajo! Tienes un gran porvenir como\nmánager, o para dar charlas motivacionales."
  },
  {
    "label": "Coop_Tutorial_RareAppear_00",
    "text": "Verás, lo más importante aquí son los {{color id=\"1\"}}alevines{{color id=\"65535\"}}\nde los {{color id=\"1\"}}grandes salmónidos{{color id=\"65535\"}}."
  },
  {
    "label": "Coop_Tutorial_RareAppear_01",
    "text": "Precisamente acaba de aparecer un {{color id=\"1\"}}gran salmónido{{color id=\"65535\"}}\nen escena. ¡Ve a por él!"
  },
  {
    "label": "Coop_Tutorial_Ikura_00",
    "text": "¡Bien! Has despojado al gran salmónido\nde sus {{color id=\"1\"}}alevines{{color id=\"65535\"}}. Tócalos para cogerlos."
  },
  {
    "label": "Coop_Tutorial_Ikura_01",
    "text": "Debes conseguir alevines hasta completar\nel {{color id=\"1\"}}cupo{{color id=\"65535\"}} establecido. ¡En esta empresa\nlos resultados son lo primordial!"
  },
  {
    "label": "Coop_Tutorial_Ikura_02",
    "text": "Venga, recoge uno de esos alevines antes de nada."
  },
  {
    "label": "Coop_Tutorial_Ikura_Already",
    "text": "Ahí va, si ya tenías uno encima...\n¡Así me gusta, proactividad!"
  },
  {
    "label": "Coop_Tutorial_Bank_01",
    "text": "Debes llevarlos siempre a la {{color id=\"1\"}}nasa pesquera{{color id=\"65535\"}}."
  },
  {
    "label": "Coop_Tutorial_Norma_00",
    "text": "Bien, ya tenemos uno. En esta ocasión,\nverás que el objetivo son tres."
  },
  {
    "label": "Coop_Tutorial_Norma_01",
    "text": "Vuelve al lugar donde están los otros y cógelos. ¿Eh?"
  },
  {
    "label": "Coop_Tutorial_Bagman_00",
    "text": "¡Ese maldito salmónido está robando los alevines!\nParece que ha llegado volando desde el océano."
  },
  {
    "label": "Coop_Tutorial_Bagman_01",
    "text": "Con todo, podrás recuperarlos si lo\nliquidas antes de que vuelva al agua."
  },
  {
    "label": "Coop_Tutorial_SecondIkura_Pick",
    "text": "Bien, consigamos algunos más."
  },
  {
    "label": "Coop_Tutorial_SecondIkura_ComeOn",
    "text": "¡Fíjate! Alguno de tus compañeros te\nestá llamando. Ve a ver qué quiere."
  },
  {
    "label": "Coop_Tutorial_SecondIkura_Picked",
    "text": "Para poder alcanzar el objetivo, es vital\ncomunicarse con los demás compañeros."
  },
  {
    "label": "Coop_Tutorial_SecondIkura_Help",
    "text": "¡Alguien más necesita ayuda! Échale una\nmano con un buen baño de tinta, venga."
  },
  {
    "label": "Coop_Tutorial_SecondIkura_HelpPost_00",
    "text": "Ayuda a los compañeros que lo necesiten.\nSi {{color id=\"1\"}}os liquidan a todos{{color id=\"65535\"}}, ¡os despediré!"
  },
  {
    "label": "Coop_Tutorial_SecondIkura_HelpPost_01",
    "text": "Pulsa {{icon id=\"14\" arg=\"0x295C4F3F00000000\"}} para {{color id=\"1\"}}llamar a tus compañeros{{color id=\"65535\"}}\no {{color id=\"1\"}}pedirles ayuda{{color id=\"65535\"}}."
  },
  {
    "label": "Coop_Tutorial_SecondIkura_Bank",
    "text": "Y ahora, ¡lleva ese alevín a la nasa!\n¡Nada de holgazanear!"
  },
  {
    "label": "Coop_Tutorial_Timer_00",
    "text": "¡Bravo! Solo queda recolectar uno más\npara alcanzar el cupo establecido."
  },
  {
    "label": "Coop_Tutorial_Timer_01",
    "text": "En este trabajo el tiempo es un elemento\nclave. Completa el cupo {{color id=\"1\"}}dentro del plazo{{color id=\"65535\"}}."
  },
  {
    "label": "Coop_Tutorial_ThirdIkura_Pick",
    "text": "Vayamos a por el último, y luego podrás\ntomarte un descanso."
  },
  {
    "label": "Coop_Tutorial_Ikura_Throw_00",
    "text": "Si te encuentras lejos de la nasa pesquera, recorrer\nese largo trecho cargando alevines te va a llevar\nsu tiempo."
  },
  {
    "label": "Coop_Tutorial_Ikura_Throw_01",
    "text": "También puedes consumir un poco de tinta y pulsar {{icon id=\"0\" arg=\"0x0000803F00000000\"}}\npara {{color id=\"1\"}}lanzar tu alevín dorado{{color id=\"65535\"}}. Qué práctico, ¿verdad?"
  },
  {
    "label": "Coop_Tutorial_Ikura_Throw_02",
    "text": "Eso sí, puedes acabar con poca tinta, así que piensa\nbien cuándo te conviene emplear este recurso."
  },
  {
    "label": "Coop_Tutorial_ThirdIkura_Bank",
    "text": "Y ahora, ¡ese alevín dorado a la nasa pesquera!\nRecuerda que puedas lanzarlos con {{icon id=\"0\" arg=\"0x0000803F00000000\"}}."
  },
  {
    "label": "Coop_Tutorial_NormaClear_00",
    "text": "Tres alevines. Y con eso queda completado el cupo."
  },
  {
    "label": "Coop_Tutorial_NormaClear_01",
    "text": "Procura que no te liquiden antes de que\nacabe el tiempo. ¡Sigue recolectando\ny demuestra tu dedicación a la empresa!"
  },
  {
    "label": "Coop_Tutorial_Special",
    "text": "Ah, el presupuesto nos daba para dos\n{{color id=\"1\"}}cartuchos especiales{{color id=\"65535\"}} que te vendrán\nde perlas. ¡Utilízalos con cabeza!"
  },
  {
    "label": "Coop_Tutorial_WaveClear_00",
    "text": "Con eso deberían quedar claros\nlos conceptos básicos."
  },
  {
    "label": "Coop_Tutorial_Failed_00",
    "text": "Se ha acabado el tiempo y no has logrado\ncompletar el cupo."
  },
  {
    "label": "Coop_Tutorial_Failed_01",
    "text": "Como no espabiles, te veo en la cola del paro..."
  },
  {
    "label": "Coop_Tutorial_Failed_02",
    "text": "Esta vez te echaré una mano.\n¡Pero no te acostumbres!"
  },
  {
    "label": "Coop_Tutorial_Rescue_00",
    "text": "Si te liquida algún salmónido o si caes\nal agua, se te proporcionará un {{color id=\"1\"}}salvavidas{{color id=\"65535\"}}."
  },
  {
    "label": "Coop_Tutorial_Rescue_01",
    "text": "Tus compañeros pueden entintarte\npara devolverte a tu estado original."
  },
  {
    "label": "Coop_Tutorial_Rescue_02",
    "text": "Esta vez te rescataré... ¡pero tendré\nque descontártelo del sueldo!"
  },
  {
    "label": "Coop_Tutorial_Targets_00",
    "text": "En esta segunda clase práctica veremos\ncómo aumentar la productividad."
  },
  {
    "label": "Coop_Tutorial_Targets_01",
    "text": "Hay muchos tipos de {{color id=\"1\"}}gran salmónido{{color id=\"65535\"}}. Se distribuyen en\n{{color id=\"1\"}}once subespecies{{color id=\"65535\"}}, para ser más exactos."
  },
  {
    "label": "Coop_Tutorial_Targets_02",
    "text": "Si quieres, puedo atraer un gran salmónido. Solo tienes\nque decirme con cuál quieres practicar."
  },
  {
    "label": "Coop_Tutorial_Targets_03",
    "text": "Bueno, ¿qué tipo de salmónido quieres que atraiga?"
  },
  {
    "label": "Coop_Tutorial_Enemy_PickIkura",
    "text": "Venga, recoge un alevín."
  },
  {
    "label": "Coop_Tutorial_Enemy_BankIkura",
    "text": "Ahora ya sabes qué toca: llévalo\na la nasa pesquera."
  },
  {
    "label": "Coop_Tutorial_DeadSkip_00",
    "text": "Veo que te está costando... Será mejor\nsaltarse esta ronda."
  },
  {
    "label": "Coop_Tutorial_Bomber_00",
    "text": "Gran salmónido: {{color id=\"1\"}}ferroz{{color id=\"65535\"}}"
  },
  {
    "label": "Coop_Tutorial_Bomber_01",
    "text": "Estos mentecatos lanzan {{color id=\"1\"}}bombas{{color id=\"65535\"}} gigantes.\nGracias a su coraza, esquivan la tinta."
  },
  {
    "label": "Coop_Tutorial_Bomber_02",
    "text": "Debes {{color id=\"1\"}}disparar a la bomba que les sale\nde la cabeza{{color id=\"65535\"}} conforme aumente de tamaño.\nSi la haces explotar, los liquidarás."
  },
  {
    "label": "Coop_Tutorial_Cup_00",
    "text": "Gran salmónido: {{color id=\"1\"}}drónido{{color id=\"65535\"}}"
  },
  {
    "label": "Coop_Tutorial_Cup_01",
    "text": "Estos salmónidos se desplazan por el aire y lanzan\n{{color id=\"1\"}}salvas de misiles{{color id=\"65535\"}} muy peligrosas. No pueden ser más\nfastidiosos..."
  },
  {
    "label": "Coop_Tutorial_Cup_02",
    "text": "Para acabar con ellos, debes {{color id=\"1\"}}lanzar una bomba{{color id=\"65535\"}}\nen alguno de sus compartimentos para misiles."
  },
  {
    "label": "Coop_Tutorial_Snake_00",
    "text": "Gran salmónido: {{color id=\"1\"}}raspoide{{color id=\"65535\"}}"
  },
  {
    "label": "Coop_Tutorial_Snake_01",
    "text": "En este caso te hallas ante un artefacto en\nforma de serpiente que pilota un salmónido.\nComo te atrape, la llevas clara."
  },
  {
    "label": "Coop_Tutorial_Snake_02",
    "text": "El conductor se encuentra en la cola de la máquina.\nRodéalo hasta tenerlo a tiro, ¡y luego dale tinta!"
  },
  {
    "label": "Coop_Tutorial_Tower_00",
    "text": "Gran salmónido: {{color id=\"1\"}}pilónido{{color id=\"65535\"}}"
  },
  {
    "label": "Coop_Tutorial_Tower_01",
    "text": "Estos impresentables se parapetan tras\nuna torre de chatarra y lanzan grandes\nchorros de tinta desde la orilla."
  },
  {
    "label": "Coop_Tutorial_Tower_02",
    "text": "Ve destruyendo las {{color id=\"1\"}}ollas apiladas{{color id=\"65535\"}} hasta que\nlos dejes sin protección. En cuanto queden\nal descubierto, estarán acabados."
  },
  {
    "label": "Coop_Tutorial_Diver_00",
    "text": "Gran salmónido: {{color id=\"1\"}}fáucex{{color id=\"65535\"}}"
  },
  {
    "label": "Coop_Tutorial_Diver_01",
    "text": "Estos salmónidos se ocultan bajo la tinta\npara seguir a su presa. Cuando la tienen\nal alcance, emergen sin previo aviso."
  },
  {
    "label": "Coop_Tutorial_Diver_02",
    "text": "Si {{color id=\"1\"}}colocas una bomba{{color id=\"65535\"}} en el punto en el que\nvayan a emerger, se la zamparán creyendo\nque es un calamar."
  },
  {
    "label": "Coop_Tutorial_Shield_00",
    "text": "Gran salmónido: {{color id=\"1\"}}chatarrónido{{color id=\"65535\"}}"
  },
  {
    "label": "Coop_Tutorial_Shield_01",
    "text": "Estos mequetrefes se protegen con {{color id=\"1\"}}escudos{{color id=\"65535\"}}\nde utensilios de cocina, por lo que los ataques\ndirectos sirven de poco."
  },
  {
    "label": "Coop_Tutorial_Shield_02",
    "text": "El truco es lanzar tinta de forma constante\nhasta que se amilanen. Una vez conseguido,\nbasta con rodearlos y atacar por la espalda."
  },
  {
    "label": "Coop_Tutorial_Rocket_00",
    "text": "Gran salmónido: {{color id=\"1\"}}barreno{{color id=\"65535\"}}"
  },
  {
    "label": "Coop_Tutorial_Rocket_01",
    "text": "Estos tunantes disparan proyectiles que\ngeneran una lluvia de tinta. Cuando están\ncubiertos por la sombrilla, son inmunes."
  },
  {
    "label": "Coop_Tutorial_Rocket_02",
    "text": "Con todo, asoman un ojo de vez en cuando,\nasí que aprovecha la ocasión. O, si no,\n{{color id=\"1\"}}devuélveles los proyectiles{{color id=\"65535\"}}. ¡Juega sucio!"
  },
  {
    "label": "Coop_Tutorial_Pillar_00",
    "text": "Gran salmónido: {{color id=\"1\"}}viga{{color id=\"65535\"}}"
  },
  {
    "label": "Coop_Tutorial_Pillar_01",
    "text": "Unos salmónidos enloquecidos plantan un {{color id=\"1\"}}pilar{{color id=\"65535\"}} en\nel suelo a la vez que giran en torno a la cúspide\nrociando tinta."
  },
  {
    "label": "Coop_Tutorial_Pillar_02",
    "text": "Sube hasta ahí arriba y liquídalos a todos. {{color id=\"1\"}}El pilar se\nquedará donde está{{color id=\"65535\"}}, así que aprovéchalo."
  },
  {
    "label": "Coop_Tutorial_Dolphin_00",
    "text": "Gran salmónido: {{color id=\"1\"}}chapotero{{color id=\"65535\"}}"
  },
  {
    "label": "Coop_Tutorial_Dolphin_01",
    "text": "Este lanza un anillo de tinta y luego {{color id=\"1\"}}se zambulle{{color id=\"65535\"}} dentro\nde él. Procura no caer en el anillo o... Mejor no\naverigües lo que ocurrirá."
  },
  {
    "label": "Coop_Tutorial_Dolphin_02",
    "text": "Si cubres el anillo con tu tinta antes de que pueda\nsaltar dentro, lo dejarás indefenso. ¡Y ese será\nel momento de liquidarlo!"
  },
  {
    "label": "Coop_Tutorial_Saucer_00",
    "text": "Gran salmónido: {{color id=\"1\"}}tapaollas{{color id=\"65535\"}}"
  },
  {
    "label": "Coop_Tutorial_Saucer_01",
    "text": "Estos vuelan en una máquina que forma {{color id=\"1\"}}barreras{{color id=\"65535\"}}.\nSi caminas debajo de ellos, ¡intentarán aplastarte!"
  },
  {
    "label": "Coop_Tutorial_Saucer_02",
    "text": "Peeero... si consigues esquivar el golpe, ¡podrás\nsubirte a la máquina y eliminar al piloto!"
  },
  {
    "label": "Coop_Tutorial_Artillery_00",
    "text": "Gran salmónido: {{color id=\"1\"}}artilleroide{{color id=\"65535\"}}"
  },
  {
    "label": "Coop_Tutorial_Artillery_01",
    "text": "Este astuto cañonero prepara un {{color id=\"1\"}}lanzador {{color id=\"65535\"}}en la orilla\npara disparar balas que trae del mar. Puedes {{color id=\"1\"}}saltar{{color id=\"65535\"}}\nsobre las ondas que producen."
  },
  {
    "label": "Coop_Tutorial_Artillery_02",
    "text": "Si llevas un alevín y estás cerca de un {{color id=\"1\"}}lanzador{{color id=\"65535\"}} de\nartilleroide, prueba a pulsar {{icon id=\"0\" arg=\"0x0000803F00000000\"}} para dispararlo hacia\nla nasa pesquera."
  },
  {
    "label": "Coop_Tutorial_WaveClear_01",
    "text": "Bien hecho. Con esto concluye el curso."
  },
  {
    "label": "Coop_Tutorial_WaveClear_Nobody",
    "text": "Ah, ¿que quieres terminar ya el entrenamiento?\nBueno, entonces lo damos por concluido.\n¡Me gusta tu entusiasmo!"
  },
  {
    "label": "Coop_Result_C1_Success_00",
    "text": "El contador de alevines marca... ¿{{number index=\"0\" type=\"1\" arg3=\"0\" arg4=\"0\"}}?\nParece que tienes dotes para esto, sí."
  },
  {
    "label": "Coop_Result_C1_Success_Boss_00",
    "text": "Has manejado muy bien esa difícil situación con el gran\njefe salmónido. Es lo que digo siempre: {{color id=\"1\"}}confía en el mar{{color id=\"65535\"}}\ny todo irá bien. ¡No te quepa duda!"
  },
  {
    "label": "Coop_Result_C1_Success_Many_00",
    "text": "¡Cuántos alevines! Qué generoso es el mar... ¡{{color id=\"1\"}}y qué\nbien le caes{{color id=\"65535\"}}! Lo tendré en cuenta para tu próxima\nevaluación."
  },
  {
    "label": "Coop_Result_C1_Success_Master_00",
    "text": "Cuánto colorido... ¡se nota tu {{color id=\"1\"}}gran profesionalidad{{color id=\"65535\"}}!\n¡Y tu {{color id=\"1\"}}amor por el mar{{color id=\"65535\"}}!"
  },
  {
    "label": "Coop_Result_C1_Success_Legend_00",
    "text": "Si pasas suficiente tiempo en el mar, {{color id=\"1\"}}se convertirá en\ntu hogar{{color id=\"65535\"}}. ¡Además, eso ayuda mucho para llegar a ser\n{{color id=\"1\"}}director{{color id=\"65535\"}}!"
  },
  {
    "label": "Coop_Result_C1_Success_Legend_Boss_00",
    "text": "¡Hala, has podido con un gran jefe salmónido! Nunca\npensé que diría esto, pero... ¡eres más {{color id=\"1\"}}imponente{{color id=\"65535\"}}\nque el mar!"
  },
  {
    "label": "Coop_Result_C1_Success_Legend_Many_00",
    "text": "Impresionante. No tengo nada más que decir. Bueno,\nsí, ¡que {{color id=\"1\"}}el mar tiene una nueva leyenda{{color id=\"65535\"}} para las\nfuturas generaciones!"
  },
  {
    "label": "Coop_Result_C1_Success_DifficultyMax_00",
    "text": "¿Has completado el encargo con un {{color id=\"1\"}}nivel de riesgo\ndel 333 %{{color id=\"65535\"}}? Mejor deja el mar y busca en el {{color id=\"1\"}}universo{{color id=\"65535\"}}..."
  },
  {
    "label": "Coop_Result_C1_Success_Boss_Triple_00",
    "text": "Despachar a {{color id=\"1\"}}3 grandes jefes salmónidos{{color id=\"65535\"}} no está\nal alcance de cualquiera. ¡Sois los cefalópodos\ncon más agallas que conozco!"
  },
  {
    "label": "Coop_Result_C1_Success_Boss_Triple_DifficultyMax_00",
    "text": "¡Ni siquiera una {{color id=\"1\"}}trialianza{{color id=\"65535\"}} con un {{color id=\"1\"}}333 % de nivel\nde riesgo{{color id=\"65535\"}} puede con vosotros! No sé si vuestra\nforma de trabajar me produce admiración... o miedo."
  },
  {
    "label": "Coop_Result_C1_Failure_AllDead_00",
    "text": "¡Adiós empleados! Pero bueno, espero que lo cubra\nel seguro. A ver cuántos alevines tenemos... ¿{{number index=\"0\" type=\"1\" arg3=\"0\" arg4=\"0\"}}?\nPuede valer."
  },
  {
    "label": "Coop_Result_C1_Failure_TimeUp_00",
    "text": "¡Tiempo! La legislación laboral establece que ya\nno puedes trabajar más horas. A ver esos alevines...\n¿{{number index=\"0\" type=\"1\" arg3=\"0\" arg4=\"0\"}}? Es suficiente."
  },
  {
    "label": "Coop_Result_C1_Failure_Boss_AllDead_00",
    "text": "Eso tiene que haber sido terrorífico... De todos modos,\nlas pesadillas que tengas luego no cuentan como\naccidente laboral."
  },
  {
    "label": "Coop_Result_C1_Failure_Boss_TimeUp_00",
    "text": "No contaba con un gran jefe salmónido... Gracias\na todos por haber seguido hasta el final."
  },
  {
    "label": "Coop_Result_C1_Failure_GoldenIkura0_00",
    "text": "¿No has podido pillar ni un solo alevín?\nQué barbaridad... Tendría que haberte hecho\nempollar el manual de principio a fin."
  },
  {
    "label": "Coop_Result_C2_Success_00",
    "text": "¡Ese es el rendimiento que espero de mis empleados!\nTienes porvenir en la empresa, joven. Tomo nota para\nfuturas evaluaciones."
  },
  {
    "label": "Coop_Result_C2_Success_RareWeapon_00",
    "text": "¿Qué me dices de esa bonita arma que has usado?\nEs uno de mis modelos especiales. ¿Te gusta?"
  },
  {
    "label": "Coop_Result_C2_Failure_WaterLow_00",
    "text": "La marea baja deja más espacio para moverse, pero\nes más fácil quedarse aislado y que los salmónidos\nte rodeen en un pispás. ¡No te separes del grupo!"
  },
  {
    "label": "Coop_Result_C2_Failure_WaterHigh_00",
    "text": "Con la marea alta, aparecerán salmónidos por doquier.\nEs fundamental que tú y tus compañeros os ayudéis\nmutuamente."
  },
  {
    "label": "Coop_Result_C2_Failure_00",
    "text": "Los salmónidos no pueden subir por las paredes.\nSi las entintas, tendrás una vía de escape en caso\nde que se compliquen las cosas."
  },
  {
    "label": "Coop_Result_C2_Failure_01",
    "text": "Los salmónidos suelen agruparse y atacar en masa\ndesde una misma dirección. ¡Lo malo es que no siempre\nes la misma!"
  },
  {
    "label": "Coop_Result_C2_Failure_02",
    "text": "Si estás lejos de la nasa pesquera, puedes lanzar tu\nalevín dorado con {{icon id=\"0\" arg=\"0x0000803F00000000\"}}. Con suerte, alguien de tu\nequipo que esté cerca podrá depositarlo por ti."
  },
  {
    "label": "Coop_Result_C2_Failure_03",
    "text": "Si intentas camuflarte en tu propia tinta, ten por\nseguro que los salmónidos te encontrarán. No veas\nel sentido del olfato que tienen..."
  },
  {
    "label": "Coop_Result_C2_Failure_04",
    "text": "Lanzar un alevín dorado consume tinta. Piénsatelo bien\nsi los salmónidos te han rodeado."
  },
  {
    "label": "Coop_Result_C2_Failure_05",
    "text": "Cuando un rastrerón esté cerca de la nasa pesquera,\naprovecha para sacar ventaja de la situación."
  },
  {
    "label": "Coop_Result_C2_Failure_06",
    "text": "Para cada tipo de salmónido hay armas más idóneas que\notras. Intenta recordar cuáles a la hora de seleccionar\nun objetivo. ¡Eficiencia ante todo!"
  },
  {
    "label": "Coop_Result_C2_Failure_07",
    "text": "Al organizar tus tareas, dales siempre prioridad a los\ngrandes salmónidos y, si hay muchos, procura empezar\npor los más grandes."
  },
  {
    "label": "Coop_Result_C2_Failure_SakelienBomber_00",
    "text": "Si no quieres que te entinten, no te enfrentes a un\nferroz con un arma de corto alcance. Mejor usa alguna\nde largo alcance, como un cargatintas."
  },
  {
    "label": "Coop_Result_C2_Failure_SakelienCupTwins_00",
    "text": "Cuando quieras lanzar bombas a un drónido, mantén la\ncalma y busca un sitio seguro y con buena visibilidad."
  },
  {
    "label": "Coop_Result_C2_Failure_SakelienSnake_00",
    "text": "Los raspoides nunca renuncian a su presa. Procura\nque te sigan a un lugar que te resulte ventajoso o\nrecurre al trabajo en equipo para liquidarlos."
  },
  {
    "label": "Coop_Result_C2_Failure_SakelienTower_00",
    "text": "Muévete de lado a lado para esquivar los ataques de los\npilónidos. Si ves a alguno atacando a un compañero,\n¡corre a ayudarlo!"
  },
  {
    "label": "Coop_Result_C2_Failure_Sakediver_00",
    "text": "Si consigues que un fáucex se trague una bomba,\nlo liquidarás en un periquete. Procura tener suficiente\ntinta para lanzar una en cualquier momento."
  },
  {
    "label": "Coop_Result_C2_Failure_SakelienShield_00",
    "text": "Los chatarrónidos se paran cuando les disparas, así\nque más te vale tener en cuenta su posición y hacia\ndónde están mirando."
  },
  {
    "label": "Coop_Result_C2_Failure_Sakerocket_00",
    "text": "Si disparas a los torpedos que lanzan los barrenos,\nse los enviarás de vuelta. Es un método expeditivo\nde deshacerte de ellos."
  },
  {
    "label": "Coop_Result_C2_Failure_SakePillar_00",
    "text": "En cuanto veas una viga, intenta entintar todos sus\ncostados. Saltar desde la tinta te permitirá alcanzar\nla cúspide con rapidez."
  },
  {
    "label": "Coop_Result_C2_Failure_SakeDolphin_00",
    "text": "A los chapoteros se los puede vencer fácilmente\ncubriendo de tinta sus anillos. Si tienes las reservas\nbajas, retírate y vuelve a intentarlo más tarde."
  },
  {
    "label": "Coop_Result_C2_Failure_SakeSaucer_00",
    "text": "Si consigues que un tapaollas caiga, luego podrás\nsubirte en él. Y si, además, haces que aplaste a un\npar de salmónidos, ¡mejor!"
  },
  {
    "label": "Coop_Result_C2_Failure_SakeArtillery_00",
    "text": "Sabiduría ancestral: «Pon un alevín en un lanzador de\nartilleroide y podrás dispararlo a la nasa pesquera.»"
  },
  {
    "label": "Coop_Result_C2_Failure_Rush_00",
    "text": "Si los refulgectos empiezan a rodearte, extrema las\nprecauciones. ¡Son un imán para atraer salmónidos!"
  },
  {
    "label": "Coop_Result_C2_Failure_Geyser_00",
    "text": "Cuando estéis buscando salmóreos, recurrid a la\ndivisión del trabajo. Buscad en los surtidores que\nmás brillan."
  },
  {
    "label": "Coop_Result_C2_Failure_Dozer_00",
    "text": "Si un chaparrilla te tiene en su punto de mira... ¡corre!\nSon unos canallas muy difíciles de vencer sin ayuda."
  },
  {
    "label": "Coop_Result_C2_Failure_Rally_00",
    "text": "Si se aproxima un aerocriadero, ¡toca reunirse en\nla nasa pesquera y protegerla del robo de alevines!"
  },
  {
    "label": "Coop_Result_C2_Failure_Fog_00",
    "text": "Cuando aparece la niebla, es fundamental comunicarte\ncon tus compañeros. Usa {{icon id=\"14\" arg=\"0x295C4F3F00000000\"}} para llamarlos."
  },
  {
    "label": "Coop_Result_C2_Failure_Missile_00",
    "text": "Podéis usar los cañones para mantener a raya a\nlos escamacarras. ¡Y no olvidéis seguir recogiendo\nalevines dorados!"
  },
  {
    "label": "Coop_Result_C2_Failure_Tamaire_00",
    "text": "Para vencer a un morrolodo hace falta trabajo de\nequipo. Y bombas."
  },
  {
    "label": "Coop_Result_C2_Failure_Relay_00",
    "text": "Llevar alevines a la nasa pesquera es responsabilidad\nde todos. Transportar, pasar, depositar... ¡Por algo se\ninventó la distribución del trabajo!"
  },
  {
    "label": "Coop_Result_C2_Failure_Boss_00",
    "text": "¡Al menos has conseguido un montón de alevines! Qué\nganas tengo de ver cuántos atrapas la próxima vez."
  },
  {
    "label": "Coop_InGame_AppearBank_BigRun",
    "text": "La nasa pesquera está preparada. ¡Toca dar el callo\npara defender la ciudad!"
  },
  {
    "label": "Coop_InGame_AppearTarget_BigRun",
    "text": "Nuestros cálculos dicen que los salmónidos están...\n¡por todos lados! Mantened la concentración y la calma\nen todo momento. ¡No dejéis que os hagan sudar tinta!"
  },
  {
    "label": "Coop_InGame_DisappearBank_BigRun",
    "text": "¡Ese es el espíritu! Estamos consiguiendo remontar.\n¡Que no dejen de llegar los alevines dorados!"
  },
  {
    "label": "Coop_InGame_DisappearBank_Final_BigRun",
    "text": "¡Así se hace! Les hemos demostrado a esos salmónidos\nque con nosotros no se bromea."
  },
  {
    "label": "Coop_Result_C1_Success_00_BigRun",
    "text": "Gracias a vuestro esfuerzo, la ciudad vuelve a estar a\nsalvo. Y, para mayor beneficio, hemos recolectado una\ncantidad nada desdeñable de alevines dorados: {{number index=\"0\" type=\"1\" arg3=\"0\" arg4=\"0\"}}."
  },
  {
    "label": "Coop_Result_C1_Failure_AllDead_00_BigRun",
    "text": "¡Empleados a la porra! Bueno, no es nada que no tenga\nsolución. A ver cuántos alevines han caído, que es lo\nimportante... ¿{{number index=\"0\" type=\"1\" arg3=\"0\" arg4=\"0\"}}? No está mal."
  },
  {
    "label": "Coop_Result_C1_Failure_TimeUp_00_BigRun",
    "text": "¡Hora de fichar salida! Os dejaría continuar más tiempo,\npero cumplamos la normativa laboral. ¿Cuántos alevines\ndorados han sido? ¡{{number index=\"0\" type=\"1\" arg3=\"0\" arg4=\"0\"}}!"
  }
]