[
  {
    "label": "Msg_ConnectOnline",
    "text": "인터넷에 접속하고 있습니다…"
  },
  {
    "label": "Msg_NetworkReady_Local",
    "text": "로컬 통신을 준비하고 있습니다…"
  },
  {
    "label": "Msg_NetworkReady_Lan",
    "text": "LAN 통신을 준비하고 있습니다…"
  },
  {
    "label": "Msg_Match_Fix",
    "text": "배틀을 시작합니다!"
  },
  {
    "label": "Msg_Match_Fix_Coop",
    "text": "아르바이트를 할 시간입니다!"
  },
  {
    "label": "Msg_Match_Fix_CoopLocal",
    "text": "게임을 시작합니다!"
  },
  {
    "label": "Msg_StartSoloConfirm_Regular",
    "text": "레귤러 매치에 참가하겠습니까?\n(8명이 모이면 배틀이 시작됩니다)"
  },
  {
    "label": "BtnL_StartSoloConfirm_Regular",
    "text": "그만두기"
  },
  {
    "label": "BtnR_StartSoloConfirm_Regular",
    "text": "참가하기"
  },
  {
    "label": "Msg_StartSoloConfirm_BankaraOpen",
    "text": "카오폴리스 매치에 참가하겠습니까?\n(8명이 모이면 배틀이 시작됩니다)"
  },
  {
    "label": "BtnL_StartSoloConfirm_BankaraOpen",
    "text": "그만두기"
  },
  {
    "label": "BtnR_StartSoloConfirm_BankaraOpen",
    "text": "참가하기"
  },
  {
    "label": "Msg_StartSoloConfirm_XMatch",
    "text": "X 매치에 도전하겠습니까?\n(8명이 모이면 배틀이 시작됩니다)"
  },
  {
    "label": "BtnL_StartSoloConfirm_XMatch",
    "text": "그만두기"
  },
  {
    "label": "BtnR_StartSoloConfirm_XMatch",
    "text": "도전하기"
  },
  {
    "label": "Msg_StartSoloConfirm_FestRegular",
    "text": "페스티벌 매치에 참가하겠습니까?\n(8명이 모이면 배틀이 시작됩니다)"
  },
  {
    "label": "BtnL_StartSoloConfirm_FestRegular",
    "text": "그만두기"
  },
  {
    "label": "BtnR_StartSoloConfirm_FestRegular",
    "text": "참가하기"
  },
  {
    "label": "Msg_StartSoloConfirm_FestChallenge",
    "text": "페스티벌 매치에 참가하겠습니까?\n(8명이 모이면 배틀이 시작됩니다)"
  },
  {
    "label": "BtnL_StartSoloConfirm_FestChallenge",
    "text": "그만두기"
  },
  {
    "label": "BtnR_StartSoloConfirm_FestChallenge",
    "text": "참가하기"
  },
  {
    "label": "Msg_StartSoloConfirm_FestTriColor",
    "text": "트리컬러 매치에 참가하겠습니까?\n(8명이 모이면 배틀이 시작됩니다)"
  },
  {
    "label": "BtnL_StartSoloConfirm_FestTriColor",
    "text": "그만두기"
  },
  {
    "label": "BtnR_StartSoloConfirm_FestTriColor",
    "text": "참가하기"
  },
  {
    "label": "Msg_StartSoloContinueConfirm_Bankara",
    "text": "지난번 도전에서 중단한 곳부터 다시 시작합니다\n(현재 {{number index=\"0\" type=\"1\" arg3=\"0\" arg4=\"0\"}}승 {{number index=\"1\" type=\"1\" arg3=\"0\" arg4=\"0\"}}패)"
  },
  {
    "label": "BtnL_StartSoloContinueConfirm_Bankara",
    "text": "그만두기"
  },
  {
    "label": "BtnR_StartSoloContinueConfirm_Bankara",
    "text": "다시 시작하기"
  },
  {
    "label": "Msg_StartSoloContinueConfirm_XMatch",
    "text": "지난번 도전에서 중단한 곳부터 다시 시작합니다\n(현재 {{number index=\"0\" type=\"1\" arg3=\"0\" arg4=\"0\"}}승 {{number index=\"1\" type=\"1\" arg3=\"0\" arg4=\"0\"}}패)"
  },
  {
    "label": "BtnL_StartSoloContinueConfirm_XMatch",
    "text": "그만두기"
  },
  {
    "label": "BtnR_StartSoloContinueConfirm_XMatch",
    "text": "다시 시작하기"
  },
  {
    "label": "Msg_StartSoloConfirm_League",
    "text": "이벤트 매치에 참가하겠습니까?\n(인원수가 모이면 배틀이 시작됩니다)"
  },
  {
    "label": "BtnL_StartSoloConfirm_League",
    "text": "그만두기"
  },
  {
    "label": "BtnR_StartSoloConfirm_League",
    "text": "참가하기"
  },
  {
    "label": "Msg_StartSoloConfirm_Coop",
    "text": "아르바이트에 참가하겠습니까?"
  },
  {
    "label": "BtnL_StartSoloConfirm_Coop",
    "text": "그만두기"
  },
  {
    "label": "BtnR_StartSoloConfirm_Coop",
    "text": "참가하기"
  },
  {
    "label": "Msg_StartSoloConfirm_CoopBigRun",
    "text": "빅 런 아르바이트에 참가하겠습니까?"
  },
  {
    "label": "BtnL_StartSoloConfirm_CoopBigRun",
    "text": "그만두기"
  },
  {
    "label": "BtnR_StartSoloConfirm_CoopBigRun",
    "text": "참가하기"
  },
  {
    "label": "Msg_StartSoloConfirm_CoopTeamContest",
    "text": "아르바이트 팀 콘테스트에 참가하겠습니까?"
  },
  {
    "label": "BtnL_StartSoloConfirm_CoopTeamContest",
    "text": "그만두기"
  },
  {
    "label": "BtnR_StartSoloConfirm_CoopTeamContest",
    "text": "참가하기"
  },
  {
    "label": "Msg_QuitConfirm",
    "text": "방에서 나가겠습니까?"
  },
  {
    "label": "BtnL_QuitConfirm",
    "text": "그만두기"
  },
  {
    "label": "BtnR_QuitConfirm",
    "text": "나가기"
  },
  {
    "label": "Msg_QuitConfirm_RemoteRoomMaster",
    "text": "방에서 나가겠습니까?\n\n방은 해산되지 않습니다\n다시 합류하면 프라이빗 매치를 시작할 수 있습니다"
  },
  {
    "label": "BtnL_QuitConfirm_RemoteRoomMaster",
    "text": "그만두기"
  },
  {
    "label": "BtnR_QuitConfirm_RemoteRoomMaster",
    "text": "나가기"
  },
  {
    "label": "Msg_QuitConfirm_Hammer",
    "text": "대회 서포트 방에서 나가겠습니까?"
  },
  {
    "label": "BtnL_QuitConfirm_Hammer",
    "text": "그만두기"
  },
  {
    "label": "BtnR_QuitConfirm_Hammer",
    "text": "나가기"
  },
  {
    "label": "Msg_DeactivateConfirm",
    "text": "방을 해산하겠습니까?\n(참가 중인 플레이어 전원이 방에서 나가게 됩니다)"
  },
  {
    "label": "BtnL_DeactivateConfirm",
    "text": "그만두기"
  },
  {
    "label": "BtnR_DeactivateConfirm",
    "text": "해산하기"
  },
  {
    "label": "Msg_MemberShortage",
    "text": "필요한 인원수가 채워지지 않았습니다\n인원수가 채워질 때까지 기다려 주십시오"
  },
  {
    "label": "Msg_NotAllReady",
    "text": "전원의 준비가 끝날 때까지 기다려 주십시오"
  },
  {
    "label": "Msg_NotJoinableFriend",
    "text": "이 플레이어에게는 합류할 수 없습니다"
  },
  {
    "label": "Msg_FullParticipantFriend",
    "text": "만원이므로 합류할 수 없습니다"
  },
  {
    "label": "Msg_AnotherFest",
    "text": "다른 지역에서 개최되고 있는 페스티벌에는\n참가할 수 없습니다"
  },
  {
    "label": "Msg_AnotherTeam",
    "text": "이 플레이어와는 소속 팀이 다르므로\n참가할 수 없습니다"
  },
  {
    "label": "Msg_LockerSaveWait",
    "text": "저장하고 있습니다…"
  },
  {
    "label": "Msg_LockerResetConfirm",
    "text": "로커 내용물과 도어에 붙인 스티커를\n전부 치우겠습니까?"
  },
  {
    "label": "BtnL_LockerResetConfirm",
    "text": "그만두기"
  },
  {
    "label": "BtnR_LockerResetConfirm",
    "text": "전부 치우기"
  },
  {
    "label": "Msg_LockerMatchmakeEdit",
    "text": "매칭 중이므로 편집할 수 없습니다"
  },
  {
    "label": "Msg_NotJoinableWhileMatching",
    "text": "매칭 중이므로 참가할 수 없습니다"
  },
  {
    "label": "Msg_NotDownloadableWhileMatching",
    "text": "매칭 중이므로 다운로드할 수 없습니다"
  },
  {
    "label": "Msg_FestRegion_Notice",
    "text": "페스티벌 지역을 변경하겠습니까?\n※이 설정은 페스티벌에 참가하면\n잠시 동안 변경할 수 없게 됩니다"
  },
  {
    "label": "BtnL_FestRegion_Notice",
    "text": "그만두기"
  },
  {
    "label": "BtnR_FestRegion_Notice",
    "text": "변경하기"
  },
  {
    "label": "Msg_Processing_MakeRoom",
    "text": "방을 만들고 있습니다…"
  },
  {
    "label": "Msg_Processing_Join",
    "text": "합류하고 있습니다…"
  },
  {
    "label": "Msg_Processing_BreakInto",
    "text": "난입하고 있습니다…"
  },
  {
    "label": "Msg_Unlocked",
    "text": "이 모드는 아직 개방되지 않았습니다"
  },
  {
    "label": "Msg_AnotherLobby_Versus",
    "text": "배틀에 참가하기 위해서는 로비로 이동해 주십시오"
  },
  {
    "label": "Msg_AnotherLobby_MiniGame",
    "text": "영역 배틀러에 참가하기 위해서는 로비로 이동해 주십시오"
  },
  {
    "label": "Msg_AnotherLobby_Coop",
    "text": "아르바이트에 참가하기 위해서는\nMr. 베어 상회로 이동해 주십시오"
  },
  {
    "label": "Msg_NeedVote",
    "text": "페스티벌에 참가하기 위해서는 광장의 투표소에서\n소속하고 싶은 팀에 투표해 주십시오"
  },
  {
    "label": "Msg_NotFoundScenario",
    "text": "저장된 시나리오가 없습니다\nMr. 베어 상회의 Mr. 베어 단말기에서 저장할 수 있습니다"
  },
  {
    "label": "Msg_MemberFixing",
    "text": "멤버 모집을 마감하고 있습니다…"
  },
  {
    "label": "Msg_CoopManualConfirmKi",
    "text": "아르바이트의 첫걸음 중 「첫」 단계\n연수에 다시 한번 참가하겠습니까?"
  },
  {
    "label": "BtnL_CoopManualConfirmKi",
    "text": "그만두기"
  },
  {
    "label": "BtnR_CoopManualConfirmKi",
    "text": "참가하기"
  },
  {
    "label": "Msg_CoopManualConfirmHo",
    "text": "아르바이트의 첫걸음 중 「걸」 단계\n연수에 다시 한번 참가하겠습니까?"
  },
  {
    "label": "BtnL_CoopManualConfirmHo",
    "text": "그만두기"
  },
  {
    "label": "BtnR_CoopManualConfirmHo",
    "text": "참가하기"
  },
  {
    "label": "Msg_Disconnecting",
    "text": "잠시만 기다려 주십시오…"
  },
  {
    "label": "Msg_CodeInputExitConfirm",
    "text": "입력을 그만두고 처음 화면으로 돌아갑니다\n입력한 코드는 저장되지 않습니다"
  },
  {
    "label": "BtnL_CodeInputExitConfirm",
    "text": "계속 입력하기"
  },
  {
    "label": "BtnR_CodeInputExitConfirm",
    "text": "OK"
  },
  {
    "label": "Msg_PlayerNameNG_NumberOver",
    "text": "숫자는 5글자까지 사용할 수 있습니다."
  },
  {
    "label": "Msg_PlayerNameNG_SpaceOnly",
    "text": "공백뿐인 플레이어명은 등록할 수 없습니다."
  },
  {
    "label": "Msg_PlayerNameNG_SharpExists",
    "text": "「#」 기호는 사용할 수 없습니다."
  },
  {
    "label": "Msg_PlayerNameNG_ProfanityWordExists",
    "text": "사용할 수 없는 단어가 포함되어 있습니다."
  },
  {
    "label": "Msg_CantReport",
    "text": "일정 기간 내에 제한을 초과하는 신고가\n이루어졌으므로 신고할 수 없습니다"
  },
  {
    "label": "Msg_Reporting",
    "text": "신고하고 있습니다…"
  },
  {
    "label": "Msg_Reported",
    "text": "신고했습니다"
  },
  {
    "label": "Msg_OnlinePenalty",
    "text": "지난번 통신 플레이가 정상적으로 종료되지 않았습니다\n이 상태가 수차례 반복되면 잠시 동안\n통신 플레이에 참가하지 못하게 될 수 있습니다\n통신 환경을 확인하신 후 다시 한번 시도해 주십시오"
  },
  {
    "label": "Msg_OnlinePenalty_Minutes",
    "text": "지난번 통신 플레이가 정상적으로 종료되지 않았으므로\n새로운 통신 플레이를 시작할 수 없습니다\n통신 환경을 확인하시고\n{{number index=\"0\" type=\"1\" arg3=\"0\" arg4=\"0\"}}분 후 다시 한번 시도해 주십시오"
  },
  {
    "label": "Msg_CoopGradeGuide",
    "text": "평가 차이가 나는 플레이어와 아르바이트에 참가할 경우\n평가가 올라가지 않을 수 있습니다"
  },
  {
    "label": "BtnL_CoopGradeGuide",
    "text": "그만두기"
  },
  {
    "label": "BtnR_CoopGradeGuide",
    "text": "OK!"
  },
  {
    "label": "Msg_CoopGradeReset",
    "text": "{{string index=\"0\" arg2=\"12\"}} {{number index=\"0\" type=\"2\" arg3=\"0\" arg4=\"0\"}}{{gender3 arg1=\"으로\" arg2=\"로\"}}\n아르바이트 평가를 리셋하겠습니까?"
  },
  {
    "label": "BtnL_CoopGradeReset",
    "text": "그만두기"
  },
  {
    "label": "BtnR_CoopGradeReset",
    "text": "리셋하기"
  },
  {
    "label": "Msg_CoopGradeResetDone",
    "text": "{{string index=\"0\" arg2=\"12\"}} {{number index=\"0\" type=\"2\" arg3=\"0\" arg4=\"0\"}}{{gender3 arg1=\"으로\" arg2=\"로\"}}\n아르바이트 평가를 리셋했습니다"
  },
  {
    "label": "Msg_ExplainAutoNotificaton",
    "text": "플레이 상황 알림은 친구의 로비 및\n같은 채널 플레이어의 로비에 자동으로 송신됩니다\n알림 ON/OFF는 메인 메뉴의 「옵션」에 있는\n「기타」에서 전환할 수 있습니다"
  },
  {
    "label": "Msg_PhotoUnavailable",
    "text": "장식할 수 있는 사진이 없습니다\n사진은 화면 오른쪽 아래에 카메라 아이콘이 나타나는\n광장 등에서 {{icon id=\"6\" arg=\"0x0000803F00000000\"}}를 눌러 찍을 수 있습니다"
  },
  {
    "label": "Msg_ReservedReplayDownloadConfirm",
    "text": "다운로드 예약한 배틀 메모리가 있습니다\n다운로드하겠습니까?"
  },
  {
    "label": "BtnL_ReservedReplayDownloadConfirm",
    "text": "그만두기"
  },
  {
    "label": "BtnR_ReservedReplayDownloadConfirm",
    "text": "다운로드하기"
  },
  {
    "label": "Msg_ReplayNotificationDesc",
    "text": "배틀 메모리를 업로드하면 친구에게 알림이 송신됩니다\n(친구가 아닌 같은 채널 플레이어에게는 가지 않습니다)"
  },
  {
    "label": "Msg_ReplayNotificationDownloadSuccess",
    "text": "다운로드한 배틀 메모리는\n로비 단말기에서 볼 수 있습니다"
  },
  {
    "label": "Msg_RecruitNotification",
    "text": "멤버 모집 알림을 보냈습니다\n(일정 시간 경과 후, 다시 보낼 수 있게 됩니다)"
  },
  {
    "label": "Msg_RecruitFullMember",
    "text": "만원이므로 멤버를 모집할 수 없습니다"
  },
  {
    "label": "Msg_DescribeXRankingRegion",
    "text": "X 매치는 {{color id=\"1\"}}그룹・라이즈{{color id=\"65535\"}}와 {{color id=\"1\"}}그룹・아로메{{color id=\"65535\"}}로 나뉘어\n같은 그룹에 소속된 플레이어끼리 대전합니다\n상위 플레이어의 랭킹도 그룹별로 발표됩니다\n\n거주 지역에 맞춰\n이번 시즌에 참가할 그룹을 결정해 주십시오"
  },
  {
    "label": "Msg_ConfirmXRankingRegion",
    "text": "이 그룹으로 괜찮겠습니까?\n한 번 결정하면 다음 시즌까지 변경할 수 없습니다.\n\n{{color id=\"1\"}}{{size value=\"150\"}}{{string value=\"SelectedXBattleDivision\" arg1=\"0\" arg3=\"0\"}}{{size value=\"100\"}}{{color id=\"65535\"}}\n{{size value=\"75\"}}({{string value=\"SelectedXBattleRegion\" arg1=\"0\" arg3=\"0\"}}){{size value=\"100\"}}"
  },
  {
    "label": "BtnL_ConfirmXRankingRegion",
    "text": "변경하기"
  },
  {
    "label": "BtnR_ConfirmXRankingRegion",
    "text": "OK!"
  },
  {
    "label": "Msg_SelectXRankingRegion",
    "text": "어느 그룹에 참가하겠습니까?\n\n{{color id=\"1\"}}{{size value=\"150\"}}그룹・라이즈{{size value=\"100\"}}{{color id=\"65535\"}}\n{{size value=\"75\"}}(일본/홍콩/한국/오스트레일리아/뉴질랜드){{size value=\"100\"}}\n\n{{size value=\"150\"}}{{color id=\"1\"}}그룹・아로메{{color id=\"65535\"}}{{size value=\"100\"}}\n{{size value=\"75\"}}(아메리카 대륙/유럽){{size value=\"100\"}}"
  },
  {
    "label": "BtnL_SelectXRankingRegion",
    "text": "그룹・라이즈"
  },
  {
    "label": "BtnR_SelectXRankingRegion",
    "text": "그룹・아로메"
  },
  {
    "label": "Msg_NoticeXRankingRegion",
    "text": "이 그룹으로 괜찮겠습니까?\n한 번 결정하면 다음 시즌까지 변경할 수 없습니다.\n\n{{color id=\"1\"}}{{size value=\"150\"}}{{string value=\"SelectedXBattleDivision\" arg1=\"0\" arg3=\"0\"}}{{size value=\"100\"}}{{color id=\"65535\"}}\n{{size value=\"75\"}}({{string value=\"SelectedXBattleRegion\" arg1=\"0\" arg3=\"0\"}}){{size value=\"100\"}}\n\n※거주 지역과 다른 그룹을 선택한 경우에는\n통신이 지연되거나 매칭이 어려워지는 등\n쾌적하게 플레이하지 못할 수 있습니다"
  },
  {
    "label": "BtnL_NoticeXRankingRegion",
    "text": "다시 선택하기"
  },
  {
    "label": "BtnR_NoticeXRankingRegion",
    "text": "OK!"
  },
  {
    "label": "Msg_FirstPlayerNameAlias",
    "text": "가명을 설정하면 평소와 다른 이름으로\n프라이빗 매치에 참가할 수 있습니다"
  },
  {
    "label": "Msg_ConfirmPlayerNameAlias",
    "text": "{{color id=\"1\"}}{{string index=\"0\" arg2=\"0\"}}{{color id=\"65535\"}}\n\n이 이름으로 프라이빗 매치에 참가해도 괜찮겠습니까?"
  },
  {
    "label": "BtnL_ConfirmPlayerNameAlias",
    "text": "그만두기"
  },
  {
    "label": "BtnR_ConfirmPlayerNameAlias",
    "text": "OK!"
  },
  {
    "label": "Msg_UdemaeReset_Already",
    "text": "랭크는 시즌당 1번만 리셋할 수 있습니다\n이번 시즌에는 리셋할 수 없습니다"
  },
  {
    "label": "Msg_UdemaeReset_Confirm1",
    "text": "랭크를 {{string value=\"SeasonRank\" arg1=\"0\" arg3=\"0\"}}로 리셋하겠습니까?\n(시즌당 1번만 리셋할 수 있습니다)"
  },
  {
    "label": "BtnL_UdemaeReset_Confirm1",
    "text": "그만두기"
  },
  {
    "label": "BtnR_UdemaeReset_Confirm1",
    "text": "리셋하기"
  },
  {
    "label": "Msg_UdemaeReset_Confirm2",
    "text": "정말로 랭크를 리셋하겠습니까?"
  },
  {
    "label": "BtnL_UdemaeReset_Confirm2",
    "text": "그만두기"
  },
  {
    "label": "BtnR_UdemaeReset_Confirm2",
    "text": "OK!"
  },
  {
    "label": "Msg_UdemaeReset_Processing",
    "text": "잠시만 기다려 주십시오…"
  },
  {
    "label": "Msg_UdemaeReset_Done",
    "text": "랭크를 {{string value=\"SeasonRank\" arg1=\"0\" arg3=\"0\"}}로 리셋했습니다"
  },
  {
    "label": "Msg_MiniGame_AnyoneInBattle",
    "text": "대전 중인 플레이어가 있을 때는\n방을 해산할 수 없습니다"
  },
  {
    "label": "Msg_CoopPrivate_ScenarioApplied",
    "text": "호스트가 아르바이트 설정을 변경했습니다"
  },
  {
    "label": "Msg_CoopPrivate_InvalidScenario",
    "text": "이 아르바이트 시나리오는 데이터에 문제가 있어\n플레이할 수 없습니다"
  },
  {
    "label": "Msg_CoopShiftBoard_WaitingForResult",
    "text": "아르바이트 팀 콘테스트 결과를 집계 중입니다\n발표까지 잠시만 기다려 주십시오"
  },
  {
    "label": "Msg_Channel_Description",
    "text": "참가하고 싶은 채널의 이름을 입력해 주십시오\n참가하면 같은 채널의 플레이어끼리\n알림을 주고받을 수 있습니다"
  },
  {
    "label": "BtnL_Channel_Description",
    "text": "그만두기"
  },
  {
    "label": "BtnR_Channel_Description",
    "text": "입력하기"
  },
  {
    "label": "Msg_Channel_ConnectConfrim",
    "text": "{{color id=\"1\"}}{{fun_0002_0002 arg=\"0x0000390306002E002E002E00\"}}{{color id=\"65535\"}}\n이 채널에 참가하겠습니까?\n\n참가하고 있는 동안에는 자동으로 채널에 접속됩니다\n채널에서 나가기 위해서는 로비 메뉴의\n알림 리스트를 열고 {{icon id=\"5\" arg=\"0x0000803F00000000\"}}를 눌러 주십시오"
  },
  {
    "label": "BtnL_Channel_ConnectConfrim",
    "text": "그만두기"
  },
  {
    "label": "BtnR_Channel_ConnectConfrim",
    "text": "참가하기"
  },
  {
    "label": "Msg_Channel_ConnectDone",
    "text": "{{color id=\"1\"}}{{fun_0002_0002 arg=\"0x0000390306002E002E002E00\"}}{{color id=\"65535\"}}\n채널에 참가했습니다"
  },
  {
    "label": "Msg_Channel_Processing",
    "text": "잠시만 기다려 주십시오…"
  },
  {
    "label": "Msg_ChannelNameNG_FirstChar",
    "text": "숫자로 시작하는 이름 및 언더바(_)와 숫자의\n조합으로 시작하는 이름은 사용할 수 없습니다."
  },
  {
    "label": "Msg_ChannelNameNG_Char",
    "text": "사용할 수 없는 글자가 포함되어 있습니다."
  },
  {
    "label": "Msg_ChannelNameNG_Word",
    "text": "사용할 수 없는 단어가 포함되어 있습니다."
  },
  {
    "label": "Msg_ChannelNameNG_PunctuationOnly",
    "text": "언더바(_)로만 이루어진 이름은 사용할 수 없습니다."
  },
  {
    "label": "Msg_Channel_DisconnectConfrim",
    "text": "{{color id=\"1\"}}{{fun_0002_0002 arg=\"0x0000390306002E002E002E00\"}}{{color id=\"65535\"}}\n이 채널에서 나가겠습니까?"
  },
  {
    "label": "BtnL_Channel_DisconnectConfrim",
    "text": "그만두기"
  },
  {
    "label": "BtnR_Channel_DisconnectConfrim",
    "text": "나가기"
  },
  {
    "label": "Msg_Channel_DisconnectDone",
    "text": "{{color id=\"1\"}}{{fun_0002_0002 arg=\"0x0000390306002E002E002E00\"}}{{color id=\"65535\"}}\n채널에서 나왔습니다"
  },
  {
    "label": "Msg_WeaponDuplication",
    "text": "다른 멤버와 같은 무기는\n선택할 수 없습니다"
  },
  {
    "label": "Msg_WeaponMayDiffer",
    "text": "둘이서 아르바이트 팀 콘테스트에 참가할 경우,\n선택한 무기와는 다른 무기가 지급될 수 있습니다"
  },
  {
    "label": "Msg_Jukebox_First",
    "text": "이곳에서는 로비에 틀고 싶은 곡을\n1회당 {{icon id=\"39\" arg=\"0x295C8F3F00000000\"}}{{color id=\"1\"}}100{{color id=\"65535\"}}에 신청할 수 있습니다"
  },
  {
    "label": "Msg_Jukebox_StopConfirm",
    "text": "곡 신청을 취소하겠습니까?"
  },
  {
    "label": "BtnL_Jukebox_StopConfirm",
    "text": "그만두기"
  },
  {
    "label": "BtnR_Jukebox_StopConfirm",
    "text": "취소하기"
  },
  {
    "label": "Msg_Jukebox_NoMoney",
    "text": "돈이 부족합니다"
  },
  {
    "label": "Msg_LeagueInvalidWeapon",
    "text": "장비 중인 무기로는 이벤트 매치에 참가할 수 없습니다\n무기를 변경하겠습니까?"
  },
  {
    "label": "BtnL_LeagueInvalidWeapon",
    "text": "그만두기"
  },
  {
    "label": "BtnR_LeagueInvalidWeapon",
    "text": "변경하기"
  },
  {
    "label": "Msg_LeagueNoWeapon",
    "text": "이벤트 매치에 참가할 수 있는 무기가 없습니다\n무기점에서 획득합시다!"
  },
  {
    "label": "Msg_LeagueWeaponInvalidOnReady",
    "text": "장비 중인 무기로는 이벤트 매치에 참가할 수 없습니다\n{{icon id=\"5\" arg=\"0x0000803F00000000\"}}커스터마이즈에서 무기를 변경해 주십시오"
  },
  {
    "label": "Msg_CreateRoomWhenRoomKeeperExists",
    "text": "오징어넷 3에서 만든 방이 있습니다\n다른 방을 새로 만들겠습니까?"
  },
  {
    "label": "BtnL_CreateRoomWhenRoomKeeperExists",
    "text": "그만두기"
  },
  {
    "label": "BtnR_CreateRoomWhenRoomKeeperExists",
    "text": "만들기"
  },
  {
    "label": "Msg_CreateRoomWhenHammerRoomExists",
    "text": "대회 서포트 방이 있습니다\n다른 방을 새로 만들겠습니까?"
  },
  {
    "label": "BtnL_CreateRoomWhenHammerRoomExists",
    "text": "그만두기"
  },
  {
    "label": "BtnR_CreateRoomWhenHammerRoomExists",
    "text": "만들기"
  },
  {
    "label": "Msg_LotExchangeCoinFull",
    "text": "더 이상 {{icon id=\"34\" arg=\"0xE17A943F00000000\"}}뽑기 코인을 소지할 수 없습니다"
  },
  {
    "label": "Msg_LotExchangeCoinNotWeaponComplete",
    "text": "무기점에서 무기를 전부 교환하면\n{{icon id=\"28\" arg=\"0x6666663FFEFFFFFF\"}}부키치 라이선스를 {{icon id=\"34\" arg=\"0xE17A943F00000000\"}}뽑기 코인으로\n교환할 수 있게 됩니다"
  },
  {
    "label": "Msg_StartSoloConfirm_Coop_HammerExists",
    "text": "대회 서포트 방이 있습니다\n이대로 혼자서 아르바이트에 참가하겠습니까?"
  },
  {
    "label": "BtnL_StartSoloConfirm_Coop_HammerExists",
    "text": "그만두기"
  },
  {
    "label": "BtnR_StartSoloConfirm_Coop_HammerExists",
    "text": "참가하기"
  },
  {
    "label": "Msg_StartSoloConfirm_CoopBigRun_HammerExists",
    "text": "대회 서포트 방이 있습니다\n이대로 혼자서 빅 런 아르바이트에 참가하겠습니까?"
  },
  {
    "label": "BtnL_StartSoloConfirm_CoopBigRun_HammerExists",
    "text": "그만두기"
  },
  {
    "label": "BtnR_StartSoloConfirm_CoopBigRun_HammerExists",
    "text": "참가하기"
  },
  {
    "label": "Msg_QuitConfirm_CoopHammer",
    "text": "대회 서포트 방에서 나가겠습니까?\n(대회 시간 내라면 다시 이 방에 합류할 수 있습니다)"
  },
  {
    "label": "BtnL_QuitConfirm_CoopHammer",
    "text": "그만두기"
  },
  {
    "label": "BtnR_QuitConfirm_CoopHammer",
    "text": "나가기"
  }
]