[
  {
    "label": "Msg_EShopJump",
    "text": "이곳을 플레이하기 위해서는 추가 콘텐츠\n『스플래툰 3 익스팬션 패스 오더폴리스 시티 / 사이드 오더』를\n구입 후 다운로드해야 합니다\n\n닌텐도 e숍에서\n추가 콘텐츠의 내용을 확인하고 구입 및 다운로드할 수 있습니다\n이미 구입하신 분은 추가 콘텐츠를 재다운로드할 수 있습니다"
  },
  {
    "label": "BtnL_EShopJump",
    "text": "뒤로"
  },
  {
    "label": "BtnR_EShopJump",
    "text": "닌텐도 e숍으로"
  },
  {
    "label": "Msg_EShopBack",
    "text": "추가 콘텐츠를 적용하기 위해서는\n다운로드가 완료된 후 『스플래툰 3』를 종료하고\n다시 한번 게임을 시작해 주십시오"
  }
]