[
  {
    "label": "3698c188-c5af-41c0-8a71-787c8a3abb96",
    "text": "Sensore attivato. Nastro trasportatore avviato."
  },
  {
    "label": "51fb62b5-41f1-4a10-8eb1-1a17d28793e9",
    "text": "Se tieni alla tua vita, non farti colpire dal\n{{color id=\"1\"}}cilindro inchiostrante{{color id=\"65535\"}}."
  },
  {
    "label": "5f521f98-89a9-4778-8553-09135a673955",
    "text": "Assicurati di riempire il serbatoio nuotando\ncon {{icon id=\"11\" arg=\"0x0000803F00000000\"}}, Numero 3!"
  },
  {
    "label": "6a4a4708-d296-4cb4-9f8c-407b57251a61",
    "text": "Occhio, Numero 3!"
  },
  {
    "label": "736bba10-eed4-4a2c-a980-93dc638e67f6",
    "text": "Argh! Si muove!"
  },
  {
    "label": "bdc638b4-ed39-4535-98db-777d7f03f34b",
    "text": "Ce la puoi fare!"
  },
  {
    "label": "e496baae-6f82-46fd-8a9a-748e5ecd82dd",
    "text": "Ne manca solo uno! Coraggio!"
  }
]