[
  {
    "label": "02630791-d285-4532-9103-295a3206047f",
    "text": "È un {{color id=\"1\"}}granchio armato{{color id=\"65535\"}}! Sììì! Vai e spacca tutto,\ngranchietto!"
  },
  {
    "label": "46465237-33e0-4a87-b2e2-cda6dc7777ee",
    "text": "Così si fa! Non fermarti!"
  },
  {
    "label": "622fdea1-4867-49ec-8e8d-df2ec26356c2",
    "text": "Man! {{string value=\"5\"}}{{color id=\"0\"}}(Che faticaccia!){{color id=\"65535\"}}{{fun_000F_0004 arg=\"0x0500\"}}"
  },
  {
    "label": "634b5970-06ab-4b83-b233-f968ad93a98d",
    "text": "Ah! Il Gran pescescossa è in quell'enorme vasca!"
  },
  {
    "label": "681440f8-051b-4cc1-8ef4-268a65e49b95",
    "text": "Hanno un po' esagerato con la sorveglianza qui..."
  },
  {
    "label": "8136722e-6236-4628-b8ae-3db1238a1f49",
    "text": "Un {{color id=\"1\"}}mega timbro{{color id=\"65535\"}}! Premi {{icon id=\"12\" arg=\"0x0000803F00000000\"}} e BAM, SLAM, DENG!\nCapito?"
  },
  {
    "label": "8484ca13-5552-4bfc-8c0b-8be6a75e9503",
    "text": "Ecco dov'era inscatolato. Dobbiamo riportarlo\nindietro! Cioè... più tardi, intendo."
  },
  {
    "label": "8dcabab4-e2bc-4c53-83d0-3b5908d54b35",
    "text": "La strada è ancora lunga, ma la percorrerai in\nun battibalena!"
  },
  {
    "label": "a22c5a93-1bf7-425a-a7a6-774c746ba018",
    "text": "Fiuuu! Ora puoi rilassarti un attimo..."
  },
  {
    "label": "e69897ce-a932-4502-8d47-41cec93e0541",
    "text": "♪ Be-e-e-n fa-a-a-atto! ♪"
  },
  {
    "label": "f89dd579-fe53-4be9-8b61-ebe6558782be",
    "text": "Pensi di riuscire a fare quel salto?\nPerché io non ne sono convinta..."
  }
]