[
  {
    "label": "09439641-2adb-4069-8f5d-3af8046ad294",
    "text": "Bene! Continua così!"
  },
  {
    "label": "1205a3dd-d2c5-4bed-86aa-141f82aa3448",
    "text": "VAI, VAI, VAI!"
  },
  {
    "label": "3aeafc61-b444-4f78-9dd1-c62f71768f1b",
    "text": "Credo che tu abbia dimenticato qualcosa..."
  },
  {
    "label": "41e09780-9027-4838-965f-62db9c954cf9",
    "text": "Che impresa! Anche Salmonello fa i salti di gioia!"
  },
  {
    "label": "4829f9d3-4c0e-44e3-ac16-317e719c734c",
    "text": "Quelle ti servono per riempire il serbatoio,\nquindi quando ne trovi una, raccoglila."
  },
  {
    "label": "49f37cc4-ca22-4a26-8f11-0b651a025172",
    "text": "Per caso hai saltato un {{color id=\"1\"}}interruttore{{color id=\"65535\"}}? Perché ho\nla sensazione che tu abbia saltato un {{color id=\"1\"}}interruttore{{color id=\"65535\"}}..."
  },
  {
    "label": "4eb020db-1dec-413e-bf3b-38018d2a0b89",
    "text": "Non fermarti!"
  },
  {
    "label": "4fcf7db1-294f-497d-bc0c-0cde352bc120",
    "text": "Vedo uno, due... {{delay frames=\"5\"}}Wow, quanti {{color id=\"1\"}}interruttori{{color id=\"65535\"}}!{{delay frames=\"5\"}}\nBeh, direi di colpirli in ordine!"
  },
  {
    "label": "4fd7c4c3-cd03-43a8-ae17-badcc7024e24",
    "text": "Niente male! Spero che il riscaldamento\nti sia servito, perché adesso viene il difficile."
  },
  {
    "label": "6e374df9-0208-4fb0-946d-8f2e398fe0cf",
    "text": "Direi che ci siamo meritati un po' di uova di pesce."
  },
  {
    "label": "73137a92-9bab-438f-a36b-c54ec985875d",
    "text": "Non lo nascondo: hai fatto un gran pasticcio, anzi\nsplatticcio. Ma almeno hai raggiunto il traguardo."
  },
  {
    "label": "777c0315-99a6-435b-ac5a-d27e77975072",
    "text": "Devi colpire tutti gli {{color id=\"1\"}}interruttori{{color id=\"65535\"}}!"
  },
  {
    "label": "8ec782e5-ab00-4e0e-8aea-53b3aa80e0e3",
    "text": "Wow... Meno male che non tocca a me pulire.\nChe pasticcio."
  },
  {
    "label": "96935915-b31b-45b5-aae8-abeb93bd9a5d",
    "text": "E stop al tempo!"
  },
  {
    "label": "af3e5138-492b-4a4f-bf6a-a462947e7688",
    "text": "Sì, davvero ottimo! A proposito, questo l'hai visto?"
  },
  {
    "label": "db3d0bc3-89a2-483a-aa64-5a12cb03fccc",
    "text": "Sì, davvero ottimo! A proposito, questo l'hai visto?"
  },
  {
    "label": "e7c28788-8e85-4de4-bd90-0ac454e0e331",
    "text": "Puoi inchiostrare un sacco di terreno se tieni\npremuto {{icon id=\"12\" arg=\"0x0000803F00000000\"}} mentre ti muovi."
  },
  {
    "label": "f3841151-f955-4c0f-8a87-83bcb291ef0c",
    "text": "Che impresa! Anche Salmonello fa i salti di gioia!"
  }
]