[
  {
    "label": "0031c3f3-5ff7-4173-8ebe-fb7b256d5bad",
    "text": "Questo sembra il posto ideale dove tenere\npremuto {{icon id=\"12\" arg=\"0x0000803F00000000\"}} e scatenarsi con il rullo."
  },
  {
    "label": "0246f8bb-0946-4641-9a7e-f30e36a9ddba",
    "text": "C'è mancata una squama! Non me ne aspettavo\nuno nascosto proprio lì."
  },
  {
    "label": "1d2bc628-c906-42f8-923e-dce35fb70169",
    "text": "Forse riesci ancora ad aggirarlo..."
  },
  {
    "label": "2478b2de-513f-45f4-a4a8-a21badd86842",
    "text": "ARGH! Iniziamo già con gli Octariani?!"
  },
  {
    "label": "2c40e1ec-2778-4719-adf3-84cd091bc06c",
    "text": "Aiuto. Un polpotiratore, scudi e chi più ne ha, più ne\nmetta. Ma tu puoi metterci il tuo coraggio. E il rullo!"
  },
  {
    "label": "302c9e68-bcc4-417a-8018-c82edcd034c0",
    "text": "Magnifico! Fa sempre piacere trovare delle {{color id=\"1\"}}uova\ndi pesce{{color id=\"65535\"}} come ricompensa per i propri sforzi."
  },
  {
    "label": "3251ace2-7f86-4e7a-873b-30454f524f01",
    "text": "Premi brevemente {{icon id=\"12\" arg=\"0x0000803F00000000\"}} per un'inchiostrata\n{{color id=\"1\"}}orizzontale{{color id=\"65535\"}}. Se la vuoi {{color id=\"1\"}}verticale{{color id=\"65535\"}}, salta e premi {{icon id=\"12\" arg=\"0x0000803F00000000\"}}!"
  },
  {
    "label": "456b24b9-25e1-4291-8e86-37d6dcc39a34",
    "text": "Con quel rullo sei un rullo compressore!"
  },
  {
    "label": "5991f815-2dda-443e-b078-d5ebad7c64e7",
    "text": "Oooh, hai trovato un percorso alternativo!"
  },
  {
    "label": "7faa22cb-e043-4e1a-a16d-6d88967fca1c",
    "text": "Ora chi è nei pasticci?"
  },
  {
    "label": "831b4ad9-1bd5-41e5-bdef-0f4c4a93e7d1",
    "text": "Et vongolà! Ben fatto, Numero 3."
  },
  {
    "label": "8692e390-0b96-4c93-a497-d2896189b50e",
    "text": "Ottimo lavoro."
  },
  {
    "label": "aa3cb97b-e1da-4d1c-8020-85dccb4bd61e",
    "text": "Incredibile! Come rulli tu, nessuno ha rullato mai!"
  },
  {
    "label": "ac0a4804-2fbb-45a4-9931-7ea5aee8f8c9",
    "text": "Occhio a dove metti i tentacoli, Numero 3!"
  },
  {
    "label": "c28934ae-e86d-4e2c-b82e-36eac6828edc",
    "text": "Due al prezzo di uno! Perfetto!"
  },
  {
    "label": "ceaad6a7-c669-4398-8ba3-aacf9b1b68be",
    "text": "Un'altra occasione per praticare il lancio dell'inchiostro!\nSalta e spara contemporaneamente per splattarli!"
  },
  {
    "label": "cf8987a8-a96d-4006-aef1-d993522ff40e",
    "text": "Ricorda che puoi tenere premuto {{icon id=\"1\" arg=\"0x0000803F00000000\"}} su un\n{{color id=\"1\"}}trampolpino {{color id=\"65535\"}}per saltare altissimo!"
  },
  {
    "label": "d9f2e6ae-db2a-4ad7-91ac-dd06bd2cf2b9",
    "text": "Eh. Non abbassare MAI la guardia, caro Octariano..."
  },
  {
    "label": "dfebb4e2-a395-4285-a22f-92c247040f27",
    "text": "Uh... Noi lo sapevamo che era qui. Vero, Numero 1?"
  },
  {
    "label": "f906fe63-b376-4151-bf3f-3550000d8364",
    "text": "Sì, sì, come no."
  }
]