[
  {
    "label": "0b6a990d-0ed2-41c9-932e-a15e2965d876",
    "text": "Ne resta solo uno!"
  },
  {
    "label": "c3dffacd-f7fe-465c-a624-62b15870a5c7",
    "text": "Gli Ossimolli grossi ti caricheranno, se possono."
  },
  {
    "label": "ca2d558a-e9bf-4f8d-a6d5-4f5f7dd491fa",
    "text": "Sbadabam! Beccati questo!"
  },
  {
    "label": "dfb7175e-35f4-423a-8354-0ffcf5796110",
    "text": "Che tonti quelli. Non sanno nemmeno inchiostrare!"
  },
  {
    "label": "fd8f2a49-afcd-49fa-994c-9dc589eacdbc",
    "text": "Vedi quella {{color id=\"4\"}}cartuccia di inchiostro {{icon id=\"66\" arg=\"0x0000803F00000000\"}}{{color id=\"65535\"}}?\nPrendila e riempirai metà del serbatoio."
  }
]