[
  {
    "label": "15986b3e-7bf1-414e-be45-ec0214ad4609",
    "locale": {
      "CNzh": "想要唤回小鲑鱼时，就按{{icon id=\"14\" arg=\"0x295C4F3F00000000\"}}发出“{{color id=\"1\"}}来这里{{color id=\"65535\"}}”信号吧。",
      "EUde": "Um deinen Salmini zu dir zurückzuholen,\nrufe mit {{icon id=\"14\" arg=\"0x295C4F3F00000000\"}} „{{color id=\"1\"}}Zu mir!{{color id=\"65535\"}}“.",
      "EUen": "To call your Smallfry buddy back to you,\nshout, \"{{color id=\"1\"}}This way!{{color id=\"65535\"}}\" with {{icon id=\"14\" arg=\"0x295C4F3F00000000\"}}.",
      "EUes": "Para llamar a tu cenutrín a la voz de «{{color id=\"1\"}}¡Aquí!{{color id=\"65535\"}}»,\npulsa {{icon id=\"14\" arg=\"0x295C4F3F00000000\"}}.",
      "EUfr": "Pour rappeler ton poteau le Salmioche,\ncrie-lui « {{color id=\"1\"}}Par ici !{{color id=\"65535\"}} » en appuyant sur {{icon id=\"14\" arg=\"0x295C4F3F00000000\"}}.",
      "EUit": "Se vuoi richiamare il tuo amico Salmonello,\nusa {{icon id=\"14\" arg=\"0x295C4F3F00000000\"}} per dire \"{{color id=\"1\"}}Con me!{{color id=\"65535\"}}\"",
      "EUnl": "Om je Salmini-maatje weer naar je toe te roepen,\nroep je '{{color id=\"1\"}}Hierheen!{{color id=\"65535\"}}' met {{icon id=\"14\" arg=\"0x295C4F3F00000000\"}}.",
      "EUru": "Чтобы позвать малетчика, крикни «{{color id=\"1\"}}Сюда!{{color id=\"65535\"}}»,\nнажав {{icon id=\"14\" arg=\"0x295C4F3F00000000\"}}.",
      "JPja": "コジャケくん呼びもどすには {{icon id=\"14\" arg=\"0x295C4F3F00000000\"}}で「{{color id=\"1\"}}カモン{{color id=\"65535\"}}」ね",
      "KRko": "꼬마연어를 불러들일 때는\n{{icon id=\"14\" arg=\"0x295C4F3F00000000\"}}로 「{{color id=\"1\"}}이쪽이야{{color id=\"65535\"}}」 시그널을 보내",
      "TWzh": "想召回小鮭魚的時候，就按下{{icon id=\"14\" arg=\"0x295C4F3F00000000\"}}發出「{{color id=\"1\"}}來這裡{{color id=\"65535\"}}」吧。",
      "USen": "To call your Smallfry buddy back to you,\nshout, \"{{color id=\"1\"}}This way!{{color id=\"65535\"}}\" with {{icon id=\"14\" arg=\"0x295C4F3F00000000\"}}.",
      "USes": "Para llamar a Escamita, di \"{{color id=\"1\"}}¡Vengan!{{color id=\"65535\"}}\"\noprimiendo {{icon id=\"14\" arg=\"0x295C4F3F00000000\"}}.",
      "USfr": "Pour rappeler ton ami Salmio,\ncrie-lui « {{color id=\"1\"}}Par ici!{{color id=\"65535\"}} » en appuyant sur {{icon id=\"14\" arg=\"0x295C4F3F00000000\"}}."
    }
  },
  {
    "label": "1eb26247-5295-4193-bb5c-d3323b1582e0",
    "locale": {
      "CNzh": "好！继续前进吧——！",
      "EUde": "So, weiter geht’s!",
      "EUen": "Alright, on to the next one!",
      "EUes": "Muy bien, ¡puedes continuar!",
      "EUfr": "Allez, on passe à la suite !",
      "EUit": "Bene, proseguiamo!",
      "EUnl": "Oké, door naar de volgende!",
      "EUru": "Ладненько, поехали дальше!",
      "JPja": "よっし 次いこー！",
      "KRko": "좋아, 다음으로 가자～!",
      "TWzh": "好了，繼續前進吧——！",
      "USen": "Alright, on to the next one!",
      "USes": "Muy bien, ¡puedes continuar!",
      "USfr": "Allez, on passe à la suite!"
    }
  },
  {
    "label": "2091de36-1d17-41b3-b40f-7ffa73c57b85",
    "locale": {
      "CNzh": "是{{color id=\"1\"}}转转开关{{color id=\"65535\"}}啊，那么……",
      "EUde": "Ein {{color id=\"1\"}}Drehschalter{{color id=\"65535\"}}? Hmmm...",
      "EUen": "An {{color id=\"1\"}}ink switch{{color id=\"65535\"}}? Hm...",
      "EUes": "¿{{color id=\"1\"}}Giruptores{{color id=\"65535\"}}? Mmm...",
      "EUfr": "Un {{color id=\"1\"}}interruptourne{{color id=\"65535\"}} ? Hmm...",
      "EUit": "Un {{color id=\"1\"}}interruotore{{color id=\"65535\"}}? Mmmh...",
      "EUnl": "Een {{color id=\"1\"}}inktschakelaar{{color id=\"65535\"}}? Hmm...",
      "EUru": "{{color id=\"1\"}}Осьмишень{{color id=\"65535\"}}? Хм-м...",
      "JPja": "{{color id=\"1\"}}でんでんスイッチ{{color id=\"65535\"}}やね、さて…",
      "KRko": "{{color id=\"1\"}}둥둥 스위치{{color id=\"65535\"}}네잉, 자 그럼…",
      "TWzh": "是{{color id=\"1\"}}轉轉開關{{color id=\"65535\"}}呢，那就……",
      "USen": "An {{color id=\"1\"}}ink switch{{color id=\"65535\"}}? Hm...",
      "USes": "¿{{color id=\"1\"}}Giruptores{{color id=\"65535\"}}? Mmm...",
      "USfr": "Un {{color id=\"1\"}}interruptourne{{color id=\"65535\"}}? Hmm..."
    }
  },
  {
    "label": "2d09f517-c1c7-4440-b4d4-c406c91b5859",
    "locale": {
      "CNzh": "啊，能看见{{color id=\"1\"}}终点{{color id=\"65535\"}}啦！",
      "EUde": "Oh, ich kann das {{color id=\"1\"}}Ziel{{color id=\"65535\"}} sehen!",
      "EUen": "Hey, I can see the {{color id=\"1\"}}goal{{color id=\"65535\"}}!",
      "EUes": "Mira, ¡la {{color id=\"1\"}}meta{{color id=\"65535\"}} ya está a la vista!",
      "EUfr": "Hé, {{color id=\"1\"}}arrivée {{color id=\"65535\"}}en vue !",
      "EUit": "Ehi, vedo il {{color id=\"1\"}}traguardo{{color id=\"65535\"}}!",
      "EUnl": "Hé, ik zie daar het {{color id=\"1\"}}doel{{color id=\"65535\"}}!",
      "EUru": "Вижу {{color id=\"1\"}}цель{{color id=\"65535\"}}!",
      "JPja": "あ、{{color id=\"1\"}}ゴール{{color id=\"65535\"}}が見えるよ！",
      "KRko": "아, {{color id=\"1\"}}골{{color id=\"65535\"}}이 보여!",
      "TWzh": "啊，可以看到{{color id=\"1\"}}終點{{color id=\"65535\"}}囉！",
      "USen": "Hey, I can see the {{color id=\"1\"}}goal{{color id=\"65535\"}}!",
      "USes": "Mira, ¡ya se ve la {{color id=\"1\"}}meta{{color id=\"65535\"}}!",
      "USfr": "Hé, {{color id=\"1\"}}arrivée {{color id=\"65535\"}}en vue!"
    }
  },
  {
    "label": "30bfe139-be16-45b9-b3e0-316c9d821c8e",
    "locale": {
      "CNzh": "哇，你找到啦，真棒！",
      "EUde": "Hoho, netter Fund!",
      "EUen": "Whoa! Nice find.",
      "EUes": "¡Qué gran hallazgo!",
      "EUfr": "Ouah ! Jolie trouvaille !",
      "EUit": "Mitilico! Che scoperta!",
      "EUnl": "Wauw! Mooi gevonden.",
      "EUru": "Ух ты, отличная находка!",
      "JPja": "わ、よく見つけたね！",
      "KRko": "와, 잘 찾아냈네!",
      "TWzh": "哇！真虧你找得到！",
      "USen": "Whoa! Nice find.",
      "USes": "¡Qué bien!",
      "USfr": "Ouah! Jolie trouvaille!"
    }
  },
  {
    "label": "480d35ab-e7dd-4db0-a069-866c8e06dff3",
    "locale": {
      "CNzh": "按{{icon id=\"10\" arg=\"0x0000803F00000000\"}}发射{{color id=\"1\"}}小鲑鱼{{color id=\"65535\"}}！",
      "EUde": "Drücke {{icon id=\"10\" arg=\"0x0000803F00000000\"}}, um deinen {{color id=\"1\"}}Salmini {{color id=\"65535\"}}loszuschicken!",
      "EUen": "Press {{icon id=\"10\" arg=\"0x0000803F00000000\"}} to send your li'l {{color id=\"1\"}}Smallfry{{color id=\"65535\"}} buddy frying!\nUh. Flying. I meant flying.",
      "EUes": "¡Pulsa {{icon id=\"10\" arg=\"0x0000803F00000000\"}} para lanzar a tu {{color id=\"1\"}}cenutrín{{color id=\"65535\"}} por los aires!",
      "EUfr": "Appuie sur {{icon id=\"10\" arg=\"0x0000803F00000000\"}} pour lancer ton p'tit {{color id=\"1\"}}Salmioche {{color id=\"65535\"}}!",
      "EUit": "Premi {{icon id=\"10\" arg=\"0x0000803F00000000\"}} per linciare il tuo {{color id=\"1\"}}Salmonello{{color id=\"65535\"}}!\nEhm. Lanciare. Intendevo lanciare.",
      "EUnl": "Druk op {{icon id=\"10\" arg=\"0x0000803F00000000\"}} om je kleine {{color id=\"1\"}}Salmini {{color id=\"65535\"}}te fileren! Ehm.\nLanceren dus. Lanceren.",
      "EUru": "Жми {{icon id=\"10\" arg=\"0x0000803F00000000\"}}, чтобы бросить {{color id=\"1\"}}малетчика{{color id=\"65535\"}}. Не жди,\nкогда тот подрастет — отправляй его в полет!",
      "JPja": "{{icon id=\"10\" arg=\"0x0000803F00000000\"}}で{{color id=\"1\"}}コジャケ{{color id=\"65535\"}}ちゃんをシュート！",
      "KRko": "{{icon id=\"10\" arg=\"0x0000803F00000000\"}}로 {{color id=\"1\"}}꼬마연어{{color id=\"65535\"}}를 던져 봐～!",
      "TWzh": "按下{{icon id=\"10\" arg=\"0x0000803F00000000\"}}發射{{color id=\"1\"}}小鮭魚{{color id=\"65535\"}}！",
      "USen": "Press {{icon id=\"10\" arg=\"0x0000803F00000000\"}} to send your li'l {{color id=\"1\"}}Smallfry{{color id=\"65535\"}} buddy frying!\nUh. Flying. I meant flying.",
      "USes": "¡Oprime {{icon id=\"10\" arg=\"0x0000803F00000000\"}} para lanzar a {{color id=\"1\"}}Escamita {{color id=\"65535\"}}por los aires!",
      "USfr": "Appuie sur {{icon id=\"10\" arg=\"0x0000803F00000000\"}} pour lancer ton p'tit {{color id=\"1\"}}Salmio{{color id=\"65535\"}}!"
    }
  },
  {
    "label": "492ef334-126b-421e-ac63-7c39cb8cd933",
    "locale": {
      "CNzh": "啊，3号，你没带武器啊。",
      "EUde": "Oha. Du hast nicht zufällig eine Waffe, Nr. 3?",
      "EUen": "Uh-oh. You don't have a weapon, do you, Agent 3?",
      "EUes": "Esto... ¿No tienes ningún arma, Agente 3?",
      "EUfr": "Oh, oh. On est d'accord que t'as pas d'arme,\nNuméro 3 ?",
      "EUit": "Oh oh. Non hai un'arma, vero, Numero 3?",
      "EUnl": "O, oei. Agent 3, je hebt geen wapen!",
      "EUru": "Похоже, у тебя совсем нет оружия!",
      "JPja": "あ、３号 ブキ持ってないね",
      "KRko": "어? 3호, 무기가 없네",
      "TWzh": "啊，3號，你沒帶武器吧。",
      "USen": "Uh-oh. You don't have a weapon, do you, Agent 3?",
      "USes": "Este... ¿No tienes ningún arma, Agente 3?",
      "USfr": "Oh, oh. On est d'accord que t'as pas d'arme,\nNuméro 3?"
    }
  },
  {
    "label": "4cdf7a62-0286-4bd8-a023-4bddad65e138",
    "locale": {
      "CNzh": "好可惜——就差一点了！",
      "EUde": "Ach, das war knapp!\nFast hättest du’s geschafft!",
      "EUen": "Awww, so close! You were almost there...",
      "EUes": "Vaya... ¡qué poco te ha faltado!",
      "EUfr": "Oh, si près du but...",
      "EUit": "Ah, per una squama! C'eri quasi...",
      "EUnl": "Oef, bijna! Je was zó dichtbij...",
      "EUru": "Эх, у тебя почти получилось...",
      "JPja": "おしいー もうちょっと！",
      "KRko": "아깝다～ 조금만 더!",
      "TWzh": "可惜啊——就差一點點！",
      "USen": "Awww, so close! You were almost there...",
      "USes": "Uf... ¡con lo cerca que estabas!",
      "USfr": "Oh, si près du but..."
    }
  },
  {
    "label": "5fee01ca-c2ca-4148-b47a-13f5f45d542a",
    "locale": {
      "CNzh": "按{{icon id=\"14\" arg=\"0x295C4F3F00000000\"}}可以{{color id=\"1\"}}唤回{{color id=\"65535\"}}投掷出去的{{color id=\"1\"}}小鲑鱼{{color id=\"65535\"}}哦。",
      "EUde": "Wenn du deinen {{color id=\"1\"}}Salmini{{color id=\"65535\"}} geworfen hast, kannst du ihn\nmit {{icon id=\"14\" arg=\"0x295C4F3F00000000\"}} wieder zu dir zurückrufen.",
      "EUen": "After you toss your {{color id=\"1\"}}Smallfry{{color id=\"65535\"}}, you can {{color id=\"1\"}}call it back{{color id=\"65535\"}}\nto you with {{icon id=\"14\" arg=\"0x295C4F3F00000000\"}}.",
      "EUes": "Cuando lances a tu {{color id=\"1\"}}cenutrín{{color id=\"65535\"}}, luego puedes {{color id=\"1\"}}llamarlo{{color id=\"65535\"}}\ncon {{icon id=\"14\" arg=\"0x295C4F3F00000000\"}} para que vuelva.",
      "EUfr": "Après avoir lancé ton {{color id=\"1\"}}Salmioche{{color id=\"65535\"}}, tu peux {{color id=\"1\"}}le rappeler{{color id=\"65535\"}}\navec {{icon id=\"14\" arg=\"0x295C4F3F00000000\"}}.",
      "EUit": "Dopo aver lanciato {{color id=\"1\"}}Salmonello{{color id=\"65535\"}}, puoi\n{{color id=\"1\"}}richiamarlo {{color id=\"65535\"}}con {{icon id=\"14\" arg=\"0x295C4F3F00000000\"}}.",
      "EUnl": "Als je je kleine maatje hebt gegooid, kun je hem\n{{color id=\"1\"}}terugroepen {{color id=\"65535\"}}met {{icon id=\"14\" arg=\"0x295C4F3F00000000\"}}.",
      "EUru": "После того как бросишь{{color id=\"1\"}} малетчика{{color id=\"65535\"}}, ты можешь\nпозвать его обратно, нажав {{icon id=\"14\" arg=\"0x295C4F3F00000000\"}}.",
      "JPja": "投げた{{color id=\"1\"}}コジャケ{{color id=\"65535\"}}くんは {{icon id=\"14\" arg=\"0x295C4F3F00000000\"}}で{{color id=\"1\"}}呼びもどせる{{color id=\"65535\"}}よ",
      "KRko": "던진 {{color id=\"1\"}}꼬마연어{{color id=\"65535\"}}는 {{icon id=\"14\" arg=\"0x295C4F3F00000000\"}}로 {{color id=\"1\"}}불러들일 수 있어{{color id=\"65535\"}}",
      "TWzh": "按下{{icon id=\"14\" arg=\"0x295C4F3F00000000\"}}就能{{color id=\"1\"}}召回{{color id=\"65535\"}}被投擲出去的{{color id=\"1\"}}小鮭魚{{color id=\"65535\"}}囉！",
      "USen": "After you toss your {{color id=\"1\"}}Smallfry{{color id=\"65535\"}}, you can {{color id=\"1\"}}call it back{{color id=\"65535\"}}\nto you with {{icon id=\"14\" arg=\"0x295C4F3F00000000\"}}.",
      "USes": "Cuando lances a {{color id=\"1\"}}Escamita{{color id=\"65535\"}}, luego puedes {{color id=\"1\"}}llamarlo{{color id=\"65535\"}}\ncon {{icon id=\"14\" arg=\"0x295C4F3F00000000\"}} para que vuelva.",
      "USfr": "Après avoir lancé {{color id=\"1\"}}Salmio{{color id=\"65535\"}}, tu peux {{color id=\"1\"}}le rappeler{{color id=\"65535\"}}\navec {{icon id=\"14\" arg=\"0x295C4F3F00000000\"}}."
    }
  },
  {
    "label": "77aa8809-80ad-4f22-a52f-d8d98736fdf1",
    "locale": {
      "CNzh": "你和小鲑鱼配合得很默契呢。",
      "EUde": "Du und dein Salmini, ihr seid ein Spitzenteam!",
      "EUen": "You and that li'l Smallfry make a great team.",
      "EUes": "Ese pequeño cenutrín y tú formáis un buen equipo.",
      "EUfr": "Vous faites une sacrée équipe, ton Salmioche et toi.",
      "EUit": "Tu e il tuo Salmonello siete un'ottima squadra.",
      "EUnl": "Jij en die Salmini vormen een goed team.",
      "EUru": "Вы с малетчиком просто отличная команда!",
      "JPja": "コジャケくんと 息ピッタリやったね",
      "KRko": "꼬마연어하고 손발이 딱딱 맞네잉",
      "TWzh": "你跟小鮭魚真是合作無間呢。",
      "USen": "You and that li'l Smallfry make a great team.",
      "USes": "Escamita y tú forman un gran equipo.",
      "USfr": "Vous faites une sacrée équipe, Salmio et toi."
    }
  },
  {
    "label": "7b27ede6-c1c9-4641-bbe7-fdda6f78166d",
    "locale": {
      "CNzh": "小心墙壁！",
      "EUde": "Achtung, Wand! Pass auf!",
      "EUen": "Wall! WALL! Look out!",
      "EUes": "¡La pared! ¡Cuidado con la pared!",
      "EUfr": "Un mur ! UN MUR ! Fais gaffe !",
      "EUit": "Un muro! UN MURO! Attenzione!",
      "EUnl": "Muur! MUUUUUR! Pas op!",
      "EUru": "Осторожно, стена!",
      "JPja": "カベに注意！",
      "KRko": "벽을 조심해!",
      "TWzh": "小心牆壁！",
      "USen": "Wall! WALL! Look out!",
      "USes": "¡La pared! ¡Cuidado con la pared!",
      "USfr": "Un mur! UN MUR! Fais gaffe!"
    }
  },
  {
    "label": "7f2f3297-9f65-4381-8943-2a7ded57f424",
    "locale": {
      "CNzh": "很好，顺利通过了呢。",
      "EUde": "Prima, du hast es geschafft!",
      "EUen": "Sweet! You made it across.",
      "EUes": "Genial, ¡lo has conseguido!",
      "EUfr": "Joli ! C'est passé tout seul.",
      "EUit": "Bene! Ce l'hai fatta.",
      "EUnl": "Woehoe! Je bent aan de overkant.",
      "EUru": "Чудненько, тебе удалось пробраться\nна другую сторону.",
      "JPja": "よし、わたりきったね",
      "KRko": "좋아, 다 건넜어",
      "TWzh": "很好，順利通過了。",
      "USen": "Sweet! You made it across.",
      "USes": "¡Yuju! ¡Lograste cruzar!",
      "USfr": "Joli! C'est passé tout seul."
    }
  },
  {
    "label": "7f7ef945-36f2-4464-822b-26f480fdb89c",
    "locale": {
      "CNzh": "砰——！",
      "EUde": "Ka-BÄM!",
      "EUen": "Ka-BAM!",
      "EUes": "¡Zaaasca!",
      "EUfr": "Et BOUM !",
      "EUit": "Booom!",
      "EUnl": "Ka-BOEM!",
      "EUru": "БАБАХ!!!",
      "JPja": "ドカーン！",
      "KRko": "퍼엉～!",
      "TWzh": "轟——！",
      "USen": "Ka-BAM!",
      "USes": "¡PUM!",
      "USfr": "Et BOUM!"
    }
  },
  {
    "label": "80de6497-3350-4ea5-b418-2d71dff34abc",
    "locale": {
      "CNzh": "这台装置也好大啊——",
      "EUde": "Das Ding ist ja mal auch ganz schön groß...",
      "EUen": "This contraption's pretty big too, huh?",
      "EUes": "Vaya pedazo de mecanismo, ¿eh?",
      "EUfr": "Ça a pas l'air fastoche non plus, ici...",
      "EUit": "Quell'aggeggio è bello grosso, eh?",
      "EUnl": "Dit ding is ook best wel groot.",
      "EUru": "Какая большая штуковина.",
      "JPja": "このしかけも大きいねー",
      "KRko": "이 장치도 커다라네～",
      "TWzh": "這台裝置也好大喔～",
      "USen": "This contraption's pretty big too, huh?",
      "USes": "Qué mecanismo tan grande, ¿verdad?",
      "USfr": "Ça a pas l'air facile non plus, ici..."
    }
  },
  {
    "label": "812c43fb-ed45-4e1c-bdf6-b9c2cbaf904b",
    "locale": {
      "CNzh": "{{color id=\"1\"}}钥匙{{color id=\"65535\"}}和{{color id=\"1\"}}鲑鱼卵{{color id=\"65535\"}}落下来了……",
      "EUde": "Es regnet {{color id=\"1\"}}Schlüssel{{color id=\"65535\"}} und {{color id=\"1\"}}Fischeier{{color id=\"65535\"}}...",
      "EUen": "It's like a {{color id=\"1\"}}key {{color id=\"65535\"}}and {{color id=\"1\"}}Power Egg{{color id=\"65535\"}} party, and we're invited.",
      "EUes": "¿Eh? Una lluvia de {{color id=\"1\"}}caviar rojo{{color id=\"65535\"}} con {{color id=\"1\"}}llave.{{color id=\"65535\"}}",
      "EUfr": "Oh. C'est la fête aux {{color id=\"1\"}}œufs de poisson{{color id=\"65535\"}}, et on gagne\nune {{color id=\"1\"}}clé {{color id=\"65535\"}}par-dessus le marché !",
      "EUit": "Uhm. Una {{color id=\"1\"}}chiave {{color id=\"65535\"}}e {{color id=\"1\"}}uova di pesce{{color id=\"65535\"}} a volontà...",
      "EUnl": "Een {{color id=\"1\"}}sleutel{{color id=\"65535\"}}- en {{color id=\"1\"}}eier{{color id=\"65535\"}}feestje, dat zijn\nm'n lievelingsfeestjes!",
      "EUru": "Ого, сколько {{color id=\"1\"}}икринок{{color id=\"65535\"}}... И {{color id=\"1\"}}ключ{{color id=\"65535\"}}!",
      "JPja": "{{color id=\"1\"}}カギ{{color id=\"65535\"}}と{{color id=\"1\"}}イクラ{{color id=\"65535\"}} 降ってきとる…",
      "KRko": "{{color id=\"1\"}}열쇠{{color id=\"65535\"}}랑 {{color id=\"1\"}}연어알 팩{{color id=\"65535\"}}이 떨어져 내려오네잉…",
      "TWzh": "{{color id=\"1\"}}鑰匙{{color id=\"65535\"}}跟{{color id=\"1\"}}鮭魚卵{{color id=\"65535\"}}從天而降了……",
      "USen": "It's like a {{color id=\"1\"}}key {{color id=\"65535\"}}and {{color id=\"1\"}}Power Egg{{color id=\"65535\"}} party, and we're invited.",
      "USes": "¿Eh? Una lluvia de {{color id=\"1\"}}huevecillos de poder {{color id=\"65535\"}}con {{color id=\"1\"}}llave{{color id=\"65535\"}}.",
      "USfr": "Oh. C'est la fête aux {{color id=\"1\"}}œufs de poisson{{color id=\"65535\"}}, et on gagne\nune {{color id=\"1\"}}clé {{color id=\"65535\"}}par-dessus le marché!"
    }
  },
  {
    "label": "8b615815-4c19-4e54-8562-30eac1d6f0dd",
    "locale": {
      "CNzh": "获得{{color id=\"1\"}}钥匙{{color id=\"65535\"}}了！拿到{{color id=\"1\"}}门{{color id=\"65535\"}}那里去吧～",
      "EUde": "{{color id=\"1\"}}Schlüssel{{color id=\"65535\"}} eingesackt!\nAb zum passenden {{color id=\"1\"}}Container{{color id=\"65535\"}} damit!",
      "EUen": "{{color id=\"1\"}}Key{{color id=\"65535\"}} status: nabbed! Let's take it to the {{color id=\"1\"}}vault{{color id=\"65535\"}}.",
      "EUes": "¡{{color id=\"1\"}}Llave{{color id=\"65535\"}} al canto! Así que, ahora, al {{color id=\"1\"}}cerrojo{{color id=\"65535\"}}.",
      "EUfr": "Localisation de la {{color id=\"1\"}}clé{{color id=\"65535\"}} : in ze pocket !\nObjectif suivant : trouver un {{color id=\"1\"}}portail{{color id=\"65535\"}} !",
      "EUit": "{{color id=\"1\"}}Chiave{{color id=\"65535\"}} arraffata! Viene con noi al {{color id=\"1\"}}portale{{color id=\"65535\"}}!",
      "EUnl": "{{color id=\"1\"}}Sleutel{{color id=\"65535\"}}? Check! Nu naar de {{color id=\"1\"}}kluis {{color id=\"65535\"}}die ermee opengaat.",
      "EUru": "Статус {{color id=\"1\"}}ключа{{color id=\"65535\"}}: захвачен! Давай отнесем его\nк {{color id=\"1\"}}бункеру{{color id=\"65535\"}}.",
      "JPja": "{{color id=\"1\"}}カギ{{color id=\"65535\"}}ゲット！ {{color id=\"1\"}}ドア{{color id=\"65535\"}}まで持ってこ～",
      "KRko": "{{color id=\"1\"}}열쇠 {{color id=\"65535\"}}획득! {{color id=\"1\"}}도어{{color id=\"65535\"}}로 가져가 보자～",
      "TWzh": "{{color id=\"1\"}}鑰匙{{color id=\"65535\"}}到手！馬上帶去{{color id=\"1\"}}門{{color id=\"65535\"}}那裡吧～",
      "USen": "{{color id=\"1\"}}Key{{color id=\"65535\"}} status: nabbed! Let's take it to the {{color id=\"1\"}}vault{{color id=\"65535\"}}.",
      "USes": "¡{{color id=\"1\"}}Llave {{color id=\"65535\"}}conseguida! Ahora vamos a la {{color id=\"1\"}}bóveda{{color id=\"65535\"}}.",
      "USfr": "Localisation de la {{color id=\"1\"}}clé{{color id=\"65535\"}} : dans la poche!\nObjectif suivant : trouver un {{color id=\"1\"}}portail{{color id=\"65535\"}}!"
    }
  },
  {
    "label": "8defac15-140d-4f00-8d58-4f0825f312b8",
    "locale": {
      "CNzh": "让小鲑鱼一展身手吧。",
      "EUde": "Jetzt ist wohl Salminis großer Auftritt.",
      "EUen": "Guess it's Smallfry's time to shine.",
      "EUes": "Ha llegado la hora de que el cenutrín demuestre\nlo que vale.",
      "EUfr": "C'est le moment pour Salmioche de griller.\nEuh, de briller ! Je voulais dire : « de briller » !",
      "EUit": "È arrivato il momento di Salmonello.",
      "EUnl": "Dit lijkt me een goed moment voor de talenten van\nSalmini.",
      "EUru": "Малетчик, настал твой звездный час.",
      "JPja": "コジャケくんに カツヤクしてもらお",
      "KRko": "꼬마연어가 활약해 주겄제",
      "TWzh": "輪到小鮭魚大顯身手了。",
      "USen": "Guess it's Smallfry's time to shine.",
      "USes": "Llegó el momento de brillar para Escamita.",
      "USfr": "C'est le moment pour Salmio de griller.\nEuh, de briller! Je voulais dire : « de briller »!"
    }
  },
  {
    "label": "90912841-09fe-438f-ba6b-78ce19996432",
    "locale": {
      "CNzh": "小鲑鱼，加油呀——！",
      "EUde": "Du schaffst es, Salmini!",
      "EUen": "You can do it, li'l Smallfry!",
      "EUes": "¡Tú puedes, cenutrín!",
      "EUfr": "Vas-y, p'tit Salmioche ! Tu peux le faire !",
      "EUit": "Puoi farcela, piccolino!",
      "EUnl": "Je kunt het, Salminietje!",
      "EUru": "Давай, малыш!",
      "JPja": "コジャケちゃん、がんばれー！",
      "KRko": "꼬마연어, 파이팅～!",
      "TWzh": "小鮭魚，加油啊——！",
      "USen": "You can do it, li'l Smallfry!",
      "USes": "¡Vamos, Escamita, tú puedes!",
      "USfr": "Vas-y, p'tit Salmio! Tu peux le faire!"
    }
  },
  {
    "label": "9348b884-6799-4d84-a7c3-95442e6fe714",
    "locale": {
      "CNzh": "看来得爬上墙壁呢。",
      "EUde": "Hier sollst du anscheinend die Wand hoch.",
      "EUen": "Looks like you're supposed to climb the wall.",
      "EUes": "Según parece, deberías subir por la pared.",
      "EUfr": "Je crois que l'idée, c'est que t'escalades le mur.",
      "EUit": "A quanto pare, devi risalire quel muro.",
      "EUnl": "Hmm, je zult tegen de muur op moeten zwemmen...",
      "EUru": "Похоже, тебе нужно забраться на самый верх.",
      "JPja": "カベ登ってく感じやね",
      "KRko": "벽을 올라가야겠네잉",
      "TWzh": "看來得爬上牆壁呢。",
      "USen": "Looks like you're supposed to climb the wall.",
      "USes": "Parece que tienes que escalar la pared.",
      "USfr": "Je crois que l'idée, c'est que t'escalades le mur."
    }
  },
  {
    "label": "984e20a6-57b3-41b0-931d-7cc8e8265221",
    "locale": {
      "CNzh": "有好多{{color id=\"1\"}}炸弹气球{{color id=\"65535\"}}和{{color id=\"1\"}}转转开关{{color id=\"65535\"}}哦。",
      "EUde": "Soooo viele {{color id=\"1\"}}Ballonfische {{color id=\"65535\"}}und {{color id=\"1\"}}Drehschalter{{color id=\"65535\"}}...",
      "EUen": "So many {{color id=\"1\"}}balloon fish {{color id=\"65535\"}}and {{color id=\"1\"}}ink switches{{color id=\"65535\"}}...",
      "EUes": "Qué cantidad de {{color id=\"1\"}}peces bomba{{color id=\"65535\"}} y {{color id=\"1\"}}giruptores{{color id=\"65535\"}}...",
      "EUfr": "Ça grouille de {{color id=\"1\"}}fugus explosifs{{color id=\"65535\"}} et d'{{color id=\"1\"}}interruptournes{{color id=\"65535\"}}\ndans le coin...",
      "EUit": "Una marea di {{color id=\"1\"}}pesci bomba{{color id=\"65535\"}} e {{color id=\"1\"}}interruotori{{color id=\"65535\"}}...",
      "EUnl": "Wat veel {{color id=\"1\"}}ballonvissen {{color id=\"65535\"}}en {{color id=\"1\"}}inktschakelaars{{color id=\"65535\"}}...",
      "EUru": "Только гляньте, сколько тут {{color id=\"1\"}}рыбошариков{{color id=\"65535\"}}\nи {{color id=\"1\"}}осьмишеней{{color id=\"65535\"}}!",
      "JPja": "{{color id=\"1\"}}ボム風船{{color id=\"65535\"}}と {{color id=\"1\"}}でんでんスイッチ{{color id=\"65535\"}}が いっぱいあるよ",
      "KRko": "{{color id=\"1\"}}밤 풍선{{color id=\"65535\"}}이랑 {{color id=\"1\"}}둥둥 스위치{{color id=\"65535\"}}가 잔뜩 있어",
      "TWzh": "有好多{{color id=\"1\"}}炸彈氣球{{color id=\"65535\"}}跟{{color id=\"1\"}}轉轉開關{{color id=\"65535\"}}喔。",
      "USen": "So many {{color id=\"1\"}}balloon fish {{color id=\"65535\"}}and {{color id=\"1\"}}ink switches{{color id=\"65535\"}}...",
      "USes": "Qué cantidad de {{color id=\"1\"}}peces bomba{{color id=\"65535\"}} y {{color id=\"1\"}}giruptores{{color id=\"65535\"}}...",
      "USfr": "Ça grouille de {{color id=\"1\"}}fugus explosifs{{color id=\"65535\"}} et d'{{color id=\"1\"}}interruptournes{{color id=\"65535\"}}\ndans le coin..."
    }
  },
  {
    "label": "b0642773-6b2c-4115-9beb-2f1833c02acc",
    "locale": {
      "CNzh": "到啦——！",
      "EUde": "Geschafft!",
      "EUen": "You made it!",
      "EUes": "¡Lo has conseguido!",
      "EUfr": "T'as réussi !",
      "EUit": "Ben fatto!",
      "EUnl": "Het is je gelukt!",
      "EUru": "Получилось!",
      "JPja": "とうちゃくー！",
      "KRko": "도착～!",
      "TWzh": "順利抵達——！",
      "USen": "You made it!",
      "USes": "¡Lo lograste!",
      "USfr": "T'as réussi!"
    }
  },
  {
    "label": "c717bd03-96a7-46f9-ab51-3100b0e5f8fb",
    "locale": {
      "CNzh": "嗯……虽然能看见{{icon id=\"26\" arg=\"0x0000803F00000000\"}}{{color id=\"1\"}}钥匙{{color id=\"65535\"}}了……",
      "EUde": "Hmm, ich sehe einen {{icon id=\"26\" arg=\"0x0000803F00000000\"}} {{color id=\"1\"}}Schlüssel{{color id=\"65535\"}}...\nAber wie kommen wir an ihn ran?",
      "EUen": "Hm, I see that {{icon id=\"26\" arg=\"0x0000803F00000000\"}}{{color id=\"1\"}}key{{color id=\"65535\"}}...but how do we get to it?",
      "EUes": "Mmm... Ahí veo una {{color id=\"1\"}}llave{{color id=\"65535\"}} {{icon id=\"26\" arg=\"0x0000803F00000000\"}}, pero...",
      "EUfr": "OK, je vois bien la {{color id=\"1\"}}clé{{color id=\"65535\"}} {{icon id=\"26\" arg=\"0x0000803F00000000\"}}, mais...\nje vois pas comment tu vas l'atteindre.",
      "EUit": "Mmmh, la {{color id=\"1\"}}chiave {{color id=\"65535\"}}{{icon id=\"26\" arg=\"0x0000803F00000000\"}} la vedo... ma come ci arriviamo?",
      "EUnl": "Hmm, ik zie een {{icon id=\"26\" arg=\"0x0000803F00000000\"}}{{color id=\"1\"}}sleutel{{color id=\"65535\"}}... Maar hoe komen we daar?",
      "EUru": "Вижу {{color id=\"1\"}}ключ{{color id=\"65535\"}} {{icon id=\"26\" arg=\"0x0000803F00000000\"}}... Но как до него добраться?",
      "JPja": "うーん、{{icon id=\"26\" arg=\"0x0000803F00000000\"}}{{color id=\"1\"}}カギ{{color id=\"65535\"}}見えてるけど…",
      "KRko": "으음, {{icon id=\"26\" arg=\"0x0000803F00000000\"}}{{color id=\"1\"}}열쇠{{color id=\"65535\"}}가 보이기는 하는데…",
      "TWzh": "嗯……雖然是看得到{{icon id=\"26\" arg=\"0x0000803F00000000\"}}{{color id=\"1\"}}鑰匙{{color id=\"65535\"}}沒錯……",
      "USen": "Hm, I see that {{icon id=\"26\" arg=\"0x0000803F00000000\"}}{{color id=\"1\"}}key{{color id=\"65535\"}}...but how do we get to it?",
      "USes": "Mmm... Ahí veo una {{color id=\"1\"}}llave{{color id=\"65535\"}} {{icon id=\"26\" arg=\"0x0000803F00000000\"}}, pero...",
      "USfr": "OK, je vois bien la {{color id=\"1\"}}clé{{color id=\"65535\"}} {{icon id=\"26\" arg=\"0x0000803F00000000\"}}, mais...\nje vois pas comment tu vas l'atteindre."
    }
  },
  {
    "label": "ede02543-c556-47ec-89c0-b5df84bad7b1",
    "locale": {
      "CNzh": "芝麻开门！出现{{color id=\"1\"}}跳跃点{{color id=\"65535\"}}了呢。",
      "EUde": "Und da haben wir ein {{color id=\"1\"}}Sprungfeld{{color id=\"65535\"}}!",
      "EUen": "Open for business! Aaand now we have a {{color id=\"1\"}}launchpad{{color id=\"65535\"}}.",
      "EUes": "¡Ábrete, Sésamo! Mira qué bien, ahora tenemos\nun {{color id=\"1\"}}lanzador{{color id=\"65535\"}}.",
      "EUfr": "Sésame, ouvre-toi !\nEt qui c'est qui a trouvé un {{color id=\"1\"}}propulseur{{color id=\"65535\"}} ? C'est nous !",
      "EUit": "Apriti totano! Eeeed ecco un {{color id=\"1\"}}propulsore{{color id=\"65535\"}}.",
      "EUnl": "Open! Ennn... daar is ons {{color id=\"1\"}}lanceerpunt{{color id=\"65535\"}}.",
      "EUru": "Сазан, откройся! А вот и {{color id=\"1\"}}пусковая площадка{{color id=\"65535\"}}!",
      "JPja": "オ～プン！ {{color id=\"1\"}}ジャンプポイント{{color id=\"65535\"}}出たね",
      "KRko": "오픈! {{color id=\"1\"}}점프 포인트{{color id=\"65535\"}}가 나왔어",
      "TWzh": "芝麻開門！出現{{color id=\"1\"}}跳躍點{{color id=\"65535\"}}了呢。",
      "USen": "Open for business! Aaand now we have a {{color id=\"1\"}}launchpad{{color id=\"65535\"}}.",
      "USes": "¡Ábrete, sésamo! Qué chévere,\nahora tenemos un {{color id=\"1\"}}propulsor{{color id=\"65535\"}}.",
      "USfr": "Sésame, ouvre-toi!\nEt qui c'est qui a trouvé un {{color id=\"1\"}}propulseur{{color id=\"65535\"}}? C'est nous!"
    }
  },
  {
    "label": "eff160ab-b2e0-4ad8-81c1-d547b0188e06",
    "locale": {
      "CNzh": "你拿到了！太好啦♪",
      "EUde": "Gut, du hast sie!",
      "EUen": "NICE! You got it!",
      "EUes": "¡Excelente! ¡Lo has conseguido!",
      "EUfr": "BIEN JOUÉ !",
      "EUit": "Ottimo lavoro!",
      "EUnl": "Niet slecht! Wat een talent.",
      "EUru": "ЧУДНЕНЬКО!",
      "JPja": "ナイスゲット♪",
      "KRko": "나이스 캐치♪",
      "TWzh": "很好！到手了♪",
      "USen": "NICE! You got it!",
      "USes": "¡Excelente! ¡Lo conseguiste!",
      "USfr": "BIEN JOUÉ!"
    }
  }
]