[
  {
    "label": "151c3e8e-7f4d-4cb2-a6de-92a845203563",
    "locale": {
      "CNzh": "感觉依旧会不长记性地出现呢……",
      "EUde": "Ich habe so das Gefühl, dass Muri\nihre Lektion nicht gelernt hat...",
      "EUen": "Something tells me Frye hasn't learned her lesson...",
      "EUes": "Me parece que no ha escarmentado aún...",
      "EUfr": "J'ai l'impression qu'Angie n'a pas vraiment retenu\nla leçon...",
      "EUit": "Qualcosa mi dice che Morena non ha\nimparato la lezione...",
      "EUnl": "Ik heb een beetje het gevoel dat Muriël haar lesje nog\nniet heeft geleerd...",
      "EUru": "Думаю, Мурия не из тех, кто усваивает урок\nс первого раза.",
      "JPja": "なんか、しょ～こりもなく出てきそうな予感…",
      "KRko": "왠지 지치지도 않고 또 튀어나올 것 같은 예감이…",
      "TWzh": "總覺得……有種學不乖的傢伙又要出現了的預感……",
      "USen": "Something tells me Frye hasn't learned her lesson...",
      "USes": "Algo me dice que no ha aprendido la lección...",
      "USfr": "J'ai l'impression qu'Angie n'a pas vraiment retenu\nla leçon..."
    }
  },
  {
    "label": "267d4b6a-938e-4299-9114-5c0c237eed1d",
    "locale": {
      "CNzh": "深处有强烈反应！！\n说不定是爷爷呢！",
      "EUde": "Ich empfange ein starkes Signal.\nDas könnte Opa sein!",
      "EUen": "I'm getting a strong reading up ahead.\nIt might be Gramps!",
      "EUes": "¡Recibo una señal muy intensa! ¡Podría tratarse\ndel abuelo!",
      "EUfr": "Je détecte un signal puissant juste devant nous.\nC'est peut-être Papi !",
      "EUit": "Sto captando un forte segnale più avanti.\nPotrebbe essere il nonno!",
      "EUnl": "Er komt een krachtig signaal daarvandaan! Misschien\nis het opa!",
      "EUru": "Из этого места поступает сильный сигнал.\nДолжно быть, это деда!",
      "JPja": "おくの方に強い反応があるよ！！\nじーちゃんかも！",
      "KRko": "안쪽에 강한 반응이 있어!!\n할아버지일지도 몰라!",
      "TWzh": "裡面傳出了強烈的反應耶！！\n說不定是爺爺！",
      "USen": "I'm getting a strong reading up ahead.\nIt might be Gramps!",
      "USes": "¡Recibo una señal muy intensa! ¡Podría ser del abuelo!",
      "USfr": "Je détecte un signal puissant juste devant nous.\nC'est peut-être Papi!"
    }
  },
  {
    "label": "2a75389a-0b6e-451f-ad5e-1d77b42ff0ea",
    "locale": {
      "CNzh": "呀！",
      "EUde": "HEY! WAS SOLL DAS?!",
      "EUen": "GAH! WHAT GIVES?!",
      "EUes": "¡Uaaah!",
      "EUfr": "Argh ! C'est quoi, ce délire ?",
      "EUit": "GAH! MA CHE SUCCEDE?!",
      "EUnl": "HÉ! WAT MOET DAT?!",
      "EUru": "МЕНЯ-ТО ЗА ЧТО?",
      "JPja": "うぎゃっ！",
      "KRko": "으악!",
      "TWzh": "呀！",
      "USen": "GAH! WHAT GIVES?!",
      "USes": "¡Uaaah!",
      "USfr": "Argh! C'est quoi, ce délire?"
    }
  },
  {
    "label": "2f60a2c2-89a7-4416-9256-6d770f0cf5c4",
    "locale": {
      "CNzh": "海鳗的数量好像会随着击倒而变少哦。\n尽可能减少海鳗的数量吧！",
      "EUde": "Besiegte Muränen kommen anscheinend nicht wieder!\nErledige so viele, wie du nur kannst!",
      "EUen": "Looks like her eels stay down after you defeat 'em.\nTake out as many as you can!",
      "EUes": "Parece que van quedando menos morenas a medida que\nlas atacas. ¡Deshazte de todas las que puedas!",
      "EUfr": "Plus tu élimines d'anguilles, moins il y en a.\nAlors dégommes-en un max !",
      "EUit": "Sembra che le murene diminuiscano se le\nsconfiggi. Elimina tutte quelle che puoi!",
      "EUnl": "Als je haar alen verslaat, lijken ze niet meer terug te\nkomen. Ruim er zoveel op als je kunt!",
      "EUru": "А муренки-то не вечные. Чем больше плюхнешь, тем\nлучше!",
      "JPja": "ウツボの数は、倒していけば少しずつ減るっぽいよ\nなるべく減らしてこ！",
      "KRko": "곰치는 쓰러뜨리다 보면 조금씩 줄어드나 봐\n가능한 한 줄여 보자!",
      "TWzh": "海鰻的數量似乎會隨著被擊倒而逐漸減少喔！\n就先盡可能地削減數量吧！",
      "USen": "Looks like her eels stay down after you defeat 'em.\nTake out as many as you can!",
      "USes": "Parece que van quedando menos anguilas a medida que\nlas atacas. ¡Acaba con todas las que puedas!",
      "USfr": "Plus tu élimines d'anguilles, moins il y en a.\nAlors, dégommes-en un max!"
    }
  },
  {
    "label": "3a5d243a-5687-468a-b040-494f3c747fe3",
    "locale": {
      "CNzh": "二之舞！海鳗大旋涡！！",
      "EUde": "Zweites Tänzchen! Muränenwirbel!",
      "EUen": "Second dance! Moray Whirlpool!",
      "EUes": "¡Segunda coreografía! ¡Remolino de morenas!",
      "EUfr": "Deuxième choré !\nL'ouragan d'anguilles !",
      "EUit": "Seconda danza! Vortice muredine!",
      "EUnl": "De tweede dans! De murenemaalstroom!",
      "EUru": "Второй танец! Муреноворот!",
      "JPja": "二の舞！ ウツボ大うず！！",
      "KRko": "두 번째 춤! 곰치 거대 소용돌이!!",
      "TWzh": "二之舞！海鰻大漩渦！！",
      "USen": "Second dance! Moray Whirlpool!",
      "USes": "¡Segunda coreografía! ¡Remolino de anguilas!",
      "USfr": "Deuxième danse!\nL'ouragan d'anguilles!"
    }
  },
  {
    "label": "4cee2126-02b2-4881-850d-b9fd8df33feb",
    "locale": {
      "CNzh": "3号，去看看吧！",
      "EUde": "Schau dir das mal näher an, Nr. 3!",
      "EUen": "Go check it out, Agent 3!",
      "EUes": "¡Vamos, Agente 3!",
      "EUfr": "Va vérifier, Numéro 3 !",
      "EUit": "Vai a controllare, Numero 3!",
      "EUnl": "Ga een kijkje nemen, agent 3!",
      "EUru": "Скорее глянь, что там, агент 003!",
      "JPja": "３号、行ってみよ！",
      "KRko": "3호, 가 보자!",
      "TWzh": "3號，去看看吧！",
      "USen": "Go check it out, Agent 3!",
      "USes": "¡Vamos, Agente 3!",
      "USfr": "Va vérifier, Numéro 3!"
    }
  },
  {
    "label": "58291d68-a1ff-4d42-b0f5-3cd9fd73f8b0",
    "locale": {
      "CNzh": "喂、喂！被击倒就被击倒！\n别飞回我这里来啊！！",
      "EUde": "Aua! Hey! Was wollt ihr denn von MIR?!",
      "EUen": "HEY! Take your hits like an eel! Don't fly back at ME!",
      "EUes": "¡Eh, eh! Si os hacen daño, aguantad como morenas\nhechas y derechas. ¡No salgáis disparadas hacia mí!",
      "EUfr": "Hé oh ! Quand tu prends un gnon, t'encaisses !\nTu me retombes pas dessus !",
      "EUit": "Ehi! Comportatevi da vere murene!\nNon tornate strisciando da ME!",
      "EUnl": "Hé! Vlieg eens niet tegen mij aan als je wordt geraakt!\nBotte platvis!",
      "EUru": "Эй, вы! Сражайтесь, как настоящие мурены!",
      "JPja": "こ、こら！ やられたからって\nぶっ飛んで もどってくるでない！！",
      "KRko": "예, 예끼! 당했다고\n이리로 튀어 오면 어떻게 하느냐!!",
      "TWzh": "喂！搞什麼！\n就算被打倒了也別飛回我這裡啊！！",
      "USen": "HEY! Take your hits like an eel! Don't fly back at ME!",
      "USes": "¡Eeey! Si les hacen daño, aguanten como anguilas.\n¡No salgan disparadas hacia mí!",
      "USfr": "Hé oh! Quand tu prends une baffe, t'encaisses!\nTu me retombes pas dessus!"
    }
  },
  {
    "label": "5dd9563c-d707-49ae-8b07-9e48168f55e0",
    "locale": {
      "CNzh": "呜？！",
      "EUde": "GAAAH! DOCH NICHT MICH!",
      "EUen": "No! Don't hit ME!",
      "EUes": "¡A mí nooo!",
      "EUfr": "AAHH ! PAS MOI !",
      "EUit": "AAAH! NON COLPITE ME!",
      "EUnl": "Nee, je moet MIJ niet slaan!",
      "EUru": "А-А-А! ДА НЕ МЕНЯ БЕЙТЕ!",
      "JPja": "ぎょえ？！",
      "KRko": "끄엑?!",
      "TWzh": "唔！？",
      "USen": "No! Don't hit ME!",
      "USes": "¡A mí nooo!",
      "USfr": "AAHH! PAS MOI!"
    }
  },
  {
    "label": "66d77b55-c697-4fde-a102-f63bea3c9078",
    "locale": {
      "CNzh": "击溃敌人吧——！！",
      "EUde": "Macht aus dieser Nervensäge Fischpaste!",
      "EUen": "Grind this fool into PASTE!",
      "EUes": "¡Aplastad a esa sabandija!",
      "EUfr": "Réduisez-moi cette demi-portion en charpie !",
      "EUit": "Voglio vedere quel mollusco ridotto a una polpetta!",
      "EUnl": "Maal die snotolf tot moes!",
      "EUru": "Смешайте их всех с краской, муренки!",
      "JPja": "すりつぶせぇーい！！",
      "KRko": "으깨 버리거라!!",
      "TWzh": "把他們擊潰吧——！！",
      "USen": "Grind this fool into PASTE!",
      "USes": "¡Aplasten a esa sabandija!",
      "USfr": "Réduisez-moi cette demi-portion en charpie!"
    }
  },
  {
    "label": "68004ec0-a704-416d-b1e0-483be441f859",
    "locale": {
      "CNzh": "嘿呀，继续！",
      "EUde": "Okay, weiter!",
      "EUen": "Mixin' it up!",
      "EUes": "Veamos...",
      "EUfr": "Attaque suivante !",
      "EUit": "Cambiamo disco!",
      "EUnl": "Wisselen!",
      "EUru": "Мой ход!",
      "JPja": "そぉれ、次じゃ！",
      "KRko": "자, 다음 차례니라!",
      "TWzh": "喝！再來！",
      "USen": "Mixin' it up!",
      "USes": "Veamos...",
      "USfr": "Attaque suivante!"
    }
  },
  {
    "label": "76d96cc6-4f03-4468-9f64-27dae9785d2b",
    "locale": {
      "CNzh": "“稍微教训一下她吧！”\n司令是这么说的哦！",
      "EUde": "Käpt'n ist voll begeistert!\n„Mach sie lang, die Muränen!“",
      "EUen": "\"Make those eels squeal!\" Wow, the Captain\nis fired up.",
      "EUes": "«Dale lo que se merece», dice {{string value=\"11\" arg1=\"20\" arg3=\"101\"}}.",
      "EUfr": "L'amiral{{string value=\"11\" arg1=\"0\" arg3=\"2\"}} est tout feu, tout flamme !\n« Continue ! De fil en anguille, tu finiras par l'avoir ! »",
      "EUit": "{{string value=\"11\" arg1=\"4\" arg3=\"73\"}} capitan{{string value=\"11\" arg1=\"2\" arg3=\"111\"}} suona la carica! \"Colpisci\nquei brutti muri... musi delle murene!\"",
      "EUnl": "De kapitein klinkt nogal fanatiek! \"Kielhalen die alen!\"",
      "EUru": "Даже капитан в предвкушении!\nГоворит, «Бей мурен!»",
      "JPja": "「少々 こらしめてやれ！」\nと司令は言っとるよ！",
      "KRko": "「따끔한 맛을 좀 보여 줘!」\n라고 사령관님이 그러시는구마잉!",
      "TWzh": "「就稍微教訓他一下吧！」\n司令是這麼說的喔！！",
      "USen": "\"Make those eels squeal!\" Wow, the Captain\nis fired up.",
      "USes": "\"Dale lo que se merece\", dice {{string value=\"11\" arg1=\"20\" arg3=\"101\"}}.",
      "USfr": "L'amiral{{string value=\"11\" arg1=\"0\" arg3=\"2\"}} est tout feu, tout flamme!\n« Continue! De fil en anguille, tu finiras par l'avoir! »"
    }
  },
  {
    "label": "77599259-3f1b-424b-9086-08c6b1a9da1e",
    "locale": {
      "CNzh": "啊！好——再来1次！",
      "EUde": "Okay, okay! alles wieder auf Anfang!",
      "EUen": "OK, OK! Let's take it from the top!",
      "EUes": "¡Venga, sin desanimarte!",
      "EUfr": "OK, c'est pas grave ! Réessaie !",
      "EUit": "Non importa! Riprovaci!",
      "EUnl": "Oké, dat proberen we opnieuw!",
      "EUru": "Ой-ой! Давай попробуем еще раз!",
      "JPja": "あ！ よーし、もう１回だ！",
      "KRko": "아! 괜찮아, 다시 한번 해 보자!",
      "TWzh": "啊！很好，再來一次！",
      "USen": "OK, OK! Let's take it from the top!",
      "USes": "¡Vamos, no te desanimes!",
      "USfr": "OK, c'est pas grave! Réessaie!"
    }
  },
  {
    "label": "80481d73-ade2-4d9d-af66-a411d6698f73",
    "locale": {
      "CNzh": "一之舞！五月雨鳗！！",
      "EUde": "Erstes Tänzchen! Muränenregen!",
      "EUen": "First dance! Eel Downpour!",
      "EUes": "¡Primera coreografía! ¡Lluvia de morenas!",
      "EUfr": "Première choré !\nLe déluge d'anguilles !",
      "EUit": "Prima danza! Diluvio murenide!",
      "EUnl": "De eerste dans! Alenstralen!",
      "EUru": "Первый танец! Муренопад!",
      "JPja": "一の舞！ 五月雨ウツボ！！",
      "KRko": "첫 번째 춤! 곰치 장마!!",
      "TWzh": "一之舞！五月雨鰻！！",
      "USen": "First dance! Eel Downpour!",
      "USes": "¡Primera coreografía! ¡Lluvia de anguilas!",
      "USfr": "Première danse!\nLe déluge d'anguilles!"
    }
  },
  {
    "label": "805c1aa2-0182-4cc5-ab6f-0d774a5525bf",
    "locale": {
      "CNzh": "趁现在，3号！",
      "EUde": "Los, Nr. 3!",
      "EUen": "Go now, Agent 3!",
      "EUes": "¡Ahora, Agente 3!",
      "EUfr": "Vas-y, Numéro 3 ! Maintenant !",
      "EUit": "Ora, Numero 3!",
      "EUnl": "Hoppa, agent 3!",
      "EUru": "Сейчас, агент 003!",
      "JPja": "今だよ、３号！",
      "KRko": "지금이야, 3호!",
      "TWzh": "就趁現在，3號！",
      "USen": "Go now, Agent 3!",
      "USes": "¡Ahora, Agente 3!",
      "USfr": "Vas-y, Numéro 3! Maintenant!"
    }
  },
  {
    "label": "84c9343c-f968-4176-849b-0cf0d73ccbf1",
    "locale": {
      "CNzh": "啊哈哈！真有精神啊——",
      "EUde": "Ahaha! Da hast du wahrscheinlich recht!\nDie kennt da wahrscheinlich nix!",
      "EUen": "Ahaha! You're probably right. She's a feisty one.",
      "EUes": "¡Ja, ja, ja! Nos lo va a poner difícil.",
      "EUfr": "Ha ha ha ! En effet ! Je suis sûre qu'elle pourra\npas résister à une bonne séance de castagne.",
      "EUit": "Ah ah ah! Mi sa che hai ragione.\nHa spina dorsale da vendere!",
      "EUnl": "Ahaha! Je hebt vast gelijk. Dat is een pittig juffertje.",
      "EUru": "Ха-ха! Должно быть, так и есть.\nПылкий же у нее нрав!",
      "JPja": "アハハ！ 元気だもんねー",
      "KRko": "아하하! 그 녀석 기운 넘치지～",
      "TWzh": "哈哈哈！畢竟他很有活力嘛～",
      "USen": "Ahaha! You're probably right. She's a feisty one.",
      "USes": "¡Je, je! Nos lo va a poner difícil.",
      "USfr": "Ha ha ha! En effet! Je suis sûre qu'elle pourra\npas résister à une bonne séance de castagne."
    }
  },
  {
    "label": "9f507447-c945-4cbb-92e8-30ca19d64e90",
    "locale": {
      "CNzh": "产生反应的就是这个吗……\n说不定以后有用，总之先收下吧。",
      "EUde": "Oh, das Signal kommt von diesem Dings da.\nNa, nach dem Kampf kannst du's dir ruhig schnappen.",
      "EUen": "Oh. The reading was coming from...this thing.\nWell, we fought for it, so nab it anyway!",
      "EUes": "¿Eh? ¿Sería esto lo que emitía la señal?\nBueno, al menos nos podrá servir para algo.",
      "EUfr": "Oh, c'est ça qui émettait le signal. Bon, ben t'as assez\nlutté pour le récupérer, alors prends-le, maintenant !",
      "EUit": "Oh. Quel segnale veniva da questo affare. Beh,\ndopo tutta la fatica fatta... direi di intascarcelo!",
      "EUnl": "O, dat signaal kwam van dit geval. Nou ja, we hebben\nerom gevochten, dus laten we het maar meenemen!",
      "EUru": "Значит, сигнал шел от этой штуки. Ну, зря дрались,\nчто ли? Хватай ее!",
      "JPja": "反応してたのはコレか…\n使えるかもしれんし、とりま いただいとこ",
      "KRko": "여기서 반응이 나왔나 보네…\n쓸 수 있을지도 모르니까 일단 챙겨 가자",
      "TWzh": "原來發出反應的是這個東西啊……\n之後說不定能派上用場，就先收起來吧。",
      "USen": "Oh. The reading was coming from...this thing.\nWell, we fought for it, so nab it anyway!",
      "USes": "¿Eh? ¿Sería esto lo que emitía la señal?\nBueno, quizá nos sirva para algo.",
      "USfr": "Oh, c'est ça qui émettait le signal. Bon, ben t'as assez\nlutté pour le récupérer, alors prends-le, maintenant!"
    }
  },
  {
    "label": "a1800bfb-698e-47d7-ab51-5e0e21b7a8c2",
    "locale": {
      "CNzh": "如果感到困难的话，不妨去强化英雄装备哦。",
      "EUde": "Wenn ein Kampf zu schwierig ist, hilft es vielleicht,\ndeine Heldenausrüstung zu verbessern.",
      "EUen": "If this fight is too tough, upgrading your Hero Gear\nmight help a whooole lot.",
      "EUes": "Si estás pasando apuros, sería buena idea que mejores\ntu equipamiento de élite.",
      "EUfr": "Si tu galères trop, ça peut valoir le coup d'améliorer\nton équipement héroïque.",
      "EUit": "Se questo scontro è troppo difficile, potrebbe\nessere un'idea potenziare il tuo equipaggiamento élite.",
      "EUnl": "Als het niet wil lukken in het gevecht, dan kan het\nhelpen om je heldenuitrusting te verbeteren.",
      "EUru": "Если бой идет тяжело, советую улучшить свой\nнабор героя.",
      "JPja": "キツいなら、ヒーローそうびを強化するのも アリだかんね",
      "KRko": "버겁다면 히어로 장비를 강화해 보드라고",
      "TWzh": "遇到瓶頸時，不妨去強化一下英雄裝備吧。",
      "USen": "If this fight is too tough, upgrading your Hero Gear\nmight help a whooole lot.",
      "USes": "Si te encuentras en problemas, sería buena idea\nque mejores tu equipamiento de élite.",
      "USfr": "Si t'as trop de misère, ça peut valoir la peine\nd'améliorer ton équipement héroïque."
    }
  },
  {
    "label": "a825165b-4176-4076-bd74-e5edccc19b0b",
    "locale": {
      "CNzh": "终之舞！海鳗大翻身！！",
      "EUde": "Letztes Tänzchen! Muränentransformation!",
      "EUen": "Final dance! Great Moray Transformation!",
      "EUes": "¡Coreografía final! ¡La gran transformación anguilera!",
      "EUfr": "Et la choré ultime...\nLa mégamorphose de l'anguille !",
      "EUit": "Danza finale! Gran trasformazione murenide!",
      "EUnl": "Laatste dans! Murenemetamorfose!",
      "EUru": "Финальный танец! Муреноморфоз!",
      "JPja": "終の舞！ ウツボ大転身！！",
      "KRko": "마지막 춤! 곰치 대변신!!",
      "TWzh": "終之舞！海鰻大翻身！！",
      "USen": "Final dance! Great Moray Transformation!",
      "USes": "¡Coreografía final! ¡La gran transformación anguilera!",
      "USfr": "Et la danse ultime...\nLa mégamorphose de l'anguille!"
    }
  },
  {
    "label": "ae1193c4-0bf1-4036-85d9-3cfa465c19f3",
    "locale": {
      "CNzh": "三之舞！海鳗百景！！",
      "EUde": "Drittes Tänzchen! Multi-Muränenvision!",
      "EUen": "Third dance! Hundred-Eel Vision!",
      "EUes": "¡Tercera coreografía! ¡Morenas en perspectiva!",
      "EUfr": "Troisième choré !\nLa danse de cent anguilles !",
      "EUit": "Terza danza! Centocchi murenidi!",
      "EUnl": "De derde dans! De honderd-alen-wals!",
      "EUru": "Третий танец! Взгляд тысячи мурен!",
      "JPja": "三の舞！ ウツボ百景！！",
      "KRko": "세 번째 춤! 곰치 백경!!",
      "TWzh": "三之舞！海鰻百景！！",
      "USen": "Third dance! Hundred-Eel Vision!",
      "USes": "¡Tercera coreografía! ¡Anguilas en perspectiva!",
      "USfr": "Troisième danse!\nLa danse de cent anguilles!"
    }
  },
  {
    "label": "c7fc3a1d-2276-480b-9771-3acd94d83b31",
    "locale": {
      "CNzh": "啊——！无法保持平衡了！！",
      "EUde": "GWAH! Du bringst mich aus der Balance!",
      "EUen": "GWAH! You threw my balance off!",
      "EUes": "¡Agggh! Que pierdo el equilibrio...",
      "EUfr": "Argh ! Tu m'as fait perdre l'équilibre !",
      "EUit": "ARGH! Ho perso l'equilibrio!",
      "EUnl": "BAH! Je brengt me uit balans!",
      "EUru": "АЙ-АЙ-АЙ! Я сбилась с ритма...",
      "JPja": "ぐわーッ！ バランスが！！",
      "KRko": "끄악～! 균형이!!",
      "TWzh": "唔哇——！失去平衡了！！",
      "USen": "GWAH! You threw my balance off!",
      "USes": "¡Agggh! Pierdo el equilibrio...",
      "USfr": "Argh! Tu m'as fait perdre l'équilibre!"
    }
  },
  {
    "label": "e051e1fb-0574-4701-bb33-bd59513cf7bc",
    "locale": {
      "CNzh": "有本事就踏破这巨浪吧！",
      "EUde": "Wie schmeckt dir diese Welle, hä?",
      "EUen": "Surf THIS wave, hotshot!",
      "EUes": "¡Intenta sortear esta ola si puedes!",
      "EUfr": "Essaie un peu de négocier cette vague !",
      "EUit": "Doma questa, di onda, fenomeno!",
      "EUnl": "Dit is een golfje naar mijn hand!",
      "EUru": "Лови волну, дорогуша!",
      "JPja": "この大波、乗りこなしてみよ！",
      "KRko": "이 거대한 파도를 다스려 보거라!",
      "TWzh": "有本事就來戰勝這片巨浪吧！",
      "USen": "Surf THIS wave, hotshot!",
      "USes": "¡Intenta navegar esta ola si puedes!",
      "USfr": "Essaie un peu de négocier cette vague!"
    }
  },
  {
    "label": "e9749077-cca7-40c7-aa9e-251fe320ace9",
    "locale": {
      "CNzh": "凶狠的海鳗被教训一顿之后，\n好像会飞回她身边呢。",
      "EUde": "Wart mal! Wenn du die dunkeläugigen Muränen triffst,\nfliegen sie Richtung Muri und lassen dich in Ruhe!",
      "EUen": "Ooo, hey! If you beat up the masked eels, they'll hit\nher instead of you!",
      "EUes": "¡Fíjate! Si atacas a esas morenas horripilantes,\n¡es la chica quien termina recibiendo el golpe!",
      "EUfr": "Eh ?! Si tu t'acharnes sur les anguilles masquées,\nelles se retournent contre Angie !",
      "EUit": "Ah! Se malmeni le murene mascherate,\ncolpiranno lei invece di te!",
      "EUnl": "Wacht eens! Als je de gemaskerde alen raakt, vallen die\nhaar lastig in plaats van jou!",
      "EUru": "Ух ты! Если побеждаешь мурен в масках, они\nатакуют ее, а не тебя!",
      "JPja": "コワモテのウツボ とっちめると、\nあのコの方へ飛んでくみたいやね",
      "KRko": "무섭게 생긴 곰치를 혼내 주면\n저 아이 쪽으로 날아가나 보네잉",
      "TWzh": "凶神惡煞的海鰻被修理一頓之後，\n好像就會飛去那個人的身邊耶。",
      "USen": "Ooo, hey! If you beat up the masked eels, they'll hit\nher instead of you!",
      "USes": "¡Mira! Si atacas a esas anguilas horripilantes,\n¡es la chica quien termina recibiendo el golpe!",
      "USfr": "Eh? Si tu t'acharnes sur les anguilles\nmasquées, elles se retournent contre Angie!"
    }
  },
  {
    "label": "eac1d387-ba77-4938-95ce-1d12f1606d89",
    "locale": {
      "CNzh": "接招吧！我要好好教训教训你——！",
      "EUde": "Vollgas, ha ha!",
      "EUen": "Ready or not, here we come!",
      "EUes": "¡Jo, jo, jo! ¡Te vas a enterar!",
      "EUfr": "Tu vas le sentir passer !",
      "EUit": "Oh oh oh! Ti splatto come una frittella!",
      "EUnl": "Hier komen we!",
      "EUru": "Ну, сейчас я тебе задам!",
      "JPja": "そらそら！ けちらしてやるのじゃー！",
      "KRko": "어기여차! 쓸어버리거라～!",
      "TWzh": "接招！看我怎樣修理你！",
      "USen": "Ready or not, here we come!",
      "USes": "¡Aquí voooy!",
      "USfr": "Tu vas le sentir passer!"
    }
  },
  {
    "label": "f049e3fe-26a4-4a01-8ba5-89278a6d3c41",
    "locale": {
      "CNzh": "好机会～♪",
      "EUde": "Das ist deine Chaaa-aaance! ♪",
      "EUen": "♪Now's your chaaa-aaance!♪",
      "EUes": "♪ ¡Es tu oportunidaaad! ♪",
      "EUfr": "♪ C'est le momeeeent ! ♪",
      "EUit": "♪ Ecco la tua occa-a-a-sione! ♪",
      "EUnl": "Dit is je ka-aaaans! ♪",
      "EUru": "♪ Это твой ша-а-анс! ♪",
      "JPja": "チャ～ンス♪",
      "KRko": "찬스다～♪",
      "TWzh": "好機會～♪",
      "USen": "♪Now's your chaaa-aaance!♪",
      "USes": "♪ ¡Es tu oportunidaaad! ♪",
      "USfr": "♪ C'est le momeeeent! ♪"
    }
  }
]