[
  {
    "label": "07157ae0-f5a2-40b1-bf79-29fd6b9e2b32",
    "locale": {
      "CNzh": "啊，看见终点了——！",
      "EUde": "Da ist das Ziel!",
      "EUen": "There's the goal!",
      "EUes": "¡Ahí está la meta!",
      "EUfr": "Arrivée en vue !",
      "EUit": "Ecco il traguardo!",
      "EUnl": "Daar is het doel!",
      "EUru": "Вон цель!",
      "JPja": "あっ、ゴール見えたー！",
      "KRko": "오, 골이 보여～!",
      "TWzh": "哦，可以看到終點了！",
      "USen": "There's the goal!",
      "USes": "¡Ahí está la meta!",
      "USfr": "Arrivée en vue!"
    }
  },
  {
    "label": "118ccb28-35cc-4a4d-a150-dbfe49febc69",
    "locale": {
      "CNzh": "咻咻——！！",
      "EUde": "JUCHHU!",
      "EUen": "YAAA-HOOO!",
      "EUes": "¡Yujuuu!",
      "EUfr": "YOUHOOOOUUU !",
      "EUit": "IIIIIIIH-AAAAH!",
      "EUnl": "Wiiiiieeeee!",
      "EUru": "ЙО-ХО-О-О!!!",
      "JPja": "バビューン！！",
      "KRko": "피융～!!",
      "TWzh": "咻——！！",
      "USen": "YAAA-HOOO!",
      "USes": "¡Yujuuu!",
      "USfr": "YOUHOOOOUUU!"
    }
  },
  {
    "label": "2dd83675-f929-4b79-b834-19af163fabde",
    "locale": {
      "CNzh": "景色真美啊～",
      "EUde": "Eigentlich ganz hübsch hier.",
      "EUen": "Gotta admit it's kinda pretty here.",
      "EUes": "Hala, qué bonito es esto...",
      "EUfr": "Ma foi, je dois dire que c'est pas trop moche par ici.",
      "EUit": "Questo è un bel posto, lo ammetto.",
      "EUnl": "Het is hier eigenlijk best mooi, hè?",
      "EUru": "А здесь мило.",
      "JPja": "いい景色やね～",
      "KRko": "경치 좋구마잉～",
      "TWzh": "景色好美喔～",
      "USen": "Gotta admit it's kinda pretty here.",
      "USes": "Ay, qué bonito es esto...",
      "USfr": "Ma foi, je dois dire que c'est pas trop moche par ici."
    }
  },
  {
    "label": "4573fb3f-f2b4-42d3-8289-1641ac1b013a",
    "locale": {
      "CNzh": "呜——好高啊——",
      "EUde": "Hier findet man auf jeden Fall raus,\nob man Höhenangst hat.",
      "EUen": "Wow! That's one way to find out if you're afraid\nof heights...",
      "EUes": "Si te dan miedo las alturas... ahora lo comprobaremos.",
      "EUfr": "Ouah ! Si j'étais pas sûre d'avoir le vertige,\nje suis fixée maintenant !",
      "EUit": "Wow! Ottimo modo per scoprire se\nsoffri di vertigini...",
      "EUnl": "Dit is een leuke plek om uit te vissen of je\nhoogtevrees hebt.",
      "EUru": "Так тоже можно узнать, кто боится\nвысоты, а кто — нет.",
      "JPja": "ひぇー、高いよー",
      "KRko": "히익～ 높다～",
      "TWzh": "咿～好高喔～",
      "USen": "Wow! That's one way to find out if you're afraid\nof heights...",
      "USes": "Si te dan miedo las alturas... ahora nos\nvamos a enterar.",
      "USfr": "Ouah! Si j'étais pas sûre d'avoir le vertige,\nje suis fixée maintenant!"
    }
  },
  {
    "label": "a6908cfd-7cd4-436b-9652-758dae02b547",
    "locale": {
      "CNzh": "用{{color id=\"1\"}}触手喷射{{color id=\"65535\"}}\n朝着顶部出发吧——！",
      "EUde": "Benutz den {{color id=\"1\"}}Haftsprung{{color id=\"65535\"}} und dann ab nach oben!",
      "EUen": "Well, this should be fun. Get ready to ride\nyour {{color id=\"1\"}}Zipcaster {{color id=\"65535\"}}all the way to the top!",
      "EUes": "¡Intenta llegar a lo alto usando el {{color id=\"1\"}}gancho tentacular{{color id=\"65535\"}}!",
      "EUfr": "Je sens qu'on va s'calamarrer. Allez, prépare\nle {{color id=\"1\"}}Super Mollusque{{color id=\"65535\"}} et en route pour le sommet !",
      "EUit": "Beh, vedrai che ti divertirai. Preparati\na salire in cima con il {{color id=\"1\"}}molluscatto{{color id=\"65535\"}}!",
      "EUnl": "Dit wordt leuk. Gebruik je {{color id=\"1\"}}Tentakabel {{color id=\"65535\"}}om helemaal naar\nboven te tentakabelen!",
      "EUru": "Сейчас пошевелим щупальцами! Хватайся за\n{{color id=\"1\"}}краскотрос{{color id=\"65535\"}} и айда наверх!",
      "JPja": "{{color id=\"1\"}}ショクワンダー{{color id=\"65535\"}}で、てっぺん目指してこー！",
      "KRko": "{{color id=\"1\"}}쇼크 원더{{color id=\"65535\"}}로\n꼭대기를 향해 가자～!",
      "TWzh": "利用{{color id=\"1\"}}觸手噴射{{color id=\"65535\"}}\n朝著頂層邁進吧——！",
      "USen": "Well, this should be fun. Get ready to ride\nyour {{color id=\"1\"}}Zipcaster {{color id=\"65535\"}}all the way to the top!",
      "USes": "¡Intenta llegar a lo alto usando el {{color id=\"1\"}}gancho tentacular{{color id=\"65535\"}}!",
      "USfr": "Je sens qu'on va s'calmarrer. Allez, prépare\nle {{color id=\"1\"}}Super Mollusque{{color id=\"65535\"}} et en route pour le sommet!"
    }
  },
  {
    "label": "d2dd5294-043f-4f95-ae64-eda4cabcf6fb",
    "locale": {
      "CNzh": "幻界的天空也很美呢～",
      "EUde": "Wirklich ein schöner Himmel...\nObwohl er nicht echt ist.",
      "EUen": "The sky is real pretty and pretty real.\nEven though it's fake.",
      "EUes": "El cielo de Alterna es precioso, ¿no te parece?\nAunque sea falso...",
      "EUfr": "Y a pas à dire, le ciel d'Alterna est magnifique...\net il a l'air tellement vrai... pour un faux ciel.",
      "EUit": "Il cielo è davvero bello e davvero vero.\nAnche se è finto.",
      "EUnl": "Wat ziet de lucht er ontzettend mooi en echt uit, hè?\nVoor een neplucht.",
      "EUru": "Какое красивое здесь небо...\nЖаль только, не настоящее.",
      "JPja": "オルタナの空も キレイやね～",
      "KRko": "얼터너의 하늘도 아름답구마잉～",
      "TWzh": "幻界的天空也很漂亮耶～",
      "USen": "The sky is real pretty and pretty real.\nEven though it's fake.",
      "USes": "El cielo de Alterna es precioso, ¿no crees?\nAunque sea falso...",
      "USfr": "Y'a pas à dire, le ciel d'Alterna est magnifique...\net il a l'air tellement vrai... pour un faux ciel."
    }
  },
  {
    "label": "d5c9f363-55e1-48ad-9a55-6a912f3db305",
    "locale": {
      "CNzh": "能降落的地方好像很少，\n所以要小心一点往上爬哦。",
      "EUde": "Also, ich sag’s mehr, um mich selbst zu beruhigen,\naber... Rutsch nicht ab, okay?",
      "EUen": "Hey, uh... Whatever you do, don't slip.",
      "EUes": "Oh, oh... Hagas lo que hagas, procura no resbalarte.",
      "EUfr": "Bon... Fais ce que tu veux, mais évite de glisser.",
      "EUit": "Ehi, uhm... Fai quello che vuoi, ma non finire a mollo.",
      "EUnl": "Wat je ook doet... niet vallen, hoor!",
      "EUru": "Хм, наверное, ты и так знаешь, что и как,\nно постарайся не поскользнуться, ладно?",
      "JPja": "下りられるところ少なそうだから、\n気をつけて登ってかんとね",
      "KRko": "발을 디딜 수 있는 곳이 적어 보이니까\n조심해서 올라가야겠네잉",
      "TWzh": "能下降的地方好像很少，\n所以往上爬的時候得小心點喔。",
      "USen": "Hey, uh... Whatever you do, don't slip.",
      "USes": "Oh, oh... Hagas lo que hagas, procura no resbalarte.",
      "USfr": "Bon... Fais ce que tu veux, mais évite de glisser."
    }
  },
  {
    "label": "f5fe1031-2ad8-4382-922e-6af26393ba62",
    "locale": {
      "CNzh": "好高！",
      "EUde": "Wenn ich dir so zusehe,\nwird mir ganz schwindlig, Nr. 3!",
      "EUen": "You're making me dizzy, Agent 3!",
      "EUes": "Uf... Me estoy mareando, Agente 3.",
      "EUfr": "Tu me fais tourner la tête, Numéro 3 !",
      "EUit": "Mi fai venire le vertigini, Numero 3!",
      "EUnl": "Ik word hier ontzettend duizelig van, agent 3!",
      "EUru": "Ох, агент 003, у меня голова кружится!",
      "JPja": "高ッ…！",
      "KRko": "무지 높아…!",
      "TWzh": "好高！",
      "USen": "You're making me dizzy, Agent 3!",
      "USes": "Uf... Me estoy mareando, Agente 3.",
      "USfr": "Tu me fais tourner la tête, Numéro 3!"
    }
  }
]