[
  {
    "label": "0031c3f3-5ff7-4173-8ebe-fb7b256d5bad",
    "locale": {
      "CNzh": "按住{{icon id=\"12\" arg=\"0x0000803F00000000\"}}可以一边涂地一边移动哦。",
      "EUde": "Sieht aus, als könnte man hier einfach\n{{icon id=\"12\" arg=\"0x0000803F00000000\"}} gedrückt halten und losrollern!",
      "EUen": "This looks like a sweet spot to hold down {{icon id=\"12\" arg=\"0x0000803F00000000\"}} and\njust go to town with the roller.",
      "EUes": "Este parece un buen lugar para mantener pulsado {{icon id=\"12\" arg=\"0x0000803F00000000\"}}\ny avanzar con el rodillo sin contemplaciones.",
      "EUfr": "Voilà le coin parfait pour se lâcher un peu avec\nle rouleau en maintenant {{icon id=\"12\" arg=\"0x0000803F00000000\"}}.",
      "EUit": "Questo sembra il posto ideale dove tenere\npremuto {{icon id=\"12\" arg=\"0x0000803F00000000\"}} e scatenarsi con il rullo.",
      "EUnl": "Dit lijkt een hele fijne plek om gewoon {{icon id=\"12\" arg=\"0x0000803F00000000\"}} ingedrukt\nte houden en erop los te rollen!",
      "EUru": "Кажется, здесь отличное местечко, чтобы\nприменить валик! Нажми и удерживай {{icon id=\"12\" arg=\"0x0000803F00000000\"}}!",
      "JPja": "{{icon id=\"12\" arg=\"0x0000803F00000000\"}}押しっぱなしで、地面をヌリヌリしながら進めるよ",
      "KRko": "{{icon id=\"12\" arg=\"0x0000803F00000000\"}}을 누르고 있으면 지면을 칠하면서 이동할 수 있어",
      "TWzh": "按住{{icon id=\"12\" arg=\"0x0000803F00000000\"}}就能在移動的同時對地面塗墨喔！",
      "USen": "This looks like a sweet spot to hold down {{icon id=\"12\" arg=\"0x0000803F00000000\"}} and\njust go to town with the roller.",
      "USes": "Este parece un buen lugar para mantener oprimido {{icon id=\"12\" arg=\"0x0000803F00000000\"}}\ny avanzar con el rodillo sin piedad.",
      "USfr": "Voilà le coin parfait pour se lâcher un peu avec\nle rouleau en maintenant {{icon id=\"12\" arg=\"0x0000803F00000000\"}}."
    }
  },
  {
    "label": "0246f8bb-0946-4641-9a7e-f30e36a9ddba",
    "locale": {
      "CNzh": "真危险！居然还有敌人！",
      "EUde": "Das war knapp! Hätte ja nicht gedacht,\ndass sich hier einer versteckt!",
      "EUen": "That was close! I wasn't expecting one to be\nhiding right there.",
      "EUes": "¡Qué peligro! Quién hubiese esperado que hubiera\nalguien ahí...",
      "EUfr": "Il s'en est fallu de peu ! Il était bien planqué, celui-là.",
      "EUit": "C'è mancata una squama! Non me ne aspettavo\nuno nascosto proprio lì.",
      "EUnl": "Dat scheelde niks! Ik had niet verwacht dat er daar\neentje verstopt zou zitten.",
      "EUru": "Уф, еще бы чуть-чуть... Не ожидала подвоха!",
      "JPja": "あぶな！ まだいた",
      "KRko": "위험해! 아직 남아 있었네",
      "TWzh": "好危險！居然還有！",
      "USen": "That was close! I wasn't expecting one to be\nhiding right there.",
      "USes": "¡Qué peligro! Quién hubiese esperado\nque hubiera alguien ahí...",
      "USfr": "Il s'en est fallu de peu! Il était bien planqué, celui-là."
    }
  },
  {
    "label": "1d2bc628-c906-42f8-923e-dce35fb70169",
    "locale": {
      "CNzh": "能顺利攻击他的破绽吗？",
      "EUde": "Vielleicht kannst du dich noch hinter ihn schleichen...",
      "EUen": "You might still be able to sneak behind this one...",
      "EUes": "A ese te le podrías acercar con cuidado por detrás...",
      "EUfr": "Y a encore moyen de se glisser derrière, à mon avis...",
      "EUit": "Forse riesci ancora ad aggirarlo...",
      "EUnl": "Misschien kun je er achter zien te sluipen?",
      "EUru": "Может, попробуй подкрасться сзади?",
      "JPja": "うまく スキをつけないかな？",
      "KRko": "치고 들어갈 틈이 없을까?",
      "TWzh": "有辦法找出破綻進攻嗎？",
      "USen": "You might still be able to sneak behind this one...",
      "USes": "A ese te le podrías acercar con cuidado por detrás...",
      "USfr": "Y'a encore moyen de se glisser derrière, à mon avis..."
    }
  },
  {
    "label": "2478b2de-513f-45f4-a4a8-a21badd86842",
    "locale": {
      "CNzh": "太突然了！",
      "EUde": "GAH! Jetzt schon Oktarianer?!",
      "EUen": "GAH! Already with the Octarians?!",
      "EUes": "¡¿Qué?! ¿Ya están ahí los octarianos?",
      "EUfr": "Argh ! Des Octariens, déjà ?!",
      "EUit": "ARGH! Iniziamo già con gli Octariani?!",
      "EUnl": "Gaah! Nu al Octarianen?!",
      "EUru": "Что?! Осьморяне уже на подходе!",
      "JPja": "いきなり？！",
      "KRko": "시작하자마자?!",
      "TWzh": "太突然了吧！",
      "USen": "GAH! Already with the Octarians?!",
      "USes": "¡¿Qué?! ¿Otra vez los octarianos?",
      "USfr": "Argh! Des Octariens, déjà?!"
    }
  },
  {
    "label": "2c40e1ec-2778-4719-adf3-84cd091bc06c",
    "locale": {
      "CNzh": "哇啊～拿着盾牌的章鱼狙击兵……真是来势汹汹啊。",
      "EUde": "Oktoschützen, Schilde und was-weiß-ich noch alles...\nAber dafür hast du uns. Und deinen Roller!",
      "EUen": "Oh, boy. You got Octosnipers, shields, and more. But\nyou know what else you got? THIS. And your roller!",
      "EUes": "Ahí te esperan un octotirador y enemigos protegidos\ncon escudos. ¡Pero tú tienes un rodillo!",
      "EUfr": "Un tentatourelle, des ennemis derrière des boucliers...\nTout ça, c'est bien joli, mais ça vaut pas un rouleau !",
      "EUit": "Aiuto. Un polpotiratore, scudi e chi più ne ha, più ne\nmetta. Ma tu puoi metterci il tuo coraggio. E il rullo!",
      "EUnl": "Ooo, allemakrelen... Octoschutters, schilden en weet\nik wat voor ongein. Maar jij hebt je roller!",
      "EUru": "Придется иметь дело с осьмоснайперами, щитами\nи прочими гадостями. Зато у тебя есть МЫ! И валик!",
      "JPja": "うわ、タテ持ちにタコスナイパー… 気合い入ってんね",
      "KRko": "우와, 방패를 든 문어에 문어 스나이퍼까지… 준비 단단히 했네잉",
      "TWzh": "唔，是持盾的敵人跟章魚狙擊兵……來勢洶洶耶。",
      "USen": "Oh, boy. You got Octosnipers, shields, and more. But\nyou know what else you got? THIS. And your roller!",
      "USes": "Ahí te esperan un octotirador y enemigos protegidos\ncon escudos. ¡Pero tú tienes un rodillo!",
      "USfr": "Un tentatourelle, des ennemis derrière des boucliers...\nTout ça, c'est bien joli, mais ça vaut pas un rouleau!"
    }
  },
  {
    "label": "302c9e68-bcc4-417a-8018-c82edcd034c0",
    "locale": {
      "CNzh": "啊，出现{{color id=\"1\"}}鲑鱼卵{{color id=\"65535\"}}了！",
      "EUde": "Ist doch immer wieder schön, wenn man als Lohn\nfür den ganzen Ärger {{color id=\"1\"}}Fischeier{{color id=\"65535\"}} findet.",
      "EUen": "Sweet! Always nice to pick up some {{color id=\"1\"}}Power Eggs{{color id=\"65535\"}}\nfor your efforts.",
      "EUes": "¡Qué guay! Siempre anima obtener una lata de {{color id=\"1\"}}caviar\nrojo{{color id=\"65535\"}} como fruto del esfuerzo.",
      "EUfr": "Cool ! Une ration d'{{color id=\"1\"}}œufs de poisson{{color id=\"65535\"}} en récompense\nde ses efforts, ça fait toujours plaisir !",
      "EUit": "Magnifico! Fa sempre piacere trovare delle {{color id=\"1\"}}uova\ndi pesce{{color id=\"65535\"}} come ricompensa per i propri sforzi.",
      "EUnl": "Een potje {{color id=\"1\"}}visseneieren {{color id=\"65535\"}}voor de moeite! Altijd fijn als\nhet niet voor niets was.",
      "EUru": "Чудненько! {{color id=\"1\"}}Икринки{{color id=\"65535\"}} нам всегда пригодятся!\nХоть не зря здесь возились!",
      "JPja": "あ、{{color id=\"1\"}}イクラ{{color id=\"65535\"}}出た！",
      "KRko": "아, {{color id=\"1\"}}연어알 팩{{color id=\"65535\"}}이다!",
      "TWzh": "啊！{{color id=\"1\"}}鮭魚卵{{color id=\"65535\"}}出現了！",
      "USen": "Sweet! Always nice to pick up some {{color id=\"1\"}}Power Eggs{{color id=\"65535\"}}\nfor your efforts.",
      "USes": "¡Qué chévere! Siempre anima obtener una lata de\n{{color id=\"1\"}}huevecillos de poder {{color id=\"65535\"}}como fruto del esfuerzo.",
      "USfr": "Cool! Une ration d'{{color id=\"1\"}}œufs de poisson{{color id=\"65535\"}} en récompense\nde ses efforts, ça fait toujours plaisir!"
    }
  },
  {
    "label": "3251ace2-7f86-4e7a-873b-30454f524f01",
    "locale": {
      "CNzh": "正常情况下按{{icon id=\"12\" arg=\"0x0000803F00000000\"}}是{{color id=\"1\"}}横挥{{color id=\"65535\"}}，\n跳跃时按{{icon id=\"12\" arg=\"0x0000803F00000000\"}}是{{color id=\"1\"}}纵挥{{color id=\"65535\"}}哦——！",
      "EUde": "Drücke {{icon id=\"12\" arg=\"0x0000803F00000000\"}}, um {{color id=\"1\"}}waagrecht{{color id=\"65535\"}} Tinte zu schleudern.\nIm Sprung schleuderst du sie {{color id=\"1\"}}senkrecht{{color id=\"65535\"}}.",
      "EUen": "That roller doesn't just roll. Tap {{icon id=\"12\" arg=\"0x0000803F00000000\"}} for a {{color id=\"1\"}}horizontal\nswing{{color id=\"65535\"}}, or jump and press {{icon id=\"12\" arg=\"0x0000803F00000000\"}} for a {{color id=\"1\"}}vertical swing{{color id=\"65535\"}}!",
      "EUes": "Al pulsar {{icon id=\"12\" arg=\"0x0000803F00000000\"}}, el rodillo da {{color id=\"1\"}}sacudidas horizontales{{color id=\"65535\"}}.\nEstas serán {{color id=\"1\"}}verticales{{color id=\"65535\"}} si pulsas {{icon id=\"12\" arg=\"0x0000803F00000000\"}} mientras saltas.",
      "EUfr": "Appuie sur {{icon id=\"12\" arg=\"0x0000803F00000000\"}} pour un {{color id=\"1\"}}balayage horizontal{{color id=\"65535\"}}, ou\nsur {{icon id=\"12\" arg=\"0x0000803F00000000\"}} tout en sautant pour un {{color id=\"1\"}}balayage vertical{{color id=\"65535\"}}.",
      "EUit": "Premi brevemente {{icon id=\"12\" arg=\"0x0000803F00000000\"}} per un'inchiostrata\n{{color id=\"1\"}}orizzontale{{color id=\"65535\"}}. Se la vuoi {{color id=\"1\"}}verticale{{color id=\"65535\"}}, salta e premi {{icon id=\"12\" arg=\"0x0000803F00000000\"}}!",
      "EUnl": "Druk op {{icon id=\"12\" arg=\"0x0000803F00000000\"}} om {{color id=\"1\"}}breeduit {{color id=\"65535\"}}inkt te spatten, of druk erop\nterwijl je springt om je inkt {{color id=\"1\"}}verticaal {{color id=\"65535\"}}weg te slingeren!",
      "EUru": "Нажимай {{icon id=\"12\" arg=\"0x0000803F00000000\"}}, чтобы {{color id=\"1\"}}метнуть краску горизонтально{{color id=\"65535\"}},\nили {{icon id=\"12\" arg=\"0x0000803F00000000\"}} в прыжке, чтобы {{color id=\"1\"}}метнуть ее вертикально{{color id=\"65535\"}}!",
      "JPja": "フツーに {{icon id=\"12\" arg=\"0x0000803F00000000\"}}で {{color id=\"1\"}}ヨコ振り{{color id=\"65535\"}}、\nジャンプして {{icon id=\"12\" arg=\"0x0000803F00000000\"}}なら {{color id=\"1\"}}タテ振り{{color id=\"65535\"}}だー！",
      "KRko": "그냥 {{icon id=\"12\" arg=\"0x0000803F00000000\"}}을 누르면 {{color id=\"1\"}}가로 휘두르기{{color id=\"65535\"}},\n점프하면서 {{icon id=\"12\" arg=\"0x0000803F00000000\"}}을 누르면 {{color id=\"1\"}}세로 휘두르기{{color id=\"65535\"}}야～!",
      "TWzh": "在一般情況按下{{icon id=\"12\" arg=\"0x0000803F00000000\"}}可以{{color id=\"1\"}}橫揮{{color id=\"65535\"}}，\n跳躍時按下{{icon id=\"12\" arg=\"0x0000803F00000000\"}}還能{{color id=\"1\"}}縱揮{{color id=\"65535\"}}喔！",
      "USen": "That roller doesn't just roll. Tap {{icon id=\"12\" arg=\"0x0000803F00000000\"}} for a {{color id=\"1\"}}horizontal\nswing{{color id=\"65535\"}}, or jump and press {{icon id=\"12\" arg=\"0x0000803F00000000\"}} for a {{color id=\"1\"}}vertical swing{{color id=\"65535\"}}!",
      "USes": "Al oprimir {{icon id=\"12\" arg=\"0x0000803F00000000\"}}, el rodillo da {{color id=\"1\"}}sacudidas horizontales{{color id=\"65535\"}},\no {{color id=\"1\"}}verticales{{color id=\"65535\"}} si oprimes {{icon id=\"12\" arg=\"0x0000803F00000000\"}} mientras saltas.",
      "USfr": "Appuie sur {{icon id=\"12\" arg=\"0x0000803F00000000\"}} pour un {{color id=\"1\"}}balayage horizontal{{color id=\"65535\"}}, ou\nsur {{icon id=\"12\" arg=\"0x0000803F00000000\"}} tout en sautant pour un {{color id=\"1\"}}balayage vertical{{color id=\"65535\"}}."
    }
  },
  {
    "label": "456b24b9-25e1-4291-8e86-37d6dcc39a34",
    "locale": {
      "CNzh": "就是这样！",
      "EUde": "Rock ’n Roller, Nr. 3!",
      "EUen": "You're on a roll with that roller!",
      "EUes": "¡Qué soltura llevas con el rodillo!",
      "EUfr": "Avec ton rouleau, c'est une affaire qui roule !",
      "EUit": "Con quel rullo sei un rullo compressore!",
      "EUnl": "Je pakt de hoofdrol met die roller!",
      "EUru": "Твой валик сегодня разит наповал!",
      "JPja": "その調子だよ！",
      "KRko": "잘하고 있어!",
      "TWzh": "你這樣就對了！",
      "USen": "You're on a roll with that roller!",
      "USes": "¡Te va muy bien con ese rodillo!",
      "USfr": "Avec ton rouleau, c'est une affaire qui roule!"
    }
  },
  {
    "label": "5991f815-2dda-443e-b078-d5ebad7c64e7",
    "locale": {
      "CNzh": "有条近路哦——！",
      "EUde": "Ah, du hast einen versteckten Weg gefunden!",
      "EUen": "Ooo, you found a way around!",
      "EUes": "Oh, ¡has encontrado un atajo!",
      "EUfr": "Oh, joli contournement !",
      "EUit": "Oooh, hai trovato un percorso alternativo!",
      "EUnl": "O, je hebt een sluiproute gevonden!",
      "EUru": "Ух ты, скрытый путь!",
      "JPja": "ぬけ道だー！",
      "KRko": "길이 있어～!",
      "TWzh": "有條捷徑耶！",
      "USen": "Ooo, you found a way around!",
      "USes": "Oh, ¡encontraste un atajo!",
      "USfr": "Oh, joli contournement!"
    }
  },
  {
    "label": "7faa22cb-e043-4e1a-a16d-6d88967fca1c",
    "locale": {
      "CNzh": "这样就可以绕到背后突袭了呢。",
      "EUde": "Tja, jetzt die Sache schon gleich ganz anders aus.",
      "EUen": "Now who's in trouble?",
      "EUes": "Vamos a ver quién lo pasa mal ahora.",
      "EUfr": "Qui c'est qui est mal barré, maintenant ?",
      "EUit": "Ora chi è nei pasticci?",
      "EUnl": "Zo ziet de zaak er ineens heel anders uit.",
      "EUru": "Сзади, сзади плюхай!",
      "JPja": "これ、背後から とっちめられるな",
      "KRko": "등 뒤에서 해치워 버릴 수 있겠어",
      "TWzh": "這樣就能繞到背後進攻了。",
      "USen": "Now who's in trouble?",
      "USes": "A ver quién está en problemas ahora.",
      "USfr": "Qui c'est qui est mal barré, maintenant?"
    }
  },
  {
    "label": "831b4ad9-1bd5-41e5-bdef-0f4c4a93e7d1",
    "locale": {
      "CNzh": "干掉头目啦～！",
      "EUde": "Geschafft!",
      "EUen": "Got 'em! Well done, Agent 3.",
      "EUes": "¡Ya lo tienes! Muy bien hecho, Agente 3.",
      "EUfr": "Ennemi au tapis ! Bien joué, Numéro 3 !",
      "EUit": "Et vongolà! Ben fatto, Numero 3.",
      "EUnl": "Gelukt!",
      "EUru": "Вот так! Молодец, агент 003!",
      "JPja": "親玉、討ち取ったり～！",
      "KRko": "우두머리를 쓰러뜨렸어～!",
      "TWzh": "解決敵方首領啦～！",
      "USen": "Got 'em! Well done, Agent 3.",
      "USes": "¡Ya lo tienes! Excelente, Agente 3.",
      "USfr": "Ennemi au tapis! Bien joué, Numéro 3!"
    }
  },
  {
    "label": "8692e390-0b96-4c93-a497-d2896189b50e",
    "locale": {
      "CNzh": "干得漂亮，3号！",
      "EUde": "Sehr gut.",
      "EUen": "Nicely done.",
      "EUes": "Excelente.",
      "EUfr": "Bien joué.",
      "EUit": "Ottimo lavoro.",
      "EUnl": "Uitmuntend.",
      "EUru": "Отлично.",
      "JPja": "ナイス ３号！",
      "KRko": "나이스, 3호!",
      "TWzh": "3號，做得好！",
      "USen": "Nicely done.",
      "USes": "Excelente.",
      "USfr": "Bien joué."
    }
  },
  {
    "label": "aa3cb97b-e1da-4d1c-8020-85dccb4bd61e",
    "locale": {
      "CNzh": "真是强而有力的攻击～\n你已经习惯使用滚筒了吗？",
      "EUde": "Das war super!\nSind Roller jetzt deine Lieblingswaffen?",
      "EUen": "That was awesome! Are you turning into a\nroller main?",
      "EUes": "¡Ha sido increíble! ¿Piensas emplear el rodillo\na tiempo completo?",
      "EUfr": "Impressionnant ! On va t'appeler Super Rouleau !",
      "EUit": "Incredibile! Come rulli tu, nessuno ha rullato mai!",
      "EUnl": "Dat liep op rolletjes! Heb jij soms een nieuw\nlievelingswapen?",
      "EUru": "Это было круто! Такими темпами ты станешь\nмастером валикоплюха!",
      "JPja": "パワフルやね～ ローラー慣れてきた？",
      "KRko": "파워풀하구마잉～ 롤러가 손에 좀 익었어?",
      "TWzh": "真是威力十足呢～\n你應該已經習慣使用滾筒了吧？",
      "USen": "That was awesome! Are you turning into a\nroller main?",
      "USes": "¡Eso estuvo increíble! ¡Manejas el rodillo como nadie!",
      "USfr": "Impressionnant! On va t'appeler Super Rouleau!"
    }
  },
  {
    "label": "ac0a4804-2fbb-45a4-9931-7ea5aee8f8c9",
    "locale": {
      "CNzh": "注意脚下！要小心哦。",
      "EUde": "Pass auf, wo du hintrittst!",
      "EUen": "Watch your footing here, Agent 3!",
      "EUes": "Aquí ten cuidado por dónde pisas, Agente 3.",
      "EUfr": "Attention où tu mets les pieds, Numéro 3 !",
      "EUit": "Occhio a dove metti i tentacoli, Numero 3!",
      "EUnl": "Pas hier goed op waar je je voeten zet, agent 3!",
      "EUru": "Следи, куда ступаешь, агент 003!",
      "JPja": "足元気をつけてね！",
      "KRko": "발밑을 주의해!",
      "TWzh": "注意腳步！要小心點喔！",
      "USen": "Watch your footing here, Agent 3!",
      "USes": "Ve con cuidado por aquí, Agente 3.",
      "USfr": "Attention où tu mets les pieds, Numéro 3!"
    }
  },
  {
    "label": "c28934ae-e86d-4e2c-b82e-36eac6828edc",
    "locale": {
      "CNzh": "一下子干掉2只？！好厉害——",
      "EUde": "Gleich zwei auf einmal erwischt!",
      "EUen": "Two for one! Count it!",
      "EUes": "¿Dos a la vez? ¡Qué máquina!",
      "EUfr": "Deux pour le prix d'un !",
      "EUit": "Due al prezzo di uno! Perfetto!",
      "EUnl": "Twee voor de prijs van één!",
      "EUru": "Двух одним ударом! Круть!",
      "JPja": "２体まとめて？！ さっすがー！",
      "KRko": "2마리를 한 번에?! 대단해～",
      "TWzh": "2個一起解決了！？果然厲害耶～",
      "USen": "Two for one! Count it!",
      "USes": "¿Dos a la vez? ¡Qué máquina!",
      "USfr": "Deux pour le prix d'un!"
    }
  },
  {
    "label": "ceaad6a7-c669-4398-8ba3-aacf9b1b68be",
    "locale": {
      "CNzh": "跳起来纵向挥动时，墨汁可以甩到很远的地方哦！",
      "EUde": "Spring und schwing den Roller, um sie zu erwischen!",
      "EUen": "Here's another chance to really fling that ink.\nJump and fire at the same time to splat them!",
      "EUes": "Estamos ante otra gran ocasión para entintar a base\nde bien. ¡Salta y dispara a la vez para liquidarlos!",
      "EUfr": "C'est l'occasion de lancer une salve d'encre à distance.\nSaute et tire en même temps, ils vont rien piger !",
      "EUit": "Un'altra occasione per praticare il lancio dell'inchiostro!\nSalta e spara contemporaneamente per splattarli!",
      "EUnl": "Spring en zwaai met de roller zodat de inkt verder\nvliegt! Neem ze te grazen!",
      "EUru": "Мстительные метатели краски в деле! Прыгай\nи сразу стреляй, чтобы плюхнуть врага наверняка!",
      "JPja": "ジャンプからのタテ振りなら、インクを遠くまで飛ばせるよ！",
      "KRko": "점프해서 세로 휘두르기를 하면 잉크를 멀리까지 날릴 수 있어!",
      "TWzh": "在跳躍時使出縱揮就能把墨汁潑得更遠喔！",
      "USen": "Here's another chance to really fling that ink.\nJump and fire at the same time to splat them!",
      "USes": "Aquí tienes otra oportunidad para entintar como se\ndebe. ¡Salta y dispara a la vez para reventarlos!",
      "USfr": "C'est l'occasion de lancer une salve d'encre à distance.\nSaute et tire en même temps, ils vont rien piger!"
    }
  },
  {
    "label": "cf8987a8-a96d-4006-aef1-d993522ff40e",
    "locale": {
      "CNzh": "是{{color id=\"1\"}}跳跃垫{{color id=\"65535\"}}，\n按住{{icon id=\"1\" arg=\"0x0000803F00000000\"}}高高跳起吧！",
      "EUde": "Denk dran, auf {{color id=\"1\"}}Hupfmatratzen{{color id=\"65535\"}} kannst du\n{{icon id=\"1\" arg=\"0x0000803F00000000\"}} gedrückt halten, um besonders hoch zu springen!",
      "EUen": "Remember—you can hold {{icon id=\"1\" arg=\"0x0000803F00000000\"}} on a {{color id=\"1\"}}bounce pad{{color id=\"65535\"}}\nto jump super high!",
      "EUes": "¡Recuerda que puedes mantener pulsado {{icon id=\"1\" arg=\"0x0000803F00000000\"}} mientras\nestás sobre una {{color id=\"1\"}}colchoneta{{color id=\"65535\"}} para saltar muy alto!",
      "EUfr": "Oublie pas... Si tu maintiens {{icon id=\"1\" arg=\"0x0000803F00000000\"}} sur un {{color id=\"1\"}}matelas de\nsaut{{color id=\"65535\"}}, tu vas bondir à des hauteurs incroyables !",
      "EUit": "Ricorda che puoi tenere premuto {{icon id=\"1\" arg=\"0x0000803F00000000\"}} su un\n{{color id=\"1\"}}trampolpino {{color id=\"65535\"}}per saltare altissimo!",
      "EUnl": "Denk eraan dat je {{icon id=\"1\" arg=\"0x0000803F00000000\"}} ingedrukt kunt houden op een\n{{color id=\"1\"}}luchtbed {{color id=\"65535\"}}om extra hoog te springen!",
      "EUru": "Запомни: для суперпрыжка удерживай {{icon id=\"1\" arg=\"0x0000803F00000000\"}},\nкогда ты на {{color id=\"1\"}}матрасе{{color id=\"65535\"}}!",
      "JPja": "{{color id=\"1\"}}ジャンプマット{{color id=\"65535\"}}、{{icon id=\"1\" arg=\"0x0000803F00000000\"}}押しっぱなしで 大ジャンプ！",
      "KRko": "{{color id=\"1\"}}점프 매트{{color id=\"65535\"}} 위에서는\n{{icon id=\"1\" arg=\"0x0000803F00000000\"}}를 누르고 있으면 높이 점프해!",
      "TWzh": "在{{color id=\"1\"}}跳躍墊{{color id=\"65535\"}}上\n按住{{icon id=\"1\" arg=\"0x0000803F00000000\"}}就能跳向高處！",
      "USen": "Remember—you can hold {{icon id=\"1\" arg=\"0x0000803F00000000\"}} on a {{color id=\"1\"}}bounce pad{{color id=\"65535\"}}\nto jump super high!",
      "USes": "¡Recuerda que puedes mantener oprimido {{icon id=\"1\" arg=\"0x0000803F00000000\"}} mientras\nestás sobre una {{color id=\"1\"}}colchoneta{{color id=\"65535\"}} para saltar muy alto!",
      "USfr": "Oublie pas... Si tu maintiens {{icon id=\"1\" arg=\"0x0000803F00000000\"}} sur un {{color id=\"1\"}}matelas de\nsaut{{color id=\"65535\"}}, tu vas bondir à des hauteurs incroyables!"
    }
  },
  {
    "label": "d9f2e6ae-db2a-4ad7-91ac-dd06bd2cf2b9",
    "locale": {
      "CNzh": "不能掉以轻心哦～",
      "EUde": "Das passiert, wenn man nicht auf der Hut ist!",
      "EUen": "Heh. Never let your guard down, Oct-HAIR-ian...",
      "EUes": "¡Ja! ¡No os libráis ni «por los pelos»!",
      "EUfr": "Comme quoi, il ne faut jamais baisser sa garde ou on se\nretrouve « à poils » face à l'ennemi. Adios, l'Octarien !",
      "EUit": "Eh. Non abbassare MAI la guardia, caro Octariano...",
      "EUnl": "Ha! Je moet beter opletten, Oct-HAAR-iaan!",
      "EUru": "Ха! Так тебе и надо, осьморазиня!",
      "JPja": "油断大敵ってね～",
      "KRko": "방심하면 안 돼～",
      "TWzh": "真是大意不得耶～",
      "USen": "Heh. Never let your guard down, Oct-HAIR-ian...",
      "USes": "¡Ja! ¡Ni sueñen que se van a librar!",
      "USfr": "Comme quoi, il ne faut jamais baisser sa garde ou on se\nretrouve « à poils » face à l'ennemi. Adios, l'octarien!"
    }
  },
  {
    "label": "dfebb4e2-a395-4285-a22f-92c247040f27",
    "locale": {
      "CNzh": "我们当然是早就知道了，\n1号，你说是吧？",
      "EUde": "Öh... War ja klar, dass das da ist...\nOder, Nr. 1?",
      "EUen": "Uh...we knew that was there. Didn't we, Agent 1?",
      "EUes": "Eh... Sabíamos que estaba ahí, ¿verdad, Agente 1?",
      "EUfr": "Euh, on savait que c'était là, hein, Numéro 1 ?",
      "EUit": "Uh... Noi lo sapevamo che era qui. Vero, Numero 1?",
      "EUnl": "Eh... We wisten allebei dat je dat daar kon vinden.\nJa hè, agent 1?",
      "EUru": "Э-э... Мы же знали, что она там?\nВерно, агент 001?",
      "JPja": "もちろん気づいとったよ\nね、１号？",
      "KRko": "당연히 눈치채고 있었지라\n안 그래, 1호?",
      "TWzh": "我們當然是早就料到了啊！\n1號，你說對吧？",
      "USen": "Uh...we knew that was there. Didn't we, Agent 1?",
      "USes": "Eh... Sabíamos que estaba ahí, ¿verdad, Agente 1?",
      "USfr": "Euh, on savait que c'était là, hein, Numéro 1?"
    }
  },
  {
    "label": "f906fe63-b376-4151-bf3f-3550000d8364",
    "locale": {
      "CNzh": "啊？！当、当然了！",
      "EUde": "Jupp. So was von klar.",
      "EUen": "Yes. Yes, we did.",
      "EUes": "Sí, lo sabíamos.",
      "EUfr": "Oui. Ça va de soi.",
      "EUit": "Sì, sì, come no.",
      "EUnl": "Zeker weten. Dat was zoooo duidelijk.",
      "EUru": "Ага, конечно. Мы все знали!",
      "JPja": "え？！ も、もちろん！",
      "KRko": "응?! 그, 그럼!",
      "TWzh": "咦！？那、那當然！",
      "USen": "Yes. Yes, we did.",
      "USes": "Sí, claro que lo sabíamos.",
      "USfr": "Oui. Ça va de soi."
    }
  }
]