[
  {
    "label": "092feac9-517a-4e9a-b908-abcd5b7142ed",
    "locale": {
      "CNzh": "那个巨大的家伙……是什么啊？",
      "EUde": "Was ist das für 'ne übergroße Eiswaffel?",
      "EUen": "What's this funnel-lookin' thing?",
      "EUes": "¿Qué tentáculos es esa mole?",
      "EUfr": "C'est quoi, ce truc ? Un entonnoir ?",
      "EUit": "Cos'è questo coso simile a un imbuto?",
      "EUnl": "Wat is dit trechterachtige ding?",
      "EUru": "А это еще что за воронкообразное?",
      "JPja": "なんだー？ あのでっかいの…",
      "KRko": "저 커다란 건 또 뭐래～?",
      "TWzh": "那個巨大的東西……是什麼啊？",
      "USen": "What's this funnel-lookin' thing?",
      "USes": "¿Qué tentáculos es esa cosa?",
      "USfr": "C'est quoi, ce truc? Un entonnoir?"
    }
  },
  {
    "label": "0a94df73-695d-427a-875f-9951f1377fc9",
    "locale": {
      "CNzh": "很好！不要停——！！",
      "EUde": "Yeah! Wir lassen's krachen!",
      "EUen": "Aw yeah! Pour it on!",
      "EUes": "¡Síii! ¡Que no decaiga!",
      "EUfr": "Vas-y, arrose-le !",
      "EUit": "Evvai! Continua così!",
      "EUnl": "O yes! Ga door!",
      "EUru": "Да! Поливай!",
      "JPja": "ヨッシャー！ どんどん行けー！！",
      "KRko": "좋았어～! 잘한다～!!",
      "TWzh": "好耶！繼續進攻！！",
      "USen": "Aw yeah! Pour it on!",
      "USes": "¡Sííí! ¡Derrúmbalo!",
      "USfr": "Vas-y, arrose-le!"
    }
  },
  {
    "label": "1176bb9a-2e19-46ee-8f9e-45bd191782ca",
    "locale": {
      "CNzh": "机会来了，小八！攻击那些看起来薄弱的地方！！",
      "EUde": "Deine Chance, Nr. 8! Immer aufs Gesicht!\n...Welches Gesicht? EGAL!",
      "EUen": "Now's your chance, Eight. Go for the face!\nWhich face? ANY FACE!",
      "EUes": "¡Ahora, Ocho! ¡Pégale donde más le duele!",
      "EUfr": "À toi de jouer, Huit. Mets le paquet sur\nses points faibles !",
      "EUit": "Ora, Otto! Colpisci la faccia! Quale faccia?\nQuella che vuoi!",
      "EUnl": "Dit is je kans, Acht! Raak zijn gezicht! Welk gezicht?\nALLE GEZICHTEN!",
      "EUru": "Это твой шанс, Восьмерка. Бей в лицо! В любое!!!",
      "JPja": "チャンスだ、ハチ！ やわそーなトコ ねらってけ！！",
      "KRko": "에이트, 기회야! 약해 보이는 부분을 노려!!",
      "TWzh": "小八，機會來了！往看起來很脆弱的地方進攻吧！！",
      "USen": "Now's your chance, Eight. Go for the face!\nWhich face? ANY FACE!",
      "USes": "¡Ahora, Ocho! ¡Entíntale la cara! ¡Cualquiera de ellas!",
      "USfr": "À toi de jouer, Huit. Mets le paquet sur\nses points faibles!"
    }
  },
  {
    "label": "14381376-7ca2-4df2-b5d6-37f1b6f94e71",
    "locale": {
      "CNzh": "HEY！有敌人飞来了。",
      "EUde": "Aufpassen!\nEs kommt was auf dich zu!",
      "EUen": "Heads up! You got incoming.",
      "EUes": "¡Ojo! ¡Lluvia de enemigos!",
      "EUfr": "Attention, il y a des ennemis volants en approche !",
      "EUit": "Occhi aperti! Nemici in arrivo!",
      "EUnl": "Pas op, vliegende vijanden!",
      "EUru": "Аккуратно! Враги на подлете!",
      "JPja": "HEY！ 敵が飛んできてルヨ",
      "KRko": "HEY! 적이 날아오고 있어",
      "TWzh": "HEY！敵人飛過來囉！",
      "USen": "Heads up! You got incoming.",
      "USes": "¡Cuidado, te persiguen!",
      "USfr": "Attention, il y a des ennemis volants en approche!"
    }
  },
  {
    "label": "18762e2a-13e3-4d24-bff1-e6dc2a761d1e",
    "locale": {
      "CNzh": "看着那家伙，我就感觉一阵晕眩……",
      "EUde": "Da wird einem ja schwindlig, wenn man\ndas blöde Cyberteil zu lange anschaut...",
      "EUen": "Stare too long at that thing, and you'll go cross-eyed.",
      "EUes": "Los ojos me dan vueltas si miro a esa cosa...",
      "EUfr": "Si tu regardes ce truc trop longtemps,\ntu vas finir par loucher !",
      "EUit": "Se lo guardi troppo ti si incrociano gli occhi...",
      "EUnl": "Als je te lang naar dat ding staart, word je nog scheel...",
      "EUru": "Если долго пялиться на эту штуку,\nголова может закружиться.",
      "JPja": "アイツ見てると 目ぇ回ってくるんだよなー…",
      "KRko": "저 녀석을 보고 있으면 눈이 빙빙 돈다니까…",
      "TWzh": "感覺盯著牠看害我都頭昏眼花了……",
      "USen": "Stare too long at that thing, and you'll go cross-eyed.",
      "USes": "Los ojos me dan vueltas si miro a esa cosa...",
      "USfr": "Si tu regardes ce truc trop longtemps,\ntu vas finir par loucher!"
    }
  },
  {
    "label": "25505578-7e79-4bfd-9486-7ec00832d27f",
    "locale": {
      "CNzh": "那家伙是不是站不稳了？这似乎是个好机会！！",
      "EUde": "Sieht ganz schön instabil aus, das Teil!\nHin zu ihm und setz ihm ein Ende!",
      "EUen": "It's looking pretty wobbly. Now's the time to go in\nfor the finisher!",
      "EUes": "¿Está flaqueando? ¡Pues aprovecha, Ocho!",
      "EUfr": "Il a l'air mal en point. Règle-lui son compte !",
      "EUit": "Sembra piuttosto instabile. Chiudiamo la questione!",
      "EUnl": "Hij staat aardig te wankelen. Maak de klus af!",
      "EUru": "Его качает. Пора заканчивать эту\nсвистопляску!",
      "JPja": "アイツ、ガクついてねーか？ チャンスっぽいぞ！！",
      "KRko": "저 녀석, 휘청이는 것 같은데? 기회다!!",
      "TWzh": "牠是不是搖搖晃晃的啊？感覺是個好機會喔！！",
      "USen": "It's looking pretty wobbly. Now's the time to go in\nfor the finisher!",
      "USes": "¿Está flaqueando? ¡Aprovecha, Ocho!",
      "USfr": "Il a l'air mal en point. Règle-lui son compte!"
    }
  },
  {
    "label": "3017dfa4-bd63-4cf6-8ebf-32d588cdda4d",
    "locale": {
      "CNzh": "小八，有敌人飞来了！",
      "EUde": "Nr. 8, pass auf!\nJagdflugkörper auf Verfolgungskurs!",
      "EUen": "Eight! Watch out for the homing ones!",
      "EUes": "¡Cuidado con esos incordios volantes, Ocho!",
      "EUfr": "Fais gaffe, Huit ! Des ennemis volants !",
      "EUit": "Otto! Cerca di non farti circondare!",
      "EUnl": "Acht, pas op voor die doelzoekende vijanden!",
      "EUru": "Восьмерка! Следи за ракетами!",
      "JPja": "ハチさん、敵が飛んできます！",
      "KRko": "에이트 씨, 적이 날아와요!",
      "TWzh": "小八，敵人飛過來了！",
      "USen": "Eight! Watch out for the homing ones!",
      "USes": "¡Te rastrean esos proyectiles, Ocho!",
      "USfr": "Attention, Huit! Des ennemis volants!"
    }
  },
  {
    "label": "3b787142-643d-483b-adcd-162da0a36667",
    "locale": {
      "CNzh": "要是被{{color id=\"4\"}}探照灯{{color id=\"65535\"}}发现可就糟了！！",
      "EUde": "Nicht gerade schlau, in den {{color id=\"4\"}}Suchstrahl {{color id=\"65535\"}}zu laufen...",
      "EUen": "Probably shouldn't have let that {{color id=\"4\"}}searchlight {{color id=\"65535\"}}see us.",
      "EUes": "¡Si el {{color id=\"4\"}}foco{{color id=\"65535\"}} nos descubre, la hemos liado!",
      "EUfr": "Le {{color id=\"4\"}}faisceau lumineux{{color id=\"65535\"}} a déclenché l'alerte\nen te repérant.",
      "EUit": "Non dovevamo farci individuare dal {{color id=\"4\"}}riflettore{{color id=\"65535\"}}...",
      "EUnl": "Hm, waarschijnlijk geen goed idee om te worden gespot\ndoor dat {{color id=\"4\"}}zoeklicht{{color id=\"65535\"}}.",
      "EUru": "Зря мы под {{color id=\"4\"}}прожектор {{color id=\"65535\"}}попались...",
      "JPja": "{{color id=\"4\"}}サーチライト{{color id=\"65535\"}}に見つかるとヤベーのか！",
      "KRko": "{{color id=\"4\"}}서치라이트{{color id=\"65535\"}}에 걸리면 안 되는구나!",
      "TWzh": "被{{color id=\"4\"}}探照燈{{color id=\"65535\"}}照到的話下場可能不妙喔！",
      "USen": "Probably shouldn't have let that {{color id=\"4\"}}searchlight {{color id=\"65535\"}}see us.",
      "USes": "Mejor que no nos vea ese {{color id=\"4\"}}foco{{color id=\"65535\"}} espeluznante.",
      "USfr": "Le {{color id=\"4\"}}faisceau lumineux{{color id=\"65535\"}} a déclenché l'alerte\nen te repérant."
    }
  },
  {
    "label": "470570a8-bf68-473a-bc53-42990c620a12",
    "locale": {
      "CNzh": "这家伙……你一靠近就会升起来！",
      "EUde": "Komisch, wie das Ding sich verformt,\nwenn du ihm zu nah kommst.",
      "EUen": "Weird how the thing stretches up when you get close.",
      "EUes": "¡Qué forma de estirarse cuando nos acercamos!",
      "EUfr": "C'est marrant comme sa base s'allonge quand\ntu t'approches...",
      "EUit": "È incredibile come si allunga quando ti avvicini!",
      "EUnl": "Maf hoe dat ding zich helemaal strekt als je in de buurt\nkomt!",
      "EUru": "У-у-у, какой! Как подойдешь, сразу поднимается!",
      "JPja": "コイツ、近づくと背のびしやがる！",
      "KRko": "이 녀석, 다가가면 키가 커지잖아!",
      "TWzh": "只要一靠近這傢伙就會伸長！",
      "USen": "Weird how the thing stretches up when you get close.",
      "USes": "¿Viste cómo se levanta cuando nos acercamos?",
      "USfr": "C'est drôle comme ce truc s'étire quand\ntu t'approches..."
    }
  },
  {
    "label": "4a1ced93-1d98-4e42-b1f0-2399566d56e4",
    "locale": {
      "CNzh": "保持这个势头，战斗结束前都不要松懈。",
      "EUde": "Weiter so.\nNicht nachlassen, bis es besiegt ist.",
      "EUen": "Keep it up. Don't stop until it's over.",
      "EUes": "Eso es. ¡Mantén la tensión hasta el final!",
      "EUfr": "Continue ! C'est comme ça qu'on va l'avoir !",
      "EUit": "Continuate così. Dovete arrivare in fondo!",
      "EUnl": "Hou vol tot je de klus hebt geklaard!",
      "EUru": "Отлично, продолжайте в том же духе.",
      "JPja": "その調子ダ、最後まで気をぬくなヨ",
      "KRko": "바로 그거야, 마지막까지 긴장을 풀지 마",
      "TWzh": "就是這樣，保持氣勢，直到最後都不能鬆懈喔。",
      "USen": "Keep it up. Don't stop until it's over.",
      "USes": "Eso es. ¡Sigue así hasta el final!",
      "USfr": "Continue! C'est comme ça qu'on va l'avoir!"
    }
  },
  {
    "label": "53d5f434-282a-4a28-9963-fe3ef745c17a",
    "locale": {
      "CNzh": "很好！是我们赢了！！",
      "EUde": "COOL!\nUnd abserviert!",
      "EUen": "BOOYAH! Take that!",
      "EUes": "¡Chupaos esa! ¡Nadie puede con nosotros!",
      "EUfr": "Aha ! Bien fait pour toi !",
      "EUit": "Evvai! Beccati questo!",
      "EUnl": "Haaa! Gewonnen!",
      "EUru": "Йо-хо! Получай!",
      "JPja": "ッシャオラー！ アタシらの勝ちだ！！",
      "KRko": "아자～! 우리의 승리다!!",
      "TWzh": "厲害吧！是我們贏了！！",
      "USen": "BOOYAH! Take that!",
      "USes": "¡VICTORIAAA!\n¡Se acabó esta ronda porque Ocho es la onda!",
      "USfr": "Aha! Bien fait pour toi!"
    }
  },
  {
    "label": "59ff009a-6a5b-4830-b2f1-1e4464d4c4bb",
    "locale": {
      "CNzh": "感觉有什么要来了……多加注意。",
      "EUde": "Irgendwas führt es im Schilde.\nBleib auf der Hut.",
      "EUen": "It's up to something. Stay sharp.",
      "EUes": "¿Y ahora qué?... ¡Cuidadito!",
      "EUfr": "Il prépare quelque chose. Reste sur tes gardes.",
      "EUit": "Sta tramando qualcosa. Non abbassate la guardia!",
      "EUnl": "Dat ding is iets van plan. Let goed op.",
      "EUru": "Он что-то задумал. Будьте начеку!",
      "JPja": "何か来そうダ… 注意シロ",
      "KRko": "뭔가 올 것 같아… 조심해",
      "TWzh": "好像要攻過來了……要注意點。",
      "USen": "It's up to something. Stay sharp.",
      "USes": "¿Y ahora qué?... No hay que perder la concentración.",
      "USfr": "Il prépare quelque chose. Reste sur tes gardes."
    }
  },
  {
    "label": "63d6b428-6b69-4528-8b6f-115e8a5a3ed3",
    "locale": {
      "CNzh": "感觉危险的攻击要来了，多加小心！",
      "EUde": "Oje, da kommt nichts Gutes.\nPass auf, ja?",
      "EUen": "Uh-oh, that can't be good. Watch yourself!",
      "EUes": "Esto no me gusta nada. ¡Máxima atención!",
      "EUfr": "Oh oh... Ça me dit rien qui vaille...",
      "EUit": "Ahi ahi! Ho un brutto presentimento!",
      "EUnl": "O jee, dit bevalt me niks... Hou je aandacht erbij!",
      "EUru": "Ох, это плохо. Берегись!",
      "JPja": "ヤベーの来そうだ、気をつけろ！",
      "KRko": "위험한 게 올 것 같아, 조심해!",
      "TWzh": "感覺要發動危險的攻擊了，小心！",
      "USen": "Uh-oh, that can't be good. Watch yourself!",
      "USes": "Esto no me gusta nada. ¡Máxima atención!",
      "USfr": "Oh oh... Ça me dit rien qui vaille..."
    }
  },
  {
    "label": "7a10cc98-53ff-4b09-8c80-e9dc731d4261",
    "locale": {
      "CNzh": "敌人要攻击过来了！请多加小心！",
      "EUde": "Vorsicht!\nEs geht zum Angriff über!",
      "EUen": "Be careful! It's on the attack!",
      "EUes": "¡Mucho ojo! ¡Va a lanzar un ataque!",
      "EUfr": "Attention ! Il va lancer une attaque !",
      "EUit": "Argh! Sta per attaccare a piena potenza!",
      "EUnl": "Opgepast, daar komt een aanval!",
      "EUru": "Осторожнее! Он атакует!",
      "JPja": "攻撃きます！ 気をつけてください！",
      "KRko": "공격이 와요! 조심하세요!",
      "TWzh": "要攻過來了！請小心！",
      "USen": "Be careful! It's on the attack!",
      "USes": "¡Ojo! ¡Va a lanzar un ataque!",
      "USfr": "Attention! Il va lancer une attaque!"
    }
  },
  {
    "label": "820e879d-e70f-4964-9829-1a9f1f3bf7ce",
    "locale": {
      "CNzh": "很好——！完全摧毁它吧！",
      "EUde": "ZACK, eine erledigt!\nHaufenweise übrig!",
      "EUen": "WHAM! One down, a whole bunch to go!",
      "EUes": "¡Zasca! ¡Así se hace!",
      "EUfr": "Boum ! Un de moins, plus que... plein d'autres !",
      "EUit": "Via uno, sotto gli altri!",
      "EUnl": "HA! Dat is de eerste, ga zo door!",
      "EUru": "Бам! Первый блин плюхнут, но их еще много!",
      "JPja": "ッシャー！ ブッ壊してけー！",
      "KRko": "좋았어～! 다 부숴 버려～!",
      "TWzh": "好耶！通通毀掉吧！",
      "USen": "WHAM! One down, a whole bunch to go!",
      "USes": "¡Eso es! ¡Bájale los humos!",
      "USfr": "Boum! Un de moins, plus que... plein d'autres!"
    }
  },
  {
    "label": "8b5af583-51e2-4964-b902-d1dc5469f4a5",
    "locale": {
      "CNzh": "干得漂亮！敌人的高度降下来了！",
      "EUde": "Super! Du kleckst eine nach der anderen weg!",
      "EUen": "Nice! You're chewing through the stack!",
      "EUes": "¡Bravo! ¡Mira cómo se le reducen los ánimos!",
      "EUfr": "Super ! Tu te débrouilles bien !",
      "EUit": "Ottimo! Ve li state mangiando, gli strati!",
      "EUnl": "Mooi, blijf hem kleiner maken!",
      "EUru": "Неплохо! Враг становится меньше!",
      "JPja": "ナイスです！ 敵の背が低くなってきてますよ！",
      "KRko": "나이스예요! 적의 키가 작아지고 있어요!",
      "TWzh": "讚喔！敵人的高度變低了！",
      "USen": "Nice! You're chewing through the stack!",
      "USes": "¡Bien! ¡Otra capa destruida!",
      "USfr": "Super! Tu te débrouilles bien!"
    }
  },
  {
    "label": "96ca187d-da7f-4ccd-981c-972db3ed92da",
    "locale": {
      "CNzh": "是炸弹？！快躲开，小八！！",
      "EUde": "Das Ding hat Bomben?!\nHau bloß ab, Nr. 8!",
      "EUen": "It's got bombs?! Get outta there, Eight!",
      "EUes": "¿Bombas? ¡Toca esquivarlas, Ocho!",
      "EUfr": "Il a des bombes ?! Reste pas là, Huit !",
      "EUit": "Ha pure le bombe?! Allontanati, Otto!",
      "EUnl": "Bommen?! Wegwezen, Acht!",
      "EUru": "Бомбы?! Убегай, Восьмерка!",
      "JPja": "ボム？！ よけろ、ハチ！！",
      "KRko": "밤?! 피해, 에이트!!",
      "TWzh": "炸彈！？小八，快躲開！！",
      "USen": "It's got bombs?! Get outta there, Eight!",
      "USes": "¿Bombas? ¡Esquívalas, Ocho!",
      "USfr": "Il a des bombes?! Reste pas là, Huit!"
    }
  },
  {
    "label": "a440832c-f28e-4c62-bc73-9da95a8aca37",
    "locale": {
      "CNzh": "虽然敌人很强，但小八一定能战胜它！\n加油啊！",
      "EUde": "Ein mächtiger Gegner, aber du bist stärker!\nViel Erfolg, Nr. 8!",
      "EUen": "It's a tough enemy, but you're tougher!\nGood luck, Eight!",
      "EUes": "Si el enemigo pega fuerte, ¡respóndele tú con más\nfuerza aún! ¡Tú puedes, Ocho!",
      "EUfr": "Il est coriace, mais tu en as maté des plus énervés !\nCourage, Huit !",
      "EUit": "Questo nemico è duro, ma noi lo siamo di più!\nBuona fortuna, Otto!",
      "EUnl": "Het is een pittige tegenstander, maar jij bent pittiger!\nVeel succes, Acht!",
      "EUru": "Враг сильный, но вы сильнее!\nУдачи, Восьмерка!",
      "JPja": "強力な相手ですが、ハチさんならやれますよ！\nファイトです！",
      "KRko": "강한 상대지만 에이트 씨라면 이길 수 있어요!\n파이팅!",
      "TWzh": "雖然對手很強，不過小八一定能解決的！\n加油！",
      "USen": "It's a tough enemy, but you're tougher!\nGood luck, Eight!",
      "USes": "Si el enemigo pega fuerte, ¡respóndele tú con más\nfuerza aún! ¡Tú puedes, Ocho!",
      "USfr": "Il est coriace, mais tu en as maté des plus énervés!\nCourage, Huit!"
    }
  },
  {
    "label": "a5613771-bba6-420b-9251-f2b25290c49c",
    "locale": {
      "CNzh": "它旋转的速度减慢了！小八，就是现在！！",
      "EUde": "Es wird langsamer.\nDeine Chance zum Angriff, Nr. 8!",
      "EUen": "It's slowing down. Now's your chance to get in there!",
      "EUes": "Ya no gira tan rápido. ¡Es el momento, Ocho!",
      "EUfr": "Il ralentit. C'est le moment !",
      "EUit": "Sta rallentando. È la vostra occasione!",
      "EUnl": "Hij draait langzamer! Dit is je kans!",
      "EUru": "Он замедляется. Это твой шанс, Восьмерка!",
      "JPja": "回転速度が落ちてます！ ハチさん、今です！！",
      "KRko": "회전 속도가 느려졌어요! 에이트 씨, 지금이에요!!",
      "TWzh": "旋轉的速度變慢了！小八，就趁現在！！",
      "USen": "It's slowing down. Now's your chance to get in there!",
      "USes": "Ya no gira tan rápido. ¡Es el momento, Ocho!",
      "USfr": "Il ralentit. C'est le moment!"
    }
  },
  {
    "label": "b569981b-a9bc-4f02-bfb6-5f1b6c11f15b",
    "locale": {
      "CNzh": "暂时逃离敌人吧，小八！",
      "EUde": "Bloß weglaufen, Nr. 8!",
      "EUen": "We better hightail it, Eight!",
      "EUes": "¡Pies, para qué os quiero!",
      "EUfr": "Te laisse pas surprendre par le faisceau lumineux !",
      "EUit": "Meglio tagliare la corda, Otto!",
      "EUnl": "Maak dat je wegkomt, Acht!",
      "EUru": "Уходим, Восьмерка!!!",
      "JPja": "いったんにげろ、ハチ！",
      "KRko": "일단 도망쳐, 에이트!",
      "TWzh": "先暫時逃走吧，小八！",
      "USen": "We better hightail it, Eight!",
      "USes": "¡Huyamos, Ocho!",
      "USfr": "Te laisse pas surprendre par le faisceau lumineux!"
    }
  },
  {
    "label": "c18252e2-db29-4ba2-8350-c6474a25b2ba",
    "locale": {
      "CNzh": "它升起来的时候似乎会释放冲击波进行攻击。",
      "EUde": "Wenn es sich dehnt, ist ein Wellenangriff\nnicht fern. Pass auf, wo du hinläufst!",
      "EUen": "When it stretches up like that, it's telegraphing\na wave attack. So watch your step.",
      "EUes": "Si te fijas, las ofensivas vienen cuando se alarga.",
      "EUfr": "Quand la base s'allonge comme ça, il prépare\nune onde de choc.",
      "EUit": "Quando si allunga così, sta preparando\nun'onda d'urto!",
      "EUnl": "Als hij zich zo rekt, komt er een golfaanval aan.\nDus wees gewaarschuwd.",
      "EUru": "Когда он поднимается вверх, он посылает волну.\nСмотрите в оба!",
      "JPja": "背のび中は ウェーブで攻撃してくるみたいダ",
      "KRko": "키가 커졌을 때는 웨이브로 공격하는 모양이야",
      "TWzh": "牠好像會在伸長的時候發動震波攻擊的樣子。",
      "USen": "When it stretches up like that, it's telegraphing\na wave attack. So watch your step.",
      "USes": "Cuando se levanta así, verás que lanza un ataque\nde ondas.",
      "USfr": "Quand la base s'allonge comme ça, il prépare\nune onde de choc."
    }
  },
  {
    "label": "c476ff47-99e8-451e-8370-ba6a08d58837",
    "locale": {
      "CNzh": "呃！它居然会投掷炸弹！",
      "EUde": "Wie viele Bomben will das Ding NOCH raushauen?!",
      "EUen": "What's with all the cheap bomb spam?!",
      "EUes": "¡Aggg! ¡Ahora toca bombardeo!",
      "EUfr": "Tu crois qu'il a une réserve infinie de bombes ?",
      "EUit": "Ma la pianta con queste bombe?!",
      "EUnl": "Wat een etter met zijn bommenregen!",
      "EUru": "Э-э-э, хорош уже с бомбами, спамер!!!",
      "JPja": "ゲッ！ ボム投げてきやがった！",
      "KRko": "윽! 밤을 던지잖아!",
      "TWzh": "呃！居然丟炸彈過來！",
      "USen": "What's with all the cheap bomb spam?!",
      "USes": "¡Aggg! ¡Bombardeo!",
      "USfr": "Tu crois qu'il a une réserve infinie de bombes?"
    }
  },
  {
    "label": "cc93adfd-1e3a-4c9c-942d-2f7edc63e871",
    "locale": {
      "CNzh": "好！先解决掉一层！！",
      "EUde": "Fein gemacht!\nGeht gut los, die Sache!",
      "EUen": "Aw yeah! That's what I call a good start!",
      "EUes": "¡Ahí queda eso para empezar!",
      "EUfr": "Quelle entrée en matière ! Bien joué !",
      "EUit": "Ottimo inizio, Otto!",
      "EUnl": "Yes! Wat een goede start!",
      "EUru": "Да! Вот это хорошо начали!",
      "JPja": "ヨッシ！ まずはひとーつ！！",
      "KRko": "좋았어! 우선 하나～!!",
      "TWzh": "好！先解決掉一層了！！",
      "USen": "Aw yeah! That's what I call a good start!",
      "USes": "¡Tomaaa! ¡Empezamos bien!",
      "USfr": "Quelle entrée en matière! Bien joué!"
    }
  },
  {
    "label": "d5ce1b22-d0ca-4c98-9708-4511340c1a59",
    "locale": {
      "CNzh": "小八！有东西飞过来了！",
      "EUde": "Nr. 8! Es kommt was geflogen!",
      "EUen": "Eight! Something's coming at us!",
      "EUes": "¡Atención a las alturas, Ocho!",
      "EUfr": "Huit ! Quelque chose vient dans notre direction !",
      "EUit": "Otto! Ci sta sparando qualcosa addosso!",
      "EUnl": "Acht! Er vliegt iets op ons af!",
      "EUru": "Восьмерка, что-то в нас летит!",
      "JPja": "ハチ！ 何か飛んできてっぞ！",
      "KRko": "에이트! 뭔가가 날아온다!",
      "TWzh": "小八！好像有東西飛過來囉！",
      "USen": "Eight! Something's coming at us!",
      "USes": "¡Ataque aéreo, Ocho!",
      "USfr": "Huit! Quelque chose vient dans notre direction!"
    }
  },
  {
    "label": "d6e2edba-e8bd-4b18-a72b-824a5b83eb0f",
    "locale": {
      "CNzh": "赢了……！小八、前辈，我们打赢了！",
      "EUde": "Geschafft?!\nNr. 8! Perla! Geschafft!",
      "EUen": "We did it? Eight! Pearl! We did it!",
      "EUes": "¡Sois un dúo tremendo, Perla y Ocho!",
      "EUfr": "On l'a eu ? Huit ! Perle ! On l'a eu !",
      "EUit": "Ce l'abbiamo fatta? Otto, Alga! Ce l'abbiamo fatta!",
      "EUnl": "Was dat het? Acht, Lore, het is ons gelukt!",
      "EUru": "Получилось? Восьмерка! Жемчик!\nПолучилось!",
      "JPja": "やった…！ ハチさん、センパイ、やりましたね！",
      "KRko": "해냈다…! 에이트 씨, 선배! 해냈어요!",
      "TWzh": "成功了……！小八、前輩，我們做到了！",
      "USen": "We did it? Eight! Pearl! We did it!",
      "USes": "¿Lo logramos? ¡Ocho! ¡Perla! ¡Lo logramos!",
      "USfr": "On l'a eu? Huit! Perle! On l'a eu!"
    }
  },
  {
    "label": "e467c7b9-3c4a-4b2a-9e46-507f7dccbd0f",
    "locale": {
      "CNzh": "又是那家伙啊……它还是那么大。",
      "EUde": "Dieses Monstrum wieder?\nStutzen wir es zusammen.",
      "EUen": "This thing again? Let's cut it down to size.",
      "EUes": "¿Otra vez esa cosa? Y tan gorda como siempre...",
      "EUfr": "Encore lui ? Allez, taille-le en pièces !",
      "EUit": "Di nuovo questo coso? Facciamolo a fettine!",
      "EUnl": "Dit ding weer? Laten we het een kopje kleiner maken.",
      "EUru": "Опять эта штуковина? Ничего, вы справитесь.",
      "JPja": "またアイツか… 相変わらずデカいネ",
      "KRko": "또 저 녀석인가… 여전히 크네",
      "TWzh": "怎麼又是牠啊……依然還是那麼巨大耶。",
      "USen": "This thing again? Let's cut it down to size.",
      "USes": "¿Otra vez esa cosa enorme? Vamos a derrumbarla.",
      "USfr": "Encore lui? Allez, taille-le en pièces!"
    }
  },
  {
    "label": "e4bf6720-7bdb-4b85-82e9-f9f8d6eec6d9",
    "locale": {
      "CNzh": "被它发现了……走为上策。",
      "EUde": "Es hat dich entdeckt!\nFlucht, sofort!",
      "EUen": "You've been spotted. Time to cut and run.",
      "EUes": "Te han pillado. Más vale salir por patas.",
      "EUfr": "Tu t'es fait repérer. Prends vite le large !",
      "EUit": "Il riflettore è su di voi. Datevela a tentacoli!",
      "EUnl": "We zijn gezien. Maak dat je wegkomt.",
      "EUru": "Похоже, вас засекли. Уходите!",
      "JPja": "発見されたカ… にげるが勝ちダナ",
      "KRko": "들켰나… 도망치는 게 좋겠어",
      "TWzh": "被發現了……走為上策。",
      "USen": "You've been spotted. Time to cut and run.",
      "USes": "Te avistó. Hora de esconderse.",
      "USfr": "Tu t'es fait repérer. Prends vite le large!"
    }
  },
  {
    "label": "e85d2e9c-2828-4640-a240-16789aced79b",
    "locale": {
      "CNzh": "它冒烟了……这是不是个好机会？",
      "EUde": "Es beginnt zu qualmen.\nDas könnte unsere Chance sein.",
      "EUen": "It's starting to smoke. This could be our chance.",
      "EUes": "Parece que echa humo... Quizá sea la ocasión.",
      "EUfr": "Il commence à fumer. C'est le moment qu'on attendait.",
      "EUit": "Inizia a emettere fumo. È la nostra occasione.",
      "EUnl": "Er komt rook uit. Misschien is dit onze kans.",
      "EUru": "Он дымится. Похоже, это ваш шанс!",
      "JPja": "ケムリが出ていルナ… チャンスじゃないカ？",
      "KRko": "연기가 나오고 있어… 지금이 기회 같은데?",
      "TWzh": "冒煙了……這應該是個好機會吧？",
      "USen": "It's starting to smoke. This could be our chance.",
      "USes": "Parece que echa humo... Quizá sea la ocasión.",
      "USfr": "Il commence à fumer. C'est le moment qu'on attendait."
    }
  },
  {
    "label": "f5c073cd-861e-4467-8dff-a466350dbf8b",
    "locale": {
      "CNzh": "被发现了！快逃啊，小八——！！",
      "EUde": "Es hat uns im Blick!\nNix wie weg, Nr. 8!",
      "EUen": "It saw us! Book it, Eight!",
      "EUes": "¡Se ha dado cuenta! ¡Sal de ahí, Ocho!",
      "EUfr": "Il a détecté notre présence ! Reste pas là, Huit !",
      "EUit": "Argh, ci vede! Corri, Otto!",
      "EUnl": "Hij heeft ons gezien! Rennen, Acht!",
      "EUru": "Нас засекли! Беги, Восьмерка!",
      "JPja": "見つかった！ にげろ、ハチー！！",
      "KRko": "들켰다! 도망쳐, 에이트～!!",
      "TWzh": "被發現了！小八，快逃啊——！！",
      "USen": "It saw us! Book it, Eight!",
      "USes": "¡Nos vio! ¡Vámonos, Ocho!",
      "USfr": "Il a détecté notre présence! Reste pas là, Huit!"
    }
  },
  {
    "label": "f924050f-2590-4be3-afd9-5bb515f548c4",
    "locale": {
      "CNzh": "被它发现就会遭到攻击！请尽快逃离！！",
      "EUde": "Wenn es euch entdeckt, kommt ein Angriff.\nLos, lauft!",
      "EUen": "Now that it's seen you, it's going to attack. Run!",
      "EUes": "¡Ataca cuando te ve! ¡Corre!",
      "EUfr": "Maintenant qu'il sait où tu es, il va attaquer. Cours !",
      "EUit": "Se vi vede, vi attacca subito. Gambe in spalla!",
      "EUnl": "Als hij je ziet, valt hij aan! Wegwezen!",
      "EUru": "Он вас заметил! Будет атаковать, бегите!",
      "JPja": "見つかると攻撃されます！ にげてください！！",
      "KRko": "들키면 공격당해요! 도망치세요!!",
      "TWzh": "一旦被發現就會遭到攻擊！請先逃走吧！！",
      "USen": "Now that it's seen you, it's going to attack. Run!",
      "USes": "¡Te descubrió! ¡Te va a atacar!",
      "USfr": "Maintenant qu'il sait où tu es, il va attaquer. Cours!"
    }
  },
  {
    "label": "ffd8ff1f-a6e0-4d59-ae9d-eb879db84fc4",
    "locale": {
      "CNzh": "这家伙真难对付……你挺厉害嘛，小八。",
      "EUde": "Ich kann froh sein, dass IHR gegen das Ungeheuer\nangetreten seid. Toll gemacht, Nr. 8.",
      "EUen": "Glad it's not me having to take that thing down.\nReally nice work, Eight.",
      "EUes": "Qué pesadez más pesada... Pero has aguantado\nel tipo genial, Ocho.",
      "EUfr": "Eh ben il s'est pas laissé faire, le bougre.\nBeau travail, Huit !",
      "EUit": "Per fortuna non ho dovuto combattere io.\nBen fatto, Otto!",
      "EUnl": "Ik ben blij dat ik dat ding niet hoefde te verslaan...\nHeel goed gedaan, Acht!",
      "EUru": "Хорошо, что не мне пришлось с ним биться.\nВосьмерка, сработано просто великолепно!",
      "JPja": "ヤッカイな相手だっタナ… やるじゃナイカ、ハチ",
      "KRko": "성가신 상대였네… 제법인걸, 에이트",
      "TWzh": "真是個難纏的對手呢……真魷你的，小八。",
      "USen": "Glad it's not me having to take that thing down.\nReally nice work, Eight.",
      "USes": "Qué incordio de jefe. Muy buen trabajo, Ocho.",
      "USfr": "Eh ben, il s'est pas laissé faire, le bougre.\nBeau travail, Huit!"
    }
  }
]