[
  {
    "label": "08aad450-bd01-444b-94e6-46c36ae2df7f",
    "locale": {
      "CNzh": "不错呢～",
      "EUde": "’tschuldigung, wir müssten hier mal durch!",
      "EUen": "'Scuse us, fellas. Comin' through!",
      "EUes": "¡Ustedes perdonen!",
      "EUfr": "Pardon, les gars, pas le temps de bavarder !",
      "EUit": "Con permesso, polpi. Lasciateci passare!",
      "EUnl": "Pardon, we moesten erlangs!",
      "EUru": "Прошу прощения, но мы торопимся!",
      "JPja": "いいね～",
      "KRko": "좋았어～",
      "TWzh": "不錯喔～",
      "USen": "'Scuse us, fellas. Comin' through!",
      "USes": "¡Disculpen!",
      "USfr": "Pardon, les gars, pas le temps de bavarder!"
    }
  },
  {
    "label": "15d1da38-d26f-46d3-9ec5-e9566ed37226",
    "locale": {
      "CNzh": "倒立的{{color id=\"1\"}}章鱼兵{{color id=\"65535\"}}……感觉会脑充血……",
      "EUde": "Oh, hallo, ihr {{color id=\"1\"}}Oktorekruten{{color id=\"65535\"}}!\nNa, ihr hängt einfach nur ’n bisschen ab, was?",
      "EUen": "Oh! Hey there, {{color id=\"1\"}}Octotroopers{{color id=\"65535\"}}. Just hanging out in here?",
      "EUes": "¿Qué hacen esos {{color id=\"1\"}}octorreclutas{{color id=\"65535\"}} boca abajo?",
      "EUfr": "Oups, une escouade de {{color id=\"1\"}}tentassins{{color id=\"65535\"}}...\nÀ mon avis, ils sont pas juste venus prendre l'air !",
      "EUit": "Oh, salve, {{color id=\"1\"}}polpastri{{color id=\"65535\"}}. Siete qui a rilassarvi?",
      "EUnl": "O! Hoi, {{color id=\"1\"}}Octorekruten{{color id=\"65535\"}}. Is dit jullie hangplek?",
      "EUru": "А вот и {{color id=\"1\"}}осьмогады{{color id=\"65535\"}}. Приветики. Чего зависли?",
      "JPja": "逆さ{{color id=\"1\"}}タコトルーパー{{color id=\"65535\"}}、頭に血が上りそうやね…",
      "KRko": "거꾸로 매달린 {{color id=\"1\"}}문어 트루퍼{{color id=\"65535\"}}들, 머리에 피 쏠리겄어…",
      "TWzh": "倒立的{{color id=\"1\"}}章魚兵{{color id=\"65535\"}}，感覺會腦充血耶……",
      "USen": "Oh! Hey there, {{color id=\"1\"}}Octotroopers{{color id=\"65535\"}}. Just hanging out in here?",
      "USes": "¿Qué hacen esos {{color id=\"1\"}}octorreclutas{{color id=\"65535\"}} boca abajo?",
      "USfr": "Oups, une escouade de {{color id=\"1\"}}tentassins{{color id=\"65535\"}}...\nÀ mon avis, ils sont pas juste venus prendre l'air!"
    }
  },
  {
    "label": "36ddbfb0-ddcc-479b-8207-80ecaf3d0b7a",
    "locale": {
      "CNzh": "哦——开始动了——",
      "EUde": "Da geht’s weiter!\nWarum finde ich das nur so spannend?!",
      "EUen": "There's the way forward! Why is this so exciting?!",
      "EUes": "¡Anda, la plataforma se mueve!",
      "EUfr": "Eeeeet le chemin s'ouvre à nous !\nQue d'émotions !",
      "EUit": "Il cammino si apre davanti a te! Non è emozionante?!",
      "EUnl": "Daarmee kun je verder! Waarom blijft dit toch\nzo spannend?!",
      "EUru": "О-о, она движется! Мурашки по коже!",
      "JPja": "おおー、動く！",
      "KRko": "오오～ 움직인다!",
      "TWzh": "哦——動了！",
      "USen": "There's the way forward! Why is this so exciting?!",
      "USes": "¡Uuu, la plataforma se mueve!",
      "USfr": "Eeeeet le chemin s'ouvre à nous!\nQue d'émotions!"
    }
  },
  {
    "label": "3b2613fe-9923-4e54-867a-4a91fc50ec5f",
    "locale": {
      "CNzh": "哇！墙壁打开了哦！",
      "EUde": "Ooooh! Die Wand hat sich geöffnet!",
      "EUen": "Whoa! The wall, uh...opened!",
      "EUes": "¡Una puerta que se abre!",
      "EUfr": "Oh ! Le mur... Il s'est ouvert !",
      "EUit": "Wow! La porta si è aperta!",
      "EUnl": "Ooo! De muur is geopend!",
      "EUru": "Ура! Эта стена... открылась!",
      "JPja": "わ！ カベが開いたよ！",
      "KRko": "우와! 벽이 열렸어!",
      "TWzh": "哇！牆壁打開了！",
      "USen": "Whoa! The wall, uh...opened!",
      "USes": "¡Una puerta que se abre!",
      "USfr": "Oh! Le mur... Il s'est ouvert!"
    }
  },
  {
    "label": "3d650305-a5df-40c7-989f-450671c8ea3b",
    "locale": {
      "CNzh": "涂一下那个{{color id=\"1\"}}开关{{color id=\"65535\"}}就行了吧？",
      "EUde": "Der erste Schritt sieht einfach aus.\nFärb diesen {{color id=\"1\"}}Schalter{{color id=\"65535\"}}!",
      "EUen": "Looks like the first step is easy. Ink that {{color id=\"1\"}}splat switch{{color id=\"65535\"}}!",
      "EUes": "¿Y si entintas ese {{color id=\"1\"}}interruptor{{color id=\"65535\"}}?",
      "EUfr": "On commence en douceur ici, t'as juste\nà encrer un {{color id=\"1\"}}interrupteur {{color id=\"65535\"}}!",
      "EUit": "Il primo passo è facile. Splatta quell'{{color id=\"1\"}}interruttore{{color id=\"65535\"}}!",
      "EUnl": "De eerste stap lijkt niet al te lastig. Geef die\n{{color id=\"1\"}}schakelaar{{color id=\"65535\"}} een mooi kleurtje!",
      "EUru": "Пока что все просто. Закрась-ка тот {{color id=\"1\"}}переключатель{{color id=\"65535\"}}!",
      "JPja": "あの{{color id=\"1\"}}スイッチ{{color id=\"65535\"}}、塗ったらいいのかな？",
      "KRko": "저 {{color id=\"1\"}}스위치{{color id=\"65535\"}}를 칠하면 되는 건가?",
      "TWzh": "是不是對那個{{color id=\"1\"}}開關{{color id=\"65535\"}}塗墨就行了呢？",
      "USen": "Looks like the first step is easy. Ink that {{color id=\"1\"}}splat switch{{color id=\"65535\"}}!",
      "USes": "¿Y si entintas ese {{color id=\"1\"}}interruptor{{color id=\"65535\"}}?",
      "USfr": "On commence en douceur ici, t'as juste\nà encrer un {{color id=\"1\"}}interrupteur{{color id=\"65535\"}}!"
    }
  },
  {
    "label": "4893ab24-4312-4e08-9f07-85fcc9ef4a18",
    "locale": {
      "CNzh": "呼……突然就被瞄准了，\n吓了我一跳！",
      "EUde": "Der hatte vielleicht Nerven!\nDir deinen souveränen Auftritt so zu ruinieren...",
      "EUen": "Phew. That sniper had some nerve, ruining your\ndramatic entrance.",
      "EUes": "¡Uf! ¡Quién habría pensado que te tendría a tiro tan\nde repente!",
      "EUfr": "Elle manque pas de culot, cette tourelle...\nGâcher une entrée aussi théâtrale !",
      "EUit": "Fiuuu. Che muso tosto, quel tiratore.\nRovinare una tale favolosa apertura della porta.",
      "EUnl": "Zo zeg, die durfde nogal! Een beetje onze heldhaftige\nbinnenkomst vergallen!",
      "EUru": "Этому снайперу хватило наглости испортить\nтвой торжественный выход!",
      "JPja": "ふー… いきなりねらわれて ビックリしちゃったね！",
      "KRko": "후… 갑자기 공격당해서 깜짝 놀랐어!",
      "TWzh": "呼……突然間就被盯上了，\n真是嚇我一跳耶！",
      "USen": "Phew. That sniper had some nerve, ruining your\ndramatic entrance.",
      "USes": "¡Uf! ¡Qué manera de entrometerse!",
      "USfr": "Elle manque pas de culot, cette tourelle...\nGâcher une entrée aussi théâtrale!"
    }
  },
  {
    "label": "8bb1eff4-235b-4e79-bf88-1406c84ac45f",
    "locale": {
      "CNzh": "路通了，\n那就往上爬吧～",
      "EUde": "Da geht’s weiter. Auf nach oben!",
      "EUen": "There's our path forward. Let's get climbing!",
      "EUes": "Por ahí se puede continuar. ¡Hacia arriba se ha dicho!",
      "EUfr": "L'arrivée nous tend les bras ! Place à la grimpette !",
      "EUit": "Dobbiamo proseguire da lì. Ti aspetta una scalata!",
      "EUnl": "Daar gaat het verder. Tijd om te klimmen!",
      "EUru": "Путь открыт. Давай наверх!",
      "JPja": "道つながったね\nさ、登っていきますか～",
      "KRko": "길이 이어졌네\n자, 올라가 볼까～",
      "TWzh": "路已經通了。\n走，爬上去吧～",
      "USen": "There's our path forward. Let's get climbing!",
      "USes": "Por ahí se puede continuar. ¡A subir se ha dicho!",
      "USfr": "L'arrivée nous tend les bras! Place à la grimpette!"
    }
  },
  {
    "label": "905733b6-0b22-4c1d-a311-91526c3f0a25",
    "locale": {
      "CNzh": "哇哇，立足处升上来了！",
      "EUde": "Die Plattform bewegt sich!",
      "EUen": "Oh, hey! You made that platform move!",
      "EUes": "¡Fíjate! ¡Has hecho que la plataforma suba!",
      "EUfr": "Hé, bien joué ! T'as fait bouger la plateforme !",
      "EUit": "Oh! Hai messo in moto la piattaforma!",
      "EUnl": "O, je hebt het platform in beweging gekregen!",
      "EUru": "Смотри, платформа поднялась!",
      "JPja": "わわ、足場が上がってきたよ！",
      "KRko": "아앗, 발판이 올라왔어!",
      "TWzh": "哇！立足處升上來了耶！",
      "USen": "Oh, hey! You made that platform move!",
      "USes": "¡Ah, mira! ¡Hiciste mover la plataforma!",
      "USfr": "Hé, bien joué! T'as fait bouger la plateforme!"
    }
  },
  {
    "label": "9a97c1d4-417f-4e89-b998-f69234b3b88d",
    "locale": {
      "CNzh": "首先得想办法处理一下\n广场上的章鱼们才行呢～",
      "EUde": "Ja, aber Nr. 3 muss noch die ganzen Oktarianer aus\ndem Weg räumen... Und das sind ganz schön viele!",
      "EUen": "Sure, but Agent 3 has to clear the plaza of all\nthe Octarians first. And they're...plentiful.",
      "EUes": "Primero habría que limpiar la plaza de octarianos.\n¡Y hay un buen puñado de ellos!",
      "EUfr": "Ouais, dès que Numéro 3 aura fait le ménage sur la\nplace en liquidant ces Octariens... Et y en a un paquet.",
      "EUit": "Sì, ma prima bisogna ripulire la piazza dagli Octariani.\nE con una pesca a strascico, considerato quanti sono.",
      "EUnl": "Ja, maar eerst moet agent 3 de Octarianen opruimen.\nEn dat zijn er niet weinig!",
      "EUru": "Но сначала придется разобраться с этими\nосьморянами. Что-то их здесь многовато...",
      "JPja": "まずは、広場のタコたち どうにかせんとね",
      "KRko": "우선 광장에 있는 문어들부터 손을 써야겠구마잉",
      "TWzh": "首先，我們得想辦法\n解決廣場那群章魚才行。",
      "USen": "Sure, but Agent 3 has to clear the plaza of all\nthe Octarians first. And they're...plentiful.",
      "USes": "Primero habría que limpiar la plaza de octarianos.\n¡Y hay un montón!",
      "USfr": "Ouais, dès que Numéro 3 aura fait le ménage sur la\nplace en liquidant ces octariens... Et y'en a un paquet."
    }
  },
  {
    "label": "a27feb12-31ff-4bae-847d-a2e78517d477",
    "locale": {
      "CNzh": "连上面的也没漏掉，\n3号真可靠——！",
      "EUde": "Keine Kiste ist vor dir sicher!\nNicht mal die ganz oben!",
      "EUen": "No crate is safe from you, Agent 3! Not even\nthe high-up ones.",
      "EUes": "No hay caja que se te escape, ¿eh, Agente 3?",
      "EUfr": "Là où Numéro 3 passe, les caisses trépassent !\nMême en hauteur, elles sont pas à l'abri !",
      "EUit": "Nessuna cassa è al sicuro con te in giro,\nNumero 3! Neanche quelle a metri di altezza.",
      "EUnl": "Geen kist is veilig voor jou, agent 3! Zelfs die helemaal\nbovenaan niet!",
      "EUru": "Ни один ящик от тебя не спрячется, агент 003.\nДаже на такой высоте!",
      "JPja": "上も見のがさないとは、３号 さっすがー！",
      "KRko": "위쪽도 놓치지 않다니, 역시 3호라니까～!",
      "TWzh": "連上面的都逃不過你的眼睛，\n真不愧是3號耶——！",
      "USen": "No crate is safe from you, Agent 3! Not even\nthe high-up ones.",
      "USes": "No hay caja que se te escape, ¿eh, Agente 3?",
      "USfr": "Là où Numéro 3 passe, les caisses trépassent!\nMême en hauteur, elles sont pas à l'abri!"
    }
  },
  {
    "label": "aab6bdd7-82fa-4a24-8747-1d30d7b9c4f1",
    "locale": {
      "CNzh": "原来是灵活运用射程的战斗方式啊！",
      "EUde": "Da hast du die Reichweite deiner Waffe\ngut ausgenutzt!",
      "EUen": "Making use of your weapon's long range, I see.\nThat's good thINKing!",
      "EUes": "Eso sí que es aprovechar las posibilidades de disparo\nde las armas. ¡Bien hecho!",
      "EUfr": "Tirer profit de la portée de l'arme...\nTa tactique est tip-top !",
      "EUit": "Sfrutti al meglio la portata della tua arma, vedo.\nL'inchiostro inchioda il nemico!",
      "EUnl": "Heel goed gebruikgemaakt van het bereik van je\nwapen!",
      "EUru": "Эффективное использование оружия дальнего боя!\nНеплохо!",
      "JPja": "なるほど、射程をイカした 戦い方だね！",
      "KRko": "우와, 사정거리가 기니까 그렇게 싸울 수도 있구나!",
      "TWzh": "原來是採取活用射程的作戰方式啊！",
      "USen": "Making use of your weapon's long range, I see.\nThat's good thINKing!",
      "USes": "Eso sí que es aprovechar el alcance de las armas.\n¡Bien hecho!",
      "USfr": "Tirer profit de la portée de l'arme...\nTa tactique est tip-top!"
    }
  },
  {
    "label": "e3d54a3c-ee1e-4113-b007-1f9df96bd5e5",
    "locale": {
      "CNzh": "终于到顶部了，\n3号，辛苦啦！",
      "EUde": "Wir sind oben! Gut gemacht!",
      "EUen": "You're on top of the world! At least...this small\npart of the world. Nice work, Agent 3!",
      "EUes": "¡Has hecho cumbre! ¡Fantástico, Agente 3!",
      "EUfr": "Décidément, t'atteins des sommets, Numéro 3 !\nOu du moins... ce sommet. Ce qui est déjà pas mal.",
      "EUit": "Sei in cima al mondo! O almeno di questa\npiccola parte del mondo. Ben fatto, Numero 3!",
      "EUnl": "Het topje van de wereld! Of in ieder geval van dit\nstukje wereld. Goed gedaan!",
      "EUru": "Теперь мы тут главные!\nОтличная работа, агент 003!",
      "JPja": "ようやく てっぺんだね\n３号、おつかれさま！",
      "KRko": "드디어 꼭대기네\n3호, 수고했어!",
      "TWzh": "終於抵達頂層了！\n3號，辛苦你囉！",
      "USen": "You're on top of the world! At least...this small\npart of the world. Nice work, Agent 3!",
      "USes": "¡Llegaste a la cima! ¡Bravo, Agente 3!",
      "USfr": "Décidément, t'atteins des sommets, Numéro 3!\nOu du moins... ce sommet. Ce qui est déjà pas mal."
    }
  },
  {
    "label": "ea80c3ca-4f62-4c40-b604-37804b2d3db6",
    "locale": {
      "CNzh": "击倒{{color id=\"1\"}}章鱼狙击兵{{color id=\"65535\"}}啦～！",
      "EUde": "Schlabber Tinte, {{color id=\"1\"}}Oktoschütze{{color id=\"65535\"}}!",
      "EUen": "Eat ink, {{color id=\"1\"}}Octosniper{{color id=\"65535\"}}!",
      "EUes": "¡Chúpate esa, {{color id=\"1\"}}octotirador{{color id=\"65535\"}}!",
      "EUfr": "Bye-bye, le {{color id=\"1\"}}tentapoubelle {{color id=\"65535\"}}!",
      "EUit": "Splattati questo, {{color id=\"1\"}}polpotiratore{{color id=\"65535\"}}!",
      "EUnl": "Pak aan, {{color id=\"1\"}}Octoschutter{{color id=\"65535\"}}!",
      "EUru": "Получи и распишись, {{color id=\"1\"}}осьмоснайпер{{color id=\"65535\"}}!",
      "JPja": "{{color id=\"1\"}}タコスナイパー{{color id=\"65535\"}}撃破～！",
      "KRko": "{{color id=\"1\"}}문어 스나이퍼{{color id=\"65535\"}} 격파～!",
      "TWzh": "{{color id=\"1\"}}章魚狙擊兵{{color id=\"65535\"}}，擊倒～！",
      "USen": "Eat ink, {{color id=\"1\"}}Octosniper{{color id=\"65535\"}}!",
      "USes": "¡Toma eso, {{color id=\"1\"}}octotirador{{color id=\"65535\"}}!",
      "USfr": "Bye-bye, le {{color id=\"1\"}}tentapoubelle{{color id=\"65535\"}}!"
    }
  },
  {
    "label": "ed7f6d5b-9be4-4a74-804b-801112cba8e9",
    "locale": {
      "CNzh": "发现终点，就在前方建筑物的顶部！",
      "EUde": "Nur noch die Rampen hoch, dann sind wir da!",
      "EUen": "I see the goal! Just a quick climb up those ramps,\nand then we're done.",
      "EUes": "Veo la meta. Es solo cuestión de subir hasta ahí.",
      "EUfr": "Là-bas, l'arrivée ! Plus qu'à escalader ces rampes\net on y est !",
      "EUit": "Vedo il traguardo! Ti basta salire su quelle\nrampe e avremo finito.",
      "EUnl": "Nog een korte klim en dan zijn we bij het doel!",
      "EUru": "Вижу цель! Парочка поворотов, и мы на месте!",
      "JPja": "前方の建物てっぺんに ゴール確認！",
      "KRko": "전방의 건물 꼭대기에 골 확인!",
      "TWzh": "終點位於前方建築物頂層！",
      "USen": "I see the goal! Just a quick climb up those ramps,\nand then we're done.",
      "USes": "Veo la meta. Es solo cuestión de subir hasta ahí.",
      "USfr": "Là-bas, l'arrivée! Plus qu'à escalader ces rampes\net on y est!"
    }
  },
  {
    "label": "f0209afe-bba2-4175-bbf3-3ef41f1fca60",
    "locale": {
      "CNzh": "玻璃的另一侧有{{color id=\"1\"}}开关{{color id=\"65535\"}}啊。\n有没有办法能涂到它呢？",
      "EUde": "Der nächste {{color id=\"1\"}}Schalter {{color id=\"65535\"}}ist hinter dem Glas.\nTriffst du ihn von hier?",
      "EUen": "There's the next {{color id=\"1\"}}splat switch{{color id=\"65535\"}}, just behind the glass.\nThink you can ink it from here?",
      "EUes": "Hay un {{color id=\"1\"}}interruptor{{color id=\"65535\"}} al otro lado del cristal.\n¿Cómo podrías alcanzarlo con tu tinta?",
      "EUfr": "Et voilà l'{{color id=\"1\"}}interrupteur{{color id=\"65535\"}} suivant, juste derrière la vitre.\nTu vas pouvoir l'encrer d'ici ?",
      "EUit": "Ecco il prossimo {{color id=\"1\"}}interruttore{{color id=\"65535\"}}, dietro il vetro.\nPensi di riuscire a splattarlo da qui?",
      "EUnl": "De volgende {{color id=\"1\"}}schakelaar{{color id=\"65535\"}} zit achter dat glas! Kun je hem\nvanaf hier raken?",
      "EUru": "Следующий {{color id=\"1\"}}переключатель {{color id=\"65535\"}}за стеклом.\nСможешь закрасить его отсюда?",
      "JPja": "ガラスの向こうに {{color id=\"1\"}}スイッチ{{color id=\"65535\"}}あるね\nどうにかして 塗れそう？",
      "KRko": "유리 너머에 {{color id=\"1\"}}스위치{{color id=\"65535\"}}가 있네\n칠할 방법이 없을까?",
      "TWzh": "玻璃後面有{{color id=\"1\"}}開關{{color id=\"65535\"}}耶，\n有辦法塗墨嗎？",
      "USen": "There's the next {{color id=\"1\"}}splat switch{{color id=\"65535\"}}, just behind the glass.\nThink you can ink it from here?",
      "USes": "Hay un {{color id=\"1\"}}interruptor{{color id=\"65535\"}} al otro lado del cristal.\n¿Cómo podrías alcanzarlo con tu tinta?",
      "USfr": "Et voilà l'{{color id=\"1\"}}interrupteur{{color id=\"65535\"}} suivant, juste derrière la vitre.\nTu vas pouvoir l'encrer d'ici?"
    }
  },
  {
    "label": "fcf97cb4-b5f1-46cb-bfbd-83c3da309690",
    "locale": {
      "CNzh": "原来如此，从那里爬上去，然后直接……\n干得漂亮，3号！",
      "EUde": "Das war sehr direkt, hehe!",
      "EUen": "The direct approach, eh? Nicely done.",
      "EUes": "Por la vía rápida, ¿eh? Bien jugado.",
      "EUfr": "L'approche frontale, hein ?\nSommaire, mais efficace.",
      "EUit": "Prediligi l'approccio diretto, eh? Ottimo lavoro.",
      "EUnl": "O, de directe weg? Heel goed!",
      "EUru": "Идешь напролом, да? Смелый ход.",
      "JPja": "なるほど、そこから登って 直接！\nナイス ３号！",
      "KRko": "아하, 그쪽으로 올라와서 직접!\n나이스, 3호!",
      "TWzh": "原來如此，從那裡爬上去，然後直接……\n3號，做得好！",
      "USen": "The direct approach, eh? Nicely done.",
      "USes": "Conque vía rápida... Buena esa.",
      "USfr": "L'approche frontale, hein?\nSommaire, mais efficace."
    }
  }
]