[
  {
    "label": "03815905-3bf5-45a8-bd76-09ba6fbcfb44",
    "locale": {
      "CNzh": "这种地方居然也有瓶装鲑鱼卵！\n3号，你的嗅觉真灵敏……",
      "EUde": "Hier ist auch eine Fischeierkonserve?\nWow. Du hast wirklich ’n gutes Näschen, Nr. 3!",
      "EUen": "There's a Power Egg pack here too? Wow. You have\na good sense of smell, Agent 3...",
      "EUes": "¿Aquí también había una lata de caviar rojo?\n¡Alucino con tu sentido del olfato, Agente 3!",
      "EUfr": "Ouah, encore une boîte d'œufs de poisson ?\nTon flair te trompe jamais, Numéro 3...",
      "EUit": "Una latta di uova di pesce anche qui? Wow, hai\nil senso dell'olfatto sviluppato, Numero 3...",
      "EUnl": "Hier ook al een potje visseneieren? Wauw. Jij hebt echt\neen neus voor mooie dingen, agent 3.",
      "EUru": "И тут баночка икры? Да у тебя отменный нюх,\nагент 003.",
      "JPja": "こんなところにも ビンイクラ！\n３号、なかなかのキュウカク…",
      "KRko": "이런 곳에도 연어알 팩이!\n3호, 감이 상당히 좋네…",
      "TWzh": "這種地方居然也有瓶裝鮭魚卵！\n3號，你的嗅覺真靈……",
      "USen": "There's a Power Egg pack here too? Wow. You have\na good sense of smell, Agent 3...",
      "USes": "¿Aquí también había una lata de huevecillos de poder?\n¡Me impresiona tu sentido del olfato, Agente 3!",
      "USfr": "Ouah, encore une boîte d'œufs de poisson?\nTon flair te trompe jamais, Numéro 3..."
    }
  },
  {
    "label": "03864a0b-4f63-413c-9fce-ab0c756b1fa5",
    "locale": {
      "CNzh": "那边的广场似乎非常危险……\n打起精神来，3号！",
      "EUde": "Vorsicht! Wenn ich eines weiß, dann dass weite,\noffene Flächen Gefahr bedeuten.",
      "EUen": "Careful! If I know anything about being an agent, it's\nthat an open space like that is BOUND to be trouble...",
      "EUes": "¡Mantente alerta! Cualquier agente que se precie sabe\nque tanto espacio abierto puede suponer problemas.",
      "EUfr": "Attention ! Ces grands espaces ouverts ont tendance\nà attirer les ennemis, crois-en mon expérience !",
      "EUit": "Occhio! Se c'è una cosa che so di questo lavoro,\nè che uno spazio aperto come quello porta guai...",
      "EUnl": "Pas op, hoor. Regel 17 op het slagveld: een grote open\nruimte levert altijd problemen op...",
      "EUru": "Такие открытые пространства не внушают доверия...\nБудь начеку, агент 003.",
      "JPja": "そこの広場 キケンな香り…\nきばるよ、３号！",
      "KRko": "그쪽 광장에서 위험한 냄새가 풀풀 나…\n조심해, 3호!",
      "TWzh": "那個廣場有股危險的氣息……\n打起精神來吧，3號！",
      "USen": "Careful! If I know anything about being an agent, it's\nthat an open space like that is BOUND to be trouble...",
      "USes": "¡Mantente alerta! Todo agente sabe que un lugar tan\nabierto como ese está destinado a traer problemas.",
      "USfr": "Attention! Ces grands espaces ouverts ont tendance\nà attirer les ennemis, crois-en mon expérience!"
    }
  },
  {
    "label": "1cda10c8-97c0-441f-9eb7-129b0fc64823",
    "locale": {
      "CNzh": "啊，远处有1只{{color id=\"1\"}}章鱼弹舱兵{{color id=\"65535\"}}……",
      "EUde": "Schau mal!\nGanz da drüben ist ein {{color id=\"1\"}}Oktopod{{color id=\"65535\"}}.",
      "EUen": "Look! There's an {{color id=\"1\"}}Octopod{{color id=\"65535\"}} way over there.",
      "EUes": "¡Mira! ¡Allí a lo lejos hay un {{color id=\"1\"}}octópodo{{color id=\"65535\"}}!",
      "EUfr": "Là-bas ! Un {{color id=\"1\"}}podo-missile{{color id=\"65535\"}} !",
      "EUit": "Guarda! C'è un {{color id=\"1\"}}octopod {{color id=\"65535\"}}laggiù.",
      "EUnl": "Kijk! Ik zie daar een {{color id=\"1\"}}Octopod{{color id=\"65535\"}}.",
      "EUru": "Смотри, там {{color id=\"1\"}}бомбоног{{color id=\"65535\"}}!",
      "JPja": "おっ、遠くに{{color id=\"1\"}}タコポッド{{color id=\"65535\"}}が１体…",
      "KRko": "오, 저 멀리 {{color id=\"1\"}}문어 포드{{color id=\"65535\"}}가 하나…",
      "TWzh": "哦，遠處有1隻{{color id=\"1\"}}章魚彈艙兵{{color id=\"65535\"}}……",
      "USen": "Look! There's an {{color id=\"1\"}}Octopod{{color id=\"65535\"}} way over there.",
      "USes": "¡Mira! ¡Allá a lo lejos hay una {{color id=\"1\"}}tintápsula{{color id=\"65535\"}}!",
      "USfr": "Là-bas! Un {{color id=\"1\"}}podo-missile{{color id=\"65535\"}}!"
    }
  },
  {
    "label": "30f7bde5-89ab-479d-ace6-dd71a00fb5dc",
    "locale": {
      "CNzh": "这次一定到终点了吧！\n辛苦啦，3号！",
      "EUde": "Uuund du bist am Ziel! Super!",
      "EUen": "Nice work, Agent 3! Splat the goal and let's go.",
      "EUes": "Objetivo alcanzado. ¡Buen trabajo, Agente 3!",
      "EUfr": "Joli travail, Numéro 3 !\nActive ça et filons d'ici !",
      "EUit": "Ben fatto, Numero 3! Splatta il traguardo e andiamo.",
      "EUnl": "Goed werk, agent 3! Activeer dat, dan kunnen we\nverder.",
      "EUru": "Хорошая работа, агент 003. Закрашивай цель,\nи погнали!",
      "JPja": "今度こそゴールだね！\nおつかれ、３号！",
      "KRko": "이번엔 진짜 골이야!\n수고 많았어, 3호!",
      "TWzh": "這次總算是抵達終點了！\n辛苦你囉，3號！",
      "USen": "Nice work, Agent 3! Splat the goal and let's go.",
      "USes": "Objetivo alcanzado. ¡Buen trabajo, Agente 3!",
      "USfr": "Joli travail, Numéro 3!\nActive ça et filons d'ici!"
    }
  },
  {
    "label": "48701cef-8f0f-4c9a-b72e-77dcce0d9ee2",
    "locale": {
      "CNzh": "发现{{color id=\"1\"}}钥匙{{color id=\"65535\"}}了！但是从这里拿不到啊……",
      "EUde": "{{color id=\"1\"}}Schlüssel{{color id=\"65535\"}} gesichtet!\nAber wie soll man nur an ihn rankommen?",
      "EUen": "Hey, it's a {{color id=\"1\"}}key{{color id=\"65535\"}}! But how can we get up there?",
      "EUes": "¡Una {{color id=\"1\"}}llave{{color id=\"65535\"}}! Aunque a ver cómo la alcanzas desde aquí...",
      "EUfr": "Ah, une {{color id=\"1\"}}clé{{color id=\"65535\"}} ! Par contre...\nComment on va grimper là-haut ?",
      "EUit": "Ecco una {{color id=\"1\"}}chiave{{color id=\"65535\"}}! Ma dubito tu la possa\nraggiungere da qui...",
      "EUnl": "Hé, een {{color id=\"1\"}}sleutel{{color id=\"65535\"}}! Maar hoe komen we daarboven?",
      "EUru": "Там {{color id=\"1\"}}ключ{{color id=\"65535\"}}! Но отсюда его не достать...",
      "JPja": "{{color id=\"1\"}}カギ{{color id=\"65535\"}}発見！ けど、ここからじゃ届かんね… ",
      "KRko": "{{color id=\"1\"}}열쇠 {{color id=\"65535\"}}발견! 하지만 여기에서는 못 줍겄어…",
      "TWzh": "發現{{color id=\"1\"}}鑰匙{{color id=\"65535\"}}！但是從這裡拿不到耶……",
      "USen": "Hey, it's a {{color id=\"1\"}}key{{color id=\"65535\"}}! But how can we get up there?",
      "USes": "¡Una {{color id=\"1\"}}llave{{color id=\"65535\"}}! Aunque no sé cómo se podrá\nalcanzar desde aquí...",
      "USfr": "Ah, une {{color id=\"1\"}}clé{{color id=\"65535\"}}! Par contre...\nComment on va grimper là-haut?"
    }
  },
  {
    "label": "4936532e-8298-48d8-9665-719c4cd0cdd0",
    "locale": {
      "CNzh": "这种地方居然有瓶装鲑鱼卵！\n你真敏锐啊，3号！",
      "EUde": "Eine Fischeierkonserve? Hier?\nDu bist ganz schön auf Zack, Nr. 3!",
      "EUen": "A Power Egg pack in a place like this? You're pretty\nsharp, Agent 3!",
      "EUes": "¡Vaya sitio para esconder una lata de caviar rojo!\nNo se te escapa una, ¿eh, Agente 3?",
      "EUfr": "Une boîte d'œufs de poisson dans un endroit\npareil ? T'as oublié d'être bête, Numéro 3 !",
      "EUit": "Una latta di uova di pesce in un posto così?\nSei un mollusco sveglio, Numero 3!",
      "EUnl": "Hoe krijg je het voor elkaar om hier een potje\nvisseneieren te vinden? Jij bent echt gehaaid, agent 3!",
      "EUru": "Найти банку икры в таком месте? \nДа ты сегодня в ударе, агент 003!",
      "JPja": "こんなところに ビンイクラ！\nするどいね、３号！",
      "KRko": "이런 데에 연어알 팩이!\n3호, 눈썰미가 좋구나!",
      "TWzh": "這種地方居然有瓶裝鮭魚卵！\n你真是感官敏銳耶，3號！",
      "USen": "A Power Egg pack in a place like this? You're pretty\nsharp, Agent 3!",
      "USes": "¿Una lata de huevecillos de poder en un lugar como\neste? Veo que no se te escapa ni una, Agente 3.",
      "USfr": "Une boîte d'œufs de poisson dans un endroit\npareil? T'as oublié d'être bête, Numéro 3!"
    }
  },
  {
    "label": "823fa0d1-b465-459c-ae21-a41163c09934",
    "locale": {
      "CNzh": "哦，发现{{color id=\"1\"}}钥匙{{color id=\"65535\"}}了。",
      "EUde": "Oh, hey! Da ist ein {{color id=\"1\"}}Schlüssel{{color id=\"65535\"}}.",
      "EUen": "Ooh, hey! There's a {{color id=\"1\"}}key{{color id=\"65535\"}}.",
      "EUes": "¡Encontraste la {{color id=\"1\"}}llave{{color id=\"65535\"}}!",
      "EUfr": "Ohé ! Y a une {{color id=\"1\"}}clé{{color id=\"65535\"}}.",
      "EUit": "Oh, ehi! C'è una {{color id=\"1\"}}chiave{{color id=\"65535\"}}!",
      "EUnl": "Ooo, kijk eens! Dat is een {{color id=\"1\"}}sleutel{{color id=\"65535\"}}.",
      "EUru": "Смотрите-ка, {{color id=\"1\"}}ключ{{color id=\"65535\"}}!",
      "JPja": "おっ、{{color id=\"1\"}}カギ{{color id=\"65535\"}}発見",
      "KRko": "오, {{color id=\"1\"}}열쇠 {{color id=\"65535\"}}발견",
      "TWzh": "哦，發現{{color id=\"1\"}}鑰匙{{color id=\"65535\"}}。",
      "USen": "Ooh, hey! There's a {{color id=\"1\"}}key{{color id=\"65535\"}}.",
      "USes": "¡Encontraste la {{color id=\"1\"}}llave{{color id=\"65535\"}}!",
      "USfr": "Ohé! Y'a une {{color id=\"1\"}}clé{{color id=\"65535\"}}."
    }
  },
  {
    "label": "83c35b12-498b-45f3-af0d-2515a4487833",
    "locale": {
      "CNzh": "应该快到终点了吧……啊，好像有什么东西——！",
      "EUde": "Fast geschafft...\nAber was lauert denn da?",
      "EUen": "Alllmost there...but what's lurking in that room?",
      "EUes": "Casi has llegado al final, pero... ¿qué hay ahí?",
      "EUfr": "On y est presque, mais...\nC'est quoi, ce truc qui tombe du plafond ?",
      "EUit": "Ci siamo quasi... ma cosa c'è in quella stanza?",
      "EUnl": "We zijn er bijnaaaa... maar wat kuiert daar rond?",
      "EUru": "Почти у цели... А это еще что там такое?",
      "JPja": "もうすぐゴールかな…って、なんかいるー！",
      "KRko": "거의 다 온 것 같은데…\n앗, 뭔가가 있어～!",
      "TWzh": "應該快到終點了吧……等等，好像有什麼東西！",
      "USen": "Alllmost there...but what's lurking in that room?",
      "USes": "Ya casi llegas al final, pero... ¿qué hay ahí?",
      "USfr": "On y est presque, mais...\nC'est quoi ce truc qui tombe du plafond?"
    }
  },
  {
    "label": "a5f3365b-57f9-4f94-924f-a65c921c76ba",
    "locale": {
      "CNzh": "一旦靠近，它就会冲过来！小心点！",
      "EUde": "Vorsicht!\nWenn du zu nah rangehst, macht er Jagd auf dich!",
      "EUen": "Careful! They'll charge if you get too close.",
      "EUes": "¡Ten mucho cuidado! Si te acercas demasiado,\nse lanzará a por ti.",
      "EUfr": "Fais gaffe ! Ces sales bêtes te foncent dessus\nsi tu t'approches trop.",
      "EUit": "Occhio! Ti attaccherà se ti avvicini troppo.",
      "EUnl": "Pas op! Als je te dichtbij komt, komen ze op je af!",
      "EUru": "Осторожно! Не дай им подобраться\nслишком близко, иначе они взорвутся.",
      "JPja": "近づくと つっこんで来るよ！ 気をつけて！",
      "KRko": "가까이 다가가면 달려들 거야! 조심해!",
      "TWzh": "一旦接近就會衝過來喔！小心點！",
      "USen": "Careful! They'll charge if you get too close.",
      "USes": "¡Cuidado! Si te acercas demasiado, se lanzará hacia ti.",
      "USfr": "Fais gaffe! Ces sales bêtes te foncent dessus\nsi tu t'approches trop."
    }
  },
  {
    "label": "ae3672e5-1372-4185-9d43-611881980888",
    "locale": {
      "CNzh": "哇！好大啊，它要过来了！",
      "EUde": "Vorsicht!\nDer Riesen-Oktopod kommt genau auf dich zu!",
      "EUen": "Watch out! An Oversized Octopod is headed\nstraight for you!",
      "EUes": "¡Cuidado! ¡Ese mastodonte viene directo a por ti!",
      "EUfr": "Attention ! Un podo-missile géant fonce droit sur toi !",
      "EUit": "Attenzione! Un octopod gigante viene verso di te!",
      "EUnl": "Pas op! Er komt een mega-Octopod op je af!",
      "EUru": "Берегись! Огромный бомбоног\nнесется прямо на тебя!",
      "JPja": "わわっ！ なんかデカいし、来る！",
      "KRko": "으앗! 뭔가 커다란 녀석이 온다!",
      "TWzh": "哇！感覺好大喔，要過來了！",
      "USen": "Watch out! An Oversized Octopod is headed\nstraight for you!",
      "USes": "¡Cuidado! ¡Esa tintápsula gigante viene por ti!",
      "USfr": "Attention! Un podo-missile géant fonce droit sur toi!"
    }
  },
  {
    "label": "b46c1821-dbce-481c-be9b-2db188d821be",
    "locale": {
      "CNzh": "没办法前进了……得先找到{{icon id=\"26\" arg=\"0x0000803F00000000\"}}{{color id=\"1\"}}钥匙{{color id=\"65535\"}}才行！",
      "EUde": "Hier geht's nicht weiter...\nWir brauchen einen {{icon id=\"26\" arg=\"0x0000803F00000000\"}} {{color id=\"1\"}}Schlüssel{{color id=\"65535\"}}!",
      "EUen": "You can't get past here without a {{icon id=\"26\" arg=\"0x0000803F00000000\"}}{{color id=\"1\"}}key{{color id=\"65535\"}}.\nLet's go find it!",
      "EUes": "Necesitas encontrar la {{color id=\"1\"}}llave{{color id=\"65535\"}} {{icon id=\"26\" arg=\"0x0000803F00000000\"}} para poder continuar.",
      "EUfr": "Il te faut absolument une {{color id=\"1\"}}clé{{color id=\"65535\"}} {{icon id=\"26\" arg=\"0x0000803F00000000\"}} pour continuer.\nReste plus qu'à la trouver !",
      "EUit": "Non puoi passare da qui senza una {{color id=\"1\"}}chiave {{color id=\"65535\"}}{{icon id=\"26\" arg=\"0x0000803F00000000\"}}.\nVai a cercarla!",
      "EUnl": "Je kunt hier niet verder komen zonder {{icon id=\"26\" arg=\"0x0000803F00000000\"}}{{color id=\"1\"}}sleutel{{color id=\"65535\"}}.\nTijd om op zoek te gaan!",
      "EUru": "Тут без {{icon id=\"26\" arg=\"0x0000803F00000000\"}}{{color id=\"1\"}}ключа{{color id=\"65535\"}} не пройти.\nДавай поищем его!",
      "JPja": "進めないね… {{icon id=\"26\" arg=\"0x0000803F00000000\"}}{{color id=\"1\"}}カギ{{color id=\"65535\"}}探さなきゃ！",
      "KRko": "앞으로 갈 수가 없네…\n{{icon id=\"26\" arg=\"0x0000803F00000000\"}}{{color id=\"1\"}}열쇠{{color id=\"65535\"}}가 필요해!",
      "TWzh": "沒辦法前進了……得先找到{{icon id=\"26\" arg=\"0x0000803F00000000\"}}{{color id=\"1\"}}鑰匙{{color id=\"65535\"}}才行！",
      "USen": "You can't get past here without a {{icon id=\"26\" arg=\"0x0000803F00000000\"}}{{color id=\"1\"}}key{{color id=\"65535\"}}.\nLet's go find it!",
      "USes": "Necesitas encontrar la {{color id=\"1\"}}llave{{color id=\"65535\"}} {{icon id=\"26\" arg=\"0x0000803F00000000\"}} para poder continuar.",
      "USfr": "Il te faut absolument une {{color id=\"1\"}}clé{{color id=\"65535\"}} {{icon id=\"26\" arg=\"0x0000803F00000000\"}} pour continuer.\nReste plus qu'à la trouver!"
    }
  },
  {
    "label": "d3231905-bd2d-4c85-a767-102209fb6f94",
    "locale": {
      "CNzh": "拿到{{color id=\"1\"}}钥匙{{color id=\"65535\"}}啦～♪\n跳下墙壁，然后到{{icon id=\"27\" arg=\"0x0000803F00000000\"}}{{color id=\"1\"}}门{{color id=\"65535\"}}那里去吧。",
      "EUde": "So, jetzt ein kleiner Hüpfer nach unten\nund du kannst den {{icon id=\"27\" arg=\"0x0000803F00000000\"}} {{color id=\"1\"}}Container{{color id=\"65535\"}} öffnen.",
      "EUen": "There you go. Now it's just a quick hop down, and\nyou can go unlock that {{icon id=\"27\" arg=\"0x0000803F00000000\"}}{{color id=\"1\"}}vault{{color id=\"65535\"}}.",
      "EUes": "♪ ¡Ya está en tu podeeer! ♪\nAhora toca bajar y abrir el {{color id=\"1\"}}cerrojo{{color id=\"65535\"}} {{icon id=\"27\" arg=\"0x0000803F00000000\"}}.",
      "EUfr": "Et voilà ! Plus qu'à délicatement sauter là en bas\net tu pourras déverrouiller le {{color id=\"1\"}}portail {{icon id=\"27\" arg=\"0x0000803F00000000\"}}{{color id=\"65535\"}}.",
      "EUit": "Ecco fatto. Ora devi solo saltare giù\ne potrai aprire quel {{color id=\"1\"}}portale {{color id=\"65535\"}}{{icon id=\"27\" arg=\"0x0000803F00000000\"}}.",
      "EUnl": "Precies wat we nodig hadden. Nu is het tijd om naar\nbeneden te springen en de {{icon id=\"27\" arg=\"0x0000803F00000000\"}}{{color id=\"1\"}}kluis {{color id=\"65535\"}}open te maken.",
      "EUru": "А вот и {{color id=\"1\"}}ключ{{color id=\"65535\"}}. Прыгай вниз и неси его\nк {{color id=\"1\"}}бункеру{{color id=\"65535\"}} {{icon id=\"27\" arg=\"0x0000803F00000000\"}}.",
      "JPja": "{{color id=\"1\"}}カギ{{color id=\"65535\"}}ゲット～♪\nカベから飛び降りて {{icon id=\"27\" arg=\"0x0000803F00000000\"}}{{color id=\"1\"}}ドア{{color id=\"65535\"}}まで行っちゃお",
      "KRko": "{{color id=\"1\"}}열쇠{{color id=\"65535\"}} 획득～♪\n벽에서 뛰어내려서 {{icon id=\"27\" arg=\"0x0000803F00000000\"}}{{color id=\"1\"}}도어{{color id=\"65535\"}}까지 가 보자",
      "TWzh": "{{color id=\"1\"}}鑰匙{{color id=\"65535\"}}到手～♪\n跳下牆壁後到{{icon id=\"27\" arg=\"0x0000803F00000000\"}}{{color id=\"1\"}}門{{color id=\"65535\"}}那裡去吧！",
      "USen": "There you go. Now it's just a quick hop down, and\nyou can go unlock that {{icon id=\"27\" arg=\"0x0000803F00000000\"}}{{color id=\"1\"}}vault{{color id=\"65535\"}}.",
      "USes": "♪ ¡Ya la tieneees! ♪\nAhora hay que bajar y abrir la {{color id=\"1\"}}bóveda {{color id=\"65535\"}}{{icon id=\"27\" arg=\"0x0000803F00000000\"}}.",
      "USfr": "Et voilà! Plus qu'à délicatement sauter là en bas\net tu pourras déverrouiller le {{color id=\"1\"}}portail {{icon id=\"27\" arg=\"0x0000803F00000000\"}}{{color id=\"65535\"}}."
    }
  },
  {
    "label": "e03f3331-d055-4899-9efd-a8c97284c669",
    "locale": {
      "CNzh": "呼——吓了一跳呢……",
      "EUde": "Puh, das hatte ich jetzt nicht erwartet...",
      "EUen": "Whew! Wasn't expecting that...",
      "EUes": "¡Uf! Vaya susto, ¿eh?",
      "EUfr": "Pffiou ! Je m'y attendais pas, à celui-là...",
      "EUit": "Oh! Non me l'aspettavo...",
      "EUnl": "Poeh! Dat zag ik niet aankomen...",
      "EUru": "Ух! Такого я не ожидала...",
      "JPja": "ふー、びっくりしたね…",
      "KRko": "휴우, 깜짝 놀랐네…",
      "TWzh": "呼——真是嚇了一跳耶……",
      "USen": "Whew! Wasn't expecting that...",
      "USes": "¡Uf! Eso no me lo esperaba...",
      "USfr": "Pffiou! Je m'y attendais pas, à celui-là..."
    }
  },
  {
    "label": "f1faa151-0e52-4e44-b072-3b2da6695339",
    "locale": {
      "CNzh": "转弯前，先推动{{icon id=\"8\" arg=\"0xCDCC4C3F00000000\"}}来确认是否安全吧～",
      "EUde": "Sieh mithilfe von {{icon id=\"8\" arg=\"0xCDCC4C3F00000000\"}} um die Ecken,\ndamit du nicht in einen Hinterhalt läufst!",
      "EUen": "If it were me out there, I'd tilt {{icon id=\"8\" arg=\"0xCDCC4C3F00000000\"}} to peek around\nthe corner so I don't get ambushed.",
      "EUes": "Yo que tú inclinaría {{icon id=\"8\" arg=\"0xCDCC4C3F00000000\"}} para mirar antes de doblar\nla esquina y asegurarme de que no hay peligro.",
      "EUfr": "À ta place, j'inclinerais {{icon id=\"8\" arg=\"0xCDCC4C3F00000000\"}} pour jeter un coup d'œil\navant de foncer tête baissée dans une embuscade...",
      "EUit": "Se fossi in te, inclinerei {{icon id=\"8\" arg=\"0xCDCC4C3F00000000\"}} per guardare\ndietro l'angolo ed evitare un'imboscata.",
      "EUnl": "Vergeet niet dat je {{icon id=\"8\" arg=\"0xCDCC4C3F00000000\"}} kunt gebruiken om om de hoek\nte kijken. Zo voorkom je dat je in een hinderlaag loopt.",
      "EUru": "Пс-с! Загляни за угол, используя {{icon id=\"8\" arg=\"0xCDCC4C3F00000000\"}}.\nВдруг там засада!",
      "JPja": "曲がる前に {{icon id=\"8\" arg=\"0xCDCC4C3F00000000\"}}かたむけて安全確認～",
      "KRko": "코너를 돌기 전에 {{icon id=\"8\" arg=\"0xCDCC4C3F00000000\"}}을 기울여서 안전한지 확인하고～",
      "TWzh": "轉彎前先推動{{icon id=\"8\" arg=\"0xCDCC4C3F00000000\"}}確認安全～",
      "USen": "If it were me out there, I'd tilt {{icon id=\"8\" arg=\"0xCDCC4C3F00000000\"}} to peek around\nthe corner so I don't get ambushed.",
      "USes": "Yo que tú inclinaría {{icon id=\"8\" arg=\"0xCDCC4C3F00000000\"}} para mirar antes de cruzar\nen la esquina y asegurarme de que no hay peligro.",
      "USfr": "À ta place, j'inclinerais {{icon id=\"8\" arg=\"0xCDCC4C3F00000000\"}} pour jeter un coup d'œil\navant de foncer tête baissée dans une embuscade..."
    }
  },
  {
    "label": "fdb67fdb-3715-475f-9b00-1aedc5aa17d6",
    "locale": {
      "CNzh": "啊，有好多呢。",
      "EUde": "Huch! Bisschen viele Gegner für meinen Geschmack!",
      "EUen": "Whoa! There's a ton of them.",
      "EUes": "¡Uah! ¡Son un montón!",
      "EUfr": "Ouah ! Y en a un paquet.",
      "EUit": "Calamarrani! Ce n'è un mare!",
      "EUnl": "Wauw! Dat zijn er veel.",
      "EUru": "Ой-ой, сколько же их тут.",
      "JPja": "あ、いっぱいおるね",
      "KRko": "아, 잔뜩 있네잉",
      "TWzh": "啊，數量很多耶。",
      "USen": "Whoa! There's a ton of them.",
      "USes": "¡Uah! ¡Son un montón!",
      "USfr": "Ouah! Y'en a un paquet."
    }
  }
]