[
  {
    "label": "AmiiboMySet_Manual00_Title",
    "text": "Sauvegarde de l'équipement"
  },
  {
    "label": "AmiiboMySet_Manual00",
    "text": "Dans le menu de personnalisation, sélectionne\nAutres, puis amiibo et enfin Sauvegarder !\nScanne ensuite l'amiibo sur lequel tu souhaites\nsauvegarder ton équipement actuel ainsi que\ntes réglages de caméra et tes tenues favorites."
  },
  {
    "label": "AmiiboMySet_Manual01_Title",
    "text": "Modifier l'équipement"
  },
  {
    "label": "AmiiboMySet_Manual01",
    "text": "Dans le menu de personnalisation, tu peux\nscanner un amiibo lorsque tu vois l'icône {{icon id=\"37\" arg=\"0xD7A3703FFBFFFFFF\"}}\npermettant de changer de tenue !"
  },
  {
    "label": "AmiiboMySet_Manual02_Title",
    "text": "Tenues favorites"
  },
  {
    "label": "AmiiboMySet_Manual02",
    "text": "Lorsque le menu de personnalisation est ouvert,\ntu peux scanner ton amiibo et enfiler ensuite\nen un clin d'œil les tenues favorites que\nl'amiibo aura mémorisées pour toi ! Il suffit pour\ncela de sélectionner Tenues favorites {{icon id=\"6\" arg=\"0x52B85E3F03000000\"}}."
  }
]