[
  {
    "label": "Rectangle",
    "text": "Главная улица"
  },
  {
    "label": "Zigzag",
    "text": "Грозовой мыс"
  },
  {
    "label": "Cross",
    "text": "Сад X"
  },
  {
    "label": "Square",
    "text": "Квадратная площадь"
  },
  {
    "label": "CenterHole",
    "text": "Озеро Зев"
  },
  {
    "label": "WDiamond",
    "text": "Острова Близнецы"
  },
  {
    "label": "SShape",
    "text": "Змеиная река"
  },
  {
    "label": "SmallSquare",
    "text": "Уютный стадион"
  },
  {
    "label": "IShape",
    "text": "Боевой брус"
  },
  {
    "label": "Face",
    "text": "Усадьба масок"
  },
  {
    "label": "ManyHole",
    "text": "Патовая куща"
  },
  {
    "label": "Stairs",
    "text": "Крекер-слом"
  },
  {
    "label": "Divide",
    "text": "Дороги-двойники"
  },
  {
    "label": "ManySp",
    "text": "Турбомагистраль"
  },
  {
    "label": "Painted",
    "text": "Стена Разделения"
  }
]