[
  {
    "label": "RewardWeapon_00",
    "text": "{{string value=\"WeaponName\" arg1=\"0\" arg3=\"0\"}}!"
  },
  {
    "label": "RewardWeapon_01",
    "text": "Récupère cette arme au {{color id=\"1\"}}terminal du hall{{color id=\"65535\"}}\net essaie-la en match multijoueur!"
  },
  {
    "label": "RewardGear_Head_00",
    "text": "{{string value=\"ClothingName\" arg1=\"0\" arg3=\"0\"}}!"
  },
  {
    "label": "RewardGear_Head_01",
    "text": "Récupère cette pièce d'équipement au {{color id=\"1\"}}terminal\ndu hall {{color id=\"65535\"}}et essaie-la en match multijoueur!"
  },
  {
    "label": "RewardGear_Clothes_00",
    "text": "{{string value=\"ClothingName\" arg1=\"0\" arg3=\"0\"}}!"
  },
  {
    "label": "RewardGear_Clothes_01",
    "text": "Récupère cette pièce d'équipement au {{color id=\"1\"}}terminal\ndu hall {{color id=\"65535\"}}et essaie-la en match multijoueur!"
  },
  {
    "label": "RewardGear_Shoes_00",
    "text": "{{string value=\"ClothingName\" arg1=\"0\" arg3=\"0\"}}!"
  },
  {
    "label": "RewardGear_Shoes_01",
    "text": "Récupère cette pièce d'équipement au {{color id=\"1\"}}terminal\ndu hall {{color id=\"65535\"}}et essaie-la en match multijoueur!"
  },
  {
    "label": "RewardEmote_00",
    "text": "Animation!"
  },
  {
    "label": "RewardEmote_01",
    "text": "Récupère cette animation au {{color id=\"1\"}}terminal du hall {{color id=\"65535\"}}et\nactive-la via le menu de personnalisation {{icon id=\"5\" arg=\"0xAE47613F00000000\"}}!"
  },
  {
    "label": "RewardLockerFigure_00",
    "text": "Objet de décoration!"
  },
  {
    "label": "RewardLockerFigure_Plural_00",
    "text": "Objets de décoration!"
  },
  {
    "label": "RewardLockerFigure_01",
    "text": "Récupère-le au {{color id=\"1\"}}terminal du hall {{color id=\"65535\"}}et\ndécore ton casier avec!"
  },
  {
    "label": "RewardLockerSticker_00",
    "text": "Autocollant!"
  },
  {
    "label": "RewardLockerSticker_Plural_00",
    "text": "Autocollants!"
  },
  {
    "label": "RewardLockerSticker_01",
    "text": "Récupère-le au {{color id=\"1\"}}terminal du hall {{color id=\"65535\"}}et\ndécore ton casier avec!"
  },
  {
    "label": "RewardMiniGameCardPack_00",
    "text": "Jeu de cartes!"
  },
  {
    "label": "RewardMiniGameCardPack_01",
    "text": "Récupère-le au {{color id=\"1\"}}terminal du hall {{color id=\"65535\"}}et\nfais une partie de Cartes et Territoire!"
  },
  {
    "label": "RewardMiniGameCardPackFresh_00",
    "text": "Jeu de cartes cool!"
  },
  {
    "label": "RewardMiniGameCardPackFresh_01",
    "text": "Récupère-le au {{color id=\"1\"}}terminal du hall{{color id=\"65535\"}},\nil pourrait bien contenir une carte rare!"
  },
  {
    "label": "RewardMiniGameSleeve_00",
    "text": "Motifs de cartes!"
  },
  {
    "label": "RewardMiniGameSleeve_01",
    "text": "Récupère-les au {{color id=\"1\"}}terminal du hall{{color id=\"65535\"}}, puis accède à la {{color id=\"1\"}}liste\nde cartes {{color id=\"65535\"}}et choisis Éditeur de paquet pour les utiliser."
  },
  {
    "label": "RewardNamePlateBg_00",
    "text": "Bannière!"
  },
  {
    "label": "RewardNamePlateBg_01",
    "text": "Récupère-la au {{color id=\"1\"}}terminal du hall {{color id=\"65535\"}}et utilise-la\npour personnaliser ta Splatiquette!"
  },
  {
    "label": "RewardByname_00",
    "text": "Nouveau titre!"
  },
  {
    "label": "RewardByname_01",
    "text": "Récupère-le au {{color id=\"1\"}}terminal du hall {{color id=\"65535\"}}et\nutilise-le pour personnaliser ta Splatiquette!"
  },
  {
    "label": "RewardFoodTicket_00",
    "text": "Bon repas!"
  },
  {
    "label": "RewardFoodTicket_01",
    "text": "Récupère-le au {{color id=\"1\"}}terminal du hall {{color id=\"65535\"}}et échange-le\ncontre quelque chose de délicieux!"
  },
  {
    "label": "RewardDrinkTicket_00",
    "text": "Bon breuvage!"
  },
  {
    "label": "RewardDrinkTicket_01",
    "text": "Récupère-le au {{color id=\"1\"}}terminal du hall{{color id=\"65535\"}} et échange-le\ncontre un bon rafraîchissement!"
  },
  {
    "label": "RewardGearSkillChip_00",
    "text": "Fragments de bonus!"
  },
  {
    "label": "RewardMiniGameCardPiece_00",
    "text": "Fragments de cartes!"
  },
  {
    "label": "RewardMiniGameCardPiece_01",
    "text": "Récupère-les au {{color id=\"1\"}}terminal du hall{{color id=\"65535\"}} et utilise-les\ndans ta {{color id=\"1\"}}liste de cartes{{color id=\"65535\"}}!"
  },
  {
    "label": "Gear_Head_00",
    "text": "{{string value=\"ClothingName\" arg1=\"0\" arg3=\"0\"}}!"
  },
  {
    "label": "Gear_Head_01",
    "text": "Va exhiber ton nouveau look dans un match multijoueur!"
  },
  {
    "label": "Gear_Clothes_00",
    "text": "{{string value=\"ClothingName\" arg1=\"0\" arg3=\"0\"}}!"
  },
  {
    "label": "Gear_Clothes_01",
    "text": "Va exhiber ton nouveau look dans un match multijoueur!"
  },
  {
    "label": "Gear_Shoes_00",
    "text": "{{string value=\"ClothingName\" arg1=\"0\" arg3=\"0\"}}!"
  },
  {
    "label": "Gear_Shoes_01",
    "text": "Va exhiber ton nouveau look dans un match multijoueur!"
  },
  {
    "label": "LockerFigure_00",
    "text": "Objet de décoration!"
  },
  {
    "label": "LockerFigure_Bronze_00",
    "text": "Objet de déco en bronze!"
  },
  {
    "label": "LockerFigure_Silver_00",
    "text": "Objet de déco en argent!"
  },
  {
    "label": "LockerFigure_Gold_00",
    "text": "Objet de déco en or!"
  },
  {
    "label": "LockerFigure_Plural_00",
    "text": "Objets de décoration!"
  },
  {
    "label": "LockerFigure_01",
    "text": "Donne une seconde jeunesse à ton casier!"
  },
  {
    "label": "LockerSticker_00",
    "text": "Autocollant!"
  },
  {
    "label": "LockerSticker_Bronze_00",
    "text": "Autocollant bronze!"
  },
  {
    "label": "LockerSticker_Silver_00",
    "text": "Autocollant argent!"
  },
  {
    "label": "LockerSticker_Gold_00",
    "text": "Autocollant or!"
  },
  {
    "label": "LockerSticker_Plural_00",
    "text": "Autocollants!"
  },
  {
    "label": "LockerSticker_01",
    "text": "Donne une seconde jeunesse à ton casier!"
  },
  {
    "label": "FoodTicket_00",
    "text": "Bon repas!"
  },
  {
    "label": "FoodTicket_Plural_00",
    "text": "Bons repas!"
  },
  {
    "label": "FoodTicket_01",
    "text": "À échanger contre de délicieux casse-croûtes\nau kiosque du hall!"
  },
  {
    "label": "DrinkTicket_00",
    "text": "Bon breuvage!"
  },
  {
    "label": "DrinkTicket_Plural_00",
    "text": "Bons breuvages!"
  },
  {
    "label": "DrinkTicket_01",
    "text": "À échanger contre de savoureux rafraîchissements\nau kiosque du hall!"
  },
  {
    "label": "NamePlateBg_00",
    "text": "Bannière!"
  },
  {
    "label": "NamePlateBg_01",
    "text": "Utilise-la pour personnaliser ta Splatiquette!"
  },
  {
    "label": "Byname_00",
    "text": "Nouveau titre!"
  },
  {
    "label": "Byname_01",
    "text": "Utilise-le pour personnaliser ta Splatiquette!"
  },
  {
    "label": "CardPack_00",
    "text": "Jeu de cartes!"
  },
  {
    "label": "CardPack_01",
    "text": "Utilise-le pour jouer à Cartes et Territoire!"
  },
  {
    "label": "CardPackFresh_00",
    "text": "Jeu de cartes cool!"
  },
  {
    "label": "CardPackFresh_01",
    "text": "Utilise-le pour jouer à Cartes et Territoire!"
  },
  {
    "label": "CardSleeve_00",
    "text": "Motifs de cartes!"
  },
  {
    "label": "CardSleeve_01",
    "text": "Sélectionne Éditeur de paquet dans\nla {{color id=\"1\"}}liste de cartes {{color id=\"65535\"}}pour les utiliser."
  },
  {
    "label": "Emote_00",
    "text": "Animation!"
  },
  {
    "label": "Emote_01",
    "text": "Tu peux changer tes animations depuis le menu\nde personnalisation {{icon id=\"5\" arg=\"0xAE47613F00000000\"}}!"
  },
  {
    "label": "GearSkillChip_00",
    "text": "Fragments de bonus!"
  },
  {
    "label": "GearSkillChip_01",
    "text": "Va montrer ça à Tipik sur le carré,\ntu ne le regretteras pas!"
  },
  {
    "label": "Money_00",
    "text": "Argent!"
  },
  {
    "label": "Shell_Fes_00",
    "text": "Super coquillages!"
  },
  {
    "label": "Shell_Fes_01",
    "text": "Tu as rendu tes conques et ton t-shirt festif."
  },
  {
    "label": "StarterDeck_00",
    "text": "Paquet de départ!"
  },
  {
    "label": "StarterDeck_01",
    "text": "Tu peux maintenant jouer à {{color id=\"1\"}}Cartes et Territoire{{color id=\"65535\"}}!\nRassemble des cartes, constitue un paquet, et à l'assaut!"
  },
  {
    "label": "Catalog1st_00",
    "text": "Catalogue!"
  },
  {
    "label": "Catalog1st_01",
    "text": "Accumule des points de catalogue en match ou\nen mission pour obtenir des objets fous!"
  },
  {
    "label": "Catalog_00",
    "text": "Catalogue! (Ça en fait {{number index=\"0\" type=\"4\" arg3=\"0\" arg4=\"0\"}}!)"
  },
  {
    "label": "Catalog_01",
    "text": "Accumule des points de catalogue en match ou\nen mission pour obtenir des objets fous!"
  },
  {
    "label": "NextSeasonCatalog_00",
    "text": "Nouveau catalogue!"
  },
  {
    "label": "NextSeasonCatalog_01",
    "text": "Ton ancien catalogue a été recyclé."
  },
  {
    "label": "WeaponLicense_00",
    "text": "Brevets Cartouche! ({{number index=\"0\" type=\"2\" arg3=\"0\" arg4=\"0\"}})"
  },
  {
    "label": "WeaponLicense_01",
    "text": "Présente-les à Alassaut pour obtenir\nde nouvelles armes!"
  },
  {
    "label": "GoldWeaponLicense_00",
    "text": "Brevets Cartouche Or : {{number index=\"0\" type=\"2\" arg3=\"0\" arg4=\"0\"}}!"
  },
  {
    "label": "GoldWeaponLicense_01",
    "text": "Apporte-les à Cartouche pour obtenir\nde nouvelles armes!"
  },
  {
    "label": "BankaraMatchUnlock_00",
    "text": "Matchs anarchie déverrouillés!"
  },
  {
    "label": "BankaraMatchUnlock_01",
    "text": "Prends part à l'un d'eux en passant par\nle faitout des matchs!"
  },
  {
    "label": "XMatchUnlock_00",
    "text": "Tu as déverrouillé les matchs X!"
  },
  {
    "label": "XMatchUnlock_01",
    "text": "Fonce dans le faitout des matchs pour essayer!"
  },
  {
    "label": "LockerPhotoFrame_00",
    "text": "Porte-photo!"
  },
  {
    "label": "LockerPhotoFrame_01",
    "text": "Tout le monde va pouvoir admirer ta photo préférée!"
  },
  {
    "label": "RankInReward_00",
    "text": "Joli classement! Bravo!"
  },
  {
    "label": "LeagueMatchUnlock_00",
    "text": "Matchs épreuve disponibles!"
  },
  {
    "label": "LeagueMatchUnlock_01",
    "text": "Pour voir si un match épreuve est disponible, va\ndans le menu principal {{icon id=\"2\" arg=\"0x0000803F00000000\"}} et sélectionne Cartes!"
  },
  {
    "label": "CoopThanksUroko_00",
    "text": "Écailles!"
  },
  {
    "label": "CoopThanksUroko_01",
    "text": "Échange-les contre des récompenses\nchez M. Ours Cie!"
  },
  {
    "label": "MsnWeaponBufDocument_00",
    "text": "Sardinium!"
  },
  {
    "label": "MsnWeaponBufDocument_01",
    "text": "Sers-t'en pour améliorer ton équipement héroïque!\nAppuie sur {{icon id=\"2\" arg=\"0x0000803F00000000\"}} pour ouvrir le menu correspondant."
  },
  {
    "label": "MsnGoldDisk_00",
    "text": "Disque en or!"
  },
  {
    "label": "MsnGoldDisk_01",
    "text": "Les morceaux que tu entends par ici seront\nplus élaborés. Tends l'oreille!"
  },
  {
    "label": "MsnExStageChallengeRight_00",
    "text": "Bouilloire secrète!"
  },
  {
    "label": "MsnExStageChallengeRight_01",
    "text": "Découvre donc où elle mène..."
  },
  {
    "label": "MngCharaUnlock_00",
    "text": "Adversaire en vue!"
  },
  {
    "label": "MngCharaUnlock_01",
    "text": "Tu peux maintenant affronter\n{{string value=\"TableturfOpponent\" arg1=\"0\" arg3=\"0\"}} à Cartes et Territoire!"
  },
  {
    "label": "MngCharaLevelUnlock_00",
    "text": "Ton adversaire progresse!"
  },
  {
    "label": "MngCharaLevelUnlock_01",
    "text": "{{string value=\"TableturfOpponent\" arg1=\"0\" arg3=\"0\"}} a atteint le niveau {{number index=\"1\" type=\"1\" arg3=\"0\" arg4=\"0\"}} et\na envie d'en découdre à Cartes et Territoire!"
  },
  {
    "label": "MngStageUnlock_00",
    "text": "Nouvelle carte disponible!"
  },
  {
    "label": "MngStageUnlock_01",
    "text": "Tu peux maintenant participer à des matchs de\nC et T dans le niveau suivant : {{string value=\"TableturfStage\" arg1=\"0\" arg3=\"0\"}}!"
  },
  {
    "label": "Page_WeaponLevel",
    "text": "Pointage de classe d'arme +"
  },
  {
    "label": "Page_Udemae",
    "text": "Rang +"
  },
  {
    "label": "Page_MissionPlacement",
    "text": "En provenance d'Alterna!"
  },
  {
    "label": "Page_MissionAncientDocument",
    "text": "Autocollant de document obtenu!"
  },
  {
    "label": "Page_MissionAncientDocument_Plu",
    "text": "Autocollants de documents obtenus!"
  },
  {
    "label": "Page_MissionKebaInkClear",
    "text": "Exploration terminée!"
  },
  {
    "label": "Page_MissionStoryClear",
    "text": "Mode Histoire terminé!"
  },
  {
    "label": "Page_MissionComplete",
    "text": "Bouilloire secrète trouvée et terminée!"
  },
  {
    "label": "Page_MissionDrone",
    "text": "Butin du Cardrone!"
  },
  {
    "label": "Page_MiniGameRank",
    "text": "Récompense de C et T!"
  },
  {
    "label": "Page_Trigger",
    "text": "Cadeau de SplatNet 3!"
  },
  {
    "label": "Page_Trigger_Plu",
    "text": "Cadeaux de SplatNet 3!"
  },
  {
    "label": "Page_GameNews",
    "text": "En provenance des nouvelles!"
  },
  {
    "label": "Page_CatalogLevel",
    "text": "Niveau du catalogue en hausse!"
  },
  {
    "label": "Page_SeasonReset",
    "text": "Récompenses récupérées!"
  },
  {
    "label": "Page_Aoc",
    "text": "Récompenses de la passe reçues!"
  },
  {
    "label": "Page_FleaMarket_Sdodr",
    "text": "En provenance des Affaires de Crustifer!"
  },
  {
    "label": "Page_Locker_Sdodr",
    "text": "Contenu d'un casier de la Place de l'Ordre!"
  },
  {
    "label": "Page_Enemy_Sdodr",
    "text": "En provenance du guide des squelécailles!"
  },
  {
    "label": "Page_Phase2Clear_Sdodr",
    "text": "Étage 30 de la tour de l'Ordre terminé!"
  },
  {
    "label": "Page_Complete_Sdodr",
    "text": "Tour de l'Ordre finie avec toutes les palettes!"
  },
  {
    "label": "Page_Palette_Sdodr",
    "text": "Tour de l'Ordre finie avec une nouv. palette!"
  },
  {
    "label": "Page_Document_Sdodr",
    "text": "En provenance du journal de Coralie!"
  }
]