[
  {
    "label": "Title",
    "text": "Qu'est-ce qui t'importe le plus ?"
  },
  {
    "label": "ShortName_Alpha",
    "text": "Passé"
  },
  {
    "label": "LongName_Alpha",
    "text": "Le plus important, c'est\nle passé !"
  },
  {
    "label": "ShortName_Bravo",
    "text": "Présent"
  },
  {
    "label": "LongName_Bravo",
    "text": "Le plus important, c'est\nle présent !"
  },
  {
    "label": "ShortName_Charlie",
    "text": "Futur"
  },
  {
    "label": "LongName_Charlie",
    "text": "Le plus important, c'est\nle futur !"
  }
]