[
  {
    "label": "XMatchOpen_00",
    "locale": {
      "CNzh": "致荣升最鱿型玩家的你！",
      "EUde": "Hey, du bist x-trem gut dabei...",
      "EUen": "Hey, you're X-tremely good at this...",
      "EUes": "Oye, esto se te da de miedo, ¿eh?",
      "EUfr": "Dis donc, tu as un talent X-XL...",
      "EUit": "Ciao! Vedo che sei X-tremamente in gambero...",
      "EUnl": "Zeg, jij bent hier echt x-treem goed in...",
      "EUru": "Малек, ты у нас настоящий ас!",
      "JPja": "最高にイカしたプレイヤーになったキミへ！",
      "KRko": "최고로 어메이징한 플레이어가 된 너!",
      "TWzh": "你已經是個超魷型的玩家了！",
      "USen": "Hey, you're X-tremely good at this...",
      "USes": "Oye, tienes talento para esto...",
      "USfr": "Dis donc, tu as un talent X-XL..."
    }
  },
  {
    "label": "XMatchOpen_01",
    "locale": {
      "CNzh": "在技术S+中有从S+{{size value=\"75\"}}0{{size value=\"100\"}}至S+{{size value=\"75\"}}50{{size value=\"100\"}}的阶段哦。\n今后也继续朝更高的境界迈进吧！",
      "EUde": "Aber hast du gewusst, dass dein Rang noch\nhöher gehen kann? Von Ｓ+{{size value=\"75\"}}０{{size value=\"100\"}} bis Ｓ+{{size value=\"75\"}}５０!{{size value=\"100\"}}",
      "EUen": "But did you know your rank can get even higher?\nFrom Ｓ+{{size value=\"75\"}}０{{size value=\"100\"}} to Ｓ+{{size value=\"75\"}}５０{{size value=\"100\"}}! Don't stop now!",
      "EUes": "Pero ¿sabes que aún tienes margen de mejora?\n¡Desde el rango S+0 se puede subir al S+50!",
      "EUfr": "Mais ne t'arrête pas en si bon chemin ! Il existe\nun rang encore plus élevé, le Ｓ+{{size value=\"75\"}}５０ {{size value=\"100\"}}!{{size value=\"75\"}}{{size value=\"100\"}}",
      "EUit": "Ma sapevi che il tuo rango può migliorare\nancora di più? Da Ｓ+0 a Ｓ+50! Non fermarti!",
      "EUnl": "Maar wist je dat er nóg hogere rangen bestaan?\nVan Ｓ+{{size value=\"75\"}}０{{size value=\"100\"}} helemaal tot Ｓ+{{size value=\"75\"}}５０{{size value=\"100\"}}! Je begint pas net!",
      "EUru": "А тебе известно, что разряд можно еще\nповысить — от Ｓ+{{size value=\"75\"}}０{{size value=\"100\"}} до Ｓ+{{size value=\"75\"}}５０{{size value=\"100\"}}? Не тухни!",
      "JPja": "ウデマエＳ+は、 Ｓ+{{size value=\"75\"}}０{{size value=\"100\"}}から Ｓ+{{size value=\"75\"}}５０{{size value=\"100\"}}まであるぞ\nここから もっともっと上を目指してくれ！",
      "KRko": "랭크 S+는, S+{{size value=\"75\"}}0{{size value=\"100\"}}에서 S+{{size value=\"75\"}}50{{size value=\"100\"}}까지 존재한다\n지금보다 더 더 높은 곳을 목표로 하자!",
      "TWzh": "在技術S+之中，還分為S+{{size value=\"75\"}}0{{size value=\"100\"}}到S+{{size value=\"75\"}}50{{size value=\"100\"}}喔！\n接下來就繼續邁向更高的境界吧！",
      "USen": "But did you know your rank can get even higher?\nFrom Ｓ+{{size value=\"75\"}}０{{size value=\"100\"}} to Ｓ+{{size value=\"75\"}}５０{{size value=\"100\"}}! Don't stop now!",
      "USes": "Pero ¿sabías que podrías ser aún mejor?\nEl rango va de S+{{size value=\"75\"}}０{{size value=\"100\"}} a S+{{size value=\"75\"}}５０{{size value=\"100\"}}. ¡Así que no pares!",
      "USfr": "Mais ne t'arrête pas en si bon chemin! Il existe\nun rang encore plus élevé, le Ｓ+{{size value=\"75\"}}５０{{size value=\"100\"}}!{{size value=\"75\"}}{{size value=\"100\"}}"
    }
  },
  {
    "label": "XMatchOpen_02",
    "locale": {
      "CNzh": "你还新获得了{{color id=\"1\"}}X比赛{{color id=\"65535\"}}的参赛权哦！",
      "EUde": "Außerdem hast du gerade {{color id=\"1\"}}X-Kämpfe{{color id=\"65535\"}}\nfreigeschaltet!",
      "EUen": "And...you've just unlocked {{color id=\"1\"}}X Battles{{color id=\"65535\"}}!",
      "EUes": "Además... ¡te acabas de ganar el derecho\na participar en {{color id=\"1\"}}combates X{{color id=\"65535\"}}!",
      "EUfr": "Et au fait... Tu viens de débloquer\nles {{color id=\"1\"}}matchs X{{color id=\"65535\"}} !",
      "EUit": "E... hai appena sbloccato le {{color id=\"1\"}}partite X{{color id=\"65535\"}}!",
      "EUnl": "Bovendien heb je nu de {{color id=\"1\"}}X-gevechten{{color id=\"65535\"}} vrijgespeeld!",
      "EUru": "Кстати, теперь доступны и {{color id=\"1\"}}бои X{{color id=\"65535\"}}!",
      "JPja": "そして新たに {{color id=\"1\"}}Xマッチ{{color id=\"65535\"}}への参加権を得たぞ！",
      "KRko": "그리고 새롭게 {{color id=\"1\"}}X 매치{{color id=\"65535\"}} 참가권을 획득했다!",
      "TWzh": "此外，你還獲得了{{color id=\"1\"}}X比賽{{color id=\"65535\"}}的參賽權喔！",
      "USen": "And...you've just unlocked {{color id=\"1\"}}X Battles{{color id=\"65535\"}}!",
      "USes": "Además... ¡te acabas de ganar el derecho\na participar en {{color id=\"1\"}}combates X{{color id=\"65535\"}}!",
      "USfr": "Et au fait... Tu viens de débloquer\nles {{color id=\"1\"}}matchs X{{color id=\"65535\"}}!"
    }
  },
  {
    "label": "XMatchOpen_03",
    "locale": {
      "CNzh": "在X比赛中，技术点数将会被取代，\n你需要拼上随胜负发生变化的{{color id=\"1\"}}X战力{{color id=\"65535\"}}进行对战。",
      "EUde": "Bei X-Kämpfen steigt oder fällt deine {{color id=\"1\"}}X-Power{{color id=\"65535\"}}\nstatt wie sonst deine Rangpunkte.",
      "EUen": "Instead of Rank Points, you'll gain or lose\n{{color id=\"1\"}}X Power{{color id=\"65535\"}} when you face off in an X Battle.",
      "EUes": "Al luchar en un combate X, ganarás o perderás\n{{color id=\"1\"}}energía X{{color id=\"65535\"}} en lugar de puntos de rango.",
      "EUfr": "Au lieu de points de rang, tu gagneras et perdras\ndu {{color id=\"1\"}}X Power {{color id=\"65535\"}}en participant aux matchs X.",
      "EUit": "Invece dei punti rango, otterrai o perderai\n{{color id=\"1\"}}energia X{{color id=\"65535\"}} quando combatti in una partita X.",
      "EUnl": "In plaats van rangpunten strijdt je in X-gevechten\nom X-kracht. Die kan stijgen, maar ook dalen!",
      "EUru": "Вместо очков за разряд, при участии в боях X\nу тебя будет прибывать или убывать {{color id=\"1\"}}сила X{{color id=\"65535\"}}.",
      "JPja": "Xマッチでは、ウデマエポイントの代わりに\n勝敗で変化する {{color id=\"1\"}}Xパワー{{color id=\"65535\"}}をかけてバトルを行うんだ",
      "KRko": "X 매치에서는 랭크 포인트 대신\n승패로 변화하는 {{color id=\"1\"}}X 파워{{color id=\"65535\"}}를 걸고 배틀을 펼친다",
      "TWzh": "在X比賽中，會隨著勝敗有所變動的{{color id=\"1\"}}X戰力{{color id=\"65535\"}}\n將會取代技術點數成為對戰的籌碼。",
      "USen": "Instead of Rank Points, you'll gain or lose\n{{color id=\"1\"}}X Power{{color id=\"65535\"}} when you face off in an X Battle.",
      "USes": "Al luchar en un combate X, ganarás o perderás\n{{color id=\"1\"}}fuerza X{{color id=\"65535\"}} en lugar de puntos de rango.",
      "USfr": "Au lieu de points de rang, tu gagneras et perdras\nde la {{color id=\"1\"}}Force X {{color id=\"65535\"}}en participant aux matchs X."
    }
  },
  {
    "label": "XMatchOpen_04",
    "locale": {
      "CNzh": "当你的X战力名列前茅时，还会显示在X排名上哦！\n请通过《{{color id=\"1\"}}鱿鱼圈 3{{color id=\"65535\"}}》查看X排名吧。",
      "EUde": "Mit genug X-Power schaffst du es vielleicht\nsogar auf die X-Rangliste in {{color id=\"1\"}}SplatNet 3{{color id=\"65535\"}}!",
      "EUen": "Win enough X Power, and you could find yourself\non the X Rankings leaderboard on {{color id=\"1\"}}SplatNet 3{{color id=\"65535\"}}!",
      "EUes": "Si logras suficiente energía X, ¡aparecerás en\nla clasificación correspondiente de {{color id=\"1\"}}SplatNet 3{{color id=\"65535\"}}!",
      "EUfr": "Accumule assez de X Power et tu apparaîtras\ndans les classements X de {{color id=\"1\"}}SplatNet 3{{color id=\"65535\"}} !",
      "EUit": "Se hai abbastanza energia X, potresti\nritrovarti nella classifica X su {{color id=\"1\"}}SplatNet 3{{color id=\"65535\"}}!",
      "EUnl": "Als je X-kracht hoog genoeg is, vind je jezelf\nmisschien wel terug op de X-ranglijst in {{color id=\"1\"}}SplatNet 3{{color id=\"65535\"}}!",
      "EUru": "Если набраться силы X, есть шанс попасть\nв рейтинг Разряда X в приложении {{color id=\"1\"}}SplatNet 3{{color id=\"65535\"}}!",
      "JPja": "Xパワーが上位に入ると、Xランキングにも表示されるぞ！\nXランキングは{{color id=\"1\"}}イカリング３{{color id=\"65535\"}}で確認してくれ",
      "KRko": "X 파워가 상위에 들면 X 랭킹에도 표시된다!\nX 랭킹은 {{color id=\"1\"}}오징어넷 3{{color id=\"65535\"}}에서 확인하자",
      "TWzh": "如果X戰力名列前茅的話，還能登上X排名喔！\n透過《{{color id=\"1\"}}魷魚圈 3{{color id=\"65535\"}}》查看X排名吧！",
      "USen": "Win enough X Power, and you could find yourself\non the X Rankings leaderboard on {{color id=\"1\"}}SplatNet 3{{color id=\"65535\"}}!",
      "USes": "Si alcanzas suficiente fuerza X, ¡aparecerás en\nla clasificación correspondiente de {{color id=\"1\"}}SplatNet 3{{color id=\"65535\"}}!",
      "USfr": "Accumule assez de Force X et tu apparaîtras\ndans les classements X de {{color id=\"1\"}}SplatNet 3{{color id=\"65535\"}}!"
    }
  },
  {
    "label": "XMatchOpen_05",
    "locale": {
      "CNzh": "X排名会在{{color id=\"1\"}}赛季发生变化时重置{{color id=\"65535\"}}哦。\n每个赛季都怀着全新的心情挑战X比赛吧！",
      "EUde": "Die X-Rangliste wird {{color id=\"1\"}}jede Saison zurückgesetzt{{color id=\"65535\"}}.\nGib dein Bestes!",
      "EUen": "The X Rankings leaderboard will {{color id=\"1\"}}reset every\nseason{{color id=\"65535\"}}. So you always have a chance!",
      "EUes": "La clasificación del rango X {{color id=\"1\"}}se reinicia con cada\ntemporada{{color id=\"65535\"}}. ¡No te faltarán oportunidades!",
      "EUfr": "Ceux-ci sont {{color id=\"1\"}}remis à zéro au début de chaque\nsaison{{color id=\"65535\"}}. Tu as une nouvelle chance à chaque fois !",
      "EUit": "La classifica X {{color id=\"1\"}}si azzera ogni stagione{{color id=\"65535\"}}.\nQuindi avrai sempre una nuova occasione!",
      "EUnl": "De X-ranglijst wordt {{color id=\"1\"}}elk seizoen ververst{{color id=\"65535\"}}.\nZo heb je altijd kans!",
      "EUru": "Разряд X будет {{color id=\"1\"}}сбрасываться с каждым\nсезоном{{color id=\"65535\"}}, а значит, шанс у тебя всегда будет!",
      "JPja": "Xランキングは {{color id=\"1\"}}シーズンが変わるとリセット{{color id=\"65535\"}}されるぞ\nシーズンごとに新たな気持ちで Xマッチに挑むんだ！",
      "KRko": "X 랭킹은 {{color id=\"1\"}}시즌이 바뀌면 리셋{{color id=\"65535\"}}된다\n시즌마다 새로운 기분으로 X 매치에 도전하자!",
      "TWzh": "X排名會在{{color id=\"1\"}}賽季交替時重置{{color id=\"65535\"}}喔！\n所以每個賽季都能以煥然一新的心情挑戰X比賽！",
      "USen": "The X Rankings leaderboard will {{color id=\"1\"}}reset every\nseason{{color id=\"65535\"}}. So you always have a chance!",
      "USes": "La clasificación del rango X {{color id=\"1\"}}se reinicia con cada\ntemporada{{color id=\"65535\"}}. ¡Tendrás muchas oportunidades!",
      "USfr": "Ceux-ci sont {{color id=\"1\"}}remis à zéro au début de chaque\nsaison{{color id=\"65535\"}}. Tu as une nouvelle chance à chaque fois!"
    }
  },
  {
    "label": "XMatchOpen_07",
    "locale": {
      "CNzh": "祝你百战百胜！",
      "EUde": "So, genug erklärt! Auf in den Kampf!",
      "EUen": "Alright, that's enough X-planation. Go get 'em!",
      "EUes": "Eso es todo. ¡A combatir se ha dicho!",
      "EUfr": "Voilà, c'est simple, inutile de le répéter X fois...\nMaintenant, cours enchaîner les victoires !",
      "EUit": "Queste sono le informazioni X-senziali.\nOra dacci dentro!",
      "EUnl": "Dat was wel genoeg uitleg. Tijd om te gaan\nx-celleren!",
      "EUru": "Так, все. Поговорили, пора плюхать!",
      "JPja": "では、けんとうをいのる！",
      "KRko": "그럼 건투를 빌겠다!",
      "TWzh": "祝你百戰百勝！",
      "USen": "Alright, that's enough X-planation. Go get 'em!",
      "USes": "Eso es todo. ¡A combatir se ha dicho!",
      "USfr": "Voilà, c'est simple, inutile de le répéter X fois...\nMaintenant, cours enchaîner les victoires!"
    }
  }
]