[
  {
    "label": "000",
    "locale": {
      "CNzh": "恭喜你作为“永远的{{string value=\"SelectedSplatfestTeam\" arg1=\"0\" arg3=\"0\"}}派”\n获得首次胜利！",
      "EUde": "Glückwunsch zu deinem ersten Sieg\nals Ultimativer {{string value=\"SelectedSplatfestTeam\" arg1=\"0\" arg3=\"0\"}}-Fan!",
      "EUen": "Congrats on your first win as\n{{string value=\"SelectedSplatfestTeam\" arg1=\"0\" arg3=\"0\"}} Ruler!",
      "EUes": "¡Felicidades por tu primera victoria como\n«gurú equipo {{string value=\"SelectedSplatfestTeam\" arg1=\"0\" arg3=\"0\"}}»!",
      "EUfr": "Bravo pour ta première victoire en tant\nque star en {{string value=\"SelectedSplatfestTeam\" arg1=\"0\" arg3=\"0\"}} !",
      "EUit": "Congratulazioni per la tua prima vittoria\ncome mollusco élite {{string value=\"SelectedSplatfestTeam\" arg1=\"0\" arg3=\"0\"}}!",
      "EUnl": "Gefeliciteerd met je eerste overwinning als\nheerser van team {{string value=\"SelectedSplatfestTeam\" arg1=\"0\" arg3=\"0\"}}!",
      "EUru": "Поздравляем с первой победой в ранге\n«{{string value=\"SelectedSplatfestTeam\" arg1=\"0\" arg3=\"0\"}}» (Мастер)!",
      "JPja": "「えいえんの{{string value=\"SelectedSplatfestTeam\" arg1=\"0\" arg3=\"0\"}}派」として\n初めての勝利、おめでとう！",
      "KRko": "「영원한 {{string value=\"SelectedSplatfestTeam\" arg1=\"0\" arg3=\"0\"}}파」로서의\n첫 승리를 축하한다!",
      "TWzh": "恭喜你作為「永遠的{{string value=\"SelectedSplatfestTeam\" arg1=\"0\" arg3=\"0\"}}派」\n贏得首次勝利！",
      "USen": "Congrats on your first win as\n{{string value=\"SelectedSplatfestTeam\" arg1=\"0\" arg3=\"0\"}} Ruler!",
      "USes": "¡Felicidades por tu primera victoria como\nEstrella de {{string value=\"SelectedSplatfestTeam\" arg1=\"0\" arg3=\"0\"}}!",
      "USfr": "Bravo pour ta première victoire en tant\nque star en {{string value=\"SelectedSplatfestTeam\" arg1=\"0\" arg3=\"0\"}}!"
    }
  },
  {
    "label": "001",
    "locale": {
      "CNzh": "你现在可以在蛮颓镇搭乘{{color id=\"1\"}}神轿{{color id=\"65535\"}}拍摄照片了哦。\n神轿可以在蛮颓镇广场的{{color id=\"1\"}}祭典投票所{{color id=\"65535\"}}处搭乘。{{pageBreak}}搭乘神轿的成员会在每次于祭典比赛获胜后发生变化。\n和超鱿型的同伴们一起留下充满回忆的照片吧！",
      "EUde": "Dafür darfst du am {{color id=\"1\"}}Splatfest-Wahlstand {{color id=\"65535\"}}in\nSplatsville auf einen {{color id=\"1\"}}Splatfest-Schrein {{color id=\"65535\"}}klettern!{{pageBreak}}Mit jedem Sieg hat der Splatfest-Schrein\nandere Mitfahrer. Viel Spaß beim Selfie-Knipsen!",
      "EUen": "You get to board a {{color id=\"1\"}}Splatfest Float {{color id=\"65535\"}}in Splatsville\nsquare from the {{color id=\"1\"}}Splatfest Pledge Box{{color id=\"65535\"}}!{{pageBreak}}The members on the Splatfest Float change with\neach victory. Be sure to get some selfies!",
      "EUes": "Puedes subirte a una {{color id=\"1\"}}carroza festiva{{color id=\"65535\"}} desde\nel {{color id=\"1\"}}terminal de voto{{color id=\"65535\"}} de la plaza de Tintelia.{{pageBreak}}Tendrás diferentes compañeros cada vez que\nlogres subir. ¡Sacaos unas fotos chulas juntos!",
      "EUfr": "Tu as gagné le privilège de monter dans un {{color id=\"1\"}}char\nde festival{{color id=\"65535\"}} à l'{{color id=\"1\"}}urne festive{{color id=\"65535\"}} de Cité-Clabousse !{{pageBreak}}Les membres à bord du char changent à chaque\nvictoire. Oublie pas de prendre des selfies !",
      "EUit": "Potrai salire su un {{color id=\"1\"}}palanchino festivo{{color id=\"65535\"}} nella\npiazza di Splatville dal {{color id=\"1\"}}terminal di voto{{color id=\"65535\"}}!{{pageBreak}}I membri sul palanchino cambiano a ogni\nvittoria. Ricorda di scattarti qualche selfie!",
      "EUnl": "Je mag het {{color id=\"1\"}}Splatfest-paradebeeld {{color id=\"65535\"}}in Splatsville\nbestijgen bij de {{color id=\"1\"}}Splatfest-stembus{{color id=\"65535\"}}!{{pageBreak}}Het team op het Splatfest-paradebeeld wisselt\nper overwinning. Ga dus maar wat selfies maken!",
      "EUru": "Заберись на {{color id=\"1\"}}Cплатфест-сцену {{color id=\"65535\"}}в Плюхтоне\nс помощью {{color id=\"1\"}}терминала для голосования{{color id=\"65535\"}}!{{pageBreak}}Состав Сплатфест-сцены меняется после\nкаждой победы. Не забудь про селфи!",
      "JPja": "バンカラ街で{{color id=\"1\"}}オミコシ{{color id=\"65535\"}}に乗って写真をとれるようになったぞ\nオミコシには、バンカラ街の広場の{{color id=\"1\"}}フェス投票所{{color id=\"65535\"}}から乗りこめる{{pageBreak}}オミコシに乗るメンバーは、フェスマッチで勝つたびに変わるぞ\nイカした仲間たちとの思い出を写真に残してみよう！",
      "KRko": "카오폴리스 타운에서 {{color id=\"1\"}}가마{{color id=\"65535\"}}에 타고 사진을 찍을 수 있게 됐다\n타는 곳은 카오폴리스 타운 광장의 {{color id=\"1\"}}페스티벌 투표소{{color id=\"65535\"}}에 있지{{pageBreak}}페스티벌 매치에 승리하면 가마에 타는 멤버가 바뀐다\n어메이징한 동료들과의 추억을 사진으로 남겨 보자!",
      "TWzh": "現在可以搭乘蠻頹鎮的{{color id=\"1\"}}神轎{{color id=\"65535\"}}拍攝照片囉！\n神轎就在蠻頹鎮廣場的{{color id=\"1\"}}祭典投票所{{color id=\"65535\"}}那邊。{{pageBreak}}搭乘神轎的成員會在每次祭典比賽獲勝後改變喔！\n和超魷型的同伴們一起留下值得回憶的照片吧！",
      "USen": "You get to board a {{color id=\"1\"}}Splatfest Float {{color id=\"65535\"}}in Splatsville\nsquare from the {{color id=\"1\"}}Splatfest Pledge Box{{color id=\"65535\"}}!{{pageBreak}}The members on the Splatfest Float change with\neach victory. Be sure to get some selfies!",
      "USes": "¡Puedes subirte a una {{color id=\"1\"}}plataforma festiva {{color id=\"65535\"}}desde\nel kiosco del festival en la plaza de Tintelia!{{pageBreak}}Tendrás diferentes compañeros cada vez que\nlogres subir. ¡No olvides tomar unas fotos!",
      "USfr": "Tu as gagné le privilège de monter dans un {{color id=\"1\"}}char\nde festival{{color id=\"65535\"}} à la {{color id=\"1\"}}borne festive{{color id=\"65535\"}} de Cité-Clabousse!{{pageBreak}}Les membres à bord du char changent à chaque\nvictoire. Oublie pas de prendre des selfies!"
    }
  },
  {
    "label": "002",
    "locale": {
      "CNzh": "你现在可以登上{{color id=\"1\"}}舞台前的站台{{color id=\"65535\"}}拍摄照片了哦。\n站台就在{{color id=\"1\"}}祭典投票所{{color id=\"65535\"}}那边。{{pageBreak}}登上站台的成员会在每次于祭典比赛获胜后发生变化。\n和超鱿型的同伴们一起留下充满回忆的照片吧！",
      "EUde": "Dafür darfst du am {{color id=\"1\"}}Splatfest-Wahlstand{{color id=\"65535\"}}\n{{color id=\"1\"}}auf die Bühne {{color id=\"65535\"}}klettern und coole Fotos machen!{{pageBreak}}Mit jedem Sieg stehen andere Akteure\nauf der Bühne. Viel Spaß beim Selfie-Knipsen!",
      "EUen": "You get to {{color id=\"1\"}}take the stage{{color id=\"65535\"}} from the {{color id=\"1\"}}Splatfest\nPledge Box{{color id=\"65535\"}} and snap some pics!{{pageBreak}}The members on the platform change with each\nvictory. Be sure to get some selfies!",
      "EUes": "Te has ganado subir al {{color id=\"1\"}}palco del escenario{{color id=\"65535\"}} para\nhacer fotos. Accede desde el {{color id=\"1\"}}terminal de voto{{color id=\"65535\"}}.{{pageBreak}}Tus compañeros variarán en cada ocasión que\nlogres subir. ¡Aprovechad para haceros un selfi!",
      "EUfr": "Tu as gagné le privilège de {{color id=\"1\"}}monter sur scène{{color id=\"65535\"}}\nvia l'{{color id=\"1\"}}urne festive{{color id=\"65535\"}} !{{pageBreak}}Les membres sur scène changent à chaque\nvictoire. Oublie pas de prendre des selfies !",
      "EUit": "Potrai {{color id=\"1\"}}salire sul palco{{color id=\"65535\"}} dal {{color id=\"1\"}}terminal di voto{{color id=\"65535\"}}\ne fare delle foto!{{pageBreak}}I membri sul palco cambiano a ogni vittoria.\nRicorda di scattarti qualche selfie!",
      "EUnl": "Je mag het {{color id=\"1\"}}podium {{color id=\"65535\"}}bestijgen bij de\n{{color id=\"1\"}}Splatfest-stembus{{color id=\"65535\"}} en foto's nemen!{{pageBreak}}Het team op het podium wisselt per overwinning.\nGa dus maar wat selfies maken!",
      "EUru": "Молодец! В награду {{color id=\"1\"}}заберись на сцену{{color id=\"65535\"}} через\n{{color id=\"1\"}}терминал для голосования{{color id=\"65535\"}} и пофотографируй!{{pageBreak}}Состав Сплатфест-сцены меняется после\nкаждой победы. Не забудь про селфи!",
      "JPja": "{{color id=\"1\"}}ステージ前のお立ち台{{color id=\"65535\"}}に乗って写真をとれるようになったぞ\nお立ち台には、{{color id=\"1\"}}フェス投票所{{color id=\"65535\"}}から乗ることができる{{pageBreak}}お立ち台に乗るメンバーは、フェスマッチで勝つたびに変わるぞ\nイカした仲間たちとの思い出を写真に残してみよう！",
      "KRko": "{{color id=\"1\"}}스테이지 앞의 돌출 무대{{color id=\"65535\"}}에서 사진을 찍을 수 있게 됐다\n{{color id=\"1\"}}페스티벌 투표소{{color id=\"65535\"}}를 통해 돌출 무대로 갈 수 있지{{pageBreak}}페스티벌 매치에 승리하면 돌출 무대에 서는 멤버가 바뀐다\n어메이징한 동료들과의 추억을 사진으로 남겨 보자!",
      "TWzh": "現在可以登上{{color id=\"1\"}}舞台前的站台{{color id=\"65535\"}}拍攝照片囉！\n站台就在{{color id=\"1\"}}祭典投票所{{color id=\"65535\"}}那邊。{{pageBreak}}登上站台的成員會在每次祭典比賽獲勝後改變喔！\n和超魷型的同伴們一起留下值得回憶的照片吧！",
      "USen": "You get to {{color id=\"1\"}}take the stage{{color id=\"65535\"}} from the {{color id=\"1\"}}Splatfest\nPledge Box{{color id=\"65535\"}} and snap some pics!{{pageBreak}}The members on the platform change with each\nvictory. Be sure to get some selfies!",
      "USes": "¡Puedes subirte al {{color id=\"1\"}}palco del escenario{{color id=\"65535\"}}\ndesde el kiosco del festival!{{pageBreak}}Tendrás diferentes compañeros cada vez que\nlogres subir. ¡No olvides tomar unas fotos!",
      "USfr": "Tu as gagné le privilège de {{color id=\"1\"}}monter sur scène{{color id=\"65535\"}}\nvia la {{color id=\"1\"}}borne festive{{color id=\"65535\"}}!{{pageBreak}}Les membres sur scène changent à chaque\nvictoire. Oublie pas de prendre des selfies!"
    }
  }
]