[
  {
    "label": "XRankingReward_00",
    "locale": {
      "CNzh": "你在X比赛中展现出了最鱿型的操作呢，\n特此为你带来了一份通知！",
      "EUde": "Eine besondere Nachricht für ein wahres Ass\nder X-Kämpfe...",
      "EUen": "Special announcement for an X Battle boss...",
      "EUes": "Aviso especial para gente que ha destacado\nen combates X... ¡como tú!",
      "EUfr": "Annonce spéciale pour l'as des matchs X...",
      "EUit": "Annuncio speciale per un pesce grosso\ndelle partite X...",
      "EUnl": "Speciale aankondiging voor een echte\nX-gevecht-fanaticus. Ja, jij dus.",
      "EUru": "Экстренное сообщение для аса боев X!",
      "JPja": "Xマッチで最高にイカしたプレイを見せてくれた\nキミへのお知らせだ！",
      "KRko": "X 매치에서 최고로 어메이징한\n플레이를 보여 준 너에게 새로운 소식이 있다!",
      "TWzh": "這裡有個消息\n要通知在X比賽中展現了超魷型風範的你！",
      "USen": "Special announcement for an X Battle boss...",
      "USes": "Aviso especial para gente que se ha destacado\nen combates X... ¡como tú!",
      "USfr": "Annonce spéciale pour l'as des matchs X..."
    }
  },
  {
    "label": "XRankingReward_01",
    "locale": {
      "CNzh": "恭喜！上一赛季的X排名已揭晓，\n你的名次上升了哦！",
      "EUde": "Die X-Ranglisten wurden aktualisiert...\nUnd du bist aufgestiegen! Glückwunsch!",
      "EUen": "The latest X Rankings are out...and you\nranked up! Congratulations!",
      "EUes": "Han salido las clasificaciones del rango X...\n¡y has subido de posición! ¡Felicidades!",
      "EUfr": "Le nouveau classement de matchs X vient de\ntomber... et tu passes au rang supérieur !",
      "EUit": "La classifica X è stata aggiornata... e la tua\nposizione è migliorata! Congratulazioni!",
      "EUnl": "Er zijn verse X-ranglijsten, en raad eens?\nJuist, je bent gestegen! Gefeliciteerd!",
      "EUru": "Доступны новые рейтинги в Разряде X...\nИ твой разряд повысился! Поздравляем!",
      "JPja": "おめでとう！ 前のシーズンのXランキングが決まって\nキミの順位が上がったぞ！",
      "KRko": "축하한다!\n이전 시즌의 X 랭킹이 결정되어 네 순위가 올랐다!",
      "TWzh": "恭喜！\n前賽季的X排名已經確定了，你的名次提升囉！",
      "USen": "The latest X Rankings are out...and you\nranked up! Congratulations!",
      "USes": "Ya se publicaron las clasificaciones del rango X...\n¡y subiste de posición! ¡Felicidades!",
      "USfr": "Le nouveau classement de matchs X vient de\ntomber... et tu passes au rang supérieur!"
    }
  },
  {
    "label": "XRankingReward_02",
    "locale": {
      "CNzh": "请通过《{{color id=\"1\"}}鱿鱼圈 3{{color id=\"65535\"}}》查看名次吧！",
      "EUde": "Sieh dir die komplette Übersicht in {{color id=\"1\"}}SplatNet 3{{color id=\"65535\"}}\nan, und mach spritzig weiter so!",
      "EUen": "Check out the full rankings in {{color id=\"1\"}}SplatNet 3{{color id=\"65535\"}}, and\nkeep splatting in style!",
      "EUes": "¡Puedes consultar todas las clasificaciones\nen {{color id=\"1\"}}SplatNet 3{{color id=\"65535\"}}!",
      "EUfr": "Le classement complet est consultable dans\n{{color id=\"1\"}}SplatNet 3{{color id=\"65535\"}}. Continue à liquider avec style !",
      "EUit": "Consulta la classifica completa in {{color id=\"1\"}}SplatNet 3{{color id=\"65535\"}}\ne continua a splattare alla grande!",
      "EUnl": "Bekijk de volledige ranglijsten in {{color id=\"1\"}}SplatNet 3{{color id=\"65535\"}}!\nEn blijf vooral zo extreem goed bezig!",
      "EUru": "Все рейтинги можно посмотреть в {{color id=\"1\"}}SplatNet 3{{color id=\"65535\"}}.\nНе тухни и плюхай себе дальше!",
      "JPja": "順位のチェックは{{color id=\"1\"}}イカリング３{{color id=\"65535\"}}からだ！",
      "KRko": "순위 체크는 {{color id=\"1\"}}오징어넷 3{{color id=\"65535\"}}에서 할 수 있다!",
      "TWzh": "快透過《{{color id=\"1\"}}魷魚圈 3{{color id=\"65535\"}}》確認名次吧！",
      "USen": "Check out the full rankings in {{color id=\"1\"}}SplatNet 3{{color id=\"65535\"}}, and\nkeep splatting in style!",
      "USes": "¡Puedes consultar todas las clasificaciones\nen {{color id=\"1\"}}SplatNet 3{{color id=\"65535\"}}!",
      "USfr": "Le classement complet est consultable dans\n{{color id=\"1\"}}SplatNet 3{{color id=\"65535\"}}. Continue à liquider avec style!"
    }
  }
]