[
  {
    "label": "FirstLocker_00",
    "locale": {
      "CNzh": "这里是{{color id=\"1\"}}置物区{{color id=\"65535\"}}！{{pageBreak}}你可以将获得的装饰品和贴纸\n装饰在自己的{{color id=\"1\"}}置物柜{{color id=\"65535\"}}上哦。{{pageBreak}}除此之外，你还可以参观最近一起对战的人\n或互联网上其他人的置物柜。{{pageBreak}}如果你发现了超鱿型的置物柜，\n要记得按“鱿型！”来评价哦！",
      "EUde": "Willkommen in der {{color id=\"1\"}}Spindhalle{{color id=\"65535\"}}!{{pageBreak}}Hier kannst du deinen {{color id=\"1\"}}persönlichen Spind{{color id=\"65535\"}} mit\nAufklebern, Deko und so weiter ausstaffieren!{{pageBreak}}Außerdem kannst du dir die Spinde anderer\nSpieler ansehen und dich inspirieren lassen.{{pageBreak}}Und wenn ein Spind EXTRA cool ist?\nDann markier ihn als „Spritzig!“!",
      "EUen": "Welcome to the {{color id=\"1\"}}locker room{{color id=\"65535\"}}!{{pageBreak}}Here you can customize your {{color id=\"1\"}}personal locker{{color id=\"65535\"}}\nwith cool stickers, fun decorations, and more.{{pageBreak}}And you can check out other lockers for\ninspiration! See an idea you like? Nab it!{{pageBreak}}Find one that's extra nice? Give the owner\na virtual fist bump by tapping \"Fresh!\"",
      "EUes": "¡Esta es la {{color id=\"1\"}}sala de taquillas{{color id=\"65535\"}}!{{pageBreak}}Aquí puedes personalizar tu {{color id=\"1\"}}taquilla {{color id=\"65535\"}}con\nvistosas pegatinas, adornos y más...{{pageBreak}}¡Y también puedes ver otras taquillas para\ninspirarte! Pinta bien, ¿eh? ¡Pues adelante!{{pageBreak}}Si ves alguna que te guste especialmente,\ndíselo al autor dándole un «¡Qué nivel!».",
      "EUfr": "Bienvenue dans le {{color id=\"1\"}}vestiaire{{color id=\"65535\"}} !{{pageBreak}}Tu peux y personnaliser ton {{color id=\"1\"}}casier {{color id=\"65535\"}}avec des\nautocollants, de la déco et bien d'autres choses.{{pageBreak}}Tu peux aussi regarder ceux des autres créateurs\npour leur piquer des idées ! Y a pas de honte !{{pageBreak}}D'ailleurs, tu peux les féliciter en sélectionnant\nl'option « Classe ! »... Ça fait toujours plaisir !",
      "EUit": "Questa è la {{color id=\"1\"}}sala degli armadietti{{color id=\"65535\"}}!{{pageBreak}}Qui puoi personalizzare il tuo {{color id=\"1\"}}armadietto {{color id=\"65535\"}}con\nadesivi stilosi, allegre decorazioni e molto altro.{{pageBreak}}E puoi anche lasciarti ispirare dagli altri\narmadietti! C'è un'idea che ti piace? Adottala!{{pageBreak}}C'è un armadietto che adori? Dai a chi ne è in\npossesso un cinque virtuale toccando \"Mitilico\"!",
      "EUnl": "Welkom bij de {{color id=\"1\"}}kluisjes{{color id=\"65535\"}}!{{pageBreak}}Hier kun je je {{color id=\"1\"}}hoogstpersoonlijke kluisje{{color id=\"65535\"}}\nopleuken met stickers, versieringen en meer.{{pageBreak}}En je kunt andere kluisjes bekijken ter\ninspiratie! Zie je een leuk idee? Jat het! {{pageBreak}}Vind je een kluisje dat echt je hart steelt?\nComplimenteer de eigenaar met een \"Cool!\"",
      "EUru": "Добро пожаловать в {{color id=\"1\"}}комнату со шкафчиками{{color id=\"65535\"}}!{{pageBreak}}{{color id=\"1\"}}Личный шкафчик {{color id=\"65535\"}}можно отделать классными\nнаклейками и прикольными украшениями.{{pageBreak}}Если ничего в голову не приходит, погляди, что\nсделали другие! Вдохновишься — и за дело!{{pageBreak}}А если увидишь особо крутой шкафчик, вырази\nреспект владельцу, коснувшись «Класс!».",
      "JPja": "ここは{{color id=\"1\"}}ロッカールーム{{color id=\"65535\"}}だ！{{pageBreak}}手に入れた オキモノやステッカーで、\n自分の{{color id=\"1\"}}ロッカー{{color id=\"65535\"}}をかざることができるぞ{{pageBreak}}そのほかにも、最近対戦した人や インターネット上のだれかの\nロッカーを見学することができる{{pageBreak}}イカしたロッカーを見つけたら\nぜひ 「イカす！」を押してあげよう！",
      "KRko": "이곳은 {{color id=\"1\"}}로커 룸{{color id=\"65535\"}}이다!{{pageBreak}}획득한 장식품과 스티커로\n자신의 {{color id=\"1\"}}로커{{color id=\"65535\"}}를 장식할 수 있지{{pageBreak}}그 외에도 최근에 대전한 사람이나 인터넷으로 연결된\n누군가의 로커를 견학할 수 있다{{pageBreak}}어메이징한 로커를 발견하면\n잊지 말고 「어메이징!」을 눌러 주자!",
      "TWzh": "這裡是{{color id=\"1\"}}置物區{{color id=\"65535\"}}！{{pageBreak}}你獲得的裝飾品跟貼紙\n都可以用來裝飾自己的{{color id=\"1\"}}置物櫃{{color id=\"65535\"}}喔！{{pageBreak}}除此之外，你還可以參觀別人的置物櫃，\n包含最近對戰過的玩家或是網路上的其他玩家。{{pageBreak}}如果看到了超魷型的置物櫃，\n記得按下「魷型！」給予評價喔！",
      "USen": "Welcome to the {{color id=\"1\"}}locker room{{color id=\"65535\"}}!{{pageBreak}}Here you can customize your {{color id=\"1\"}}personal locker{{color id=\"65535\"}}\nwith cool stickers, fun decorations, and more.{{pageBreak}}And you can check out other lockers for\ninspiration! See an idea you like? Nab it!{{pageBreak}}Find one that's extra nice? Give the owner\na virtual fist bump by tapping \"Fresh!\"",
      "USes": "¡Este es el {{color id=\"1\"}}vestuario{{color id=\"65535\"}}!{{pageBreak}}Aquí puedes personalizar tu {{color id=\"1\"}}casillero{{color id=\"65535\"}}\ncon calcomanías, adornos y más...{{pageBreak}}¡Y también puedes ver otros casilleros para\ninspirarte! Suena bien, ¿verdad?{{pageBreak}}Si ves alguno que te guste mucho, díselo a\nquien lo haya creado con un \"¡Chévere!\".",
      "USfr": "Bienvenue dans le {{color id=\"1\"}}vestiaire{{color id=\"65535\"}}!{{pageBreak}}Tu peux y personnaliser ton {{color id=\"1\"}}casier {{color id=\"65535\"}}avec des\nautocollants, de la décoration et plus encore.{{pageBreak}}Tu peux aussi regarder ceux des autres créateurs\npour leur piquer des idées! Y'a pas de honte!{{pageBreak}}D'ailleurs, tu peux les féliciter en sélectionnant\nl'option « Cool! »... Ça fait toujours plaisir!"
    }
  },
  {
    "label": "FirstLocker_01",
    "locale": {
      "CNzh": "那个就是你的置物柜！{{pageBreak}}脉子好像已经事先\n帮你把行李放好了哦。{{pageBreak}}赶快去看看吧！",
      "EUde": "Aha! Das hier ist dein Spind!{{pageBreak}}Harmony, die Verkäuferin im Hotlantis,\nhat anscheinend schon etwas hineingetan...{{pageBreak}}Schau doch mal, was drin ist!",
      "EUen": "Ah, that one's yours.{{pageBreak}}Harmony from Hotlantis came by earlier to put\na few things in there for you too. Take a look!",
      "EUes": "Ah, esa es la tuya.{{pageBreak}}Armonia ha puesto ahí un par de cosas nuevas\nde Miscelánea Abisal. ¡Échales un ojo!",
      "EUfr": "Ah, voilà, c'est le tien.{{pageBreak}}Monia, de Coolypso, y a déjà rangé\nune ou deux bricoles. Jette un coup d'œil !",
      "EUit": "Ah, quello è il tuo.{{pageBreak}}Monia di Misto mare è passata prima a\nmetterci dentro qualcosa. Dai un'occhiata!",
      "EUnl": "Ah kijk, die is van jou.{{pageBreak}}Mona van Aqua Morgana is al langsgekomen om er\nwat leuke snuisterijen in te zetten. Kijk maar snel!",
      "EUru": "А вот и твой шкафчик.{{pageBreak}}Актавия из «Хитлантиды» уже оставила\nв нем для тебя пару вещей. Глянь!",
      "JPja": "あれが キミのロッカーだ！{{pageBreak}}パル子が あらかじめ荷物を\n置いておいてくれたみたいだぞ{{pageBreak}}さっそく見てみてくれ！",
      "KRko": "저것이 너의 로커다!{{pageBreak}}펄시가 미리 짐을\n옮겨 줬다더군{{pageBreak}}어서 확인해 봐!",
      "TWzh": "那就是你的置物櫃！{{pageBreak}}脈子好像已經事先\n幫你把行李放好了喔！{{pageBreak}}趕快去看看吧！",
      "USen": "Ah, that one's yours.{{pageBreak}}Harmony from Hotlantis came by earlier to put\na few things in there for you too. Take a look!",
      "USes": "Ah, ese es el tuyo.{{pageBreak}}Armonia, de Miscelánea Abisal, ya te puso\nunas cositas ahí. ¡Anda a ver!",
      "USfr": "Ah, voilà, c'est le tien.{{pageBreak}}Monia, de Coolypso, y a déjà rangé\nun ou deux trucs. Jette un coup d'œil!"
    }
  },
  {
    "label": "Legal00",
    "locale": {
      "CNzh": "编辑置物柜后，置物柜的内容将会发送至服务器，\n且有可能会向好友或其他用户公开。\n如果置物柜包含了会令人不悦的不当内容，\n将有可能会被禁止公开。",
      "EUde": "Wenn du deinen Spind bearbeitest, wird dessen Inhalt\nan den Server übertragen und möglicherweise deinen\nFreunden und anderen Spielern sichtbar gemacht.\nSpinde mit unangemessenen Inhalten werden\nmöglicherweise von dieser Funktion ausgeschlossen.",
      "EUen": "When you edit your locker, its contents will be sent\nto the server and may be viewed publicly by your\nfriends and other users. Lockers with inappropriate\ncontent may be banned from public viewing.",
      "EUes": "Cuando personalices tu taquilla, su contenido se\nenviará al servidor y podrán verlo tanto tus amigos\ncomo otros usuarios. Cualquier contenido inapropiado\nserá retirado y no se mostrará a los demás usuarios.",
      "EUfr": "Quand tu apportes des modifications à ton casier,\nle résultat est envoyé sur le serveur et peut être\nvu par tes amis et d'autres utilisateurs. Les casiers\naffichant du contenu inapproprié peuvent être bannis\nde l'espace public.",
      "EUit": "Quando modifichi l'armadietto, il suo contenuto\nverrà inviato al server e diventerà pubblico\ne visibile ai tuoi amici e ad altri utenti.\nAgli armadietti con un contenuto inappropriato\npotrebbe essere preclusa tale funzione.",
      "EUnl": "Wanneer je je kluisje aanpast, wordt de inhoud\ngedeeld met de server en kan die worden bekeken\ndoor je vrienden en andere gebruikers. Kluisjes met\nongepaste content kunnen worden uitgesloten van\nde openbare servers.",
      "EUru": "Когда ты украсишь свой шкафчик, мы загрузим\nна сервер его содержимое и его смогут увидеть\nтвои друзья и другие пользователи. Шкафчики,\nсодержащие неприемлемый контент, могут быть\nзаблокированы для общественности.",
      "JPja": "ロッカーを編集するとロッカーの内容がサーバーに送信され、\nフレンドや他のユーザーに公開されることがあります\n他の人が不快に感じるような不適切な内容のロッカーは\n公開禁止になる場合があります",
      "KRko": "로커를 편집하면 로커의 내용이 서버에 송신되어\n친구와 다른 유저에게 공개될 수 있습니다\n다른 사람이 불쾌하게 느낄 수 있는 부적절한 내용의 로커는\n공개가 금지되는 경우가 있습니다",
      "TWzh": "在編輯置物櫃後，置物櫃的內容將會發送至伺服器，\n且有可能會向朋友或其他用戶公開。\n如果置物櫃包含了會令人感到不悅的不當內容，\n將有可能會被禁止公開。",
      "USen": "When you edit your locker, its contents will be sent\nto the server and may be viewed publicly by your\nfriends and other users. Lockers with inappropriate\ncontent may be banned from public viewing.",
      "USes": "Cuando personalices tu casillero, su contenido se\nenviará al servidor y podrán verlo tanto tus amigos\ncomo otros usuarios. Cualquier contenido inapropiado\nserá retirado y no se mostrará públicamente.",
      "USfr": "Quand tu apportes des modifications à ton casier,\nle résultat est envoyé sur le serveur et peut être\nvu par tes amis et d'autres utilisateurs. Les casiers\naffichant du contenu inapproprié peuvent être bannis\nde l'espace public."
    }
  }
]