[
  {
    "label": "000",
    "locale": {
      "CNzh": "进入火箭内部啦——！",
      "EUde": "Wir sind drin!",
      "EUen": "We're in!",
      "EUes": "¡Estamos dentro del cohete!",
      "EUfr": "On est à l'intérieur !",
      "EUit": "Siamo dentro!",
      "EUnl": "We zijn binnen!",
      "EUru": "Мы внутри!",
      "JPja": "ロケットの中だー！",
      "KRko": "로켓 안이야～!",
      "TWzh": "進到火箭裡面了——！",
      "USen": "We're in!",
      "USes": "¡Estamos dentro del cohete!",
      "USfr": "On est à l'intérieur!"
    }
  },
  {
    "label": "001",
    "locale": {
      "CNzh": "环状的道路一直延伸到上方呢。",
      "EUde": "Sieht aus, als gäbe es da noch ein Stück zu klettern...",
      "EUen": "Looks like we've got more climbing to do.",
      "EUes": "Parece que nos espera una sinuosa subida.",
      "EUfr": "Mais l'escalade n'est pas finie...",
      "EUit": "Temo ci aspetti un'altra scalata...",
      "EUnl": "Het lijkt erop dat er nog meer moet worden geklommen.",
      "EUru": "Похоже, здесь придется взбираться наверх...",
      "JPja": "道が上までグルグル続いとるね",
      "KRko": "길이 위쪽까지 빙글빙글 이어져 있구마잉",
      "TWzh": "通道一圈圈地延伸到上面去了呢。",
      "USen": "Looks like we've got more climbing to do.",
      "USes": "Parece que nos espera una buena subida...",
      "USfr": "Mais l'escalade n'est pas finie..."
    }
  },
  {
    "label": "002",
    "locale": {
      "CNzh": "鲼鲼！{{string value=\"5\"}}（爬上去看看吧！）{{fun_000F_0004 arg=\"0x0500\"}}",
      "EUde": "Ay, ay!\n{{string value=\"5\"}}(Wir feuern dich vom sicheren Boden aus an!){{fun_000F_0004 arg=\"0x0500\"}}",
      "EUen": "Ay, ay!{{string value=\"5\"}} (We'll be rooting for you! Safely...from the\nground far, far below...){{fun_000F_0004 arg=\"0x0500\"}}",
      "EUes": "¡Zasss! {{string value=\"5\"}}(¡Te apoyamos! Pero desde aquí abajo, en un\nlugar más seguro.){{fun_000F_0004 arg=\"0x0500\"}}",
      "EUfr": "Ay, ay !{{string value=\"5\"}} (Vous avez tout notre soutien ! Bien à l'abri\ndepuis la terre ferme ! Tout, tout, tout en bas...){{fun_000F_0004 arg=\"0x0500\"}}",
      "EUit": "Man-man!{{string value=\"5\"}} {{color id=\"0\"}}(Faremo il tifo per te! Da terra,\nal sicuro, molto, molto più giù...){{color id=\"65535\"}}{{fun_000F_0004 arg=\"0x0500\"}}",
      "EUnl": "Ay, ay!{{string value=\"5\"}} (We zullen je aanmoedigen... vanaf de veilige\nvaste grond!){{fun_000F_0004 arg=\"0x0500\"}}",
      "EUru": "Ик, ик!{{string value=\"5\"}} (Мы болеем за тебя! В теплом и безопасном\nместе...){{fun_000F_0004 arg=\"0x0500\"}}",
      "JPja": "エイエイ！{{string value=\"5\"}}（登ってみよう！）{{fun_000F_0004 arg=\"0x0500\"}}",
      "KRko": "만타만타!{{string value=\"5\"}}(올라가 보자!){{fun_000F_0004 arg=\"0x0500\"}}",
      "TWzh": "魟魟！{{string value=\"5\"}}（爬上去看看吧！）{{fun_000F_0004 arg=\"0x0500\"}}",
      "USen": "Ay, ay!{{string value=\"5\"}} (We'll be rooting for you! Safely...from the\nground far, far below...){{fun_000F_0004 arg=\"0x0500\"}}",
      "USes": "¡Zasss! {{string value=\"5\"}}(¡Te estaremos apoyando! Pero desde aquí\nabajo, en un lugar más seguro).{{fun_000F_0004 arg=\"0x0500\"}}",
      "USfr": "Ay, ay!{{string value=\"5\"}} (Vous avez tout notre soutien! Bien à l'abri\ndepuis la terre ferme! Tout, tout, tout en bas...){{fun_000F_0004 arg=\"0x0500\"}}"
    }
  }
]