[
  {
    "label": "000",
    "locale": {
      "CNzh": "哼哼——！我生气了！",
      "EUde": "GRAAAH! Jetzt werd ich richtig sauer!",
      "EUen": "GRAAARGH! NOW you've made me MAD!",
      "EUes": "¡AAARRRGGGH! ¡Ahora sí que me has irritado en serio!",
      "EUfr": "GRRRR ! Cette fois, je vais m'énerver pour de bon !",
      "EUit": "GRAAAAH! Ora mi arrabbio davvero!",
      "EUnl": "GRAAARGH! Jullie maken me RRRAZZZEND!",
      "EUru": "А-А-А-А!!! Ух, как я зол!",
      "JPja": "ギギィーッ！ モウ オコッタゾ！",
      "KRko": "기기익～! 나의 분노를 받아라!",
      "TWzh": "嘰嘰——！我生氣了！",
      "USen": "GRAAARGH! NOW you've made me MAD!",
      "USes": "¡AAARRRGGGH! ¡Ahora sí que perdí la paciencia!",
      "USfr": "GRRRR! Cette fois, je vais m'énerver pour de bon!"
    }
  }
]