[
  {
    "label": "000",
    "locale": {
      "CNzh": "哇！这里几乎没有陆地啊！",
      "EUde": "Oh! Fast nur Wasser, kaum Land in Sicht...",
      "EUen": "Huh! I see lots of sea, but...there's hardly any land!",
      "EUes": "¡Oh! Veo muchísimo mar alrededor... ¡pero casi nada\nde tierra!",
      "EUfr": "Oh ! Y a de l'eau à perte de vue... Mais quasiment\npas de terres émergées !",
      "EUit": "Oh! C'è tanta acqua... ma poca superficie!",
      "EUnl": "Hmm, ik zie heel veel water... maar er is hier bijna geen\nland!",
      "EUru": "Хм-м... А где суша-то?",
      "JPja": "わあ、陸地がほとんどないよ！",
      "KRko": "와아, 육지가 거의 없어!",
      "TWzh": "哇！幾乎完全沒有陸地耶！",
      "USen": "Huh! I see lots of sea, but...there's hardly any land!",
      "USes": "¡Oh! Veo muchísimo mar alrededor... ¡pero casi nada\nde tierra!",
      "USfr": "Oh! Y'a de l'eau à perte de vue... Mais quasiment\npas de terres émergées!"
    }
  },
  {
    "label": "001",
    "locale": {
      "CNzh": "应该是曾经发生过什么吧……{{delay frames=\"30\"}}嗯？",
      "EUde": "Wie lang ist das wohl schon so...{{delay frames=\"30\"}} Oh, hey!",
      "EUen": "I wonder how long it's been like this...{{delay frames=\"30\"}} Oh, hey!",
      "EUes": "Me pregunto qué habrá ocurrido aquí...{{delay frames=\"30\"}} ¡Un momento!",
      "EUfr": "Je me demande depuis combien de temps\nc'est comme ça... {{delay frames=\"30\"}}Eh !",
      "EUit": "Chissà da quanto è così... {{delay frames=\"30\"}}Ah, un attimo!",
      "EUnl": "Ik vraag me af hoelang het er al zo bijligt hier...{{delay frames=\"30\"}} O, hé!",
      "EUru": "Интересно, что же здесь произошло?..{{delay frames=\"30\"}} О!",
      "JPja": "昔 何があったんだろね…{{delay frames=\"30\"}} おっ",
      "KRko": "예전에 무슨 일이 있었는지…{{delay frames=\"30\"}} 오!",
      "TWzh": "大概是以前發生過什麼事吧……{{delay frames=\"30\"}}哦？",
      "USen": "I wonder how long it's been like this...{{delay frames=\"30\"}} Oh, hey!",
      "USes": "Me pregunto qué habrá pasado aquí...{{delay frames=\"30\"}} ¡Un momento!",
      "USfr": "Je me demande depuis combien de temps\nc'est comme ça... {{delay frames=\"30\"}}Eh!"
    }
  },
  {
    "label": "002",
    "locale": {
      "CNzh": "那栋建筑的顶端有强烈反应！",
      "EUde": "Ich empfange etwas vom Dach des komischen\nGebäudes da drüben.",
      "EUen": "I'm getting a whooole buncha readings from the top of\nthat weird building over there.",
      "EUes": "Estoy recibiendo señales intensas desde lo alto\nde aquellas edificaciones tan raras.",
      "EUfr": "Je reçois toute une floppée de signaux\ndu sommet du bâtiment louche, là-bas.",
      "EUit": "Ricevo una mareeeea di segnali dalla cima\ndi quello strano edificio laggiù.",
      "EUnl": "Ik krijg een heleboel signalen van boven op dat rare\ngebouw daar.",
      "EUru": "Я получаю кучу сигналов с крыши во-о-он\nтого странного здания.",
      "JPja": "あの建物のてっぺんに大きな反応！",
      "KRko": "저 건물 꼭대기에서 커다란 반응이 잡혀!",
      "TWzh": "那棟建築物的頂層出現了強烈的反應！",
      "USen": "I'm getting a whooole buncha readings from the top of\nthat weird building over there.",
      "USes": "Estoy recibiendo señales intensas desde lo alto\nde aquellas edificaciones tan raras.",
      "USfr": "Je reçois toute une flopée de signaux\ndu sommet du bâtiment louche, là-bas."
    }
  },
  {
    "label": "003",
    "locale": {
      "CNzh": "一定是爷爷！走吧，3号！",
      "EUde": "Das muss einfach Opa sein! Auf geht’s, Nr. 3!",
      "EUen": "That's gotta be Gramps! C'mon, Agent 3. Let's go!",
      "EUes": "¡Será el abuelo, fijo! ¡Vamos para allá, Agente 3!",
      "EUfr": "C'est forcément Papi ! Viens, Numéro 3, on y va !",
      "EUit": "Dev'essere il nonno! Forza, Numero 3. Andiamo!",
      "EUnl": "Dat moet opa wel zijn! Kom, agent 3, we gaan!",
      "EUru": "Должно быть, это деда! Погнали, агент 003!",
      "JPja": "きっとじーちゃんだ！ 行こう、３号！",
      "KRko": "틀림없이 할아버지일 거야! 가자, 3호!",
      "TWzh": "肯定是爺爺！走吧，3號！",
      "USen": "That's gotta be Gramps! C'mon, Agent 3. Let's go!",
      "USes": "¡Tiene que ser el abuelo! ¡Vamos para allá, Agente 3!",
      "USfr": "C'est forcément Papi! Viens, Numéro 3, on y va!"
    }
  }
]