[
  {
    "label": "000",
    "locale": {
      "CNzh": "鲼！鲼！{{string value=\"5\"}}（临时新闻！临时新闻！）{{fun_000F_0004 arg=\"0x0500\"}}",
      "EUde": "Ay! {{string value=\"5\"}}(Extra, extra! Nicht verpassen!){{fun_000F_0004 arg=\"0x0500\"}}",
      "EUen": "Ay! {{string value=\"5\"}}(Breaking news! Hot off the press!){{fun_000F_0004 arg=\"0x0500\"}}",
      "EUes": "¡Zasss! {{string value=\"5\"}}(¡Noticias de última hora!){{fun_000F_0004 arg=\"0x0500\"}}",
      "EUfr": "Ay ! {{string value=\"5\"}}(Stop ! Flash infos !\nOuvrez grand les oreilles !){{fun_000F_0004 arg=\"0x0500\"}}",
      "EUit": "Man-man! {{string value=\"5\"}}{{color id=\"0\"}}(Notizia dell'ultima ora!\nFresca di pesca!){{color id=\"65535\"}}{{fun_000F_0004 arg=\"0x0500\"}}",
      "EUnl": "Ay! {{string value=\"5\"}}(Het laatste nieuws! Vers van de pers!){{fun_000F_0004 arg=\"0x0500\"}}",
      "EUru": "Ик!\n{{string value=\"5\"}}(Горячие новости! С пылу с жару!){{fun_000F_0004 arg=\"0x0500\"}}",
      "JPja": "エイ！ エイ！\n{{string value=\"5\"}}（臨時ニュース！ 臨時ニュース！）{{fun_000F_0004 arg=\"0x0500\"}}",
      "KRko": "만타! 만타!\n{{string value=\"5\"}}(뉴스 속보! 뉴스 속보!){{fun_000F_0004 arg=\"0x0500\"}}",
      "TWzh": "魟！魟！{{string value=\"5\"}}（新聞快報！新聞快報！）{{fun_000F_0004 arg=\"0x0500\"}}",
      "USen": "Ay! {{string value=\"5\"}}(Breaking news! Hot off the press!){{fun_000F_0004 arg=\"0x0500\"}}",
      "USes": "¡Zasss! {{string value=\"5\"}}(¡Extra! ¡Extra! Noticias\nde última hora).{{fun_000F_0004 arg=\"0x0500\"}}",
      "USfr": "Ay! {{string value=\"5\"}}(Stop! Flash infos!\nOuvrez grand les oreilles!){{fun_000F_0004 arg=\"0x0500\"}}"
    }
  },
  {
    "label": "001",
    "locale": {
      "CNzh": "嗯？鬼福，发生什么了？",
      "EUde": "Nanu. Was ist denn, Mantaro?\nKlingt ja schrecklich wichtig.",
      "EUen": "Oh, you got something, Big Man?\nLet's hear it!",
      "EUes": "¡Ah! ¿Tienes novedades, Rayan?\n¡Cuenta, cuenta!",
      "EUfr": "Oh, t'as du nouveau, Raimi ?\nEnvoie !",
      "EUit": "Oh, hai qualcosa da dire, Mantaleo?\nSentiamo!",
      "EUnl": "O, heb je een primeurtje, Ray?\nVertel op!",
      "EUru": "Что там у тебя, Биг Ман?\nВыкладывай!",
      "JPja": "ん？　マンタロー、どないしたん？",
      "KRko": "응? 만타로, 무슨 일이고?",
      "TWzh": "嗯？鬼福，怎麼了嗎？",
      "USen": "Oh, you got something, Big Man?\nLet's hear it!",
      "USes": "¡Ah! ¿Tienes novedades, Rayan?\n¡Cuenta, cuenta!",
      "USfr": "Oh, t'as du nouveau, Raimi?\nEnvoie!"
    }
  },
  {
    "label": "002",
    "locale": {
      "CNzh": "蛮颓镇的能源——大电池鲶鱼失踪了……？！\n那么巨大的鲶鱼，应该很快就能找到吧！",
      "EUde": "Stopp! Klappe! ICH weiß, was los ist!\nUnd zwar ist der Riesen-Elektrowels weg!",
      "EUen": "Uh, this was MY story to break.\nThe Great Zapfish is gone!",
      "EUes": "Oye, espera, ¡que esta exclusiva es mía!\n¡El Gran Siluro ha desaparecido!",
      "EUfr": "Euh, c'était mon scoop, à la base.\nLe Grand Poisson-charge a disparu !",
      "EUit": "Uhm, quella notizia volevo darla io.\nIl Gran pescescossa è sparito!",
      "EUnl": "Eh, dit was eigenlijk mijn nieuwtje...\nDe Megavoltvis is verdwenen!",
      "EUru": "Эй, это МОЙ сенсационный материал.\nВ общем, большой вольторыб пропал!",
      "JPja": "街のエネルギー源、 オオデンチナマズが行方不明…？！\nあんなでかいナマズ、 すぐに見つかるじゃろ！",
      "KRko": "도시의 에너지원인 거대전지메기가 실종됐다…?!\n그리 거대한 메기이니 금방 찾을 수 있지 않겠느냐!",
      "TWzh": "鎮上的能量源……大電池鯰魚下落不明……！？\n那麼大一隻鯰魚，應該很快就能找到了吧！",
      "USen": "Uh, this was MY story to break.\nThe Great Zapfish is gone!",
      "USes": "Ey, un momento, ¡esta exclusiva es mía!\n¡El Volbagrezón desapareció!",
      "USfr": "Euh, c'était mon scoop, à la base.\nLe Grand poisson-charge a disparu!"
    }
  },
  {
    "label": "003",
    "locale": {
      "CNzh": "最近一直在施工，电力本来就不足了。\n不妙啊……",
      "EUde": "Der die ganze Stadt mit Energie versorgt?\nOje, ohne den wird's hier finster...",
      "EUen": "It basically powers the whole city! We need\nit back soon, or it's lights out...",
      "EUes": "¡Y era la principal fuente de energía de la\nciudad! Sin él, tendremos que usar velas.",
      "EUfr": "C'est lui qui alimente toute la ville ! Il faut\nle retrouver ou c'est le retour à la bougie !",
      "EUit": "Eh? Ma fornisce energia a tutta la città!\nDobbiamo ritrovarlo o avremo un blackout!",
      "EUnl": "Die voorziet de hele stad van stroom!\nZonder hem ziet het er maar duister uit.",
      "EUru": "Он весь город питал! Если мы его не вернем,\nможно тушить свет и сушить весла.",
      "JPja": "最近工事ばっかりで、 ただでさえ電力不足やのに\n大変やねぇ…",
      "KRko": "안 그래도 최근에 공사가 이어지가\n전력이 부족한데 큰일이구마…",
      "TWzh": "電力原本就已經不夠用了，最近還老是在施工，\n情況真是不妙……",
      "USen": "It basically powers the whole city! We need\nit back soon, or it's lights out...",
      "USes": "¡Esa era la principal fuente de energía de la\nciudad! Sin él, tendremos que usar velas.",
      "USfr": "C'est lui qui alimente toute la ville! Il faut\nle retrouver ou c'est le retour à la bougie!"
    }
  },
  {
    "label": "004",
    "locale": {
      "CNzh": "既然如此！蛮颓镇的各位，一起靠毅力省电吧！",
      "EUde": "Aber Fischeier braten kann man auf\nunserem Beton zum Glück immer noch!",
      "EUen": "Time to conserve. Turn off lights, and set\nthe temp to a cool 90 degrees Fahrenheit.",
      "EUes": "Habrá que ahorrar. Apagad las luces\ny bajad el aire acondicionado a 32 °C.",
      "EUfr": "En attendant, mollo sur l'énergie ! Lumières\néteintes et chauffage à 30 degrés max.",
      "EUit": "Per ora, conserviamo energia. Spegniamo\nle luci e teniamoci al fresco, tipo a 32°.",
      "EUnl": "Zuinig met energie! Licht uit en airco lager. Of\nzelf groene stroom opwekken, maar hoe?",
      "EUru": "Плюхтонцы, сохраняйте спокойствие\nи энергию. Отключите что-нибудь!",
      "JPja": "ヨッシャ！ バンカラ街のみんな、気合いで節電じゃ！",
      "KRko": "좋다! 카오폴리스 주민이여, 모두 함께 절전하자꾸나!",
      "TWzh": "好！蠻頹鎮的各位，大家一起靠毅力節約用電吧！",
      "USen": "Time to conserve. Turn off lights, and set\nthe temp to a cool 90 degrees Fahrenheit.",
      "USes": "Habrá que ahorrar. Apaguen las luces\ny pongan el aire acondicionado en 32 °C.",
      "USfr": "En attendant, mollo sur l'énergie! Lumières\néteintes et chauffage à 30 degrés max."
    }
  },
  {
    "label": "005",
    "locale": {
      "CNzh": "鲼鲼！{{string value=\"5\"}}（请发现大电池鲶鱼的镇民联系我们哦！）{{fun_000F_0004 arg=\"0x0500\"}}",
      "EUde": "Ay! {{string value=\"5\"}}(Gibt's 'nen Elektrowels-Finderlohn?){{fun_000F_0004 arg=\"0x0500\"}}",
      "EUen": "Ay! {{string value=\"5\"}}(That's 32 degrees Celsius, and it is\nNOT cool! Call us if you find the Zapfish!){{fun_000F_0004 arg=\"0x0500\"}}",
      "EUes": "¡Zasss! {{string value=\"5\"}}(¡Pero si con 32 ℃ sudo!){{fun_000F_0004 arg=\"0x0500\"}}\n¡Zasss! {{string value=\"5\"}}(Avisadnos si veis al Gran Siluro.){{fun_000F_0004 arg=\"0x0500\"}}",
      "EUfr": "Ay ! {{string value=\"5\"}}(30 degrés, « mollo » ?... Bref, si vous\nvoyez le poisson-charge, appelez-nous.){{fun_000F_0004 arg=\"0x0500\"}}",
      "EUit": "Man! {{string value=\"5\"}}{{color id=\"0\"}}(32° sarà fresco a casa tua!\nChiamateci se trovate il pescescossa.){{color id=\"65535\"}}{{fun_000F_0004 arg=\"0x0500\"}}",
      "EUnl": "Ay! {{string value=\"5\"}}(Door gele stroom met blauwe te mengen?\nRoep ons als je die Megavoltvis vindt!){{fun_000F_0004 arg=\"0x0500\"}}",
      "EUru": "Ик! {{string value=\"5\"}}(Именно! Не время прохлаждаться. Звоните\nнам, если найдете вольторыба!){{fun_000F_0004 arg=\"0x0500\"}}",
      "JPja": "エイエイ！\n{{string value=\"5\"}}（見つけたら連絡してね！）{{fun_000F_0004 arg=\"0x0500\"}}",
      "KRko": "만타만타!{{string value=\"5\"}}(발견하면 연락해 줘!){{fun_000F_0004 arg=\"0x0500\"}}",
      "TWzh": "魟魟！{{string value=\"5\"}}（要是找到了就聯絡我們吧！）{{fun_000F_0004 arg=\"0x0500\"}}",
      "USen": "Ay! {{string value=\"5\"}}(That's 32 degrees Celsius, and it is\nNOT cool! Call us if you find the Zapfish!){{fun_000F_0004 arg=\"0x0500\"}}",
      "USes": "¡Zasss! {{string value=\"5\"}}(¡Con 32 ℃ me voy a asar!){{fun_000F_0004 arg=\"0x0500\"}}\n¡Zasss! {{string value=\"5\"}}(Avísennos si ven el Volbagrezón).{{fun_000F_0004 arg=\"0x0500\"}}",
      "USfr": "Ay! {{string value=\"5\"}}(30 degrés, « mollo »?... Bref, si vous\nvoyez le poisson-charge, appelez-nous.){{fun_000F_0004 arg=\"0x0500\"}}"
    }
  }
]