[
  {
    "label": "000",
    "locale": {
      "CNzh": "{{color id=\"1\"}}新赛季{{color id=\"65535\"}}开始了哦～！",
      "EUde": "Fantastisch!\nDie {{color id=\"1\"}}brandneue Saison {{color id=\"65535\"}}hat begonnen!",
      "EUen": "Oh, this is exciting. The {{color id=\"1\"}}new season{{color id=\"65535\"}}\nhas started!",
      "EUes": "¡Tenemos {{color id=\"1\"}}nueva temporada{{color id=\"65535\"}}! ¡Emoción\na raudales!",
      "EUfr": "Oooh... La {{color id=\"1\"}}nouvelle saison{{color id=\"65535\"}} a commencé !",
      "EUit": "Oh, che bello. La {{color id=\"1\"}}nuova stagione{{color id=\"65535\"}} è iniziata!",
      "EUnl": "O, leuk! Er is een {{color id=\"1\"}}nieuw seizoen{{color id=\"65535\"}} begonnen!",
      "EUru": "Как замечательно! Начался {{color id=\"1\"}}новый сезон{{color id=\"65535\"}}!",
      "JPja": "{{color id=\"1\"}}新しいシーズン{{color id=\"65535\"}}が 始まったで～！",
      "KRko": "{{color id=\"1\"}}뉴 시즌{{color id=\"65535\"}}이 시작됐구마～!",
      "TWzh": "{{color id=\"1\"}}新賽季{{color id=\"65535\"}}開始囉～！",
      "USen": "Oh, this is exciting. The {{color id=\"1\"}}new season{{color id=\"65535\"}}\nhas started!",
      "USes": "¡Ya comenzó la {{color id=\"1\"}}nueva temporada{{color id=\"65535\"}}!\n¡Qué emoción!",
      "USfr": "Oooh... La {{color id=\"1\"}}nouvelle saison{{color id=\"65535\"}} a commencé!"
    }
  },
  {
    "label": "001",
    "locale": {
      "CNzh": "哦——！！",
      "EUde": "Alter, ich bin von den SOCKEN!",
      "EUen": "Yesss! I'm HYPED!",
      "EUes": "¡Y que lo digaaas!",
      "EUfr": "Oh ouiii ! Génial ! Je suis excitée comme\nune puce !",
      "EUit": "Sìììì! Sono emozionatissima!",
      "EUnl": "Yesss! Supervers!",
      "EUru": "Йо-хо!!! Круто!!!",
      "JPja": "おおおー！！",
      "KRko": "오오오～!!",
      "TWzh": "哦——！！",
      "USen": "Yesss! I'm HYPED!",
      "USes": "¡¿Me lo dices o me lo preguntas?!",
      "USfr": "Oh ouiii! Génial! Je suis excitée comme\nune puce!"
    }
  },
  {
    "label": "002",
    "locale": {
      "CNzh": "鲼～！{{string value=\"5\"}}（让心情也焕然一新，加油吧！）{{fun_000F_0004 arg=\"0x0500\"}}",
      "EUde": "Ay! Ay! {{string value=\"5\"}}(Die Sonnensaison ist wieder da!\nBadezeug und Schutzcreme ausgepackt!){{fun_000F_0004 arg=\"0x0500\"}}",
      "EUen": "Ay! Ay?!{{string value=\"5\"}} (Sizzle Season's back! Who's\nready for some fun in the sun?!){{fun_000F_0004 arg=\"0x0500\"}}",
      "EUes": "¿Zasss? {{string value=\"5\"}}(¿Es temporada abrasadora otra\nvez? ¡Nada como zurrarse bajo el sol!){{fun_000F_0004 arg=\"0x0500\"}}",
      "EUfr": "Ay ?!{{string value=\"5\"}} (La saison du soleil est de retour !\nQui a envie de se dorer la pilule ?!){{fun_000F_0004 arg=\"0x0500\"}}",
      "EUit": "Man! Man?{{string value=\"5\"}} {{color id=\"0\"}}(La stagione ardente è tornata!\nChi ha voglia di divertirsi al sole?){{color id=\"65535\"}}{{fun_000F_0004 arg=\"0x0500\"}}",
      "EUnl": "Ay! Ay?!{{string value=\"5\"}} (Het hitteseizoen is terug!\nIedereen klaar om te bakken in de zon?!){{fun_000F_0004 arg=\"0x0500\"}}",
      "EUru": "Ик! Ик?!{{string value=\"5\"}} (На дворе снова палящий сезон!\nПора плюхать на солнышке!){{fun_000F_0004 arg=\"0x0500\"}}",
      "JPja": "エ～イ！{{string value=\"5\"}}（心機一転 がんばっていこう！）{{fun_000F_0004 arg=\"0x0500\"}}",
      "KRko": "만～타!{{string value=\"5\"}}(심기일전해서 이번 시즌도 파이팅하자!){{fun_000F_0004 arg=\"0x0500\"}}",
      "TWzh": "魟～！{{string value=\"5\"}}（轉換心境迎接新的開始吧！）{{fun_000F_0004 arg=\"0x0500\"}}",
      "USen": "Ay! Ay?!{{string value=\"5\"}} (Sizzle Season's back! Who's\nready for some fun in the sun?!){{fun_000F_0004 arg=\"0x0500\"}}",
      "USes": "¿Zasss? {{string value=\"5\"}}(¿Es temporada abrasadora otra\nvez? ¡Todos a tomar el sol!){{fun_000F_0004 arg=\"0x0500\"}}",
      "USfr": "Ay?!{{string value=\"5\"}} (La saison du soleil est de retour!\nQui a envie de se dorer la face?!){{fun_000F_0004 arg=\"0x0500\"}}"
    }
  },
  {
    "label": "010_sing",
    "locale": {
      "CNzh": "还追加了{{color id=\"1\"}}新场地{{color id=\"65535\"}}啊！",
      "EUde": "Keine Zeit für wochenlanges Gelaber.\nSchon gar nicht, wenn's {{color id=\"1\"}}'ne neue Arena{{color id=\"65535\"}} gibt!",
      "EUen": "Listening? No time for it. Not when\n{{color id=\"1\"}}A NEW STAGE{{color id=\"65535\"}} JUST DROPPED!",
      "EUes": "¡No hay tiempo para explicaciones!\n¡Que también hay un {{color id=\"1\"}}nuevo escenario{{color id=\"65535\"}}!",
      "EUfr": "J'ai pas le temps pour son blabla !\nUn {{color id=\"1\"}}nouveau stage{{color id=\"65535\"}} vient d'arriver !",
      "EUit": "Ascoltare? Non ho tempo. È appena\narrivato un {{color id=\"1\"}}NUOVO SCENARIO{{color id=\"65535\"}}!",
      "EUnl": "Luisteren? Geen tijd voor! Niet als er net\nEEN {{color id=\"1\"}}NIEUW LEVEL {{color id=\"65535\"}}BEKEND IS GEMAAKT!",
      "EUru": "Спрашивать? У кого есть время на\nболтовню, когда у нас тут {{color id=\"1\"}}НОВАЯ АРЕНА{{color id=\"65535\"}}?!",
      "JPja": "{{color id=\"1\"}}新しいステージ{{color id=\"65535\"}}も 追加されたんか！",
      "KRko": "{{color id=\"1\"}}새로운 스테이지{{color id=\"65535\"}}도 추가되었구나!",
      "TWzh": "而且還追加了{{color id=\"1\"}}新場地{{color id=\"65535\"}}！",
      "USen": "Listening? No time for it. Not when\n{{color id=\"1\"}}A NEW STAGE{{color id=\"65535\"}} JUST DROPPED!",
      "USes": "¡No hay tiempo para explicaciones!\n¡Que también hay un {{color id=\"1\"}}nuevo escenario{{color id=\"65535\"}}!",
      "USfr": "J'ai pas le temps pour son blabla!\nUne {{color id=\"1\"}}nouvelle carte{{color id=\"65535\"}} vient d'arriver!"
    }
  },
  {
    "label": "011_sing",
    "locale": {
      "CNzh": "鲼鲼！{{string value=\"5\"}}（会展开怎样的攻防战呢～！）{{fun_000F_0004 arg=\"0x0500\"}}",
      "EUde": "Ay. Ay!{{string value=\"5\"}} (So viel Zeit muss sein.\nAber die neue Arena sieht schon gut aus...){{fun_000F_0004 arg=\"0x0500\"}}",
      "EUen": "Ay. Ay!{{string value=\"5\"}} (I'll still make time for listening.\nBut that new stage does look good...){{fun_000F_0004 arg=\"0x0500\"}}",
      "EUes": "¡Zasss!{{string value=\"5\"}} (¡Tendré que darme una vuelta\npor él! Se me está apretando la agenda...){{fun_000F_0004 arg=\"0x0500\"}}",
      "EUfr": "Ay...{{string value=\"5\"}} (J'écouterai ce qu'il a à dire, mais...\nj'avoue que ce stage donne envie...){{fun_000F_0004 arg=\"0x0500\"}}",
      "EUit": "Man...{{string value=\"5\"}} {{color id=\"0\"}}(Ascoltare gli altri, o Armand, è utile.\nCerto questo scenario sembra perfetto...){{color id=\"65535\"}}{{fun_000F_0004 arg=\"0x0500\"}}",
      "EUnl": "Ay. Ay!{{string value=\"5\"}} (Wij luisteren wel, dus je hoeft niet zo\nte gillen. Maar een nieuw level, dat klinkt goed!){{fun_000F_0004 arg=\"0x0500\"}}",
      "EUru": "Ик. Ик!{{string value=\"5\"}} (Я бы тоже послушал его советы.\nНо эта арена так манит к себе!){{fun_000F_0004 arg=\"0x0500\"}}",
      "JPja": "エイエイ！{{string value=\"5\"}}（どんな立ち回りができるのかな～！）{{fun_000F_0004 arg=\"0x0500\"}}",
      "KRko": "만타만타?!{{string value=\"5\"}}(어떤 배틀을 펼칠 수 있을까～?!){{fun_000F_0004 arg=\"0x0500\"}}",
      "TWzh": "魟魟！{{string value=\"5\"}}（真好奇對戰時會是什麼感覺呢～！）{{fun_000F_0004 arg=\"0x0500\"}}",
      "USen": "Ay. Ay!{{string value=\"5\"}} (I'll still make time for listening.\nBut that new stage does look good...){{fun_000F_0004 arg=\"0x0500\"}}",
      "USes": "¡Zasss!{{string value=\"5\"}} (¡Tendré que darle una vuelta!\nNo sé si voy a tener tiempo para todo...){{fun_000F_0004 arg=\"0x0500\"}}",
      "USfr": "Ay...{{string value=\"5\"}} (J'écouterai ce qu'il a à dire, mais...\nj'avoue que cette carte donne envie...){{fun_000F_0004 arg=\"0x0500\"}}"
    }
  },
  {
    "label": "012_sing",
    "locale": {
      "CNzh": "新场地已成为候选的{{color id=\"1\"}}对战场地{{color id=\"65535\"}}，\n真是令人期待呢！",
      "EUde": "Du meinst gut fürs {{color id=\"1\"}}Kämpfen{{color id=\"65535\"}}, oder?\nDafür sind Arenen nämlich da!",
      "EUen": "You mean good for {{color id=\"1\"}}battling{{color id=\"65535\"}}, right? 'Cause\nthat's what it's there for!",
      "EUes": "Yo paso de paseos. Un {{color id=\"1\"}}escenario{{color id=\"65535\"}} es para\n{{color id=\"1\"}}combatir{{color id=\"65535\"}}, ¿no? ¡Pues allá voy de cabeza!",
      "EUfr": "Donne envie d'{{color id=\"1\"}}enchaîner les matchs{{color id=\"65535\"}},\ntu veux dire ? Parce que c'est l'idée !",
      "EUit": "Intendi perfetto per {{color id=\"1\"}}combattere{{color id=\"65535\"}}, giusto?\nPerché è a quello che serve!",
      "EUnl": "Goed om in te {{color id=\"1\"}}vechten{{color id=\"65535\"}}! Tijd om dat\nsmetteloze nieuwe level onder te kliederen!",
      "EUru": "Главное, чтобы она была функциональной.\nВ {{color id=\"1\"}}бою{{color id=\"65535\"}} одного внешнего вида мало!",
      "JPja": "{{color id=\"1\"}}バトルのステージ{{color id=\"65535\"}}に 選ばれるようになったし、\n楽しみにしといてや！",
      "KRko": "{{color id=\"1\"}}배틀 스테이지{{color id=\"65535\"}}로 만나 볼 수 있으니 기대하그래이!",
      "TWzh": "反正已經成為候選的{{color id=\"1\"}}對戰場地{{color id=\"65535\"}}了，\n就先期待一下吧！",
      "USen": "You mean good for {{color id=\"1\"}}battling{{color id=\"65535\"}}, right? 'Cause\nthat's what it's there for!",
      "USes": "Nada de paseos. Los {{color id=\"1\"}}escenarios{{color id=\"65535\"}} son para\n{{color id=\"1\"}}combatir{{color id=\"65535\"}}, ¿no? ¡Pues vamos con todo!",
      "USfr": "Donne envie d'{{color id=\"1\"}}enchaîner les matchs{{color id=\"65535\"}},\ntu veux dire? Parce que c'est l'idée!"
    }
  },
  {
    "label": "013_sing",
    "locale": {
      "CNzh": "我好想马上大闹一番啊！",
      "EUde": "Volle Kleckskraft voraus!",
      "EUen": "Full splat ahead!",
      "EUes": "¡El entintar nunca se va a acabar!",
      "EUfr": "L'encre va couler à flots !",
      "EUit": "Splattaggio à gogo!",
      "EUnl": "Ik kan niet wachten om er een kleurige\nbende van te maken!",
      "EUru": "Полный вперед с полным краскометом!",
      "JPja": "はよう暴れ回りたいのう！",
      "KRko": "얼른 날뛰고 싶구나!",
      "TWzh": "好想趕快去大鬧一場喔！",
      "USen": "Full splat ahead!",
      "USes": "¡A entintar sin parar!",
      "USfr": "L'encre va couler à flots!"
    }
  },
  {
    "label": "101",
    "locale": {
      "CNzh": "……鲼？{{string value=\"5\"}}（……这是头目鲑鱼的集体照吗？）{{fun_000F_0004 arg=\"0x0500\"}}",
      "EUde": "Ay? Ay? {{string value=\"5\"}}(Was soll das denn sein?\nOber-Salmoniden unter sich?){{fun_000F_0004 arg=\"0x0500\"}}",
      "EUen": "Ay? {{string value=\"5\"}}(What is this, some kind of King\nSalmonid class photo?){{fun_000F_0004 arg=\"0x0500\"}}",
      "EUes": "¿Zasss? {{string value=\"5\"}}(¿Pero qué es esto? ¿Una orla\nde fin de curso de salmónidos o algo así?){{fun_000F_0004 arg=\"0x0500\"}}",
      "EUfr": "Ay ? {{string value=\"5\"}}(Qu'est-ce que c'est, une photo de\nclasse de Salmonarques ?){{fun_000F_0004 arg=\"0x0500\"}}",
      "EUit": "Man? {{string value=\"5\"}}{{color id=\"0\"}}(Cos'è, una specie di foto di classe\ndei Salmonarchi?){{color id=\"65535\"}}{{fun_000F_0004 arg=\"0x0500\"}}",
      "EUnl": "Ay? Ay? {{string value=\"5\"}}(Wat is dit? Een klassenfoto van\nSalmonsters?){{fun_000F_0004 arg=\"0x0500\"}}",
      "EUru": "Ик? {{string value=\"5\"}}(Это что, снимок со встречи\nодноклассников самонидов-королей?){{fun_000F_0004 arg=\"0x0500\"}}",
      "JPja": "…エイ？{{string value=\"5\"}}（…オカシラシャケの集合写真かな？）{{fun_000F_0004 arg=\"0x0500\"}}",
      "KRko": "…만타?{{string value=\"5\"}}(…두목연어의 단체 사진인가?){{fun_000F_0004 arg=\"0x0500\"}}",
      "TWzh": "……魟？{{string value=\"5\"}}（……這是頭目鮭魚的團體照嗎？）{{fun_000F_0004 arg=\"0x0500\"}}",
      "USen": "Ay? {{string value=\"5\"}}(What is this, some kind of King\nSalmonid class photo?){{fun_000F_0004 arg=\"0x0500\"}}",
      "USes": "¿Zasss? {{string value=\"5\"}}(¿Pero qué es esto? ¿Una foto\nde fin de curso de salmónidos o algo así?){{fun_000F_0004 arg=\"0x0500\"}}",
      "USfr": "Ay? {{string value=\"5\"}}(Qu'est-ce que c'est, une photo de\nclasse de salmonarques?){{fun_000F_0004 arg=\"0x0500\"}}"
    }
  },
  {
    "label": "102",
    "locale": {
      "CNzh": "笑得挺灿烂的。",
      "EUde": "Wenigstens scheinen die ordentlich\nSalmoniden-Party zu machen!",
      "EUen": "They seem like they're having a good time!",
      "EUes": "¡Pues tienen pinta de pasárselo bomba!",
      "EUfr": "Ils ont l'air de bien s'amuser !",
      "EUit": "Sembrano divertirsi!",
      "EUnl": "Volgens mij hebben ze best lol samen.",
      "EUru": "По-моему, им весело!",
      "JPja": "なかなか よい笑顔じゃの",
      "KRko": "미소가 꽤나 상큼하구나",
      "TWzh": "笑得還真是燦爛耶。",
      "USen": "They seem like they're having a good time!",
      "USes": "¡Miren esas sonrisas horripilantes!",
      "USfr": "Ils ont l'air de bien s'amuser!"
    }
  },
  {
    "label": "103",
    "locale": {
      "CNzh": "最近同时目击到{{color id=\"1\"}}3只头目鲑鱼{{color id=\"65535\"}}的报告\n似乎多了起来。",
      "EUde": "{{color id=\"1\"}}Drei Ober-Salmoniden auf einmal{{color id=\"65535\"}}...\nVon so was hab ich schon gehört...",
      "EUen": "You know, I keep hearing of people running\ninto {{color id=\"1\"}}3 King Salmonids {{color id=\"65535\"}}at the same time.",
      "EUes": "Sigo oyendo rumores sobre gente que ha\nvisto {{color id=\"1\"}}3 grandes jefes salmónidos{{color id=\"65535\"}} juntos.",
      "EUfr": "Dites, il paraît que des gens sont tombés\nsur des groupes de {{color id=\"1\"}}trois Salmonarques{{color id=\"65535\"}}...",
      "EUit": "Sapete, continuo a sentire di gente che\nsi trova davanti {{color id=\"1\"}}3 Salmonarchi{{color id=\"65535\"}} insieme.",
      "EUnl": "Ik hoor de laatste tijd vaak over klussers\ndie {{color id=\"1\"}}drie Salmonsters {{color id=\"65535\"}}tegelijk tegenkomen.",
      "EUru": "Я все чаще слышу, что кто-то встретил\n{{color id=\"1\"}}трех самонидов-королей {{color id=\"65535\"}}одновременно...",
      "JPja": "最近 {{color id=\"1\"}}３体のオカシラシャケ{{color id=\"65535\"}}を同時に目撃した、\nっちゅう報告が増えとるらしいで",
      "KRko": "최근 {{color id=\"1\"}}두목연어 3마리{{color id=\"65535\"}}를 동시에 목격했다는\n보고가 늘었다 카대",
      "TWzh": "聽說目擊到{{color id=\"1\"}}3隻頭目鮭魚{{color id=\"65535\"}}同時出現的報告\n最近似乎變多了。",
      "USen": "You know, I keep hearing of people running\ninto {{color id=\"1\"}}3 King Salmonids {{color id=\"65535\"}}at the same time.",
      "USes": "Sigo oyendo rumores sobre gente que ha\nvisto {{color id=\"1\"}}3 grandes jefes salmónidos{{color id=\"65535\"}} juntos.",
      "USfr": "Dites, il paraît que des gens sont tombés\nsur des groupes de {{color id=\"1\"}}trois salmonarques{{color id=\"65535\"}}."
    }
  },
  {
    "label": "104",
    "locale": {
      "CNzh": "鲼？！{{string value=\"5\"}}（光是1只就十分危险了吧？！）{{fun_000F_0004 arg=\"0x0500\"}}",
      "EUde": "Ay!? Ay... {{string value=\"5\"}}(Drei Stück!? Dabei ist\nmir einer schon viel zu gefährlich...){{fun_000F_0004 arg=\"0x0500\"}}",
      "EUen": "Ay?! Ay? {{string value=\"5\"}}(Three?! Wasn't one on its own\ndangerous enough?){{fun_000F_0004 arg=\"0x0500\"}}",
      "EUes": "¡¿Zasss?! {{string value=\"5\"}}(¡¿Tres a la vez?! Como si uno\nsolo no causara suficientes problemas...){{fun_000F_0004 arg=\"0x0500\"}}",
      "EUfr": "Ay ? {{string value=\"5\"}}(Trois en même temps ?! Ils sont pas\ndéjà assez dangereux un par un ?!){{fun_000F_0004 arg=\"0x0500\"}}",
      "EUit": "Man?! Man? {{string value=\"5\"}}{{color id=\"0\"}}(Tre?! Uno da solo non era\nabbastanza pericoloso?){{color id=\"65535\"}}{{fun_000F_0004 arg=\"0x0500\"}}",
      "EUnl": "Ay?! Ay? {{string value=\"5\"}}(Drie?! Is één van die griezels\nniet erg genoeg?){{fun_000F_0004 arg=\"0x0500\"}}",
      "EUru": "Ик?! Ик? {{string value=\"5\"}}(Трех?! Будто одного было мало!){{fun_000F_0004 arg=\"0x0500\"}}",
      "JPja": "エエイ？！{{string value=\"5\"}}（１体だけでも キケンなのに？！）{{fun_000F_0004 arg=\"0x0500\"}}",
      "KRko": "마안타?!{{string value=\"5\"}}(1마리만 해도 위험한데?!){{fun_000F_0004 arg=\"0x0500\"}}",
      "TWzh": "吼魟！？{{string value=\"5\"}}（光是只有1隻就已經很危險了吧！？）{{fun_000F_0004 arg=\"0x0500\"}}",
      "USen": "Ay?! Ay? {{string value=\"5\"}}(Three?! Wasn't one on its own\ndangerous enough?){{fun_000F_0004 arg=\"0x0500\"}}",
      "USes": "¡¿Zasss?! {{string value=\"5\"}}(¡¿Tres a la vez?! Como si uno\nsolo no causara suficientes problemas...){{fun_000F_0004 arg=\"0x0500\"}}",
      "USfr": "Ay?! {{string value=\"5\"}}(Trois en même temps?! Ils sont pas\ndéjà assez dangereux un par un?!){{fun_000F_0004 arg=\"0x0500\"}}"
    }
  },
  {
    "label": "105",
    "locale": {
      "CNzh": "哼，它们是打算成立“{{color id=\"1\"}}头目联合{{color id=\"65535\"}}”吗？\n别妄想能和我们平起平坐！！",
      "EUde": "Eine {{color id=\"1\"}}Trioffensive {{color id=\"65535\"}}also! Na dann viel Glück!\nAuch drei haben gegen uns keine Chance!",
      "EUen": "A {{color id=\"1\"}}Triumvirate{{color id=\"65535\"}}, huh? Good luck with that!\nWe're the only kings of the Splatlands!",
      "EUes": "¿Habláis de una {{color id=\"1\"}}trialianza{{color id=\"65535\"}}? ¡En Tintelia no\nnos asustan esos bichos ni por triplicado!",
      "EUfr": "Un {{color id=\"1\"}}Triumvirat{{color id=\"65535\"}}, alors ? Eh bien on devra les\n« trium-virer » de notre territoire !",
      "EUit": "Un {{color id=\"1\"}}Triumvirato{{color id=\"65535\"}}, eh? Beh, cari miei, a\nSplattonia c'è già un trio, e non siete voi!",
      "EUnl": "Bah, wat boeit dat {{color id=\"1\"}}Monstertrio{{color id=\"65535\"}}? Het enige\ntrio waar je voor moet oppassen, zijn wij!",
      "EUru": "{{color id=\"1\"}}Триумвират{{color id=\"65535\"}}, значит? Ха-ха, удачи! Самый\nкрутой триумвират в Плюхтонии — это мы!",
      "JPja": "フン、「{{color id=\"1\"}}オカシラ連合{{color id=\"65535\"}}」とでも言うつもりか？\nワシらに張り合えると思うなよ！！",
      "KRko": "흥, 「{{color id=\"1\"}}두목 연합{{color id=\"65535\"}}」이라고라도 할 셈이냐?\n우리에게 대항하겠다니 건방지구나!!",
      "TWzh": "哼，難道是打算組成「{{color id=\"1\"}}頭目聯合{{color id=\"65535\"}}」嗎？\n可別以為這樣就有辦法跟我們抗衡！！",
      "USen": "A {{color id=\"1\"}}Triumvirate{{color id=\"65535\"}}, huh? Good luck with that!\nWe're the only kings of the Splatlands!",
      "USes": "¿Hablan de una {{color id=\"1\"}}trialianza{{color id=\"65535\"}}? ¡En Tintelia no\nnos asustan esos \"jefes\" ni por triplicado!",
      "USfr": "Un {{color id=\"1\"}}triumvirat{{color id=\"65535\"}}, alors? Eh bien on devra les\n« trium-virer » de notre territoire!"
    }
  },
  {
    "label": "106",
    "locale": {
      "CNzh": "准备去打工的人得多加小心啊～！",
      "EUde": "Aber trotzdem Vorsicht! Drei auf einmal,\nda hat man nicht viel zu Lachsen!",
      "EUen": "Careful out there, everyone. Four on three\nisn't good numbers against this crew.",
      "EUes": "Sea como sea, ¡andaos con mucho cuidado\nquienes participéis en la refriega!",
      "EUfr": "Prudence quand même. Avec ces gaillards,\nà quatre contre trois c'est pas gagné...",
      "EUit": "Ragazzi, se volete accettare qualche\nlavoro, meglio fare molta attenzione!",
      "EUnl": "Ik zou toch maar goed opletten als je gaat\nklussen, als je niet monsterlijk wilt verliezen.",
      "EUru": "Но осторожней там, бригады. С таким\nтрио и вчетвером сложно справиться.",
      "JPja": "バイト行かはるヒトは 気ぃつけや～！",
      "KRko": "아르바이트하러 갈 사람은 조심하그래이～!",
      "TWzh": "要去打工的人可得小心點喔～！",
      "USen": "Careful out there, everyone. Four on three\nisn't good numbers against this crew.",
      "USes": "Sea como sea, ¡tengan mucho cuidado\nlos que vayan a trabajar!",
      "USfr": "Prudence quand même. Avec ces gaillards,\nà quatre contre trois c'est pas gagné..."
    }
  }
]