[
  {
    "label": "000",
    "locale": {
      "CNzh": "你刚才说幸运炸弹会自动爆炸？{{delay frames=\"30\"}}\n那小八岂不是也有危险？",
      "EUde": "Glücksbomben explodieren also von selber, ja?{{delay frames=\"30\"}}\nIst das nicht irgendwie gefährlich für Nr. 8?",
      "EUen": "Hey, you said Lucky Bombs explode on their own?{{delay frames=\"30\"}}\nIsn't that, uh, kinda dangerous for Eight?",
      "EUes": "Oye, ¿habías dicho que las bombas fortuna explotan\nsolas?{{delay frames=\"30\"}} Esto... ¿no es un poco peligroso para Ocho?",
      "EUfr": "Hé, t'as bien dit que les bombes chance explosaient sans\nprévenir ?{{delay frames=\"30\"}} C'est pas un peu dangereux pour Huit ?",
      "EUit": "Ehi, hai detto che le bombe fortunate esplodono\nda sole?{{delay frames=\"30\"}} Ma non è un po'... pericoloso per Otto?",
      "EUnl": "Zeg, zei je nou dat geluksbommen uit zichzelf\nontploffen?{{delay frames=\"30\"}} Is dat niet een beetje gevaarlijk voor Acht?",
      "EUru": "Йо, ты вроде говорила, что шанс-бомбы сами по себе\nвзрываются?{{delay frames=\"30\"}} А это для Восьмерки не опасно?",
      "JPja": "ラッキーボムって 勝手に爆発するんだっけ？{{delay frames=\"30\"}}\nそれ、ハチも フツーに危なくね？",
      "KRko": "럭키 밤은 알아서 폭발한다고 그랬지?{{delay frames=\"30\"}}\n그럼 에이트도 위험한 것 아니야?",
      "TWzh": "但是你說幸運炸彈會自己爆炸？{{delay frames=\"30\"}}\n那對小八來說不是也很危險嗎？",
      "USen": "Hey, you said Lucky Bombs explode on their own?{{delay frames=\"30\"}}\nIsn't that, uh, kinda dangerous for Eight?",
      "USes": "Oye, ¿dijiste que las bombas fortuna explotan solas?{{delay frames=\"30\"}}\nEste... ¿no es un poco peligroso para Ocho?",
      "USfr": "Hé, t'as bien dit que les bombes chance explosaient sans\nprévenir?{{delay frames=\"30\"}} C'est pas un peu dangereux pour Huit?"
    }
  },
  {
    "label": "001",
    "locale": {
      "CNzh": "并不，{{delay frames=\"15\"}}小八和小姬应该是不会受到伤害的。\n……{{delay frames=\"30\"}}你不放心吗？",
      "EUde": "Nein. Die sollten euch nichts tun, nur den Gegnern.{{delay frames=\"30\"}}\nWarum, machst du dir Sorgen?",
      "EUen": "Nah. It shouldn't hurt either of you, just them.{{delay frames=\"30\"}}\nWhy, you worried?",
      "EUes": "Para nada. Y tampoco es peligroso para ti, sino solo\npara el enemigo.{{delay frames=\"30\"}} ¿Por qué? ¿Te preocupaba?",
      "EUfr": "Non, Huit et toi ne risquez rien, seuls les ennemis\nsubissent des dégâts. {{delay frames=\"30\"}}Pourquoi, t'avais la frousse ?",
      "EUit": "No, tranquilla. Non fanno niente né a te né a Otto...\nsolo ai nemici.{{delay frames=\"30\"}} Perché? Sei preoccupata?",
      "EUnl": "Nah, die zouden jullie geen kwaad moeten doen, alleen de\nvijand.{{delay frames=\"30\"}} Hoezo, maak je je zorgen?",
      "EUru": "Да нет, вам они не должны навредить.\nТолько им.{{delay frames=\"30\"}} А что, беспокоишься?",
      "JPja": "イヤ、{{delay frames=\"15\"}}ハチとヒメは ダメージを受けないハズだケド\n…{{delay frames=\"30\"}}心配カ？",
      "KRko": "아니,{{delay frames=\"15\"}} 에이트와 히메는 대미지를 받지 않을 거야\n…{{delay frames=\"30\"}}걱정돼?",
      "TWzh": "不，{{delay frames=\"15\"}}小八跟小姬應該是不會受到傷害的……{{delay frames=\"30\"}}\n你會擔心嗎？",
      "USen": "Nah. It shouldn't hurt either of you, just them.{{delay frames=\"30\"}}\nWhy, you worried?",
      "USes": "Para nada. Y tampoco es peligroso para ti, sino solo\npara el enemigo.{{delay frames=\"30\"}} ¿Por qué? ¿Te preocupaba?",
      "USfr": "Non, Huit et toi ne risquez rien, seuls les ennemis\nsubissent des dégâts. {{delay frames=\"30\"}}Pourquoi, t'avais peur?"
    }
  },
  {
    "label": "002",
    "locale": {
      "CNzh": "我相信小八肯定不会有事，姑且还是问一下。{{delay frames=\"30\"}}\n行吧，既然我们是安全的，那就让敌人多多贡献炸弹吧！",
      "EUde": "Hey, ich glaube an Nr. 8! Ich frag nur.{{delay frames=\"30\"}}\nWenn die Bomben sicher sind, dann immer her damit!",
      "EUen": "Hey, I believe in Eight! Just asking questions, y'know.{{delay frames=\"30\"}}\nIf you say it's safe, then bombs away!",
      "EUes": "Qué va, ¡si confío en Ocho! Solo preguntaba.{{delay frames=\"30\"}}\nSi dices que es seguro, ¡entonces, bombas fuera!",
      "EUfr": "N'importe quoi, je m'informe, c'est tout. Et il en faudrait\nplus pour venir à bout de Huit. {{delay frames=\"30\"}}Enfin, puisque c'est\nsans danger, bombardons à tout-va !",
      "EUit": "Ma figurati! Io mi fido di Otto. Era solo per curiosità.{{delay frames=\"30\"}}\nSe dici che sono sicure, via con le bombe!",
      "EUnl": "Hé, ik twijfel geen moment aan Acht! Ik vroeg het me\ngewoon af.{{delay frames=\"30\"}} Als jij zegt dat het veilig is, dan bommen los!",
      "EUru": "Ой, да не-е-е, я в Восьмерку верю! Так, интересуюсь.{{delay frames=\"30\"}}\nРаз говоришь, что это безопасно, айда бомбить, йо!",
      "JPja": "ハチなら平気だろうけど いちおうなー{{delay frames=\"30\"}}\nま、安全ってコトなら 敵さんにはどんどんボムを落としてもらうか！",
      "KRko": "에이트라면 괜찮겠지만, 일단은～{{delay frames=\"30\"}}\n뭐, 안전하다면 신경 안 쓰고 마음껏 공격해도 되겠네!",
      "TWzh": "雖然小八應該是應付得來，但還是姑且確認一下。{{delay frames=\"30\"}}\n總之，既然是安全的，那就讓不斷地擊倒敵人讓炸彈出現吧！",
      "USen": "Hey, I believe in Eight! Just asking questions, y'know.{{delay frames=\"30\"}}\nIf you say it's safe, then bombs away!",
      "USes": "No, no, ¡confío en Ocho! Solo preguntaba.{{delay frames=\"30\"}}\nSi dices que es seguro, ¡entonces, que lluevan bombas!",
      "USfr": "N'importe quoi, je m'informe, c'est tout. Et il en faudrait\nplus pour venir à bout de Huit. {{delay frames=\"30\"}}Enfin, puisque c'est\nsans danger, bombardons à tout-va!"
    }
  },
  {
    "label": "003",
    "locale": {
      "CNzh": "哦？{{delay frames=\"15\"}}那边好像掉落了什么东西。",
      "EUde": "Hä? {{delay frames=\"15\"}}Was’n das jetzt?",
      "EUen": "Huh? {{delay frames=\"15\"}}What's that thing?",
      "EUes": "¿Eh?{{delay frames=\"15\"}} ¿Qué es esa cosa?",
      "EUfr": "Euh... {{delay frames=\"15\"}}C'est quoi, ce truc ?",
      "EUit": "Eh? {{delay frames=\"15\"}}E quella cos'è?",
      "EUnl": "Eh... {{delay frames=\"15\"}}Wat is dat ding?",
      "EUru": "Э? {{delay frames=\"15\"}}Это что за шпроты?",
      "JPja": "お？{{delay frames=\"15\"}} あそこ何か落ちてんぞ",
      "KRko": "오?{{delay frames=\"15\"}} 저기에 뭐가 떨어져 있어",
      "TWzh": "哦？{{delay frames=\"15\"}}好像有東西掉在那裡耶。",
      "USen": "Huh? {{delay frames=\"15\"}}What's that thing?",
      "USes": "¿Eh?{{delay frames=\"15\"}} ¿Qué es esa cosa?",
      "USfr": "Euh... {{delay frames=\"15\"}}C'est quoi, ce truc?"
    }
  },
  {
    "label": "004",
    "locale": {
      "CNzh": "那个是{{color id=\"4\"}}特殊罐头{{color id=\"65535\"}}。{{delay frames=\"30\"}}\n拾取后会积攒一半的特殊武器蓄力槽。",
      "EUde": "Sieht aus wie eine {{color id=\"4\"}}Powerkonserve{{color id=\"65535\"}}. {{delay frames=\"30\"}}Die füllt beim\nEinsammeln die Hälfte der Spezialanzeige auf.",
      "EUen": "Looks from here like a {{color id=\"4\"}}canned special{{color id=\"65535\"}}. {{delay frames=\"30\"}}Grabbing one\nwill fill half your special gauge.",
      "EUes": "Visto desde aquí, parece una {{color id=\"4\"}}conserva especial{{color id=\"65535\"}}.{{delay frames=\"30\"}} Si coges\nuna, se llenará la mitad de tu medidor especial.",
      "EUfr": "Vu d'ici, on dirait une {{color id=\"4\"}}boîte de conserve{{color id=\"65535\"}}. {{delay frames=\"30\"}}Elle remplira\nla moitié de ta jauge spéciale si tu la ramasses.",
      "EUit": "Si direbbe una {{color id=\"4\"}}scatoletta speciale{{color id=\"65535\"}}.{{delay frames=\"30\"}} Se la raccogli,\nti riempirà mezzo indicatore dell'arma speciale.",
      "EUnl": "Vanaf hier lijkt het een {{color id=\"4\"}}bonusblik{{color id=\"65535\"}}. {{delay frames=\"30\"}}Daarmee kun je\nje speciale meter in één klap voor de helft vullen.",
      "EUru": "Похоже на {{color id=\"4\"}}консервы «Особые»{{color id=\"65535\"}}. {{delay frames=\"30\"}}Они восполняют\nполовину шкалы особого оружия.",
      "JPja": "アレは{{color id=\"4\"}}スペシャルカンヅメ{{color id=\"65535\"}}だネ{{delay frames=\"30\"}}\n取ると スペシャルゲージが半分たまるヨ",
      "KRko": "저건 {{color id=\"4\"}}스페셜 통조림{{color id=\"65535\"}}이야{{delay frames=\"30\"}}\n획득하면 스페셜 게이지가 절반 모여",
      "TWzh": "那是{{color id=\"4\"}}特殊罐頭{{color id=\"65535\"}}。{{delay frames=\"30\"}}\n拿到之後，可以讓特殊武器蓄力槽增加一半喔。",
      "USen": "Looks from here like a {{color id=\"4\"}}canned special{{color id=\"65535\"}}. {{delay frames=\"30\"}}Grabbing one\nwill fill half your special gauge.",
      "USes": "Visto desde aquí, parece una {{color id=\"4\"}}conserva especial{{color id=\"65535\"}}.{{delay frames=\"30\"}} Si\nrecoges una, se llenará la mitad de tu medidor especial.",
      "USfr": "Vu d'ici, on dirait une {{color id=\"4\"}}boîte de conserve{{color id=\"65535\"}}. {{delay frames=\"30\"}}Elle remplira\nla moitié de ta jauge spéciale si tu la ramasses."
    }
  },
  {
    "label": "005",
    "locale": {
      "CNzh": "特殊武器可以通过按下{{icon id=\"76\" arg=\"0xEC51383FFEFFFFFF\"}}发动哦。{{delay frames=\"30\"}}\n遇到危险时就使用鲨鱼坐骑撞飞敌人吧！",
      "EUde": "Drücke auf den {{icon id=\"76\" arg=\"0xEC51383FFEFFFFFF\"}} rechten Stick, um Spezialwaffen\neinzusetzen. Weißt du ja sicher noch.{{delay frames=\"30\"}} Bist du mal\numzingelt, verschaff dir mit dem Haihammer etwas Luft!",
      "EUen": "You use specials by pressing in the Right Stick ({{icon id=\"76\" arg=\"0xEC51383FFEFFFFFF\"}}),\nremember? {{delay frames=\"30\"}}If you get mobbed, blast out with\nyour Reefslider!",
      "EUes": "Recuerda que puedes pulsar {{icon id=\"76\" arg=\"0xEC51383FFEFFFFFF\"}} para usar el arma\nespecial.{{delay frames=\"30\"}} Si alguien te incordia, ¡hazle sentir la fuerza\nde tu flotiburón!",
      "EUfr": "Quand la jauge est pleine, appuie sur le stick droit {{icon id=\"76\" arg=\"0xEC51383FFEFFFFFF\"}}\npour déclencher l'arme spéciale. {{delay frames=\"30\"}}Alors si l'ennemi devient\ntrop collant, fais le ménage à dos de cavalsquale !",
      "EUit": "Per usare l'arma speciale devi premere lo stick\ndestro {{icon id=\"76\" arg=\"0xEC51383FFEFFFFFF\"}}, ricordi?{{delay frames=\"30\"}} Se i nemici ti assalgono,\nliberatene col motosqualo!",
      "EUnl": "Je moet de rechterstick indrukken om je speciale wapen\nin te zetten, weet je nog?{{delay frames=\"30\"}} Als de vijand je dreigt te\noverweldigen, laat ze dan eens je Opblaashaai zien!",
      "EUru": "Это оружие включается, когда жмешь правый\nмини-джойстик {{icon id=\"76\" arg=\"0xEC51383FFEFFFFFF\"}}, помнишь?{{delay frames=\"30\"}} Наша мотокула\nотлично помогает вырваться из окружения, йо!",
      "JPja": "スペシャルは{{icon id=\"76\" arg=\"0xEC51383FFEFFFFFF\"}}押しこみで発動だったよな{{delay frames=\"30\"}}\n危ないときはサメライドで 敵をブッ飛ばしてけ！",
      "KRko": "스페셜 웨펀은 {{icon id=\"76\" arg=\"0xEC51383FFEFFFFFF\"}}을 눌러서 발동하는 거였지{{delay frames=\"30\"}}\n위험할 때는 샤크 라이드로 적을 날려 버려!",
      "TWzh": "特殊武器是要按下{{icon id=\"76\" arg=\"0xEC51383FFEFFFFFF\"}}發動的吧？{{delay frames=\"30\"}}\n遇到危險的時候就靠鯊魚坐騎撞飛敵人吧！",
      "USen": "You use specials by pressing in the Right Stick ({{icon id=\"76\" arg=\"0xEC51383FFEFFFFFF\"}}),\nremember? {{delay frames=\"30\"}}If you get mobbed, blast out with\nyour Reefslider!",
      "USes": "Puedes oprimir {{icon id=\"76\" arg=\"0xEC51383FFEFFFFFF\"}} para activar tu ataque especial.{{delay frames=\"30\"}}\nSi te acorralan, ¡ábrete camino con el flotiburón!",
      "USfr": "Quand la jauge est pleine, appuie sur le levier droit {{icon id=\"76\" arg=\"0xEC51383FFEFFFFFF\"}}\npour déclencher l'arme spéciale. {{delay frames=\"30\"}}Alors, si l'ennemi devient\ntrop collant, fais le ménage à dos de Cavalsquale!"
    }
  }
]