[
  {
    "label": "000",
    "locale": {
      "CNzh": "快看，小八！",
      "EUde": "Mach dich bereit, Nr. 8!",
      "EUen": "Heads up, Eight!",
      "EUes": "¡Atención, Ocho!",
      "EUfr": "Regarde, Huit !",
      "EUit": "Fai attenzione, Otto!",
      "EUnl": "Opgepast, Acht!",
      "EUru": "Восьмерка, гляди!",
      "JPja": "見ろ ハチ！",
      "KRko": "저거 봐, 에이트!",
      "TWzh": "小八，快看！",
      "USen": "Heads up, Eight!",
      "USes": "¡Oye, Ocho!",
      "USfr": "Regarde, Huit!"
    }
  },
  {
    "label": "001",
    "locale": {
      "CNzh": "感觉不妙啊！{{delay frames=\"15\"}}用这个吧！",
      "EUde": "Da kommt Ärger auf uns zu.{{delay frames=\"15\"}} Benutz die hier!",
      "EUen": "Trouble's coming for us. {{delay frames=\"15\"}}Use these!",
      "EUes": "Hay problemas a la vista.{{delay frames=\"15\"}} ¡Usa esto!",
      "EUfr": "Ennuis droit devant ! {{delay frames=\"15\"}}Utilise ça !",
      "EUit": "Guai in arrivo! {{delay frames=\"15\"}}Tieni!",
      "EUnl": "Problemen aan de horizon. {{delay frames=\"15\"}}Gebruik deze!",
      "EUru": "Похоже, у нас проблемы, йо. {{delay frames=\"15\"}}Вот, держи!",
      "JPja": "なんかヤバそーだ！ {{delay frames=\"15\"}}コイツを使え！",
      "KRko": "뭔가 위험해 보여!{{delay frames=\"15\"}} 이걸 써!",
      "TWzh": "好像不太妙！{{delay frames=\"15\"}}這個給你用吧！",
      "USen": "Trouble's coming for us. {{delay frames=\"15\"}}Use these!",
      "USes": "Hay problemas a la vista.{{delay frames=\"15\"}} ¡Usa esto!",
      "USfr": "Ennuis droit devant! {{delay frames=\"15\"}}Utilise ça!"
    }
  },
  {
    "label": "002",
    "locale": {
      "CNzh": "你应该知道武器的用法吧？{{delay frames=\"30\"}}\n按{{icon id=\"80\" arg=\"0x0000803F00000000\"}}击垮那群家伙！",
      "EUde": "Du weißt, wie man mit ’ner Waffe umgeht, oder?{{delay frames=\"30\"}}\nDrücke {{icon id=\"80\" arg=\"0x0000803F00000000\"}} und zeig ihnen, wo die Tinte herkommt!",
      "EUen": "You remember your way around a weapon, right?{{delay frames=\"30\"}}\nPress {{icon id=\"80\" arg=\"0x0000803F00000000\"}} to show 'em who they're dealing with!",
      "EUes": "Todavía sabes cómo usar armas, ¿no?{{delay frames=\"30\"}} ¡Pulsa {{icon id=\"80\" arg=\"0x0000803F00000000\"}} \npara que sepan con quién están tratando!",
      "EUfr": "Tu sais toujours te servir d'une arme, pas vrai ?\nAppuie sur {{icon id=\"80\" arg=\"0x0000803F00000000\"}} et montre-leur ce que t'as\ndans le ventre !",
      "EUit": "Ti ricordi come si usa un'arma, vero?{{delay frames=\"30\"}}\nPremi {{icon id=\"80\" arg=\"0x0000803F00000000\"}} per fargli vedere chi comanda!",
      "EUnl": "Je weet nog wel wat je met een wapen kunt, toch?{{delay frames=\"30\"}} Druk\nop {{icon id=\"80\" arg=\"0x0000803F00000000\"}} om ze te laten zien dat er een expert aan het\nwerk is!",
      "EUru": "Надеюсь, как стрелять ты хоть помнишь?{{delay frames=\"30\"}}\nКороче, жми {{icon id=\"80\" arg=\"0x0000803F00000000\"}} и покажи им, где Ракки зимует!",
      "JPja": "ブキの使い方はわかるよな？{{delay frames=\"30\"}}\n{{icon id=\"80\" arg=\"0x0000803F00000000\"}}で けちらしてやれ！",
      "KRko": "무기 사용법은 알지?{{delay frames=\"30\"}}\n{{icon id=\"80\" arg=\"0x0000803F00000000\"}}로 쫓아 버려!",
      "TWzh": "你應該知道怎麼使用武器吧？{{delay frames=\"30\"}}\n按下{{icon id=\"80\" arg=\"0x0000803F00000000\"}}把牠們收拾掉吧！",
      "USen": "You remember your way around a weapon, right?{{delay frames=\"30\"}}\nPress {{icon id=\"80\" arg=\"0x0000803F00000000\"}} to show 'em who they're dealing with!",
      "USes": "Recuerdas cómo usar armas, ¿no?{{delay frames=\"30\"}}\n¡Oprime {{icon id=\"80\" arg=\"0x0000803F00000000\"}} y enséñale quién manda!",
      "USfr": "Tu sais toujours te servir d'une arme, pas vrai?{{delay frames=\"30\"}}\nAppuie sur {{icon id=\"80\" arg=\"0x0000803F00000000\"}} et montre-leur ce que t'as\ndans le ventre!"
    }
  }
]