[
  {
    "label": "000",
    "locale": {
      "CNzh": "好！{{delay frames=\"15\"}}感觉不错！",
      "EUde": "Was geeeht! {{delay frames=\"15\"}}\nLäuft ja richtig bei uns!",
      "EUen": "Awww yeah! {{delay frames=\"15\"}}We're on a roll!",
      "EUes": "¡Vamooos!{{delay frames=\"15\"}} ¡Esto marcha!",
      "EUfr": "Youhou ! {{delay frames=\"15\"}}On enchaîne les victoires !",
      "EUit": "Sììì! {{delay frames=\"15\"}}Stiamo andando alla grande!",
      "EUnl": "Ooo yes! {{delay frames=\"15\"}}Zo gaat ie lekker!",
      "EUru": "Йо-хо! {{delay frames=\"15\"}}Хорошо идем, не?",
      "JPja": "ヨッシ！{{delay frames=\"15\"}} いい感じだゾ！",
      "KRko": "아자!{{delay frames=\"15\"}} 느낌 좋고!",
      "TWzh": "好！{{delay frames=\"15\"}}狀態還不錯！",
      "USen": "Awww yeah! {{delay frames=\"15\"}}We're on a roll!",
      "USes": "¡Aaah!{{delay frames=\"15\"}} ¡Estamos arrasando!",
      "USfr": "Youhou! {{delay frames=\"15\"}}On enchaîne les victoires!"
    }
  },
  {
    "label": "001",
    "locale": {
      "CNzh": "既然我能像这样支援小八，{{delay frames=\"15\"}}\n无人机的形态在这里或许也不是件坏事。",
      "EUde": "Gar nicht übel so als Drohne, wenn ich\nNr. 8 die Sache etwas erleichtern kann!",
      "EUen": "Y'know, this drone body's not so bad if it means\nEight doesn't have to do all the work.",
      "EUes": "No está nada mal tener cuerpo de dron{{delay frames=\"15\"}} si con eso\nle evito a Ocho tener que hacer todo el trabajo.",
      "EUfr": "Vous savez quoi ? Au final, c'est pas si mal d'être\nun drone. Si ça peut me permettre d'aider Huit...",
      "EUit": "Sapete che vi dico? Questo corpo di drone non è poi\ncosì male... se significa che posso aiutare Otto!",
      "EUnl": "Die dronevorm is helemaal zo gek nog niet als ik Acht er\neen beetje mee kan helpen.",
      "EUru": "Знаешь, быть дроном не так уж и плохо. Хотя бы\nВосьмерке не нужно в одиночку отдуваться...",
      "JPja": "ハチを こんなふうにサポートしてやれるなら{{delay frames=\"15\"}}\nここではドローンの体も悪くねーかもなー",
      "KRko": "에이트를 이런 식으로 서포트해 줄 수 있다면{{delay frames=\"15\"}}\n여기서는 몸이 드론이어도 나쁘지 않은걸",
      "TWzh": "既然可以像現在這樣輔助小八，{{delay frames=\"15\"}}\n那就算身體變成無人機，在這裡好像也不算壞事喔。",
      "USen": "Y'know, this drone body's not so bad if it means\nEight doesn't have to do all the work.",
      "USes": "¿Sabes qué? No está nada mal tener cuerpo de dron.{{delay frames=\"15\"}}\nAsí le quito un poco de trabajo a Ocho.",
      "USfr": "Vous savez quoi? Au final, c'est pas si mal d'être\nun drone. Si ça peut me permettre d'aider Huit..."
    }
  },
  {
    "label": "002",
    "locale": {
      "CNzh": "下一块色彩晶片似乎可以强化无人机哦。{{delay frames=\"30\"}}\n灵活使用的话，或许能帮到小八。",
      "EUde": "Dabei wird der nächste Farbchip sicher helfen.{{delay frames=\"30\"}}\nDamit unterstützt du Nr. 8 noch mehr.",
      "EUen": "This next color chip will help with that too. {{delay frames=\"30\"}}Use it\nright, and you'll be a powerful ally to Eight.",
      "EUes": "El siguiente cromochip también servirá para eso.{{delay frames=\"30\"}}\nBien empleado, le será de gran ayuda a Ocho.",
      "EUfr": "La prochaine puce chromatique va aider, elle aussi.\n{{delay frames=\"30\"}}Utilise-la à bon escient et Huit ne pourra plus se passer\nde toi sur le champ de bataille.",
      "EUit": "La prossima scheda colore casca a fagiolo, allora.{{delay frames=\"30\"}}\nUsala nel modo giusto e diventerai una potente alleata.",
      "EUnl": "Deze nieuwe kleurenchip zal je daar ook bij\nondersteunen. {{delay frames=\"30\"}}Daarmee heeft Acht nog meer aan je.",
      "EUru": "Значит, следующий тон-жетон тебе понравится.{{delay frames=\"30\"}}\nИспользуй его с умом, и ты очень поможешь\nВосьмерке.",
      "JPja": "次のカラーチップは ドローンを強化できるみたいダヨ{{delay frames=\"30\"}}\nうまく使えば ハチの助けになるかもナ",
      "KRko": "다음 컬러 칩은 드론을 강화할 수 있나 봐{{delay frames=\"30\"}}\n잘 사용하면 에이트에게 도움이 되겠어",
      "TWzh": "下一枚色彩晶片好像可以強化無人機喔。{{delay frames=\"30\"}}\n只要好好地活用，或許也能幫到小八。",
      "USen": "This next color chip will help with that too. {{delay frames=\"30\"}}Use it\nright, and you'll be a powerful ally to Eight.",
      "USes": "El siguiente cromochip también servirá para eso.{{delay frames=\"30\"}}\nBien empleado, le será de gran ayuda a Ocho.",
      "USfr": "La prochaine puce chromatique va aider, elle aussi.{{delay frames=\"30\"}}\nUtilise-la à bon escient et Huit ne pourra plus\nse passer de toi sur le champ de bataille."
    }
  },
  {
    "label": "003",
    "locale": {
      "CNzh": "真的啊！{{delay frames=\"30\"}}\n那我可以使用{{color id=\"4\"}}喇叭镭射{{color id=\"65535\"}}了！",
      "EUde": "Was, 'ne {{color id=\"4\"}}Heulboje{{color id=\"65535\"}}?!{{delay frames=\"30\"}}\nAlter, JETZT wird durchgestartet!",
      "EUen": "It lets me use {{color id=\"4\"}}Killer Wail{{color id=\"65535\"}}?! {{delay frames=\"30\"}}NOW we're talking!",
      "EUes": "¡¿Me permite usar el {{color id=\"4\"}}tintófono{{color id=\"65535\"}}?!{{delay frames=\"30\"}} ¡Esto ya es otra cosa!",
      "EUfr": "Elle va me permettre d'utiliser le {{color id=\"4\"}}haut-perceur{{color id=\"65535\"}} ?{{delay frames=\"30\"}}\nHa ha ! Cette fois, on passe aux choses sérieuses !",
      "EUit": "Mi permette di usare il {{color id=\"4\"}}tintofono{{color id=\"65535\"}}?!\n{{delay frames=\"30\"}}Adesso sì che si ragiona!",
      "EUnl": "Wat, daarmee kan ik een {{color id=\"4\"}}Megalofoon{{color id=\"65535\"}} gebruiken?!{{delay frames=\"30\"}}\nNu ga je echt van me horen!",
      "EUru": "Погоди, он что, позволит мне использовать\n{{color id=\"4\"}}мегалофон{{color id=\"65535\"}}?! {{delay frames=\"30\"}}Вот это я понимаю, йо!",
      "JPja": "マジじゃん！{{delay frames=\"30\"}}\nアタシが {{color id=\"4\"}}メガホンレーザー{{color id=\"65535\"}}使えるようになるぞ！",
      "KRko": "진짜네!{{delay frames=\"30\"}}\n내가 {{color id=\"4\"}}메가폰 레이저{{color id=\"65535\"}}를 쓸 수 있게 된대!",
      "TWzh": "真的耶！{{delay frames=\"30\"}}\n我現在可以使用{{color id=\"4\"}}喇叭雷射{{color id=\"65535\"}}了！",
      "USen": "It lets me use {{color id=\"4\"}}Killer Wail{{color id=\"65535\"}}?! {{delay frames=\"30\"}}NOW we're talking!",
      "USes": "¡¿Me permite usar el {{color id=\"4\"}}berreón{{color id=\"65535\"}}?!{{delay frames=\"30\"}} ¡Esto ya es otra cosa!",
      "USfr": "Elle va me permettre d'utiliser le {{color id=\"4\"}}Laser perçant{{color id=\"65535\"}}?{{delay frames=\"30\"}}\nHa ha! Cette fois, on passe aux choses sérieuses!"
    }
  }
]