[
  {
    "label": "000",
    "locale": {
      "CNzh": "已经打开三分之一的置物柜了啊！{{pageBreak}}不过，似乎还有我们没见过的调色盘！{{delay frames=\"30\"}}\n那些调色盘会是什么武器呢？",
      "EUde": "Ein Drittel der Schließfächer\nhaben wir jetzt ungefähr offen!{{pageBreak}}Aber es gibt immer noch Paletten,\ndie wir noch nicht gesehen haben.{{delay frames=\"30\"}}\nWas für Waffen da wohl drin sind?",
      "EUen": "We've opened about a third of the lockers now!{{pageBreak}}But there's still Palettes we ain't seen yet.{{delay frames=\"30\"}} What kinda\nweapons do you think they'll have?",
      "EUes": "¡Hemos abierto un tercio de las casillas!{{pageBreak}}Pero aún nos quedan paletas por ver.{{delay frames=\"30\"}} ¿Qué clase\nde armas crees que tendrán?",
      "EUfr": "On a ouvert un tiers des casiers, c'est pas mal !{{pageBreak}}Mais il y a sûrement des palettes qu'on a pas encore\ndénichées.{{delay frames=\"30\"}} Sur quel genre d'armes on va tomber,\nvous croyez ?",
      "EUit": "Abbiamo aperto circa un terzo degli armadietti!{{pageBreak}}Ma ci sono ancora delle tavolette che non abbiamo\nscoperto.{{delay frames=\"30\"}} Secondo voi che armi nascondono?",
      "EUnl": "We hebben ongeveer een derde van de kluisjes geopend!{{pageBreak}}Maar er zijn nog paletten die we niet hebben gezien.{{delay frames=\"30\"}}\nWat voor wapens denk je dat er nog op ons wachten?",
      "EUru": "Мы уже открыли треть всех сейфов!{{pageBreak}}Значит, осталась куча тон-боксов!{{delay frames=\"30\"}}\nИнтересно, какое в них оружие?",
      "JPja": "もう３分の１くらいロッカー開けたんか！{{pageBreak}}でも、まだ見たことねーパレットが残ってそーだ！{{delay frames=\"30\"}}\nどんなブキになんのかなー？",
      "KRko": "벌써 로커를 3분의 1 정도 열었구나!{{pageBreak}}하지만 아직 본 적 없는 팔레트가 남아 있을 것 같아!{{delay frames=\"30\"}}\n어떤 무기가 되려나～?",
      "TWzh": "已經有大約三分之一的置物櫃被我們打開了！{{pageBreak}}不過好像還有我們沒看過的調色盤存在耶！{{delay frames=\"30\"}}\n到底會有什麼樣的武器呢？",
      "USen": "We've opened about a third of the lockers now!{{pageBreak}}But there's still Palettes we ain't seen yet.{{delay frames=\"30\"}} What kinda\nweapons do you think they'll have?",
      "USes": "¡Ya están abiertos un tercio de los casilleros!{{pageBreak}}Pero aún nos quedan paletas por ver.{{delay frames=\"30\"}} ¿Qué tipo de\narmas crees que tendrán?",
      "USfr": "On a ouvert un tiers des casiers, c'est pas mal!{{pageBreak}}Mais il y a sûrement des palettes qu'on a pas encore\ndénichées.{{delay frames=\"30\"}} Sur quel genre d'armes on va tomber,\nvous croyez?"
    }
  },
  {
    "label": "001",
    "locale": {
      "CNzh": "只要骇解的程度足够高，{{delay frames=\"15\"}}就算是小八不擅长使用的武器，\n或许也可以轻松攻略。{{pageBreak}}还请务必让我提供协助～",
      "EUde": "Auch wenn es Waffen sind, die nicht so ganz\ndein Geschmack sind, Nr. 8...{{delay frames=\"15\"}} Mit meinen Hacks\nschaffst du den Turm vielleicht trotzdem.{{pageBreak}}Sag einfach Bescheid, wenn ich helfen kann!",
      "EUen": "Even if they're weapons you're not sure about, Eight,{{delay frames=\"15\"}}\nmy hacks might help you clear the tower anyway.{{pageBreak}}Just say the word so I can help!",
      "EUes": "Ocho, incluso con armas que no domines del todo,{{delay frames=\"15\"}} mis\nhackeos pueden ayudarte a completar la torre.{{pageBreak}}¡Solo tienes que hablar conmigo!",
      "EUfr": "Même si ce sont des armes que tu connais pas bien, Huit,{{delay frames=\"15\"}}\ntu devrais t'en sortir dans la tour grâce à mes hacks.{{pageBreak}}Si tu as besoin d'aide, hésite surtout pas !",
      "EUit": "Otto, anche se le armi non dovessero convincerti,{{delay frames=\"15\"}}\ni miei hackeraggi potrebbero aiutarti a risalire la torre.{{pageBreak}}Basta che mi avverti!",
      "EUnl": "Zelfs als er wapens tussen zitten waar je je niet zo goed\nraad mee weet, Acht,{{delay frames=\"15\"}} dan kan ik je nog bijstaan met mijn\nhacks.{{pageBreak}}Je hoeft het maar te vragen!",
      "EUru": "Восьмерка, даже если оружие тебе в новинку,{{delay frames=\"15\"}}\nс моими модами ты осилишь подъем.{{pageBreak}}Просто поговори со мной, и я помогу!",
      "JPja": "ハチさんが苦手なブキでも、{{delay frames=\"15\"}}ハッキングをマシマシにすれば\n楽に攻略できるかもしれません{{pageBreak}}ぜひ、ワタシにお手伝いさせてください～",
      "KRko": "에이트 씨 손에 잘 안 맞는 무기여도{{delay frames=\"15\"}} 마구 해킹하면\n쉽게 공략할 수 있을지 몰라요{{pageBreak}}얼마든지 도울 테니 언제든지 말씀해 주세요～",
      "TWzh": "即使是小八不拿手的武器，{{delay frames=\"15\"}}\n在提升駭解程度之後，說不定就能輕易地通過塔了。{{pageBreak}}請務必讓我幫忙喔～",
      "USen": "Even if they're weapons you're not sure about, Eight,{{delay frames=\"15\"}}\nmy hacks might help you clear the tower anyway.{{pageBreak}}Just say the word so I can help!",
      "USes": "Ocho, incluso con armas que no domines del todo,{{delay frames=\"15\"}} mis\nhackeos pueden ayudarte a completar la torre.{{pageBreak}}¡Solo tienes que hablar conmigo!",
      "USfr": "Même si ce sont des armes que tu connais pas bien, Huit,{{delay frames=\"15\"}}\ntu devrais t'en sortir dans la tour grâce aux piratages.{{pageBreak}}Si tu as besoin d'aide, hésite surtout pas!"
    }
  }
]