[
  {
    "label": "Msg_Reading",
    "text": "Lecture de l'amiibo...\nTiens-le en position sur la zone CCP."
  },
  {
    "label": "Msg_Writing",
    "text": "Écriture sur l'amiibo...\nTiens-le en position sur la zone CCP."
  },
  {
    "label": "Msg_NeedRegister",
    "text": "Tu dois choisir un propriétaire et\nun surnom pour ton amiibo avant\nde pouvoir l'utiliser. Continuer?"
  },
  {
    "label": "BtnL_NeedRegister",
    "text": "Non"
  },
  {
    "label": "BtnR_NeedRegister",
    "text": "Oui, stp!"
  },
  {
    "label": "Msg_NotCorrespond",
    "text": "Utilise un amiibo compatible avec Splatoon 3."
  },
  {
    "label": "Msg_NeedRestore",
    "text": "Les données de l'amiibo sont corrompues.\nRestaurer les données en utilisant celles\nsauvegardées sur la console?"
  },
  {
    "label": "BtnL_NeedRestore",
    "text": "Non"
  },
  {
    "label": "BtnR_NeedRestore",
    "text": "Oui"
  },
  {
    "label": "Msg_NeedFormat",
    "text": "Les données de l'amiibo sont corrompues.\nRestaure-les depuis une console sur laquelle\ncet amiibo a été utilisé, ou réinitialise l'amiibo.\nDans le menu HOME, sélectionne Paramètres de\nla console, puis amiibo."
  },
  {
    "label": "Msg_OtherError",
    "text": "Une erreur est survenue...\nRéessaie."
  },
  {
    "label": "Msg_OtherAmiibo",
    "text": "Tu n'as pas scanné le bon amiibo."
  },
  {
    "label": "Msg_DeleteOtherAppData",
    "text": "Des données d'un autre jeu sont déjà\nprésentes sur cet amiibo. Écraser ces\ndonnées? (Elles seront perdues.)"
  },
  {
    "label": "BtnL_DeleteOtherAppData",
    "text": "Non"
  },
  {
    "label": "BtnR_DeleteOtherAppData",
    "text": "Oui, stp!"
  },
  {
    "label": "Msg_Cst_Amiibo_NotSigned",
    "text": "Va d'abord enregistrer l'amiibo dans la rue."
  },
  {
    "label": "Msg_Cst_Amiibo_OtherSigned",
    "text": "Quelqu'un a déjà enregistré cet amiibo."
  },
  {
    "label": "Msg_CstAmiibo_Success",
    "text": "Écriture terminée.\nScanne l'amiibo lorsque l'icône {{icon id=\"33\" arg=\"0x9A99593FFCFFFFFF\"}} apparaît\npour charger les données qu'il contient."
  },
  {
    "label": "Msg_WirelessProCon",
    "text": "La connexion par câble avec la manette\nNintendo Switch Pro a été désactivée pour\npermettre l'utilisation des amiibo."
  },
  {
    "label": "Msg_WiredProCon",
    "text": "La connexion par câble avec la manette\nNintendo Switch Pro a été réactivée."
  },
  {
    "label": "Msg_NotWritten",
    "text": "Aucun ensemble n'a été enregistré.\nPour en enregistrer un, accède à la section\nAutres du menu de personnalisation."
  },
  {
    "label": "Msg_FestIdle",
    "text": "L'amiibo de ce personnage ne peut pas\nêtre utilisé dans le mode photo, car il est\nactuellement sur scène à l'occasion\nd'un festival."
  },
  {
    "label": "Girl_WantFollow",
    "text": "T'as l'air plutôt cool, dis donc...{{pageBreak}}Et mon petit doigt me dit que\nje pourrais m'en inspirer...{{pageBreak}}Hé, tu chercherais pas une {{color id=\"1\"}}amie{{color id=\"65535\"}}\ndans mon genre, par hasard?{{pageBreak}}Tu pourrais m'apprendre des trucs\net moi je pourrais te rendre service.{{pageBreak}}Je peux mémoriser tes {{color id=\"1\"}}réglages de\ncaméra{{color id=\"65535\"}} et même ton {{color id=\"1\"}}équipement{{color id=\"65535\"}}!{{pageBreak}}Et tes {{color id=\"1\"}}tenues favorites{{color id=\"65535\"}} par-dessus\nle marché!{{pageBreak}}Tu t'équiperais en un clin d'œil dans\nle hall ou dans la {{color id=\"1\"}}Personnalisation{{color id=\"65535\"}}...{{pageBreak}}C'est fantastique, n'est-ce pas?\nAlors, t'en dis quoi? On essaie?"
  },
  {
    "label": "Girl_FollowMeHello",
    "text": "Salut! Alors, comment va la vie?"
  },
  {
    "label": "Girl_FollowOtherHello",
    "text": "Salut, ça roule?{{pageBreak}}Tu as le bonjour de\n{{color id=\"1\"}}{{string index=\"0\" arg2=\"0\"}}{{color id=\"65535\"}}!"
  },
  {
    "label": "Girl_NoAppDataHello",
    "text": "Alors, c'est à ça que ça ressemble,\nCité-Clabousse? C'est malade!{{pageBreak}}Oh, salut! Enchantée!"
  },
  {
    "label": "Girl_NoAppDataHelloHC",
    "text": "Oh, salut!"
  },
  {
    "label": "Girl_OtherAppDataHello",
    "text": "Alors c'est à ça que ça ressemble,\nCité-Clabousse? C'est fou!{{pageBreak}}Tiens, salut!"
  },
  {
    "label": "Girl_OtherAppDataHelloHC",
    "text": "Ça va?"
  },
  {
    "label": "Girl_WhatDo",
    "text": "Alors, qu'est-ce que tu veux?"
  },
  {
    "label": "Girl_Reward",
    "text": "Tu te débrouilles pas mal sur le\nterrain! Alors tiens, c'est pour toi."
  },
  {
    "label": "Girl_DoneSomeBattle",
    "text": "Oh, j'ai failli oublier!{{pageBreak}}Tu ménages pas ta peine sur le\nterrain, alors tiens... cadeau!"
  },
  {
    "label": "Girl_RewardAsFollowNow",
    "text": "Trop cool! Pour fêter notre amitié\nnaissante... Voilà, c'est cadeau!"
  },
  {
    "label": "Girl_RewardAsOtherAppData",
    "text": "Wouah! T'as une coolitude mondi...\nAttends. On se connaît, non?{{pageBreak}}Bon, on va dire qu'on se connaît.\nTiens, cadeau!"
  },
  {
    "label": "Girl_DoneAllReward",
    "text": "C'est mon dernier cadeau!{{pageBreak}}Mais ça nous empêche pas de rester\ncopains, alors à plus!"
  },
  {
    "label": "Girl_PostRewardAsFollowNow",
    "text": "Enchaîne les matchs et j'aurai\nd'autres cadeaux pour toi!"
  },
  {
    "label": "Girl_NearReward",
    "text": "T'assures! Tiens, j'ai un cadeau\npresque parfait pour toi. Presque..."
  },
  {
    "label": "Girl_FarReward",
    "text": "Je manque pas un seul de tes\nmatchs. Je suis ta plus grande fan!"
  },
  {
    "label": "Girl_NoRewardAsOffline",
    "text": "Va faire un tour dans le {{color id=\"1\"}}hall{{color id=\"65535\"}}\npour te connecter à Internet,\net reviens me voir.{{pageBreak}}J'aurai peut-être un petit quelque\nchose pour toi!"
  },
  {
    "label": "Boy_WantFollow",
    "text": "Toi, on sent tout de suite que\nt'assures...{{pageBreak}}Tu chercherais pas un {{color id=\"1\"}}ami{{color id=\"65535\"}} dans\nmon genre, par hasard?{{pageBreak}}Tu pourrais m'apprendre des trucs,\net moi je pourrais te rendre service.{{pageBreak}}Je peux mémoriser tes {{color id=\"1\"}}réglages de\ncaméra{{color id=\"65535\"}} et même ton {{color id=\"1\"}}équipement{{color id=\"65535\"}}!{{pageBreak}}Et tes {{color id=\"1\"}}tenues favorites {{color id=\"65535\"}}par-dessus\nle marché!{{pageBreak}}Tu pourras t'équiper en un clin d'œil\ndepuis le menu de {{color id=\"1\"}}personnalisation{{color id=\"65535\"}}.{{pageBreak}}Sympa, non? Ça te branche?"
  },
  {
    "label": "Boy_FollowMeHello",
    "text": "Oh, salut... Alors, quoi de neuf?"
  },
  {
    "label": "Boy_FollowOtherHello",
    "text": "Salut! Quoi de neuf?{{pageBreak}}Tu as le bonjour de\n{{color id=\"1\"}}{{string index=\"0\" arg2=\"0\"}}{{color id=\"65535\"}}!"
  },
  {
    "label": "Boy_NoAppDataHello",
    "text": "Alors, c'est à ça que ça ressemble,\nCité-Clabousse? J'adore!{{pageBreak}}Oh, salut! Enchanté!"
  },
  {
    "label": "Boy_NoAppDataHelloHC",
    "text": "Yo! Tout baigne?"
  },
  {
    "label": "Boy_OtherAppDataHello",
    "text": "Alors, c'est à ça que ça ressemble,\nCité-Clabousse? Ça l'a fière allure!\nTiens, salut!"
  },
  {
    "label": "Boy_OtherAppDataHelloHC",
    "text": "Hé, t'as l'air cool, toi!"
  },
  {
    "label": "Boy_WhatDo",
    "text": "Qu'est-ce que je peux faire\npour toi?"
  },
  {
    "label": "Boy_Reward",
    "text": "Tu t'en sors bien, à ce que j'ai pu\nvoir... Tiens, ça me fait plaisir!"
  },
  {
    "label": "Boy_DoneSomeBattle",
    "text": "Ah, au fait!{{pageBreak}}Pour la terreur des matchs...\nVoilà, c'est pour toi!"
  },
  {
    "label": "Boy_RewardAsFollowNow",
    "text": "Cool! Alors, voilà quelque chose\npour toi!"
  },
  {
    "label": "Boy_RewardAsOtherAppData",
    "text": "On se connaît, non? Avec la classe\nque tu possèdes, c'est obligé!{{pageBreak}}Bref, où j'en étais? Ah oui!\nTiens, cadeau!"
  },
  {
    "label": "Boy_DoneAllReward",
    "text": "C'est mon dernier cadeau,\nje te préviens!{{pageBreak}}Mais te fais pas de souci, je serai\ntoujours là si t'as besoin de moi!"
  },
  {
    "label": "Boy_PostRewardAsFollowNow",
    "text": "Prends part à des matchs et t'auras\nd'autres cadeaux! Ça marche?"
  },
  {
    "label": "Boy_NearReward",
    "text": "Tes adversaires prennent cher!\nT'auras bientôt un autre cadeau!"
  },
  {
    "label": "Boy_FarReward",
    "text": "Je rate jamais un de tes matchs,\nparce que je suis ton ami!"
  },
  {
    "label": "Boy_NoRewardAsOffline",
    "text": "Internet, ça te parle? Alors, va\ndans le {{color id=\"1\"}}hall{{color id=\"65535\"}}, connecte-toi et\nreviens me voir.{{pageBreak}}J'aurai peut-être un petit quelque\nchose pour toi!"
  },
  {
    "label": "Squid_WantFollow",
    "text": "Tu as vraiment de la classe,\nma parole...{{pageBreak}}Et je suis sûr que tu vas en avoir\nde plus en plus au fil des matchs!{{pageBreak}}Bref, tu l'auras compris...\nJe suis un fan.{{pageBreak}}Ne chercherais-tu pas un {{color id=\"1\"}}ami{{color id=\"65535\"}}\ndans mon genre, par hasard?{{pageBreak}}Tu pourrais m'apprendre certaines\nchoses.{{pageBreak}}Quant à moi, je te rendrais certains\nservices.{{pageBreak}}Je peux mémoriser tes {{color id=\"1\"}}réglages de\ncaméra{{color id=\"65535\"}} et même ton {{color id=\"1\"}}équipement{{color id=\"65535\"}}.{{pageBreak}}Ainsi que tes {{color id=\"1\"}}tenues préférées{{color id=\"65535\"}}\nde surcroît.{{pageBreak}}Tu pourras t'équiper en un clin d'œil\ndepuis le menu de {{color id=\"1\"}}Personnalisation{{color id=\"65535\"}}.{{pageBreak}}Ce serait plutôt pratique, non?\nAlors? Je peux être ton ami?"
  },
  {
    "label": "Squid_FollowMeHello",
    "text": "Bien le bonjour! J'espère que\ntu te portes bien!"
  },
  {
    "label": "Squid_FollowOtherHello",
    "text": "Salutations!{{pageBreak}}Tu as le bonjour de\n{{color id=\"1\"}}{{string index=\"0\" arg2=\"0\"}}{{color id=\"65535\"}}!"
  },
  {
    "label": "Squid_NoAppDataHello",
    "text": "Alors voilà Cité-Clabousse,\nla fameuse... C'est magnifique!{{pageBreak}}Bonjour! C'est un plaisir de faire\nta connaissance!"
  },
  {
    "label": "Squid_NoAppDataHelloHC",
    "text": "Bonjour! C'est un plaisir de faire\nta connaissance."
  },
  {
    "label": "Squid_OtherAppDataHello",
    "text": "Alors voilà Cité-Clabousse,\nla fameuse... C'est magnifique!{{pageBreak}}Bonjour!"
  },
  {
    "label": "Squid_OtherAppDataHelloHC",
    "text": "Bonjour!"
  },
  {
    "label": "Squid_WhatDo",
    "text": "Puis-je te renseigner?"
  },
  {
    "label": "Squid_Reward",
    "text": "Tu n'as pas perdu ton temps, je\nvois! Voici pour toi, l'artiste!"
  },
  {
    "label": "Squid_DoneSomeBattle",
    "text": "Tu as proposé un spectacle à couper\nle souffle, comme d'habitude!{{pageBreak}}Tu traverses ces matchs avec une\naisance confondante. Accepte ceci!"
  },
  {
    "label": "Squid_RewardAsFollowNow",
    "text": "Oh, mille mercis! Fais-moi le plaisir\nd'accepter ça."
  },
  {
    "label": "Squid_RewardAsOtherAppData",
    "text": "Ai-je l'honneur de te connaître?\nIl émane de toi une telle classe!{{pageBreak}}Bref! Je dois l'avouer, ton style\nme plaît. Tiens, c'est pour toi."
  },
  {
    "label": "Squid_DoneAllReward",
    "text": "Il s'agit de mon dernier présent,\nj'en ai bien peur.{{pageBreak}}Mais si cela peut te consoler,\nj'encouragerai toujours ton équipe!"
  },
  {
    "label": "Squid_PostRewardAsFollowNow",
    "text": "Multiplie les combats, et j'aurai\ndavantage de présents à t'offrir!"
  },
  {
    "label": "Squid_NearReward",
    "text": "Tu fais des merveilles en match!\nUn cadeau se dessine à l'horizon..."
  },
  {
    "label": "Squid_FarReward",
    "text": "J'assiste à tous tes matchs, alors\nsi tu entends des encouragements..."
  },
  {
    "label": "Squid_NoRewardAsOffline",
    "text": "Je ne peux que t'encourager à\nte rendre dans le {{color id=\"1\"}}hall {{color id=\"65535\"}}pour te\nconnecter à Internet, puis à\nrevenir me voir.{{pageBreak}}J'aurai peut-être même un cadeau\npour toi!"
  },
  {
    "label": "OctoGirl_WantFollow",
    "text": "Quel style, quelle allure! Tu suintes\nla classe par tous les pores!{{pageBreak}}Et à vue de tentacule,\nc'est que le début!{{pageBreak}}D'ailleurs... Tu chercherais pas\ndes {{color id=\"1\"}}amis{{color id=\"65535\"}}? Parce que moi, si!{{pageBreak}}Je mémoriserai ton {{color id=\"1\"}}équipement{{color id=\"65535\"}}\net tes {{color id=\"1\"}}réglages de caméra{{color id=\"65535\"}}.{{pageBreak}}Et cerise juteuse sur le gâteau\nonctueux, tes {{color id=\"1\"}}tenues favorites{{color id=\"65535\"}}!{{pageBreak}}Tu pourras t'équiper en un clin d'œil\ndepuis le menu de {{color id=\"1\"}}personnalisation{{color id=\"65535\"}}!{{pageBreak}}Bon, puisque tu dis pas non...\nJe me considère comme ton amie!"
  },
  {
    "label": "OctoGirl_FollowMeHello",
    "text": "Salut! Comment va?"
  },
  {
    "label": "OctoGirl_FollowOtherHello",
    "text": "Oh, salut!{{pageBreak}}Tu as le bonjour de\n{{color id=\"1\"}}{{string index=\"0\" arg2=\"0\"}}{{color id=\"65535\"}}!"
  },
  {
    "label": "OctoGirl_NoAppDataHello",
    "text": "Alors, c'est ça, Cité-Clabousse...\nJe suis ravie d'être ici...{{pageBreak}}Et aussi de te rencontrer!"
  },
  {
    "label": "OctoGirl_NoAppDataHelloHC",
    "text": "Ça fait plaisir de te rencontrer!"
  },
  {
    "label": "OctoGirl_OtherAppDataHello",
    "text": "Alors, c'est ça, Cité-Clabousse...\nJ'adore!{{pageBreak}}Oh, et salut, au fait!"
  },
  {
    "label": "OctoGirl_OtherAppDataHelloHC",
    "text": "Oh! Salut, toi!"
  },
  {
    "label": "OctoGirl_WhatDo",
    "text": "Et donc... je peux t'aider?"
  },
  {
    "label": "OctoGirl_Reward",
    "text": "Tu fais des étincelles en match!\nTiens, c'est cadeau."
  },
  {
    "label": "OctoGirl_DoneSomeBattle",
    "text": "C'est un vrai feu d'artifice,\nquand tu participes à un match!{{pageBreak}}Tiens, t'as bien mérité une petite\nrécompense."
  },
  {
    "label": "OctoGirl_RewardAsFollowNow",
    "text": "Tiens, cadeau!\nÇa me fait plaisir!"
  },
  {
    "label": "OctoGirl_RewardAsOtherAppData",
    "text": "On se connaît? Je me souviens\nvaguement d'une histoire de classe.{{pageBreak}}D'ailleurs, c'est un bon souvenir...\nTiens, pour me l'avoir rappelé!"
  },
  {
    "label": "OctoGirl_DoneAllReward",
    "text": "Et c'était mon dernier cadeau!{{pageBreak}}Mais je reste ta plus grande fan et\nj'assisterai à tous tes matchs!"
  },
  {
    "label": "OctoGirl_PostRewardAsFollowNow",
    "text": "Enchaîne les matchs et tu recevras\nplein d'autres cadeaux!"
  },
  {
    "label": "OctoGirl_NearReward",
    "text": "C'est toujours un plaisir de te voir\njouer. T'auras bientôt un cadeau!"
  },
  {
    "label": "OctoGirl_FarReward",
    "text": "J'ai assisté à tous tes matchs\nsans exception!"
  },
  {
    "label": "OctoGirl_NoRewardAsOffline",
    "text": "Ah, si seulement tu établissais\nune connexion Internet depuis\nle {{color id=\"1\"}}hall {{color id=\"65535\"}}avant de venir me voir...{{pageBreak}}J'aurais sûrement un cadeau pour\ntoi si tu faisais ça!"
  },
  {
    "label": "OctoBoy_WantFollow",
    "text": "Ça, c'est de la classe ou je m'y\nconnais pas!{{pageBreak}}Et c'est aussi du style comme\nje l'aime!{{pageBreak}}Ouais... j'ai l'impression qu'on va\ndevenir bons amis, tous les deux.{{pageBreak}}Qu'est-ce que t'en dis? Tu veux\nque je sois ton {{color id=\"1\"}}ami{{color id=\"65535\"}}?{{pageBreak}}Je mémoriserai ton {{color id=\"1\"}}équipement{{color id=\"65535\"}} et\naussi tes {{color id=\"1\"}}réglages de caméra{{color id=\"65535\"}}...{{pageBreak}}Et même tes {{color id=\"1\"}}tenues favorites{{color id=\"65535\"}}\nau passage!{{pageBreak}}Tu pourras t'équiper en un clin d'œil\ndepuis le menu de {{color id=\"1\"}}personnalisation{{color id=\"65535\"}}!{{pageBreak}}Ça sert à ça, les copains!"
  },
  {
    "label": "OctoBoy_FollowMeHello",
    "text": "Quoi de neuf?\nÇa roule pour toi?"
  },
  {
    "label": "OctoBoy_FollowOtherHello",
    "text": "Salut! Ravi de te rencontrer!{{pageBreak}}Tu as le bonjour de\n{{color id=\"1\"}}{{string index=\"0\" arg2=\"0\"}}{{color id=\"65535\"}}!"
  },
  {
    "label": "OctoBoy_NoAppDataHello",
    "text": "C'est Cité-Clabousse, ça?\nC'est plutôt pas mal!{{pageBreak}}Et enchanté, au fait!"
  },
  {
    "label": "OctoBoy_NoAppDataHelloHC",
    "text": "C'est un plaisir de te rencontrer."
  },
  {
    "label": "OctoBoy_OtherAppDataHello",
    "text": "C'est Cité-Clabousse, ça?\nC'est plutôt pas mal!{{pageBreak}}Comment tu vas?"
  },
  {
    "label": "OctoBoy_OtherAppDataHelloHC",
    "text": "Yo! Ça roule?"
  },
  {
    "label": "OctoBoy_WhatDo",
    "text": "T'avais besoin de quelque chose?"
  },
  {
    "label": "OctoBoy_Reward",
    "text": "Tu fais des étincelles en match!\nTiens, c'est pour toi ."
  },
  {
    "label": "OctoBoy_DoneSomeBattle",
    "text": "J'ai vu tes exploits en match,\nc'était impressionnant!{{pageBreak}}Tiens, tu l'as bien mérité!"
  },
  {
    "label": "OctoBoy_RewardAsFollowNow",
    "text": "Tiens, voilà de quoi récompenser\nl'as des matchs!"
  },
  {
    "label": "OctoBoy_RewardAsOtherAppData",
    "text": "On se connaît, non? J'oublie jamais\nun visage, surtout aussi superbe.{{pageBreak}}Bah, peu importe en fin de compte.\nTiens, cadeau!"
  },
  {
    "label": "OctoBoy_DoneAllReward",
    "text": "Tu m'en vois navré, mais j'ai plus\nun seul cadeau pour toi.{{pageBreak}}Mais je continuerai à t'encourager!\nÇa, j'arrêterai jamais!"
  },
  {
    "label": "OctoBoy_PostRewardAsFollowNow",
    "text": "Quels matchs... Tant que j'aurai des\ncadeaux, ils seront pour toi!"
  },
  {
    "label": "OctoBoy_NearReward",
    "text": "J'ai vu tes prouesses, et j'ai\nencore du mal à m'en remettre.{{pageBreak}}Je vais te préparer un joli cadeau,\ntu m'en diras des nouvelles!"
  },
  {
    "label": "OctoBoy_FarReward",
    "text": "Franchement, je me lasserai jamais\nde te voir jouer."
  },
  {
    "label": "OctoBoy_NoRewardAsOffline",
    "text": "Tu sais que tu peux te connecter\nà Internet depuis le {{color id=\"1\"}}hall{{color id=\"65535\"}}, hein?{{pageBreak}}Reviens me voir après, et j'aurai\npeut-être un petit quelque chose\npour toi!"
  },
  {
    "label": "Octo_WantFollow",
    "text": "Ouah, tu es une véritable...\nmontagne de coolitude.{{pageBreak}}Toi et moi, on va devenir {{color id=\"1\"}}copains{{color id=\"65535\"}}.\nÇa ne fait pas un pli.{{pageBreak}}Comme ça, je pourrai\nmémoriser ton {{color id=\"1\"}}équipement{{color id=\"65535\"}}...{{pageBreak}}... ainsi que tes {{color id=\"1\"}}réglages de\ncaméra{{color id=\"65535\"}}.{{pageBreak}}Et même tes {{color id=\"1\"}}tenues favorites{{color id=\"65535\"}}!{{pageBreak}}Tu pourras t'équiper en un clin d'œil\ndepuis le menu de {{color id=\"1\"}}personnalisation{{color id=\"65535\"}}!{{pageBreak}}C'est trop beau pour être vrai,\ntu crois? Et pourtant, c'est vrai!"
  },
  {
    "label": "Octo_FollowMeHello",
    "text": "Bonjour, bonjour!\nComment ça va?"
  },
  {
    "label": "Octo_FollowOtherHello",
    "text": "C'est un plaisir de faire\nta connaissance.{{pageBreak}}Tu as le bonjour de\n{{color id=\"1\"}}{{string index=\"0\" arg2=\"0\"}}{{color id=\"65535\"}}!"
  },
  {
    "label": "Octo_NoAppDataHello",
    "text": "C'est Cité-Clabousse, hein?\nC'est très, euh... bruyant.{{pageBreak}}En tout cas, c'est un plaisir\nde faire ta connaissance!"
  },
  {
    "label": "Octo_NoAppDataHelloHC",
    "text": "J'adore rencontrer des gens."
  },
  {
    "label": "Octo_OtherAppDataHello",
    "text": "C'est Cité-Clabousse, hein?\nC'est très, euh... bruyant.{{pageBreak}}Bref, comment ça va?"
  },
  {
    "label": "Octo_OtherAppDataHelloHC",
    "text": "… … …"
  },
  {
    "label": "Octo_WhatDo",
    "text": "Je peux t'être utile?"
  },
  {
    "label": "Octo_Reward",
    "text": "Tu te débrouilles drôlement bien\nen match. Tiens, cadeau."
  },
  {
    "label": "Octo_DoneSomeBattle",
    "text": "Match après match,\ntu m'impressionnes davantage.{{pageBreak}}Tiens, pour te remercier\nde m'impressionner."
  },
  {
    "label": "Octo_RewardAsFollowNow",
    "text": "T'aimes ça, les cadeaux?\nBien sûr que t'aimes ça!"
  },
  {
    "label": "Octo_RewardAsOtherAppData",
    "text": "On se connaît? Je ne connais\nqu'une personne aussi classe...{{pageBreak}}Oui, je suis sûr qu'on se connaît.\nD'ailleurs, tiens, cadeau!"
  },
  {
    "label": "Octo_DoneAllReward",
    "text": "Désolé, mais je crois que je viens\nde t'offrir mon ultime cadeau.{{pageBreak}}Mais je sais que tu ne t'arrêteras\npas sur ta lancée pour autant!{{pageBreak}}Et de mon côté, je continuerai\nà t'encourager!"
  },
  {
    "label": "Octo_PostRewardAsFollowNow",
    "text": "Ne t'arrête pas en si bon chemin,\nj'ai encore des cadeaux en réserve!"
  },
  {
    "label": "Octo_NearReward",
    "text": "Excellents matchs, mais mauvais\nmoment. Mon cadeau n'est pas prêt."
  },
  {
    "label": "Octo_FarReward",
    "text": "Continue comme ça!\nTu joues de mieux en mieux!"
  },
  {
    "label": "Octo_NoRewardAsOffline",
    "text": "Donc, en ce qui concerne\nla connexion à Internet...\nOn en a pas.{{pageBreak}}Mais si par hasard tu te connectais\nà Internet depuis le {{color id=\"1\"}}hall {{color id=\"65535\"}}et que tu\nrevenais me voir, j'aurais sûrement\nun cadeau pour toi!"
  },
  {
    "label": "InkYellow_WantFollow",
    "text": "Y'a un bon parfum de méga classe\nqui émane de toi! Ça me plaît!{{pageBreak}}Quoique... ça pourrait être mieux...\nOn dirait qu'il manque un truc.{{pageBreak}}Ah, je sais! En fait, t'es un peu\ncourt niveau expérience.{{pageBreak}}Le temps d'accumuler un peu plus\nd'expérience, et tu feras un succès.{{pageBreak}}Ouais, une ascension vertigineuse\nt'attend, et je vais pas rater ça!{{pageBreak}}Ça te dit qu'on soit {{color id=\"1\"}}amis{{color id=\"65535\"}}? En plus\nd'assister à ton triomphe sidéral...{{pageBreak}}J'enregistrerai ton {{color id=\"1\"}}équipement{{color id=\"65535\"}},\ntes {{color id=\"1\"}}réglages de caméra{{color id=\"65535\"}}...{{pageBreak}}... et tes {{color id=\"1\"}}tenues favorites{{color id=\"65535\"}} en plus!\nFranchement, c'est royal!{{pageBreak}}Tu pourras t'équiper en un clin d'œil\ndepuis le menu de {{color id=\"1\"}}personnalisation{{color id=\"65535\"}}!{{pageBreak}}Alors, qu'est-ce que t'en dis?\nOn est amis ou pas?"
  },
  {
    "label": "InkYellow_FollowMeHello",
    "text": "Salut, tout va bien? Toujours\nclasse et cool comme il faut?"
  },
  {
    "label": "InkYellow_FollowOtherHello",
    "text": "Tiens, salut!{{color id=\"1\"}}{{pageBreak}}{{string index=\"0\" arg2=\"0\"}}{{color id=\"65535\"}}\nte passe le bonjour!"
  },
  {
    "label": "InkYellow_NoAppDataHello",
    "text": "Tu sens cette énergie qui vibre dans\nl'air? C'est ça, Cité-Clabousse!{{pageBreak}}Un instant... On se connaît?\nJ'aimerais bien, en tout cas. Salut!"
  },
  {
    "label": "InkYellow_NoAppDataHelloHC",
    "text": "Oh, on ne se connaît pas, si?"
  },
  {
    "label": "InkYellow_OtherAppDataHello",
    "text": "Tu sens cette énergie qui vibre dans\nl'air? C'est ça, Cité-Clabousse!{{pageBreak}}Oh! Salut!"
  },
  {
    "label": "InkYellow_OtherAppDataHelloHC",
    "text": "Salut salut!"
  },
  {
    "label": "InkYellow_WhatDo",
    "text": "Je peux t'aider?"
  },
  {
    "label": "InkYellow_Reward",
    "text": "Chaque fois que je te vois en match,\nj'ai les yeux comme des billes...{{pageBreak}}... et la mâchoire en rase-mottes.\nTiens, t'as bien mérité un cadeau!"
  },
  {
    "label": "InkYellow_DoneSomeBattle",
    "text": "T'es incroyable pendant tes matchs!\nSans mauvais jeu de mots,\nça déménage...{{pageBreak}}En tout cas, moi, je suis emballée!\nTiens, un petit cadeau pour te\nremercier du spectacle!"
  },
  {
    "label": "InkYellow_RewardAsFollowNow",
    "text": "Super! J'ai donc l'honneur de\nte remettre officiellement\nce somptueux présent!"
  },
  {
    "label": "InkYellow_DoneAllReward",
    "text": "Mauvaise nouvelle... Je t'ai refilé\ntous mes cadeaux. J'ai plus rien!\nC'est le désert dans mes poches.{{pageBreak}}Mais t'as une amie pour la vie!\nTends l'oreille, et tu m'entendras\nt'encourager... fidèle au poste."
  },
  {
    "label": "InkYellow_PostRewardAsFollowNow",
    "text": "Va remporter quelques matchs! Je\nprépare des cadeaux en attendant!"
  },
  {
    "label": "InkYellow_NearReward",
    "text": "Jolis matchs! T'es presque... Non,\nj'ai rien dit. Entraîne-toi encore un\npeu et t'atteindras des sommets!"
  },
  {
    "label": "InkYellow_FarReward",
    "text": "T'es au courant que je regarde\ntous tes matchs, hein?"
  },
  {
    "label": "InkYellow_NoRewardAsOffline",
    "text": "Hm... Il vaut mieux que tu t'assoies\npour entendre ça... T'es hors ligne!{{pageBreak}}Mais c'est pas grave! Fais un saut\ndans le {{color id=\"1\"}}hall {{color id=\"65535\"}}et connecte-toi!\nMême que j'aurai peut-être un\ncadeau pour toi après!"
  },
  {
    "label": "OctoBlue_WantFollow",
    "text": "Wouah, mais wouah quoi! T'as une\nclasse à casser la baraque!{{pageBreak}}Et le plus beau, c'est que\nc'est que le début, j'en suis sûr!{{pageBreak}}Me regarde pas avec cet air\ndubitatif, je sais ce que je dis!{{pageBreak}}Je sais reconnaître la classe\nmondiale quand je la vois, crois-moi.{{pageBreak}}Tout ça pour dire qu'il faut qu'on\nsoit {{color id=\"1\"}}amis{{color id=\"65535\"}}. Cherche pas, c'est obligé.{{pageBreak}}Je veux être là quand tu deviendras\nla coqueluche du bled. En échange...{{pageBreak}}... j'enregistrerai ton {{color id=\"1\"}}équipement{{color id=\"65535\"}},\ntes {{color id=\"1\"}}réglages de caméra{{color id=\"65535\"}}...{{pageBreak}}... et même tes {{color id=\"1\"}}tenues favorites{{color id=\"65535\"}}!\nPour vrai, tu fais l'affaire du siècle.{{pageBreak}}Tu pourras t'équiper en un clin d'œil\ndepuis le menu de {{color id=\"1\"}}personnalisation{{color id=\"65535\"}}!{{pageBreak}}Et je te demande rien en échange!\nAlors, on est amis ou pas?"
  },
  {
    "label": "OctoBlue_FollowMeHello",
    "text": "Salut, l'as de la classe!\nTout va comme tu veux?"
  },
  {
    "label": "OctoBlue_FollowOtherHello",
    "text": "Salut!{{pageBreak}}{{color id=\"1\"}}{{string index=\"0\" arg2=\"0\"}}{{color id=\"65535\"}}\nte passe le bonjour!"
  },
  {
    "label": "OctoBlue_NoAppDataHello",
    "text": "Cité-Clabousse, c'est pas la\ncambrousse, hein? Moi, j'adore.{{pageBreak}}Oh, salut! Ça baigne?"
  },
  {
    "label": "OctoBlue_NoAppDataHelloHC",
    "text": "Oh, salut! On se connaît pas."
  },
  {
    "label": "OctoBlue_OtherAppDataHello",
    "text": "Cité-Clabousse, c'est pas la\ncambrousse, hein? Moi, j'adore.{{pageBreak}}Oh, salut! Ça roule?"
  },
  {
    "label": "OctoBlue_OtherAppDataHelloHC",
    "text": "Salut! Tu vas bien?"
  },
  {
    "label": "OctoBlue_WhatDo",
    "text": "T'as besoin d'un truc?"
  },
  {
    "label": "OctoBlue_Reward",
    "text": "Tu fais des étincelles en match,\nt'as une classe à tomber par terre!{{pageBreak}}Et même à faire un trou dans\nle sol derrière! Tiens, cadeau!"
  },
  {
    "label": "OctoBlue_DoneSomeBattle",
    "text": "C'est bien beau d'enchaîner les\nmatchs, mais va pas te surmener.{{pageBreak}}En tout cas, j'ai un petit cadeau\npour toi. Tiens, ça me fait plaisir!"
  },
  {
    "label": "OctoBlue_RewardAsFollowNow",
    "text": "Ah, ça fait plaisir!\nTiens, pour fêter ça!"
  },
  {
    "label": "OctoBlue_DoneAllReward",
    "text": "Tu vas pas me croire, mais j'ai plus\nrien pour toi. Fini, les cadeaux.{{pageBreak}}Mais je continuerai à me défoncer la\nvoix pour t'encourager. Promis!"
  },
  {
    "label": "OctoBlue_PostRewardAsFollowNow",
    "text": "Des matchs, des matchs, et encore\ndes matchs... Tu les enchaînes!{{pageBreak}}Résultat, j'ai du mal à suivre rayon\ncadeaux. Reviens plus tard, OK?"
  },
  {
    "label": "OctoBlue_NearReward",
    "text": "T'es au top! Je peux pas m'arrêter\nde te regarder jouer!{{pageBreak}}Résultat, j'ai pas eu le temps de\ntrouver un cadeau... Mais ça viendra."
  },
  {
    "label": "OctoBlue_FarReward",
    "text": "Je te vois enchaîner les exploits\ntout en finesse et en classe...{{pageBreak}}Et je me rappelle qu'on est amis et\nje me dis... Wouah, mais wouah quoi!"
  },
  {
    "label": "OctoBlue_NoRewardAsOffline",
    "text": "Hum, comment dire... Toi et\nInternet, vous êtes pas sur\nla même longueur d'onde.{{pageBreak}}Va faire un tour dans le {{color id=\"1\"}}hall{{color id=\"65535\"}} pour\nte connecter et reviens me voir,\nj'aurai peut-être même un cadeau\npour toi!"
  },
  {
    "label": "Smallfry_WantFollow",
    "text": "{{fun_0001_0002}}Le Salmio semble vouloir te dire\nquelque chose! Que peut bien\nsignifier ce regard menaçant?{{pageBreak}}{{fun_0001_0002}}Ah! Il veut dire que tu respires la\ncoolitude! Ces bêtes-là flairent ce\ngenre de choses.{{pageBreak}}{{fun_0001_0002}}Et pour t'exprimer son respect,\nil veut assister à tes prouesses...{{pageBreak}}{{fun_0001_0002}}Et officiellement devenir ton\n{{color id=\"1\"}}copain{{color id=\"65535\"}}! T'en as, de la chance!{{pageBreak}}{{fun_0001_0002}}Parce que l'avantage, c'est qu'il\nenregistrera tout pour toi!\n{{color id=\"1\"}}Équipement{{color id=\"65535\"}}, {{color id=\"1\"}}réglages de caméra{{color id=\"65535\"}}...{{pageBreak}}{{fun_0001_0002}}... et même tes {{color id=\"1\"}}tenues favorites{{color id=\"65535\"}}!\nÇa sert à ça, les copains!{{pageBreak}}{{fun_0001_0002}}Tu pourras t'équiper en un clin d'œil\ndepuis le menu de {{color id=\"1\"}}personnalisation{{color id=\"65535\"}}!{{pageBreak}}{{fun_0001_0002}}Alors, que dis-tu de cette adorable\nproposition d'amitié?"
  },
  {
    "label": "Smallfry_FollowMeHello",
    "text": "{{fun_0001_0002}}Ça saute pas aux yeux, mais\nle Salmio est ravi de te voir!"
  },
  {
    "label": "Smallfry_FollowOtherHello",
    "text": "{{fun_0001_0002}}Hmm... Ce Salmio semble bien\nconnaître une personne appelée\n{{color id=\"1\"}}{{string index=\"0\" arg2=\"0\"}}{{color id=\"65535\"}}."
  },
  {
    "label": "Smallfry_NoAppDataHello",
    "text": "{{fun_0001_0002}}Ébloui par les lumières de la ville,\nle Salmio ne sait plus où donner\nde la tête...{{pageBreak}}{{fun_0001_0002}}Ah, ça y est! Il a remarqué ta\nprésence! Et maintenant, il te fixe.\nPas de panique, surtout."
  },
  {
    "label": "Smallfry_NoAppDataHelloHC",
    "text": "{{fun_0001_0002}}Le Salmio s'imprègne des\ncouleurs et des odeurs de la ville.{{pageBreak}}{{fun_0001_0002}}Ah, ça y est! Il a remarqué ta\nprésence. Et maintenant, il te\nfixe. Sans te lâcher des yeux.\nDe ses gros yeux globuleux..."
  },
  {
    "label": "Smallfry_OtherAppDataHello",
    "text": "{{fun_0001_0002}}Le Salmio est plongé dans la\ncontemplation de Cité-Clabousse...\nIl ne sait pas où donner de la tête...{{pageBreak}}{{fun_0001_0002}}Ah, ça y est! Il a remarqué ta\nprésence! Mais difficile de savoir si\nces grands yeux globuleux expriment\nune quelconque expression..."
  },
  {
    "label": "Smallfry_OtherAppDataHelloHC",
    "text": "{{fun_0001_0002}}Le Salmio semble étudier\nles lieux.{{pageBreak}}{{fun_0001_0002}}Ah, ça y est! Il a remarqué\nta présence. Mais ses yeux et\nson visage restent parfaitement\nimpassibles. Hmm..."
  },
  {
    "label": "Smallfry_WhatDo",
    "text": "{{fun_0001_0002}}Tu as quelque chose à demander\nau Salmio?"
  },
  {
    "label": "Smallfry_Reward",
    "text": "{{fun_0001_0002}}Tes prouesses en match laissent\nce Salmio bouche bée.{{pageBreak}}{{fun_0001_0002}}Oh, qu'est-ce que c'est? C'est...\nMais oui! Il a un cadeau pour toi!"
  },
  {
    "label": "Smallfry_DoneSomeBattle",
    "text": "{{fun_0001_0002}}On dirait qu'un mini-reflet de légère\nétincelle a vaguement brillé pendant\nune courte seconde dans les yeux\nglobuleux du Salmio...{{pageBreak}}{{fun_0001_0002}}Voilà qui devrait t'encourager à\nte surpasser! Et en plus, il a même\nréussi à te dégoter un cadeau!"
  },
  {
    "label": "Smallfry_RewardAsFollowNow",
    "text": "{{fun_0001_0002}}Ce Salmio a vraiment l'air ravi\nd'avoir noué des liens avec toi!\nOu fait-il la grimace...? Difficile\nà dire...{{pageBreak}}{{fun_0001_0002}}Oh, il veut te montrer quelque\nchose! On dirait qu'il a un cadeau\npour toi!"
  },
  {
    "label": "Smallfry_DoneAllReward",
    "text": "{{fun_0001_0002}}Après avoir accompli ce geste,\nle Salmio a troqué son habituelle\ngaieté pour un air mélancolique...\nC'était son ultime cadeau...{{pageBreak}}{{fun_0001_0002}}Mais le plus beau des cadeaux\nn'est-il pas l'amitié? Le Salmio\ns'est attaché à toi et sera toujours\nlà pour toi!"
  },
  {
    "label": "Smallfry_PostRewardAsFollowNow",
    "text": "{{fun_0001_0002}}Cette adorable boule d'écailles ne\nconnaît qu'un mot : la loyauté. Et\nelle n'a qu'un désir : celui de te voir\ndevenir de plus en plus cool!{{pageBreak}}{{fun_0001_0002}}Livre encore des matchs, améliore\nun peu ta coolitude, et le Salmio\ndaignera à nouveau lever ses gros\nyeux vers toi. Quel ami exemplaire!"
  },
  {
    "label": "Smallfry_NearReward",
    "text": "{{fun_0001_0002}}Ce micro-reflet fugace au fond de\nses yeux globuleux ne trompe pas :\nle Salmio est satisfait de ta\nprestation en matchs.{{pageBreak}}{{fun_0001_0002}}Tu n'as pas aussi l'impression qu'il\nveut te donner quelque chose, mais\nque ce n'est pas tout à fait prêt?"
  },
  {
    "label": "Smallfry_FarReward",
    "text": "{{fun_0001_0002}}Ce Salmio suit tes matchs\navec une inaltérable passion!\nC'est bien simple, il est si excité\nqu'il n'en dort plus."
  },
  {
    "label": "Smallfry_NoRewardAsOffline",
    "text": "{{fun_0001_0002}}Ce Salmio a l'air d'être dans tous\nses états... C'est certainement\nparce que tu es hors ligne.{{pageBreak}}{{fun_0001_0002}}Il retrouvera son air paisible\nsi tu files dans le {{color id=\"1\"}}hall{{color id=\"65535\"}} pour\nte connecter à Internet."
  },
  {
    "label": "Aori_WantFollow",
    "text": "T'as l'air plutôt cool, dis-moi...{{pageBreak}}Alors, va surtout pas croire que\nj'ai peur de me faire supplanter...{{pageBreak}}Mais j'aimerais bien {{color id=\"1\"}}garder un œil\nsur toi{{color id=\"65535\"}}.{{pageBreak}}Je pourrais mémoriser tes {{color id=\"1\"}}réglages\nde caméra{{color id=\"65535\"}} et ton {{color id=\"1\"}}équipement{{color id=\"65535\"}}!{{pageBreak}}Et tes {{color id=\"1\"}}tenues favorites{{color id=\"65535\"}} en plus!{{pageBreak}}Tu pourrais t'équiper en un clin d'œil\ndepuis le menu de {{color id=\"1\"}}personnalisation{{color id=\"65535\"}}!{{pageBreak}}En gros, c'est moi qui deviendrais\nta fan au lieu de l'inverse.{{pageBreak}}Sachant que t'as intérêt à rester\nfan de moi, bien entendu..."
  },
  {
    "label": "Aori_FollowMeHello",
    "text": "Salut l'artiste! Ça gaze?"
  },
  {
    "label": "Aori_FollowOtherHello",
    "text": "Salut l'artiste!{{pageBreak}}Tu as le bonjour de\n{{color id=\"1\"}}{{string index=\"0\" arg2=\"0\"}}{{color id=\"65535\"}}!"
  },
  {
    "label": "Aori_NoAppDataHello",
    "text": "Ah... Le public de Cité-Clabousse\nva m'adorer, ça fait pas un doute.{{pageBreak}}Tiens, coucou, moi c'est Ayo,\nla star des Sœurs Ventouse!"
  },
  {
    "label": "Aori_NoAppDataHelloHC",
    "text": "Coucou! Moi, c'est Ayo, la star\ndes Sœurs Ventouse!"
  },
  {
    "label": "Aori_OtherAppDataHello",
    "text": "Ah... Le public de Cité-Clabousse\nva m'adorer, ça fait pas un doute.{{pageBreak}}Oh, on se connaît? Je suis Ayo,\nla star des Sœurs Ventouse!"
  },
  {
    "label": "Aori_OtherAppDataHelloHC",
    "text": "Coucou! Moi, c'est Ayo...\ndes Sœurs Ventouse, bien sûr."
  },
  {
    "label": "Aori_WhatDo",
    "text": "Qu'est-ce que tu veux savoir?\nJe connais tous les ragots du coin!"
  },
  {
    "label": "Aori_Reward",
    "text": "Dis donc, c'est moi ou tu déchires\ntout? Tiens, t'as bien mérité ça!"
  },
  {
    "label": "Aori_DoneSomeBattle",
    "text": "Oh, c'est toi! Tu fais un triomphe\ndans tous tes matchs!{{pageBreak}}Tiens, t'as bien mérité une petite\nrécompense!"
  },
  {
    "label": "Aori_RewardAsFollowNow",
    "text": "Youhou! Tiens, j'ai quelque chose\npour toi!{{pageBreak}}T'en fais pas, des bricoles comme\nça, j'en ai plein mes tiroirs..."
  },
  {
    "label": "Aori_RewardAsOtherAppData",
    "text": "Ah, ça fait toujours plaisir de\ncroiser une pointure dans ton genre.{{pageBreak}}Toi et moi, on forme une équipe\nqui gagne! Tiens, cadeau!"
  },
  {
    "label": "Aori_DoneAllReward",
    "text": "Désolée, mais la source à cadeaux\nest à sec. T'as tout raflé!{{pageBreak}}Mais j'en ai jamais douté! On reste\nquand même potes, hein?"
  },
  {
    "label": "Aori_PostRewardAsFollowNow",
    "text": "Continue à liquider, et d'autres\ncadeaux suivront!"
  },
  {
    "label": "Aori_NearReward",
    "text": "Ouah! Tu m'épates! Tu vas pas\ntarder à recevoir un cadeau, toi..."
  },
  {
    "label": "Aori_FarReward",
    "text": "T'inquiète, je rate pas un seul de\ntes matchs. Continue à assurer!"
  },
  {
    "label": "Aori_NoRewardAsOffline",
    "text": "Attends, Internet est en panne\nou t'as juste oublié de te\nconnecter?{{pageBreak}}Va dans le {{color id=\"1\"}}hall{{color id=\"65535\"}}, connecte-toi\net reviens me voir, OK? J'aurai\npeut-être un petit cadeau pour toi!"
  },
  {
    "label": "Aori_Remember",
    "text": "Je me suis bien amusée au Grand\nFestival. Tu veux que je te\nraconte? Je te préviens, il faut\npas me le dire deux fois!{{pageBreak}}Quand t'en auras assez, sélectionne\n{{color id=\"1\"}}Gare {{color id=\"65535\"}}pour rentrer."
  },
  {
    "label": "Hotaru_WantFollow",
    "text": "Mais dis-moi, tu dégages une\nclasse folle!{{pageBreak}}À mon avis, tu as tout d'une star\nen devenir. Si, si!{{pageBreak}}Je pourrais même devenir ton {{color id=\"1\"}}agent{{color id=\"65535\"}},\ntu sais.{{pageBreak}}Je mémoriserais tes {{color id=\"1\"}}réglages de\ncaméra{{color id=\"65535\"}} et ton {{color id=\"1\"}}équipement{{color id=\"65535\"}}...{{pageBreak}}Et aussi tes {{color id=\"1\"}}tenues favorites{{color id=\"65535\"}},\nen tant que styliste attitrée!{{pageBreak}}Tu pourrais t'équiper en un clin d'œil\ndepuis le menu de {{color id=\"1\"}}personnalisation{{color id=\"65535\"}}!{{pageBreak}}Alors, qu'est-ce que tu en dis?\nTu veux tenter le coup?"
  },
  {
    "label": "Hotaru_FollowMeHello",
    "text": "Tiens, coucou. Comment ça va?"
  },
  {
    "label": "Hotaru_FollowOtherHello",
    "text": "Salut...{{pageBreak}}Tu as le bonjour de\n{{color id=\"1\"}}{{string index=\"0\" arg2=\"0\"}}{{color id=\"65535\"}}!"
  },
  {
    "label": "Hotaru_NoAppDataHello",
    "text": "J'adore l'ambiance qui règne ici,\nà Cité-Clabousse. On rigole bien.{{pageBreak}}Oh, salut. Je suis Oly,\ndes Sœurs Ventouse."
  },
  {
    "label": "Hotaru_NoAppDataHelloHC",
    "text": "Oh, salut. Je suis Oly,\ndes Sœurs Ventouse."
  },
  {
    "label": "Hotaru_OtherAppDataHello",
    "text": "J'adore l'ambiance qui règne ici,\nà Cité-Clabousse. On rigole bien.{{pageBreak}}On se connaît? Je m'appelle Oly.\nOui, celle des Sœurs Ventouse."
  },
  {
    "label": "Hotaru_OtherAppDataHelloHC",
    "text": "Oh, salut. Je suis Oly,\ndes Sœurs Ventouse.\nOui, oui, c'est moi, LA Oly."
  },
  {
    "label": "Hotaru_WhatDo",
    "text": "Alors... je peux t'aider pour\nquelque chose?"
  },
  {
    "label": "Hotaru_Reward",
    "text": "Loin de moi l'idée de t'espionner,\nmais j'ai scruté tous tes matchs...{{pageBreak}}Et je suis sciée! T'assures à fond!\nTiens, t'as bien mérité ça!"
  },
  {
    "label": "Hotaru_DoneSomeBattle",
    "text": "Oh, c'est toi.{{pageBreak}}T'assures un max en match! Tiens,\nde la part de ta plus grande fan!"
  },
  {
    "label": "Hotaru_RewardAsFollowNow",
    "text": "Commençons par le commencement...\npour célébrer ton d'inscription!"
  },
  {
    "label": "Hotaru_RewardAsOtherAppData",
    "text": "Vraiment, on se connaît, non?\nJe demande pas pour meubler.{{pageBreak}}En tout cas, tu respires la coolitude,\nsans vouloir te flatter. Tiens!"
  },
  {
    "label": "Hotaru_DoneAllReward",
    "text": "C'est tout ce que j'avais pour toi.{{pageBreak}}Mais t'inquiète, je reste ton agent!\nToi, continue à assurer!"
  },
  {
    "label": "Hotaru_PostRewardAsFollowNow",
    "text": "Enchaîne les matchs, et peut-être\nque j'enchaînerai les cadeaux..."
  },
  {
    "label": "Hotaru_NearReward",
    "text": "Tu fais un succès. Et qui dit succès\ndit cadeau. Enfin, pas tout de suite,\nmais bientôt!"
  },
  {
    "label": "Hotaru_FarReward",
    "text": "Continue à assurer comme ça,\nton agent est aux anges!"
  },
  {
    "label": "Hotaru_NoRewardAsOffline",
    "text": "Hmm, c'est pas que ta connexion\nInternet a des ratés... C'est que\nt'es carrément hors ligne, en fait.{{pageBreak}}Tu pourrais peut-être faire un saut\ndans le {{color id=\"1\"}}hall {{color id=\"65535\"}}pour te connecter à\nInternet, et puis revenir me voir.\nJ'aurai peut-être un cadeau pour toi!"
  },
  {
    "label": "Hotaru_Remember",
    "text": "Oh, tu veux que je te raconte\nle Grand Festival? C'était\nmémorable, je te dis que ça...{{pageBreak}}OK, c'est parti! Quand tu voudras\nrentrer, sélectionne {{color id=\"1\"}}Gare{{color id=\"65535\"}}."
  },
  {
    "label": "Pearl_WantFollow",
    "text": "Ouah! Tu te trimballes une coolitude\nà tomber, ma parole!{{pageBreak}}Et c'est qu'un début! D'ici quelques\nmatchs, t'assureras encore plus.{{pageBreak}}En tout cas, je garde l'œil sur toi.\nT'iras loin, c'est moi qui te le dis.{{pageBreak}}Je serai ta {{color id=\"1\"}}supportrice numéro un{{color id=\"65535\"}},\nalors t'iras loin de toute façon.{{pageBreak}}En plus, je mémorise ton {{color id=\"1\"}}équipement{{color id=\"65535\"}}\net tes {{color id=\"1\"}}réglages de caméra{{color id=\"65535\"}}.{{pageBreak}}Et tes {{color id=\"1\"}}tenues favorites{{color id=\"65535\"}} au passage,\nparce que je suis comme ça!{{pageBreak}}Tu peux t'équiper en un clin d'œil\ndepuis le menu de {{color id=\"1\"}}personnalisation{{color id=\"65535\"}}!{{pageBreak}}C'est cool, ou pas?"
  },
  {
    "label": "Pearl_FollowMeHello",
    "text": "Quoi de neuf?\nÇa baigne?"
  },
  {
    "label": "Pearl_FollowOtherHello",
    "text": "Yo!{{pageBreak}}Tu as le bonjour de\n{{color id=\"1\"}}{{string index=\"0\" arg2=\"0\"}}{{color id=\"65535\"}}!"
  },
  {
    "label": "Pearl_NoAppDataHello",
    "text": "Cité-Clabousse... Visez-moi ça!\nY'a tout ce qu'on veut, ici!{{pageBreak}}Youhou! Un, deux! Un, deux!\nIci Perle, la star de Tentacool!"
  },
  {
    "label": "Pearl_NoAppDataHelloHC",
    "text": "Youhou! Un, deux! Un, deux!\nIci Perle, la star de Tentacool!"
  },
  {
    "label": "Pearl_OtherAppDataHello",
    "text": "Cité-Clabousse... Visez-moi ça!\nY'a tout ce qu'on veut, ici!{{pageBreak}}Salut! Tu passes faire coucou à\nPerle, la star de Tentacool?"
  },
  {
    "label": "Pearl_OtherAppDataHelloHC",
    "text": "Youhou! Un, deux! Un, deux!\nIci Perle, la star de Tentacool!"
  },
  {
    "label": "Pearl_WhatDo",
    "text": "Alors, qu'est-ce que tu veux?\nBesoin d'aide?"
  },
  {
    "label": "Pearl_Reward",
    "text": "Tu liquides à tour de tentacule en\nce moment! Tiens, cadeau!"
  },
  {
    "label": "Pearl_DoneSomeBattle",
    "text": "Ah, au fait! J'ai failli oublier...{{pageBreak}}T'assures comme une bête FÉROCE\nen ce moment. Tiens, cadeau!"
  },
  {
    "label": "Pearl_RewardAsFollowNow",
    "text": "YO! Tiens, j'ai quelque chose\npour toi!"
  },
  {
    "label": "Pearl_RewardAsOtherAppData",
    "text": "Ouah! Tu me rappelles quelqu'un...\nmais en encore plus cool!{{pageBreak}}D'ailleurs, je vais te chiper quelques\nidées. Tiens, pour te remercier!"
  },
  {
    "label": "Pearl_DoneAllReward",
    "text": "Ah, je crois bien que je t'ai refilé\nmon dernier cadeau. C'est la vie.{{pageBreak}}Mais je reste ta supportrice numéro\nun, alors continue à assurer!"
  },
  {
    "label": "Pearl_PostRewardAsFollowNow",
    "text": "On se recapte plus tard, OK?\nJ'aurai encore du matos pour toi!"
  },
  {
    "label": "Pearl_NearReward",
    "text": "J'ai vu que tu assurais en match.\nÇa sent le cadeau pour bientôt!"
  },
  {
    "label": "Pearl_FarReward",
    "text": "Je suis ta supportrice numéro un!\nOffre-moi du grand spectacle!"
  },
  {
    "label": "Pearl_NoRewardAsOffline",
    "text": "Attends, t'es hors ligne ou je rêve?\nFonce dans le {{color id=\"1\"}}hall {{color id=\"65535\"}}pour régler ça!{{pageBreak}}Connecte-toi à toute vitesse et\nreviens me voir à fond les ballons.\nJ'aurai peut-être un petit quelque\nchose pour toi..."
  },
  {
    "label": "Pearl_Remember",
    "text": "Tu veux savoir comment s'est\npassé le Grand Festival? Avec\nplaisir! Je vais tout te raconter!{{pageBreak}}Allez, c'est parti! Quand t'en auras\nassez, sélectionne {{color id=\"1\"}}Gare {{color id=\"65535\"}}pour\nrentrer."
  },
  {
    "label": "Marina_WantFollow",
    "text": "Oh oh! Avis météo de catégorie\nextrême droit devant.{{pageBreak}}C'est toi qui souffles cet ouragan\nde style? Faut qu'on soit {{color id=\"1\"}}potes{{color id=\"65535\"}}!{{pageBreak}}Je me rendrai utile, je mémoriserai\nnon seulement ton {{color id=\"1\"}}équipement{{color id=\"65535\"}}...{{pageBreak}}... mais aussi tes {{color id=\"1\"}}réglages de\ncaméra{{color id=\"65535\"}} et tes {{color id=\"1\"}}tenues favorites{{color id=\"65535\"}}!{{pageBreak}}Tu pourras te changer en un éclair\ndepuis le menu de {{color id=\"1\"}}personnalisation{{color id=\"65535\"}}...{{pageBreak}}Alors, qu'est-ce que t'en dis?"
  },
  {
    "label": "Marina_FollowMeHello",
    "text": "Salut!\nTout va comme tu veux?"
  },
  {
    "label": "Marina_FollowOtherHello",
    "text": "Salut!{{pageBreak}}Tu as le bonjour de\n{{color id=\"1\"}}{{string index=\"0\" arg2=\"0\"}}{{color id=\"65535\"}}!"
  },
  {
    "label": "Marina_NoAppDataHello",
    "text": "Y'a pas à dire, c'est quand même\nquelque chose, Cité-Clabousse!{{pageBreak}}Oh, salut! Moi, c'est Coralie,\nde Tentacool. Enchantée!"
  },
  {
    "label": "Marina_NoAppDataHelloHC",
    "text": "Oh, salut! Moi, c'est Coralie,\nde Tentacool. Enchantée!"
  },
  {
    "label": "Marina_OtherAppDataHello",
    "text": "Y'a pas à dire, c'est quand même\nquelque chose, Cité-Clabousse!{{pageBreak}}Oh, salut! Moi, c'est Coralie,\nde Tentacool. Ça baigne?"
  },
  {
    "label": "Marina_OtherAppDataHelloHC",
    "text": "Oh, salut! Moi, c'est Coralie,\nde Tentacool. Ça baigne?"
  },
  {
    "label": "Marina_WhatDo",
    "text": "Je peux t'aider?"
  },
  {
    "label": "Marina_Reward",
    "text": "Toi, t'es pas du genre à roupiller\npendant les matchs. Tiens, cadeau!"
  },
  {
    "label": "Marina_DoneSomeBattle",
    "text": "C'est moi, ou tu fais des étincelles\ndès que tu te pointes en match?{{pageBreak}}Ça mérite bien une récompense.\nTiens, j'espère que ça te plaira!"
  },
  {
    "label": "Marina_RewardAsFollowNow",
    "text": "Cool. Tiens, voilà un petit cadeau\npour la peine."
  },
  {
    "label": "Marina_RewardAsOtherAppData",
    "text": "Tiens... On se connaît?\nTon look m'est familier...{{pageBreak}}En tout cas, ça fait plaisir de te\nvoir. Voilà pour toi!"
  },
  {
    "label": "Marina_DoneAllReward",
    "text": "Ah! Je crois que c'était le dernier\ncadeau que j'avais en réserve!{{pageBreak}}Mais on reste potes, pas vrai?\nAllez, va gagner un match ou deux!"
  },
  {
    "label": "Marina_PostRewardAsFollowNow",
    "text": "J'ai d'autres trucs cool sous le\ncoude, alors repasse à l'occase!"
  },
  {
    "label": "Marina_NearReward",
    "text": "T'assures un max! Tiens, ca...\nEuh, passe plus tard pour le cadeau."
  },
  {
    "label": "Marina_FarReward",
    "text": "Je rate aucun de tes matchs!\nC'est normal, entre potes!"
  },
  {
    "label": "Marina_NoRewardAsOffline",
    "text": "Euh... T'es hors ligne, là!\nMais c'est pas grave, tu peux y\nremédier en te rendant dans le {{color id=\"1\"}}hall{{color id=\"65535\"}}.{{pageBreak}}Reviens me voir quand la connexion\nsera établie. J'aurai peut-être un\npetit cadeau pour toi!"
  },
  {
    "label": "Marina_Remember",
    "text": "Le Grand Festival? Oh, je pourrais\nen parler pendant des heures!{{pageBreak}}Alors c'est parti! Tu peux arrêter\nquand tu veux, il te suffit de\nsélectionner {{color id=\"1\"}}Gare{{color id=\"65535\"}}."
  },
  {
    "label": "Shiver_WantFollow",
    "text": "Regardez-moi ça... Tu sembles\ncapable de montrer les crocs, mais\nas-tu la mâchoire qui va avec?{{pageBreak}}À mon avis, quelques combats de\nplus au compteur ne te feraient pas\nde mal. Mais tu as du potentiel, on\npourrait même devenir camarades.{{pageBreak}}Soyons fous, je vais même te\nproposer de devenir ton {{color id=\"1\"}}amie{{color id=\"65535\"}}!\nQu'est-ce que tu en dis?{{pageBreak}}En tant qu'amie, je peux mémoriser\nl'{{color id=\"1\"}}équipement{{color id=\"65535\"}} que tu utilises, tes\n{{color id=\"1\"}}réglages de caméra{{color id=\"65535\"}} et même ta\n{{color id=\"1\"}}tenue favorite{{color id=\"65535\"}}.{{pageBreak}}Si tu es d'accord, tu pourras me\ncontacter simplement via le menu de\n{{color id=\"1\"}}personnalisation {{color id=\"65535\"}}et tu auras tout ce\nque tu veux en un clin d'œil.{{pageBreak}}Alors, qu'en dis-tu? Veux-tu\nsceller une belle et longue amitié?"
  },
  {
    "label": "Shiver_FollowMeHello",
    "text": "Oh, regardez qui voilà. Bonjour!\nQuelles sont les nouvelles?"
  },
  {
    "label": "Shiver_FollowOtherHello",
    "text": "Bonjour.{{pageBreak}}Je reviens tout juste d'une petite\nvisite chez {{color id=\"1\"}}{{string index=\"0\" arg2=\"10\"}}{{color id=\"65535\"}}."
  },
  {
    "label": "Shiver_NoAppDataHello",
    "text": "Bonjour! Je suis Pasquale, pour\nte servir. Tu as dû me voir avec\nles Tridenfer, le groupe phénomène\nde la Contrée Clabousse!"
  },
  {
    "label": "Shiver_NoAppDataHelloHC",
    "text": "Hm... Je ne suis pas habituée à me\nproduire dans des endroits comme\ncelui-ci. Bref...{{pageBreak}}Je suis Pasquale, pour te servir.\nTu as dû me voir avec les Tridenfer,\nle groupe phénomène de la Contrée\nClabousse!"
  },
  {
    "label": "Shiver_OtherAppDataHello",
    "text": "Bonjour! Je suis Pasquale, pour\nte servir. Tu as dû me voir avec\nles Tridenfer, le groupe phénomène\nde la Contrée Clabousse!"
  },
  {
    "label": "Shiver_OtherAppDataHelloHC",
    "text": "Hm... Je ne suis pas habituée à me\nproduire dans des endroits comme\ncelui-ci. Bref...{{pageBreak}}Je suis Pasquale, pour te servir.\nTu as dû me voir avec les Tridenfer,\nle groupe phénomène de la Contrée\nClabousse!"
  },
  {
    "label": "Shiver_WhatDo",
    "text": "Si tu as besoin de quoi que ce soit,\nn'hésite surtout pas à demander!"
  },
  {
    "label": "Shiver_Reward",
    "text": "J'ai assisté à tes prouesses en\nmatch. On croirait voir un vrai\nmégalodon en action, pour\nreprendre ma phrase fétiche.{{pageBreak}}Tiens, pour te récompenser, j'ai\nquelque chose pour toi."
  },
  {
    "label": "Shiver_DoneSomeBattle",
    "text": "Oh, j'ai failli oublier!{{pageBreak}}Je voulais t'offrir un petit quelque\nchose pour célébrer le début de\nnotre belle amitié. Fais-en bon\nusage!"
  },
  {
    "label": "Shiver_RewardAsFollowNow",
    "text": "Ton amie te remercie. Et pour que tu\nn'oublies pas ce moment, voici un\npetit souvenir rien que pour toi."
  },
  {
    "label": "Shiver_DoneAllReward",
    "text": "Je n'ai pas d'autre récompense à\nt'offrir. À part mon éternelle\nreconnaissance pour notre amitié\nsans limites.{{pageBreak}}J'espère que tu as apprécié mes\ncadeaux. Ils sont le gage du bon\ngoût de la personne qui offre\nautant que de celle qui reçoit."
  },
  {
    "label": "Shiver_PostRewardAsFollowNow",
    "text": "Il se peut que j'aie quelques autres\nsurprises pour toi, mais tu vas\ndevoir batailler encore un peu pour\nles mériter. Reviens plus tard!"
  },
  {
    "label": "Shiver_NearReward",
    "text": "Ne t'en fais pas, je surveille ta\nprogression de près. Et laisse-moi\nte dire que tu approches à grands\npas d'une belle surprise!{{pageBreak}}Fais encore un petit effort et\nreviens me voir!"
  },
  {
    "label": "Shiver_FarReward",
    "text": "Tu penses que je ne garde pas un\nœil sur ce que tu fais? Que nenni.\nParticipe encore à quelques matchs,\net tu auras bientôt un cadeau."
  },
  {
    "label": "Shiver_NoRewardAsOffline",
    "text": "Tu n'as pas oublié quelque chose?\nVoici deux indices : ça commence\npar « Inter » et ça finit par\n« net », et il faut s'y connecter.{{pageBreak}}Rends-toi dans le {{color id=\"1\"}}hall {{color id=\"65535\"}}et connecte-\ntoi. Et qui sait, j'aurai peut-être\nune récompense pour toi..."
  },
  {
    "label": "Shiver_Remember",
    "text": "Le Grand Festival était pas grand, il\nétait énorme! Si tu as déjà oublié,\nje peux partager mes souvenirs\navec toi!{{pageBreak}}Mais avant de te plonger dans\nce merveilleux événement, sache\nque tu peux revenir quand tu veux\nen sélectionnant {{color id=\"1\"}}Gare{{color id=\"65535\"}}."
  },
  {
    "label": "Frye_WantFollow",
    "text": "Hé, je sais reconnaître quelqu'un\nqui a un potentiel de champion, et\nje peux dire que tu coches toutes\nles cases!{{pageBreak}}Remets-en encore quelques couches\net la Contrée Clabousse jurera\nbientôt plus que par toi pour\nassurer le spectacle!{{pageBreak}}En attendant, j'ai une autre\nproposition pour toi...\nÇa te dirait que je sois ton {{color id=\"1\"}}amie{{color id=\"65535\"}}?{{pageBreak}}En tant qu'amie, je te promets que\nj'oublierai pas ton {{color id=\"1\"}}équipement{{color id=\"65535\"}}, tes\n{{color id=\"1\"}}réglages de caméra{{color id=\"65535\"}} et encore moins\nta {{color id=\"1\"}}tenue favorite{{color id=\"65535\"}}!{{pageBreak}}Et au besoin, on se retrouve dans le\nmenu de {{color id=\"1\"}}personnalisation {{color id=\"65535\"}}et boum!\nAngie te ressort tout ce qu'elle a\nmémorisé. C'est pas beau, ça?{{pageBreak}}Alors tu en dis quoi? On fait un\nbout de chemin ensemble?"
  },
  {
    "label": "Frye_FollowMeHello",
    "text": "Hé! Salut, toi! Comment tu vas?"
  },
  {
    "label": "Frye_FollowOtherHello",
    "text": "Salut! C'est gentil de passer.\nJ'étais avec {{color id=\"1\"}}{{string index=\"0\" arg2=\"10\"}}{{color id=\"65535\"}},\nmais je suis tout à toi, maintenant."
  },
  {
    "label": "Frye_NoAppDataHello",
    "text": "Salut! C'est moi, Angie!\nLa Contrée Clabousse est dans la\nplace, et les Tridenfer terrassent\ntout ce qui dépasse! BOUM!"
  },
  {
    "label": "Frye_NoAppDataHelloHC",
    "text": "Il faut du courage pour m'appeler en\npleine ville comme tu l'as fait. T'as\npas peur que je casse tout d'un\nsimple regard irrité? Bref...{{pageBreak}}Salut! C'est moi, Angie!\nLa Contrée Clabousse est dans la\nplace, et les Tridenfer terrassent\ntout ce qui dépasse! BOUM!"
  },
  {
    "label": "Frye_OtherAppDataHello",
    "text": "Salut! C'est moi, Angie!\nLa Contrée Clabousse est dans la\nplace, et les Tridenfer terrassent\ntout ce qui dépasse! BOUM!"
  },
  {
    "label": "Frye_OtherAppDataHelloHC",
    "text": "Il faut du courage pour m'appeler en\npleine ville comme tu l'as fait. T'as\npas peur que je casse tout d'un\nsimple regard irrité? Bref...{{pageBreak}}Salut! C'est moi, Angie!\nLa Contrée Clabousse est dans la\nplace, et les Tridenfer terrassent\ntout ce qui dépasse! BOUM!"
  },
  {
    "label": "Frye_WhatDo",
    "text": "Ça roule? Vas-y, crache le\nmorceau! Qu'est-ce que je peux\nfaire pour toi?"
  },
  {
    "label": "Frye_Reward",
    "text": "J'ai assisté à tes exploits... tu\nexcelles dans les matchs. Beau\ntravail! Enfle-toi pas trop la tête,\nmais j'ai un truc pour toi."
  },
  {
    "label": "Frye_DoneSomeBattle",
    "text": "Oh, c'est tout moi, ça!\nJ'ai failli oublier...{{pageBreak}}J'aime bien donner des trucs gratis\nà mes amis, juste pour les remercier\nd'être là. Alors... voilà pour toi!"
  },
  {
    "label": "Frye_RewardAsFollowNow",
    "text": "Tu aimes les surprises qui font\nplaisir? Tiens, j'en ai justement\nune pour toi!"
  },
  {
    "label": "Frye_DoneAllReward",
    "text": "C'est le dernier cadeau que tu me\nsoutireras, pas la peine de revenir!\nToi et moi, c'était le fun, mais c'est\nter-mi-né! Ciao! Bonne route!{{pageBreak}}Ha ha, je blague! Enfin, pas quand je\ndis que j'ai plus de cadeaux pour toi,\nmais j'vais être ton amie jusqu'à\nla fin des temps et même après!"
  },
  {
    "label": "Frye_PostRewardAsFollowNow",
    "text": "Repasse me voir quand tu auras\nliquidé quelques adversaires. Je\nreste ici, à me la couler douce en\nattendant de te filer un truc génial."
  },
  {
    "label": "Frye_NearReward",
    "text": "Tu es en train de devenir la terreur\ndes arènes, tu sais ça? Voyons\nvoir... Qu'est-ce que je vais pouvoir\nte filer la prochaine fois..."
  },
  {
    "label": "Frye_FarReward",
    "text": "Je suis ton amie, et ça me donne le\ndroit et le devoir de voir tous tes\nmatchs. Je compte sur toi pour\nliquider à tout-va!"
  },
  {
    "label": "Frye_NoRewardAsOffline",
    "text": "Tiens? Bizarre... Je crois que ta\nconnexion Internet est en panne.{{pageBreak}}Passe te reconnecter dans le {{color id=\"1\"}}hall{{color id=\"65535\"}},\net reviens me voir. Il se pourrait que\nj'aie quelque chose pour toi."
  },
  {
    "label": "Frye_Remember",
    "text": "Tu veux parler du Grand Festival?\nAvec plaisir! C'était un grand\nmoment, je te dis que ça!{{pageBreak}}Non, je rigole! En fait, je vais t'en\ndire beaucoup plus! Quand t'en\nauras assez, t'auras qu'à\nsélectionner {{color id=\"1\"}}Gare {{color id=\"65535\"}}pour revenir, OK?"
  },
  {
    "label": "BigMan_WantFollow",
    "text": "Ay! {{string value=\"5\"}}(Dis donc! C'est du bel\néquipement que tu as là!){{fun_000F_0004 arg=\"0x0500\"}}{{pageBreak}}Ay. {{string value=\"5\"}}(Et comme tu manques pas de\nstyle, je parie que tu vas continuer\nde parader avec du super stock.){{fun_000F_0004 arg=\"0x0500\"}}{{pageBreak}}Ay? {{string value=\"5\"}}(Alors, ça peut te paraître\nbizarre comme demande, mais...\nça te dirait qu'on soit {{color id=\"1\"}}amis{{color id=\"65535\"}}?){{fun_000F_0004 arg=\"0x0500\"}}{{pageBreak}}Ay. {{string value=\"5\"}}(Si j'étais ton ami, je pourrais\nmémoriser ton {{color id=\"1\"}}équipement{{color id=\"65535\"}}, tes\n{{color id=\"1\"}}réglages de caméra{{color id=\"65535\"}} et ta {{color id=\"1\"}}tenue\nfavorite{{color id=\"65535\"}}.){{fun_000F_0004 arg=\"0x0500\"}}{{pageBreak}}Ay. {{string value=\"5\"}}(Concrètement, tu n'aurais qu'à\naccéder au menu de {{color id=\"1\"}}personnalisation{{color id=\"65535\"}}\npour t'équiper ou retrouver tes\nparamètres en un éclair.){{fun_000F_0004 arg=\"0x0500\"}}{{pageBreak}}Ay. {{string value=\"5\"}}(Tu en dis quoi? Amis?\nEt t'en fais pas si ça te tente pas.){{fun_000F_0004 arg=\"0x0500\"}}"
  },
  {
    "label": "BigMan_FollowMeHello",
    "text": "Ay? {{string value=\"5\"}}(Salut, toi! La journée\nse passe bien?){{fun_000F_0004 arg=\"0x0500\"}}"
  },
  {
    "label": "BigMan_FollowOtherHello",
    "text": "Ay... {{string value=\"5\"}}(Ouh là là, je manque de place,\nici...){{fun_000F_0004 arg=\"0x0500\"}}{{pageBreak}}Ay! {{string value=\"5\"}}(Comment tu vas? Je suis\npassé voir {{color id=\"1\"}}{{string index=\"0\" arg2=\"10\"}}{{color id=\"65535\"}}!){{fun_000F_0004 arg=\"0x0500\"}}"
  },
  {
    "label": "BigMan_NoAppDataHello",
    "text": "Ay... {{string value=\"5\"}}(Ouille! Je me suis cogné...){{fun_000F_0004 arg=\"0x0500\"}}{{pageBreak}}Ay. {{string value=\"5\"}}(Je recommence... Salut!\nJe suis Raimi des Tridenfer!\nRavi de te rencontrer.){{fun_000F_0004 arg=\"0x0500\"}}"
  },
  {
    "label": "BigMan_NoAppDataHelloHC",
    "text": "Ay. {{string value=\"5\"}}(Ouille! Je me suis cogné...\nOn dirait que ces boîtes n'existent\nqu'en taille standard.){{fun_000F_0004 arg=\"0x0500\"}}{{pageBreak}}Ay. {{string value=\"5\"}}(Je recommence... Salut!\nJe suis Raimi des Tridenfer!\nRavi de te rencontrer.){{fun_000F_0004 arg=\"0x0500\"}}"
  },
  {
    "label": "BigMan_OtherAppDataHello",
    "text": "Ay... {{string value=\"5\"}}(Ouille! Je me suis cogné...){{fun_000F_0004 arg=\"0x0500\"}}{{pageBreak}}Ay. {{string value=\"5\"}}(Je recommence... Salut!\nJe suis Raimi des Tridenfer!\nRavi de te rencontrer.){{fun_000F_0004 arg=\"0x0500\"}}"
  },
  {
    "label": "BigMan_OtherAppDataHelloHC",
    "text": "Ay. {{string value=\"5\"}}(Ouille! Je me suis cogné...\nOn dirait que ces boîtes n'existent\nqu'en taille standard.){{fun_000F_0004 arg=\"0x0500\"}}{{pageBreak}}Ay. {{string value=\"5\"}}(Je recommence... Salut!\nJe suis Raimi des Tridenfer!\nRavi de te rencontrer.){{fun_000F_0004 arg=\"0x0500\"}}"
  },
  {
    "label": "BigMan_WhatDo",
    "text": "Ay? {{string value=\"5\"}}(Qu'est-ce que je peux faire\npour toi?){{fun_000F_0004 arg=\"0x0500\"}}"
  },
  {
    "label": "BigMan_Reward",
    "text": "Ay. {{string value=\"5\"}}(J'ai suivi tes exploits en\nmatch, tu assures! Tu sais que\nje suis ton plus grand fan? Tiens,\nj'ai un cadeau pour toi.){{fun_000F_0004 arg=\"0x0500\"}}"
  },
  {
    "label": "BigMan_DoneSomeBattle",
    "text": "Ay! {{string value=\"5\"}}(Excellent!){{fun_000F_0004 arg=\"0x0500\"}}{{pageBreak}}Ay. {{string value=\"5\"}}(Je t'ai apporté un cadeau,\npour sceller notre amitié.){{fun_000F_0004 arg=\"0x0500\"}}"
  },
  {
    "label": "BigMan_RewardAsFollowNow",
    "text": "Ay! {{string value=\"5\"}}(Génial, on va bien s'amuser!\nTiens, j'ai quelque chose à t'offrir,\npour marquer le coup!){{fun_000F_0004 arg=\"0x0500\"}}"
  },
  {
    "label": "BigMan_DoneAllReward",
    "text": "Ay. {{string value=\"5\"}}(Je crains que ce soit le\ndernier cadeau qu'il me restait.){{fun_000F_0004 arg=\"0x0500\"}}{{pageBreak}}Ay! {{string value=\"5\"}}(Mais ne t'en fais pas, je reste\nquand même ton plus grand fan!){{fun_000F_0004 arg=\"0x0500\"}}"
  },
  {
    "label": "BigMan_PostRewardAsFollowNow",
    "text": "Ay. {{string value=\"5\"}}(J'ai peut-être quelques autres\nidées de cadeau pour toi. Va jouer\nquelques matchs de plus et reviens\nme voir.){{fun_000F_0004 arg=\"0x0500\"}}"
  },
  {
    "label": "BigMan_NearReward",
    "text": "Ay... {{string value=\"5\"}}(Je suis tes exploits,\net tu te débrouilles bien!\nTu mériteras bientôt un\ncadeau spécial...){{fun_000F_0004 arg=\"0x0500\"}}"
  },
  {
    "label": "BigMan_FarReward",
    "text": "Ay! {{string value=\"5\"}}(J'ai rien à t'offrir pour le\nmoment, mais sache que je garde\nun œil sur tes performances en\nmatch!){{fun_000F_0004 arg=\"0x0500\"}}"
  },
  {
    "label": "BigMan_NoRewardAsOffline",
    "text": "Ay? {{string value=\"5\"}}(Je te vois pas en ligne.\nTu aurais pas oublié de\nte connecter?){{fun_000F_0004 arg=\"0x0500\"}}{{pageBreak}}Ay! {{string value=\"5\"}}(C'est pas dramatique, t'en fais\npas. Si tu veux te connecter, va\nfaire un tour dans le {{color id=\"1\"}}hall{{color id=\"65535\"}}. J'aurai\npeut-être quelque chose pour toi!){{fun_000F_0004 arg=\"0x0500\"}}"
  },
  {
    "label": "BigMan_Remember",
    "text": "Ay! {{string value=\"5\"}}(Tu veux qu'on discute du\nGrand Festival? C'était grandiose!\nJe demande pas mieux que de\nt'en rebattre les oreilles.){{fun_000F_0004 arg=\"0x0500\"}}{{pageBreak}}Ay. {{string value=\"5\"}}(Je vais commencer à me\nsouvenir... Quand tu voudras\nrentrer, sélectionne simplement\n{{color id=\"1\"}}Gare{{color id=\"65535\"}}.){{fun_000F_0004 arg=\"0x0500\"}}"
  },
  {
    "label": "Aori2_WantFollow",
    "text": "T'as l'air plutôt cool, dis-moi...{{pageBreak}}Alors, va surtout pas croire que\nj'ai peur de me faire supplanter...{{pageBreak}}Mais j'aimerais bien {{color id=\"1\"}}garder un œil\nsur toi{{color id=\"65535\"}}.{{pageBreak}}Je pourrais mémoriser tes {{color id=\"1\"}}réglages\nde caméra{{color id=\"65535\"}} et ton {{color id=\"1\"}}équipement{{color id=\"65535\"}}!{{pageBreak}}Et tes {{color id=\"1\"}}tenues favorites{{color id=\"65535\"}} en plus!{{pageBreak}}Tu pourrais t'équiper en un clin d'œil\ndepuis le menu de {{color id=\"1\"}}personnalisation{{color id=\"65535\"}}!{{pageBreak}}En gros, c'est moi qui deviendrais\nta fan au lieu de l'inverse.{{pageBreak}}Sachant que t'as intérêt à rester\nfan de moi, bien entendu..."
  },
  {
    "label": "Aori2_FollowMeHello",
    "text": "Salut l'artiste! Ça gaze?"
  },
  {
    "label": "Aori2_FollowOtherHello",
    "text": "Salut l'artiste!{{pageBreak}}Tu as le bonjour de\n{{color id=\"1\"}}{{string index=\"0\" arg2=\"0\"}}{{color id=\"65535\"}}!"
  },
  {
    "label": "Aori2_NoAppDataHello",
    "text": "Tout le monde vit en harmonie à\nCité-Clabousse. Les Inklings et\nles Octalings se promènent côte\nà côte... C'est le rêve!{{pageBreak}}Tiens, coucou, moi c'est Ayo,\nla star des Sœurs Ventouse!\nTu sais, celle qui n'a pas\nde cheveux gris!"
  },
  {
    "label": "Aori2_NoAppDataHelloHC",
    "text": "Coucou! Moi, c'est Ayo, la star\ndes Sœurs Ventouse! Tu sais, celle\nqui n'a pas de cheveux gris!"
  },
  {
    "label": "Aori2_OtherAppDataHello",
    "text": "Tout le monde vit en harmonie à\nCité-Clabousse. Les Inklings et\nles Octalings se promènent côte\nà côte... C'est le rêve!{{pageBreak}}Oh, on se connaît? Je suis Ayo,\nla star des Sœurs Ventouse!\nTu sais, celle qui n'a pas\nde cheveux gris!"
  },
  {
    "label": "Aori2_OtherAppDataHelloHC",
    "text": "Coucou! Moi, c'est Ayo, des\nSœurs Ventouse! Tu sais, celle\nqui n'a pas de cheveux gris!"
  },
  {
    "label": "Aori2_WhatDo",
    "text": "Qu'est-ce que tu veux savoir?\nJe connais tous les ragots du coin!"
  },
  {
    "label": "Aori2_Reward",
    "text": "Dis donc, c'est moi ou tu déchires\ntout? Tiens, t'as bien mérité ça!"
  },
  {
    "label": "Aori2_DoneSomeBattle",
    "text": "Oh, c'est toi! Tu fais un triomphe\ndans tous tes matchs!{{pageBreak}}Tiens, t'as bien mérité une petite\nrécompense!"
  },
  {
    "label": "Aori2_RewardAsFollowNow",
    "text": "Youhou! Tiens, j'ai quelque chose\npour toi!{{pageBreak}}T'en fais pas, des bricoles comme\nça, j'en ai plein mes tiroirs..."
  },
  {
    "label": "Aori2_DoneAllReward",
    "text": "Désolée, mais la source à cadeaux\nest à sec. T'as tout raflé!{{pageBreak}}Mais j'en ai jamais douté! On reste\nquand même potes, hein?"
  },
  {
    "label": "Aori2_PostRewardAsFollowNow",
    "text": "Continue à liquider, et d'autres\ncadeaux suivront!"
  },
  {
    "label": "Aori2_NearReward",
    "text": "Ouah! Tu m'épates! Tu vas pas\ntarder à recevoir un cadeau, toi..."
  },
  {
    "label": "Aori2_FarReward",
    "text": "T'inquiète, je rate pas un seul de\ntes matchs. Continue à assurer!"
  },
  {
    "label": "Aori2_NoRewardAsOffline",
    "text": "Attends, Internet est en panne\nou t'as juste oublié de te\nconnecter?{{pageBreak}}Va dans le {{color id=\"1\"}}hall{{color id=\"65535\"}}, connecte-toi\net reviens me voir, OK? J'aurai\npeut-être un petit cadeau pour toi!"
  },
  {
    "label": "Aori2_Remember",
    "text": "Je me suis bien amusée au Grand\nFestival. Tu veux que je te\nraconte? Je te préviens, il faut\npas me le dire deux fois!{{pageBreak}}Quand t'en auras assez, sélectionne\n{{color id=\"1\"}}Gare {{color id=\"65535\"}}pour rentrer."
  },
  {
    "label": "Hotaru2_WantFollow",
    "text": "Mais dis-moi, tu dégages une\nclasse folle!{{pageBreak}}À mon avis, tu as tout d'une star\nen devenir. Si, si!{{pageBreak}}Je pourrais même devenir ton {{color id=\"1\"}}agent{{color id=\"65535\"}},\ntu sais.{{pageBreak}}Je mémoriserais tes {{color id=\"1\"}}réglages de\ncaméra{{color id=\"65535\"}} et ton {{color id=\"1\"}}équipement{{color id=\"65535\"}}...{{pageBreak}}Et aussi tes {{color id=\"1\"}}tenues favorites{{color id=\"65535\"}},\nen tant que styliste attitrée!{{pageBreak}}Tu pourrais t'équiper en un clin d'œil\ndepuis le menu de {{color id=\"1\"}}personnalisation{{color id=\"65535\"}}!{{pageBreak}}Alors, qu'est-ce que tu en dis?\nTu veux tenter le coup?"
  },
  {
    "label": "Hotaru2_FollowMeHello",
    "text": "Tiens, coucou. Comment ça va?"
  },
  {
    "label": "Hotaru2_FollowOtherHello",
    "text": "Salut...{{pageBreak}}Tu as le bonjour de\n{{color id=\"1\"}}{{string index=\"0\" arg2=\"0\"}}{{color id=\"65535\"}}!"
  },
  {
    "label": "Hotaru2_NoAppDataHello",
    "text": "Je brûle de voir Cité-Clabousse\nde plus près! D'ailleurs, avec cette\ntempérature, je suis pas loin de\nbrûler littéralement.{{pageBreak}}Mais bref, je me présente : moi,\nc'est Oly, des Sœurs Ventouse."
  },
  {
    "label": "Hotaru2_NoAppDataHelloHC",
    "text": "Salut! Je me présente : Oly,\nla star des Sœurs Ventouse."
  },
  {
    "label": "Hotaru2_OtherAppDataHello",
    "text": "Je brûle de voir Cité-Clabousse\nde plus près! D'ailleurs, avec cette\ntempérature, je suis pas loin de\nbrûler littéralement.{{pageBreak}}Mais bref, je me présente : moi,\nc'est Oly, des Sœurs Ventouse."
  },
  {
    "label": "Hotaru2_OtherAppDataHelloHC",
    "text": "J'aime bien ce coin et toi aussi,\nt'as l'air sympa. Moi, c'est Oly,\nla star des Sœurs Ventouse."
  },
  {
    "label": "Hotaru2_WhatDo",
    "text": "Alors... je peux t'aider pour\nquelque chose?"
  },
  {
    "label": "Hotaru2_Reward",
    "text": "Loin de moi l'idée de t'espionner,\nmais j'ai scruté tous tes matchs...{{pageBreak}}Et je suis sciée! T'assures à fond!\nTiens, t'as bien mérité ça!"
  },
  {
    "label": "Hotaru2_DoneSomeBattle",
    "text": "Oh, c'est toi.{{pageBreak}}T'assures un max en match! Tiens,\nde la part de ta plus grande fan!"
  },
  {
    "label": "Hotaru2_RewardAsFollowNow",
    "text": "Commençons par le commencement...\npour célébrer ton d'inscription!"
  },
  {
    "label": "Hotaru2_DoneAllReward",
    "text": "C'est tout ce que j'avais pour toi.{{pageBreak}}Mais t'inquiète, je reste ton agent!\nToi, continue à assurer!"
  },
  {
    "label": "Hotaru2_PostRewardAsFollowNow",
    "text": "Enchaîne les matchs, et peut-être\nque j'enchaînerai les cadeaux..."
  },
  {
    "label": "Hotaru2_NearReward",
    "text": "Tu fais un succès. Et qui dit succès\ndit cadeau. Enfin, pas tout de suite,\nmais bientôt!"
  },
  {
    "label": "Hotaru2_FarReward",
    "text": "Continue à assurer comme ça,\nton agent est aux anges!"
  },
  {
    "label": "Hotaru2_NoRewardAsOffline",
    "text": "Hmm, c'est pas que ta connexion\nInternet a des ratés... C'est que\nt'es carrément hors ligne, en fait.{{pageBreak}}Tu pourrais peut-être faire un saut\ndans le {{color id=\"1\"}}hall {{color id=\"65535\"}}pour te connecter à\nInternet, et puis revenir me voir.\nJ'aurai peut-être un cadeau pour toi!"
  },
  {
    "label": "Hotaru2_Remember",
    "text": "Oh, tu veux que je te raconte\nle Grand Festival? C'était\nmémorable, je te dis que ça...{{pageBreak}}OK, c'est parti! Quand tu voudras\nrentrer, sélectionne {{color id=\"1\"}}Gare{{color id=\"65535\"}}."
  },
  {
    "label": "Pearl2_WantFollow",
    "text": "Ouah! Tu te trimballes une coolitude\nà tomber, ma parole!{{pageBreak}}Et c'est qu'un début! D'ici quelques\nmatchs, t'assureras encore plus.{{pageBreak}}En tout cas, je garde l'œil sur toi.\nT'iras loin, c'est moi qui te le dis.{{pageBreak}}Je serai ta {{color id=\"1\"}}supportrice numéro un{{color id=\"65535\"}},\nalors t'iras loin de toute façon.{{pageBreak}}En plus, je mémorise ton {{color id=\"1\"}}équipement\n{{color id=\"65535\"}}et tes {{color id=\"1\"}}réglages de caméra{{color id=\"65535\"}}.{{pageBreak}}Et tes {{color id=\"1\"}}tenues favorites{{color id=\"65535\"}} au passage,\nparce que je suis comme ça!{{pageBreak}}Tu peux t'équiper en un clin d'œil\ndepuis le menu de {{color id=\"1\"}}personnalisation{{color id=\"65535\"}}!{{pageBreak}}C'est cool, ou pas?"
  },
  {
    "label": "Pearl2_FollowMeHello",
    "text": "Quoi de neuf?\nÇa baigne?"
  },
  {
    "label": "Pearl2_FollowOtherHello",
    "text": "Yo!{{pageBreak}}Tu as le bonjour de\n{{color id=\"1\"}}{{string index=\"0\" arg2=\"0\"}}{{color id=\"65535\"}}!"
  },
  {
    "label": "Pearl2_NoAppDataHello",
    "text": "Cité-Clabousse a un petit côté\nchaotique qui n'est pas pour\nme déplaire... Oh, mais j'en oublie\nde me présenter!{{pageBreak}}Moi, c'est Perle, la star des\nTentacool, aussi connue sous\nle nom de MC Princess!"
  },
  {
    "label": "Pearl2_NoAppDataHelloHC",
    "text": "Moi, c'est Perle, la star des\nTentacool, aussi connue sous\nle nom de MC Princess!"
  },
  {
    "label": "Pearl2_OtherAppDataHello",
    "text": "Cité-Clabousse a un petit côté\nchaotique qui n'est pas pour\nme déplaire... Oh, mais j'en oublie\nde me présenter!{{pageBreak}}Moi, c'est Perle, la star des\nTentacool, aussi connue sous\nle nom de MC Princess!"
  },
  {
    "label": "Pearl2_OtherAppDataHelloHC",
    "text": "Moi, c'est Perle, la star des\nTentacool, aussi connue sous\nle nom de MC Princess!"
  },
  {
    "label": "Pearl2_WhatDo",
    "text": "Alors, qu'est-ce que tu veux?\nBesoin d'aide?"
  },
  {
    "label": "Pearl2_Reward",
    "text": "Tu liquides à tour de tentacule en\nce moment! Tiens, cadeau!"
  },
  {
    "label": "Pearl2_DoneSomeBattle",
    "text": "Ah, au fait! J'ai failli oublier...{{pageBreak}}T'assures comme une bête FÉROCE\nen ce moment. Tiens, cadeau!"
  },
  {
    "label": "Pearl2_RewardAsFollowNow",
    "text": "YO! Tiens, j'ai quelque chose\npour toi!"
  },
  {
    "label": "Pearl2_DoneAllReward",
    "text": "Ah, je crois bien que je t'ai refilé\nmon dernier cadeau. C'est la vie.{{pageBreak}}Mais je reste ta supportrice numéro\nun, alors continue à assurer!"
  },
  {
    "label": "Pearl2_PostRewardAsFollowNow",
    "text": "On se recapte plus tard, OK?\nJ'aurai encore du matos pour toi!"
  },
  {
    "label": "Pearl2_NearReward",
    "text": "J'ai vu que tu assurais en match.\nÇa sent le cadeau pour bientôt!"
  },
  {
    "label": "Pearl2_FarReward",
    "text": "Je suis ta supportrice numéro un!\nOffre-moi du grand spectacle!"
  },
  {
    "label": "Pearl2_NoRewardAsOffline",
    "text": "Attends, t'es hors ligne ou je rêve?\nFonce dans le {{color id=\"1\"}}hall {{color id=\"65535\"}}pour régler ça!{{pageBreak}}Connecte-toi à toute vitesse et\nreviens me voir à fond les ballons.\nJ'aurai peut-être un petit quelque\nchose pour toi..."
  },
  {
    "label": "Pearl2_Remember",
    "text": "Tu veux savoir comment s'est\npassé le Grand Festival? Avec\nplaisir! Je vais tout te raconter!{{pageBreak}}Allez, c'est parti! Quand t'en auras\nassez, sélectionne {{color id=\"1\"}}Gare {{color id=\"65535\"}}pour\nrentrer."
  },
  {
    "label": "Marina2_WantFollow",
    "text": "Oh oh! Avis météo de catégorie\nextrême droit devant.{{pageBreak}}C'est toi qui souffles cet ouragan\nde style? Faut qu'on soit {{color id=\"1\"}}potes{{color id=\"65535\"}}!{{pageBreak}}Je me rendrai utile, je mémoriserai\nnon seulement ton {{color id=\"1\"}}équipement{{color id=\"65535\"}}...{{pageBreak}}... mais aussi tes {{color id=\"1\"}}réglages de\ncaméra{{color id=\"65535\"}} et tes {{color id=\"1\"}}tenues favorites{{color id=\"65535\"}}!{{pageBreak}}Tu pourras te changer en un éclair\ndepuis le menu de {{color id=\"1\"}}personnalisation{{color id=\"65535\"}}...{{pageBreak}}Alors, qu'est-ce que t'en dis?"
  },
  {
    "label": "Marina2_FollowMeHello",
    "text": "Salut!\nTout va comme tu veux?"
  },
  {
    "label": "Marina2_FollowOtherHello",
    "text": "Salut!{{pageBreak}}Tu as le bonjour de\n{{color id=\"1\"}}{{string index=\"0\" arg2=\"0\"}}{{color id=\"65535\"}}!"
  },
  {
    "label": "Marina2_NoAppDataHello",
    "text": "Quand je regarde cette ville,\nje repense toujours à notre\ntournée dans la Contrée\nClabousse...{{pageBreak}}Oh, je me suis même pas présentée.\nJe suis Coralie, des Tentacool,\nmais tu me connais peut-être\nsous le nom de DJ CORAÏ!"
  },
  {
    "label": "Marina2_NoAppDataHelloHC",
    "text": "Je me suis même pas présentée.\nJe suis Coralie, des Tentacool,\nmais tu me connais peut-être\nsous le nom de DJ CORAÏ!"
  },
  {
    "label": "Marina2_OtherAppDataHello",
    "text": "Quand je regarde cette ville,\nje repense toujours à notre\ntournée dans la Contrée\nClabousse...{{pageBreak}}Oh, je me suis même pas présentée.\nJe suis Coralie, des Tentacool,\nmais tu me connais peut-être mieux\nsous le nom de DJ CORAÏ!"
  },
  {
    "label": "Marina2_OtherAppDataHelloHC",
    "text": "Oh, laisse-moi me présenter :\nje suis Coralie, des Tentacool,\nmais tu me connais peut-être mieux\nsous le nom de DJ CORAÏ!"
  },
  {
    "label": "Marina2_WhatDo",
    "text": "Je peux t'aider?"
  },
  {
    "label": "Marina2_Reward",
    "text": "Toi, t'es pas du genre à roupiller\npendant les matchs. Tiens, cadeau!"
  },
  {
    "label": "Marina2_DoneSomeBattle",
    "text": "C'est moi, ou tu fais des étincelles\ndès que tu te pointes en match?{{pageBreak}}Ça mérite bien une récompense.\nTiens, j'espère que ça te plaira!"
  },
  {
    "label": "Marina2_RewardAsFollowNow",
    "text": "Cool. Tiens, voilà un petit cadeau\npour la peine."
  },
  {
    "label": "Marina2_DoneAllReward",
    "text": "Ah! Je crois que c'était le dernier\ncadeau que j'avais en réserve!{{pageBreak}}Mais on reste potes, pas vrai?\nAllez, va gagner un match ou deux!"
  },
  {
    "label": "Marina2_PostRewardAsFollowNow",
    "text": "J'ai d'autres trucs cool sous le\ncoude, alors repasse à l'occase!"
  },
  {
    "label": "Marina2_NearReward",
    "text": "T'assures un max! Tiens, ca...\nEuh, passe plus tard pour le cadeau."
  },
  {
    "label": "Marina2_FarReward",
    "text": "Je rate aucun de tes matchs!\nC'est normal, entre potes!"
  },
  {
    "label": "Marina2_NoRewardAsOffline",
    "text": "Euh... T'es hors ligne, là!\nMais c'est pas grave, tu peux y\nremédier en te rendant dans le {{color id=\"1\"}}hall{{color id=\"65535\"}}.{{pageBreak}}Reviens me voir quand la connexion\nsera établie. J'aurai peut-être un\npetit cadeau pour toi!"
  },
  {
    "label": "Marina2_Remember",
    "text": "Le Grand Festival? Oh, je pourrais\nen parler pendant des heures!{{pageBreak}}Alors c'est parti! Tu peux arrêter\nquand tu veux, il te suffit de\nsélectionner {{color id=\"1\"}}Gare{{color id=\"65535\"}}."
  }
]