[
  {
    "label": "PartyMoney_Up",
    "text": "빅 마더 마운틴"
  },
  {
    "label": "PartyExp_Up",
    "text": "빅 마더 가든"
  },
  {
    "label": "BattleMoney_Up_01",
    "text": "바삭 집게 샌드위치"
  },
  {
    "label": "BattleMoney_Up_02",
    "text": "바삭바삭 집게 샌드위치"
  },
  {
    "label": "BattleExp_Up_01",
    "text": "그물 롤 360°"
  },
  {
    "label": "BattleExp_Up_02",
    "text": "그물 롤 720°"
  },
  {
    "label": "MainInk_Save",
    "text": "메인 세이브 레몬"
  },
  {
    "label": "SubInk_Save",
    "text": "서브 세이브 베리"
  },
  {
    "label": "InkRecovery_Up",
    "text": "잉크 차지 멜론"
  },
  {
    "label": "HumanMove_Up",
    "text": "인간대시 토마토"
  },
  {
    "label": "SquidMove_Up",
    "text": "징어대시 애플"
  },
  {
    "label": "SpecialIncrease_Up",
    "text": "스페셜 차지 소다"
  },
  {
    "label": "RespawnSpecialGauge_Save",
    "text": "스페셜 세이브 라테"
  },
  {
    "label": "SpecialTime_Up",
    "text": "스페셜 업 사이다"
  },
  {
    "label": "RespawnTime_Save",
    "text": "쇼트 리스타트 모카"
  },
  {
    "label": "JumpTime_Save",
    "text": "쇼트 점프 오렌지"
  },
  {
    "label": "BombDistance_Up",
    "text": "서브 업 워터"
  },
  {
    "label": "OpInkEffect_Reduction",
    "text": "설피 그레이프"
  },
  {
    "label": "SubEffect_Reduction",
    "text": "서브 라이트 라임"
  },
  {
    "label": "Action_Up",
    "text": "액션 스트롱 베리"
  }
]