[
  {
    "label": "Bomb_Splash",
    "text": "Брызгающая бомба"
  },
  {
    "label": "Bomb_Suction",
    "text": "Бомба на присоске"
  },
  {
    "label": "Bomb_Quick",
    "text": "Разрывная бомба"
  },
  {
    "label": "Bomb_Curling",
    "text": "Керлинг-бомба"
  },
  {
    "label": "Bomb_Robot",
    "text": "Робобомба"
  },
  {
    "label": "Trap",
    "text": "Мина"
  },
  {
    "label": "Sprinkler",
    "text": "Распылятор"
  },
  {
    "label": "PointSensor",
    "text": "Маркер движения"
  },
  {
    "label": "PoisonMist",
    "text": "Едкий туман"
  },
  {
    "label": "Shield",
    "text": "Чернильный занавес"
  },
  {
    "label": "Beacon",
    "text": "Прыжковый маячок"
  },
  {
    "label": "Bomb_Fizzy",
    "text": "Содовая бомба"
  },
  {
    "label": "Bomb_Torpedo",
    "text": "Торпедная бомба"
  },
  {
    "label": "LineMarker",
    "text": "Углострел"
  },
  {
    "label": "SalmonBuddy",
    "text": "Малетчик"
  },
  {
    "label": "Bomb_Curling_Rival",
    "text": "-"
  },
  {
    "label": "Bomb_Quick_Rival",
    "text": "-"
  },
  {
    "label": "Bomb_Robot_Rival",
    "text": "-"
  },
  {
    "label": "Bomb_Splash_Rival",
    "text": "-"
  },
  {
    "label": "Bomb_Splash_Big_Coop",
    "text": "-"
  },
  {
    "label": "Bomb_Splash_Coop",
    "text": "-"
  },
  {
    "label": "Bomb_Splash_Sdodr",
    "text": "Брызгающая бомба"
  },
  {
    "label": "Bomb_Curling_Sdodr",
    "text": "Керлинг-бомба"
  },
  {
    "label": "Bomb_Fizzy_Sdodr",
    "text": "Содовая бомба"
  },
  {
    "label": "Bomb_Quick_Sdodr",
    "text": "Разрывная бомба"
  },
  {
    "label": "Bomb_Suction_Sdodr",
    "text": "Бомба на присоске"
  },
  {
    "label": "PoisonMist_Sdodr",
    "text": "Едкий туман"
  },
  {
    "label": "Shield_Sdodr",
    "text": "Чернильный занавес"
  },
  {
    "label": "Sprinkler_Sdodr",
    "text": "Распылятор"
  },
  {
    "label": "Trap_Sdodr",
    "text": "Мина"
  },
  {
    "label": "Bomb_Curling_Sdodr_Rival",
    "text": "-"
  },
  {
    "label": "Bomb_Splash_Sdodr_Rival",
    "text": "-"
  }
]