[
  {
    "label": "VendorOrderSelect",
    "text": "Oi, gup. Wil je wat bestellen?"
  },
  {
    "label": "VendorOrderQ",
    "text": "Heb je iets op het oog?"
  },
  {
    "label": "VendorOrder",
    "text": "Onthoud goed dat ik {{color id=\"1\"}}één bestelling per dag{{color id=\"65535\"}} ontvang, in\nde volgorde waarin ze zijn besteld. Kom ze wel {{color id=\"1\"}}ophalen{{color id=\"65535\"}}!"
  },
  {
    "label": "VendorCatalogNotHave",
    "text": "Sorry, gup. Geen schijn van kans. Die is veel te populair op\nhet moment. Als ik daar om vraag, lachen ze me vierkant uit."
  },
  {
    "label": "VendorNotSell",
    "text": "Sorry, gup, daar begin ik niet aan. Die is me te link."
  },
  {
    "label": "VendorAlreadyOrdered",
    "text": "Gaat het wel met je? Je weet dat je die al bij me hebt\nbesteld, toch?"
  },
  {
    "label": "VendorOrderListFull",
    "text": "Hoho, rustig aan. Zoveel kun je niet tegelijk bestellen.\nDan zul je eerst een oude bestelling moeten annuleren."
  },
  {
    "label": "VendorOrderSwapQ",
    "text": "Dus je wilt deze bestelling vervangen door je\nnieuwe?"
  },
  {
    "label": "VendorNoOrder",
    "text": "Ik heb geen bestellingen voor je in de aanbieding, gup."
  },
  {
    "label": "VendorOrderedList",
    "text": "Dit is wat je hebt besteld, toch?"
  },
  {
    "label": "VendorOrderedArrived",
    "text": "Kom op, gup! Je kunt een bestelling toch niet annuleren\nals hij al is bezorgd! Hoe zou dat moeten werken?"
  },
  {
    "label": "VendorOrderedCancelQ",
    "text": "Weet je zeker dat je deze bestelling wilt annuleren?\nHeel, heel zeker?"
  },
  {
    "label": "VendorOrderedCancel",
    "text": "Prima. Doen we net alsof dat nooit is gebeurd."
  }
]