{
  "version": 7,
  "rootNode": {
    "First": {
      "Path": "Work/Gyml/SdodrTalkWithAnimSet/Phase2_00F_First.spl__SdodrTalkWithAnimSet.gyml"
    },
    "IsUseFirst": true,
    "Items": [
      {
        "Path": "Work/Gyml/SdodrTalkWithAnimSet/Phase2_00F_Rnd00.spl__SdodrTalkWithAnimSet.gyml"
      },
      {
        "Path": "Work/Gyml/SdodrTalkWithAnimSet/Phase2_00F_Rnd01.spl__SdodrTalkWithAnimSet.gyml"
      },
      {
        "Path": "Work/Gyml/SdodrTalkWithAnimSet/Phase2_00F_Rnd02.spl__SdodrTalkWithAnimSet.gyml"
      }
    ],
    "Probability": 0.5
  }
}