{
  "version": 7,
  "rootNode": {
    "IsUseFirst": false,
    "Items": [
      {
        "Path": "Work/Gyml/SdodrTalkWithAnimSet/Phase3_29F_NotClr04.spl__SdodrTalkWithAnimSet.gyml"
      }
    ],
    "Probability": 1.0
  }
}