{
  "version": 7,
  "rootNode": {
    "Items": [
      {
        "Path": "Work/Gyml/SdodrTalkSet/FailureZakoLarge_00.spl__SdodrTalkSet.gyml"
      },
      {
        "Path": "Work/Gyml/SdodrTalkSet/FailureZakoLarge_01.spl__SdodrTalkSet.gyml"
      }
    ]
  }
}