{
  "version": 7,
  "rootNode": {
    "DelayTime": 3.0,
    "Items": [
      {
        "Path": "Work/Gyml/SdodrTalkSet/save_special_00.spl__SdodrTalkSet.gyml"
      }
    ],
    "Tips": "ステージ入場（サブ目標スペシャルウェポン）00"
  }
}