{
  "version": 7,
  "rootNode": {
    "DelayTime": 3.0,
    "Items": [
      {
        "Path": "Work/Gyml/SdodrTalkSet/badevent_allpaint_00.spl__SdodrTalkSet.gyml"
      }
    ],
    "Tips": "ステージ入場（わるイベント敵全塗り）00"
  }
}