{
  "version": 7,
  "rootNode": {
    "$parent": "Work/Gyml/SdodrTalk/AllLayerFailure.spl__SdodrTalkPool.gyml",
    "Items": [
      {
        "Path": "Work/Gyml/SdodrTalkSet/FailureHighLayer_00.spl__SdodrTalkSet.gyml"
      },
      {
        "Path": "Work/Gyml/SdodrTalkSet/FailureHighLayer_01.spl__SdodrTalkSet.gyml"
      }
    ]
  }
}