[
  {
    "label": "L_Guide_00-T_Info_00",
    "text": "Retour"
  },
  {
    "label": "L_Guide_01-T_Info_00",
    "text": "Retour"
  },
  {
    "label": "L_ContentsB_01-T_ExplainPict_00",
    "text": "Réussites"
  },
  {
    "label": "L_ContentsB_01-T_ExplainPict_01",
    "text": "Compétences"
  },
  {
    "label": "L_ContentsB_01-T_ExplainPict_02",
    "text": "Qualités"
  },
  {
    "label": "L_ContentsB_01-T_ExplainPict_03",
    "text": "Résultats\nau travail"
  },
  {
    "label": "L_ContentsB_01-T_ExplainPict_04",
    "text": "Discernement,\npréparation, initiative,\nconsidération,\ncommunication"
  },
  {
    "label": "L_ContentsB_01-T_ExplainPict_05",
    "text": "Bon mental, ambition,\nexpérience, charisme, rapidité"
  },
  {
    "label": "L_ContentsB_07-T_Title_00",
    "text": "2.1.0. Salmonoïdes communs"
  },
  {
    "label": "L_ContentsB_07-T_Title_01",
    "text": "2.2.0. Salmonoboss (c'est eux qui lâchent des œufs dorés)"
  },
  {
    "label": "L_ContentsB_07-T_Title_02",
    "text": "2.3.0. Autres phénomènes observés"
  },
  {
    "label": "L_ContentsB_08-T_Title_00",
    "text": "L'esprit du festival"
  },
  {
    "label": "L_ContentsB_08-T_Contents_00",
    "text": "・ Chaque festivalier doit choisir son camp !\n・ Les camps se livrent à une guerre de territoire !\n・ Des points festival récompensent tes exploits !\n・ Plus tu as de points, plus ton titre est flatteur !\n・ Les prix distribués dépendent du titre obtenu !\n・ Le camp gagnant reçoit plus de prix !\n・ Et on n'oublie pas de rendre son t-shirt festif !"
  },
  {
    "label": "L_ContentsB_09-T_Note_00",
    "text": "Pivote avec {{icon id=\"2\" arg=\"0x52B85E3F03000000\"}} et {{icon id=\"3\" arg=\"0x52B85E3F03000000\"}} !"
  },
  {
    "label": "L_ContentsB_09-T_Note_01",
    "text": "Cases spéciales"
  },
  {
    "label": "L_ContentsB_09-T_Note_02",
    "text": "Point spécial +1"
  },
  {
    "label": "L_ContentsB_09-T_Note_03",
    "text": "Utilise des points spéciaux"
  },
  {
    "label": "L_ContentsB_09-T_Note_04",
    "text": "Le nombre de points spéciaux requis\ndépend de la carte !"
  },
  {
    "label": "L_ContentsB_09-T_Note_05",
    "text": "Encre les cases de l'adversaire !"
  },
  {
    "label": "L_ContentsB_09-T_Note_06",
    "text": "OK !"
  },
  {
    "label": "L_ContentsB_09-T_Note_07",
    "text": "Non !"
  },
  {
    "label": "L_ContentsB_10-L_Guide_00-T_Info_00",
    "text": "Agrandir"
  },
  {
    "label": "L_ContentsB_10-L_Guide_01-T_Info_00",
    "text": "Retour"
  },
  {
    "label": "L_ContentsB_10-T_Contents_03",
    "text": "Lis ce {{color id=\"1\"}}QR Code{{color id=\"65535\"}} et consulte le {{color id=\"1\"}}site Internet{{color id=\"65535\"}} associé pour en savoir plus."
  }
]