[
  {
    "label": "L_BtnCategory_00-T_Category_00",
    "text": "Armes"
  },
  {
    "label": "L_BtnCategory_01-T_Category_00",
    "text": "Accessoires"
  },
  {
    "label": "L_BtnCategory_02-T_Category_00",
    "text": "Vêtements"
  },
  {
    "label": "L_BtnCategory_03-T_Category_00",
    "text": "Chaussures"
  },
  {
    "label": "L_BtnCategory_04-T_Category_00",
    "text": "Autres"
  },
  {
    "label": "L_BtnCategory_05-T_Category_00",
    "text": "Émoticônes"
  },
  {
    "label": "L_Back_00-T_Info_00",
    "text": "Retour"
  },
  {
    "label": "000",
    "text": "Favoris"
  },
  {
    "label": "001",
    "text": "Bonus"
  },
  {
    "label": "002",
    "text": "Marque"
  },
  {
    "label": "003",
    "text": "Arme principale"
  },
  {
    "label": "004",
    "text": "Arme secondaire"
  },
  {
    "label": "005",
    "text": "Arme spéciale"
  },
  {
    "label": "006",
    "text": "J'ai pas !"
  },
  {
    "label": "010",
    "text": "Essai tir"
  },
  {
    "label": "011",
    "text": "Ton style"
  },
  {
    "label": "020",
    "text": "Bonus verrouillé"
  },
  {
    "label": "050",
    "text": "Tu ne peux pas changer d'arme ou\nd'équipement pour le moment."
  },
  {
    "label": "051",
    "text": "Tu ne peux pas changer d'arme ou\nd'équipement pour le moment."
  },
  {
    "label": "052",
    "text": "Tu ne peux pas changer d'arme ou\nd'équipement pour le moment."
  },
  {
    "label": "053",
    "text": "Tu ne peux pas changer d'arme ou\nd'équipement pour le moment."
  },
  {
    "label": "L_DetailWpn_00-T_Special_00",
    "text": "Seuil arme spéciale"
  },
  {
    "label": "T_NoSort_00",
    "text": "Aucun objet trouvé."
  },
  {
    "label": "L_DetailWpn_00-T_Skilled_00",
    "text": "Score de classe"
  },
  {
    "label": "T_Fest_00",
    "text": "Impossible de changer de\nvêtement durant un festival !"
  },
  {
    "label": "L_Tab_00-T_Text_00",
    "text": "Mode TV/\nMode sur table"
  },
  {
    "label": "L_Tab_01-T_Text_00",
    "text": "Mode portable"
  },
  {
    "label": "L_Tab_02-T_Text_00",
    "text": "Style"
  },
  {
    "label": "L_Tab_03-T_Text_00",
    "text": "amiibo"
  },
  {
    "label": "L_GaugeOption_00-T_Header_00",
    "text": "Sensibilité du gyroscope"
  },
  {
    "label": "L_GaugeOption_00-T_Msg_00",
    "text": "Sans effet lorsque le\ngyroscope est désactivé."
  },
  {
    "label": "L_GaugeOption_01-T_Header_00",
    "text": "{{icon id=\"8\" arg=\"0x0000004000000000\"}} : sensibilité"
  },
  {
    "label": "L_BtnOption_00-T_Header_00",
    "text": "{{icon id=\"8\" arg=\"0x0000004000000000\"}} : axe vertical"
  },
  {
    "label": "L_BtnOption_00-T_Msg_00",
    "text": "Sans effet lorsque le\ngyroscope est activé."
  },
  {
    "label": "L_BtnOption_00-T_BtnL_00",
    "text": "Normal"
  },
  {
    "label": "L_BtnOption_00-T_BtnR_00",
    "text": "Inversé"
  },
  {
    "label": "L_BtnOption_01-T_Header_00",
    "text": "{{icon id=\"8\" arg=\"0x0000004000000000\"}} : axe horizontal"
  },
  {
    "label": "L_BtnOption_01-T_BtnL_00",
    "text": "Normal"
  },
  {
    "label": "L_BtnOption_01-T_BtnR_00",
    "text": "Inversé"
  },
  {
    "label": "L_BtnOption_02-T_Header_00",
    "text": "Gyroscope"
  },
  {
    "label": "L_BtnOption_02-T_BtnL_00",
    "text": "Oui"
  },
  {
    "label": "L_BtnOption_02-T_BtnR_00",
    "text": "Non"
  },
  {
    "label": "L_Bottom_00-T_Info_00",
    "text": "Retour"
  },
  {
    "label": "L_GaugeOption_02-T_Header_00",
    "text": "Sensibilité du gyroscope"
  },
  {
    "label": "L_GaugeOption_02-T_Msg_00",
    "text": "Sans effet lorsque le\ngyroscope est désactivé."
  },
  {
    "label": "L_GaugeOption_03-T_Header_00",
    "text": "{{icon id=\"8\" arg=\"0x0000004000000000\"}} : sensibilité"
  },
  {
    "label": "L_BtnOption_03-T_Header_00",
    "text": "{{icon id=\"8\" arg=\"0x0000004000000000\"}} : axe vertical"
  },
  {
    "label": "L_BtnOption_03-T_Msg_00",
    "text": "Sans effet lorsque le\ngyroscope est activé."
  },
  {
    "label": "L_BtnOption_03-T_BtnL_00",
    "text": "Normal"
  },
  {
    "label": "L_BtnOption_03-T_BtnR_00",
    "text": "Inversé"
  },
  {
    "label": "L_BtnOption_04-T_Header_00",
    "text": "{{icon id=\"8\" arg=\"0x0000004000000000\"}} : axe horizontal"
  },
  {
    "label": "L_BtnOption_04-T_BtnL_00",
    "text": "Normal"
  },
  {
    "label": "L_BtnOption_04-T_BtnR_00",
    "text": "Inversé"
  },
  {
    "label": "L_BtnOption_05-T_Header_00",
    "text": "Gyroscope"
  },
  {
    "label": "L_BtnOption_05-T_BtnL_00",
    "text": "Oui"
  },
  {
    "label": "L_BtnOption_05-T_BtnR_00",
    "text": "Non"
  },
  {
    "label": "L_Style_00-T_Title_00",
    "text": "Coiffure"
  },
  {
    "label": "L_Style_01-T_Title_00",
    "text": "Sourcils"
  },
  {
    "label": "L_Style_02-T_Title_00",
    "text": "Bas"
  },
  {
    "label": "L_GuideBtn_01-T_Info_00",
    "text": "Infos"
  },
  {
    "label": "030",
    "text": "Tu peux sauvegarder ton personnage,\nl'équipement qu'il porte, les paramètres de\ncaméra et tes tenues favorites sur un amiibo."
  },
  {
    "label": "031",
    "text": "Pour utiliser les amiibo, tu dois te connecter à\nInternet et télécharger la dernière mise à jour\ndu logiciel."
  },
  {
    "label": "L_Btn_00-T_Btn_00",
    "text": "Sauvegarder !"
  },
  {
    "label": "L_GuideBtn_04-T_Category_00",
    "text": "Tenues favorites"
  },
  {
    "label": "L_MySetBtnCategory_00-T_Category_00",
    "text": "Armes"
  },
  {
    "label": "L_MySetBtnCategory_01-T_Category_00",
    "text": "Accessoires"
  },
  {
    "label": "L_MySetBtnCategory_02-T_Category_00",
    "text": "Vêtements"
  },
  {
    "label": "L_MySetBtnCategory_03-T_Category_00",
    "text": "Chaussures"
  },
  {
    "label": "T_OpTitle_00",
    "text": "Sensibilité du gyroscope"
  },
  {
    "label": "T_OpTitle_01",
    "text": "{{icon id=\"8\" arg=\"0x6666263F00000000\"}} : sensibilité"
  },
  {
    "label": "T_OpTitle_02",
    "text": "{{icon id=\"8\" arg=\"0x6666263F00000000\"}} : axe vertical"
  },
  {
    "label": "T_OpTitle_03",
    "text": "{{icon id=\"8\" arg=\"0x6666263F00000000\"}} : axe horizontal"
  },
  {
    "label": "T_OpTitle_04",
    "text": "Gyroscope"
  },
  {
    "label": "T_Colon_00",
    "text": ":"
  },
  {
    "label": "T_Colon_01",
    "text": ":"
  },
  {
    "label": "T_Colon_02",
    "text": ":"
  },
  {
    "label": "T_Colon_03",
    "text": ":"
  },
  {
    "label": "T_Colon_04",
    "text": ":"
  },
  {
    "label": "040",
    "text": "Oui"
  },
  {
    "label": "041",
    "text": "Non"
  },
  {
    "label": "042",
    "text": "Normal"
  },
  {
    "label": "043",
    "text": "Inversé"
  },
  {
    "label": "044",
    "text": "{{string index=\"0\" arg2=\"1\"}}{{number index=\"0\" type=\"1\" arg3=\"0\" arg4=\"0\"}},{{number index=\"1\" type=\"1\" arg3=\"0\" arg4=\"0\"}}"
  },
  {
    "label": "045",
    "text": "Désactivé"
  },
  {
    "label": "L_TabMyset_00-T_Text_00",
    "text": "1"
  },
  {
    "label": "L_TabMyset_01-T_Text_00",
    "text": "2"
  },
  {
    "label": "L_TabMyset_02-T_Text_00",
    "text": "3"
  },
  {
    "label": "L_TabMyset_03-T_Text_00",
    "text": "4"
  },
  {
    "label": "L_TabMyset_04-T_Text_00",
    "text": "5"
  },
  {
    "label": "L_TabMyset_05-T_Text_00",
    "text": "1"
  },
  {
    "label": "L_TabMyset_06-T_Text_00",
    "text": "2"
  },
  {
    "label": "L_TabMyset_07-T_Text_00",
    "text": "3"
  },
  {
    "label": "L_TabMyset_08-T_Text_00",
    "text": "4"
  },
  {
    "label": "L_TabMyset_09-T_Text_00",
    "text": "5"
  },
  {
    "label": "L_TabAmiiboMyset_00-T_Text_00",
    "text": "1"
  },
  {
    "label": "L_TabAmiiboMyset_01-T_Text_00",
    "text": "2"
  },
  {
    "label": "L_TabAmiiboMyset_02-T_Text_00",
    "text": "3"
  },
  {
    "label": "L_TabAmiiboMyset_03-T_Text_00",
    "text": "4"
  },
  {
    "label": "L_TabAmiiboMyset_04-T_Text_00",
    "text": "5"
  },
  {
    "label": "L_MysetBtn_01-T_Text_00",
    "text": "Enregistrer la tenue"
  },
  {
    "label": "L_MysetBtn_00-T_Text_00",
    "text": "Porter la tenue"
  },
  {
    "label": "T_NonRegister_00",
    "text": "Non enregistrée"
  },
  {
    "label": "L_Bottom_01-T_Info_00",
    "text": "Retour"
  },
  {
    "label": "T_Explanation_01",
    "text": "Tu peux sauvegarder tes armes, ton équipement et les\nparamètres de la caméra sous la forme d'une tenue favorite.\nCharge-la pour t'équiper directement de ton attirail préféré."
  },
  {
    "label": "L_BtnList_08-T_SoldOut_00",
    "text": "En poche"
  }
]