[
  {
    "label": "000",
    "text": "Choisis un surnom.\n(Tu pourras le changer plus tard.)"
  },
  {
    "label": "000_Eve",
    "text": "Choisis un surnom.\n(Attention, tu ne pourras pas le changer\nplus tard dans Splatfest World Premiere.)"
  },
  {
    "label": "001",
    "text": "Est-ce que ce surnom te convient ?\nN'oublie pas que d'autres joueurs le verront."
  },
  {
    "label": "003",
    "text": "Le surnom a été enregistré.\nTu vas recevoir un identifiant commençant\npar #. Si tu changes de surnom, l'identifiant\nchangera également."
  },
  {
    "label": "L_BtnL_00-T_Btn_00",
    "text": "Changer"
  },
  {
    "label": "L_BtnR_00-T_Btn_00",
    "text": "Confirmer"
  },
  {
    "label": "Msg_ConfirmLimitOnlinePlay",
    "text": "Choisir un surnom contrevenant aux règles\ncommunautaires de Nintendo peut entraîner\ndes restrictions dans l'utilisation du jeu en ligne.\nLes règles communautaires peuvent être\nconsultées sur le site de Nintendo."
  },
  {
    "label": "BtnL_ConfirmLimitOnlinePlay",
    "text": "Changer"
  },
  {
    "label": "BtnR_ConfirmLimitOnlinePlay",
    "text": "OK"
  },
  {
    "label": "Msg_ConfirmLimitOnlinePlay2",
    "text": "Choisir un surnom contrevenant aux règles\ncommunautaires de Nintendo peut entraîner\ndes restrictions dans l'utilisation du jeu en ligne.\nLes règles communautaires peuvent être\nconsultées sur le site de Nintendo."
  },
  {
    "label": "BtnL_ConfirmLimitOnlinePlay2",
    "text": "Annuler"
  },
  {
    "label": "BtnR_ConfirmLimitOnlinePlay2",
    "text": "OK"
  }
]