[
  {
    "label": "L_PlayerName_00-T_Wait_00",
    "text": "Recherche..."
  },
  {
    "label": "L_BtnList_00-T_Btn_00",
    "text": "Ouvrir la liste de cartes"
  },
  {
    "label": "L_BtnList_01-T_Btn_00",
    "text": "Règles du jeu"
  },
  {
    "label": "L_BackBtn_00-T_Info_00",
    "text": "Retour"
  },
  {
    "label": "L_PlayerName_00-T_MngState_00",
    "text": "Disponible !"
  },
  {
    "label": "L_PlayerName_00-T_MngState_01",
    "text": "En match..."
  },
  {
    "label": "L_PlayerName_00-T_MngState_02",
    "text": "Suit un match..."
  },
  {
    "label": "L_GuideNotify_00-T_Btn_00",
    "text": "Y"
  },
  {
    "label": "000",
    "text": "Fermer la session"
  },
  {
    "label": "001",
    "text": "Quitter la session"
  }
]