[
  {
    "label": "100",
    "text": "Voir les prix"
  },
  {
    "label": "101",
    "text": "OK"
  },
  {
    "label": "200",
    "text": "×{{number index=\"0\" type=\"1\" arg3=\"0\" arg4=\"0\"}}"
  }
]