[
  {
    "label": "000",
    "text": "Vague {{number index=\"0\" type=\"1\" arg3=\"0\" arg4=\"0\"}} finie !"
  },
  {
    "label": "001",
    "text": "Vague finale terminée !"
  },
  {
    "label": "002",
    "text": "VAGUE + terminée !"
  }
]