[
  {
    "label": "L_Tab_00-T_Text_00",
    "text": "Salopettes"
  },
  {
    "label": "L_Tab_01-T_Text_00",
    "text": "Équipement"
  },
  {
    "label": "L_Tab_02-T_Text_00",
    "text": "Objets de déco"
  },
  {
    "label": "L_Tab_03-T_Text_00",
    "text": "Autocollants"
  },
  {
    "label": "L_Tab_04-T_Text_00",
    "text": "Bannières"
  },
  {
    "label": "L_Back_00-T_Info_00",
    "text": "Retour"
  },
  {
    "label": "100",
    "text": "Échanger"
  },
  {
    "label": "L_BtnSelectNum_00-T_Btn_00",
    "text": "Échanger"
  },
  {
    "label": "000",
    "text": "Non"
  },
  {
    "label": "L_SlideBtn_00-T_SoldOut_00",
    "text": "En possession"
  },
  {
    "label": "200",
    "text": "???"
  },
  {
    "label": "300",
    "text": "T'es vraiment adorable, ma p'tite\nbouille. Merci. Tiens, au fait, on a\nde nouveaux articles en stock...\nJette un coup d'œil !"
  },
  {
    "label": "301",
    "text": "Eh ben, tu lésines pas sur la\ndépense ! Et moi qui ai justement\nfait entrer une série d'articles aussi\nrares que classes... Le monde du\ncommerce est bien fait !"
  },
  {
    "label": "302",
    "text": "Oh, j'ai failli oublier de te dire que\nnous avons reçu de nouveaux\narticles. Jette donc un œil !"
  },
  {
    "label": "400",
    "text": "Dis-moi s'il y a quelque chose qui te fait envie."
  },
  {
    "label": "401",
    "text": "Oh, la poisse ! Tu manques d'écailles, j'en ai peur...\nIl va falloir ratatiner du {{color id=\"1\"}}Salmonarque{{color id=\"65535\"}}."
  },
  {
    "label": "402",
    "text": "Tu n'as pas déjà acheté cet article ? Désolée, c'est un\nexemplaire par personne maximum. Question d'équité."
  },
  {
    "label": "403",
    "text": "Désolée, c'est encore un peu tôt pour que je te vende\nça... Ceci dit, si t'avais un peu plus d'écailles..."
  },
  {
    "label": "404",
    "text": "Tu prends ça, ma p'tite bouille ?"
  },
  {
    "label": "500",
    "text": "???"
  },
  {
    "label": "600",
    "text": "Informations"
  },
  {
    "label": "700",
    "text": "×{{number index=\"0\" type=\"2\" arg3=\"0\" arg4=\"0\"}}="
  },
  {
    "label": "L_DetailCoop_00-T_Owns_00",
    "text": "En poche"
  }
]