[
  {
    "label": "000",
    "text": "×{{number index=\"0\" type=\"4\" arg3=\"0\" arg4=\"0\"}}"
  },
  {
    "label": "001",
    "text": "×{{number index=\"0\" type=\"5\" arg3=\"0\" arg4=\"0\"}}"
  },
  {
    "label": "010",
    "text": "{{number index=\"0\" type=\"4\" arg3=\"0\" arg4=\"0\"}} et plus"
  },
  {
    "label": "L_Bottom_00-T_Info_00",
    "text": "Fermer"
  },
  {
    "label": "T_Score_00",
    "text": "Record"
  },
  {
    "label": "T_Battle_00",
    "text": "Défi œuf sup'"
  },
  {
    "label": "T_Top_00",
    "text": "Top"
  },
  {
    "label": "T_NumTop_00",
    "text": "5 %"
  },
  {
    "label": "T_NumTop_01",
    "text": "20 %"
  },
  {
    "label": "T_NumTop_02",
    "text": "50 %"
  },
  {
    "label": "T_NumTop_06",
    "text": "Résultat actuel"
  }
]