[
  {
    "label": "000",
    "text": "{{number index=\"0\" type=\"1\" arg3=\"0\" arg4=\"0\"}}:{{number index=\"1\" type=\"2\" arg3=\"1\" arg4=\"0\"}}"
  },
  {
    "label": "001",
    "text": "{{number index=\"0\" type=\"3\" arg3=\"0\" arg4=\"0\"}}"
  },
  {
    "label": "002",
    "text": "{{number index=\"0\" type=\"2\" arg3=\"0\" arg4=\"0\"}}"
  },
  {
    "label": "T_Time_00",
    "text": "Temps"
  },
  {
    "label": "T_Reward_00",
    "text": "Terminé !"
  },
  {
    "label": "T_Bonus_00",
    "text": "Bonus de première fois !"
  }
]