[
  {
    "label": "000",
    "text": "Fragments requis : {{number index=\"0\" type=\"2\" arg3=\"0\" arg4=\"0\"}}"
  },
  {
    "label": "L_Btn_00-T_Btn_00",
    "text": "Non"
  },
  {
    "label": "200",
    "text": "Acheter"
  },
  {
    "label": "201",
    "text": "Augmenter"
  },
  {
    "label": "202",
    "text": "Allez !"
  },
  {
    "label": "203",
    "text": "Allez !"
  },
  {
    "label": "204",
    "text": "D'accord !"
  },
  {
    "label": "300",
    "text": "Assemblage..."
  },
  {
    "label": "301",
    "text": "Ajout de l'étoile..."
  },
  {
    "label": "302",
    "text": "Nettoyage..."
  },
  {
    "label": "303",
    "text": "Modification..."
  },
  {
    "label": "400",
    "text": "×{{number index=\"0\" type=\"1\" arg3=\"0\" arg4=\"0\"}}"
  }
]