[
  {
    "label": "L_Info_00-T_Info_00",
    "text": "Réinitialiser la caméra"
  },
  {
    "label": "L_Info_01-T_Info_00",
    "text": "Pause"
  },
  {
    "label": "L_SuperGauge_00-T_Max_01",
    "text": "Prête !"
  },
  {
    "label": "L_SuperGauge_00-T_Press_00",
    "text": "Appuie"
  },
  {
    "label": "L_Combo_00-T_Combo_01",
    "text": "COMBO !"
  },
  {
    "label": "L_Combo_00-T_Max_00",
    "text": "MAX !"
  },
  {
    "label": "L_SuperGauge_00-T_Max_02",
    "text": "Spectre max !"
  }
]