[
  {
    "label": "Armor",
    "text": "Armure !"
  },
  {
    "label": "InkBottle",
    "text": "Encre !"
  },
  {
    "label": "SpecialCharge",
    "text": "Jauge spéciale +"
  },
  {
    "label": "DroneBattery",
    "text": "Jauge du drone +"
  },
  {
    "label": "StunBombA",
    "text": "Fragment de disque !"
  },
  {
    "label": "StunBombB",
    "text": "Fragment de disque !"
  },
  {
    "label": "StunBombC",
    "text": "Fragment de disque !"
  },
  {
    "label": "ColorTip",
    "text": "Puces chromatiques !"
  }
]