[
  {
    "label": "L_Back_00-T_Info_00",
    "text": "Retour"
  },
  {
    "label": "L_Tab_00-T_Text_00",
    "text": "Match anarchie"
  },
  {
    "label": "L_Tab_01-T_Text_00",
    "text": "Match Challenge"
  },
  {
    "label": "T_X_00",
    "text": "×"
  },
  {
    "label": "030",
    "text": "Calcul..."
  },
  {
    "label": "T_NumCount_00",
    "text": "+1"
  },
  {
    "label": "000",
    "text": "Données pour {{string index=\"0\" arg2=\"0\"}} - {{string index=\"1\" arg2=\"0\"}}"
  },
  {
    "label": "010",
    "text": "Anarchie Power max"
  },
  {
    "label": "011",
    "text": "Challenge Power max"
  },
  {
    "label": "L_Detail_00-T_Rule_00",
    "text": "Mode"
  },
  {
    "label": "020",
    "text": "Position : {{number index=\"0\" type=\"3\" arg3=\"0\" arg4=\"0\"}}"
  },
  {
    "label": "L_Detail_00-T_Percent_00",
    "text": "5 %"
  },
  {
    "label": "L_Detail_00-T_Percent_01",
    "text": "20 %"
  },
  {
    "label": "L_Detail_00-T_Percent_02",
    "text": "50 %"
  },
  {
    "label": "L_Detail_00-T_Top_00",
    "text": "Top"
  },
  {
    "label": "L_Detail_01-T_Top_00",
    "text": "Top"
  }
]