[
  {
    "label": "000",
    "text": "Ça te va ?"
  },
  {
    "label": "001",
    "text": "Tout est bon ?"
  },
  {
    "label": "002",
    "text": "Adopte un look !"
  },
  {
    "label": "003",
    "text": "Et pour ton poteau ?"
  },
  {
    "label": "004",
    "text": "Et pour finir... le bas !"
  },
  {
    "label": "005",
    "text": "On passe au bas ! Tu veux quoi ?"
  },
  {
    "label": "T_Kind_00",
    "text": "Choisis un style !"
  },
  {
    "label": "T_Skin_00",
    "text": "Choisis ta couleur de peau."
  },
  {
    "label": "T_Eyes_00",
    "text": "Passons aux yeux !"
  },
  {
    "label": "T_Hair_00",
    "text": "Et maintenant, la coupe !"
  },
  {
    "label": "L_BtnDecide_00-T_Btn_00",
    "text": "Bof..."
  },
  {
    "label": "L_BtnDecide_01-T_Btn_00",
    "text": "Ouais !"
  },
  {
    "label": "T_Partner_01",
    "text": "Au tour de ton pote !"
  },
  {
    "label": "T_Eyebrow_00",
    "text": "Et les sourcils ?"
  }
]