[
  {
    "label": "Comment_00",
    "text": "Hey, kid. You look like you've got potential. I think you\ncould help shape the future of the Splatlands!{{pageBreak}}I'm Mr. Grizz. Yes, Grizzco is my company. That's my\nname on the door...and everything else. But I'm here\nto show you how Grizzco is different.{{pageBreak}}See, from the top level—that's me—to fresh, young\ntalent like you, we're committed to making the world\na better place.{{pageBreak}}So allow me to officially welcome you to the crew.\nIt's good, honest work with an honest paycheck.\nI just know you'll fit right in."
  },
  {
    "label": "Comment_01",
    "text": "Now that you're on board, let's make sure your\n{{color id=\"1\"}}training {{color id=\"65535\"}}is up to date.{{pageBreak}}Can we get started now?"
  },
  {
    "label": "Select00_Yes",
    "text": "I'm ready!"
  },
  {
    "label": "Select00_No",
    "text": "Maybe later?"
  },
  {
    "label": "Comment_02",
    "text": "That's what I like to see! You're a go-getter,\njust like a young me."
  },
  {
    "label": "Comment_03",
    "text": "I see.{{delay frames=\"15\"}} Well, we can reschedule the final onboarding\nprocess, I suppose. Just don't make this a habit!"
  },
  {
    "label": "Comment_04",
    "text": "Now then, I'll just check your records..."
  },
  {
    "label": "Comment_05",
    "text": "Everything is in order. And the helicopter is ready.\nAre you ready to hop in?{{delay frames=\"30\"}} Time is money, and money\nis helicopters, so let's go!"
  },
  {
    "label": "Comment_06",
    "text": "Hold the phone...you're a returning employee!\nWelcome back!{{delay frames=\"30\"}} I know how hard it is to stay away.{{pageBreak}}Well, I think you'll find your way around just fine.\nBut if you are interested in a refresher, it's not\na bad idea to look over the basics again."
  },
  {
    "label": "Select01_Yes",
    "text": "I'd like a refresher."
  },
  {
    "label": "Select01_No",
    "text": "No, thanks."
  },
  {
    "label": "Comment_07",
    "text": "Of course, of course. As long as you're following\nprotocols TO THE LETTER, it's a safe job.{{pageBreak}}Ah, I'm told the helicopter is ready. {{delay frames=\"30\"}}Shall we head out?"
  },
  {
    "label": "Comment_08",
    "text": "I appreciate the confidence! I'm not sure HR would\napprove of deviating from mandatory training,\nbut...let's not tell them, just this once."
  },
  {
    "label": "Comment_09",
    "text": "Oh, yeah! This may be old news to someone with your\nexperience, but word around the watercooler is some\n{{color id=\"1\"}}new Boss Salmonids{{color id=\"65535\"}} were spotted in the Splatlands."
  },
  {
    "label": "Comment_10",
    "text": "We usually require all employees to take a training\ncourse on how to defeat Boss Salmonids...{{pageBreak}}But really, it's all in the manual. Read that over and—\nOh! Sounds like the next helicopter's about to head out.{{pageBreak}}Why don't you head down to the site for a little\nsink-or-swim time?{{delay frames=\"30\"}} We can haul you—or whatever's\nleft of you—back any time you like."
  },
  {
    "label": "Comment_11",
    "text": "What do you say? Ready for some on-the-job training?"
  },
  {
    "label": "Select02_Yes",
    "text": "I'm ready!"
  },
  {
    "label": "Select02_No",
    "text": "Not now."
  },
  {
    "label": "Comment_12",
    "text": "I like that can-do attitude!{{delay frames=\"30\"}} Now get on the helicopter."
  },
  {
    "label": "Comment_13",
    "text": "Understood.{{delay frames=\"15\"}} We can table that until you're ready."
  }
]