[
  {
    "label": "XMatchOpen_00",
    "text": "Hey, you're X-tremely good at this..."
  },
  {
    "label": "XMatchOpen_01",
    "text": "But did you know your rank can get even higher?\nFrom Ｓ+{{size value=\"75\"}}０{{size value=\"100\"}} to Ｓ+{{size value=\"75\"}}５０{{size value=\"100\"}}! Don't stop now!"
  },
  {
    "label": "XMatchOpen_02",
    "text": "And...you've just unlocked {{color id=\"1\"}}X Battles{{color id=\"65535\"}}!"
  },
  {
    "label": "XMatchOpen_03",
    "text": "Instead of Rank Points, you'll gain or lose\n{{color id=\"1\"}}X Power{{color id=\"65535\"}} when you face off in an X Battle."
  },
  {
    "label": "XMatchOpen_04",
    "text": "Win enough X Power, and you could find yourself\non the X Rankings leaderboard on {{color id=\"1\"}}SplatNet 3{{color id=\"65535\"}}!"
  },
  {
    "label": "XMatchOpen_05",
    "text": "The X Rankings leaderboard will {{color id=\"1\"}}reset every\nseason{{color id=\"65535\"}}. So you always have a chance!"
  },
  {
    "label": "XMatchOpen_07",
    "text": "Alright, that's enough X-planation. Go get 'em!"
  }
]