[
  {
    "label": "Comment_00",
    "text": "Look at that—it gobbled up the ooze like it was nothin'.{{delay frames=\"30\"}}\nThat little monster has quite an appetite!"
  },
  {
    "label": "Comment_01",
    "text": "Anyway, it cleared the path for you. Go on!"
  }
]