[
  {
    "label": "C4_S02_00",
    "text": "Good work, Agent 3.{{pageBreak}}I mean, we didn't find Gramps, but we found another\n\"treasure.\" That's something!"
  },
  {
    "label": "C4_S02_01",
    "text": "{{string value=\"6\"}}Ksss-ksssh!{{fun_000F_0004 arg=\"0x0600\"}}{{delay frames=\"30\"}}{{string value=\"6\"}} Kssssssht!{{fun_000F_0004 arg=\"0x0600\"}}{{pageBreak}}...Do you read me? Come in!"
  },
  {
    "label": "C4_S02_02",
    "text": "Gramps is on the line! Hellooo, Gramps!"
  },
  {
    "label": "C4_S02_03",
    "text": "Oh, Agent 1! {{delay frames=\"15\"}}Good to hear your voice.{{pageBreak}}I'm, uh...still locked in some kinda room. Finding the\nexit is like lookin' for a needlefish in a coral reef!{{pageBreak}}OH!{{delay frames=\"15\"}} I mean, {{size value=\"75\"}}oh... I better shout whisper. {{delay frames=\"15\"}}SOMEONE'S COMING!{{size value=\"100\"}}"
  },
  {
    "label": "C4_S02_04",
    "text": "Ah. You've woken from your hibernation,\nhave you? CUTTLEFISH!"
  },
  {
    "label": "C4_S02_05",
    "text": "Hmph! That's, uh...former CAP'N Cuttlefish to...\nwhoever you are!{{pageBreak}}...Who ARE you, anyhow? Identify yourself!"
  },
  {
    "label": "C4_S02_06",
    "text": "Grrrahahaha! You're lively for an old bag of...{{delay frames=\"15\"}} Does\nyour species have bones? {{delay frames=\"15\"}}No matter!{{pageBreak}}You can call me...{{delay frames=\"15\"}}{{color id=\"1\"}}Mr. Grizz{{color id=\"65535\"}}."
  },
  {
    "label": "C4_S02_07",
    "text": "...izz? {{delay frames=\"10\"}}{{string value=\"6\"}}Ksss-ksssh!{{fun_000F_0004 arg=\"0x0600\"}} {{delay frames=\"10\"}}...know any Grizz...{{delay frames=\"10\"}}{{string value=\"6\"}} Ksss-ksssh!{{fun_000F_0004 arg=\"0x0600\"}}{{delay frames=\"10\"}}\n...mister or otherwise!"
  },
  {
    "label": "C4_S02_08",
    "text": "{{string value=\"6\"}}KSSSSSSHT!{{fun_000F_0004 arg=\"0x0600\"}}"
  },
  {
    "label": "C4_S02_09",
    "text": "Nooo! It was getting so good!{{delay frames=\"30\"}} Gramps?\nAre you still there?{{pageBreak}}Argh! I think we lost him. But we'll find him for real\nif we keep tracking the signal.{{pageBreak}}That's all you, Agent 3. Let's go!"
  }
]