[
  {
    "label": "000",
    "text": "No! NO! We didn't make it..."
  },
  {
    "label": "001",
    "text": "Splatsville! We failed yooou!"
  },
  {
    "label": "002",
    "text": "Aaay... {{string value=\"5\"}}(We were too late...){{fun_000F_0004 arg=\"0x0500\"}}"
  },
  {
    "label": "003",
    "text": "{{fun_0001_0001 arg=\"0x9A99993E\"}}{{delay frames=\"60\"}}On that day...{{delay frames=\"30\"}}a massive Fuzzball was born in space."
  }
]