[
  {
    "label": "Comment_00",
    "text": "It seems all of my work...has been for nothing."
  },
  {
    "label": "Comment_01",
    "text": "The times have changed. The world can never be as\nit was. Moving forward...is the future."
  },
  {
    "label": "Comment_02",
    "text": "I suppose this is it, then."
  },
  {
    "label": "Comment_03",
    "text": "You will not receive severance paaa{{size value=\"75\"}}aaay...{{size value=\"100\"}}"
  }
]