[
  {
    "label": "Comment_00",
    "text": "Alright. Gramps has to be up there somewhere."
  },
  {
    "label": "Comment_01",
    "text": "But there's too much Fuzzy Ooze in the way."
  },
  {
    "label": "Comment_02",
    "text": "Even Smallfry isn't THAT hungry."
  },
  {
    "label": "Comment_03",
    "text": "Um..."
  },
  {
    "label": "Comment_04",
    "text": "I just know this would be useful somehow if\nwe could combine it all..."
  },
  {
    "label": "Comment_05",
    "text": "You've always got the answer, Agent 2!"
  },
  {
    "label": "Comment_06",
    "text": "It's totally worth a shot. Let's do it!"
  },
  {
    "label": "Comment_07",
    "text": "By the power of chowder...COMBINE!"
  },
  {
    "label": "Comment_08",
    "text": "WOW!"
  },
  {
    "label": "Comment_09",
    "text": "Look out, fuzz. Here comes the Captain!"
  }
]