[
  {
    "label": "000",
    "text": "OK, now that is one big pile of {{color id=\"1\"}}Fuzzy Ooze{{color id=\"65535\"}}.{{delay frames=\"30\"}}\nThat big ol' bubble on top is probably the {{icon id=\"22\" arg=\"0x0000803F00000000\"}}{{color id=\"1\"}}Fuzzball{{color id=\"65535\"}}."
  },
  {
    "label": "001",
    "text": "I bet if you could POP that, the whole thing would\nBOOF! Disappear! But I doubt your ink'll do the trick."
  },
  {
    "label": "002",
    "text": "Eh...let's worry about that later. For now, keep\nlookin' for a way into the Octarians' base!"
  }
]