[
  {
    "label": "000",
    "text": "Welcome to {{color id=\"1\"}}Splatsville{{color id=\"65535\"}}!{{pageBreak}}This is the place to see and be seen. The hottest\nspot on the map!"
  },
  {
    "label": "001",
    "text": "If you wanna make it in THIS town, you gotta\nbe your freshest."
  },
  {
    "label": "002",
    "text": "And how do you show off your extremely fresh\nself? Online battles! Just hit up the {{color id=\"1\"}}lobby{{color id=\"65535\"}}.{{pageBreak}}Seriously, if you start making waves in battles,\neveryone around here will know your name."
  },
  {
    "label": "002_1",
    "text": "Hey, check out the {{color id=\"1\"}}train station{{color id=\"65535\"}}!{{pageBreak}}Looks like you can get to Inkopolis Square\nand back from here."
  },
  {
    "label": "003",
    "text": "Wait...WHAT?!"
  },
  {
    "label": "004",
    "text": "You're new here, and I don't mean to alarm you, but...\nthat dude is seriously scoping you from the sewer.{{pageBreak}}Whatever. It's fishy, but we'll get to that later."
  },
  {
    "label": "005",
    "text": "So where were we? Oh, right. Battles! Time to sink\ninto the ink!"
  },
  {
    "label": "006",
    "text": "If you wanna get right to it, check out the {{color id=\"1\"}}lobby{{color id=\"65535\"}}.\nOr...follow that {{color id=\"1\"}}weirdo {{color id=\"65535\"}}down the {{color id=\"1\"}}sewer{{color id=\"65535\"}}. Up to you."
  },
  {
    "label": "007",
    "text": "Go get 'em! Full splat ahead!"
  }
]