[
  {
    "label": "000",
    "text": "We're on FIRE! {{delay frames=\"15\"}}Let's keep it moving, and don't stop\ntill we hit the top!"
  },
  {
    "label": "001",
    "text": "Hm? {{delay frames=\"30\"}}This is interesting."
  },
  {
    "label": "002",
    "text": "The next floor lets you choose your own objective.{{delay frames=\"30\"}}\nYou get a different color chip for each one."
  },
  {
    "label": "003",
    "text": "Different difficulties too. {{delay frames=\"30\"}}Well, you're the one with\nlegs, Eight. {{delay frames=\"15\"}}Which way are we going?"
  }
]