[
  {
    "label": "001",
    "text": "Nooo! You cheaters beat me again! {{delay frames=\"30\"}}No fair, no fair,\nNO FAIR!"
  },
  {
    "label": "002",
    "text": "Nice going, Eight! {{delay frames=\"30\"}}Another Palette reconfigured."
  },
  {
    "label": "003",
    "text": "FINE, THEN! {{delay frames=\"15\"}}But this isn't over! {{delay frames=\"30\"}}I'm gonna keep twying\nfor evewyone's dweams!"
  },
  {
    "label": "011",
    "text": "Right on! {{delay frames=\"30\"}}Now we can reconfigure this Palette too."
  },
  {
    "label": "012",
    "text": "WAAAHHH! {{delay frames=\"15\"}}I wost AGAIN! {{delay frames=\"30\"}}Cheaters! Hacks! NO FAIR!"
  },
  {
    "label": "013",
    "text": "Maybe think about giving up."
  },
  {
    "label": "014",
    "text": "Nuh-uh, no way! {{delay frames=\"30\"}}I'm gonna make a world of order where\nevewyone can be happy."
  },
  {
    "label": "015",
    "text": "Smollusk? {{delay frames=\"15\"}}More like Bawlusk."
  },
  {
    "label": "021",
    "text": "Scratch one more Palette off the list."
  },
  {
    "label": "022",
    "text": "Whyyy can't I winnn?! {{delay frames=\"30\"}}Evewything is so UNFAIR!"
  },
  {
    "label": "023",
    "text": "Evewyone helped make the Memverse, {{delay frames=\"15\"}}so it should be\nthe world evewyone wants!"
  },
  {
    "label": "024",
    "text": "\"Everyone\" made it? {{delay frames=\"30\"}}I thought the Memverse was\na solo Marina joint."
  },
  {
    "label": "025",
    "text": "I'm sick of wooking at you dum-dums! {{delay frames=\"30\"}}Go away,\npwetty pwease! {{delay frames=\"30\"}}PBBBTTT!"
  },
  {
    "label": "031",
    "text": "Alright, we spanked you yet again. {{delay frames=\"30\"}}So...{{delay frames=\"15\"}}you gonna spill\nhow you're connected to the making of the Memverse?"
  },
  {
    "label": "032",
    "text": "Squee! {{delay frames=\"30\"}}Take-no-prisoners Pearl is my favorite Pearl."
  },
  {
    "label": "033",
    "text": "You dwive a hard bargain, {{delay frames=\"15\"}}but I'm a good AI who keeps\nits pwomises. {{delay frames=\"30\"}}So I'll tell you a wittle bit."
  },
  {
    "label": "034",
    "text": "In their hearts, {{delay frames=\"15\"}}all the Octoling engineers who helped\nbuild the Memverse shared a phiwosophy."
  },
  {
    "label": "035",
    "text": "It wasn't conscious. {{delay frames=\"15\"}}But somewhere inside, they all\nwanted a world that would never change."
  },
  {
    "label": "036",
    "text": "So you're saying...{{delay frames=\"15\"}}those desires got mixed into the\nMemverse? {{delay frames=\"15\"}}And that's how Order was born?"
  },
  {
    "label": "037",
    "text": "But what good would a world without change do them?"
  },
  {
    "label": "038",
    "text": "That's a good question. {{delay frames=\"30\"}}And you meanies are NEVER\ngonna know the answer!"
  },
  {
    "label": "039",
    "text": "Yikes. This one's a tough nut to crack."
  },
  {
    "label": "041",
    "text": "Pfffttt..."
  },
  {
    "label": "042",
    "text": "You look like a beach ball on the last day of summer."
  },
  {
    "label": "043",
    "text": "I wost again... {{delay frames=\"30\"}}Why can't I win? They're a bunch of\nmeanies, and I'm on the side of wighteousness!"
  },
  {
    "label": "044",
    "text": "Sniff...{{delay frames=\"30\"}}sniff..."
  },
  {
    "label": "045",
    "text": "{{size value=\"150\"}}WAAAAAAAAAAAAHHH!{{size value=\"100\"}}"
  },
  {
    "label": "051",
    "text": "I got snapped into eight pieces! {{delay frames=\"30\"}}Waaahhh!"
  },
  {
    "label": "052",
    "text": "Ummm...{{delay frames=\"15\"}}what did you mean when you said we're the\nreason Octolings want a world that never changes?"
  },
  {
    "label": "053",
    "text": "Sniff... Sniff..."
  },
  {
    "label": "054",
    "text": "You dummies gotta know by now {{delay frames=\"15\"}}how many Octolings\nwent to the surface over the past five years or so."
  },
  {
    "label": "055",
    "text": "The Octoling world used to be peaceful and stable.{{delay frames=\"15\"}}\nBut it's changed. All because of the bwockheads who\nlonged to wive on the surface."
  },
  {
    "label": "056",
    "text": "Not everyone was cool with the mass exodus. {{delay frames=\"30\"}}You're\nsaying the Memverse devs felt that way too?"
  },
  {
    "label": "057",
    "text": "Which is why an unchanging world was so appealing\nto them..."
  },
  {
    "label": "058",
    "text": "YUP! {{delay frames=\"30\"}}Evewyone hates the dummies who threw away the\nold Octoling world. {{delay frames=\"30\"}}That means YOU, Eight and Mawina!"
  },
  {
    "label": "061",
    "text": "Pfffttt..."
  },
  {
    "label": "062",
    "text": "Y'know something weird? {{delay frames=\"15\"}}You got this look on your\nface like this is all a big snooze."
  },
  {
    "label": "063",
    "text": "Pwuh?!"
  },
  {
    "label": "064",
    "text": "Pearl! {{delay frames=\"15\"}}What are you saying?"
  },
  {
    "label": "065",
    "text": "You talk big about the dream, and your purpose, and\nalla that. {{delay frames=\"15\"}}But is this REALLY what you want?"
  },
  {
    "label": "066",
    "text": "O-of course! {{delay frames=\"30\"}}I weally do want it! {{delay frames=\"30\"}}Who says I don't?!"
  },
  {
    "label": "067",
    "text": "Yeah? {{delay frames=\"15\"}}Something tells me maybe not. {{delay frames=\"30\"}}But if you say\nso, {{delay frames=\"15\"}}we'll just reconfigure this Palette and bounce!"
  },
  {
    "label": "068",
    "text": "{{string value=\"5\"}}.{{delay frames=\"5\"}}.{{delay frames=\"5\"}}.{{fun_000F_0004 arg=\"0x0500\"}}"
  },
  {
    "label": "071",
    "text": "Of course I wost. {{delay frames=\"30\"}}I'm just...sniff...a weak\nwittle baaabyyy!"
  },
  {
    "label": "072",
    "text": "Did you just call yourself \"weak\"? {{delay frames=\"30\"}}Man, it burns me\nup inside when tough opponents say that."
  },
  {
    "label": "073",
    "text": "You think I'm...{{delay frames=\"15\"}}tough?"
  },
  {
    "label": "074",
    "text": "I just said so, didn't I? {{delay frames=\"30\"}}All those times you put us\nthrough the wringer, and you still got the nerve to\ngo \"boo-hoo, I'm sooo weak\"?"
  },
  {
    "label": "075",
    "text": "{{size value=\"75\"}}Awww, Peawl!{{size value=\"100\"}}"
  },
  {
    "label": "076",
    "text": "Just this once...{{delay frames=\"30\"}}I'll wook the other way! {{delay frames=\"30\"}}Do your\nbusiness here and then go home!"
  },
  {
    "label": "081",
    "text": "Aaahhh, I wost! {{delay frames=\"30\"}}I'm a big ol' woser!"
  },
  {
    "label": "082",
    "text": "Oh well. I wost, and that's all there is to say about it.{{delay frames=\"30\"}}\nGo ahead and do your thing with the Palette!"
  },
  {
    "label": "083",
    "text": "Hey, um...{{delay frames=\"15\"}}have you thought about...{{delay frames=\"15\"}}NOT fighting us\nnext time? Maybe?"
  },
  {
    "label": "084",
    "text": "Don't be siwwy! {{delay frames=\"30\"}}If I let you weconfigure ALL the\nPalettes, then I'd..."
  },
  {
    "label": "085",
    "text": "Don't leave us hanging. You'd what?"
  },
  {
    "label": "086",
    "text": "Bleaaahhh! {{delay frames=\"30\"}}Forget it! You won't get me to give up\nthat easiwy!"
  },
  {
    "label": "091",
    "text": "Whew. {{delay frames=\"15\"}}One more reconfigured Palette on the books!"
  },
  {
    "label": "092",
    "text": "So...um...{{delay frames=\"15\"}}are you leaving so soon?"
  },
  {
    "label": "093",
    "text": "Easy there. That wasn't the last Palette we need to\nreconfigure. {{delay frames=\"30\"}}You'll see us again."
  },
  {
    "label": "094",
    "text": "You better hope not! {{delay frames=\"15\"}}I'll definitewy win next time!{{delay frames=\"30\"}}\nI can't wait to{{string value=\"5\"}}...{{fun_000F_0004 arg=\"0x0500\"}}"
  },
  {
    "label": "095",
    "text": "{{size value=\"150\"}}NEVER MIND! {{delay frames=\"30\"}}FORGET IT AND GO!{{size value=\"100\"}}"
  },
  {
    "label": "101",
    "text": "Aaand that should do it! {{delay frames=\"30\"}}Congrats, Eight! {{delay frames=\"15\"}}We finally\nreconfigured your Palette."
  },
  {
    "label": "102",
    "text": "Bet you'll breathe easier now."
  },
  {
    "label": "103",
    "text": "So that's it, huh? {{delay frames=\"30\"}}You meanies beat...{{delay frames=\"30\"}}I mean,\nyou folks beat me fair and square."
  },
  {
    "label": "104",
    "text": "You know it's gotten real when even Smollusk is\nthrowing in the towel."
  },
  {
    "label": "105",
    "text": "The Memverse is gonna be a place to save Octolings.{{delay frames=\"15\"}}\nJust like Mawina wanted."
  },
  {
    "label": "106",
    "text": "So much for the dweams of evewyone who wanted\na place for order..."
  },
  {
    "label": "107",
    "text": "But hey! {{delay frames=\"15\"}}Sticking awound as the \"big boss\" of the\nSpire won't be so bad."
  },
  {
    "label": "108",
    "text": "Aw, Smollusk..."
  },
  {
    "label": "109",
    "text": "I always got a wittle thwilled when you'd come up\nhere again and again."
  },
  {
    "label": "110",
    "text": "I hope your lives go good in the weal world! {{delay frames=\"30\"}}Pwease?"
  },
  {
    "label": "111",
    "text": "And, um...{{delay frames=\"30\"}}if you wanna make me smile sometimes...\ncome back to pway with me?"
  },
  {
    "label": "301",
    "text": "Grrrrrrrr! {{delay frames=\"15\"}}You're pwetty tough customers."
  },
  {
    "label": "302",
    "text": "Look who's talking...{{delay frames=\"30\"}} That could've gone way worse!"
  },
  {
    "label": "303",
    "text": "HAWWOOMFF! {{delay frames=\"30\"}}I won't wose next time!"
  },
  {
    "label": "311",
    "text": "Awww. I thought things would go diffwent that time."
  },
  {
    "label": "312",
    "text": "Score one for the good guys!"
  },
  {
    "label": "313",
    "text": "Gwaaah! {{delay frames=\"15\"}}Next time, you'll be sowwy! {{delay frames=\"30\"}}Now get out\nof here, you dum-dums! PPPBBBTTT!"
  },
  {
    "label": "321",
    "text": "Huff...{{delay frames=\"15\"}}puff...{{delay frames=\"30\"}}phew. You won't find me so easy next\ntime, I pwomise."
  },
  {
    "label": "322",
    "text": "Isn't that a stock phrase for small-time villains? {{delay frames=\"30\"}}I bet\nI know exactly where you get your material."
  },
  {
    "label": "323",
    "text": "HEY! No metacommentawy, pwease! {{delay frames=\"15\"}}Now take a hike,\nyou meanies!"
  },
  {
    "label": "501",
    "text": "Wow! {{delay frames=\"15\"}}You and Peawl are super tough, Eight!"
  },
  {
    "label": "502",
    "text": "Right back atcha, bud!"
  },
  {
    "label": "503",
    "text": "That was fun. {{delay frames=\"30\"}}Pwease come and pway with me\nagain sometime!"
  },
  {
    "label": "511",
    "text": "Gweat job! You fought wike you meant it!"
  },
  {
    "label": "512",
    "text": "You too, Smollusk! I'm so proud of you. {{delay frames=\"30\"}}I hope you'll\nstay on as the Spire's final boss!"
  },
  {
    "label": "513",
    "text": "I will! {{delay frames=\"15\"}}I'm excited to meet all the Octolings who are\ngonna come chawwenge me. {{delay frames=\"30\"}}And I hope you folks\nwon't be stwangers, OK? Pwease?"
  },
  {
    "label": "521",
    "text": "That was incwedible, Eight! {{delay frames=\"30\"}}You were way too fast and\nstwong for me."
  },
  {
    "label": "522",
    "text": "Don't sell yourself short, Smollusk. {{delay frames=\"15\"}}You're no slouch\neither. {{delay frames=\"30\"}}Sorry if we interrupted you on break."
  },
  {
    "label": "523",
    "text": "I told you, I NEVER slack off! {{delay frames=\"30\"}}Next time, you'll face\na Smollusk with NO BWAKES!"
  }
]