[
  {
    "label": "Spring",
    "text": "春 Fresh Season"
  },
  {
    "label": "Summer",
    "text": "夏 Sizzle Season"
  },
  {
    "label": "Autumn",
    "text": "秋 Drizzle Season"
  },
  {
    "label": "Winter",
    "text": "冬 Chill Season"
  }
]