[
  {
    "label": "Tag_LastOneMinute",
    "text": "　還剩1分鐘！"
  },
  {
    "label": "Tag_ExtraTime",
    "text": "延長賽！"
  },
  {
    "label": "Tag_WipeOut",
    "text": "WIPEOUT!!!"
  },
  {
    "label": "Tag_CountLead",
    "text": "我方計數已領先！"
  },
  {
    "label": "Tag_VlfCheckPointPass",
    "text": "我方已突破第{{number index=\"0\" type=\"1\" arg3=\"0\" arg4=\"0\"}}關卡！"
  },
  {
    "label": "Tag_VglCheckPointPass",
    "text": "我方已突破關卡！"
  },
  {
    "label": "Tag_VclGoalOpen",
    "text": "敵方防護罩已遭破壞！"
  },
  {
    "label": "Tag_TclNoroshiAppear",
    "text": "超級信號已出現！"
  },
  {
    "label": "Tag_TclNoroshiGet",
    "text": "成功奪得超級信號！"
  }
]