[
  {
    "label": "001_Sub",
    "text": ""
  },
  {
    "label": "001_Name",
    "text": "Octotiran P0-T3N"
  },
  {
    "label": "101_Sub",
    "text": "Eén voor alen, alen voor één"
  },
  {
    "label": "101_Name",
    "text": "Muriël"
  },
  {
    "label": "102_Sub",
    "text": "Roofdier onder de roofdieren"
  },
  {
    "label": "102_Name",
    "text": "Haya"
  },
  {
    "label": "103_Sub",
    "text": "De mantastorm"
  },
  {
    "label": "103_Name",
    "text": "Ray"
  },
  {
    "label": "104_Sub",
    "text": "Berenexperiment 03"
  },
  {
    "label": "104_Name",
    "text": "Ted B."
  }
]