[
  {
    "label": "miss_ippatsu_ink",
    "text": "De missie is mislukt omdat u in aanraking bent gekomen\nmet vijandelijke inkt."
  },
  {
    "label": "miss_ippatsu_damage",
    "text": "De missie is mislukt omdat u in aanraking bent gekomen\nmet vijandelijke inkt."
  },
  {
    "label": "miss_mato",
    "text": "De missie is mislukt omdat u een doelwit hebt gemist."
  },
  {
    "label": "miss_ng_hako",
    "text": "De missie is mislukt omdat u een verkeerde kist hebt\nstukgemaakt."
  },
  {
    "label": "miss_ng_mato",
    "text": "De missie is mislukt omdat u een blunderballon hebt\nlaten knallen."
  },
  {
    "label": "miss_oneshot",
    "text": "De missie is mislukt omdat u niet alle doelwitten hebt\nstukgemaakt."
  },
  {
    "label": "006",
    "text": "De missie is mislukt omdat uw inkt op is."
  },
  {
    "label": "007",
    "text": "De missie is mislukt omdat uw tijd om is."
  },
  {
    "label": "notEnoughIkura",
    "text": "U hebt niet genoeg visseneieren voor deze uitdaging."
  },
  {
    "label": "first00",
    "text": "Gebruik {{icon id=\"4\" arg=\"0x0000803F00000000\"}} om de wapenbeschrijvingen te bekijken.\nDruk op {{icon id=\"0\" arg=\"0x0000803F00000000\"}} om uw wapenselectie te bevestigen."
  },
  {
    "label": "firstA",
    "text": "Een selectie wapens uit uw eigen heldenuitrusting."
  },
  {
    "label": "takopod00",
    "text": "Deze missie stelt uw navigatievaardigheden op de proef.\nBereik het doel."
  },
  {
    "label": "takopodA",
    "text": "Een selectie wapens uit uw eigen heldenuitrusting."
  },
  {
    "label": "takopodB",
    "text": "Plenzer: Houd {{icon id=\"12\" arg=\"0x0000803F00000000\"}} ingedrukt om uw Plenzer te openen."
  },
  {
    "label": "takopodC",
    "text": "Spetling: Houd {{icon id=\"12\" arg=\"0x0000803F00000000\"}} ingedrukt om op te laden en laat\ndan los om de inkt over een grote afstand af te vuren."
  },
  {
    "label": "takoHouse00",
    "text": "Deze missie test uw reactietijd met een serie\nlevensgevaarlijke, maar speelse verrassingen."
  },
  {
    "label": "takoHouseA",
    "text": "Een selectie wapens uit uw eigen heldenuitrusting."
  },
  {
    "label": "takoHouseB",
    "text": "Paraplenzer: Houd {{icon id=\"12\" arg=\"0x0000803F00000000\"}} ingedrukt om inkt af te vuren\nterwijl het scherm is uitgeklapt."
  },
  {
    "label": "takoHouseC",
    "text": "Klodderblaster: Neem uw doelwitten onder vuur met\nexplosieve inktprojectielen."
  },
  {
    "label": "indoor00",
    "text": "Deze missie is een beproeving van uw verstoppertje-\nvaardigheden, het is aan u om alle sleutels te vinden."
  },
  {
    "label": "indoorA",
    "text": "Een selectie wapens uit uw eigen heldenuitrusting."
  },
  {
    "label": "allPaint00",
    "text": "Tijdens deze missie maakt u kennis met de sport\nextreem schminken."
  },
  {
    "label": "allPaintA",
    "text": "Kliederkachel: Spuit effectief inkt over grote afstand\nmet de explosieve schoten van de Kliederkachel."
  },
  {
    "label": "easyKagidume00",
    "text": "Uitstrekken, grijpen en vasthouden! Zet de Tentakabel\nop de juiste wijze in om het doel te bereiken."
  },
  {
    "label": "easyKagidumeA",
    "text": "Tentakabel: Druk op {{icon id=\"10\" arg=\"0x0000803F00000000\"}} om uzelf te lanceren en\naan muren vast te houden."
  },
  {
    "label": "dendenSalmon00",
    "text": "Tijdens deze missie ontdekken u en uw Salmini-partner\nhet belang van teamwork."
  },
  {
    "label": "dendenSalmonA",
    "text": "Met {{icon id=\"10\" arg=\"0x0000803F00000000\"}} gooit u uw Salmini.\nZiet u wel dat teamwork leuk kan zijn?"
  },
  {
    "label": "1shot00",
    "text": "In deze missie testen we uw optimisme uit met een\nformidabele taak: maak alle doelwitten tegelijk stuk."
  },
  {
    "label": "1shotA",
    "text": "E-liter 4K: Houd {{icon id=\"12\" arg=\"0x0000803F00000000\"}} ingedrukt om een inktschot op te\nladen en laat los om te vuren."
  },
  {
    "label": "1shotB",
    "text": "E-liter 4K met vizier: Laad met {{icon id=\"12\" arg=\"0x0000803F00000000\"}} een schot op en\nneem verre doelwitten op de korrel."
  },
  {
    "label": "stringer00",
    "text": "Tijdens deze missie gebruikt u de opvallende\nkenmerken van de Triospanner om uw doel te bereiken."
  },
  {
    "label": "stringerA",
    "text": "Triospanner: Gebruik dit wapen om met één schot inkt\nin drie richtingen te schieten."
  },
  {
    "label": "railBoxHard00",
    "text": "Deze missie stelt uw stressmanagement op de proef.\nProbeer gedurende 60 seconden te overleven."
  },
  {
    "label": "railBoxHard01",
    "text": "Het kan leuk zijn om zomaar wat rond te springen, maar\nals u wilt overleven, raden we u aan eerst na te denken."
  },
  {
    "label": "railBoxHard02",
    "text": "Verzamel alleen de visseneieren die binnen het bereik\nvan uw sprongen zijn."
  },
  {
    "label": "railBoxHardA",
    "text": "Het is verboden om wapens mee te nemen, om onnodige\nrisico's tijdens het springen te verkleinen."
  },
  {
    "label": "spin00",
    "text": "In deze missie navigeert u door een parcours vol\ndraaiende objecten op weg naar uw doel."
  },
  {
    "label": "spinA",
    "text": "Een selectie wapens uit uw eigen heldenuitrusting."
  },
  {
    "label": "spinB",
    "text": "Mini-Spetling: Een variant van de spetling die bijzonder\nsnel opgeladen en klaar om te vuren is."
  },
  {
    "label": "spinC",
    "text": "Teleblaster: Bestook uw doelwitten met explosieve\ninktballen."
  },
  {
    "label": "spongeClimb00",
    "text": "In deze missie zuigt u kennis op en traint u uw talenten\ndoor sponzen te gebruiken om het doel te bereiken."
  },
  {
    "label": "spongeClimbA",
    "text": "Een selectie wapens uit uw eigen heldenuitrusting."
  },
  {
    "label": "spongeClimbB",
    "text": "Dubbelplonzers: Om een ontwijkduik uit te voeren drukt\nu op {{icon id=\"1\" arg=\"0x0000803F00000000\"}} terwijl u rondloopt en vuurt."
  },
  {
    "label": "spongeClimbC",
    "text": "Bamboem 14-A: Houd {{icon id=\"12\" arg=\"0x0000803F00000000\"}} ingedrukt om een inktschot\nop te laden en laat los om te vuren."
  },
  {
    "label": "snakeLecture00",
    "text": "In deze missie moet u het doel bereiken door handig\ngebruik te maken van uitschuifblokken."
  },
  {
    "label": "snakeLectureA",
    "text": "Een selectie wapens uit uw eigen heldenuitrusting."
  },
  {
    "label": "snakeLectureB",
    "text": "Spatkuip: Dit wapen vuurt vier stuiterende\ninktprojectielen af."
  },
  {
    "label": "snakeLectureaC",
    "text": "Octokwast: Druk herhaaldelijk op {{icon id=\"12\" arg=\"0x0000803F00000000\"}} om inkt rond te\nslingeren."
  },
  {
    "label": "railFirst00",
    "text": "In deze missie vernietigt u doelwitten op uw weg naar\nhet doel."
  },
  {
    "label": "railFirstA",
    "text": "Straalplonzer: Dit wapen heeft een groot bereik en kan\ndoelwitten op lange afstand vernietigen."
  },
  {
    "label": "railFirstB",
    "text": "Morser: Hiermee kunt u meerdere doelwitten tegelijk\nkapotmaken."
  },
  {
    "label": "railFirstC",
    "text": "Nautilus 47: Een spetling die al tijdens het vuren kan\nworden opgeladen."
  },
  {
    "label": "kanitank00",
    "text": "In deze missie kruipt u in de Krabbentank om het doel\nte bereiken."
  },
  {
    "label": "kanitank01",
    "text": "Vernietig alle doelwitten."
  },
  {
    "label": "kanitankA",
    "text": "Krabbentank: Vuur inkt af met {{icon id=\"12\" arg=\"0x0000803F00000000\"}} of {{icon id=\"10\" arg=\"0x0000803F00000000\"}}.\nDruk op {{icon id=\"11\" arg=\"0x0000803F00000000\"}} om te rollen."
  },
  {
    "label": "mazeClimb00",
    "text": "Deze missie test uw richtingsgevoel.\nVind een weg door het doolhof en bereik het doel."
  },
  {
    "label": "mazeClimbA",
    "text": ".96 Kaliter: Een wapen met een groot bereik dat ook\nerg krachtig is."
  },
  {
    "label": "inkLimitPaintFes00",
    "text": "Deze missie test uw vindingrijkheid. U moet het doel\nbereiken hoewel u slechts weinig inkt heeft."
  },
  {
    "label": "inkLimitPaintFes01",
    "text": "Gebruik uw inkt spaarzaam. U kunt uw inkt niet\naanvullen."
  },
  {
    "label": "inkLimitPaintFesA",
    "text": "Teleblaster: Bestook uw doelwitten met explosieve\ninktballen."
  },
  {
    "label": "courceMake00",
    "text": "In deze missie heeft u een scherp oog voor schakelaars\nnodig om de weg naar het doel te openen."
  },
  {
    "label": "courceMake01",
    "text": "Activeer alle verborgen schakelaars die in het level te\nvinden zijn."
  },
  {
    "label": "courceMakeA",
    "text": "Superspetter Pro: Dit wapen kan heel ver schieten.\nLet goed op uw resterende inkt!"
  },
  {
    "label": "battleHill00",
    "text": "Deze missie simuleert verfrissende buitenactiviteiten.\nZorg dat u de top bereikt."
  },
  {
    "label": "battleHillA",
    "text": "Een selectie wapens uit uw eigen heldenuitrusting."
  },
  {
    "label": "battleHillB",
    "text": "Dubbelknallers: Om een ontwijkduik uit te voeren drukt\nu op {{icon id=\"1\" arg=\"0x0000803F00000000\"}} terwijl u rondloopt en vuurt."
  },
  {
    "label": "battleHillC",
    "text": "Blusling: Een zware spetling met een groter bereik,\nmaar ook een langere oplaadtijd."
  },
  {
    "label": "airJam00",
    "text": "In deze missie wordt u geconfronteerd met gesimuleerd\nluchtverkeer. Begeef u voorzichtig naar het doel."
  },
  {
    "label": "airJamA",
    "text": "Een selectie wapens uit uw eigen heldenuitrusting."
  },
  {
    "label": "airJamB",
    "text": "Carbonroller: Druk tijdens een sprong op {{icon id=\"12\" arg=\"0x0000803F00000000\"}} om inkt\nmet een verticale zwaai voor u uit te slingeren."
  },
  {
    "label": "airJamC",
    "text": "L-3 Stompsnuit: Druk op {{icon id=\"12\" arg=\"0x0000803F00000000\"}} om drie schoten\nsnel achterelkaar af te vuren."
  },
  {
    "label": "snakeBomb00",
    "text": "In deze missie leert u rolververs te gebruiken\nom bij uw bestemming te komen."
  },
  {
    "label": "snakeBombA",
    "text": "Een selectie wapens uit uw eigen heldenuitrusting."
  },
  {
    "label": "snakeBombB",
    "text": "Triomorser: Slinger inkt in drie richtingen voor u uit."
  },
  {
    "label": "curling00",
    "text": "In deze missie moet u op weg naar uw doel elk doelwit\nvernietigen."
  },
  {
    "label": "curlingA",
    "text": "Curlingbom: Hoe langer u {{icon id=\"10\" arg=\"0x0000803F00000000\"}} ingedrukt houdt,\nhoe minder ver u deze bom na het loslaten lanceert."
  },
  {
    "label": "brushRush00",
    "text": "In deze missie moet u elk doelwit vernietigen en daarbij\nuitkijken voor de Octoborstel."
  },
  {
    "label": "brushRushA",
    "text": "Morser: Hiermee kunt u veel doelwitten tegelijk\nkapotmaken."
  },
  {
    "label": "brushRushB",
    "text": "Inktkwast: Verover snel terrein terwijl u verft, of druk\nherhaaldelijk op {{icon id=\"12\" arg=\"0x0000803F00000000\"}} om overal inkt heen te slingeren."
  },
  {
    "label": "brushRushC",
    "text": "Flexroller: Een zwaai in de horizontale houding werpt\nsnel inkt. In de verticale houding slingert u inkt verder."
  },
  {
    "label": "forwardShoot00",
    "text": "In deze missie moet u binnen een minuut alle doelwitten\nkapotmaken."
  },
  {
    "label": "forwardShootA",
    "text": "Floeper: Houd {{icon id=\"12\" arg=\"0x0000803F00000000\"}} ingedrukt om een oppervlak te\nverven, of druk kort om er wat verder mee te schieten."
  },
  {
    "label": "forwardShootB",
    "text": "H-3 Langsnuit: Vuur drie inktklodders achterelkaar af,\nwaarmee u drie doelen op een rij kunt kapotmaken."
  },
  {
    "label": "forwardShootC",
    "text": "Octopoets: Laad uw schot volledig op om meerdere\ndoelwitten tegelijk te vernietigen."
  },
  {
    "label": "inkRailMountain00",
    "text": "In deze missie demonstreert u soepele actie die er ook\nnog cool uitziet. Bereik via inktrails het doel."
  },
  {
    "label": "inkRailMountain01",
    "text": "Opmerking: Een trefzekere en kordate inzet van\nbommen kan het verschil maken."
  },
  {
    "label": "inkRailMountainA",
    "text": "Flitsblaster Pro: De blaster met het grootste bereik."
  },
  {
    "label": "inkRailMountainB",
    "text": "Superspetter: Een eenvoudig, makkelijk te hanteren\nwapen."
  },
  {
    "label": "liftOnTheWater00",
    "text": "Deze missie test of u goed kunt multitasken.\nGebruik propellerplatformen om bij het doel te komen."
  },
  {
    "label": "liftOnTheWaterA",
    "text": "Een selectie wapens uit uw eigen heldenuitrusting."
  },
  {
    "label": "liftOnTheWaterB",
    "text": "Nautilus 47: Een aangepaste spetling die ook tijdens\nhet zwemmen opgeladen blijft."
  },
  {
    "label": "liftOnTheWaterC",
    "text": "Spetbuizer: Dit wapen kan een opgeladen schot heel\nlang bewaren."
  },
  {
    "label": "takohopper00",
    "text": "In deze missie kijken vijanden letterlijk op u neer.\nVersla ze op uw weg omhoog."
  },
  {
    "label": "takohopperA",
    "text": "Een selectie wapens uit uw eigen heldenuitrusting."
  },
  {
    "label": "takohopperB",
    "text": "Morser: Val vijanden op hoge plekken of achter muren\naan met een lading inkt."
  },
  {
    "label": "takohopperC",
    "text": "Quadhoppers Zwart: Met deze set dubbelknallers kunt\nu vier ontwijkduiken achterelkaar uitvoeren."
  },
  {
    "label": "takostrikeFall00",
    "text": "In deze missie zwemt u tegen de stroom in en moet u\nvijanden ontwijken om het doel te bereiken."
  },
  {
    "label": "takostrikeFall01",
    "text": "Een selectie wapens uit uw eigen heldenuitrusting."
  },
  {
    "label": "takostrikeFall02",
    "text": "Octopoets: Laad een schot op met {{icon id=\"12\" arg=\"0x0000803F00000000\"}} om inkt\nover een lange afstand af te vuren."
  },
  {
    "label": "takostrikeFall03",
    "text": "Octokwast: Houd {{icon id=\"12\" arg=\"0x0000803F00000000\"}} ingedrukt om de grond te verven\nterwijl u rondloopt."
  },
  {
    "label": "snakeSalmon00",
    "text": "In deze missie moet u handig gebruikmaken van\nuitschuifblokken om het doel te bereiken."
  },
  {
    "label": "snakeSalmonA",
    "text": "Spettertuit: Door het korte bereik van dit wapen\nzult u goed moeten samenwerken met uw Salmini."
  },
  {
    "label": "snakeSalmonB",
    "text": "Triospanner: Houd {{icon id=\"12\" arg=\"0x0000803F00000000\"}} ingedrukt om een schot op te\nladen."
  },
  {
    "label": "dieCutting00",
    "text": "In deze missie zoeft u rond met de Tentakabel om\nkisten te breken en de linker vorm na te maken."
  },
  {
    "label": "dieCutting01",
    "text": "Als u een verkeerde kist stukmaakt, mislukt de missie."
  },
  {
    "label": "dieCutting02",
    "text": "Druk op {{icon id=\"10\" arg=\"0x0000803F00000000\"}} om u met de Tentakabel naar een punt op\neen muur toe te trekken en u eraan vast te houden."
  },
  {
    "label": "dieCuttingA",
    "text": "Floeper: Druk kort op {{icon id=\"12\" arg=\"0x0000803F00000000\"}} om een enkel schot af te\nvuren."
  },
  {
    "label": "dieCuttingB",
    "text": "Klotstrommel: Lanceert een spiraalvormige,\nronddraaiende lading inkt in een boogvormige baan."
  },
  {
    "label": "dieCuttingC",
    "text": "Bloplader: Laad uw schot volledig op om meerdere kisten\ntegelijk te vernietigen."
  },
  {
    "label": "boxSashi00",
    "text": "In deze missie moet u alle vliegende doelwitten\nvernietigen."
  },
  {
    "label": "boxSashi01",
    "text": "Doe uw voordeel met deze tip: als het erop aankomt,\nzijn Ballonbommen erg effectief."
  },
  {
    "label": "boxSashiA",
    "text": "Nautilus 47: Een spetling die ook tijdens het zwemmen\nopgeladen blijft."
  },
  {
    "label": "boxSashiB",
    "text": "Dubbelspatters: Om een ontwijkduik uit te voeren drukt\nu op {{icon id=\"1\" arg=\"0x0000803F00000000\"}} terwijl u rondloopt en vuurt."
  },
  {
    "label": "boxSashiC",
    "text": "Octopoets: Houd {{icon id=\"12\" arg=\"0x0000803F00000000\"}} ingedrukt om een inktschot op te\nladen en laat los om te vuren."
  },
  {
    "label": "chargeKeep00",
    "text": "In deze missie leert u hoe u een wapen opgeladen houdt\nterwijl u op weg bent naar het doel."
  },
  {
    "label": "chargeKeep01",
    "text": "Druk op {{icon id=\"11\" arg=\"0x0000803F00000000\"}} om uw volledig opgeladen wapen enige tijd\nopgeladen te houden terwijl u rondzwemt."
  },
  {
    "label": "chargeKeepA",
    "text": "Spetbuizer: Dit wapen kan een opgeladen schot lange\ntijd opslaan."
  },
  {
    "label": "railBaloonEasy00",
    "text": "Deze missie test uw hand-oog-railcoördinatie.\nMaak vanaf de surfrails alle doelwitten kapot."
  },
  {
    "label": "railBaloonEasyA",
    "text": "Straalplonzer: Handig gebruik van de Ballonbom als\nsubwapen kan het verschil maken."
  },
  {
    "label": "railBaloonEasyB",
    "text": "Flitsblaster Pro: Biedt een groter bereik en kan\nmeerdere doelwitten tegelijk raken."
  },
  {
    "label": "railBaloonEasyC",
    "text": "Blusling: Een zware spetling met een groter bereik,\nmaar ook een langere oplaadtijd."
  },
  {
    "label": "missileAirship00",
    "text": "In deze missie overwint u uw hoogtevrees. Bereik het\ndoel met sprongen en ware doodsverachting."
  },
  {
    "label": "missileAirship01",
    "text": "N-ZAP '85: Een flexibele spetter met een hoge\nvuursnelheid."
  },
  {
    "label": "missileAirship02",
    "text": "Klodderroller: Druk tijdens een sprong op {{icon id=\"12\" arg=\"0x0000803F00000000\"}} om inkt\nmet een verticale zwaai voor u uit te slingeren."
  },
  {
    "label": "missileAirship03",
    "text": "Octopoets: Houd {{icon id=\"12\" arg=\"0x0000803F00000000\"}} ingedrukt om een inktschot op te\nladen en laat los om te vuren."
  },
  {
    "label": "fastDraw00",
    "text": "In deze missie moet u de doelwitten vernietigen\nvoordat ze verdwijnen."
  },
  {
    "label": "fastDraw01",
    "text": "Als u een blunderballon kapotmaakt, is de missie\njammerlijk mislukt."
  },
  {
    "label": "fastDrawA",
    "text": "Superspetter Pro: Deze ultraprecieze spetter heeft\neen groot bereik. Let goed op uw resterende inkt!"
  },
  {
    "label": "fastDrawB",
    "text": "Octopoets: Laad uw schot volledig op om meerdere\ndoelwitten tegelijk te vernietigen."
  },
  {
    "label": "wiper00",
    "text": "In deze missie houdt u grote schoonmaak met de\nStempelzwieper om het doel te bereiken."
  },
  {
    "label": "wiperA",
    "text": "Stempelzwieper: Houd {{icon id=\"12\" arg=\"0x0000803F00000000\"}} ingedrukt voor een\nkrachtige opgeladen slag."
  },
  {
    "label": "oneStroke00",
    "text": "In deze missie moet u het doel bereiken nadat u binnen\nde tijdslimiet alle schakelaars heeft geactiveerd."
  },
  {
    "label": "oneStroke01",
    "text": "Denkt u aan de tijdslimiet."
  },
  {
    "label": "oneStrokeA",
    "text": "Octokwast: Houd {{icon id=\"12\" arg=\"0x0000803F00000000\"}} ingedrukt om een inktspoor\nachter te laten terwijl u zich voortbeweegt."
  },
  {
    "label": "oneStrokeB",
    "text": "Inktkwast: Houd {{icon id=\"12\" arg=\"0x0000803F00000000\"}} ingedrukt om een smal inktspoor\nachter te laten terwijl u zich snel voortbeweegt."
  },
  {
    "label": "bitakoHidding00",
    "text": "In deze missie leert u met uw paranoia om te gaan.\nBereik het doel terwijl u op verborgen vijanden let."
  },
  {
    "label": "bitakoHiddingA",
    "text": "Een selectie wapens uit uw eigen heldenuitrusting."
  },
  {
    "label": "bitakoHiddingB",
    "text": "H-3 Langsnuit: Druk op {{icon id=\"12\" arg=\"0x0000803F00000000\"}} om drie inktklodders\nachterelkaar af te vuren."
  },
  {
    "label": "bitakoHiddingC",
    "text": "Kelvin 525: Om een ontwijkduik uit te voeren drukt u\nop {{icon id=\"1\" arg=\"0x0000803F00000000\"}} terwijl u rondloopt en vuurt."
  },
  {
    "label": "shootBack00",
    "text": "In deze missie moet u listig en gewiekst vijanden in de\nrug aanvallen en vervolgens het doel bereiken."
  },
  {
    "label": "shootBackA",
    "text": "Een selectie wapens uit uw eigen heldenuitrusting."
  },
  {
    "label": "shootBackB",
    "text": "Klodderroller: Druk tijdens een sprong op {{icon id=\"12\" arg=\"0x0000803F00000000\"}} om inkt\nmet een verticale zwaai voor u uit te slingeren."
  },
  {
    "label": "shootBackC",
    "text": "Dubbelspatters: Om een ontwijkduik uit te voeren drukt\nu op {{icon id=\"1\" arg=\"0x0000803F00000000\"}} terwijl u rondloopt en vuurt."
  },
  {
    "label": "buildingSnipe00",
    "text": "In deze missie moet u ongewenste belangstelling\nverdragen. Ontwijk de vijanden en bereik het doel."
  },
  {
    "label": "buildingSnipeA",
    "text": "Een selectie wapens uit uw eigen heldenuitrusting."
  },
  {
    "label": "buildingSnipeB",
    "text": "Kampeerplenzer: Houd {{icon id=\"12\" arg=\"0x0000803F00000000\"}} ingedrukt om de plenzer\ngeopend te houden als bescherming tegen aanvallen."
  },
  {
    "label": "buildingSnipeC",
    "text": "Spettertuit: Een spetter voor op korte afstand die u\nveel bewegingsvrijheid laat."
  },
  {
    "label": "barriar00",
    "text": "In deze missie moet u met vijandelijke barrières\nafrekenen om het doel te bereiken."
  },
  {
    "label": "barriarA",
    "text": "Een selectie wapens uit uw eigen heldenuitrusting."
  },
  {
    "label": "barriarB",
    "text": "Triospanner: Houd {{icon id=\"12\" arg=\"0x0000803F00000000\"}} ingedrukt om een schot op te\nladen."
  },
  {
    "label": "barriarC",
    "text": "Klotstrommel: Lanceert een spiraalvormige,\nronddraaiende lading inkt in een boogvormige baan."
  },
  {
    "label": "dozer00",
    "text": "In deze missie moet u alle visseneieren binnen de\ntijdslimiet verzamelen."
  },
  {
    "label": "dozer01",
    "text": "De timer begint af te tellen wanneer u het testterrein\nbetreedt of het eerste vissenei vindt."
  },
  {
    "label": "dozerA",
    "text": "Spettertuit: Handig gebruik van de Curlingbom als\nsubwapen kan het verschil maken."
  },
  {
    "label": "dozerB",
    "text": "Inktkwast: Lanceer uw Salmini richting een vijand om\ndeze even tot stilstand te brengen."
  },
  {
    "label": "dozerC",
    "text": "E-liter 4K: Laad met {{icon id=\"12\" arg=\"0x0000803F00000000\"}} een schot op en vuur\ndan om veel visseneieren tegelijk te verzamelen."
  },
  {
    "label": "kagidumeClimb00",
    "text": "In deze missie moet u de Tentakabel benutten om het\ndoel te bereiken."
  },
  {
    "label": "kagidumeClimbA",
    "text": "Tentakabel: Druk op {{icon id=\"10\" arg=\"0x0000803F00000000\"}} om uzelf naar een muur toe\nte trekken en eraan te blijven hangen."
  },
  {
    "label": "railBoxStringer00",
    "text": "Deze missie test uw hand-oog-railcoördinatie.\nMaak vanaf de surfrails alle doelwitten kapot."
  },
  {
    "label": "railBoxStringerA",
    "text": "Spetling: Houd {{icon id=\"12\" arg=\"0x0000803F00000000\"}} ingedrukt om op te laden en laat\ndan los om de inkt over een grote afstand af te vuren."
  },
  {
    "label": "railBoxStringerB",
    "text": "Flitsblaster: De explosieve schoten kunnen meerdere\ndoelwitten tegelijk vernietigen."
  },
  {
    "label": "railBoxStringerC",
    "text": "Triospanner: Houd {{icon id=\"12\" arg=\"0x0000803F00000000\"}} ingedrukt om een schot op te\nladen. U kunt er een heel stuk muur mee bedekken."
  },
  {
    "label": "superLanding00",
    "text": "In deze missie moet u Superlandingen onder de knie\nkrijgen om het doel te bereiken."
  },
  {
    "label": "superLandingA",
    "text": "Superlanding: Spring eerst hoog de lucht in en land dan\nop de grond met een krachtige explosie."
  },
  {
    "label": "fogMaze00",
    "text": "Deze missie test uw richtingsgevoel.\nVind het doel in een dichte mist."
  },
  {
    "label": "fogMazeA",
    "text": ".52 Kaliter: Een spetter met grote vuurkracht."
  },
  {
    "label": "fogMazeB",
    "text": "Plenzer: Houd {{icon id=\"12\" arg=\"0x0000803F00000000\"}} ingedrukt om uw Plenzer te openen."
  },
  {
    "label": "fogMazeC",
    "text": "Dynamoroller: Een zware roller waarmee u grote\ngebieden met inkt kunt bedekken."
  },
  {
    "label": "shortRail00",
    "text": "Deze missie test of u er ook tijdens lastige stunts cool\nkunt blijven uitzien. Bereik via surfrails het doel."
  },
  {
    "label": "shortRail01",
    "text": "De volgende surfrail verschijnt pas nadat u alle\nbijbehorende schakelaars hebt geactiveerd."
  },
  {
    "label": "shortRailA",
    "text": "Straalplonzer: Een spetter met een groter bereik."
  },
  {
    "label": "shortRailB",
    "text": "Triospanner: Houd {{icon id=\"12\" arg=\"0x0000803F00000000\"}} ingedrukt om een schot op\nte laden."
  },
  {
    "label": "shortRailC",
    "text": "Bamboem 14-A: Een lader waarmee schoten snel kunnen\nworden opgeladen."
  },
  {
    "label": "ninjaParkour00",
    "text": "In deze missie gebruikt u de Tentakabel om het doel\nbovenaan te bereiken."
  },
  {
    "label": "ninjaParkourA",
    "text": "Tentakabel: Druk op {{icon id=\"10\" arg=\"0x0000803F00000000\"}} om uzelf naar muren toe te\ntrekken en eraan te blijven plakken."
  },
  {
    "label": "shootingLong00",
    "text": "In deze missie moet u langeafstandswapens inzetten\nom het doel te bereiken."
  },
  {
    "label": "shootingLongA",
    "text": "Kliederkachel: Vuurt krachtige, exploderende schoten\naf die ver komen."
  },
  {
    "label": "shootingLongB",
    "text": "Stylospetling: Het bereik van dit wapen wordt groter\nnadat het is begonnen met vuren."
  },
  {
    "label": "shootingLongC",
    "text": "Dynamoroller: Een zware roller waarmee u grote\ngebieden met inkt kunt bedekken."
  },
  {
    "label": "lineMarker00",
    "text": "In deze missie moet u met de Ketskogel een serie\nobstakels overwinnen en het doel bereiken."
  },
  {
    "label": "lineMarkerA",
    "text": "Spettertuit: De Ketskogel als subwapen ketst af\nvan elk oppervlak dat u ermee raakt."
  },
  {
    "label": "fogZones00",
    "text": "In deze missie moet u vijanden verslaan en de\nzwaarbewaakte toegang tot het doel openen."
  },
  {
    "label": "fogZones01",
    "text": "Een selectie wapens uit uw eigen heldenuitrusting."
  },
  {
    "label": "fogZones02",
    "text": "Knalblaster: Een blaster met een hoge vuursnelheid."
  },
  {
    "label": "fogZones03",
    "text": "Stempelzwieper: Houd {{icon id=\"12\" arg=\"0x0000803F00000000\"}} ingedrukt voor een\nkrachtige opgeladen slag."
  },
  {
    "label": "takoTower00",
    "text": "In deze missie moet u door de vijandelijke verdediging\nbreken om het doel te bereiken."
  },
  {
    "label": "takoTowerA",
    "text": "Een selectie wapens uit uw eigen heldenuitrusting."
  },
  {
    "label": "takoTowerB",
    "text": "Octopoets: Een lader die snel kan worden opgeladen."
  },
  {
    "label": "takoTowerC",
    "text": "Flexroller: Een zwaai in de horizontale houding werpt\nsnel inkt. In de verticale houding slingert u inkt verder."
  },
  {
    "label": "takoAllStars00",
    "text": "In deze missie wachten u allerlei verschillende vijanden\nop. Wees op alles voorbereid."
  },
  {
    "label": "takoAllStars01",
    "text": "Een selectie wapens uit uw eigen heldenuitrusting."
  },
  {
    "label": "takoAllStars02",
    "text": "Lunablaster: Een blaster met een groot explosiebereik."
  },
  {
    "label": "takoAllStars03",
    "text": "Superspetter jr.: Een wapen dat spaarzaam\ngebruikmaakt van inkt."
  },
  {
    "label": "inkLimitHard00",
    "text": "Deze missie test uw vindingrijkheid. U moet het doel\nbereiken hoewel u slechts weinig inkt heeft."
  },
  {
    "label": "inkLimitHard01",
    "text": "Overweeg zorgvuldig wanneer en waar u uw inkt\nafvuurt."
  },
  {
    "label": "inkLimitHardA",
    "text": "Spetterspuit: Dit wapen vuurt inkt met hoge precisie\naf."
  },
  {
    "label": "curlingDoNotStep00",
    "text": "In deze missie moet u het doel binnen de tijdslimiet\nbereiken zonder vijandelijke inkt aan te raken."
  },
  {
    "label": "curlingDoNotStep01",
    "text": "Om uw vindingrijkheid op de proef te stellen, wordt\nuw inktvoorraad niet aangevuld tijdens deze missie."
  },
  {
    "label": "curlingDoNotStepA",
    "text": "Curlingbom: Deze bom ketst van muren af en glijdt dan\nverder."
  },
  {
    "label": "roller00",
    "text": "In deze missie gebruikt u een roller om uw vijanden te\nverslaan en moet u het doel bereiken."
  },
  {
    "label": "rollerA",
    "text": "Klodderroller: Een eenvoudige roller die makkelijk te\ngebruiken is."
  },
  {
    "label": "rollerB",
    "text": "Carbonroller: Een roller die wendbaarder is dan\nhet standaardmodel."
  },
  {
    "label": "escapeFromSinking00",
    "text": "In deze missie moet u het doel bovenaan bereiken."
  },
  {
    "label": "escapeFromSinkingA",
    "text": "Spettertuit: Een spetter voor op korte afstand die u\nveel bewegingsvrijheid laat."
  },
  {
    "label": "escapeFromSinkingB",
    "text": "Carbonroller: Afhankelijk van wat uw situatie vereist,\nkunt u hier verticaal of horizontaal mee zwaaien."
  },
  {
    "label": "escapeFromSinkingC",
    "text": "Mini-Spetling: Deze spetling is door zijn korte\noplaadtijd goed voor bliksemaanvallen."
  },
  {
    "label": "fireWorks00",
    "text": "In deze missie moet u moeilijk terrein overwinnen\nom het doel bovenaan te bereiken."
  },
  {
    "label": "fireWorksA",
    "text": "Triospanner: Houd {{icon id=\"12\" arg=\"0x0000803F00000000\"}} ingedrukt om een schot\nop te laden."
  },
  {
    "label": "fireWorksB",
    "text": "N-ZAP '85: Een flexibele spetter met een hoge\nvuursnelheid."
  },
  {
    "label": "fireWorksC",
    "text": "Klotstrommel: Lanceert een spiraalvormige,\nronddraaiende lading inkt in een boogvormige baan."
  },
  {
    "label": "race00",
    "text": "In deze missie moet u het doel binnen de tijdslimiet\nbereiken."
  },
  {
    "label": "race01",
    "text": "Uw resterende tijd wordt bij elk checkpoint verlengd."
  },
  {
    "label": "raceA",
    "text": "Kladderwerper: Een wapen met grote verfcapaciteit."
  },
  {
    "label": "jetPack00",
    "text": "In deze missie gebruikt u de Inktjet om verschillende\nuitdagingen te overwinnen en het doel te bereiken."
  },
  {
    "label": "jetPack01",
    "text": "Denkt u eraan dat een uitgerolde inkttoeter zich na\nenige tijd weer oprolt tot zijn oorspronkelijke vorm."
  },
  {
    "label": "jetPackA",
    "text": "Inktjet: Met {{icon id=\"12\" arg=\"0x0000803F00000000\"}} valt u aan. U kunt onderduiken in inkt\nmet {{icon id=\"11\" arg=\"0x0000803F00000000\"}}."
  },
  {
    "label": "chase00",
    "text": "In deze missie moet u sleutels van vijanden wegkapen\nom het doel te bereiken."
  },
  {
    "label": "chaseA",
    "text": "Superspetter: Handig gebruik van de Inktmijn als\nsubwapen kan het verschil maken."
  },
  {
    "label": "chaseB",
    "text": "Schelpschutter: Laad met {{icon id=\"12\" arg=\"0x0000803F00000000\"}} een schot op en\nneem verre doelwitten op de korrel."
  },
  {
    "label": "chaseC",
    "text": "Spatkuip: Dit wapen vuurt vier stuiterende\ninktprojectielen af."
  },
  {
    "label": "stamp00",
    "text": "In deze missie moet u alle vijanden binnen de tijdslimiet\nverslaan."
  },
  {
    "label": "stamp01",
    "text": "Plan uw route voordat u begint, om er zo efficiënt en\naangenaam mogelijk uw stempel op te drukken."
  },
  {
    "label": "stamp02",
    "text": "Het aftellen begint zodra u de eerste vijand een lesje\nleert."
  },
  {
    "label": "stampA",
    "text": "Ultrastempel: Druk op {{icon id=\"12\" arg=\"0x0000803F00000000\"}} om voor u op de grond te\nmeppen. Druk op {{icon id=\"10\" arg=\"0x0000803F00000000\"}} om het hele wapen te werpen."
  },
  {
    "label": "stampB",
    "text": "Opmerking: Aarzelt u niet om de gratis bonusblikken te\ngebruiken die u in het level vindt."
  },
  {
    "label": "MorayKingA",
    "text": "Vanaf hier geen toegang voor ongeoorloofde personen."
  },
  {
    "label": "SharkKingA",
    "text": "Vanaf hier geen toegang voor ongeoorloofde personen."
  },
  {
    "label": "MantaKingA",
    "text": "Vanaf hier geen toegang voor ongeoorloofde personen."
  },
  {
    "label": "SurmonBudyRA",
    "text": "Voorbij dit punt zijn wapens niet toegestaan.\nHuisdieren en/of visvriendjes mogen wel mee."
  },
  {
    "label": "Ex00",
    "text": "{{string value=\"5\"}}... ... ...{{fun_000F_0004 arg=\"0x0500\"}}"
  },
  {
    "label": "ExA",
    "text": "{{string value=\"5\"}}... ...{{fun_000F_0004 arg=\"0x0500\"}}"
  }
]