[
  {
    "label": "RechooseStage",
    "text": "Reset piano"
  },
  {
    "label": "RechooseStage_Explanation",
    "text": "Permette di resettare le varianti offerte per\nil piano successivo e le relative ricompense."
  },
  {
    "label": "DoubleTip",
    "text": "Probabilità schede doppie"
  },
  {
    "label": "DoubleTip_Explanation",
    "text": "Aumenta la probabilità di ottenere schede\ndoppie durante la selezione della variante\nper il piano successivo."
  },
  {
    "label": "Reveal1stBoss",
    "text": "Boss piano 10 rivelato"
  },
  {
    "label": "Reveal1stBoss_Explanation",
    "text": "Rivela il boss del piano 10 prima di\ncominciare la battaglia."
  },
  {
    "label": "Reveal2ndBoss",
    "text": "Boss piano 20 rivelato"
  },
  {
    "label": "Reveal2ndBoss_Explanation",
    "text": "Rivela il boss del piano 20 prima di\ncominciare la battaglia."
  },
  {
    "label": "RetryNumMax",
    "text": "Vite massime"
  },
  {
    "label": "RetryNumMax_Explanation",
    "text": "Aumenta il numero di vite a disposizione\nper ciascun assalto alla torre."
  },
  {
    "label": "PlayerDamageRate",
    "text": "Riduzione danno"
  },
  {
    "label": "PlayerDamageRate_Explanation",
    "text": "Riduce il danno che subisci."
  },
  {
    "label": "PlayerArmorMax",
    "text": "Armatura massima"
  },
  {
    "label": "PlayerArmorMax_Explanation",
    "text": "Aumenta i pezzi di armatura aggiuntiva\nche puoi portare contemporaneamente."
  },
  {
    "label": "PlayerArmorRecover",
    "text": "Recupero armatura"
  },
  {
    "label": "PlayerArmorRecover_Explanation",
    "text": "Aumenta la velocità con cui un'armatura\ndanneggiata si ripara. Se nuoti nell'inchiostro,\nil recupero sarà ancora più rapido."
  },
  {
    "label": "PlayerArmorPoisonedReduce",
    "text": "Velocità in pericolo"
  },
  {
    "label": "PlayerArmorPoisonedReduce_Explanation",
    "text": "Aumenta la velocità di movimento quando\ntutta l'armatura è danneggiata."
  },
  {
    "label": "PlayerArmorDieJump",
    "text": "Salto in pericolo"
  },
  {
    "label": "PlayerArmorDieJump_Explanation",
    "text": "Ti lancia automaticamente in aria\nquando tutta l'armatura è danneggiata.\nPiù investi nell'hackeraggio di questa\nmodifica, più salterai in alto."
  },
  {
    "label": "RetryAdmission",
    "text": "Seconda chance"
  },
  {
    "label": "RetryAdmission_Explanation",
    "text": "Permette di usare norilir per andare\navanti dopo aver perso tutte le vite."
  },
  {
    "label": "WeakenEnemy",
    "text": "Nemici indeboliti"
  },
  {
    "label": "WeakenEnemy_Explanation",
    "text": "I nemici sui piani normali fino al 10\ne sui piani facili fino al 20 saranno\npiù deboli."
  },
  {
    "label": "AttackDamageUp",
    "text": "Danno d'attacco"
  },
  {
    "label": "AttackDamageUp_Explanation",
    "text": "Incrementa il danno inferto ai nemici."
  },
  {
    "label": "TipFreqBias",
    "text": "Schede colore preferite"
  },
  {
    "label": "TipFreqBias_Explanation",
    "text": "Le schede colore più frequenti della\ntua tavoletta ti verranno offerte ancora\npiù spesso."
  },
  {
    "label": "DroneCadencePaintTip",
    "text": "Indicatore drone a inchiostro"
  },
  {
    "label": "DroneCadencePaintTip_Explanation",
    "text": "Sblocca schede colore che ricaricano\nl'indicatore drone quando colori il terreno."
  },
  {
    "label": "DroneCadenceDefeatEnemyTip",
    "text": "Indicatore drone a splat"
  },
  {
    "label": "DroneCadenceDefeatEnemyTip_Explanation",
    "text": "Sblocca schede colore che ricaricano\nl'indicatore drone quando elimini i nemici."
  },
  {
    "label": "DroneActionTrapTip",
    "text": "Mine per drone"
  },
  {
    "label": "DroneActionTrapTip_Explanation",
    "text": "Sblocca schede colore che permettono\nad Alga drone di usare le mine."
  },
  {
    "label": "DroneActionSprinklerTip",
    "text": "Spruzzatore per drone"
  },
  {
    "label": "DroneActionSprinklerTip_Explanation",
    "text": "Sblocca schede colore che permettono\nad Alga drone di spruzzare inchiostro."
  },
  {
    "label": "DroneActionBombQuickTip",
    "text": "Granate per drone"
  },
  {
    "label": "DroneActionBombQuickTip_Explanation",
    "text": "Sblocca schede colore che permettono\nad Alga drone di usare le granate."
  },
  {
    "label": "DroneActionTornadoTip",
    "text": "Tornado per drone"
  },
  {
    "label": "DroneActionTornadoTip_Explanation",
    "text": "Sblocca schede colore che permettono\nad Alga drone di usare i tornado."
  },
  {
    "label": "DroneActionItemDropTip",
    "text": "Oggetti del drone"
  },
  {
    "label": "DroneActionItemDropTip_Explanation",
    "text": "Sblocca schede colore che permettono\nad Alga drone di generare oggetti."
  },
  {
    "label": "DroneActionSlot",
    "text": "Slot azione drone"
  },
  {
    "label": "DroneActionSlot_Explanation",
    "text": "Aumenta il numero di slot azione assegnabili\nad Alga drone. Serve l'hackeraggio per usare\nle schede colore, ad eccezione di Bomba\nsplash per drone e Tintofono per drone."
  },
  {
    "label": "FloorShopDiscount",
    "text": "Sconto distributore"
  },
  {
    "label": "FloorShopDiscount_Explanation",
    "text": "Garantisce uno sconto negli acquisti\nai distributori automatici."
  },
  {
    "label": "RechooseFloorShop",
    "text": "Reset articoli"
  },
  {
    "label": "RechooseFloorShop_Explanation",
    "text": "Permette di usare norilir per cambiare\nla scelta di articoli ai distributori."
  },
  {
    "label": "ForceFloorShopMiddle",
    "text": "Distributore piano 15"
  },
  {
    "label": "ForceFloorShopMiddle_Explanation",
    "text": "Assicura che al piano 15 ci sia sempre\nun distributore automatico."
  },
  {
    "label": "ForceFloorShopHigh",
    "text": "Distributore piano 25"
  },
  {
    "label": "ForceFloorShopHigh_Explanation",
    "text": "Assicura che al piano 25 ci sia sempre\nun distributore automatico."
  },
  {
    "label": "IkuraRewardRate",
    "text": "Ricompensa norilir"
  },
  {
    "label": "IkuraRewardRate_Explanation",
    "text": "Ottieni più norilir come ricompensa per\naver completato un piano."
  },
  {
    "label": "JemHardMode",
    "text": "Ricompense rischiose"
  },
  {
    "label": "JemHardMode_Explanation",
    "text": "Meno hackeraggi sono attivi, più perle\nottieni quando completi la torre, fino al\ntriplo. Tuttavia, se non completi la torre,\nnon ottieni nulla.\n(Gli effetti degli hackeraggi possono\nessere ridotti liberamente.)"
  },
  {
    "label": "Header_Player",
    "text": "Giocatore"
  },
  {
    "label": "Header_Random",
    "text": "Fattori casuali"
  },
  {
    "label": "Header_DroneBuddy",
    "text": "Alga drone"
  },
  {
    "label": "Header_Boss",
    "text": "Nemici"
  },
  {
    "label": "Header_Shop",
    "text": "Distributori automatici"
  },
  {
    "label": "Header_Ikura",
    "text": "Norilir"
  },
  {
    "label": "Header_Jem",
    "text": "Perle"
  }
]