[
  {
    "label": "Phase2_00F_First00",
    "text": "Sentite...{{delay frames=\"15\"}} la strada non sarà facile, ma insieme\npossiamo farcela! Non dobbiamo arrenderci!"
  },
  {
    "label": "Phase2_00F_First01",
    "text": "Ma certo! Apriamo le danze!"
  },
  {
    "label": "Phase2_00F_First02",
    "text": "Non preoccupatevi per me. Resterò con voi fino alla fine."
  },
  {
    "label": "Phase2_00F_First03",
    "text": "Ehi! {{delay frames=\"15\"}}La tavoletta {{icon id=\"56\" arg=\"0xCDCC8C3F02000000\"}} è completamente vuota!"
  },
  {
    "label": "Phase2_00F_First04",
    "text": "Sì, perché tutte le schede colore raccolte sono\nstate convertite in perle {{icon id=\"64\" arg=\"0x0000803F00000000\"}}. {{delay frames=\"30\"}}E senza schede\ncolore, addio potenziamenti."
  },
  {
    "label": "Phase2_00F_First05",
    "text": "Hai anche meno {{color id=\"4\"}}vite{{color id=\"65535\"}} di prima, Otto.{{pageBreak}}Quindi attenzione. {{delay frames=\"15\"}}Se perdi tutte le vite, ti cacceranno\ndalla torre e dovrai {{color id=\"4\"}}ricominciare da capo{{color id=\"65535\"}}."
  },
  {
    "label": "Phase2_00F_Rnd00_00",
    "text": "Risaliremo questa torre tutte le volte che serve!"
  },
  {
    "label": "Phase2_00F_Rnd00_01",
    "text": "Proprio così! Stai attento, Ordine, stiamo arrivando!"
  },
  {
    "label": "Phase2_00F_Rnd01_00",
    "text": "Nuovo assalto! {{delay frames=\"15\"}}Che emozione! {{delay frames=\"15\"}}Può succedere di tutto!"
  },
  {
    "label": "Phase2_00F_Rnd01_01",
    "text": "Ehi, calma! Però apprezzo l'entusiasmo."
  },
  {
    "label": "Phase2_00F_Rnd02_00",
    "text": "Si comincia. {{delay frames=\"15\"}}Dove arriveremo questa volta?"
  },
  {
    "label": "Phase2_00F_Rnd02_01",
    "text": "Non so se a questo giro riusciremo a fermare Ordine,\nma è solo questione di tempo! {{delay frames=\"15\"}}Coraggio, Otto!"
  },
  {
    "label": "PhaseX_00F_After5FClear00",
    "text": "Che bello! {{delay frames=\"15\"}}Siccome nell'ultimo assalto abbiamo superato\nil piano 5, questa volta otteniamo {{color id=\"4\"}}500 norilir {{color id=\"65535\"}}{{icon id=\"63\" arg=\"0x0000803F00000000\"}}!"
  },
  {
    "label": "PhaseX_00F_After5FClear01",
    "text": "Perfetto. {{delay frames=\"15\"}}Se non sbaglio, avevi detto che al piano 5\nc'è sempre un {{color id=\"4\"}}distributore automatico{{color id=\"65535\"}}."
  },
  {
    "label": "PhaseX_00F_After5FClear02",
    "text": "Così se superiamo il piano 5, ci possiamo dare il 5!"
  },
  {
    "label": "PhaseX_00F_After5FClear03",
    "text": "Ehm. Comunque, questo ci dà un bel vantaggio\niniziale.{{delay frames=\"30\"}} Facciamo del nostro meglio, Otto!"
  },
  {
    "label": "Phase2_05F_First00",
    "text": "Bene! {{delay frames=\"5\"}}Abbiamo superato il piano 5!"
  },
  {
    "label": "Phase2_05F_First01",
    "text": "E abbiamo ottenuto delle perle {{icon id=\"64\" arg=\"0x0000803F00000000\"}}. {{delay frames=\"30\"}}La torre è fatta\nin modo da darci dei bonus se superiamo il piano 5."
  },
  {
    "label": "Phase2_05F_First02",
    "text": "Per esempio, {{delay frames=\"15\"}}se uscite dalla torre dopo averlo superato,\ncomincerete l'assalto successivo con {{color id=\"4\"}}500 norilir {{color id=\"65535\"}}{{icon id=\"63\" arg=\"0x0000803F00000000\"}}.{{pageBreak}}E al piano 5 troverete sempre un {{color id=\"4\"}}distributore\nautomatico {{color id=\"65535\"}}nel quale potrete spendere le norilir."
  },
  {
    "label": "Phase2_05F_First03",
    "text": "Adoro i distributori automatici! {{delay frames=\"15\"}}Sono l'ideale per\nsgranchirsi le gambe... anche se io non ce le ho."
  },
  {
    "label": "Phase2_05F_First04",
    "text": "Vale la pena cercare di arrivare sempre almeno\nal piano 5, se possibile."
  },
  {
    "label": "Phase2_05F_First05",
    "text": "Ma non fermiamoci lì! Ogni volta può essere quella\nbuona per raggiungere Ordine e farlo a pezzetti!\n{{delay frames=\"30\"}}Sei d'accordo con me, Otto?"
  },
  {
    "label": "Phase2_09F_First00",
    "text": "Occhio, {{delay frames=\"15\"}}sul prossimo piano c'è un nemico molto\ndiverso dai precedenti.{{delay frames=\"30\"}} Meglio stare in guardia."
  },
  {
    "label": "Phase2_09F_First01",
    "text": "Se questa torre non è cambiata rispetto alla mia idea\noriginale,{{delay frames=\"15\"}} ci dovrebbe essere un {{color id=\"4\"}}boss {{color id=\"65535\"}}al piano 10."
  },
  {
    "label": "Phase2_09F_First02",
    "text": "Allora le cose si fanno serie? {{delay frames=\"30\"}}Stai in guardia, Otto,\ne non fare pazzie."
  },
  {
    "label": "Phase2_09F_Rnd00_00",
    "text": "Per ora state andando bene!\n{{delay frames=\"30\"}}Cercate di continuare così."
  },
  {
    "label": "Phase2_09F_Rnd00_01",
    "text": "Questo piano sarà un bel test.\n{{delay frames=\"30\"}}Anche il tuo cuore batte a mille, Otto?"
  },
  {
    "label": "Phase2_09F_Rnd01_00",
    "text": "Una passeggiata finora, vero?"
  },
  {
    "label": "Phase2_09F_Rnd01_01",
    "text": "Già, ma il prossimo è il decimo piano. {{delay frames=\"30\"}}Potreste trovarvi\nin difficoltà, per cui cercate di non strafare."
  },
  {
    "label": "Phase2_09F_Rnd02_00",
    "text": "Finora non abbiamo avuto troppi grattacapi."
  },
  {
    "label": "Phase2_09F_Rnd02_01",
    "text": "Già, ma ora state per affrontare un boss.{{delay frames=\"30\"}}\nOcchi aperti, mi raccomando!"
  },
  {
    "label": "Phase2_10F_First00",
    "text": "Siamo ancora tutti vivi?! {{delay frames=\"30\"}}Che cos'era quel coso?!"
  },
  {
    "label": "Phase2_10F_First01",
    "text": "Sicuramente era il più tosto di tutti gli Ossimolli che\nabbiamo visto finora. {{delay frames=\"30\"}}Che cos'avete preso alla fine?\nLa {{color id=\"4\"}}chiave di un armadietto {{color id=\"65535\"}}{{icon id=\"62\" arg=\"0x0000803F00000000\"}}?"
  },
  {
    "label": "Phase2_10F_First02",
    "text": "Interessante. {{delay frames=\"30\"}}Se ho capito bene, {{delay frames=\"15\"}}otterrete una chiave\nogni volta che supererete per la prima volta determinati\npiani con ogni tavoletta."
  },
  {
    "label": "Phase2_10F_First03",
    "text": "Allora...{{delay frames=\"15\"}} se superiamo di nuovo il piano 10 con un'altra\ntavoletta, otterremo un'altra chiave?"
  },
  {
    "label": "Phase2_10F_First04",
    "text": "Esatto, Alga! {{delay frames=\"30\"}}Detto questo... {{delay frames=\"15\"}}credo che potremo\nancora ottenere qualche chiave con questa tavoletta."
  },
  {
    "label": "Phase2_10F_First05",
    "text": "Già. {{delay frames=\"15\"}}Continuando così, prima o poi\ntroveremo altre chiavi."
  },
  {
    "label": "Phase2_10F_Rnd00_00",
    "text": "Otto, adesso gli Ossimolli ti piomberanno tutti\naddosso.{{delay frames=\"30\"}} Cerca di non farti circondare."
  },
  {
    "label": "Phase2_10F_Rnd00_01",
    "text": "Ottimo consiglio!"
  },
  {
    "label": "Phase2_10F_Rnd00_02",
    "text": "Che sia un nemico o cento, prima o poi dobbiamo\nsistemarli tutti, giusto? {{delay frames=\"30\"}}Forza, Otto!"
  },
  {
    "label": "Phase2_10F_Rnd01_00",
    "text": "Mitilico! Bello aver superato il decimo piano, vero?"
  },
  {
    "label": "Phase2_10F_Rnd01_01",
    "text": "È un bel traguardo. {{delay frames=\"15\"}}Continuiamo così!"
  },
  {
    "label": "Phase2_10F_Rnd01_02",
    "text": "Già, ma ci aspettano ancora un sacco di piani.{{delay frames=\"30\"}}\nNon mollare, Otto!"
  },
  {
    "label": "Phase2_10F_Rnd02_00",
    "text": "Evvai, abbiamo sconfitto il boss!{{delay frames=\"15\"}}\nFinora stiamo andando alla grande."
  },
  {
    "label": "Phase2_10F_Rnd02_01",
    "text": "Proprio così! Di questo passo, potremmo\nanche riuscire ad arrivare in cima!"
  },
  {
    "label": "Phase2_10F_Rnd02_02",
    "text": "Ossimolli permettendo... {{delay frames=\"30\"}}Credo che loro non\nsiano dello stesso avviso."
  },
  {
    "label": "Phase2_15F_First00",
    "text": "Se non sbaglio, siamo già oltre la metà.{{delay frames=\"30\"}}\nQuesta torre fa sempre più paura..."
  },
  {
    "label": "Phase2_15F_First01",
    "text": "Come va, Otto? {{delay frames=\"30\"}}Riposati un po' prima\ndi affrontare il prossimo piano."
  },
  {
    "label": "Phase2_15F_First02",
    "text": "Mi dispiace tanto averti coinvolto in questo\npasticcio.{{delay frames=\"15\"}} Se solo Ordine non fosse riuscito\na entrare nella mia mente..."
  },
  {
    "label": "Phase2_15F_First03",
    "text": "Ma che dici? {{delay frames=\"30\"}}Non è colpa tua, Nori!"
  },
  {
    "label": "Phase2_15F_First04",
    "text": "Però...{{delay frames=\"15\"}} dentro di me, sognavo davvero un mondo\nperfetto e pieno di pace, dove tutto fosse immutabile.{{pageBreak}}Ordine è riuscito a sfruttare questa mia debolezza."
  },
  {
    "label": "Phase2_15F_First05",
    "text": "Molte persone hanno paura del cambiamento.{{delay frames=\"30\"}}\nPersino io, a volte."
  },
  {
    "label": "Phase2_15F_First06",
    "text": "Davvero, Acht?"
  },
  {
    "label": "Phase2_15F_First07",
    "text": "Il cambiamento a me non fa alcuna paura.{{pageBreak}}Ma so che qualunque cosa desiderassi, non era\nsicuramente QUESTO. {{delay frames=\"15\"}}Non hai niente di cui scusarti."
  },
  {
    "label": "Phase2_15F_First08",
    "text": "Quindi non fare quella faccia triste! {{delay frames=\"30\"}}Io e Otto\nfermeremo Ordine. Tu puoi goderti lo spettacolo!"
  },
  {
    "label": "Phase2_15F_First09",
    "text": "Alga... {{delay frames=\"15\"}}Otto..."
  },
  {
    "label": "Phase2_15F_First10",
    "text": "No! {{delay frames=\"15\"}}Non posso stare a guardare e basta. {{delay frames=\"30\"}}\nFarò tutto il possibile per dare una mano!"
  },
  {
    "label": "Phase2_15F_First11",
    "text": "Così mi piaci!"
  },
  {
    "label": "Phase2_19F_First00",
    "text": "Otto...{{delay frames=\"15\"}} credo che ci stiamo avvicinando a un {{color id=\"4\"}}boss{{color id=\"65535\"}}.{{delay frames=\"30\"}}\nDovrai essere come una torta a strati: astuzia alla\nbase e prudenza in cima."
  },
  {
    "label": "Phase2_19F_First01",
    "text": "Nori, ti preoccupi troppo! {{delay frames=\"30\"}}Otto e io abbiamo\nla situazione sotto controllo."
  },
  {
    "label": "Phase2_19F_First02",
    "text": "C-Certo...{{delay frames=\"15\"}} hai ragione."
  },
  {
    "label": "Phase2_19F_First03",
    "text": "Ti piace ancora fare le prediche come una volta, eh?"
  },
  {
    "label": "Phase2_19F_First04",
    "text": "Non riesco a farne a meno, Alga è troppo importante\nper me!{{delay frames=\"30\"}} È coraggiosa alla base e adorabile in cima!"
  },
  {
    "label": "Phase2_19F_First05",
    "text": "Questo tuo lato, invece, non lo ricordavo..."
  },
  {
    "label": "Phase2_19F_Rnd00_00",
    "text": "E siamo già al ventesimo piano!{{delay frames=\"15\"}} Ma sento puzza\ndi guai..."
  },
  {
    "label": "Phase2_19F_Rnd00_01",
    "text": "Ma no, andrà tutto bene! {{delay frames=\"30\"}}Solo... non buttatevi\na testa bassa senza un piano di battaglia!"
  },
  {
    "label": "Phase2_19F_Rnd01_00",
    "text": "Accidentice, siamo già al ventesimo piano!{{delay frames=\"30\"}}\nContinuate così."
  },
  {
    "label": "Phase2_19F_Rnd01_01",
    "text": "Qui le cose potrebbero farsi complicate. {{delay frames=\"30\"}}Occhi aperti!"
  },
  {
    "label": "Phase2_19F_Rnd02_00",
    "text": "Adesso ci tocca un boss. {{delay frames=\"30\"}}Dobbiamo prepararci bene!"
  },
  {
    "label": "Phase2_19F_Rnd02_01",
    "text": "Ma certo! Sono preparatissima a vincere!{{delay frames=\"30\"}}\nAndiamo a fare una strage, Otto!"
  },
  {
    "label": "Phase2_20F_First00",
    "text": "Alla grande, Otto! {{delay frames=\"30\"}}E abbiamo anche ottenuto\nla {{color id=\"4\"}}chiave di un armadietto{{color id=\"65535\"}} {{icon id=\"62\" arg=\"0x0000803F00000000\"}}!"
  },
  {
    "label": "Phase2_20F_First01",
    "text": "Che roba quel boss, eh?{{delay frames=\"15\"}} Ordine non ha certo\nvoglia di scherzare..."
  },
  {
    "label": "Phase2_20F_First02",
    "text": "Sta facendo di tutto per impedirci di rovinare i suoi\npiani.{{delay frames=\"15\"}} Ricordo che ha detto di voler trasformare il\nNoriverse in un \"mondo di ordine senza colori\"."
  },
  {
    "label": "Phase2_20F_First03",
    "text": "Un mondo di burattini senza volontà, eh?{{delay frames=\"30\"}}\nProprio come il luogo in cui ero prima di venire qui."
  },
  {
    "label": "Phase2_20F_First04",
    "text": "Acht...{{delay frames=\"15\"}} eri per caso nella metropolpitana?"
  },
  {
    "label": "Phase2_20F_First05",
    "text": "Aspetta un momento, la metropolpitana?!\nÈ lì che abbiamo trovato Otto!"
  },
  {
    "label": "Phase2_20F_First06",
    "text": "Proprio lì... Qualcosa o qualcuno mi ha tolto ogni\nvolontà.{{delay frames=\"15\"}} Mi costringevano a lavorare come DJ."
  },
  {
    "label": "Phase2_20F_First07",
    "text": "Non ricordo molto di quel posto.{{delay frames=\"15\"}}\nA parte... una voce..."
  },
  {
    "label": "Phase2_20F_First08",
    "text": "... Forse è meglio che mi lasci tutto alle spalle."
  },
  {
    "label": "Phase2_20F_First09",
    "text": "Mi vengono i brividi se penso a quello che hai passato..."
  },
  {
    "label": "Phase2_20F_First10",
    "text": "Sai, sono stata io a creare il Noriverse per ripristinare\nle menti degli Octariani a cui era stato fatto il lavaggio\ndel cervello, come te.{{pageBreak}}E visto che siamo qui a chiacchierare, {{delay frames=\"15\"}}vuol dire che\nha funzionato!"
  },
  {
    "label": "Phase2_20F_First11",
    "text": "Ah... {{delay frames=\"15\"}}Allora è tutto merito tuo?{{delay frames=\"30\"}}\nSono davvero in debito con te."
  },
  {
    "label": "Phase2_20F_First12",
    "text": "Un motivo in più per riprenderci il Noriverse\ndalle grinfie di Ordine.{{delay frames=\"15\"}} Dobbiamo salvare tutti\ngli altri Octoling!"
  },
  {
    "label": "Phase2_20F_Rnd00_00",
    "text": "Vittoria! {{delay frames=\"30\"}}Ehi, mancano solo pochi piani!"
  },
  {
    "label": "Phase2_20F_Rnd00_01",
    "text": "Proprio così. {{delay frames=\"15\"}}Ma non esaltiamoci troppo, non siamo\nancora in cima alla torre."
  },
  {
    "label": "Phase2_20F_Rnd00_02",
    "text": "Giusto. {{delay frames=\"15\"}}Non potremo riposare fino a quando Ordine\nnon avrà smesso di sbiancare il Noriverse!"
  },
  {
    "label": "Phase2_20F_Rnd01_00",
    "text": "Alga! Otto! È uno spettacolo vedervi in azione!"
  },
  {
    "label": "Phase2_20F_Rnd01_01",
    "text": "Prossimo obiettivo...{{delay frames=\"15\"}} dare una bella lezione\na Ordine e riprenderci il nostro prezioso Noriverse!"
  },
  {
    "label": "Phase2_20F_Rnd01_02",
    "text": "Così dovremmo mettere la parola \"fine\"\nalla questione.{{delay frames=\"30\"}} Non vedo l'ora."
  },
  {
    "label": "Phase2_20F_Rnd02_00",
    "text": "Che bello rivedervi!"
  },
  {
    "label": "Phase2_20F_Rnd02_01",
    "text": "State bene? Niente di rotto?{{delay frames=\"15\"}} Ottimo."
  },
  {
    "label": "Phase2_20F_Rnd02_02",
    "text": "Ordine è davvero vicino, ormai!{{delay frames=\"30\"}}\nEhi, Otto! {{delay frames=\"15\"}}A tutto gas verso l'ultimo piano!"
  },
  {
    "label": "Phase2_25F_First00",
    "text": "Questo assalto sta andando bene, vero, Otto?{{delay frames=\"30\"}}\nHo la sensazione che ci stiamo avvicinando alla meta."
  },
  {
    "label": "Phase2_25F_First01",
    "text": "È vero!{{delay frames=\"15\"}} Siamo quasi all'ultimo piano!"
  },
  {
    "label": "Phase2_25F_First02",
    "text": "Evvivaaa! {{delay frames=\"15\"}}Tra poco metteremo fine a questa brutta\navventura e potremo tornare al nostro tour mondiale!"
  },
  {
    "label": "Phase2_25F_First03",
    "text": "Vi chiamate Tenta Cool, hai detto? {{delay frames=\"30\"}}Non vedo l'ora\ndi uscire da qui per potervi ammirare sul palco."
  },
  {
    "label": "Phase2_25F_First04",
    "text": "Ti avverto! {{delay frames=\"15\"}}I nostri concerti spaccano!"
  },
  {
    "label": "Phase2_25F_First05",
    "text": "Ci mancano ancora un po' di date. {{delay frames=\"15\"}}Tu e Otto farete\nin tempo a venire a vederci."
  },
  {
    "label": "Phase2_25F_First06",
    "text": "Ci penserò. {{delay frames=\"30\"}}Anche se non ho mai preso un aereo..."
  },
  {
    "label": "Phase2_29F_First00",
    "text": "Eccoci all'ultimo piano."
  },
  {
    "label": "Phase2_29F_First01",
    "text": "Ordine ci starà aspettando."
  },
  {
    "label": "Phase2_29F_First02",
    "text": "Ciò che sta accadendo è in parte colpa mia,\nquindi...{{delay frames=\"30\"}} voglio venire con te, Otto."
  },
  {
    "label": "Phase2_29F_First03",
    "text": "Senza un'arma?! {{delay frames=\"15\"}}Scordatelo!"
  },
  {
    "label": "Phase2_29F_First04",
    "text": "Lo so, ma... {{delay frames=\"15\"}}devo farlo."
  },
  {
    "label": "Phase2_29F_First05",
    "text": "È praticamente impossibile farle cambiare idea\nquando si mette in testa qualcosa."
  },
  {
    "label": "Phase2_29F_First06",
    "text": "Ma Nori se la sa cavare anche senza armi.{{delay frames=\"30\"}}\nNon preoccuparti."
  },
  {
    "label": "Phase2_29F_First07",
    "text": "Come sei dolce, Acht!"
  },
  {
    "label": "Phase2_29F_First08",
    "text": "E va bene, sono in evidente minoranza.{{delay frames=\"30\"}}\nMa niente mosse azzardate, OK?"
  },
  {
    "label": "Phase2_29F_First09",
    "text": "Ricevuto, Alga!"
  },
  {
    "label": "Phase2_29F_First10",
    "text": "Vieni anche tu, Acht?"
  },
  {
    "label": "Phase2_29F_First11",
    "text": "No, preferisco non esservi d'intralcio.{{delay frames=\"30\"}}\nVi aiuto da qui nel caso le cose si mettano male."
  },
  {
    "label": "Phase2_29F_First12",
    "text": "Va bene. {{delay frames=\"30\"}}E se la situazione dovesse davvero\nprecipitare, metti in salvo Nori!"
  },
  {
    "label": "Phase2_29F_First13",
    "text": "Nessuno sconto! {{delay frames=\"15\"}}Tieniti pronto!{{delay frames=\"30\"}}\nBrutto tonto io ti... smontooooo!"
  },
  {
    "label": "Phase2_29F_Rnd00_00",
    "text": "E rieccoci qua. {{delay frames=\"15\"}}In cima alla torre."
  },
  {
    "label": "Phase2_29F_Rnd00_01",
    "text": "Col polpo che ci faremo battere da Ordine, stavolta!"
  },
  {
    "label": "Phase2_29F_Rnd00_02",
    "text": "Io sarò lì con voi. {{delay frames=\"30\"}}Andiamo a dare\nuna bella lezione a Ordine!"
  },
  {
    "label": "Phase2_29F_Rnd00_03",
    "text": "Io vi aspetto qua. {{delay frames=\"30\"}}Cercate di mettere in atto\nquello che avete imparato l'ultima volta."
  },
  {
    "label": "Phase2_29F_Rnd00_04",
    "text": "Ma certo! {{delay frames=\"30\"}}Stavolta lo faremo a fette!"
  },
  {
    "label": "Phase2_29F_Rnd01_00",
    "text": "Il prossimo piano è l'ultimo. {{delay frames=\"30\"}}C'è Ordine ad aspettarci."
  },
  {
    "label": "Phase2_29F_Rnd01_01",
    "text": "Voglio venire di nuovo con voi! {{delay frames=\"30\"}}Ci sarà pure\nqualcosa che possa fare per aiutarvi."
  },
  {
    "label": "Phase2_29F_Rnd01_02",
    "text": "Come preferisci, Nori. {{delay frames=\"30\"}}Basta che lasci menare\nle mani a noi."
  },
  {
    "label": "Phase2_29F_Rnd01_03",
    "text": "Accomodatevi. {{delay frames=\"30\"}}Io non vi sarei molto utile in battaglia,\nquindi me ne starò qui a controllare la situazione."
  },
  {
    "label": "Phase2_29F_Rnd01_04",
    "text": "Ricevuto! {{delay frames=\"30\"}}Dai, Otto, chiudiamo la questione!"
  },
  {
    "label": "Phase2_ProgressMiddle_00_00",
    "text": "Certo che lo ami proprio quel laptop.{{delay frames=\"15\"}}\nCos'è che fai sempre?"
  },
  {
    "label": "Phase2_ProgressMiddle_00_01",
    "text": "È complicato,{{delay frames=\"15\"}} ma in sostanza è per fare in modo che\nil mio hacking continui a esservi d'aiuto.{{delay frames=\"15\"}} Ordine cerca\ncostantemente di riprendere il controllo del sistema."
  },
  {
    "label": "Phase2_ProgressMiddle_00_02",
    "text": "Giusto adesso la password stava per essere resettata.\n{{delay frames=\"30\"}}E se l'amministratore fosse riuscito a decentralizzare i\npermessi, il nostro accesso avrebbe... blah blah blah..."
  },
  {
    "label": "Phase2_ProgressMiddle_00_03",
    "text": "Forse...{{delay frames=\"30\"}} è meglio se smettiamo di fare domande."
  },
  {
    "label": "Phase2_ProgressMiddle_01_00",
    "text": "Rieccociii!"
  },
  {
    "label": "Phase2_ProgressMiddle_01_01",
    "text": "Evvivaaa!"
  },
  {
    "label": "Phase2_ProgressMiddle_01_02",
    "text": "Mi sento di nuovo tornata alla normalità.{{delay frames=\"30\"}}\nSarà perché abbiamo recuperato Nori?"
  },
  {
    "label": "Phase2_ProgressMiddle_01_03",
    "text": "Otto, Acht, Alga, grazie per avermi liberata!{{delay frames=\"30\"}}\nDevo trovare un modo per sdebitarmi."
  },
  {
    "label": "Phase2_ProgressMiddle_01_04",
    "text": "Ma figurati. {{delay frames=\"30\"}}Mi basta che troviate un modo\nper farmi andare via di qua."
  },
  {
    "label": "Phase2_ProgressMiddle_01_05",
    "text": "Temo che non se ne andrà nessuno se non\nsistemiamo Ordine. {{delay frames=\"30\"}}Ma quando avremo fatto,\ntroverò decisamente un modo per sdebitarmi!"
  },
  {
    "label": "Phase2_ProgressMiddle_02_00",
    "text": "E comunque, quanto tempo, Acht!"
  },
  {
    "label": "Phase2_ProgressMiddle_02_01",
    "text": "Ah ah, adesso ne parli? {{delay frames=\"30\"}}Ma in effetti hai ragione.\n{{delay frames=\"15\"}}Non scambiavamo quattro chiacchiere da prima che\nvenissi assegnata all'unità élite di Octavius."
  },
  {
    "label": "Phase2_ProgressMiddle_02_02",
    "text": "Ti riferisci a quando Nori viveva ancora nel mondo\ndegli Octoling, vero?"
  },
  {
    "label": "Phase2_ProgressMiddle_02_03",
    "text": "Già. {{delay frames=\"15\"}}Parliamo di otto anni fa."
  },
  {
    "label": "Phase2_ProgressMiddle_02_04",
    "text": "Otto anni? {{delay frames=\"30\"}}È già passato così tanto tempo?"
  },
  {
    "label": "Phase2_ProgressMiddle_02_05",
    "text": "Scommetto che hai una tonnellata di storie divertenti\nsu Nori! {{delay frames=\"30\"}}Vuota il sacco, Acht!"
  },
  {
    "label": "Phase2_ProgressMiddle_02_06",
    "text": "Ma cosa dici, Alga?! {{delay frames=\"15\"}}Noooooooooooo!"
  },
  {
    "label": "Phase2_ProgressUpper_00_00",
    "text": "Acht, ma non ti annoi a stare tutto il tempo\nnell'ascensore?"
  },
  {
    "label": "Phase2_ProgressUpper_00_01",
    "text": "Nah. {{delay frames=\"15\"}}Anche perché se non ci fosse nessuno,\ntornerebbe alla posizione iniziale."
  },
  {
    "label": "Phase2_ProgressUpper_00_02",
    "text": "Insomma, se non rimanessi io dentro l'ascensore,{{delay frames=\"15\"}}\nnon potreste mai più uscire dal piano. Game over!"
  },
  {
    "label": "Phase2_ProgressUpper_00_03",
    "text": "Eeeh?! Sul serio?! {{delay frames=\"30\"}}Questo non ce l'ha detto nessuno!"
  },
  {
    "label": "Phase2_ProgressUpper_00_04",
    "text": "Non ci stai dicendo tutto, però. {{delay frames=\"15\"}}Acht, da quando ti\nconosco, ti è sempre piaciuto stare in posti angusti\no appoggiarti ai muri. Non è così?"
  },
  {
    "label": "Phase2_ProgressUpper_00_05",
    "text": "Non so di cosa... {{delay frames=\"30\"}}Uhm. {{delay frames=\"15\"}}Ora che me lo fai notare,\nquesto ascensore ha un che di rilassante..."
  },
  {
    "label": "Phase2_ProgressUpper_01_00",
    "text": "Ehi, Alga. {{delay frames=\"15\"}}Noi due ci conosciamo?\nHai un'aria familiare."
  },
  {
    "label": "Phase2_ProgressUpper_01_01",
    "text": "Cosa?! {{delay frames=\"30\"}}Acht, smettila! {{delay frames=\"15\"}}Ci stai davvero provando\ncon Alga così, davanti a tutti?"
  },
  {
    "label": "Phase2_ProgressUpper_01_02",
    "text": "No, tranquilla. {{delay frames=\"30\"}}È solo che ho l'impressione di aver\ngià sentito la sua voce da qualche parte."
  },
  {
    "label": "Phase2_ProgressUpper_01_03",
    "text": "Mmmh, fammi pensare... {{delay frames=\"30\"}}Magari hai sentito i miei pezzi\ngiovanili, prima che diventassi una Tenta Cool?"
  },
  {
    "label": "Phase2_ProgressUpper_01_04",
    "text": "Può essere. {{delay frames=\"30\"}}Ma non è detto... Non so collocarlo\nin un momento preciso."
  },
  {
    "label": "Phase2_ProgressUpper_02_00",
    "text": "Mi stupisco che tu mi abbia riconosciuto,\nNori.{{delay frames=\"30\"}} Il mio look è molto diverso da allora."
  },
  {
    "label": "Phase2_ProgressUpper_02_01",
    "text": "Eh? {{delay frames=\"30\"}}Beh, certo, ma...{{delay frames=\"15\"}} la voce e l'atteggiamento\nsono sempre gli stessi."
  },
  {
    "label": "Phase2_ProgressUpper_02_02",
    "text": "Mh. {{delay frames=\"15\"}}Può essere."
  },
  {
    "label": "Phase2_ProgressUpper_02_03",
    "text": "Fotooo! {{delay frames=\"30\"}}Voglio vedervi come eravate allora!"
  },
  {
    "label": "Phase2_ProgressUpper_02_04",
    "text": "Ehm...{{delay frames=\"15\"}} Non ho molte foto di quando vivevo nel\nmondo degli Octoling..."
  },
  {
    "label": "Phase2_ProgressUpper_02_05",
    "text": "Già. E di sicuro, se fosse sopravvissuto qualcosa,\nse ne sarebbero già sbarazzati da tempo."
  },
  {
    "label": "Phase2_ProgressUpper_02_06",
    "text": "Infatti. {{delay frames=\"15\"}}Avrei dovuto portarmi qualche ricordino..."
  },
  {
    "label": "Phase3_00F_First00",
    "text": "Ehi, Acht! {{delay frames=\"15\"}}Sempre a proteggere l'ascensore, eh?"
  },
  {
    "label": "Phase3_00F_First01",
    "text": "Alga, Otto. {{delay frames=\"30\"}}Vogliamo rimetterci in moto?"
  },
  {
    "label": "Phase3_00F_First02",
    "text": "Non vedo l'ora di tornare a scalare la torre\nin vostra compagnia!"
  },
  {
    "label": "Phase3_00F_First03",
    "text": "L'obiettivo è la sala comandi all'ultimo piano.{{delay frames=\"30\"}} Non\npuoi premere il bottone e portarci direttamente là?"
  },
  {
    "label": "Phase3_00F_First04",
    "text": "La risposta è sempre no. {{delay frames=\"15\"}}Possiamo\nsalire solo un piano per volta, ricordi?"
  },
  {
    "label": "Phase3_00F_Rnd00_00",
    "text": "Ehi, Nori! {{delay frames=\"15\"}}Qualche parola di incoraggiamento?"
  },
  {
    "label": "Phase3_00F_Rnd00_01",
    "text": "Certo! {{delay frames=\"30\"}}Uhm...{{delay frames=\"15\"}} fateli neri di seppia!"
  },
  {
    "label": "Phase3_00F_Rnd01_00",
    "text": "Ehi, Otto! {{delay frames=\"15\"}}È di nuovo tutto sulle tue spalle!"
  },
  {
    "label": "Phase3_00F_Rnd01_01",
    "text": "Non proprio tutto. {{delay frames=\"15\"}}Tu sarai lì a dare un\ntentacolo a Otto, no?"
  },
  {
    "label": "Phase3_00F_Rnd02_00",
    "text": "Ci siete? {{delay frames=\"15\"}}Allora andiamo."
  },
  {
    "label": "Phase3_00F_Rnd02_01",
    "text": "Si sale!"
  },
  {
    "label": "Phase3_05F_First00",
    "text": "Piano 5 superato! Questa festa va alla grande!\n{{delay frames=\"30\"}}E abbiamo pure recuperato qualche perla."
  },
  {
    "label": "Phase3_05F_First01",
    "text": "Ti sento bella carica, Alga!"
  },
  {
    "label": "Phase3_05F_First02",
    "text": "Certo! Il tour è andato liscio come l'olio, ma non abbiamo\navuto un po' di tempo per noi, come invece ti avevo\npromesso.{{delay frames=\"30\"}} Voglio sbrigarmi e rimediare quanto prima!"
  },
  {
    "label": "Phase3_05F_First03",
    "text": "Oh, {{delay frames=\"15\"}}Alga..."
  },
  {
    "label": "Phase3_05F_First04",
    "text": "Pssst, Otto! {{delay frames=\"15\"}}Ma quelle due sono sempre così melense?"
  },
  {
    "label": "Phase3_09F_First00",
    "text": "Prossima fermata: piano 10!{{delay frames=\"30\"}} Sapete che significa, vero?"
  },
  {
    "label": "Phase3_09F_First01",
    "text": "Un boss? {{delay frames=\"15\"}}Eh sì."
  },
  {
    "label": "Phase3_09F_First02",
    "text": "Mi sa che qui non è cambiato molto da quando\nabbiamo sconfitto Ordine."
  },
  {
    "label": "Phase3_09F_First03",
    "text": "Già. {{delay frames=\"30\"}}E non me la sento molto di mettere le mani\nnel sistema, {{delay frames=\"15\"}}visto il problema con le tavolette."
  },
  {
    "label": "Phase3_09F_First04",
    "text": "Pazienza. {{delay frames=\"15\"}}Probabilmente non sarà una\npasseggiata, ma ce la faremo. Vero, Otto?!"
  },
  {
    "label": "Phase3_10F_First00",
    "text": "Fantastico, Otto! {{delay frames=\"30\"}}Vedo che non stai avendo\ntroppi problemi con la nuova tavoletta."
  },
  {
    "label": "Phase3_10F_First01",
    "text": "A proposito. Abbiamo visto la mia tavoletta e\nquella di Nori...{{delay frames=\"15\"}} Le hanno anche Otto e Acht?"
  },
  {
    "label": "Phase3_10F_First02",
    "text": "Ho captato un segnale da quella che pare appartenere\na Otto, ma...{{delay frames=\"30\"}} temo che Acht non ne abbia nessuna.{{pageBreak}}La mia teoria è che quando la sua anima è stata\ntrascinata nel Noriverse,{{delay frames=\"15\"}} si sia fusa con Acht senza\navere il tempo di diventare effettivamente una tavoletta."
  },
  {
    "label": "Phase3_10F_First03",
    "text": "Non so cosa significhi.{{delay frames=\"30\"}} Meglio così, forse?"
  },
  {
    "label": "Phase3_10F_First04",
    "text": "Se la tavoletta di Otto è in uno di quegli armadietti,\na forza di aprirli, prima o poi la troveremo, no?"
  },
  {
    "label": "Phase3_10F_First05",
    "text": "Non possiamo lasciare l'anima di Otto lì a marcire!{{delay frames=\"15\"}}\nDiamoci da fare a cercare le chiavi!"
  },
  {
    "label": "Phase3_15F_First00",
    "text": "Allora, Ordine...{{delay frames=\"15\"}} Voglio dire, Minusco...{{delay frames=\"30\"}} Insomma,\ncos'ha combinato dopo la nostra grande vittoria?"
  },
  {
    "label": "Phase3_15F_First01",
    "text": "Me lo sono chiesto anch'io. {{delay frames=\"15\"}}Non ho trovato\nnulla che indicasse che ha lasciato il Noriverse."
  },
  {
    "label": "Phase3_15F_First02",
    "text": "Ma non ce n'è traccia neanche fuori della torre.{{delay frames=\"30\"}}\nÈ probabile che sia ancora qui."
  },
  {
    "label": "Phase3_15F_First03",
    "text": "Ora però non ha abbastanza potere per mettere\ni suoi tentacoli sul mondo reale. {{delay frames=\"15\"}}Per cui non credo\nche sia ancora una minaccia. Forse."
  },
  {
    "label": "Phase3_15F_First04",
    "text": "Spero che non stia tramando qualche piano\ndi vendetta, perché non ho proprio voglia di\naffrontarlo di nuovo."
  },
  {
    "label": "Phase3_15F_First05",
    "text": "Non ti preoccupare. {{delay frames=\"15\"}}Terrò gli occhi aperti.\nSe si rifarà vivo, non ci faremo sorprendere."
  },
  {
    "label": "Phase3_15F_First06",
    "text": "Molto bene. Nel frattempo, voi due cercate\ndi superare tutti i piani rimanenti."
  },
  {
    "label": "Phase3_15F_First07",
    "text": "Agli ordini! {{delay frames=\"30\"}}Dopo di te, Otto."
  },
  {
    "label": "Phase3_19F_First00",
    "text": "Otto, stai facendo faville! {{delay frames=\"30\"}}Ma attenzione\nal prossimo boss."
  },
  {
    "label": "Phase3_19F_First01",
    "text": "Ehi, Nori! {{delay frames=\"15\"}}Dimmi che hai qualche arma segreta\nin grado di sistemare il boss con un colpo solo!"
  },
  {
    "label": "Phase3_19F_First02",
    "text": "In effetti... {{delay frames=\"30\"}}Che ne dite di provare il prototipo\ndel \"Razzo Sprazzante un po' Sprezzante\" che\nho progettato mentre sviluppavo il Noriverse?"
  },
  {
    "label": "Phase3_19F_First03",
    "text": "Uuuh, il nome mi piace! {{delay frames=\"15\"}}Non vedo l'ora di far saltare\nin aria il boss con un razzo ben assestato!"
  },
  {
    "label": "Phase3_19F_First04",
    "text": "Vi avverto: {{delay frames=\"15\"}}forse ho esagerato con la potenza.\nSecondo la mia ultima simulazione, c'è una probabilità\ndell'88,8% che possa distruggere interamente la torre."
  },
  {
    "label": "Phase3_19F_First05",
    "text": "... Ripensandoci, meglio lasciar perdere."
  },
  {
    "label": "Phase3_20F_First00",
    "text": "Sono senza parole, Otto! {{delay frames=\"30\"}}Come hai fatto\na diventare così forte?"
  },
  {
    "label": "Phase3_20F_First01",
    "text": "Mh. {{delay frames=\"15\"}}Acht, non avevi detto che volevi tornare\nnel Noriverse per \"confermare qualcosa\"?{{pageBreak}}Non sarà che quel \"qualcosa\" {{delay frames=\"15\"}}è il segreto del\ntalento di Otto?"
  },
  {
    "label": "Phase3_20F_First02",
    "text": "Ah ah! In realtà no. {{delay frames=\"15\"}}Non ho nessun interesse\nnel diventare migliore sul campo di battaglia."
  },
  {
    "label": "Phase3_20F_First03",
    "text": "Ih ih! Poco ma sicuro. {{delay frames=\"30\"}}Ricordo bene quando\nmarinavi le esercitazioni militari."
  },
  {
    "label": "Phase3_20F_First04",
    "text": "Allora di cosa si trattava? Sono curiosa."
  },
  {
    "label": "Phase3_20F_First05",
    "text": "Beh, non voglio farne certo un caso, ma...{{delay frames=\"30\"}}\nAlga, conosci la metropolpitana?"
  },
  {
    "label": "Phase3_20F_First06",
    "text": "Eh? Perché te ne esci con questa cosa? {{delay frames=\"30\"}}No, non ci\nsono mai stata.{{delay frames=\"15\"}} Mi ci sono avvicinata solo una volta...\n{{delay frames=\"15\"}}Dev'essere stato almeno cinque anni fa."
  },
  {
    "label": "Phase3_20F_First07",
    "text": "Ah, sì! Quando siamo andate a salvare Otto!{{delay frames=\"30\"}}\nSe ripenso al tuo urlo di quel giorno mi vengono\nancora le squame d'oca!"
  },
  {
    "label": "Phase3_20F_First08",
    "text": "Ecco. {{delay frames=\"15\"}}Allora confermi che era la voce di Alga?"
  },
  {
    "label": "Phase3_20F_First09",
    "text": "Cioè era questo che volevi sapere?"
  },
  {
    "label": "Phase3_20F_First10",
    "text": "Proprio così. E ora lo so per certo.{{delay frames=\"30\"}} Quindi...{{delay frames=\"15\"}}\ngrazie, Alga."
  },
  {
    "label": "Phase3_20F_First11",
    "text": "Eh?{{delay frames=\"15\"}} Grazie di cosa? {{delay frames=\"30\"}}Comunque... non c'è di che."
  },
  {
    "label": "Phase3_25F_First00",
    "text": "Mmmh...{{delay frames=\"15\"}} Certo che ne abbiamo fatta di strada, eh?{{delay frames=\"30\"}}\nA occhio e croce dovremmo essere quasi in cima."
  },
  {
    "label": "Phase3_25F_First01",
    "text": "Otto! Alga! {{delay frames=\"15\"}}Indovinate... {{delay frames=\"30\"}}abbiamo informazioni\nfresche su che fine ha fatto Minusco!"
  },
  {
    "label": "Phase3_25F_First02",
    "text": "Cosa?! {{delay frames=\"15\"}}Oh no. {{delay frames=\"30\"}}Non l'abbiamo ancora rivisto, quindi\nho un po' paura di quello che mi stai per dire..."
  },
  {
    "label": "Phase3_25F_First03",
    "text": "E forse fai bene. {{delay frames=\"30\"}}Minusco si trova nella sala\ncomandi all'ultimo piano."
  },
  {
    "label": "Phase3_25F_First04",
    "text": "OVVIAMENTE!"
  },
  {
    "label": "Phase3_25F_First05",
    "text": "Ho un brutto presentimento,{{delay frames=\"30\"}} ma ormai siamo\ntroppo vicini all'obiettivo. Occhi aperti, Otto!"
  },
  {
    "label": "Phase3_29F_NotClr00_00",
    "text": "Finalmente l'ultimo piano. {{delay frames=\"30\"}}Credete che\nquel molluscaccio di Minusco sia qui?"
  },
  {
    "label": "Phase3_29F_NotClr00_01",
    "text": "Sì. {{delay frames=\"15\"}}Si è rintanato nella sala comandi, pare."
  },
  {
    "label": "Phase3_29F_NotClr00_02",
    "text": "Speriamo che ci lasci riconfigurare la tavoletta.{{delay frames=\"30\"}}\nAnche se non ci conto molto."
  },
  {
    "label": "Phase3_29F_NotClr00_03",
    "text": "Forse dovremo affrontarlo di nuovo.{{delay frames=\"30\"}} Stai all'erta, Otto!"
  },
  {
    "label": "Phase3_29F_NotClr01_00",
    "text": "Siamo arrivati all'ultimo piano. {{delay frames=\"30\"}}Scommetto che\nMinusco proverà di nuovo a fermarci."
  },
  {
    "label": "Phase3_29F_NotClr01_01",
    "text": "Secondo voi perché è così stoccafissato\ncon questa storia del mondo di ordine?"
  },
  {
    "label": "Phase3_29F_NotClr01_02",
    "text": "Forse lo sapremmo se conoscessimo le origini\ndi Minusco, {{delay frames=\"15\"}}o per meglio dire, Ordine."
  },
  {
    "label": "Phase3_29F_NotClr01_03",
    "text": "Non mi pare il tipo che parla molto di sé."
  },
  {
    "label": "Phase3_29F_NotClr01_04",
    "text": "Bah, non importa. Noi siamo qui per riconfigurare\nquesta tavoletta e basta. {{delay frames=\"30\"}}Forza, Otto!"
  },
  {
    "label": "Phase3_29F_NotClr02_00",
    "text": "Manca poco alla sala comandi, però..."
  },
  {
    "label": "Phase3_29F_NotClr02_01",
    "text": "Dobbiamo di nuovo affrontare Minusco, eh?{{pageBreak}}Ma è una tassa fissa finché non riconfiguriamo\ntutte le tavolette?!"
  },
  {
    "label": "Phase3_29F_NotClr02_02",
    "text": "È probabile, se Minusco non si arrende prima."
  },
  {
    "label": "Phase3_29F_NotClr02_03",
    "text": "UFFAAA! È ora di darci un taglio! {{delay frames=\"30\"}}Otto, stavolta\nlo facciamo ragionare sul serio!"
  },
  {
    "label": "Phase3_29F_NotClr03_00",
    "text": "Minusco ha detto che il Noriverse \"l'abbiamo\nfatto tutti insieme\", o qualcosa del genere.{{pageBreak}}Ma in realtà l'ha creato Nori, no?{{delay frames=\"30\"}}\nQuindi che cosa voleva dire con \"tutti\"?"
  },
  {
    "label": "Phase3_29F_NotClr03_01",
    "text": "È vero che mi hanno aiutata dei tecnici Octoling,{{delay frames=\"30\"}}\nma non credo che Minusco parlasse di loro."
  },
  {
    "label": "Phase3_29F_NotClr03_02",
    "text": "Dev'esserci qualche collegamento tra\nMinusco e gli sviluppatori del Noriverse."
  },
  {
    "label": "Phase3_29F_NotClr03_03",
    "text": "Allora chiediamolo direttamente a lui!"
  },
  {
    "label": "Phase3_29F_NotClr04_00",
    "text": "Quindi Ordine sarebbe nato dal desiderio degli sviluppatori\ndel Noriverse di avere un mondo che non cambia mai?"
  },
  {
    "label": "Phase3_29F_NotClr04_01",
    "text": "Tsk, erano fuori di cefalo?!"
  },
  {
    "label": "Phase3_29F_NotClr04_02",
    "text": "Magari Minusco ce lo spiegherà.\nMa chissà se vorrà farlo..."
  },
  {
    "label": "Phase3_29F_NotClr04_03",
    "text": "Di certo non sarà l'ultima volta che lo incontriamo.{{delay frames=\"30\"}}\nE magari prima o poi deciderà di essere più loquace."
  },
  {
    "label": "Phase3_29F_NotClr05_00",
    "text": "Credo che Minusco pensi che l'ho tradito. Ho avuto\nquest'impressione durante l'ultimo incontro."
  },
  {
    "label": "Phase3_29F_NotClr05_01",
    "text": "Se Minusco è nato da un desiderio degli sviluppatori\ndel Noriverse, potrebbe vedere Nori come sua madre.{{pageBreak}}Lo so, fa accapponare le squame... {{delay frames=\"30\"}}ma forse si comporta\ncosì perché non riesce a farle capire cosa vuole?"
  },
  {
    "label": "Phase3_29F_NotClr05_02",
    "text": "E anche se fosse? {{delay frames=\"15\"}}Mica gliela daremo vinta!"
  },
  {
    "label": "Phase3_29F_NotClr05_03",
    "text": "Ma ora la priorità è riconfigurare le tavolette.{{delay frames=\"30\"}}\nForza, Otto!"
  },
  {
    "label": "Phase3_29F_NotClr06_00",
    "text": "Il mondo degli Octoling è cambiato moltissimo\nnegli ultimi anni, su questo Minusco ha ragione."
  },
  {
    "label": "Phase3_29F_NotClr06_01",
    "text": "Ci credo che gli sviluppatori del Noriverse\nhanno avuto problemi ad adattarsi."
  },
  {
    "label": "Phase3_29F_NotClr06_02",
    "text": "Già...{{delay frames=\"15\"}} So come ci si sente quando qualcosa\no qualcuno a cui tieni molto cambia."
  },
  {
    "label": "Phase3_29F_NotClr06_03",
    "text": "Ma se cambia in meglio, che problema c'è?{{delay frames=\"30\"}} Zero!"
  },
  {
    "label": "Phase3_29F_NotClr06_04",
    "text": "Otto! {{delay frames=\"15\"}}Tu che ne pensi?"
  },
  {
    "label": "Phase3_29F_NotClr07_00",
    "text": "Siamo a buon punto con la riconfigurazione\ndelle tavolette."
  },
  {
    "label": "Phase3_29F_NotClr07_01",
    "text": "Proprio così.{{delay frames=\"15\"}} Ed è tutto merito vostro!"
  },
  {
    "label": "Phase3_29F_NotClr07_02",
    "text": "Ormai dovremmo aver riconfigurato più\ndella metà di tutte le tavolette nel Noriverse."
  },
  {
    "label": "Phase3_29F_NotClr07_03",
    "text": "Mitilico! {{delay frames=\"15\"}}Allora continuiamo con questo ritmo!"
  },
  {
    "label": "Phase3_29F_NotClr08_00",
    "text": "Accidentice, che assalto... {{delay frames=\"30\"}}Siamo già all'ultimo piano!"
  },
  {
    "label": "Phase3_29F_NotClr08_01",
    "text": "Ora occupiamoci di Minusco e poi\nriconfiguriamo la tavoletta."
  },
  {
    "label": "Phase3_29F_NotClr08_02",
    "text": "Wow, ho perso il conto di quante volte abbiamo\nspazzato via quella canaglia... {{delay frames=\"30\"}}Ma si arrende o no?!"
  },
  {
    "label": "Phase3_29F_NotClr08_03",
    "text": "Potrebbe anche succedere. {{delay frames=\"15\"}}O magari no."
  },
  {
    "label": "Phase3_29F_NotClr09_00",
    "text": "Minusco proprio non vuole farci riconfigurare\nle tavolette..."
  },
  {
    "label": "Phase3_29F_NotClr09_01",
    "text": "Già. È strano, tecnicamente la nostra\nmissione non ha nulla a che fare con lui..."
  },
  {
    "label": "Phase3_29F_NotClr09_02",
    "text": "Ma allora perché continua a metterci i bastoni\ntra i tentacoli?{{delay frames=\"30\"}} Sarà una sorta di vendetta?"
  },
  {
    "label": "Phase3_29F_NotClr09_03",
    "text": "Eh eh..."
  },
  {
    "label": "Phase3_29F_NotClr09_04",
    "text": "Ehi, Acht, perché non fai ridere anche noi?"
  },
  {
    "label": "Phase3_29F_NotClr09_05",
    "text": "Dovete chiedere a Minusco, non a me."
  },
  {
    "label": "Phase3_29F_NotClr10_00",
    "text": "OK. {{delay frames=\"15\"}}Ci siamo."
  },
  {
    "label": "Phase3_29F_NotClr10_01",
    "text": "Riconfiguriamo la tavoletta di Otto\ne finalmente potremo riposarci."
  },
  {
    "label": "Phase3_29F_NotClr10_02",
    "text": "Otto, Alga, Acht, {{delay frames=\"15\"}}grazie infinite!"
  },
  {
    "label": "Phase3_29F_NotClr10_03",
    "text": "Aspetta a cantare vittoria, Nori."
  },
  {
    "label": "Phase3_29F_NotClr10_04",
    "text": "Prima dobbiamo riconfigurare la tavoletta\ndi Otto.{{delay frames=\"30\"}} Ebbene sì, il momento è arrivato, Otto!"
  },
  {
    "label": "Phase3_29F_ClearedPlt00_00",
    "text": "Mitilico! {{delay frames=\"15\"}}Resta solo un piano!"
  },
  {
    "label": "Phase3_29F_ClearedPlt00_01",
    "text": "Il che significa un'altra battaglia contro Minusco."
  },
  {
    "label": "Phase3_29F_ClearedPlt00_02",
    "text": "È probabile, sì. {{delay frames=\"30\"}}Però io sono tranquilla.{{delay frames=\"15\"}} Abbiamo\ndimostrato di farcela e ce la faremo di nuovo!"
  },
  {
    "label": "Phase3_29F_ClearedPlt01_00",
    "text": "Che assalto mitilico! {{delay frames=\"30\"}}Prossima fermata: ultimo piano!"
  },
  {
    "label": "Phase3_29F_ClearedPlt01_01",
    "text": "È probabile che Minusco si metterà di nuovo in mezzo,{{delay frames=\"15\"}}\nma faremo i conti con lui quando sarà il momento!"
  },
  {
    "label": "Phase3_29F_ClearedPlt01_02",
    "text": "Avere fiducia in se stessi è importante,{{delay frames=\"15\"}}\nma cerca di non esagerare."
  },
  {
    "label": "Phase3_29F_ClearedPlt02_00",
    "text": "Stiamo per raggiungere l'ultimo piano."
  },
  {
    "label": "Phase3_29F_ClearedPlt02_01",
    "text": "Potrebbe esserci Minusco ad\nattenderci per un nuovo scontro."
  },
  {
    "label": "Phase3_29F_ClearedPlt02_02",
    "text": "Se è questo ciò che vuole, lo avrà!{{delay frames=\"30\"}}\nArmi pronte, Otto. {{delay frames=\"15\"}}Si va!"
  },
  {
    "label": "Phase3_29F_Complete00_00",
    "text": "Una vittoria dopo l'altra! {{delay frames=\"15\"}}Non ci ferma nessuno!"
  },
  {
    "label": "Phase3_29F_Complete00_01",
    "text": "Secondo voi quante volte abbiamo scalato la torre?"
  },
  {
    "label": "Phase3_29F_Complete00_02",
    "text": "Mah, ho smesso di contarle già da un po'."
  },
  {
    "label": "Phase3_29F_Complete01_00",
    "text": "Un ultimo sforzo: {{delay frames=\"15\"}}la sala comandi."
  },
  {
    "label": "Phase3_29F_Complete01_01",
    "text": "Credete che quel pesce lesso\ndi Minusco sia lì ad aspettarci?"
  },
  {
    "label": "Phase3_29F_Complete01_02",
    "text": "Secondo me è sempre lì. {{delay frames=\"30\"}}È un po' come\nuna casa per lui."
  },
  {
    "label": "Phase3_29F_Complete02_00",
    "text": "Oh! {{delay frames=\"15\"}}Siamo già all'ultimo piano?"
  },
  {
    "label": "Phase3_29F_Complete02_01",
    "text": "Secondo me Minusco non vede l'ora di affrontarvi."
  },
  {
    "label": "Phase3_29F_Complete02_02",
    "text": "Dici? Eppure non mi sembra che porti l'orologio..."
  },
  {
    "label": "Phase3_PreBoss_00_00",
    "text": "Il prossimo sarà uno scontro bello tosto.{{delay frames=\"30\"}}\nFate attenzione, mi raccomando!"
  },
  {
    "label": "Phase3_PreBoss_00_01",
    "text": "Non fate nulla che io non farei."
  },
  {
    "label": "Phase3_PreBoss_00_02",
    "text": "Sì sì, avete reso l'idea. {{delay frames=\"15\"}}Dai Otto,\nandiamo a divertirci un po'!"
  },
  {
    "label": "Phase3_PreBoss_01_00",
    "text": "Quindi adesso ci tocca affrontare un boss?{{delay frames=\"30\"}}\nBeh, che si faccia avanti. Se ne pentirà!"
  },
  {
    "label": "Phase3_PreBoss_01_01",
    "text": "{{size value=\"75\"}}Che mitiiilica...{{size value=\"100\"}}"
  },
  {
    "label": "Phase3_PreBoss_01_02",
    "text": "Beh, {{delay frames=\"15\"}}in bocca al pescelupo."
  },
  {
    "label": "Phase3_PreBoss_02_00",
    "text": "Al prossimo piano vi attende una bella sfida.{{delay frames=\"30\"}}\nMi raccomando, cercate di non strafare."
  },
  {
    "label": "Phase3_PreBoss_02_01",
    "text": "Sì, non fate il passo più lungo del tentacolo."
  },
  {
    "label": "Phase3_PreBoss_02_02",
    "text": "Smettetela con tutte queste ciance! {{delay frames=\"30\"}}Otto\ne io sappiamo bene quello che facciamo!"
  },
  {
    "label": "Phase3_PostBoss_00_00",
    "text": "È un sollievo vedere che state bene!"
  },
  {
    "label": "Phase3_PostBoss_00_01",
    "text": "Bella battaglia. {{delay frames=\"15\"}}Comunque la cosa non mi sorprende."
  },
  {
    "label": "Phase3_PostBoss_00_02",
    "text": "È stato un gioco da avannotti!{{delay frames=\"15\"}}\nOtto, è così che si scala la torre!"
  },
  {
    "label": "Phase3_PostBoss_01_00",
    "text": "AH AH AH! {{delay frames=\"30\"}}I boss ci fanno un baffo da pesce gatto!"
  },
  {
    "label": "Phase3_PostBoss_01_01",
    "text": "Siete l'incarnazione della mitilicità."
  },
  {
    "label": "Phase3_PostBoss_01_02",
    "text": "È un bene che stiamo dalla stessa parte."
  },
  {
    "label": "Phase3_PostBoss_02_00",
    "text": "Otto, è stato incredibile. {{delay frames=\"30\"}}Sapevo già\nche eri mooolto in gambero, ma non così."
  },
  {
    "label": "Phase3_PostBoss_02_01",
    "text": "Ah, alla fine te ne sei accorta? {{delay frames=\"30\"}}È Otto che è incredibile!"
  },
  {
    "label": "Phase3_PostBoss_02_02",
    "text": "E Alga è incredibilmente incredibile!{{delay frames=\"30\"}} Giusto, Acht?"
  },
  {
    "label": "Phase3_PostBoss_02_03",
    "text": "Uh...{{delay frames=\"15\"}} sì. {{delay frames=\"15\"}}Senza dubbio."
  },
  {
    "label": "Phase3_PostBoss_03_00",
    "text": "Devo ammettere che lo fate sembrare semplice.{{delay frames=\"30\"}}\nMa non vi spaventa affrontare quei cosi?"
  },
  {
    "label": "Phase3_PostBoss_03_01",
    "text": "Sono tosti, ma non abbiamo paura. {{delay frames=\"30\"}}Aver affrontato\nNori nella versione precedente della torre, quello sì\nche è stato davvero spaventoso!"
  },
  {
    "label": "Phase3_PostBoss_03_02",
    "text": "Che cosa?! {{delay frames=\"30\"}}S-Scherzi?"
  },
  {
    "label": "Phase3_PostBoss_03_03",
    "text": "Nient'affatto! {{delay frames=\"30\"}}Anche solo pensare che saresti rimasta\nper sempre in quello stato...{{delay frames=\"30\"}} mi terrorizzava!"
  },
  {
    "label": "Phase3_PostBoss_03_04",
    "text": "Ooooh, Alguccia..."
  },
  {
    "label": "Phase3_PostBoss_03_05",
    "text": "Ehm... {{delay frames=\"30\"}}Otto, è in momenti come questi...{{delay frames=\"15\"}}\nche sono felice che anche tu sia qui."
  },
  {
    "label": "Phase3_Chat_00_00",
    "text": "Ormai tu e quell'arma siete una cosa sola!"
  },
  {
    "label": "Phase3_Chat_00_01",
    "text": "A proposito, la mia tavoletta prevede il\nrepolper, no?{{delay frames=\"30\"}} Lo adoro come arma principale!\n{{delay frames=\"15\"}}Sono felice che Otto l'abbia scelto."
  },
  {
    "label": "Phase3_Chat_00_02",
    "text": "Eh sì! {{delay frames=\"30\"}}Ogni tavoletta è automaticamente impostata\nsull'arma preferita dall'anima del proprietario."
  },
  {
    "label": "Phase3_Chat_00_03",
    "text": "Ah! {{delay frames=\"30\"}}Ecco perché la tua è lo sparasole."
  },
  {
    "label": "Phase3_Chat_00_04",
    "text": "Mai sentito parlare di \"sparasole\" prima di venire qui."
  },
  {
    "label": "Phase3_Chat_00_05",
    "text": "Sì, è una novità. {{delay frames=\"15\"}}Beh, più o meno, lo sparasole\nè in circolo già da qualche anno, ormai."
  },
  {
    "label": "Phase3_Chat_00_06",
    "text": "Quando si apre fa FWOMP! {{delay frames=\"15\"}}E poi TA-DAAA!\nE continua con PEW, PEW!{{delay frames=\"30\"}} Un vero spasso."
  },
  {
    "label": "Phase3_Chat_00_07",
    "text": "Sì...{{delay frames=\"15\"}} immagino..."
  },
  {
    "label": "Phase3_Chat_01_00",
    "text": "OK. {{delay frames=\"30\"}}Ora le cose si fanno serie!"
  },
  {
    "label": "Phase3_Chat_01_01",
    "text": "Non so tu, ma io ne ho abbastanza\ndi quegli Ossimolli!"
  },
  {
    "label": "Phase3_Chat_01_02",
    "text": "In origine erano il personale della torre,{{delay frames=\"15\"}} poi\nOrdine li ha modificati e ora sono così..."
  },
  {
    "label": "Phase3_Chat_01_03",
    "text": "Erano molto più carini come li avevo progettati io."
  },
  {
    "label": "Phase3_Chat_01_04",
    "text": "In effetti ora sono tremendi."
  },
  {
    "label": "Phase3_Chat_01_05",
    "text": "Eh. {{delay frames=\"15\"}}Avreste dovuto vederli come li avevo\nimmaginati: li avreste trovati irresistibili!"
  },
  {
    "label": "Phase3_Chat_02_00",
    "text": "Acht,{{delay frames=\"15\"}} ti ricordi quel gioco che avevo sviluppato\ntempo fa?{{delay frames=\"30\"}} Solo tu riuscivi a finirlo..."
  },
  {
    "label": "Phase3_Chat_02_01",
    "text": "Ah sì, quello musicale al ritmo di 888 battute\nal minuto...{{delay frames=\"30\"}} Lo ricordo...{{delay frames=\"30\"}} e mi gira la testa solo\na pensarci."
  },
  {
    "label": "Phase3_Chat_02_02",
    "text": "Ho persino creato un seguito, ancora più difficile."
  },
  {
    "label": "Phase3_Chat_02_03",
    "text": "Eeeh?! {{delay frames=\"15\"}}Più difficile? {{delay frames=\"30\"}}E io che ti consigliavo di\nrallentare il ritmo e ridurre il numero di note!"
  },
  {
    "label": "Phase3_Chat_02_04",
    "text": "Beh, ho pensato...{{delay frames=\"15\"}} che un gioco troppo facile non\nsarebbe stato divertente.{{delay frames=\"30\"}} E siccome Alga l'ha\nfinito senza battere pinna..."
  },
  {
    "label": "Phase3_Chat_02_05",
    "text": "Ah, parlate di quella roba in cui devi premere un\npulsante quando senti un suono?{{delay frames=\"30\"}} Lo chiamate difficile?"
  },
  {
    "label": "Phase3_Chat_02_06",
    "text": "Da non crederci."
  },
  {
    "label": "Phase3_Chat_03_00",
    "text": "Yo, Acht! {{delay frames=\"15\"}}Perché non ci racconti qualche\naneddoto divertente su Nori?"
  },
  {
    "label": "Phase3_Chat_03_01",
    "text": "M-Ma! {{delay frames=\"15\"}}E dai, {{delay frames=\"15\"}}Alga..."
  },
  {
    "label": "Phase3_Chat_03_02",
    "text": "Vediamo... {{delay frames=\"30\"}}Una volta si era messa a parlare\ndi ruspe per due ore. E nessuno l'ascoltava."
  },
  {
    "label": "Phase3_Chat_03_03",
    "text": "Wow, davvero?! {{delay frames=\"15\"}}Incredibile, Nori. {{delay frames=\"30\"}}D'altronde,\nuna tipa col dono della sintesi come te..."
  },
  {
    "label": "Phase3_Chat_03_04",
    "text": "Al tempo ero una nerd giovane e inesperta. {{delay frames=\"30\"}}Sono sicura\nche oggi trasmetterei con molta più efficacia e dovizia\ndi particolari il fascino dei movimenti del..."
  },
  {
    "label": "Phase3_Chat_03_05",
    "text": "Otto, saliamo subito al prossimo piano!"
  },
  {
    "label": "Phase3_Chat_04_00",
    "text": "Uh, mi sono appena ricordata che il nostro tour mondiale\nè finito.{{delay frames=\"30\"}} È stato uno spasso! {{delay frames=\"30\"}}Ne facciamo un altro?"
  },
  {
    "label": "Phase3_Chat_04_01",
    "text": "Avete dato spettacolo. {{delay frames=\"30\"}}E il pubblico\nandava...{{delay frames=\"15\"}} quasi innaturalmente in visibilio."
  },
  {
    "label": "Phase3_Chat_04_02",
    "text": "Credi?! {{delay frames=\"15\"}}Chissà..."
  },
  {
    "label": "Phase3_Chat_04_03",
    "text": "Che c'è, Nori?"
  },
  {
    "label": "Phase3_Chat_04_04",
    "text": "Durante la battaglia con Ordine, la voce di Alga\npotrebbe aver lasciato una traccia nell'inconscio delle\nmenti collegate al Noriverse... {{delay frames=\"15\"}}In teoria...{{size value=\"75\"}} Mmmmmh...{{size value=\"100\"}}"
  },
  {
    "label": "Phase3_Chat_04_05",
    "text": "Allora è vero che la voce di Alga resta letteralmente\nimpressa in chi la ascolta..."
  },
  {
    "label": "Phase3_Chat_05_00",
    "text": "Senti, Acht...{{delay frames=\"15\"}} Si è arrabbiato qualcuno quando\nho lasciato il mondo degli Octoling tempo fa?"
  },
  {
    "label": "Phase3_Chat_05_01",
    "text": "Più che arrabbiati, {{delay frames=\"15\"}}molti erano scioccati.{{delay frames=\"30\"}}\nInsomma, non è che i migliori soldati di solito\nspariscano così, all'improvviso."
  },
  {
    "label": "Phase3_Chat_05_02",
    "text": "AH! {{delay frames=\"15\"}}Ma Nori è fatta così! Quando si mette in\ntesta una cosa, non c'è verso di fermarla!"
  },
  {
    "label": "Phase3_Chat_05_03",
    "text": "In realtà, a quel tempo non avevo considerato le\nconseguenze delle mie azioni.{{delay frames=\"30\"}} Scusami se me ne\nsono andata senza dire una parola."
  },
  {
    "label": "Phase3_Chat_05_04",
    "text": "Non c'è bisogno di scusarsi. {{delay frames=\"30\"}}La cosa non mi ha\ncreato problemi. Non molti, perlomeno."
  },
  {
    "label": "Phase3_Chat_05_05",
    "text": "Chi parla male di Nori se la vedrà coi miei rotori\nin ogni caso! {{delay frames=\"30\"}}Anche se è un suo vecchio amico!"
  },
  {
    "label": "Phase3_Chat_05_06",
    "text": "Grazie, Alguccia. {{delay frames=\"30\"}}Sei mitilica..."
  },
  {
    "label": "Phase3_Chat_06_00",
    "text": "Yo, Nori! {{delay frames=\"15\"}}Non sarebbe fantastico se questo ascensore\nandasse velocissimo su e giù come le montagne russe?"
  },
  {
    "label": "Phase3_Chat_06_01",
    "text": "Ma no! {{delay frames=\"15\"}}Il suo scopo è aiutare la gente,\nnon farla vomitare."
  },
  {
    "label": "Phase3_Chat_07_00",
    "text": "Mmmh..."
  },
  {
    "label": "Phase3_Chat_07_01",
    "text": "Che c'è, Nori? {{delay frames=\"15\"}}Sei stanca?"
  },
  {
    "label": "Phase3_Chat_07_02",
    "text": "Oh, chiedo scusa! {{delay frames=\"30\"}}Veramente no, ero solo\naffascinata dal tuo aspetto dronesco, Alga!"
  },
  {
    "label": "Phase3_Chat_07_03",
    "text": "OK... Quindi va tutto bene."
  },
  {
    "label": "Phase3_Chat_08_00",
    "text": "Oh, no! Calma e sangue freddo, ma...{{delay frames=\"30\"}} credo\ndi aver lasciato il mio ombrello sull'aereo!"
  },
  {
    "label": "Phase3_Chat_08_01",
    "text": "Come?! {{delay frames=\"15\"}}Quello che hai portato come souvenir del tour?"
  },
  {
    "label": "Phase3_Chat_08_02",
    "text": "Contatta l'aeroporto. Lì ti aiuteranno."
  },
  {
    "label": "Phase3_Chat_08_03",
    "text": "Naaah. {{delay frames=\"15\"}}Se l'ombrello è sull'aereo, allora è ancora nel\nnostro giardino. Lo riprenderò quando avremo finito qui."
  },
  {
    "label": "Phase3_Chat_08_04",
    "text": "Giardino? {{delay frames=\"30\"}}Ma intendiamo la stessa cosa per \"aereo\"?"
  },
  {
    "label": "Phase3_Chat_09_00",
    "text": "In questa forma di drone posso volare e osservarvi\ndall'alto! {{delay frames=\"30\"}}Da lì Nori sembra una macchiolina, che spasso!"
  },
  {
    "label": "Phase3_Chat_09_01",
    "text": "Beh, non volare troppo in alto o il vento ti porterà via."
  },
  {
    "label": "Hint_CollectionEnm_00",
    "text": "Continuiamo a salire, Otto!"
  },
  {
    "label": "Hint_CollectionEnm_01",
    "text": "Ma prima, una cosa. {{delay frames=\"15\"}}Stiamo registrando i dati di ogni\nscontro con gli Ossimolli nella {{color id=\"4\"}}Guida Ossimolli{{color id=\"65535\"}}."
  },
  {
    "label": "Hint_CollectionEnm_02",
    "text": "Lì troverete delle informazioni, come i loro punti deboli.\nOgni tanto consultate la guida con {{icon id=\"82\" arg=\"0x0000803F00000000\"}}, vi conviene."
  },
  {
    "label": "Hint_SelectTip_00",
    "text": "Lavoro eccellente, Otto! Vai alla grandissima!"
  },
  {
    "label": "Hint_SelectTip_01",
    "text": "Otto, vuoi sapere una cosa? {{delay frames=\"15\"}}Ogni tavoletta\nha delle {{color id=\"4\"}}tonalità frequenti {{color id=\"65535\"}}che stabiliscono\nquali schede colore vedi nella torre."
  },
  {
    "label": "Hint_SelectTip_02",
    "text": "Premi {{icon id=\"72\" arg=\"0x0000803F00000000\"}} per vedere quali tonalità è più probabile\nche troverai per la tua attuale tavoletta."
  },
  {
    "label": "Hint_SelectTip_03",
    "text": "Se non sai quale scheda colore scegliere, di\nsolito con le tonalità frequenti vai sul sicuro."
  },
  {
    "label": "Hint_Cage_00",
    "text": "Abbiamo il vento in poppa, Otto!"
  },
  {
    "label": "Hint_Cage_01",
    "text": "A proposito di velocità... {{delay frames=\"15\"}}Volevo ricordarvi che è possibile\naumentare la velocità della gabbia inclinando {{icon id=\"75\" arg=\"0xEC51383FFEFFFFFF\"}}."
  },
  {
    "label": "Hint_Cage_02",
    "text": "Per carità, è possibile anche farla andare da sola, eh.{{delay frames=\"15\"}}\nMa se avete fretta, darle una spintarella non guasta."
  },
  {
    "label": "Hint_LookPalette_00",
    "text": "Mitilico! Via così!"
  },
  {
    "label": "Hint_LookPalette_01",
    "text": "Uhm, quale scheda colore ci capiterà? {{delay frames=\"30\"}}Spero\ntanto una di quelle più mitiliche in assoluto!"
  },
  {
    "label": "Hint_LookPalette_02",
    "text": "Va benissimo anche ottenere una scheda colore che già\navete. {{delay frames=\"30\"}}Perché alcune schede colore diventano ancora più\nefficaci quando ne avete diverse dello stesso tipo."
  },
  {
    "label": "Hint_LookPalette_03",
    "text": "Otto, se non ricordi quali schede colore stai usando,{{delay frames=\"15\"}}\npremi {{icon id=\"72\" arg=\"0x0000803F00000000\"}} per una rinfrescata in merito alla tavoletta."
  },
  {
    "label": "Hint_HackingRetry_00",
    "text": "E anche questa è fatta! {{delay frames=\"15\"}}Ma non abbiamo ancora finito!"
  },
  {
    "label": "Hint_HackingRetry_01",
    "text": "Otto... {{delay frames=\"15\"}}Anche quando non raggiungete l'ultimo piano,\nnoi registriamo tutto l'assalto, piano per piano.{{pageBreak}}Se vuoi {{color id=\"4\"}}riprovare {{color id=\"65535\"}}un assalto finito male, vieni\na parlarmi fuori, ai piedi della torre."
  },
  {
    "label": "Hint_HackingRetry_02",
    "text": "Adesso sì che non abbiamo proprio nulla da perdere!{{delay frames=\"30\"}}\nPotremmo anche andare lì fuori allo sbaraglio! {{delay frames=\"15\"}}Eh eh eh!"
  },
  {
    "label": "Hint_HackingRetry_03",
    "text": "\"Sbaraglio\" non è il termine che avrei usato."
  },
  {
    "label": "Hint_CollectionInElv_00",
    "text": "Molto bene. {{delay frames=\"15\"}}State facendo grandi progressi.{{delay frames=\"30\"}}\nE impostando più schede colore dovreste\nriuscire a continuare con una certa efficienza."
  },
  {
    "label": "Hint_CollectionInElv_01",
    "text": "A proposito di schede colore...{{delay frames=\"15\"}} Nella sezione\n{{color id=\"4\"}}Schede colore{{color id=\"65535\"}} stiamo raccogliendo informazioni\nsu quelle che avete già ottenuto."
  },
  {
    "label": "Hint_CollectionInElv_02",
    "text": "È possibile accedervi qui nell'ascensore premendo {{icon id=\"82\" arg=\"0x0000803F00000000\"}}."
  },
  {
    "label": "Hint_CollectionInElv_03",
    "text": "Mitilico! {{delay frames=\"15\"}}Quali sorpresine ci saranno in serbo per noi?{{delay frames=\"30\"}}\nDai, Otto, ogni tanto conviene dare un'occhiata!"
  },
  {
    "label": "Hint_Difficulty_02",
    "text": "Otto, ti ho già detto che ottieni più norilir\nse completi i piani più difficili?"
  },
  {
    "label": "Hint_Difficulty_03",
    "text": "Perciò, se sei quasi al verde, affrontane qualcuno\ne rimpinguerai il tuo portafoglio virtuale in un lampo."
  },
  {
    "label": "Hint_Difficulty_05",
    "text": "Mi ricorda quel vecchietto che diceva sempre:{{delay frames=\"15\"}}\n\"Il lavoro duro è la spezia migliore che ci sia.\"{{delay frames=\"15\"}}\nO qualcosa del genere. Non ci ho mai dato peso."
  },
  {
    "label": "Hint_Difficulty_06",
    "text": "Ah ah ah! Me n'ero dimenticata!{{delay frames=\"30\"}} Poi iniziava\na urlare e tirava fuori le radici di wasabi..."
  },
  {
    "label": "Hint_Difficulty_07",
    "text": "Ma dite sul serio?{{delay frames=\"15\"}} Immagino che anche tra gli Octoling\nci siano vecchietti strani. {{delay frames=\"30\"}}Tu sai di chi parlano, Otto?"
  },
  {
    "label": "Hint_Drone_00",
    "text": "Vai alla grande, Otto! {{delay frames=\"30\"}}E mi permetto di pensare\nlo stesso di me!"
  },
  {
    "label": "Hint_Drone_01",
    "text": "Verissimo! {{delay frames=\"30\"}}Tra l'altro, le mie modifiche possono\nessere molto efficaci per potenziare Alga drone.{{pageBreak}}Ad esempio, posso fare in modo che appaiano nella\ntorre delle {{color id=\"4\"}}schede colore {{color id=\"65535\"}}che diano ad Alga delle\nulteriori abilità durante l'assalto."
  },
  {
    "label": "Hint_Drone_02",
    "text": "O posso anche aggiungere degli {{color id=\"4\"}}slot azione drone{{color id=\"65535\"}},\ncosì Alga potrà sfruttare il suo indicatore drone\nin ancora più modi."
  },
  {
    "label": "Hint_Drone_03",
    "text": "Davvero?! {{delay frames=\"15\"}}Ma è mitilico, Nori!"
  },
  {
    "label": "Hint_Drone_04",
    "text": "E non finisce qui, posso fare anche altre cose.{{delay frames=\"15\"}}\nOtto, se ho stuzzicato la tua curiosità, vieni\na parlarmi ai piedi della torre."
  },
  {
    "label": "Hint_CompleteTip_00",
    "text": "Ottimo lavoro, come al solito."
  },
  {
    "label": "Hint_CompleteTip_01",
    "text": "Yo, Nori! {{delay frames=\"15\"}}Mentre davo un'occhiata alle schede\ncolore ho notato delle linee che le collegano.\n{{delay frames=\"15\"}}Cosa credi che siano?"
  },
  {
    "label": "Hint_CompleteTip_02",
    "text": "Eh? {{delay frames=\"30\"}}Curioso. {{delay frames=\"15\"}}Le schede collegate sono\ndello stesso colore, però a parte questo..."
  },
  {
    "label": "Hint_CompleteTip_03",
    "text": "Forse ne sapremo di più quando verranno utilizzate\nabbastanza schede colore?{{delay frames=\"30\"}} Chissà, potremmo\nanche scoprire qualcosa di davvero utile."
  },
  {
    "label": "Hint_CompleteEnm_00",
    "text": "Un'altra prestazione incredibile, Otto."
  },
  {
    "label": "Hint_CompleteEnm_01",
    "text": "Ho un'informazione per te. {{delay frames=\"15\"}}Man mano che splatti\ngli Ossimolli, noi aggiorniamo la guida a loro dedicata."
  },
  {
    "label": "Hint_CompleteEnm_02",
    "text": "Quando avremo raccolto abbastanza dati sul campo,\npotremmo diventare i primi esperti mondiali\ndi ossomolleologia!"
  },
  {
    "label": "Hint_CompleteEnm_03",
    "text": "Ma... mi prendi in giro?"
  },
  {
    "label": "Hint_CompleteEnm_04",
    "text": "Va bene, va bene.{{delay frames=\"15\"}} Addio specializzazione, però\nraccogliere quei dati potrebbe tornare utile."
  },
  {
    "label": "Hint_FleaMarket_00",
    "text": "BAM! {{delay frames=\"15\"}}Di questo passo otterremo una vagonata di perle!"
  },
  {
    "label": "Hint_FleaMarket_01",
    "text": "Già. Poi fuori dalla torre c'è anche uno strano\nnegozietto. {{delay frames=\"30\"}}Vende cose bizzarre e proprio in\ncambio di perle."
  },
  {
    "label": "Hint_FleaMarket_02",
    "text": "Vero, a me è sembrato un posto mitilicissimo! Aveva\nun sacco di roba tra decorazioni, armi e quant'altro...{{delay frames=\"30\"}}\nDovremmo farci un salto, appena abbiamo qualche perla."
  },
  {
    "label": "Hint_FleaMarket_03",
    "text": "Uhm? {{delay frames=\"30\"}}Non ricordo di aver programmato nulla\ndel genere all'interno del Noriverse..."
  },
  {
    "label": "Hint_JemHardMode_00",
    "text": "Senti, Otto...{{delay frames=\"30\"}} Hai mai pensato di ottenere una grande\nquantità di perle nell'arco di un singolo assalto?"
  },
  {
    "label": "Hint_JemHardMode_01",
    "text": "Perché se lo hai fatto, ti consiglio la modifica\n{{color id=\"4\"}}Ricompense rischiose{{color id=\"65535\"}}!"
  },
  {
    "label": "Hint_JemHardMode_02",
    "text": "Non farà altro che aumentare il numero di perle che puoi\nottenere dopo aver completato l'ultimo piano della torre."
  },
  {
    "label": "Hint_JemHardMode_03",
    "text": "Il rovescio della medaglia è che, se ti sconfiggono e\nl'assalto termina prima...{{delay frames=\"15\"}} non otterrai alcuna perla."
  },
  {
    "label": "Hint_JemHardMode_04",
    "text": "Ah, davvero? {{delay frames=\"15\"}}Quindi se arriviamo alla fine nuotiamo\nnelle perle...{{delay frames=\"15\"}} Ma se falliamo ci schiantiamo sul fondo\ndi una piscina vuota?"
  },
  {
    "label": "Hint_JemHardMode_05",
    "text": "Proprio così. {{delay frames=\"15\"}}Per questo si chiama Ricompense rischiose.{{delay frames=\"30\"}}\nSe ve la sentite di rischiare, è la modifica che fa per voi!"
  },
  {
    "label": "Hint_JemHardMode_06",
    "text": "Sembrava una pubblicità in TV."
  },
  {
    "label": "Hint_JemHardMode_07",
    "text": "La pubblicità è l'anima del commercio, non lo sapevi?"
  },
  {
    "label": "Hint_RechooseStage_00",
    "text": "Otto, bel lavoro come al solito. {{delay frames=\"30\"}}Spero che\nsarai all'altezza anche del prossimo piano."
  },
  {
    "label": "Hint_RechooseStage_01",
    "text": "Otto, prima di andare...{{delay frames=\"15\"}}Ti è mai capitato di non trovare\nobiettivi o schede colore che ti convincessero?"
  },
  {
    "label": "Hint_RechooseStage_02",
    "text": "Se succede, premi {{icon id=\"73\" arg=\"0x0000803F00000000\"}} per {{color id=\"1\"}}resettare l'offerta{{color id=\"65535\"}}!{{delay frames=\"30\"}}\nPer poche norilir puoi resettare tutte e tre le\nopzioni per il piano."
  },
  {
    "label": "Hint_RechooseStage_03",
    "text": "Però anche Reset piano è una modifica al sistema.{{delay frames=\"15\"}}\nPer abilitarla, vieni a parlare con me fuori dalla torre."
  }
]