[
  {
    "label": "respawn_00",
    "text": "Argh! Un piccolo contrattempo. Ma finché\nabbiamo vite, siamo ancora in gioco!"
  },
  {
    "label": "respawn_01",
    "text": "Argh. Splattaggio ricevuto da rispedire al mittente!"
  },
  {
    "label": "respawn_02",
    "text": "Stavolta non ci faremo splattare, vero, Otto?"
  },
  {
    "label": "respawn_03",
    "text": "Non è ancora finita, Otto! Finché ci sono vite,\nc'è speranza!"
  },
  {
    "label": "respawn_04",
    "text": "Questo piano è più complicato di quanto sembra.\nNon farti sorprendere, Otto!"
  },
  {
    "label": "respawn_05",
    "text": "È un piano bello tosto, ma chi è meglio di Otto e Alga\nper affrontarlo?"
  },
  {
    "label": "respawn_last_00",
    "text": "Se ci splattano ancora una volta è la fine!\nPer questo assalto, si intende."
  },
  {
    "label": "respawn_last_01",
    "text": "È la nostra ultima occasione per questo assalto, Otto.\nSe dobbiamo cadere, cadiamo facendo mooolto rumore!"
  },
  {
    "label": "respawn_last_02",
    "text": "È la nostra ultima occasione! Adoro questa\natmosfera da tutto per tutto!"
  },
  {
    "label": "respawn_last_03",
    "text": "Otto, sai che questa è la tua ultima vita, vero?\nCerca di fare ancora più attenzione adesso."
  },
  {
    "label": "respawn_last_04",
    "text": "Se ti splattano ancora una volta è la fine.\nMa lo so bene che vendi care le squame..."
  },
  {
    "label": "respawn_boss_00",
    "text": "È normale che i boss ci diano filo da torcere.\nMa se l'è presa con il mollusco sbagliato!"
  },
  {
    "label": "respawn_boss_01",
    "text": "Quella di prima era una prova. Stavolta vincerai tu!\nIn bocca al pescelupo!"
  },
  {
    "label": "respawn_boss_02",
    "text": "Per fortuna non era la tua ultima vita.\nSento che questa è la volta buona..."
  },
  {
    "label": "respawn_last_boss_00",
    "text": "Ancora uno splat ed è la fine... Ma noi non ci\narrendiamo, vero, Otto?"
  },
  {
    "label": "respawn_last_boss_01",
    "text": "Forse questa è la nostra battaglia più dura.\nEd è anche il nostro ultimo tentativo, Otto!"
  },
  {
    "label": "respawn_last_boss_02",
    "text": "Ultima vita! È il momento di dare tutto!"
  },
  {
    "label": "event_bonus_luck00",
    "text": "Wow, hai un sacco di schede per questo piano!\nPremi {{icon id=\"74\" arg=\"0x0000803F00000000\"}} per controllare la {{color id=\"4\"}}tavoletta {{icon id=\"72\" arg=\"0x0000803F00000000\"}}{{color id=\"65535\"}}!"
  },
  {
    "label": "event_bonus_luck01",
    "text": "Oooh, guarda quante schede Fortuna temporanee!\nForse le cose si mettono bene, Otto!"
  },
  {
    "label": "event_bonus_attack00",
    "text": "Wow, hai un sacco di schede per questo piano!\nPremi {{icon id=\"74\" arg=\"0x0000803F00000000\"}} per controllare la {{color id=\"4\"}}tavoletta {{icon id=\"72\" arg=\"0x0000803F00000000\"}}{{color id=\"65535\"}}!"
  },
  {
    "label": "event_bonus_attack01",
    "text": "Oooh, guarda quante schede Potenza temporanee!\nFaremo fuoco e fiamme, buah ah ah!"
  },
  {
    "label": "event_bonus_move00",
    "text": "Wow, hai un sacco di schede per questo piano!\nPremi {{icon id=\"74\" arg=\"0x0000803F00000000\"}} per controllare la {{color id=\"4\"}}tavoletta {{icon id=\"72\" arg=\"0x0000803F00000000\"}}{{color id=\"65535\"}}!"
  },
  {
    "label": "event_bonus_move01",
    "text": "Oooh, guarda quante schede Praticità temporanee!\nSguscerai veloce come un'anguilla, Otto!"
  },
  {
    "label": "event_bonus_range00",
    "text": "Wow, hai un sacco di schede per questo piano!\nPremi {{icon id=\"74\" arg=\"0x0000803F00000000\"}} per controllare la {{color id=\"4\"}}tavoletta {{icon id=\"72\" arg=\"0x0000803F00000000\"}}{{color id=\"65535\"}}!"
  },
  {
    "label": "event_bonus_range01",
    "text": "Oooh, guarda quante schede Gittata temporanee! Fammi\nmettere gli occhiali per vedere dove arrivano i proiettili!"
  },
  {
    "label": "event_bonus_continuity00",
    "text": "Wow, hai un sacco di schede per questo piano!\nPremi {{icon id=\"74\" arg=\"0x0000803F00000000\"}} per controllare la {{color id=\"4\"}}tavoletta {{icon id=\"72\" arg=\"0x0000803F00000000\"}}{{color id=\"65535\"}}!"
  },
  {
    "label": "event_bonus_continuity01",
    "text": "Oooh, guarda quante schede Supporto temporanee!\nQuesto piano non ha chance contro di noi!"
  },
  {
    "label": "event_bonus_auto00",
    "text": "Wow, hai un sacco di schede per questo piano!\nPremi {{icon id=\"74\" arg=\"0x0000803F00000000\"}} per controllare la {{color id=\"4\"}}tavoletta {{icon id=\"72\" arg=\"0x0000803F00000000\"}}{{color id=\"65535\"}}!"
  },
  {
    "label": "event_bonus_auto01",
    "text": "Oooh, guarda quante schede Drone temporanee!\nFate largo che non mi ferma nessuno!"
  },
  {
    "label": "random_00",
    "text": "Per me e Otto ogni piano è una passeggiata di salute!"
  },
  {
    "label": "random_01",
    "text": "Superiamo questo piano alla svelta, così possiamo\npassare più tempo con Nori e Acht."
  },
  {
    "label": "random_02",
    "text": "Team Otto alla riscossa!"
  },
  {
    "label": "random_03",
    "text": "Buona fortuna, Otto! E anche a te, Alga!"
  },
  {
    "label": "random_04",
    "text": "Non fatevi splattare, mi raccomando!"
  },
  {
    "label": "random_05",
    "text": "Ce la farai, Otto. Dopotutto, c'è Alga con te!"
  },
  {
    "label": "random_06",
    "text": "Niente paura, Otto, sei perfettamente in grado\ndi superare ogni piano!"
  },
  {
    "label": "random_07",
    "text": "Più si sale, più i piani diventano tosti.\nMa troverai sicuramente un modo per avanzare."
  },
  {
    "label": "random_08",
    "text": "Otto, Alga, terremo l'ascensore al caldo per voi."
  },
  {
    "label": "random_09",
    "text": "Dobbiamo solo difendere il nostro territorio, giusto?\nE che sarà mai!"
  },
  {
    "label": "random_10",
    "text": "Ci risiamo. Otto, vedi se riesci ad andare in\nbuca con un colpo solo!"
  },
  {
    "label": "random_11",
    "text": "Oh dai, proprio questi vigliacchi?\nOK, Otto, qual è il piano di battaglia?"
  },
  {
    "label": "random_12",
    "text": "È il momento della caccia al portale. Dacci dentro, Otto!"
  },
  {
    "label": "random_13",
    "text": "Qui bisogna colpire la torre per farla muovere,\ngiusto? Mi raccomando, tieni d'occhio il serbatoio."
  },
  {
    "label": "save_squid_move_00",
    "text": "Pare che otterrai un bonus se non nuoti troppo.\nMa come facciamo a spostarci, allora?"
  },
  {
    "label": "save_sub_weapon_00",
    "text": "Cerca di non usare la tua arma secondaria.\nA meno che... tu non possa proprio farne a meno."
  },
  {
    "label": "save_jump_00",
    "text": "Completare il piano... senza saltare? Sul serio?!\nBeh, sono sicura che troverai un modo, Otto."
  },
  {
    "label": "save_special_00",
    "text": "Divieto di usare l'arma speciale?! Beh, non è un\ndivieto assoluto. Ma è una sfida divertente!"
  },
  {
    "label": "save_damage_00",
    "text": "Completare il piano senza subire danni? Beh, mi\nero già rassegnata a subirne un sacco, ma ora..."
  },
  {
    "label": "save_human_move_00",
    "text": "Non si può correre qui?! Giusto! Abbasso le gambe!\nViva i tentacoli!"
  },
  {
    "label": "save_main_weapon_00",
    "text": "Non si può usare l'arma principale?! Solo secondaria\ne speciale? E anche me, naturalmente."
  },
  {
    "label": "save_kite_move_00",
    "text": "Dobbiamo limitare il più possibile la planata? Possiamo\nriuscirci! Per interrompere la planata, premi {{icon id=\"79\" arg=\"0x0000803F00000000\"}}."
  },
  {
    "label": "badevent_allpaint_00",
    "text": "Bleah! I nemici hanno impiastrato tutto con il loro\ninchiostro. Usiamo un colore più cool!"
  },
  {
    "label": "badevent_unlucky_00",
    "text": "I nemici non lasciano cadere nulla?! Pazienza,\nce la caveremo tranquillamente anche senza!"
  },
  {
    "label": "badevent_nodrone_00",
    "text": "Ehi, Otto! Sono bloccata qui... Ce la farai\na completare il piano senza di me?"
  },
  {
    "label": "badevent_enemypowerup_00",
    "text": "Su questo piano i nemici saranno belli aggressivi...\nDobbiamo adottare una strategia efficace, Otto!"
  },
  {
    "label": "badevent_missile_00",
    "text": "Quei cosi volanti ci attaccheranno senza sosta,\nOtto! Tieni sempre lo sguardo verso l'alto."
  },
  {
    "label": "badevent_fog_00",
    "text": "Ehi, chi ha spento la luce?! Fai attenzione, Otto,\nnon ti buttare a pesce se non vedi niente!"
  },
  {
    "label": "badevent_allpaint_fog_00",
    "text": "È buio pesto e come se non bastasse il terreno è pure\nappiccicoso?! Tsk, ci vuole ben altro per fermarci!"
  },
  {
    "label": "badevent_missile_enemypowerup_00",
    "text": "Qui dovremo dare il meglio di noi per sopravvivere, Otto!\nPreparati perché stavolta non sarà per niente facile."
  },
  {
    "label": "badevent_nodrone_unlucky",
    "text": "Ehi, Otto! Qui devi fare tutto tu, io non posso aiutarti\ne i nemici non faranno cadere nulla. Ma te la caverai!"
  },
  {
    "label": "HackingRetry_First",
    "text": "Ehi, Otto! Grazie alle mie modifiche al sistema,\npuoi usare le norilir per continuare!"
  },
  {
    "label": "HackingRetry_Random1",
    "text": "Cattiva notizia: abbiamo perso la battaglia.\nBuona notizia: siamo ancora in gioco!"
  },
  {
    "label": "HackingRetry_Random2",
    "text": "Eh, a volte si vince, a volte si perde. L'ultima volta\nabbiamo perso, quindi questa volta vinceremo!"
  },
  {
    "label": "HackingRetry_Random3",
    "text": "Noi non gettiamo la spugna, vero, Otto?\nForza, torniamo sul campo di battaglia!"
  },
  {
    "label": "HackingRetry_Random4",
    "text": "Ehi! Se tu non ti arrendi, non sarò certo io quella\nche si tira indietro!"
  },
  {
    "label": "HackingRetry_Random5",
    "text": "Proviamo ancora, Otto! E stavolta non ci fermerà\nnessuno! Spero..."
  },
  {
    "label": "checkpoint_00",
    "text": "Evvai! Il checkpoint!"
  },
  {
    "label": "checkpoint_01",
    "text": "Alla grande, Otto!"
  },
  {
    "label": "checkpoint_02",
    "text": "Stiamo andando benissimo!"
  },
  {
    "label": "checkpoint_03",
    "text": "Mitilico, Otto!"
  },
  {
    "label": "checkpoint_04",
    "text": "Continua così, Otto!"
  },
  {
    "label": "checkpoint_05",
    "text": "Stai spaccando tutto, Otto!"
  },
  {
    "label": "checkpoint_06",
    "text": "Spettacolare! Ma guai a distrarsi!"
  },
  {
    "label": "checkpoint_07",
    "text": "Perfetto. Continua così!"
  },
  {
    "label": "checkpoint_08",
    "text": "Hai raggiunto un checkpoint, Otto? Spettacolo!"
  },
  {
    "label": "checkpoint_final_00",
    "text": "Mitilico! E ora il gran finale!"
  },
  {
    "label": "checkpoint_final_01",
    "text": "Siamo messi bene! Dai, manca poco!"
  },
  {
    "label": "checkpoint_final_02",
    "text": "Ci sei quasi, Otto! Non mollare proprio ora!"
  },
  {
    "label": "checkpoint_final_03",
    "text": "Il traguardo è vicino, Otto!"
  },
  {
    "label": "checkpoint_final_05",
    "text": "Manca poco, Otto. Ci sei quasi!"
  },
  {
    "label": "checkpoint_final_spawner_00",
    "text": "BUM! Resta solo un portale!"
  },
  {
    "label": "checkpoint_final_spawner_01",
    "text": "Ne manca uno solo, Otto!"
  },
  {
    "label": "checkpoint_final_spawner_02",
    "text": "Ancora uno e hai finito!"
  },
  {
    "label": "checkpoint_final_spawner_03",
    "text": "Ancora un bel bum e ci sei!"
  },
  {
    "label": "checkpoint_final_ball_00",
    "text": "Fantastico! Le hai quasi sistemate tutte!"
  },
  {
    "label": "checkpoint_final_ball_01",
    "text": "Ancora una e abbiamo finito!"
  },
  {
    "label": "checkpoint_final_ball_02",
    "text": "Ormai ci sei, Otto."
  },
  {
    "label": "checkpoint_final_ball_03",
    "text": "Palla in buca! E ora sotto con l'ultima!"
  },
  {
    "label": "checkpoint_final_chase_00",
    "text": "Ci sei quasi, Otto."
  },
  {
    "label": "checkpoint_final_chase_01",
    "text": "Devi sistemarne ancora uno!"
  },
  {
    "label": "checkpoint_final_chase_02",
    "text": "Mitilico! Ormai ci siamo!"
  },
  {
    "label": "checkpoint_final_chase_03",
    "text": "Ancora uno, Otto! Buona fortuna!"
  },
  {
    "label": "checkpoint_final_lift_00",
    "text": "Un ultimo sforzo! Il traguardo è vicino!"
  },
  {
    "label": "checkpoint_final_lift_01",
    "text": "Il traguardo è a un tiro di schioppolpo! Coraggio!"
  },
  {
    "label": "checkpoint_final_lift_02",
    "text": "Fino alla fine, Otto!"
  },
  {
    "label": "checkpoint_final_area_00",
    "text": "Il tempo sta per scadere! Tieni duro!"
  },
  {
    "label": "checkpoint_final_area_01",
    "text": "Ci sei quasi, Otto! Resisti!"
  },
  {
    "label": "checkpoint_final_area_02",
    "text": "Ormai manca pochissimo, Otto!"
  },
  {
    "label": "armorLv0_00",
    "text": "Emergenza, Otto! Gambe in spalla (tu che le hai)!"
  },
  {
    "label": "armorLv0_01",
    "text": "Non ci voleva... Ma tieni duro, ce la farai!"
  },
  {
    "label": "armorLv0_02",
    "text": "Otto, trova un angolino per recuperare!"
  },
  {
    "label": "armorLv0_03",
    "text": "Oh, no! Otto, stai bene?"
  },
  {
    "label": "armorLv0_04",
    "text": "Calma e sangue freddo, Otto. Fai un respirone e via!"
  },
  {
    "label": "armorLv0_05",
    "text": "È un bel problema! Tieni un basso profilo\nper un po', Otto."
  },
  {
    "label": "drone_microLaser_00",
    "text": "Tintofono pronto! Sbadabaaam!"
  },
  {
    "label": "drone_microLaser_01",
    "text": "Aprite bene le orecchie! Arriva il tintofono!"
  },
  {
    "label": "drone_microLaser_02",
    "text": "È ora del tintofono!"
  },
  {
    "label": "drone_tornado_00",
    "text": "Nessuno sfugge ai miei tornado!"
  },
  {
    "label": "drone_tornado_01",
    "text": "Beccatevi un bel tornado, polpimolli!"
  },
  {
    "label": "drone_tornado_02",
    "text": "Tornado in arrivooo!"
  },
  {
    "label": "drone_bomb_00",
    "text": "BUUUM!"
  },
  {
    "label": "drone_bomb_01",
    "text": "Si splattaaa!"
  },
  {
    "label": "drone_bomb_02",
    "text": "Bombardamento a tappeto!"
  },
  {
    "label": "drone_trap_00",
    "text": "Ecco una bella minella tutta per voi!"
  },
  {
    "label": "drone_trap_01",
    "text": "Posizionamento mina in corso... eee fatto!"
  },
  {
    "label": "drone_trap_02",
    "text": "Mettiamo una bella mina qui!"
  },
  {
    "label": "drone_item_00",
    "text": "Ho un regalino per te, Otto!"
  },
  {
    "label": "drone_item_01",
    "text": "Ehi, Otto! Al volo!"
  },
  {
    "label": "drone_item_02",
    "text": "Un oggettino interessante tutto per te, Otto!"
  },
  {
    "label": "drone_stan_00",
    "text": "Preparatevi alla mia onda sonora!"
  },
  {
    "label": "drone_stan_01",
    "text": "E ora la mia arma segreta: l'onda sonora!"
  },
  {
    "label": "drone_stan_02",
    "text": "A tutta potenza: arriva l'onda sonora!"
  },
  {
    "label": "Floor_Shop_Enter_First",
    "text": "Ah, ecco il distributore automatico! Vediamo\nun po' che cosa riusciamo a tirarne fuori!"
  },
  {
    "label": "Floor_Shop_Leave_First",
    "text": "Hai finito con gli acquisti, Otto? Bene, allora\nnon c'è altro da fare qui. Torniamo all'{{color id=\"4\"}}ascensore{{color id=\"65535\"}}!"
  },
  {
    "label": "Floor_Shop_00",
    "text": "Hai notato che più saliamo e più le vite costano?"
  },
  {
    "label": "Floor_Shop_01",
    "text": "È così silenzioso qui, senza gli Ossimolli a disturbarci...\nMi sto quasi annoiando. Andiamo all'ascensore!"
  },
  {
    "label": "Floor_Shop_02",
    "text": "Tutto pronto! Al prossimo piano!"
  },
  {
    "label": "Floor_Shop_03",
    "text": "Ehi, guarda sotto al distributore automatico.\nMagari trovi qualche norilir! ... O no?"
  },
  {
    "label": "Floor_Shop_04",
    "text": "Torna pure all'ascensore quando hai finito, Otto."
  },
  {
    "label": "Floor_Shop_05",
    "text": "Trovato qualcosa di interessante, Otto?"
  },
  {
    "label": "Floor_Shop_06",
    "text": "Questi distributori automatici non vendono\nle patatine? Che peccato..."
  },
  {
    "label": "Floor_Shop_07",
    "text": "Hai potuto riposarti un po', Otto?"
  },
  {
    "label": "Floor_Shop_08",
    "text": "Sigh. C'è troppo silenzio qui. Io odio il silenzio."
  },
  {
    "label": "Floor_Shop_09",
    "text": "Hai preso tutto quello che ti serviva, Otto?"
  },
  {
    "label": "Floor_Shop_10",
    "text": "Mi viene sempre sete quando vedo un distributore.\nMa tanto non posso bere niente, conciata così..."
  },
  {
    "label": "Floor_Shop_11",
    "text": "Dove ho già visto quel distributore automatico?"
  },
  {
    "label": "Floor_Shop_12",
    "text": "A volte trovi anche delle vite extra, il che è utile\nquando sei un po' a corto. Un bel pensiero, no?"
  },
  {
    "label": "Floor_Shop_13",
    "text": "Se la tavoletta è piena non troverai schede colore, ma\npotrai comprare perle, armi speciali e secondarie."
  },
  {
    "label": "Floor_Shop_14",
    "text": "Se trovi schede colore in vendita, non fartele scappare!\nAnche se gonfiano i prezzi a ogni acquisto."
  },
  {
    "label": "Floor_Shop_15",
    "text": "Puoi fare affaroni con la modifica {{color id=\"4\"}}Sconto distributore{{color id=\"65535\"}}.\nChiedimi informazioni quando siamo fuori dalla torre!"
  },
  {
    "label": "Floor_Shop_16",
    "text": "Con la modifica {{color id=\"4\"}}Reset articoli{{color id=\"65535\"}} puoi cambiare\ni prodotti offerti. Parliamone fuori dalla torre!"
  },
  {
    "label": "Floor_Shop_17",
    "text": "Hai trovato qualcosa di utile, Otto?"
  },
  {
    "label": "Floor_Shop_18",
    "text": "Riposati finché siamo qui."
  },
  {
    "label": "Floor_Shop_19",
    "text": "Saltare un piano facendo shopping? Mica male!"
  },
  {
    "label": "Return_Elevator",
    "text": "Oh, no! Non hai abbastanza norilir. Non ci\nresta che affidarci alla nostra forza bruta!"
  }
]