[
  {
    "label": "Unknown",
    "text": "???"
  },
  {
    "label": "ZakoSmall",
    "text": "Sarabanda brulicante"
  },
  {
    "label": "ZakoStandard",
    "text": "Accento incalzante"
  },
  {
    "label": "ZakoLarge",
    "text": "Ritmo battente"
  },
  {
    "label": "Escape",
    "text": "Mambo evasivo"
  },
  {
    "label": "Shell",
    "text": "Rapsodia sincopata"
  },
  {
    "label": "Sprinkler",
    "text": "Capriccio umoresco"
  },
  {
    "label": "BombBlow",
    "text": "Madrigale eruttante"
  },
  {
    "label": "Hopper",
    "text": "Spiccato enfatico"
  },
  {
    "label": "Tree",
    "text": "Villanella geniale"
  },
  {
    "label": "TreeMissile",
    "text": "Serenata assillante"
  },
  {
    "label": "ChargerTower",
    "text": "Barocco torreggiante"
  },
  {
    "label": "ExplodeSpawner",
    "text": "Portale"
  },
  {
    "label": "RivalKing",
    "text": "Canone parallelo"
  },
  {
    "label": "TowerKing",
    "text": "Rondò asincrono"
  },
  {
    "label": "BallKing",
    "text": "Carcassa rullante"
  },
  {
    "label": "BarrierKingIida",
    "text": "Nori sconcertata"
  },
  {
    "label": "BarrierKingOdako",
    "text": "Octordine"
  }
]