[
  {
    "label": "L_Btn_00-T_Btn_00",
    "text": "Atrás"
  },
  {
    "label": "002",
    "text": "Siguiente"
  },
  {
    "label": "100",
    "text": "Nombre inapropiado"
  },
  {
    "label": "101",
    "text": "Inactividad"
  },
  {
    "label": "102",
    "text": "Desconexiones intencionadas"
  },
  {
    "label": "103",
    "text": "Autoeliminación deliberada"
  },
  {
    "label": "104",
    "text": "Conducta dañina para el equipo propio"
  },
  {
    "label": "105",
    "text": "Falta de participación intencionada"
  },
  {
    "label": "106",
    "text": "Manipulación de la red"
  },
  {
    "label": "107",
    "text": "Uso malintencionado de errores"
  },
  {
    "label": "108",
    "text": "Conducta tramposa"
  },
  {
    "label": "109",
    "text": "Comportamiento malintencionado"
  },
  {
    "label": "110",
    "text": "Solicitud de amistad molesta"
  },
  {
    "label": "150",
    "text": "Divulgación de información personal"
  },
  {
    "label": "151",
    "text": "Contenido violento"
  },
  {
    "label": "152",
    "text": "Inapropiado/Dañino"
  },
  {
    "label": "153",
    "text": "Odio/Abuso"
  },
  {
    "label": "154",
    "text": "Publicidad"
  },
  {
    "label": "155",
    "text": "Contenido sexual"
  },
  {
    "label": "156",
    "text": "Otro"
  },
  {
    "label": "200",
    "text": "Elige el motivo por el que quieres\ndenunciar a este usuario. Los datos\nse enviarán a Nintendo, y no a la\npersona que estás reportando."
  },
  {
    "label": "201",
    "text": "Agradecemos tu interés por enviar el\nreporte. Evaluamos y procesamos todos\nlos que recibimos. Gracias por ayudarnos\na hacer cumplir las directrices de la\ncomunidad de Nintendo.\n\nDescribe el incidente con detalles. Los\ndatos se enviarán a Nintendo, y no a la\npersona que estás reportando.\n\nNota: Enviar reportes que contengan\nfalsedades va contra los términos del\nacuerdo de usuario de la cuenta Nintendo\ny puede dar lugar a que se le restrinja\nal remitente el acceso al juego en línea."
  },
  {
    "label": "202_ConfirmDialog",
    "text": "Enviar reportes que contengan falsedades va\ncontra los términos del acuerdo de usuario de la\ncuenta Nintendo y puede dar lugar a que se le\nrestrinja al remitente el acceso al juego en línea.\n"
  },
  {
    "label": "BtnL_ConfirmDialog",
    "text": "Atrás"
  },
  {
    "label": "BtnR_ConfirmDialog",
    "text": "Reportar"
  },
  {
    "label": "T_ReportKind_00",
    "text": "Categoría: "
  },
  {
    "label": "300",
    "text": "Describe con detalles el\ncomportamiento inapropiado\ndel otro jugador."
  },
  {
    "label": "L_ReasonReport_00-T_Report_00",
    "text": "Descripción detallada"
  },
  {
    "label": "T_Player_00",
    "text": "Jugador:"
  }
]