[
  {
    "label": "T_Message_00",
    "text": "Elige un escenario."
  },
  {
    "label": "L_KeyIcon_02-T_Info_00",
    "text": "Al azar (sí/no)"
  },
  {
    "label": "L_StageRandom_00-T_Stage_00",
    "text": "Al azar"
  },
  {
    "label": "L_BackBtn_01-T_Info_00",
    "text": "Atrás"
  }
]