[
  {
    "label": "T_Text_00",
    "text": "Tu artículo"
  },
  {
    "label": "T_Text_01",
    "text": "Artículo nuevo"
  },
  {
    "label": "T_Explain_00",
    "text": "Artículo duplicado"
  },
  {
    "label": "T_Explain_01",
    "text": "Si no quieres quedártelo, puedes cambiarlo por otra cosa."
  },
  {
    "label": "100",
    "text": "Mejor no..."
  },
  {
    "label": "101",
    "text": "Dame fragmentos"
  },
  {
    "label": "200",
    "text": "¡Compro!"
  },
  {
    "label": "201",
    "text": "Quiero el nuevo"
  }
]