[
  {
    "label": "000",
    "text": "×{{number index=\"0\" type=\"3\" arg3=\"0\" arg4=\"0\"}}"
  },
  {
    "label": "001",
    "text": "×{{number index=\"0\" type=\"4\" arg3=\"0\" arg4=\"0\"}}"
  },
  {
    "label": "002",
    "text": "{{number index=\"0\" type=\"1\" arg3=\"0\" arg4=\"0\"}}/{{number index=\"1\" type=\"1\" arg3=\"0\" arg4=\"0\"}}"
  },
  {
    "label": "003",
    "text": "×{{number index=\"0\" type=\"3\" arg3=\"0\" arg4=\"0\"}}"
  },
  {
    "label": "100",
    "text": "¡Tiempo!"
  },
  {
    "label": "101",
    "text": "Derrota..."
  },
  {
    "label": "300",
    "text": "¡Bonificación\nde Big Run!"
  },
  {
    "label": "301",
    "text": "¡Bonificación\nde trialianza!"
  },
  {
    "label": "310",
    "text": "×{{number index=\"0\" type=\"1\" arg3=\"0\" arg4=\"0\"}}"
  },
  {
    "label": "T_Clear_00",
    "text": "¡Victoria!"
  },
  {
    "label": "T_Failure_00",
    "text": "Derrota"
  },
  {
    "label": "L_Card_00-T_Wave_00",
    "text": "Oleada 1"
  },
  {
    "label": "L_Card_00-T_Result_00",
    "text": "✓"
  },
  {
    "label": "L_Card_00-T_Result_01",
    "text": "✘"
  },
  {
    "label": "L_Card_01-T_Wave_00",
    "text": "Oleada 2"
  },
  {
    "label": "L_Card_02-T_Wave_00",
    "text": "Oleada 3"
  },
  {
    "label": "L_Card_04-T_Wave_00",
    "text": "Oleada 5"
  },
  {
    "label": "T_Score_00",
    "text": "¡Nuevo récord!"
  }
]