[
  {
    "label": "L_Report_00-T_Info_00",
    "text": "Reportar"
  },
  {
    "label": "L_Yeah_00-T_Info_00",
    "text": "¡Chévere!"
  },
  {
    "label": "L_Edit_00-T_Info_00",
    "text": "Cambiar"
  },
  {
    "label": "000",
    "text": "Cerrar"
  },
  {
    "label": "001",
    "text": "Abrir"
  },
  {
    "label": "L_Close_00-T_Info_00",
    "text": "Atrás"
  }
]