[
  {
    "label": "000",
    "text": "{{number index=\"0\" type=\"1\" arg3=\"0\" arg4=\"0\"}}"
  },
  {
    "label": "010",
    "text": "{{number index=\"0\" type=\"1\" arg3=\"0\" arg4=\"0\"}}"
  },
  {
    "label": "020",
    "text": "{{number index=\"0\" type=\"1\" arg3=\"0\" arg4=\"0\"}}"
  },
  {
    "label": "030",
    "text": "{{number index=\"0\" type=\"1\" arg3=\"0\" arg4=\"0\"}}"
  },
  {
    "label": "T_Pass_00",
    "text": "Introduce la contraseña."
  },
  {
    "label": "L_PassBtn_01-T_Num_00",
    "text": "1"
  },
  {
    "label": "L_PassBtn_00-T_Num_00",
    "text": "0"
  },
  {
    "label": "L_PassBtn_02-T_Num_00",
    "text": "2"
  },
  {
    "label": "L_PassBtn_03-T_Num_00",
    "text": "3"
  },
  {
    "label": "L_PassBtn_04-T_Num_00",
    "text": "4"
  },
  {
    "label": "L_PassBtn_05-T_Num_00",
    "text": "5"
  },
  {
    "label": "L_PassBtn_06-T_Num_00",
    "text": "6"
  },
  {
    "label": "L_PassBtn_07-T_Num_00",
    "text": "7"
  },
  {
    "label": "L_PassBtn_08-T_Num_00",
    "text": "8"
  },
  {
    "label": "L_PassBtn_09-T_Num_00",
    "text": "9"
  },
  {
    "label": "L_BackBtn_00-T_Info_00",
    "text": "Atrás"
  },
  {
    "label": "L_CancelBtn_00-T_Info_00",
    "text": "Borrar"
  }
]