[
  {
    "label": "000",
    "text": "+{{number index=\"0\" type=\"3\" arg3=\"0\" arg4=\"0\"}}.{{number index=\"1\" type=\"1\" arg3=\"0\" arg4=\"0\"}}"
  },
  {
    "label": "001",
    "text": "-{{number index=\"0\" type=\"3\" arg3=\"0\" arg4=\"0\"}}.{{number index=\"1\" type=\"1\" arg3=\"0\" arg4=\"0\"}}"
  },
  {
    "label": "T_Rank_00",
    "text": "¡Fuerza calculada!"
  },
  {
    "label": "T_Progress_00",
    "text": "Calculando fuerza especial..."
  },
  {
    "label": "T_NumProgress_01",
    "text": "/5"
  },
  {
    "label": "T_PowerNow_00",
    "text": "Fuerza especial actual"
  },
  {
    "label": "T_PowerBest_00",
    "text": "Máx. fuerza especial"
  }
]