[
  {
    "label": "T_Watch_00",
    "text": "Espectadores"
  },
  {
    "label": "T_Exit_00",
    "text": "Salir"
  },
  {
    "label": "000",
    "text": "¡Ya puedes enfrentarte a {{string value=\"PlayerName\" arg1=\"0\" arg3=\"0\"}}!"
  }
]