[
  {
    "label": "000",
    "text": "Recordar lo ocurrido en El Cráter"
  },
  {
    "label": "001",
    "text": "Recordar la batalla del cohete"
  },
  {
    "label": "002",
    "text": "Recordar los créditos del juego"
  },
  {
    "label": "003",
    "text": "Olvídalo"
  }
]