[
  {
    "label": "000",
    "text": "+{{number index=\"0\" type=\"3\" arg3=\"0\" arg4=\"0\"}}"
  },
  {
    "label": "001",
    "text": "{{number index=\"0\" type=\"3\" arg3=\"0\" arg4=\"0\"}}"
  },
  {
    "label": "002",
    "text": "+{{number index=\"0\" type=\"2\" arg3=\"0\" arg4=\"0\"}} s"
  },
  {
    "label": "L_Level_00-T_Max_00",
    "text": "Máx."
  },
  {
    "label": "L_SuperGauge_00-T_Max_01",
    "text": "¡Listo!"
  },
  {
    "label": "L_SuperGauge_00-T_Press_00",
    "text": "Oprime"
  },
  {
    "label": "T_Go_00",
    "text": "¡YA!"
  },
  {
    "label": "L_Pause_00-T_Info_00",
    "text": "Pausa"
  },
  {
    "label": "L_Reset_00-T_Info_00",
    "text": "Reajustar vista"
  },
  {
    "label": "L_BuddySP_00-T_Press_00",
    "text": "Oprime"
  },
  {
    "label": "T_Rest_00",
    "text": "Restante"
  },
  {
    "label": "L_MsnGauge_00-T_StartText_00",
    "text": "Máximo"
  }
]