[
  {
    "label": "000",
    "text": "Olvídalo..."
  },
  {
    "label": "010",
    "text": "El primer ascenso"
  },
  {
    "label": "011",
    "text": "El rescate de Marina"
  },
  {
    "label": "020",
    "text": "El vibrante y épico combate"
  },
  {
    "label": "021",
    "text": "El elevador a los cielos"
  },
  {
    "label": "022",
    "text": "La llegada al centro de Cromópolis"
  },
  {
    "label": "030_0",
    "text": "No..."
  },
  {
    "label": "030_1",
    "text": "¡Recordar!"
  },
  {
    "label": "030_2",
    "text": "¿Quieres recordar tu primer ascenso?\n\nUsarás la paleta de Perla para subir por la\ntorre, como la primera vez. Puedes volver a\nla entrada si oprimes {{icon id=\"74\" arg=\"0x0000803F00000000\"}} para pausar el juego."
  },
  {
    "label": "031_0",
    "text": "No..."
  },
  {
    "label": "031_1",
    "text": "¡Recordar!"
  },
  {
    "label": "031_2",
    "text": "¿Quieres recordar el rescate de Marina?\n\nUsarás la paleta de Perla para enfrentarte\na agitazione marínica. Puedes volver a la\nentrada si oprimes {{icon id=\"74\" arg=\"0x0000803F00000000\"}} para pausar el juego."
  },
  {
    "label": "032_0",
    "text": "No..."
  },
  {
    "label": "032_1",
    "text": "¡Recordar!"
  },
  {
    "label": "032_2",
    "text": "¿Quieres recordar ese vibrante\ny épico combate?"
  },
  {
    "label": "033_0",
    "text": "No..."
  },
  {
    "label": "033_1",
    "text": "¡Recordar!"
  },
  {
    "label": "033_2",
    "text": "¿Quieres recordar el viaje\nen elevador a los cielos?"
  },
  {
    "label": "034_0",
    "text": "No..."
  },
  {
    "label": "034_1",
    "text": "¡Recordar!"
  },
  {
    "label": "034_2",
    "text": "¿Quieres recordar tu llegada\nal centro de Cromópolis?\n\nTe trasladarás allí."
  }
]