[
  {
    "label": "T_ClearTitle_00",
    "text": "Completado"
  },
  {
    "label": "T_FloorUnit_00",
    "text": "P"
  },
  {
    "label": "000",
    "text": "{{number index=\"0\" type=\"2\" arg3=\"0\" arg4=\"0\"}}"
  },
  {
    "label": "L_GetBonus_00-T_Get_00",
    "text": "¡Bien!"
  },
  {
    "label": "200",
    "text": "P{{number index=\"0\" type=\"2\" arg3=\"0\" arg4=\"0\"}}↑"
  },
  {
    "label": "T_TimeTitle_00",
    "text": "Tiempo"
  },
  {
    "label": "T_NewRecord_00",
    "text": "Récord"
  }
]