[
  {
    "label": "000",
    "text": "{{number index=\"0\" type=\"4\" arg3=\"0\" arg4=\"0\"}}"
  },
  {
    "label": "002",
    "text": "P{{number index=\"0\" type=\"2\" arg3=\"0\" arg4=\"0\"}}"
  },
  {
    "label": "L_TipDetail_00-T_Shop_00",
    "text": "Zona de expendedor"
  },
  {
    "label": "L_TipDetail_00-T_ShopDetail_00",
    "text": "¡Estas máquinas te permiten canjear\npastimonedas por vidas, cromochips, armas\nsecundarias o incluso armas especiales!"
  },
  {
    "label": "T_Next_00",
    "text": "Siguiente"
  },
  {
    "label": "T_Message_00",
    "text": "¿Quieres visitar el piso?"
  },
  {
    "label": "L_Btn_01-T_Btn_00",
    "text": "¡Sí!"
  },
  {
    "label": "L_Btn_00-T_Btn_00",
    "text": "No..."
  },
  {
    "label": "L_Exit_00-T_Info_00",
    "text": "Pausa"
  },
  {
    "label": "100",
    "text": "Cancelar"
  },
  {
    "label": "101",
    "text": "Cancelar"
  },
  {
    "label": "102",
    "text": "¡Sí!"
  },
  {
    "label": "103",
    "text": "A la entrada"
  },
  {
    "label": "104",
    "text": "A la ciudad"
  },
  {
    "label": "105",
    "text": "Reintentar desde el principio"
  },
  {
    "label": "106",
    "text": "Abandonar"
  },
  {
    "label": "107",
    "text": "¿Quieres regresar a la entrada y\nreintentarlo desde el primer piso?"
  },
  {
    "label": "108",
    "text": "Reintentar"
  },
  {
    "label": "109",
    "text": "Salir del recuerdo"
  },
  {
    "label": "110",
    "text": "Guardar y salir"
  },
  {
    "label": "200",
    "text": "¿Quieres guardar y regresar a la ciudad?\nPodrás continuar la partida desde este\npunto con tu configuración actual."
  },
  {
    "label": "201",
    "text": "¿Quieres abandonar y regresar a la entrada?\nTendrás que comenzar el próximo ascenso desde P1."
  },
  {
    "label": "203",
    "text": "¿Quieres que Marina restablezca las opciones\ny recompensas del piso siguiente?"
  },
  {
    "label": "204",
    "text": "¿Quieres salir de este recuerdo\ny volver a la entrada?"
  },
  {
    "label": "205",
    "text": "A la entrada"
  },
  {
    "label": "206",
    "text": "¿Quieres abandonar y regresar al Distrito del Orden?\nTendrás que comenzar el próximo ascenso desde P1."
  },
  {
    "label": "207",
    "text": "Distrito del Orden"
  },
  {
    "label": "208",
    "text": "¿Quieres saltarte el siguiente piso?"
  },
  {
    "label": "209",
    "text": "¡Me lo salto!"
  },
  {
    "label": "L_Dialog_00-L_BtnL_00-T_Btn_00",
    "text": "Continuar"
  },
  {
    "label": "300",
    "text": "{{size value=\"75\"}}P{{size value=\"100\"}}{{number index=\"0\" type=\"2\" arg3=\"0\" arg4=\"0\"}}"
  },
  {
    "label": "310",
    "text": "×{{number index=\"0\" type=\"3\" arg3=\"0\" arg4=\"0\"}}"
  },
  {
    "label": "320",
    "text": "Recompensa"
  },
  {
    "label": "321",
    "text": "Bonificación"
  },
  {
    "label": "322",
    "text": "P{{number index=\"0\" type=\"2\" arg3=\"0\" arg4=\"0\"}}↑"
  },
  {
    "label": "323",
    "text": "Cromochips"
  },
  {
    "label": "324",
    "text": "Objetos"
  },
  {
    "label": "500",
    "text": "(?)"
  },
  {
    "label": "501",
    "text": "Diario técnico de Marina"
  },
  {
    "label": "L_Result_00-T_Shop_00",
    "text": "Ninguna compra"
  },
  {
    "label": "L_Result_00-T_Time_00",
    "text": "Tiempo"
  },
  {
    "label": "L_Result_00-T_NewRecord_00",
    "text": "Récord"
  },
  {
    "label": "L_Result_00-L_Bonus_00-T_NewRecord_00",
    "text": "Máx."
  },
  {
    "label": "L_Result_00-T_Clear_00",
    "text": "Completado"
  },
  {
    "label": "L_Result_00-T_Get_00",
    "text": "¡Bien!"
  },
  {
    "label": "L_Result_00-T_Get_01",
    "text": "¡Bien!"
  },
  {
    "label": "L_Result_00-L_GetBonus_00-T_Get_00",
    "text": "¡Bien!"
  },
  {
    "label": "L_Result_00-L_Close_00-T_Info_00",
    "text": "Atrás"
  },
  {
    "label": "L_Result_00-L_Next_00-T_Info_00",
    "text": "Continuar"
  },
  {
    "label": "400",
    "text": "Fácil"
  },
  {
    "label": "401",
    "text": "Normal"
  },
  {
    "label": "402",
    "text": "Difícil"
  },
  {
    "label": "403",
    "text": "Intenso"
  },
  {
    "label": "L_MyPalette_00-T_Btn_00",
    "text": "Paleta"
  },
  {
    "label": "T_TitleFloor_00",
    "text": "Selección de piso"
  },
  {
    "label": "L_FloorBtn_00-T_IkuraNum_01",
    "text": "Recompensa"
  },
  {
    "label": "L_FloorBtn_00-T_ShopTitle_00",
    "text": "Zona de expendedor"
  },
  {
    "label": "T_FloorUnit_00",
    "text": "P"
  },
  {
    "label": "L_Collection_00-T_Info_00",
    "text": "Colección"
  },
  {
    "label": "L_Back_00-T_Info_00",
    "text": "Atrás"
  },
  {
    "label": "L_BtnCollect_02-T_Btn_00",
    "text": "Colección de cromochips"
  },
  {
    "label": "L_BtnCollect_01-T_Btn_00",
    "text": "Álbum de esquealetas"
  },
  {
    "label": "L_StageReset_00-T_Btn_00",
    "text": "Restablecer"
  },
  {
    "label": "L_FloorBtn_00-T_MissionInvTitle_00",
    "text": "(?)"
  },
  {
    "label": "L_FloorBtn_00-T_BossInvTitle_00",
    "text": "(?)"
  },
  {
    "label": "L_FloorBtn_00-L_SubEvent_00-T_SubEvent_00",
    "text": "Bonificación"
  },
  {
    "label": "L_FloorBtn_00-L_SubEvent_00-T_EvilEvent_00",
    "text": "Peligro"
  },
  {
    "label": "L_FloorBtn_04-T_Skip_00",
    "text": "Saltar piso"
  }
]