[
  {
    "label": "000",
    "text": "¿Quieres volver a elegir un piso?\n(Necesitarás pastimonedas)."
  },
  {
    "label": "001",
    "text": "No..."
  },
  {
    "label": "002",
    "text": "¡Sí!"
  },
  {
    "label": "100",
    "text": "¿Quieres concluir tus compras\ny continuar al siguiente piso?"
  },
  {
    "label": "101",
    "text": "No..."
  },
  {
    "label": "102",
    "text": "¡Sí!"
  }
]