[
  {
    "label": "SpInkStorm",
    "text": "{{icon id=\"78\" arg=\"0x00006040F9FFFFFF\"}} ¡Que llueva tinta!"
  },
  {
    "label": "SpUltraShot",
    "text": "{{icon id=\"80\" arg=\"0xCDCC4C4000000000\"}} ¡Dispara!"
  },
  {
    "label": "SpUltraStamp",
    "text": "{{icon id=\"80\" arg=\"0xCDCC4C4000000000\"}} ¡A estampar!"
  },
  {
    "label": "SpShockSonar",
    "text": "{{icon id=\"78\" arg=\"0x00006040F9FFFFFF\"}} ¡Ondas a discreción!"
  },
  {
    "label": "SpTripleTornado",
    "text": "{{icon id=\"78\" arg=\"0x00006040F9FFFFFF\"}} ¡Báñalos en tinta!"
  },
  {
    "label": "SpSkewer",
    "text": "{{icon id=\"80\" arg=\"0xCDCC4C4000000000\"}} ¡Detente y explota!"
  },
  {
    "label": "SpChariot",
    "text": "{{icon id=\"78\" arg=\"0x00006040F9FFFFFF\"}}{{icon id=\"80\" arg=\"0xCDCC4C4000000000\"}} ¡Tinta a discreción!"
  },
  {
    "label": "SpNiceBall",
    "text": "{{icon id=\"78\" arg=\"0x00006040F9FFFFFF\"}} Lanzar"
  },
  {
    "label": "SpCastle",
    "text": "{{icon id=\"80\" arg=\"0xCDCC4C4000000000\"}} ¡Mantén para embestir!"
  },
  {
    "label": "SpDroneBuddySdodr",
    "text": "{{icon id=\"76\" arg=\"0x0000204000000000\"}} ¡Oprime para activarlo!"
  }
]