[
  {
    "label": "L_MenuBtn_00-T_Btn_00",
    "text": "Continuar"
  },
  {
    "label": "000",
    "text": "Reintentar desde el principio"
  },
  {
    "label": "001",
    "text": "Abandonar"
  },
  {
    "label": "002",
    "text": "Salir del recuerdo"
  },
  {
    "label": "003",
    "text": "Repetir el combate"
  },
  {
    "label": "004",
    "text": "Repetir este piso"
  },
  {
    "label": "L_MenuBtnL_00-T_Btn_00",
    "text": "Guardar y salir"
  },
  {
    "label": "100",
    "text": "¿Quieres guardar y regresar a la ciudad?\nPerderás una vida."
  },
  {
    "label": "101",
    "text": "Cancelar"
  },
  {
    "label": "102",
    "text": "A la ciudad"
  },
  {
    "label": "103",
    "text": "No puedes guardar y salir porque\nsolo te queda una vida."
  },
  {
    "label": "104",
    "text": "¿Quieres guardar y regresar a la ciudad?\nSe finalizarán tus compras y podrás continuar\ndesde la próxima pantalla de selección de piso."
  },
  {
    "label": "105",
    "text": "¿Quieres guardar y regresar a la ciudad?\nPodrás continuar desde esta batalla."
  },
  {
    "label": "200",
    "text": "¿Quieres abandonar y regresar a la entrada?\nTendrás que comenzar el próximo ascenso desde P1."
  },
  {
    "label": "201",
    "text": "No"
  },
  {
    "label": "202",
    "text": "Sí"
  },
  {
    "label": "203",
    "text": "¿Quieres abandonar y regresar al Distrito del Orden?\nTendrás que comenzar el próximo ascenso desde P1."
  },
  {
    "label": "204",
    "text": "Distrito del Orden"
  },
  {
    "label": "300",
    "text": "¿Quieres regresar a la entrada y\nreintentarlo desde P1?"
  },
  {
    "label": "301",
    "text": "No"
  },
  {
    "label": "302",
    "text": "Sí"
  },
  {
    "label": "400",
    "text": "¿Quieres salir de este recuerdo\ny regresar a la entrada?"
  },
  {
    "label": "401",
    "text": "No"
  },
  {
    "label": "402",
    "text": "Sí"
  },
  {
    "label": "500",
    "text": "Fácil"
  },
  {
    "label": "501",
    "text": "Normal"
  },
  {
    "label": "502",
    "text": "Difícil"
  },
  {
    "label": "503",
    "text": "Intenso"
  },
  {
    "label": "1000",
    "text": "{{number index=\"0\" type=\"1\" arg3=\"0\" arg4=\"1\"}}"
  },
  {
    "label": "L_MenuBtnL_00-T_Count_00",
    "text": "-1"
  },
  {
    "label": "L_MenuBtnL_01-T_Btn_00",
    "text": "Retomar este piso"
  },
  {
    "label": "T_Continue_00",
    "text": "¿Continuar?"
  },
  {
    "label": "L_Option_00-T_BtnL_00",
    "text": "Modo televisor/\nsemiportátil"
  },
  {
    "label": "L_Option_01-T_BtnL_00",
    "text": "Modo portátil"
  },
  {
    "label": "T_ExplainCamera_00",
    "text": "Configura la cámara para el modo televisor y\nel modo semiportátil."
  },
  {
    "label": "L_GaugeOption_00-T_Header_00",
    "text": "Sensibilidad del giroscopio"
  },
  {
    "label": "L_GaugeOption_00-T_Msg_00",
    "text": "No disponible si no se usa\nel control por movimiento."
  },
  {
    "label": "L_GaugeOption_01-T_Header_00",
    "text": "Sensibilidad de {{icon id=\"76\" arg=\"0x0000004000000000\"}}"
  },
  {
    "label": "L_BtnOption_00-T_BtnR_00",
    "text": "Invertido"
  },
  {
    "label": "L_BtnOption_00-T_BtnL_00",
    "text": "Normal"
  },
  {
    "label": "L_BtnOption_00-T_Msg_00",
    "text": "No disponible si se usa el\ncontrol por movimiento."
  },
  {
    "label": "L_BtnOption_00-T_Header_00",
    "text": "Eje vertical {{icon id=\"76\" arg=\"0x0000004000000000\"}}"
  },
  {
    "label": "L_BtnOption_01-T_BtnR_00",
    "text": "Invertido"
  },
  {
    "label": "L_BtnOption_01-T_BtnL_00",
    "text": "Normal"
  },
  {
    "label": "L_BtnOption_01-T_Header_00",
    "text": "Eje horizontal {{icon id=\"76\" arg=\"0x0000004000000000\"}}"
  },
  {
    "label": "L_BtnOption_02-T_BtnR_00",
    "text": "No usar"
  },
  {
    "label": "L_BtnOption_02-T_BtnL_00",
    "text": "Usar"
  },
  {
    "label": "L_BtnOption_02-T_Header_00",
    "text": "Control por movimiento"
  },
  {
    "label": "T_ExplainCamera_01",
    "text": "Configura la cámara para el modo portátil."
  },
  {
    "label": "L_Guide_00-T_Info_00",
    "text": "Atrás"
  },
  {
    "label": "L_Guide_01-T_Info_00",
    "text": "Cámara"
  },
  {
    "label": "L_BackOption_00-T_Info_00",
    "text": "Atrás"
  },
  {
    "label": "L_MyPalette_00-T_Btn_00",
    "text": "Paleta"
  },
  {
    "label": "L_SubEvent_00-T_SubEvent_00",
    "text": "Bonificación"
  },
  {
    "label": "L_SubEvent_00-T_EvilEvent_00",
    "text": "Peligro"
  },
  {
    "label": "T_FloorUnit_00",
    "text": "P"
  }
]