[
  {
    "label": "000",
    "text": "Premios"
  },
  {
    "label": "010",
    "text": "Repeticiones"
  },
  {
    "label": "020",
    "text": "Registros"
  },
  {
    "label": "030",
    "text": "Editar placa"
  },
  {
    "label": "040",
    "text": "Buscar repetición"
  },
  {
    "label": "050",
    "text": "Editar nombre"
  },
  {
    "label": "051",
    "text": "Editar nombre"
  },
  {
    "label": "060",
    "text": "Región festiva"
  },
  {
    "label": "070",
    "text": "Fuerza caótica y\nfuerza especial"
  },
  {
    "label": "400",
    "text": "Atrás"
  },
  {
    "label": "L_CoopContents_00-T_Contents_00",
    "text": "Encargos recientes"
  },
  {
    "label": "L_CoopContents_01-T_Contents_00",
    "text": "Modelos de tareas"
  },
  {
    "label": "L_CoopContents_02-T_Contents_00",
    "text": "Introducir código"
  }
]