[
  {
    "label": "BigRun_Manual01",
    "locale": {
      "CNzh": "·所谓大型跑，就是成群的鲑鱼\n　涌向城镇中{{color id=\"1\"}}对战场地{{color id=\"65535\"}}的现象。\n\n·熊先生商会为保护城镇免受鲑鱼侵害，\n　正在广泛募集打工人员。\n　请击退场地中出现的鲑鱼，并收集金鲑鱼卵。",
      "EUde": "・ Ein Big Run ist ein schreckliches Phänomen,\n  bei dem Schwärme von Salmoniden eine {{color id=\"1\"}}Arena{{color id=\"65535\"}}\n  in der Stadt überfallen!\n\n・ Wir von der Bär GmbH möchten unsere Stadt\n  salmonidenfrei halten, weswegen wir stets nach\n  proaktiven Gold-Fischeiersammlern suchen,\n  welche die Salmonidenplage zurückschlagen.\n",
      "EUen": "・ Big Run is a terrifying phenomenon in which a\n  swarm of Salmonids overtake a {{color id=\"1\"}}battle stage{{color id=\"65535\"}}\n  in the city!\n\n・ At Grizzco Industries, we want to protect\n  your city from Salmonid infestation. That's\n  why we're recruiting far and wide for heroes\n  who are willing to help collect Golden Eggs\n  and drive the Salmonids back from our home.",
      "EUes": "・ Big Run es un fenómeno pavoroso en el que\n　 una enorme horda de salmónidos invade\n　 un {{color id=\"1\"}}escenario de combate{{color id=\"65535\"}} de la ciudad.\n\n・ Proteger a los ciudadanos de plagas salmónidas\n　 es siempre una prioridad para Don Oso, S. A.,\n　 así que buscamos intrépidos trabajadores\n　 para expulsar a los salmónidos de vuelta a sus\n　 guaridas y recolectar sus alevines dorados.",
      "EUfr": "・ Le Big Run est un événement effroyable au\n  cours duquel des Salmonoïdes envahissent\n  un {{color id=\"1\"}}stage de match {{color id=\"65535\"}}au cœur de la ville !\n\n・ Chez M. Ours SA, nous ne tolérons pas que\n  les Salmonoïdes infestent notre beau centre\n  urbain. C'est pourquoi nous recrutons tous\n  les héros prêts à récupérer des œufs dorés\n  et à repousser les Salmonoïdes loin de nos\n  foyers douillets.",
      "EUit": "・ La Big Run è un fenomeno terrificante in cui\n  un'orda di Salmonoidi invade uno {{color id=\"1\"}}scenario{{color id=\"65535\"}}\n  della città!\n\n・ Noi della Ursus & Co vogliamo proteggere la\n  vostra città dall'infestazione dei Salmonoidi.\n  Perciò assumiamo eroi da ogni dove, desiderosi\n  di aiutare nella raccolta delle uova d'oro per\n  scacciare i Salmonoidi dalle nostre terre.",
      "EUnl": "・ Een Big Run is een huiveringwekkend fenomeen\n  waarbij hele scholen Salmonieten een {{color id=\"1\"}}level{{color id=\"65535\"}}\n  in de stad onder de voet lopen!\n\n・ Hier bij Beer & Co gaan we tot het uiterste om\n  onze steden Salmonietenvrij te houden, en zijn\n  we altijd en overal op zoek naar het soort held\n  dat wil helpen om onze straten te ontdoen van\n  dat geschubde tuig. En zeker als zo iemand\n  onderweg gouden eieren meeneemt en die bij\n  ons inlevert.",
      "EUru": "・ Big Run — ужасающий феномен, при котором\n  косяки самонидов занимают {{color id=\"1\"}}арену для боя{{color id=\"65535\"}}\n  в городе!\n\n・ Компания «Потапыч Inc.» защитит наш\n  город от самонидов. Повсеместно ведется\n  набор квалифицированных кадров, которые\n  будут собирать золотые икринки, одновременно\n  избавляясь от самонидских супостатов.",
      "JPja": "・ ビッグランとは、街にある{{color id=\"1\"}}バトルのステージ{{color id=\"65535\"}}に\n  シャケの大群が押し寄せてくる現象です。\n\n・ クマサン商会では、シャケから街を守るために\n  広くバイトを募集しています。 ステージに現れた\n  シャケを撃退しつつ、金イクラを集めてください。",
      "KRko": "・ 빅 런이란 타운에 위치한 {{color id=\"1\"}}배틀 스테이지{{color id=\"65535\"}}에\n  연어 대군이 몰려오는 현상을 말합니다.\n\n・ Mr. 베어 상회는 연어로부터 타운을 지키기 위해\n  아르바이트를 모집합니다. 스테이지에 출몰한\n  연어를 격퇴하며 황금 연어알을 모아 주세요.",
      "TWzh": "‧所謂的大型跑就是指鮭魚成群結隊\n　朝城鎮中的{{color id=\"1\"}}對戰場地{{color id=\"65535\"}}蜂擁而至的現象。\n\n‧為了保護城鎮免受鮭魚侵害，\n　熊先生商會正在大舉招募打工的人手。\n　請擊退出現在場地中的鮭魚並收集金鮭魚卵。",
      "USen": "・ Big Run is a terrifying phenomenon in which a\n  swarm of Salmonids overtake a {{color id=\"1\"}}battle stage{{color id=\"65535\"}}\n  in the city!\n\n・ At Grizzco Industries, we want to protect\n  your city from Salmonid infestation. That's\n  why we're recruiting far and wide for heroes\n  who are willing to help collect Golden Eggs\n  and drive the Salmonids back from our home.",
      "USes": "・ Big Run es un temible fenómeno en el que una\n  enorme horda de salmónidos invade un\n  {{color id=\"1\"}}escenario de combate{{color id=\"65535\"}} de la ciudad.\n\n・ Proteger a los ciudadanos de plagas salmónidas\n  es siempre una prioridad para Don Oso, S. A.,\n  así que buscamos trabajadores intrépidos\n  para expulsar a los salmónidos de vuelta a sus\n  guaridas y recolectar sus huevecillos dorados.",
      "USfr": "・ Le Big Run est un événement effroyable au\n  cours duquel des salmonoïdes envahissent\n  une {{color id=\"1\"}}carte de match {{color id=\"65535\"}}au cœur de la ville!\n\n・ Chez M. Ours Cie, nous ne tolérons pas que\n  les salmonoïdes infestent notre beau centre\n  urbain. C'est pourquoi nous recrutons tous\n  les héros prêts à récupérer des œufs dorés\n  et à repousser les salmonoïdes loin de nos\n  foyers douillets."
    }
  },
  {
    "label": "BigRun_Manual02",
    "locale": {
      "CNzh": "·大型跑的评价标准和一般打工相同，\n　但是{{color id=\"1\"}}报酬计量表{{color id=\"65535\"}}中设置的报酬数量比平时更多。\n　而且还会额外追加少量{{color id=\"1\"}}目录点数{{color id=\"65535\"}}。\n\n·另外，只要是在大型跑期间内参加过的玩家，\n　都会获赠{{color id=\"1\"}}装饰品{{color id=\"65535\"}}作为礼品。",
      "EUde": "・ Unsere hohen Leistungsstandards bleiben\n  während des Big Run unverändert. Wir haben\n  allerdings die Zahl der Belohnungen auf der\n  {{color id=\"1\"}}Bonusleiste{{color id=\"65535\"}} erhöht. Mitarbeiter dürfen sich\n  außerdem auf mehr {{color id=\"1\"}}Katalogpunkte{{color id=\"65535\"}} freuen.\n\n・ Und das ist noch nicht alles, denn jeder, der\n  mindestens einmal an einem Big Run teilnimmt,\n  erhält als Zeichen der Dankbarkeit unserer\n  Firma für seine aufopferungsvolle Arbeit\n  ein Stück {{color id=\"1\"}}Deko{{color id=\"65535\"}}.",
      "EUen": "・ Our high standards for job performance will\n  be unchanged during the Big Run. However,\n  we've increased the number of rewards on\n  your {{color id=\"1\"}}Bonus Meter{{color id=\"65535\"}}. You will also be pleasantly\n  surprised to receive more {{color id=\"1\"}}Catalog Points{{color id=\"65535\"}}.\n\n・ What's more, everyone who participates during\n  Big Run even once will be given a {{color id=\"1\"}}decoration {{color id=\"65535\"}}as\n  a token of gratitude.",
      "EUes": "・ En Big Run se mantiene nuestro elevado nivel\n　 de exigencia en cuanto a valorar el desempeño\n　 laboral, pero los trabajadores reciben mayores\n　 recompensas en forma de {{color id=\"1\"}}pagas{{color id=\"65535\"}}, un número\n　 ligeramente superior de puntos de catálogo.\n\n・ Como aliciente extra, otorgaremos un {{color id=\"1\"}}adorno{{color id=\"65535\"}}\n　 en forma de recompensa a quienes participen\n　 en Big Run al menos una vez.",
      "EUfr": "・ Notre haut degré d'exigence demeure inchangé\n  durant le Big Run. Cependant, le nombre de\n  récompenses sur votre {{color id=\"1\"}}jauge de prix {{color id=\"65535\"}}a été revu\n  à la hausse. Vous aurez également la bonne\n  surprise de recevoir davantage de {{color id=\"1\"}}points de\n  catalogue{{color id=\"65535\"}}.\n\n・ De plus, tous les participants au Big Run\n  recevront un {{color id=\"1\"}}objet de décoration {{color id=\"65535\"}}en\n  remerciement, même s'ils n'ont pris part\n  qu'à une seule session.",
      "EUit": "・ I nostri elevati standard prestazionali restano\n  invariati durante la Big Run. Tuttavia, abbiamo\n  aumentato il numero di ricompense sulla {{color id=\"1\"}}barra\n  dei bonus{{color id=\"65535\"}}. Sarete anche felici di sapere che\n  riceverete più {{color id=\"1\"}}punti catalogo{{color id=\"65535\"}}.\n\n・ Inoltre, chiunque partecipi almeno una volta\n  a una Big Run otterrà una {{color id=\"1\"}}decorazione{{color id=\"65535\"}}, in\n  segno di gratitudine.",
      "EUnl": "・ Ook tijdens een Big Run eisen wij niet minder\n  dan excellentie van onze werknemers, maar\n  we hebben wel het aantal beloningen op je\n  {{color id=\"1\"}}bonusmeter {{color id=\"65535\"}}verhoogd. Je mag ook uitkijken\n  naar extra {{color id=\"1\"}}cataloguspunten{{color id=\"65535\"}}.\n\n・ En dat is nog niet eens alles: voor alle\n  deelnemers aan een Big Run stellen we een\n  speciale {{color id=\"1\"}}versiering {{color id=\"65535\"}}beschikbaar als teken van\n  onze waardering.",
      "EUru": "・ Даже во время Big Run мы будем держать\n  нашу высочайшую планку. К тому же мы\n  увеличили количество наград на твоем\n  {{color id=\"1\"}}бонусометре{{color id=\"65535\"}}. Дополнительные очки\n  каталога также станут приятной\n  неожиданностью для сотрудников.\n\n・ Каждый участник Big Run получит {{color id=\"1\"}}украшение{{color id=\"65535\"}}\n  в знак признательности.",
      "JPja": "・ ビッグラン中の評価基準は通常のバイトと同じですが、\n  {{color id=\"1\"}}ほうしゅうメーター{{color id=\"65535\"}}にセットする報酬の数をいつもより\n  多めにしています。\n  また、{{color id=\"1\"}}カタログポイント{{color id=\"65535\"}}を少し上乗せしてお付けします。\n\n・ さらに、ビッグランの間に一度でも参加してくれた方には\n  お礼として{{color id=\"1\"}}オキモノ{{color id=\"65535\"}}をプレゼントします。",
      "KRko": "・ 빅 런의 평가 기준은 일반 아르바이트와 같지만\n  {{color id=\"1\"}}보상 미터{{color id=\"65535\"}}의 보상 수가 평소보다 많이 세팅되어\n  있습니다.\n  또한, {{color id=\"1\"}}카탈로그 포인트{{color id=\"65535\"}}도 조금 더 얹어드립니다.\n\n・ 더욱이 빅 런 중에 한 번이라도 참가한 분에게는\n  사례로 {{color id=\"1\"}}장식품{{color id=\"65535\"}}을 선물해 드립니다.",
      "TWzh": "‧大型跑的評價標準和一般打工相同，\n　不過設置於{{color id=\"1\"}}報酬量表{{color id=\"65535\"}}中的報酬數量\n　會比平時還要來得更多。\n　與此同時，也會額外附加少量的{{color id=\"1\"}}目錄點數{{color id=\"65535\"}}。\n\n‧此外，所有在大型跑期間內曾經參加過的人，\n　都會獲得贈送的{{color id=\"1\"}}裝飾品{{color id=\"65535\"}}。",
      "USen": "・ Our high standards for job performance will\n  be unchanged during the Big Run. However,\n  we've increased the number of rewards on\n  your {{color id=\"1\"}}Bonus Meter{{color id=\"65535\"}}. You will also be pleasantly\n  surprised to receive more {{color id=\"1\"}}Catalog Points{{color id=\"65535\"}}.\n\n・ What's more, everyone who participates during\n  Big Run even once will be given a {{color id=\"1\"}}decoration {{color id=\"65535\"}}as\n  a token of gratitude.",
      "USes": "・ En Big Run se mantiene nuestro elevado nivel\n  de exigencia en cuanto al grado del desempeño\n  laboral, pero los trabajadores reciben mayores\n  recompensas en forma de {{color id=\"1\"}}bonos{{color id=\"65535\"}}, además de\n  incrementar los {{color id=\"1\"}}puntos de catálogo{{color id=\"65535\"}}.\n\n・ Y como si eso fuera poco, también otorgaremos\n  un {{color id=\"1\"}}adorno{{color id=\"65535\"}} en forma de recompensa a quienes\n  participen en Big Run al menos una vez.",
      "USfr": "・ Notre haut degré d'exigence demeure inchangé\n  durant le Big Run. Cependant, le nombre de\n  récompenses sur votre {{color id=\"1\"}}jauge de prix {{color id=\"65535\"}}a été revu\n  à la hausse. Vous aurez également la bonne\n  surprise de recevoir davantage de {{color id=\"1\"}}points de\n  catalogue{{color id=\"65535\"}}.\n\n・ De plus, tous les participants au Big Run\n  recevront un {{color id=\"1\"}}objet de décoration {{color id=\"65535\"}}en\n  remerciement, même s'ils n'ont pris part\n  qu'à une seule session."
    }
  },
  {
    "label": "BigRun_Manual03",
    "locale": {
      "CNzh": "·在大型跑中，所有队伍成员在单次打工中\n　合力收集的金鲑鱼卵数量将会记录为{{color id=\"1\"}}最高分数{{color id=\"65535\"}}。\n　最高分数超过下一个达标线的玩家\n　将会获赠更好的装饰品。\n　{{icon id=\"81\" arg=\"0x0000803F00000000\"}}{{string value=\"25\" arg1=\"0\" arg3=\"0\"}}以上 → 金装饰品\n　{{icon id=\"81\" arg=\"0x0000803F00000000\"}}{{string value=\"25\" arg1=\"1\" arg3=\"0\"}}以上 → 银装饰品\n　{{icon id=\"81\" arg=\"0x0000803F00000000\"}}{{string value=\"25\" arg1=\"2\" arg3=\"0\"}}以上 → 铜装饰品\n\n·期待各位能有更加活跃的表现。",
      "EUde": "・ Nach Big Run-Schichten wird gezählt, wie viele\n  Gold-Fischeier dein Team gesammelt hat.\n  Der höchste erreichte Wert ist dein {{color id=\"1\"}}Highscore{{color id=\"65535\"}}!\n  Die größten Leistungsträger erhalten sogar\n  noch hübschere Spind-Deko als der Rest:\n\n  Ab {{icon id=\"81\" arg=\"0x0000803F00000000\"}}{{string value=\"25\" arg1=\"0\" arg3=\"0\"}} Stück: Gold-Deko\n  Ab {{icon id=\"81\" arg=\"0x0000803F00000000\"}}{{string value=\"25\" arg1=\"1\" arg3=\"0\"}} Stück: Silber-Deko\n  Ab {{icon id=\"81\" arg=\"0x0000803F00000000\"}}{{string value=\"25\" arg1=\"2\" arg3=\"0\"}} Stück: Bronze-Deko\n\n・ Die Firma wünscht gutes Gelingen!",
      "EUen": "・ Following a Big Run, we will tally the number\n  of Golden Eggs your team collected during the\n  shift. Your strongest performance in a single\n  shift will be your {{color id=\"1\"}}high score{{color id=\"65535\"}}! And the very\n  strongest performers will receive better\n  decorations than everyone else. See below!\n  {{icon id=\"81\" arg=\"0x0000803F00000000\"}}{{string value=\"25\" arg1=\"0\" arg3=\"0\"}} & up → gold decoration\n  {{icon id=\"81\" arg=\"0x0000803F00000000\"}}{{string value=\"25\" arg1=\"1\" arg3=\"0\"}} & up → silver decoration\n  {{icon id=\"81\" arg=\"0x0000803F00000000\"}}{{string value=\"25\" arg1=\"2\" arg3=\"0\"}} & up → bronze decoration\n\n・ Corporate wishes you good luck!",
      "EUes": "・ Durante Big Run, se contabilizará el {{color id=\"1\"}}récord{{color id=\"65535\"}} de\n　 alevines dorados obtenidos por cada cuadrilla\n　 en un turno de trabajo. Si este récord supera\n　 ciertas marcas, habrá premios más jugosos:\n　{{color id=\"1\"}} {{color id=\"65535\"}}{{string value=\"25\" arg1=\"0\" arg3=\"0\"}} {{icon id=\"81\" arg=\"0x0000803F00000000\"}} o más → adorno de oro\n　{{color id=\"1\"}} {{color id=\"65535\"}}{{string value=\"25\" arg1=\"1\" arg3=\"0\"}} {{icon id=\"81\" arg=\"0x0000803F00000000\"}} o más → adorno de plata\n　{{color id=\"1\"}} {{color id=\"65535\"}}{{string value=\"25\" arg1=\"2\" arg3=\"0\"}} {{icon id=\"81\" arg=\"0x0000803F00000000\"}} o más → adorno de bronce\n\n・ Desde nuestra empresa, deseamos la mejor\n　{{color id=\"1\"}} {{color id=\"65535\"}}de las suertes a todos los participantes.",
      "EUfr": "・ Suite à un Big Run, nous additionnons le\n  nombre d'œufs dorés que l'équipe a\n  récupérés au cours de la mission.\n  Votre meilleur résultat en une seule mission\n  constitue votre {{color id=\"1\"}}record {{color id=\"65535\"}}! Les participants les\n  plus performants recevront même de meilleurs\n  objets de décoration que les autres. Voyez\n  plutôt !\n  {{icon id=\"81\" arg=\"0x0000803F00000000\"}}{{string value=\"25\" arg1=\"0\" arg3=\"0\"}} et plus → objet de déco en or\n  {{icon id=\"81\" arg=\"0x0000803F00000000\"}}{{string value=\"25\" arg1=\"1\" arg3=\"0\"}} et plus → objet de déco en argent\n  {{icon id=\"81\" arg=\"0x0000803F00000000\"}}{{string value=\"25\" arg1=\"2\" arg3=\"0\"}} et plus → objet de déco en bronze\n\n・ M. Ours SA compte sur vous !",
      "EUit": "・ Durante una Big Run, conteremo le uova d'oro\n  che la vostra squadra ha raccolto nel corso\n  del turno. La vostra migliore prestazione in un\n  singolo turno corrisponderà al vostro {{color id=\"1\"}}record{{color id=\"65535\"}}!\n  Chi ha sfoggiato prestazioni eccezionali otterrà\n  decorazioni migliori rispetto a tutti gli altri.\n  Ecco i dettagli:\n  {{icon id=\"81\" arg=\"0x0000803F00000000\"}}{{string value=\"25\" arg1=\"0\" arg3=\"0\"}} o più → decorazione d'oro\n  {{icon id=\"81\" arg=\"0x0000803F00000000\"}}{{string value=\"25\" arg1=\"1\" arg3=\"0\"}} o più → decorazione d'argento\n  {{icon id=\"81\" arg=\"0x0000803F00000000\"}}{{string value=\"25\" arg1=\"2\" arg3=\"0\"}} o più → decorazione di bronzo\n\n・ La dirigenza vi augura buona fortuna!",
      "EUnl": "・ Nadat een Big Run is afgelopen, tellen we het\n  aantal gouden eieren op dat je team tijdens de\n  klus heeft verzameld. De klus waarbij je je\n  beste resultaat bereikt, wordt gebruikt voor je\n  {{color id=\"1\"}}topscore{{color id=\"65535\"}}.\n  De meest uitmuntende werknemers ontvangen\n  nóg fraaiere versieringen dan de rest!\n  Vanaf {{icon id=\"81\" arg=\"0x0000803F00000000\"}}{{string value=\"25\" arg1=\"0\" arg3=\"0\"}}: gouden versiering\n  Vanaf {{icon id=\"81\" arg=\"0x0000803F00000000\"}}{{string value=\"25\" arg1=\"1\" arg3=\"0\"}}: zilveren versiering\n  Vanaf {{icon id=\"81\" arg=\"0x0000803F00000000\"}}{{string value=\"25\" arg1=\"2\" arg3=\"0\"}}: bronzen versiering\n\n・ Namens het management wensen we\n  iedereen veel succes!",
      "EUru": "・ После Big Run мы проведем подсчет собранных\n  твоей командой икринок. Твой наилучший\n  результат в отдельной смене и будет твоим\n  {{color id=\"1\"}}рекордом{{color id=\"65535\"}}! А самые эффективные работники\n  получат лучшие украшения.\n\n  {{icon id=\"81\" arg=\"0x0000803F00000000\"}} {{string value=\"25\" arg1=\"0\" arg3=\"0\"}} и более → золотое украшение;\n  {{icon id=\"81\" arg=\"0x0000803F00000000\"}} {{string value=\"25\" arg1=\"1\" arg3=\"0\"}} и более → серебряное украшение;\n  {{icon id=\"81\" arg=\"0x0000803F00000000\"}} {{string value=\"25\" arg1=\"2\" arg3=\"0\"}} и более → бронзовое украшение.\n\n・ «Потапыч Inc.» желает тебе удачи —\n  и море икры!",
      "JPja": "・ ビッグラン中は、１回のバイトでチーム全員が集めた\n  金イクラの数の{{color id=\"1\"}}ハイスコア{{color id=\"65535\"}}を記録しています。\n  ハイスコアが次のボーダーラインを上回った方には、\n  より良いオキモノをお贈りします。\n  {{icon id=\"81\" arg=\"0x0000803F00000000\"}}{{string value=\"25\" arg1=\"0\" arg3=\"0\"}}以上 → 金のオキモノ\n  {{icon id=\"81\" arg=\"0x0000803F00000000\"}}{{string value=\"25\" arg1=\"1\" arg3=\"0\"}}以上 → 銀のオキモノ\n  {{icon id=\"81\" arg=\"0x0000803F00000000\"}}{{string value=\"25\" arg1=\"2\" arg3=\"0\"}}以上 → 銅のオキモノ\n\n・ みなさんの、ますますのカツヤクを期待しています。",
      "KRko": "・ 빅 런 중에는 1번의 아르바이트로 팀 전원이 모은\n  황금 연어알의 수의 {{color id=\"1\"}}하이 스코어{{color id=\"65535\"}}를 기록합니다.\n  하이 스코어가 다음과 같은 보더 라인을\n  상회하는 분께는 더 좋은 장식품을 드립니다.\n  {{icon id=\"81\" arg=\"0x0000803F00000000\"}}{{string value=\"25\" arg1=\"0\" arg3=\"0\"}} 이상 → 골드 장식품\n  {{icon id=\"81\" arg=\"0x0000803F00000000\"}}{{string value=\"25\" arg1=\"1\" arg3=\"0\"}} 이상 → 실버 장식품\n  {{icon id=\"81\" arg=\"0x0000803F00000000\"}}{{string value=\"25\" arg1=\"2\" arg3=\"0\"}} 이상 → 브론즈 장식품\n\n・ 여러분의 많은 활약을 기대하고 있습니다.",
      "TWzh": "‧參加大型跑時，所有隊員於單次打工中\n　合力收集的金鮭魚卵數量會記錄為{{color id=\"1\"}}最高分數{{color id=\"65535\"}}。\n　最高分數超越下一個基準線的隊員，\n　將會獲贈更好的裝飾品。\n　{{icon id=\"81\" arg=\"0x0000803F00000000\"}}{{string value=\"25\" arg1=\"0\" arg3=\"0\"}}以上 → 金裝飾品\n　{{icon id=\"81\" arg=\"0x0000803F00000000\"}}{{string value=\"25\" arg1=\"1\" arg3=\"0\"}}以上 → 銀裝飾品\n　{{icon id=\"81\" arg=\"0x0000803F00000000\"}}{{string value=\"25\" arg1=\"2\" arg3=\"0\"}}以上 → 銅裝飾品\n\n‧期待各位有更加活躍的表現。",
      "USen": "・ Following a Big Run, we will tally the number\n  of Golden Eggs your team collected during the\n  shift. Your strongest performance in a single\n  shift will be your {{color id=\"1\"}}high score{{color id=\"65535\"}}! And the very\n  strongest performers will receive better\n  decorations than everyone else. See below!\n  {{icon id=\"81\" arg=\"0x0000803F00000000\"}}{{string value=\"25\" arg1=\"0\" arg3=\"0\"}} & up → gold decoration\n  {{icon id=\"81\" arg=\"0x0000803F00000000\"}}{{string value=\"25\" arg1=\"1\" arg3=\"0\"}} & up → silver decoration\n  {{icon id=\"81\" arg=\"0x0000803F00000000\"}}{{string value=\"25\" arg1=\"2\" arg3=\"0\"}} & up → bronze decoration\n\n・ Corporate wishes you good luck!",
      "USes": "・ Durante Big Run, se contabilizará el {{color id=\"1\"}}récord{{color id=\"65535\"}} de\n  huevecillos dorados obtenidos por cada grupo\n  en un turno de trabajo. Si este récord supera\n  {{color id=\"1\"}}ciertas marcas {{color id=\"65535\"}}los premios serán más jugosos:\n\n　{{color id=\"1\"}} {{color id=\"65535\"}}{{string value=\"25\" arg1=\"0\" arg3=\"0\"}} {{icon id=\"81\" arg=\"0x0000803F00000000\"}} o más → adorno de oro\n　{{color id=\"1\"}} {{color id=\"65535\"}}{{string value=\"25\" arg1=\"1\" arg3=\"0\"}} {{icon id=\"81\" arg=\"0x0000803F00000000\"}} o más → adorno de plata\n　{{color id=\"1\"}} {{color id=\"65535\"}}{{string value=\"25\" arg1=\"2\" arg3=\"0\"}} {{icon id=\"81\" arg=\"0x0000803F00000000\"}} o más → adorno de bronce\n\n・ Desde nuestra empresa, les deseamos la mejor\n  de las suertes a todos los participantes.",
      "USfr": "・ Suite à un Big Run, nous additionnons le\n  nombre d'œufs dorés que l'équipe a\n  récupérés au cours de la mission.\n  Votre meilleur résultat en une seule mission\n  constitue votre {{color id=\"1\"}}record{{color id=\"65535\"}}! Les participants les\n  plus performants recevront même de meilleurs\n  objets de décoration que les autres.\n  Voyez plutôt!\n  {{icon id=\"81\" arg=\"0x0000803F00000000\"}}{{string value=\"25\" arg1=\"0\" arg3=\"0\"}} et plus → objet de déco en or\n  {{icon id=\"81\" arg=\"0x0000803F00000000\"}}{{string value=\"25\" arg1=\"1\" arg3=\"0\"}} et plus → objet de déco en argent\n  {{icon id=\"81\" arg=\"0x0000803F00000000\"}}{{string value=\"25\" arg1=\"2\" arg3=\"0\"}} et plus → objet de déco en bronze\n\n・ M. Ours Cie compte sur vous!"
    }
  },
  {
    "label": "BigRun_Title",
    "locale": {
      "CNzh": "所谓大型跑",
      "EUde": "Big Run",
      "EUen": "What's Big Run?",
      "EUes": "¿Qué es Big Run?",
      "EUfr": "Le Big Run",
      "EUit": "Cos'è la Big Run?",
      "EUnl": "Big Run",
      "EUru": "Big Run",
      "JPja": "ビッグランとは？",
      "KRko": "빅 런이란?",
      "TWzh": "何謂大型跑？",
      "USen": "What's Big Run?",
      "USes": "¿Qué es Big Run?",
      "USfr": "Le Big Run"
    }
  },
  {
    "label": "TeamContest_Manual01",
    "locale": {
      "CNzh": "·团队打工竞赛是和同伴一起组成队伍，\n　在会发生{{color id=\"1\"}}5个WAVE{{color id=\"65535\"}}的特别打工中收集金鲑鱼卵，\n　比拼收集数量最高分数的企业内部活动。\n\n·通过{{color id=\"1\"}}队伍之间的竞争{{color id=\"65535\"}}加深和同伴的牵绊，\n　打造工作更轻松的职场。",
      "EUde": "・ Der Team-Wettkampf ist ein besonderes\n  Firmen-Event, bei dem du im Rahmen einer\n  teambildenden Maßnahme versuchst, mit\n  einem Trupp von Mitstreitern in {{color id=\"1\"}}5 Wellen\n  {{color id=\"65535\"}}so viele Gold-Fischeier wie möglich zu\n  sammeln.\n\n・ Was sorgt für ein besseres Betriebsklima\n  als etwas {{color id=\"1\"}}freundlicher Wettbewerb{{color id=\"65535\"}}?\n  Nichts, finden wir bei der Bär GmbH!",
      "EUen": "・ Eggstra Work is a special corporate event\n  where you can practice team building with\n  others while collecting as many Golden Eggs\n  as possible during {{color id=\"1\"}}5 waves{{color id=\"65535\"}}.\n\n・ What stimulates a healthy workplace\n  environment more than {{color id=\"1\"}}friendly competition{{color id=\"65535\"}}?\n  Nothing, as far as Grizzco can tell!",
      "EUes": "・ Alianza alevínica es un evento corporativo\n　 especial donde podrás formar equipos con\n　 otros jugadores para recoger tantos alevines\n　 dorados como podáis en {{color id=\"1\"}}5 ofensivas{{color id=\"65535\"}}.\n\n・ ¡Porque en Don Oso, S. A. sabemos que la\n　 {{color id=\"1\"}}competencia amistosa{{color id=\"65535\"}} fomenta un sano\n　 ambiente de trabajo!",
      "EUfr": "・ Un défi œuf sup', c'est un événement pro interne\n  lors duquel tu pratiques la cohésion d'équipe avec\n  d'autres joueurs. Le but ? Collecter un maximum\n  d'œufs dorés lors d'une session spéciale en\n  {{color id=\"1\"}}cinq vagues{{color id=\"65535\"}}.\n\n・ Renforce les liens avec tes collègues en profitant\n  d'un esprit de {{color id=\"1\"}}saine compétition{{color id=\"65535\"}}. Rien de mieux pour\n  une bonne ambiance au travail, foi de M. Ours !",
      "EUit": "・ La sfida tra colleghi è uno speciale evento\n  aziendale dove tu e altri giocatori potete\n  migliorare il vostro affiatamento mentre\n  raccogliete quante più uova d'oro possibile\n  nel corso di {{color id=\"1\"}}5 ondate{{color id=\"65535\"}}.\n\n・ Cosa promuove un ambiente di lavoro piacevole\n  più di una {{color id=\"1\"}}competizione amichevole{{color id=\"65535\"}}? Niente,\n  parola di Ursus & Co!",
      "EUnl": "・ Een bedrijfseitje is een speciaal bedrijfs-\n  evenement waarbij jij en anderen in het\n  kader van teambuilding in {{color id=\"1\"}}vijf golven {{color id=\"65535\"}}zo veel\n  mogelijk gouden eieren verzamelen.\n\n・ Wat bevordert een gezonde werkomgeving nou\n  meer dan {{color id=\"1\"}}vriendschappelijke rivaliteit{{color id=\"65535\"}}? Niets,\n  vinden we bij Beer & Co!",
      "EUru": "・ Икорный овертайм — особое корпоративное\n  мероприятие. Поупражняйся в тимбилдинге\n  с другими игроками, собирая как можно\n  больше икринок за {{color id=\"1\"}}5 волн{{color id=\"65535\"}}.\n\n・ «Потапыч Inc.» считает, что {{color id=\"1\"}}дружеское\n  соперничество {{color id=\"65535\"}}не только не вредит рабочему\n  климату, а наоборот, делает его более\n  здоровым. А шеф всегда прав!",
      "JPja": "・ バイトチームコンテストは、仲間とともにチームを作り\n  {{color id=\"1\"}}５つのWAVE{{color id=\"65535\"}}が発生する特別なバイトで集めた\n  金イクラの数のハイスコアを競う社内イベントです。\n\n・ {{color id=\"1\"}}チーム間の競争{{color id=\"65535\"}}を通じて仲間同士のキズナを\n  深めることで、より働きやすい職場を目指します。",
      "KRko": "・ 아르바이트 팀 콘테스트는 {{color id=\"1\"}}5개의 WAVE{{color id=\"65535\"}}가 있는\n  특별한 아르바이트에서 팀별 황금 연어알 수의\n  하이 스코어를 겨루는 이벤트입니다.\n\n・ 이벤트의 목적은 {{color id=\"1\"}}팀 경쟁{{color id=\"65535\"}}을 통해 동료 의식을\n  다지고 일하기 편한 직장을 만드는 것입니다.",
      "TWzh": "‧所謂的團隊打工競賽就是指和同伴組隊參加\n　總共{{color id=\"1\"}}5段WAVE{{color id=\"65535\"}}的特別打工，並以金鮭魚卵數量\n　的最高分數互相競爭的企業內部活動。\n\n‧目標是透過{{color id=\"1\"}}團隊競爭{{color id=\"65535\"}}加深同伴之間的感情，\n　藉此打造更加友善的職場環境。",
      "USen": "・ Eggstra Work is a special corporate event\n  where you can practice team building with\n  others while collecting as many Golden Eggs\n  as possible during {{color id=\"1\"}}5 waves{{color id=\"65535\"}}.\n\n・ What stimulates a healthy workplace\n  environment more than {{color id=\"1\"}}friendly competition{{color id=\"65535\"}}?\n  Nothing, as far as Grizzco can tell!",
      "USes": "・ La recolección extra es un evento corporativo\n　 especial donde podrás formar equipos con\n　 otros jugadores para recoger todos los\n　 huevecillos dorados que puedan en {{color id=\"1\"}}5 oleadas{{color id=\"65535\"}}.\n\n・ ¡Porque en Don Oso, S. A. sabemos que la\n　 {{color id=\"1\"}}competencia amistosa{{color id=\"65535\"}} fomenta un sano\n　 ambiente de trabajo!",
      "USfr": "・ Un défi œuf sup', c'est un événement pro interne\n  lors duquel tu pratiques la cohésion d'équipe avec\n  d'autres joueurs. Le but? Collecter un maximum\n  d'œufs dorés lors d'une session spéciale en\n  {{color id=\"1\"}}cinq vagues{{color id=\"65535\"}}.\n\n・ Renforce les liens avec tes collègues en profitant\n  d'un esprit de {{color id=\"1\"}}saine compétition{{color id=\"65535\"}}. Rien de mieux pour\n  une bonne ambiance au travail, foi de M. Ours!"
    }
  },
  {
    "label": "TeamContest_Manual02",
    "locale": {
      "CNzh": "·请在{{color id=\"1\"}}前往现场之前{{color id=\"65535\"}}，在指定的4把武器中\n　选择和其他成员不同的武器。\n　每个WAVE之间{{color id=\"1\"}}无法更换武器{{color id=\"65535\"}}。\n\n·由于竞赛会采用1种打工剧本进行，\n　{{color id=\"1\"}}不论哪支队伍，参加多少次打工{{color id=\"65535\"}}，\n　出现的鲑鱼和发生状况等打工内容都是{{color id=\"1\"}}相同的{{color id=\"65535\"}}。\n　但是金鲑鱼卵的交付数量大幅超过目标配额时，\n　{{color id=\"1\"}}危险度将会提升{{color id=\"65535\"}}，变得更容易获得较高的分数。",
      "EUde": "・ {{color id=\"1\"}}Ehe die Schicht beginnt{{color id=\"65535\"}}, müssen teilnehmende\n  Angestellte eine Waffe auswählen – jedoch\n  sind Doppelverwendungen nicht gestattet.\n  Es kann eine von vier Waffen gewählt werden,\n  die über sämtliche Wellen behalten wird.\n\n・ Während der gesamten Eventdauer wird stets\n  exakt dasselbe Schicht-Szenario gespielt.\n  Jedes Team tritt also {{color id=\"1\"}}unter identischen\n  Bedingungen gegen dieselben Salmoniden an{{color id=\"65535\"}}.\n  Höchst wichtig aber: Bei ausreichendem\n  Übertreffen der Eierquote wird die\n  {{color id=\"1\"}}Gefahrenstufe {{color id=\"65535\"}}gesteigert und höhere\n  Highscores sind möglich!",
      "EUen": "・ {{color id=\"1\"}}Before heading out to work{{color id=\"65535\"}}, choose a weapon!\n  It's a good idea to make sure that your team\n  has a balance of weapons, and there are\n  always four to choose from. You'll {{color id=\"1\"}}keep the\n  same weapon{{color id=\"65535\"}} through each wave.\n\n・ The job scenario doesn't change during an\n  Eggstra Work session. That means every team\n  will face off against {{color id=\"1\"}}the same Salmonids under\n  the same conditions{{color id=\"65535\"}} {{color id=\"1\"}}every time it joins{{color id=\"65535\"}}.\n  However, if your team manages to exceed\n  the Golden Eggs quota by enough, your\n  {{color id=\"1\"}}hazard level {{color id=\"65535\"}}will go up, making it possible\n  to get a higher score!",
      "EUes": "・ {{color id=\"1\"}}Antes de ir al tajo{{color id=\"65535\"}}, elige una de las 4 armas\n　 disponibles, de modo que la tuya sea diferente\n　 de las del resto del equipo. En cada ofensiva\n　 {{color id=\"1\"}}conservaréis las mismas armas{{color id=\"65535\"}}.\n\n・ El evento seguirá un modelo de tarea, es\n　 decir, los salmónidos que aparecen y otras\n　 condiciones de trabajo serán siempre las\n　 mismas {{color id=\"1\"}}para todos los equipos y en cada\n　 participación{{color id=\"65535\"}}. Sin embargo, si los alevines\n　 recolectados por tu equipo exceden el cupo\n　 por mucho, el {{color id=\"1\"}}nivel de riesgo{{color id=\"65535\"}} aumentará, lo\n　 que permitirá lograr puntuaciones mayores.",
      "EUfr": "・ {{color id=\"1\"}}Avant de commencer une session{{color id=\"65535\"}}, choisis une des\n  quatre armes proposées, de manière à avoir une\n  arme différente des autres membres de ton équipe.\n  Tu {{color id=\"1\"}}conserveras la même arme{{color id=\"65535\"}} à chaque vague.\n\n・ Le scénario de mission est toujours le même : les\n  paramètres de chaque vague, que ce soit les\n  Salmonoïdes qui apparaissent ou les conditions\n  de l'événement, {{color id=\"1\"}}seront les mêmes pour toutes les\n  équipes à chaque fois qu'elles participent{{color id=\"65535\"}}.\n  Cependant, si le nombre d'œufs dorés collectés\n  dépasse suffisamment le quota imposé, le {{color id=\"1\"}}niveau\n  de danger{{color id=\"65535\"}} augmentera, ce qui facilitera l'obtention\n  d'un score élevé.",
      "EUit": "・ {{color id=\"1\"}}Prima di iniziare la sfida{{color id=\"65535\"}}, scegli un'arma!\n  È una buona idea assicurarsi di scegliere\n  un set di armi bilanciato per la tua squadra.\n  Ne avrai 4 tra cui scegliere e {{color id=\"1\"}}userai sempre\n  la stessa{{color id=\"65535\"}} in ogni ondata.\n\n・ Lo scenario di lavoro non cambia durante\n  una sfida tra colleghi. Ciò significa che ogni\n  squadra affronterà {{color id=\"1\"}}gli stessi Salmonoidi\n  nelle stesse condizioni ogni volta che si\n  unisce alla sessione{{color id=\"65535\"}}. Però, se la tua squadra\n  riesce a superare la quota di uova d'oro\n  prevista quanto basta, il {{color id=\"1\"}}rischio {{color id=\"65535\"}}aumenterà e\n  sarà possibile ottenere un punteggio più alto!",
      "EUnl": "・ {{color id=\"1\"}}Voordat je aan de slag gaat{{color id=\"65535\"}}, kies je een van de\n  vier wapens! Een wapen dient niet door twee\n  leden van hetzelfde team in gebruik te zijn.\n  {{color id=\"1\"}}In elke golf {{color id=\"65535\"}}behoudt iedereen zijn wapen.\n\n・ Tijdens een bedrijfseitje verandert de huidige\n  klus niet. Dat betekent dat elk team het elke\n  keer{{color id=\"1\"}} onder gelijke omstandigheden{{color id=\"65535\"}} opneemt\n  tegen {{color id=\"1\"}}dezelfde Salmonieten{{color id=\"65535\"}}. Slaagt je team er\n  echter in om de doelstelling voor gouden eieren\n  ver genoeg te overtreffen, dan gaat het\n  {{color id=\"1\"}}risiconiveau {{color id=\"65535\"}}omhoog, zodat jullie een nog\n  hogere score kunnen behalen!",
      "EUru": "・ Перед {{color id=\"1\"}}началом смены {{color id=\"65535\"}}нужно выбрать 1 из\n  4 доступных видов оружия. Удостоверьтесь,\n  что выбор в бригаде хорошо сбалансирован:\n  это оружие {{color id=\"1\"}}останется с вами{{color id=\"65535\"}} во всех волнах!\n\n・ Пока идет икорный овертайм, настройки\n  смены не меняются. Это значит, что\n  каждая присоединившаяся бригада будет\n  {{color id=\"1\"}}каждый раз сталкиваться с одними и теми\n  же самонидами и условиями{{color id=\"65535\"}}. Но имей\n  в виду: если твоя бригада в достаточной\n  степени перевыполнит план по золотым\n  икринкам, {{color id=\"1\"}}сложность {{color id=\"65535\"}}повысится. Это\n  позволит вам добиться еще большего!",
      "JPja": "・ ブキは{{color id=\"1\"}}現場へ向かう前{{color id=\"65535\"}}に、指定された４つの中から\n  他のメンバーと同じにならないように選んでください。\n  WAVEごとの{{color id=\"1\"}}ブキチェンジはありません{{color id=\"65535\"}}。\n\n・ コンテストは１つのバイトシナリオを使って行うため、\n  出現するシャケや発生する状況など、バイトの内容が\n  {{color id=\"1\"}}どのチームでも、何回参加しても同じ{{color id=\"65535\"}}になります。\n  ただし、金イクラの納品数がノルマを大きく超えたときは\n  {{color id=\"1\"}}キケン度がアップ{{color id=\"65535\"}}し、高いスコアをねらいやすくなります。",
      "KRko": "・ 무기는 {{color id=\"1\"}}현장으로 가기 전{{color id=\"65535\"}}에 지정된 4개 중에서\n  다른 멤버와 겹치지 않게 선택해 주세요.\n  WAVE가 넘어가도 {{color id=\"1\"}}무기가 변경되지 않습니다{{color id=\"65535\"}}.\n\n・ 콘테스트는 1개의 아르바이트 시나리오를 사용해\n  출현하는 연어와 발생 상황 등 아르바이트 내용이\n  {{color id=\"1\"}}어떤 팀으로 몇 번 참가하든 동일{{color id=\"65535\"}}합니다.\n  단, 황금 연어알 납품 수가 할당량을 크게 넘으면\n  {{color id=\"1\"}}위험도가 올라{{color id=\"65535\"}} 높은 스코어를 노리기 쉬워집니다.",
      "TWzh": "‧{{color id=\"1\"}}前往作業現場前{{color id=\"65535\"}}，請從指定的4個武器中\n　選擇和其他成員不重複的武器。\n　每段WAVE都{{color id=\"1\"}}不會更換武器{{color id=\"65535\"}}。\n\n‧由於競賽是使用同1個打工劇本進行的，\n　所以打工時會出現的鮭魚、會發生的狀況等等，\n　{{color id=\"1\"}}無論是哪個隊伍、參加多少次都是不會變的{{color id=\"65535\"}}。\n　但是在金鮭魚卵交付數大幅超越目標配額時，\n　{{color id=\"1\"}}危險度就會提升{{color id=\"65535\"}}，更加容易獲得高分。",
      "USen": "・ {{color id=\"1\"}}Before heading out to work{{color id=\"65535\"}}, choose a weapon!\n  It's a good idea to make sure that your team\n  has a balance of weapons, and there are\n  always four to choose from. You'll {{color id=\"1\"}}keep the\n  same weapon{{color id=\"65535\"}} through each wave.\n\n・ The job scenario doesn't change during an\n  Eggstra Work session. That means every team\n  will face off against {{color id=\"1\"}}the same Salmonids under\n  the same conditions{{color id=\"65535\"}} {{color id=\"1\"}}every time it joins{{color id=\"65535\"}}.\n  However, if your team manages to exceed\n  the Golden Eggs quota by enough, your\n  {{color id=\"1\"}}hazard level {{color id=\"65535\"}}will go up, making it possible\n  to get a higher score!",
      "USes": "・ {{color id=\"1\"}}Antes de ir a trabajar{{color id=\"65535\"}}, elige una de las 4 armas\n　 disponibles, de modo que la tuya sea diferente\n　 de las del resto del equipo. En cada oleada\n　 {{color id=\"1\"}}conservarán las mismas armas{{color id=\"65535\"}}.\n\n・ El evento seguirá un modelo de tarea, es\n　 decir, los salmónidos que aparecen y otras\n　 condiciones de trabajo serán siempre las\n　 mismas {{color id=\"1\"}}para todos los equipos y en cada\n　 participación{{color id=\"65535\"}}. Sin embargo, si los huevecillos\n　 recolectados por tu equipo exceden el cupo\n　 por mucho, el {{color id=\"1\"}}nivel de riesgo{{color id=\"65535\"}} aumentará, lo\n　 que permitirá lograr puntuaciones mayores.",
      "USfr": "・ {{color id=\"1\"}}Avant de commencer une session{{color id=\"65535\"}}, choisis une des\n  quatre armes proposées, de manière à avoir une\n  arme différente des autres membres de ton équipe.\n  Tu {{color id=\"1\"}}conserveras la même arme{{color id=\"65535\"}} à chaque vague.\n\n・ Le scénario de mission est toujours le même : les\n  paramètres de chaque vague, que ce soit les\n  salmonoïdes qui apparaissent ou les conditions\n  de l'événement, {{color id=\"1\"}}seront les mêmes pour toutes les\n  équipes à chaque fois qu'elles participent{{color id=\"65535\"}}.\n  Cependant, si le nombre d'œufs dorés collectés\n  dépasse suffisamment le quota imposé, le {{color id=\"1\"}}niveau\n  de danger{{color id=\"65535\"}} augmentera, ce qui facilitera l'obtention\n  d'un pointage élevé."
    }
  },
  {
    "label": "TeamContest_Manual03",
    "locale": {
      "CNzh": "·打工的评价不会因本竞赛发生变化。\n　本竞赛还准备了与一般打工不相关的\n　{{color id=\"1\"}}专用报酬计量表{{color id=\"65535\"}}，还请放松参加。\n\n·参加者会根据最高分数获得相应的纪念品。\n　竞赛结束后，请确认公布于\n　{{color id=\"1\"}}熊先生商会告示板{{color id=\"65535\"}}的结果。\n　就是这样，期待你能在竞赛中\n　邂逅表现出色的打工队伍。",
      "EUde": "・ Teilnahme und Leistung in diesem Event\n  haben keinerlei Einfluss auf den Job-Titel.\n  Zusätzlich werden Belohnungen für diesen\n  Wettbewerb auf einer {{color id=\"1\"}}separaten Anzeige{{color id=\"65535\"}}\n  geführt, um die Teilnahme besonders\n  komplikationsfrei zu gestalten.\n\n・ Jede Teilnahme wird mit einer besonderen\n  Sachprämie belohnt. Diese richtet sich nach\n  dem persönlich erreichten Highscore.\n  Nach Event-Ende lassen sich auf der\n  {{color id=\"1\"}}Infotafel {{color id=\"65535\"}}der Bär GmbH die Platzierungen\n  einsehen. Wir wünschen allen Angestellten\n  frohsinniges Fischei-Raffen!",
      "EUen": "・ Participating in Eggstra Work will not change\n  your regular job title. There's even a {{color id=\"1\"}}special\n  Bonus Meter{{color id=\"65535\"}} that's only for Eggstra Work, so\n  feel free to join in whenever!\n\n・ All workers who participate will receive a\n  commemorative gift based on the highest\n  score they achieve, so aim for the stars!\n  After the event is complete, you can check\n  the {{color id=\"1\"}}bulletin board{{color id=\"65535\"}} at Grizzco to see where\n  you stand. Good luck! We look forward to\n  meeting your team of go-getters!",
      "EUes": "・ Este evento no modificará tu valoración.\n　 Se aplicará un {{color id=\"1\"}}medidor de paga{{color id=\"65535\"}} particular,\n　 distinto al habitual, para que puedas participar\n　 tantas veces como quieras sin preocuparte\n　 por nada.\n\n・ Según el resultado obtenido, los participantes\n　 recibirán un objeto conmemorativo. Al concluir,\n　 los resultados se publicarán en el {{color id=\"1\"}}tablón de\n　 anuncios{{color id=\"65535\"}} de Don Oso, S. A. Allí podrás echarles\n　 un ojo. ¡A ver qué equipo destaca más!",
      "EUfr": "・ Cet événement ne changera pas ton évaluation.\n  Il utilise aussi une {{color id=\"1\"}}jauge de prix spéciale{{color id=\"65535\"}}\n  indépendante de celle de ton boulot normal, alors\n  tu peux participer quand tu veux.\n\n・ Les participants recevront un objet commémoratif\n  qui dépendra de leur meilleur score. Après la fin\n  de l'événement, les résultats seront publiés sur\n  le {{color id=\"1\"}}panneau d'affichage{{color id=\"65535\"}} chez M. Ours SA, alors\n  je t'invite à aller le consulter. À bientôt avec\n  ta formidable équipe de collègues !",
      "EUit": "・ Partecipare a una sfida tra colleghi non\n  cambia la tua normale valutazione di lavoro.\n  La modalità include anche una {{color id=\"1\"}}barra speciale\n  {{color id=\"65535\"}}dedicata, quindi provala quando vuoi!\n\n・ Tutti i lavoratori che partecipano riceveranno\n  un regalo commemorativo basato sul punteggio\n  più alto ottenuto, quindi punta alle stelle!\n  Una volta concluso l'evento, puoi controllare\n  la tua posizione in classifica sulla {{color id=\"1\"}}bacheca {{color id=\"65535\"}}alla\n  Ursus & Co. Buona fortuna! Non vediamo l'ora\n  di incontrare la tua ambiziosa squadra!",
      "EUnl": "・ Het meedoen aan een bedrijfseitje heeft geen\n  invloed op je beoordeling. Daarnaast is er een\n  {{color id=\"1\"}}speciale bonusmeter{{color id=\"65535\"}} voor bedrijfseitjes.\n  Doe dus gerust mee wanneer je wilt!\n\n・ Alle deelnemende werknemers ontvangen een\n  aandenken op basis van hun topscore, dus zet\n  je beste beentje voor! Na afloop van het\n  evenement kun je op het {{color id=\"1\"}}prikbord{{color id=\"65535\"}} bij Beer & Co\n  zien hoe je het ervan af hebt gebracht.\n  Succes! We zien je gemotiveerde team\n  graag tegemoet!",
      "EUru": "・ От участия в икорном овертайме не изменится\n  твой обычный разряд. Для таких смен\n  доступен даже {{color id=\"1\"}}особый бонусометр{{color id=\"65535\"}}, можешь\n  спать... то есть работать спокойно!\n\n・ Все участники получат особую памятную\n  награду. Ее определит их личный рекорд,\n  так что не отлынивай! По окончании\n  мероприятия ты сможешь увидеть\n  свой результат на {{color id=\"1\"}}доске объявлений\n  {{color id=\"65535\"}}в «Потапыч Inc.». Удачи! Мы с нетерпением\n  ждем икры... игры твоей команды!",
      "JPja": "・ 本コンテストでバイトの評価が変わることはありません。\n  通常のバイトとは別に{{color id=\"1\"}}専用のほうしゅうメーター{{color id=\"65535\"}}も\n  用意していますので、お気軽にご参加ください。\n\n・ 参加者にはハイスコアに応じた記念品を差し上げます。\n  コンテストが終わったら{{color id=\"1\"}}クマサン商会の掲示板{{color id=\"65535\"}}で\n  結果を発表しますので、チェックしてください。\n  それでは、素晴らしいバイトチームに出会えることを\n  楽しみにしています。",
      "KRko": "・ 이 콘테스트와 아르바이트 평가는 무관합니다.\n  보통 아르바이트와는 별개로 {{color id=\"1\"}}전용 보상 미터{{color id=\"65535\"}}도\n  준비했으니 가벼운 마음으로 참가해 주세요.\n\n・ 각자의 하이 스코어에 따른 기념품을 증정합니다.\n  콘테스트가 끝난 후 {{color id=\"1\"}}Mr. 베어 상회 게시판{{color id=\"65535\"}}에서\n  결과를 발표할 예정이니 확인 부탁드립니다.\n  그럼 근사한 아르바이트 팀과 만나게 되기를\n  기대하고 있겠습니다.",
      "TWzh": "‧本競賽不會對打工的評價造成影響，\n　也會準備與一般打工不同的{{color id=\"1\"}}專用報酬量表{{color id=\"65535\"}}，\n　敬請放心參加。\n\n‧參加者可以獲得與最高分數相應的紀念品。\n　競賽結束後，最終結果將會公布於\n　{{color id=\"1\"}}熊先生商會的布告欄{{color id=\"65535\"}}上，屆時請務必查看。\n　最後，期待各位能夠順利遇見出色的同伴，\n　組成強大的打工團隊。",
      "USen": "・ Participating in Eggstra Work will not change\n  your regular job title. There's even a {{color id=\"1\"}}special\n  Bonus Meter{{color id=\"65535\"}} that's only for Eggstra Work, so\n  feel free to join in whenever!\n\n・ All workers who participate will receive a\n  commemorative gift based on the highest\n  score they achieve, so aim for the stars!\n  After the event is complete, you can check\n  the {{color id=\"1\"}}bulletin board{{color id=\"65535\"}} at Grizzco to see where\n  you stand. Good luck! We look forward to\n  meeting your team of go-getters!",
      "USes": "・ Este evento no modificará tu título laboral.\n　 Se aplicará un {{color id=\"1\"}}bonómetro especial {{color id=\"65535\"}}particular,\n　 distinto al regular, para que puedas participar\n　 todas las veces que quieras sin preocuparte\n　 por nada.\n\n・ Según el resultado obtenido, los participantes\n　 recibirán un objeto conmemorativo. Al concluir,\n　 los resultados se publicarán en el {{color id=\"1\"}}tablón de\n　 anuncios{{color id=\"65535\"}} de Don Oso, S. A. Ahí los podrás\n　 consultar. ¡A ver qué equipo se destaca más!",
      "USfr": "・ Cet événement ne changera pas ton évaluation.\n  Il utilise aussi une {{color id=\"1\"}}jauge de prix spéciale{{color id=\"65535\"}}\n  indépendante de celle de ton boulot normal, alors\n  tu peux participer quand tu veux.\n\n・ Les participants recevront un objet commémoratif\n  qui dépendra de leur meilleur score. Après la fin\n  de l'événement, les résultats seront publiés sur\n  le {{color id=\"1\"}}panneau d'affichage{{color id=\"65535\"}} chez M. Ours Cie, alors\n  je t'invite à aller le consulter. À bientôt avec\n  ta formidable équipe de collègues!"
    }
  },
  {
    "label": "TeamContest_Title",
    "locale": {
      "CNzh": "何谓团队打工竞赛？",
      "EUde": "Team-Wettkampf",
      "EUen": "What's Eggstra Work?",
      "EUes": "¿Qué es alianza alevínica?",
      "EUfr": "Les défis œuf sup'",
      "EUit": "Cos'è la sfida tra colleghi?",
      "EUnl": "Wat is een bedrijfseitje?",
      "EUru": "Икорный овертайм",
      "JPja": "バイトチームコンテストとは？",
      "KRko": "아르바이트 팀 콘테스트란?",
      "TWzh": "何謂團隊打工競賽？",
      "USen": "What's Eggstra Work?",
      "USes": "¿Qué es la recolección extra?",
      "USfr": "Les défis œuf sup'"
    }
  }
]