[
  {
    "label": "Minigame_Manual00",
    "locale": {
      "CNzh": "这是目前在蛮颓地区火热流行的卡牌游戏哦！\n你鱿兴趣来玩玩看吗？！",
      "EUde": "Bist du bereit für das heißeste Kartenspiel im Distrikt Splatsville?",
      "EUen": "Get ready for the hottest card game in the Splatlands!",
      "EUes": "¡Prepárate para el juego más competitivo de la región de Tintelia!",
      "EUfr": "Joue au jeu de cartes dont tout le monde parle dans la Contrée Clabousse !",
      "EUit": "Preparati per il gioco di carte più entusiasmante di Splattonia!",
      "EUnl": "Maak je klaar voor het meest geliefde kaartspel in de Splatlands!",
      "EUru": "Самый горячий хит настолок Плюхтонии!",
      "JPja": "今バンカラ地方で大流行中のカードゲームを\nキミも始めてみなイカ？！",
      "KRko": "지금 카오폴리스 지방에서 대유행 중인 카드 게임을\n너도 시작해 보고 싶지 않은가?!",
      "TWzh": "這是目前在蠻頹地區蔚為風潮的卡牌遊戲，\n你要不要也來玩玩看呢！？",
      "USen": "Get ready for the hottest card game in the Splatlands!",
      "USes": "¡Prepárate para el juego de cartas más competitivo de la región de Tintelia!",
      "USfr": "Joue au jeu de cartes dont tout le monde parle dans la Contrée Clabousse!"
    }
  },
  {
    "label": "Minigame_Manual01",
    "locale": {
      "CNzh": "布阵大战占地斗士是以单挑的形式互相争夺占地的卡牌对战！\n双方互相出牌，{{color id=\"1\"}}涂墨的格子更多的一方即可获胜{{color id=\"65535\"}}！",
      "EUde": "Revierdecks ist ein Duell-Legespiel mit Sammelkarten.\nWer nach einer bestimmten Zugzahl{{color id=\"1\"}} die meisten Felder gefärbt {{color id=\"65535\"}}hat, gewinnt!",
      "EUen": "Tableturf Battle is a head-to-head card game where you'll race to ink turf\nbefore running out of turns. {{color id=\"1\"}}Whoever has the most turf at the end wins!{{color id=\"65535\"}}",
      "EUes": "En este duelo con cartas tendrás que pintar todo el territorio que puedas antes\nde que se acaben los turnos. {{color id=\"1\"}}¡Gana quién más territorio haya entintado!{{color id=\"65535\"}}",
      "EUfr": "Cartes & Territoire est un jeu de cartes opposant deux joueurs.\n{{color id=\"1\"}}Celui qui a encré le plus de territoire à la fin du dernier tour l'emporte !{{color id=\"65535\"}}",
      "EUit": "Splattanza è un gioco di carte 1 vs 1 dove devi inchiostrare più terreno\npossibile prima di esaurire i turni. {{color id=\"1\"}}Alla fine vince chi ha inchiostrato di più{{color id=\"65535\"}}!",
      "EUnl": "Slijkslag is een kaartspel waarin 2 spelers binnen het aantal beurten elk zo veel\nmogelijk terrein winnen. {{color id=\"1\"}}Wie aan het eind de meeste vakjes heeft geverfd, wint!{{color id=\"65535\"}}",
      "EUru": "«Карты и район» — игра для двоих, {{color id=\"1\"}}для победы в которой нужно закрасить\nкак можно больше территории{{color id=\"65535\"}}, прежде чем ходы закончатся!",
      "JPja": "陣取大戦ナワバトラーは、１vs１でナワバリをうばい合うカードバトルだ！\nカードを出し合って、{{color id=\"1\"}}たくさんマスを塗った方の勝利{{color id=\"65535\"}}！",
      "KRko": "땅따먹기 대전 영역 배틀러는 1 vs 1로 서로의 영역을 쟁탈하는 카드 배틀이다!\n서로 카드를 내서 {{color id=\"1\"}}더 많은 칸을 칠한 쪽이 승리하지{{color id=\"65535\"}}!",
      "TWzh": "布陣大戰占地鬥士是種以1vs1的形式互相爭奪占地面積的卡牌對戰！\n雙方必須出牌互相對抗，{{color id=\"1\"}}塗墨占領較多格子的一方才能獲勝{{color id=\"65535\"}}！",
      "USen": "Tableturf Battle is a head-to-head card game where you'll race to ink turf\nbefore running out of turns. {{color id=\"1\"}}Whoever has the most turf at the end wins!{{color id=\"65535\"}}",
      "USes": "En este duelo con cartas tendrás que entintar todo el territorio que puedas\nantes de que se acaben los turnos. {{color id=\"1\"}}¡Gana quien más territorio haya entintado!{{color id=\"65535\"}}",
      "USfr": "Cartes et Territoire est un jeu de cartes opposant deux joueurs.\n{{color id=\"1\"}}Celui qui a encré le plus de territoire à la fin du dernier tour l'emporte!{{color id=\"65535\"}}"
    }
  },
  {
    "label": "Minigame_Manual02",
    "locale": {
      "CNzh": "玩家每回合都必须从4张手牌中选取1张卡片对场地涂墨！\n一场对战共有{{color id=\"1\"}}12回合{{color id=\"65535\"}}！每种卡片的涂墨方式都不同哦！",
      "EUde": "In jedem Zug wählst du aus vier Karten eine aus, um die Arena einzufärben.\nJede Karte färbt eine bestimmte Fläche. Färbe möglichst viel in {{color id=\"1\"}}zwölf Zügen{{color id=\"65535\"}}!",
      "EUen": "Both players place their cards at the same time, with each able to ink a unique\npattern of spaces. You get {{color id=\"1\"}}12 turns {{color id=\"65535\"}}to ink as much as you can!",
      "EUes": "En cada turno, los jugadores eligen cuál de las 4 cartas usarán para pintar\nel escenario, cubriendo un cierto patrón de casillas. ¡Hay {{color id=\"1\"}}12 turnos{{color id=\"65535\"}}!",
      "EUfr": "Les deux joueurs posent une carte en même temps. Chacune recouvre le terrain\nselon un motif différent. Tu as {{color id=\"1\"}}12 tours {{color id=\"65535\"}}pour encrer le plus de surface possible.",
      "EUit": "I giocatori posizionano le carte nello stesso momento. Ogni carta colora\ngli spazi in una disposizione unica. Hai {{color id=\"1\"}}12 turni{{color id=\"65535\"}} per inchiostrare a volontà!",
      "EUnl": "Beide spelers spelen hun kaarten tegelijk. Elke kaart verft een bepaald aantal\nvakjes in een unieke vorm. Verf er in {{color id=\"1\"}}12 beurten {{color id=\"65535\"}}zo veel mogelijk!",
      "EUru": "Оба игрока одновременно выкладывают карты. Каждая из них по-разному\nзакрашивает часть поверхности. Помни: у тебя всего {{color id=\"1\"}}12 ходов{{color id=\"65535\"}}!",
      "JPja": "毎ターン、４枚の手札から１枚を選んでステージを塗ろう！\n勝負は{{color id=\"1\"}}１２ターン{{color id=\"65535\"}}！ カードごとに塗れる形がちがうぞ！",
      "KRko": "매 턴 손에 든 4장의 카드에서 1장을 선택해 스테이지를 칠하자!\n승부는 {{color id=\"1\"}}12턴{{color id=\"65535\"}}! 카드마다 칠할 수 있는 모양이 다르다!",
      "TWzh": "玩家每回合都必須從4張手牌當中選出1張卡片對場地塗墨！\n一場對戰總共有{{color id=\"1\"}}12回合{{color id=\"65535\"}}！每張卡片的塗墨形式都不一樣喔！",
      "USen": "Both players place their cards at the same time, with each able to ink a unique\npattern of spaces. You get {{color id=\"1\"}}12 turns {{color id=\"65535\"}}to ink as much as you can!",
      "USes": "En cada turno, los jugadores eligen a la vez una carta que usarán para entintar\nel escenario, cubriendo un cierto patrón de casillas. ¡Hay {{color id=\"1\"}}12 turnos{{color id=\"65535\"}}!",
      "USfr": "Les deux joueurs posent une carte en même temps. Chacune recouvre le terrain\nselon un motif différent. Tu as {{color id=\"1\"}}12 tours {{color id=\"65535\"}}pour encrer le plus de surface possible."
    }
  },
  {
    "label": "Minigame_Manual03",
    "locale": {
      "CNzh": "玩家可以对{{color id=\"1\"}}与自己的格子相连的位置{{color id=\"65535\"}}涂墨！\n但要注意的是，无法对已经涂墨的格子重复涂墨！",
      "EUde": "Du kannst nur Felder färben, die {{color id=\"1\"}}an deine Farbe angrenzen{{color id=\"65535\"}}.\nVorsicht: Gefärbte Felder blockieren alle weiteren Karten – auch deine eigenen!",
      "EUen": "You can only ink a spot that is {{color id=\"1\"}}next to one you already control{{color id=\"65535\"}}. And look out—\nonce a space is claimed, that's that. It can't be reinked!",
      "EUes": "Solo puedes pintar casillas {{color id=\"1\"}}adyacentes a una que ya sea tuya{{color id=\"65535\"}}.\nEn principio, una casilla ya cubierta no se puede repintar.",
      "EUfr": "Tu ne peux encrer une case que si elle est {{color id=\"1\"}}adjacente à une case déjà contrôlée{{color id=\"65535\"}}.\nNote : une case acquise le reste définitivement !",
      "EUit": "Puoi colorare solo un punto {{color id=\"1\"}}adiacente a uno che già controlli{{color id=\"65535\"}}.\nE attenzione: uno spazio conquistato non può essere reinchiostrato!",
      "EUnl": "Je kunt alleen een vakje verven {{color id=\"1\"}}naast een vakje dat van jou is{{color id=\"65535\"}}. Maar let op:\neen vakje dat al geverfd is, kun je niet nog eens verven!",
      "EUru": "Закрашивать район можно лишь рядом с местами, {{color id=\"1\"}}которые уже под твоим\nконтролем{{color id=\"65535\"}}. Помни, что перекрасить его нельзя!",
      "JPja": "{{color id=\"1\"}}自分のマスに接している場所{{color id=\"65535\"}}を塗ることができる！\nただし、すでに塗られているマスには重ねられないから注意だ！",
      "KRko": "{{color id=\"1\"}}자신의 칸에 접해 있는 장소{{color id=\"65535\"}}를 칠할 수 있다!\n단, 이미 칠해진 칸은 덧칠할 수 없으니 주의가 필요하다!",
      "TWzh": "玩家可以對{{color id=\"1\"}}與自己的格子相連的位置{{color id=\"65535\"}}塗墨！\n但是無法對已塗墨的格子重複塗墨，必須多加注意！",
      "USen": "You can only ink a spot that is {{color id=\"1\"}}next to one you already control{{color id=\"65535\"}}. And look out—\nonce a space is claimed, that's that. It can't be reinked!",
      "USes": "Solo puedes entintar casillas {{color id=\"1\"}}adyacentes a una que ya sea tuya{{color id=\"65535\"}}.\nEn principio, una casilla ya cubierta no se puede volver a entintar.",
      "USfr": "Tu ne peux encrer une case que si elle est {{color id=\"1\"}}adjacente à une case déjà contrôlée{{color id=\"65535\"}}.\nNote : Une case acquise le reste définitivement!"
    }
  },
  {
    "label": "Minigame_Manual04",
    "locale": {
      "CNzh": "当自己要涂墨的格子与对手重叠时，{{color id=\"1\"}}卡片数字较小的一方{{color id=\"65535\"}}才能成功涂墨哦！\n如果双方卡片的数字相同，重叠的格子就会变成无法涂墨的墙壁！",
      "EUde": "Wenn beide Spieler dasselbe Feld färben wollen, hat die Karte mit dem\n{{color id=\"1\"}}niedrigeren Kartenwert {{color id=\"65535\"}}Vorrang. Sind die Werte gleich hoch, entsteht eine Wand!",
      "EUen": "If both players try to ink the same space, the {{color id=\"1\"}}card with the lower number {{color id=\"65535\"}}wins.\nIf cards have the same number, the overlapping ink will form an un-inkable wall!",
      "EUes": "Si ambos jugadores intentan pintar la misma casilla, se impone {{color id=\"1\"}}la carta con\nel número más bajo{{color id=\"65535\"}}. Si tienen el mismo número, ¡se formará un muro de tinta!",
      "EUfr": "Si les deux joueurs veulent encrer la même case, {{color id=\"1\"}}la carte de la plus petite\nvaleur {{color id=\"65535\"}}l'emporte. En cas d'égalité, les cases concernées deviennent des murs !",
      "EUit": "Se i giocatori provano a colorare lo stesso spazio, vince la {{color id=\"1\"}}carta con il numero\npiù basso{{color id=\"65535\"}}. In caso di parità, gli spazi sovrapposti formano un muro incolorabile!",
      "EUnl": "Als beide spelers hetzelfde vakje willen verven, wint {{color id=\"1\"}}de kaart met het laagste\nnummer{{color id=\"65535\"}}. Bij gelijke nummers vormt de overlappende inkt een onverfbare muur!",
      "EUru": "Если игроки хотят закрасить одно и то же место, победит {{color id=\"1\"}}карта с меньшим\nчислом{{color id=\"65535\"}}. Число одинаковое? Вместо краски появится стена. Ее не закрасить!",
      "JPja": "塗りたいマスが相手と重なった場合は、{{color id=\"1\"}}数字が小さい方のカード{{color id=\"65535\"}}で塗られるぞ！\nカードの数字も同じなら、重なったマスは塗ることのできないカベになる！",
      "KRko": "칠하고자 하는 칸이 상대와 겹친 경우에는 {{color id=\"1\"}}숫자가 더 작은 카드{{color id=\"65535\"}}가 우선된다!\n카드 숫자도 같다면 겹친 칸은 칠할 수 없는 벽이 된다!",
      "TWzh": "當自己想要塗墨的格子與對手重疊時，{{color id=\"1\"}}卡片數字較小的一方{{color id=\"65535\"}}才能成功塗墨喔！\n如果連卡片數字都相同的話，重疊的格子就會變成無法塗墨的牆壁！",
      "USen": "If both players try to ink the same space, the {{color id=\"1\"}}card with the lower number {{color id=\"65535\"}}wins.\nIf cards have the same number, the overlapping ink will form an un-inkable wall!",
      "USes": "Si ambos jugadores intentan entintar la misma casilla, se impone {{color id=\"1\"}}la carta con\nel número más bajo{{color id=\"65535\"}}. Si tienen el mismo número, ¡se formará un muro antitinta!",
      "USfr": "Si les deux joueurs veulent encrer la même case, {{color id=\"1\"}}la carte de la plus petite\nvaleur {{color id=\"65535\"}}l'emporte. En cas d'égalité, les cases concernées deviennent des murs!"
    }
  },
  {
    "label": "Minigame_Manual05",
    "locale": {
      "CNzh": "只要让{{color id=\"1\"}}特殊格子{{color id=\"65535\"}}被周围的8个格子包围起来，就可以积攒{{color id=\"1\"}}特殊点数{{color id=\"65535\"}}哦！\n自己的格子、对手的格子、墙壁，都可以用来包围特殊格子！",
      "EUde": "Wenn ein {{color id=\"1\"}}Spezialfeld{{color id=\"65535\"}} deiner Farbe komplett von dir, deinem Gegner oder einer\nWand eingeschlossen ist, erhältst du einen {{color id=\"1\"}}Spezialpunkt{{color id=\"65535\"}}!",
      "EUen": "If one of your color's {{color id=\"1\"}}Special Spaces{{color id=\"65535\"}} is completely surrounded, either by your\nink, your opponent's, or even a wall, you'll earn a {{color id=\"1\"}}Special Point{{color id=\"65535\"}}!",
      "EUes": "Si una {{color id=\"1\"}}casilla especial{{color id=\"65535\"}} de tu color queda completamente rodeada por tu tinta\no la de tu rival, o por una pared, ¡obtendrás un {{color id=\"1\"}}punto especial{{color id=\"65535\"}}!",
      "EUfr": "Si une {{color id=\"1\"}}case spéciale {{color id=\"65535\"}}que tu contrôles est entièrement encerclée, que ce soit par\nton encre, l'encre adverse ou un mur, tu obtiens un {{color id=\"1\"}}point spécial{{color id=\"65535\"}}.",
      "EUit": "Se uno degli {{color id=\"1\"}}spazi speciali{{color id=\"65535\"}} del tuo colore è completamente circondato dal tuo\ninchiostro, da quello avversario o anche da un muro, ottieni un {{color id=\"1\"}}punto speciale{{color id=\"65535\"}}!",
      "EUnl": "Als een van de {{color id=\"1\"}}speciale vakjes{{color id=\"65535\"}} met jouw kleur compleet is omringd door jouw\ninkt, die van je tegenstander of een muur, verdien je een {{color id=\"1\"}}speciaal punt{{color id=\"65535\"}}!",
      "EUru": "Если одно из твоих {{color id=\"1\"}}особых полей {{color id=\"65535\"}}окружено твоей краской, вражеской краской\nили даже стеной, ты получаешь {{color id=\"1\"}}особое очко{{color id=\"65535\"}}!",
      "JPja": "{{color id=\"1\"}}スペシャルマス{{color id=\"65535\"}}を周り８マスで囲めば{{color id=\"1\"}}スペシャルポイント{{color id=\"65535\"}}がたまるぞ！\n囲むのは自分のマスでも、相手のマスでも、カベでもOKだ！",
      "KRko": "{{color id=\"1\"}}스페셜 칸{{color id=\"65535\"}}을 주위 8칸으로 둘러싸면 {{color id=\"1\"}}스페셜 포인트{{color id=\"65535\"}}가 모인다!\n자신의 칸, 상대의 칸, 벽 중 어느 것으로도 둘러쌀 수 있다!",
      "TWzh": "只要讓{{color id=\"1\"}}特殊格子{{color id=\"65535\"}}被周圍的8個格子包圍起來，就能累積{{color id=\"1\"}}特殊點數{{color id=\"65535\"}}喔！\n無論是自己的格子、對手的格子或是牆壁都可以用來包圍特殊格子！",
      "USen": "If one of your color's {{color id=\"1\"}}Special Spaces{{color id=\"65535\"}} is completely surrounded, either by your\nink, your opponent's, or even a wall, you'll earn a {{color id=\"1\"}}Special Point{{color id=\"65535\"}}!",
      "USes": "Si una {{color id=\"1\"}}casilla especial{{color id=\"65535\"}} de tu color queda completamente rodeada por tu tinta\no la de tu rival, o incluso por un muro, ¡obtendrás un {{color id=\"1\"}}punto especial{{color id=\"65535\"}}!",
      "USfr": "Si une {{color id=\"1\"}}case spéciale {{color id=\"65535\"}}que tu contrôles est entièrement encerclée, que ce soit par\nton encre, l'encre adverse ou un mur, tu obtiens un {{color id=\"1\"}}point spécial{{color id=\"65535\"}}."
    }
  },
  {
    "label": "Minigame_Manual06",
    "locale": {
      "CNzh": "以{{color id=\"1\"}}特殊攻击{{color id=\"65535\"}}的方式出牌时，{{color id=\"1\"}}可以涂掉对手的格子{{color id=\"65535\"}}！\n特殊攻击只能对与自己的特殊格子相连的位置使用哦！",
      "EUde": "Nur mit {{color id=\"1\"}}Spezialangriffen {{color id=\"65535\"}}kannst du {{color id=\"1\"}}gegnerische Felder umfärben{{color id=\"65535\"}}.\nDu kannst sie nur um eines deiner Spezialfelder herum ausspielen.",
      "EUen": "Playing a {{color id=\"1\"}}Special Attack{{color id=\"65535\"}} card is the only way to {{color id=\"1\"}}ink over an opponent's spaces{{color id=\"65535\"}}!\nJust remember you can only play them next to one of your Special Spaces.",
      "EUes": "Las cartas de {{color id=\"1\"}}ataque especial{{color id=\"65535\"}} son la única manera de {{color id=\"1\"}}pintar las casillas del\nrival{{color id=\"65535\"}}, pero solo se pueden usar junto a una de tus casillas especiales.",
      "EUfr": "L'{{color id=\"1\"}}attaque spéciale{{color id=\"65535\"}} est le seul moyen d'{{color id=\"1\"}}encrer une case tenue par l'adversaire{{color id=\"65535\"}}.\nTu ne peux la déclencher que sur les cases adjacentes à tes cases spéciales.",
      "EUit": "Giocare una carta di {{color id=\"1\"}}attacco speciale{{color id=\"65535\"}} è l'unico modo per {{color id=\"1\"}}ricolorare uno spazio\navversario{{color id=\"65535\"}}! Ricorda: la puoi usare solo vicino a uno dei tuoi spazi speciali.",
      "EUnl": "Met een kaart voor een {{color id=\"1\"}}speciale aanval {{color id=\"65535\"}}kun je {{color id=\"1\"}}vakjes van je tegenstander\novernemen{{color id=\"65535\"}}! Deze kun je echter alleen inzetten naast een van je speciale vakjes.",
      "EUru": "Единственный способ {{color id=\"1\"}}перекрасить вражеские поля {{color id=\"65535\"}}— {{color id=\"1\"}}особая атака{{color id=\"65535\"}},\nно применить ее можно только рядом с твоим особым полем.",
      "JPja": "{{color id=\"1\"}}スペシャルアタック{{color id=\"65535\"}}でカードを出すと、{{color id=\"1\"}}相手のマスを塗り返せる{{color id=\"65535\"}}！\nスペシャルアタックは、自分のスペシャルマスに接している場所にしか出せないぞ！",
      "KRko": "{{color id=\"1\"}}스페셜 어택{{color id=\"65535\"}}으로 카드를 내면 {{color id=\"1\"}}상대의 칸을 덧칠할 수 있다{{color id=\"65535\"}}!\n스페셜 어택은 자신의 스페셜 칸에 접해 있는 장소에만 낼 수 있다!",
      "TWzh": "只要以{{color id=\"1\"}}特殊攻擊{{color id=\"65535\"}}的方式出牌，就能{{color id=\"1\"}}塗掉對手的格子{{color id=\"65535\"}}！\n特殊攻擊只能對與自己的特殊格子相連的位置使用喔！",
      "USen": "Playing a {{color id=\"1\"}}Special Attack{{color id=\"65535\"}} card is the only way to {{color id=\"1\"}}ink over an opponent's spaces{{color id=\"65535\"}}!\nJust remember you can only play them next to one of your Special Spaces.",
      "USes": "Las cartas de {{color id=\"1\"}}ataque especial{{color id=\"65535\"}} son la única manera de {{color id=\"1\"}}entintar las casillas del\nrival{{color id=\"65535\"}}, pero solo se pueden usar junto a una de tus casillas especiales.",
      "USfr": "L'{{color id=\"1\"}}attaque spéciale{{color id=\"65535\"}} est le seul moyen d'{{color id=\"1\"}}encrer une case tenue par l'adversaire{{color id=\"65535\"}}.\nTu ne peux la déclencher que sur les cases adjacentes à tes cases spéciales."
    }
  },
  {
    "label": "Minigame_Manual07",
    "locale": {
      "CNzh": "可以通过{{color id=\"1\"}}卡片包{{color id=\"65535\"}}获得占地斗士的卡片哦！\n利用目录、抽奖等方法获得卡片包吧！",
      "EUde": "Du brauchst mehr Karten? Kein Problem!\nNeue {{color id=\"1\"}}Kartenpäckchen {{color id=\"65535\"}}erhältst du aus dem Katalog oder am Kapselautomaten!",
      "EUen": "Need more Tableturf Battle cards? You can get a fresh {{color id=\"1\"}}pack of cards{{color id=\"65535\"}} from the\ncatalog, the Shell-Out Machine, and elsewhere!",
      "EUes": "¿Necesitas más cartas? ¡Puedes obtener {{color id=\"1\"}}paquetes de cartas{{color id=\"65535\"}} a través\ndel catálogo, con la máquina sacapremios y de otras formas!",
      "EUfr": "Il te faut plus de cartes de C&T ? Tu peux obtenir de nouveaux {{color id=\"1\"}}jeux de cartes{{color id=\"65535\"}}\nvia le catalogue, ou grâce au Capsulomate, entre autres !",
      "EUit": "Ti servono più carte di Splattanza? Puoi ottenere una\n{{color id=\"1\"}}bustina {{color id=\"65535\"}}dal catalogo, dal Premi-o-matic e in altri modi!",
      "EUnl": "Heb je meer kaarten nodig? Je kunt een nieuw {{color id=\"1\"}}pakje kaarten{{color id=\"65535\"}} krijgen uit de\ncatalogus, uit de Prijzenpot en op andere plekken!",
      "EUru": "Хочешь больше карт? Свежайшие {{color id=\"1\"}}колоды {{color id=\"65535\"}}можно получить через каталог,\nкапсульный автомат и во множестве других мест!",
      "JPja": "ナワバトラーのカードは{{color id=\"1\"}}カードパック{{color id=\"65535\"}}から手に入るぞ！\nカタログやくじ引きなどで、カードパックをゲットだ！",
      "KRko": "영역 배틀러의 카드는 {{color id=\"1\"}}카드 팩{{color id=\"65535\"}}에서 획득할 수 있다!\n카탈로그와 뽑기 등에서 카드 팩을 획득하자!",
      "TWzh": "只要透過{{color id=\"1\"}}卡包{{color id=\"65535\"}}就能獲得占地鬥士的卡片囉！\n利用目錄或抽獎等方式獲得卡包吧！",
      "USen": "Need more Tableturf Battle cards? You can get a fresh {{color id=\"1\"}}pack of cards{{color id=\"65535\"}} from the\ncatalog, the Shell-Out Machine, and elsewhere!",
      "USes": "¿Necesitas más cartas? ¡Puedes obtener {{color id=\"1\"}}paquetes de cartas{{color id=\"65535\"}} a través\ndel catálogo, con el premiotrón y de otras formas!",
      "USfr": "Il te faut plus de cartes de C et T? Tu peux obtenir de nouveaux {{color id=\"1\"}}jeux de cartes{{color id=\"65535\"}}\nvia le catalogue, ou grâce au Capsulomate, entre autres!"
    }
  },
  {
    "label": "Minigame_Manual08",
    "locale": {
      "CNzh": "选择15张卡片组成牌组进行对战吧！\n最多可以持有32套牌组哦！",
      "EUde": "Erstelle dir für den Kampf Decks aus jeweils 15 Karten.\nDu kannst bis zu 32 verschiedene Decks speichern.",
      "EUen": "Prepare for battle by picking out 15 cards to make a deck.\nYou can save up to 32 different decks.",
      "EUes": "Elige 15 cartas para formar el mazo que usarás en combate.\nPuedes guardar hasta 32 mazos diferentes.",
      "EUfr": "Avant un match, choisis les 15 cartes qui constitueront ton deck.\nTu peux sauvegarder jusqu'à 32 decks différents.",
      "EUit": "Preparati alla battaglia scegliendo 15 carte per formare un mazzo.\nPuoi salvare un massimo di 32 mazzi diversi.",
      "EUnl": "Bereid je voor op de strijd door een set van 15 kaarten te vormen. Je kunt wel\n32 verschillende sets opslaan.",
      "EUru": "Перед началом боя создай колоду из 15 карт.\nМожно сохранить до 32 разных колод!",
      "JPja": "１５枚のカードを選び、デッキを組んで戦おう！\nデッキは最大３２組まで持つことができるぞ！",
      "KRko": "15장의 카드를 선택해서 덱을 만들어 싸우자!\n덱은 최대 32개까지 가질 수 있다!",
      "TWzh": "選擇15張卡片組成牌組進行對戰吧！\n最多可以擁有32副牌組喔！",
      "USen": "Prepare for battle by picking out 15 cards to make a deck.\nYou can save up to 32 different decks.",
      "USes": "Elige 15 cartas para formar el mazo que usarás en combate.\nPuedes guardar hasta 16 mazos diferentes.",
      "USfr": "Avant un match, choisis les 15 cartes qui constitueront ton paquet.\nTu peux sauvegarder jusqu'à 32 paquets différents."
    }
  },
  {
    "label": "Minigame_Manual_Title00",
    "locale": {
      "CNzh": "布阵大战占地斗士！！",
      "EUde": "Revierdecks: Das spritzigste Kartenspiel",
      "EUen": "Tableturf Battle: The Freshest Card Game",
      "EUes": "Gran lucha carterritorial: ¡cartas con nivel!",
      "EUfr": "Cartes & Territoire, les cartes de la classe",
      "EUit": "Splattanza: quando le carte splattano",
      "EUnl": "Slijkslag: het meest verse kaartspel ooit",
      "EUru": "«Карты и район»: свежайшая карточная игра!",
      "JPja": "陣取大戦ナワバトラー！！",
      "KRko": "땅따먹기 대전 영역 배틀러!!",
      "TWzh": "布陣大戰占地鬥士！！",
      "USen": "Tableturf Battle: The Freshest Card Game",
      "USes": "Combate carterritorial: ¡cartas con clase!",
      "USfr": "Cartes et Territoire, les cartes de la classe"
    }
  },
  {
    "label": "Minigame_Manual_Title01",
    "locale": {
      "CNzh": "以1vs1的形式展开占地卡牌对战！！",
      "EUde": "Ein Revierkampf... mit Karten!",
      "EUen": "A One-on-One Turf War...with Cards!",
      "EUes": "¡Un duelo territorial cara cara... con cartas!",
      "EUfr": "Une guerre de territoire... avec des cartes !",
      "EUit": "Una mischia mollusca 1 vs 1... con le carte!",
      "EUnl": "Een Grondoorlog... met kaarten!",
      "EUru": "Бой за район один на один. В карты!",
      "JPja": "１ｖｓ１で、ナワバリカードバトル！！",
      "KRko": "1 vs 1 영역 카드 배틀!!",
      "TWzh": "以1vs1的形式進行占地卡牌對戰！！",
      "USen": "A One-on-One Turf War...with Cards!",
      "USes": "Un duelo territorial... ¡con cartas!",
      "USfr": "Une Guerre de territoire... avec des cartes!"
    }
  },
  {
    "label": "Minigame_Manual_Title02",
    "locale": {
      "CNzh": "出牌对场地涂墨吧！！",
      "EUde": "Klecksen mit Karten!",
      "EUen": "Ink It All with Cards",
      "EUes": "Entíntalo todo con cartas",
      "EUfr": "Cartes à encrer",
      "EUit": "Inchiostra con le carte",
      "EUnl": "Kleuren met kaarten!",
      "EUru": "Закрась все с помощью карт!",
      "JPja": "カードを出して、ステージを塗れ！！",
      "KRko": "카드를 내서 스테이지를 색칠하자!!",
      "TWzh": "出牌對場地塗墨吧！！",
      "USen": "Ink It All with Cards",
      "USes": "Entíntalo todo con cartas",
      "USfr": "Cartes à encrer"
    }
  },
  {
    "label": "Minigame_Manual_Title03",
    "locale": {
      "CNzh": "涂墨的规则",
      "EUde": "Felder klecksen",
      "EUen": "The Rules of Inking",
      "EUes": "Reglas del entintado",
      "EUfr": "Règles de bon voisinage",
      "EUit": "Regole base",
      "EUnl": "Verven volgens de regels",
      "EUru": "Законы района",
      "JPja": "塗り方のルール",
      "KRko": "색칠 방법 룰",
      "TWzh": "塗墨的規則",
      "USen": "The Rules of Inking",
      "USes": "Reglas del entintado",
      "USfr": "Règles de bon voisinage"
    }
  },
  {
    "label": "Minigame_Manual_Title04",
    "locale": {
      "CNzh": "决定涂墨位置后就翻开卡片！！",
      "EUde": "Klecks-Gewichtung",
      "EUen": "The Where and How of Inking",
      "EUes": "Dónde y cómo entintar",
      "EUfr": "Une case pour deux",
      "EUit": "Dove e come inchiostrare",
      "EUnl": "Duelleren met inkt",
      "EUru": "Как и где закрашивать?",
      "JPja": "塗る場所を決めたら、カードをオープン！！",
      "KRko": "색칠할 장소를 정하고 카드를 오픈!!",
      "TWzh": "決定塗墨位置後就翻牌吧！！",
      "USen": "The Where and How of Inking",
      "USes": "Dónde y cómo entintar",
      "USfr": "Une case pour deux"
    }
  },
  {
    "label": "Minigame_Manual_Title05",
    "locale": {
      "CNzh": "积攒特殊点数吧！",
      "EUde": "Spezialpunkte",
      "EUen": "Special Points for You",
      "EUes": "Puntos especiales",
      "EUfr": "Les points spéciaux : dans l'œil du cyclone",
      "EUit": "Punti speciali",
      "EUnl": "Speciale punten",
      "EUru": "Получение особых очков",
      "JPja": "スペシャルポイントをためろ！！",
      "KRko": "스페셜 포인트를 모으자!!",
      "TWzh": "累積特殊點數吧！！",
      "USen": "Special Points for You",
      "USes": "Puntos especiales",
      "USfr": "Les points spéciaux : dans l'œil du cyclone"
    }
  },
  {
    "label": "Minigame_Manual_Title06",
    "locale": {
      "CNzh": "靠特殊攻击来逆转局势！！",
      "EUde": "Spezialangriffe",
      "EUen": "Special Attacks Turn the Tide",
      "EUes": "Cambio de tornas con ataques especiales",
      "EUfr": "Les attaques spéciales : avis de tempête",
      "EUit": "Gli attacchi speciali cambiano tutto",
      "EUnl": "Speciale aanvallen keren het tij",
      "EUru": "Изменение хода игры с помощью особых атак",
      "JPja": "スペシャルアタックで大逆転！！",
      "KRko": "스페셜 어택으로 대역전!!",
      "TWzh": "靠特殊攻擊一舉逆轉戰局！！",
      "USen": "Special Attacks Turn the Tide",
      "USes": "Cambia tu suerte con ataques especiales",
      "USfr": "Les attaques spéciales : avis de tempête"
    }
  },
  {
    "label": "Minigame_Manual_Title07",
    "locale": {
      "CNzh": "收集超鱿型的卡片吧！！",
      "EUde": "Erweitere deine Sammlung",
      "EUen": "Build Your Collection",
      "EUes": "Amplía tu colección",
      "EUfr": "La passion de la collection",
      "EUit": "Crea la tua collezione",
      "EUnl": "Bouw je collectie op",
      "EUru": "Собери целую коллекцию",
      "JPja": "イカしたカードを集めよう！！",
      "KRko": "어메이징한 카드를 모으자!!",
      "TWzh": "收集超魷型的卡片吧！！",
      "USen": "Build Your Collection",
      "USes": "Amplía tu colección",
      "USfr": "La passion de la collection"
    }
  },
  {
    "label": "Minigame_Manual_Title08",
    "locale": {
      "CNzh": "编辑个人专属的牌组吧！！",
      "EUde": "Decks erstellen",
      "EUen": "Deck Out Your Cards",
      "EUes": "Prepara tus cartas",
      "EUfr": "Le deck plus ultra",
      "EUit": "Organizza i tuoi mazzi",
      "EUnl": "Stel kaartensets samen",
      "EUru": "Создай свою колоду",
      "JPja": "自分だけのデッキを組もう！！",
      "KRko": "나만의 덱을 만들자!!",
      "TWzh": "打造個人專屬的牌組吧！！",
      "USen": "Deck Out Your Cards",
      "USes": "Prepara tus cartas",
      "USfr": "Le paquet plus ultra"
    }
  }
]