[
  {
    "label": "Miiverse_FAQButton",
    "locale": {
      "CNzh": "FAQ",
      "EUde": "Häufige Fragen",
      "EUen": "FAQ",
      "EUes": "Dudas",
      "EUfr": "FAQ",
      "EUit": "Domande\nfrequenti",
      "EUnl": "Hulp",
      "EUru": "Вопросы и ответы",
      "JPja": "FAQ",
      "KRko": "FAQ",
      "TWzh": "FAQ",
      "USen": "FAQ",
      "USes": "Dudas",
      "USfr": "FAQ"
    }
  },
  {
    "label": "Miiverse_FAQManual00",
    "locale": {
      "CNzh": "·我不知道该如何通过互联网发布插画。\n　连接互联网后，在绘制插画的界面按“{{icon id=\"5\" arg=\"0x52B85E3F03000000\"}}发布”，\n　即可将插画发布至SNS。\n　※需要拥有SNS账号。",
      "EUde": "・ Wie poste ich meine Zeichnung im Internet?\n    Du kannst dein Bild in sozialen Netzwerken posten, wenn du auf dem\n    Zeichenbildschirm {{icon id=\"5\" arg=\"0x52B85E3F03000000\"}}„Posten“ auswählst, während eine Verbindung zum\n    Internet besteht. Ein Konto bei sozialen Netzwerken wird benötigt.",
      "EUen": "・ How do I post my image to the internet?\n    You can post your image to social media if you select {{icon id=\"5\" arg=\"0x52B85E3F03000000\"}}Post on the\n    drawing screen while connected to the internet. A social-media account\n    is required.",
      "EUes": "・ ¿Cómo puedo publicar mi dibujo en internet?\n    Para publicar tu dibujo en las redes sociales, selecciona «{{icon id=\"5\" arg=\"0x52B85E3F03000000\"}} Publicar»\n    en la pantalla de dibujar mientras la consola está conectada a internet.\n    Será necesario disponer de una cuenta en redes sociales.",
      "EUfr": "・ Comment publier mon dessin en ligne ?\n    Pour publier ton dessin sur les réseaux sociaux, assure-toi que la console\n    est connectée à Internet et sélectionne Publier {{icon id=\"5\" arg=\"0x52B85E3F03000000\"}} depuis l'écran\n    de dessin. Un compte sur les réseaux sociaux est requis.",
      "EUit": "・ Come faccio a pubblicare le mie immagini su Internet?\n    Se vuoi pubblicare le tue immagini sui social network, seleziona\n    \"{{icon id=\"5\" arg=\"0x52B85E3F03000000\"}} Pubblica\" nello schermo di creazione dell'immagine mentre il\n    collegamento a Internet è attivo. È necessario disporre di un account\n    sui social network.",
      "EUnl": "・ Hoe post ik mijn afbeelding op het internet?\n    Om je afbeelding op sociale media te posten moet je met het internet\n    verbonden zijn en {{icon id=\"5\" arg=\"0x52B85E3F03000000\"}}POSTEN kiezen in het tekenscherm. Een account\n    van een sociaal netwerk is vereist.",
      "EUru": "・ Как опубликовать послание в Интернете?\n    Ты можешь опубликовать послание в социальных сетях. Для этого\n    требуется подключение к Интернету. Нарисуй послание и выбери {{icon id=\"5\" arg=\"0x52B85E3F03000000\"}}.\n    Требуется наличие учетной записи в социальной сети.",
      "JPja": "・ イラストをインターネット上に投稿する方法がわかりません。\n    インターネットに接続して、イラストを書く画面で「{{icon id=\"5\" arg=\"0x52B85E3F03000000\"}}投稿する」を押すと、\n    イラストをＳＮＳに投稿することができます。\n    ※ＳＮＳのアカウントが必要です。",
      "KRko": "・ 일러스트를 인터넷상에 투고하는 방법을 모르겠어요.\n    인터넷에 접속하고 일러스트를 그리는 화면에서 「{{icon id=\"5\" arg=\"0x52B85E3F03000000\"}}투고하기」를 누르면\n    일러스트를 SNS에 투고할 수 있습니다.\n    ※SNS 계정이 필요합니다.",
      "TWzh": "‧我不知道該如何透過網路發表插畫。\n　連接網路後，在繪製插畫的畫面中按下「{{icon id=\"5\" arg=\"0x52B85E3F03000000\"}}發表」，\n　即可將插畫發表至社群網站。\n    ※需要擁有社群網站的帳號。",
      "USen": "・ How do I post my image to the internet?\n    You can post your image to social media if you select {{icon id=\"5\" arg=\"0x52B85E3F03000000\"}}Post on the\n    drawing screen while connected to the internet. A social-media account\n    is required.",
      "USes": "・ ¿Cómo publico mi imagen en internet?\n    Para compartir tu creación en redes sociales, elige \"{{icon id=\"5\" arg=\"0x52B85E3F03000000\"}} Publicar\" en la\n    pantalla de dibujo. Asegúrate de que tu consola está conectada a internet.\n    Será necesario disponer de una cuenta en redes sociales.",
      "USfr": "・ Comment publier mon dessin en ligne?\n    Pour publier ton dessin sur les réseaux sociaux, assure-toi que la console\n    est connectée à Internet et sélectionne Publier {{icon id=\"5\" arg=\"0x52B85E3F03000000\"}} depuis l'écran\n    de dessin. Un compte sur les réseaux sociaux est requis."
    }
  },
  {
    "label": "Miiverse_FAQManual00_01",
    "locale": {
      "CNzh": "·我不知道该如何通过互联网发布插画。\n　连接互联网后，在绘制插画的界面按“{{icon id=\"5\" arg=\"0x52B85E3F03000000\"}}发布”，\n　即可发布插画。",
      "EUde": "・ Wie teile ich meine Zeichnung?\n    Du kannst dein Bild mit anderen Spielern in der Stadt teilen,\n    indem du auf dem Zeichenbildschirm {{icon id=\"5\" arg=\"0x52B85E3F03000000\"}}„Posten“ auswählst,\n    während eine Verbindung zum Internet besteht. ",
      "EUen": "・ How do I share my image?\n    You can share your image with other players in the plaza or square by\n    selecting {{icon id=\"5\" arg=\"0x52B85E3F03000000\"}}Post on the drawing screen while connected to the internet.",
      "EUes": "・ ¿Cómo puedo publicar mi dibujo en internet?\n    Para publicar tu dibujo en las redes sociales, selecciona «{{icon id=\"5\" arg=\"0x52B85E3F03000000\"}} Publicar»\n    en la pantalla de dibujar mientras la consola está conectada a internet.",
      "EUfr": "・ Comment partager mon dessin ?\n    Pour partager ton dessin avec d'autres joueurs sur la place ou sur\n    le square, assure-toi que la console est connectée à Internet et\n    sélectionne Publier {{icon id=\"5\" arg=\"0x52B85E3F03000000\"}} depuis l'écran de dessin.",
      "EUit": "・ Come faccio a condividere le mie immagini?\n    Se vuoi condividere le tue immagini con altri giocatori in piazza,\n    seleziona \"{{icon id=\"5\" arg=\"0x52B85E3F03000000\"}} Pubblica\" nello schermo di creazione dell'immagine\n    mentre il collegamento a Internet è attivo.",
      "EUnl": "・ Hoe kan ik mijn afbeelding delen?\n    Om je afbeelding met andere spelers op het plein te delen moet je met\n    het internet verbonden zijn en {{icon id=\"5\" arg=\"0x52B85E3F03000000\"}}POSTEN kiezen in het tekenscherm.",
      "EUru": "・ Как поделиться моим посланием?\n    Ты можешь поделиться посланием с другими игроками на площади,\n    выбрав {{icon id=\"5\" arg=\"0x52B85E3F03000000\"}} на экране послания.\n    Для этого требуется подключение к Интернету.",
      "JPja": "・ イラストをインターネット上に投稿する方法がわかりません。\n    インターネットに接続して、イラストを書く画面で「{{icon id=\"5\" arg=\"0x52B85E3F03000000\"}}投稿する」を押すと、\n    イラストを投稿することができます。",
      "KRko": "・ 일러스트를 인터넷상에 투고하는 방법을 모르겠어요.\n    인터넷에 접속하고 일러스트를 그리는 화면에서 「{{icon id=\"5\" arg=\"0x52B85E3F03000000\"}}투고하기」를 누르면\n    일러스트를 투고할 수 있습니다.",
      "TWzh": "‧我不知道該如何透過網路發表插畫。\n　連接網路後，在繪製插畫的畫面中按下「{{icon id=\"5\" arg=\"0x52B85E3F03000000\"}}發表」，\n　即可發表插畫。",
      "USen": "・ How do I share my image?\n    You can share your image with other players in the plaza or square by\n    selecting {{icon id=\"5\" arg=\"0x52B85E3F03000000\"}}Post on the drawing screen while connected to the internet.",
      "USes": "・ ¿Cómo publico mi imagen?\n    Para compartir tu creación con otros jugadores en la plaza, elige\n    \"{{icon id=\"5\" arg=\"0x52B85E3F03000000\"}} Publicar\" en la pantalla de dibujo. Asegúrate de que tu consola\n    está conectada a internet.",
      "USfr": "・ Comment partager mon dessin?\n    Pour partager ton dessin avec d'autres joueurs sur la place ou sur\n    le carré, assure-toi que la console est connectée à Internet et\n    sélectionne Publier {{icon id=\"5\" arg=\"0x52B85E3F03000000\"}} depuis l'écran de dessin."
    }
  },
  {
    "label": "Miiverse_FAQManual01",
    "locale": {
      "CNzh": "·我该如何进行祭典发布？\n　在祭典主题公布后，只要在广场的投票所完成投票，\n　即可进行祭典发布。\n　在您尚未决定参加任一队伍之前，将无法进行祭典发布。",
      "EUde": "・ Wie kann ich Splatfest-Beiträge posten?\n    Sobald ein Splatfest-Thema angekündigt wurde und du dich am Wahlstand\n    auf dem Platz für ein Team entschieden hast, kannst du Splatfest-Beiträge\n    posten!\n    Du kannst erst Splatfest-Beiträge posten, wenn du dich für ein Team\n    entschieden hast.",
      "EUen": "・ How can I make Splatfest posts?\n    Once a Splatfest theme is announced, you can make posts after you visit\n    the Splatfest Pledge Box and pick a team. You won't be able to make\n    Splatfest posts if you haven't chosen a team to support.",
      "EUes": "・ ¿Como puedo publicar en un festival?\n    Si se ha anunciado un festival, podrás enviar publicaciones festivas\n    una vez que te hayas unido a un equipo en el terminal de voto.\n    ¡Si no perteneces a ningún equipo, no puedes publicar en el festival!",
      "EUfr": "・ Comment publier au sujet d'un festival ?\n    Une fois le thème d'un festival annoncé, tu peux publier du contenu dès\n    que tu as choisi ton camp à l'urne festive !\n    Si tu ne choisis pas de camp, tu ne peux pas participer aux publications\n    du festival.",
      "EUit": "・ Come faccio a pubblicare i post dei festival?\n    Quando viene annunciato un festival, potrai pubblicare post dei festival\n    una volta che avrai scelto una squadra al terminal di voto in piazza.\n    Non potrai pubblicare post dei festival se non scegli una squadra.",
      "EUnl": "・ Hoe kan ik Splatfest-posts maken?\n    Zodra het thema van een Splatfest is aangekondigd en je een team hebt\n    gekozen bij de Splatfest-stembus, kun je Splatfest-posts\n    maken.\n    Je kunt geen Splatfest-posts maken als je geen team hebt gekozen.",
      "EUru": "・ Как создавать Сплатфест-послания?\n    После того как будет объявлена тема Сплатфеста, воспользуйся\n    терминалом для голосования и отдай свой голос стороне,\n    которую хочешь поддержать. Тогда ты сможешь отправлять\n    Сплатфест-послания. Нужно обязательно выбрать одну из сторон,\n    иначе отправить Сплатфест-послание будет невозможно.",
      "JPja": "・ フェス投稿は、どうすればできますか？\n    フェスのお題が発表されたあと、広場の投票所で投票をすると、\n    フェス投稿ができるようになります。\n    どちらのチームに所属するかを決めないと、フェス投稿はできません。",
      "KRko": "・ 페스티벌 투고는 어떻게 할 수 있나요?\n    페스티벌 주제가 발표된 후 광장의 투표소에서 투표하면\n    페스티벌 투고를 할 수 있게 됩니다.\n    어느 쪽 팀에 소속할지 정하지 않으면 페스티벌 투고를 할 수 없습니다.",
      "TWzh": "‧該如何進行祭典發表？\n　在祭典主題公布之後，只要到廣場的投票所完成投票，\n　即可進行祭典發表。\n　在您尚未加入任一隊伍之前，將無法進行祭典發表。",
      "USen": "・ How can I make Splatfest posts?\n    Once a Splatfest theme is announced, you can make posts after you visit\n    the Splatfest Pledge Box and pick a team. You won't be able to make\n    Splatfest posts if you haven't chosen a team to support.",
      "USes": "・ ¿Cómo publico un mensaje festivo?\n    En cuanto se anuncie el tema del festival, acude al kiosco del festival\n    y elige un equipo para poder publicar algo. No podrás publicar mensajes\n    festivos si no has elegido un equipo.",
      "USfr": "・ Comment publier au sujet d'un festival?\n    Dès que le thème du festival est annoncé, choisis ton équipe à la borne\n    festive pour publier du contenu!\n    Si tu ne choisis pas d'équipe, tu ne peux pas participer aux publications\n    du festival."
    }
  },
  {
    "label": "Miiverse_FAQManual02",
    "locale": {
      "CNzh": "·我发现了违反规则的插画，我该怎么做？\n　很遗憾有这种情况存在，请您举报该插画。\n\n·我该从哪里进行举报？\n　在广场中选择角色或墙壁上的涂鸦使插画显示后，\n　按“{{icon id=\"6\" arg=\"0x52B85E3F03000000\"}}举报”即可进入举报界面。\n　选择举报原因后就能进行举报。",
      "EUde": "・ Ich habe einen Beitrag gefunden, der gegen die Regeln verstößt.\n  Was kann ich tun?\n    Bitte melde alle unangemessenen Inhalte, die du findest.\n\n・ Wie melde ich einen Beitrag?\n    Wähle auf dem Platz ein Graffiti auf einer Wand oder einen Charakter\n    und rufe mithilfe von {{icon id=\"6\" arg=\"0x52B85E3F03000000\"}} den Meldebildschirm auf.\n    Wähle dann den Grund, aus dem du den Beitrag melden möchtest,\n    und schicke die Meldung ab.",
      "EUen": "・ I've found an image that violates the rules. What should I do?\n    Please report any inappropriate content that you find.\n\n・ How do I report something?\n    While on the street, select some graffiti on a wall or another surface, and\n    use {{icon id=\"6\" arg=\"0x52B85E3F03000000\"}}Report to bring up the reporting screen. Then select the reason\n    for reporting the image and send the report.",
      "EUes": "・ ¿Qué puedo hacer si veo un dibujo que incumple las normas?\n    Te recomendamos que denuncies cualquier contenido inapropiado.\n\n・ ¿Cómo lo denuncio?\n    Selecciona el grafiti en la superficie de la plaza donde se encuentre\n    y usa la opción «{{icon id=\"6\" arg=\"0x52B85E3F03000000\"}} Denunciar» para acceder a la pantalla de denuncia.\n    En ella podrás especificar la razón de la denuncia y enviar el informe.",
      "EUfr": "・ J'ai trouvé un dessin qui ne respecte pas les règles. Que faire ?\n    Merci de signaler tout contenu inapproprié que tu découvres.\n\n・ Comment puis-je signaler un contenu ?\n    Dans la rue, sélectionne un personnage ou un graffiti sur un mur\n    et sélectionne Signaler {{icon id=\"6\" arg=\"0x52B85E3F03000000\"}} pour ouvrir l'écran de signalement.\n    Choisis ensuite la raison de ton signalement, puis envoie-le.",
      "EUit": "・ Ho visto un'immagine che viola le regole. Cosa devo fare?\n    Ti preghiamo di segnalare ogni contenuto inappropriato in cui ti imbatti.\n\n・ Come faccio a segnalare un post?\n    Quando ti trovi in piazza, seleziona un graffito sul muro o un personaggio,\n    quindi accedi allo schermo di segnalazione con {{icon id=\"6\" arg=\"0x52B85E3F03000000\"}}. Seleziona il tipo di\n    violazione e invia la tua segnalazione.",
      "EUnl": "・ Ik heb een afbeelding gevonden die de regels overtreedt. Wat moet ik doen?\n    Je kunt melding maken van ongepaste content die je tegenkomt.\n\n・ Hoe maak ik een melding?\n    Selecteer graffiti van een personage of een muur en gebruik {{icon id=\"6\" arg=\"0x52B85E3F03000000\"}} om naar\n    het scherm te gaan waar je meldingen maakt.\n    Selecteer dan de reden waarom je melding maakt van een afbeelding en\n    verstuur vervolgens de melding.",
      "EUru": "・ Что делать, если встречается послание, которое нарушает правила?\n    Отправляй жалобы на любой неприемлемый контент, который ты обнаружишь.\n\n・ Как отправлять жалобы?\n    Находясь на площади, выбери контент, который ты считаешь\n    неприемлемым, и выбери {{icon id=\"6\" arg=\"0x52B85E3F03000000\"}} Жалоба. Затем выбери причину, по которой\n    ты считаешь данный контент неприемлемым, и отправь жалобу.",
      "JPja": "・ ルールを守っていないイラストを見つけました。どうすればいいですか？\n    残念ですが、通報してください。\n\n・ 通報はどこからできますか？\n    広場でキャラクターやカベの落書きを選んでイラストを表示し、\n    「{{icon id=\"6\" arg=\"0x52B85E3F03000000\"}}通報」を押すと、通報画面が表示されます。\n    通報理由を選ぶと、通報できます。",
      "KRko": "・ 룰을 지키지 않은 일러스트를 발견했어요. 어떻게 하면 되나요?\n    애석하지만 신고해 주십시오.\n\n・ 신고는 어디서 할 수 있나요?\n    광장에서 캐릭터나 벽의 낙서를 선택하여 일러스트를 표시하고\n    「{{icon id=\"6\" arg=\"0x52B85E3F03000000\"}}신고」를 누르면 신고 화면이 표시됩니다.\n    신고 이유를 선택하면 신고할 수 있습니다.",
      "TWzh": "‧我發現了違反規則的插畫，我該怎麼做？\n　很遺憾有這樣的情況存在，請您檢舉該插畫。\n\n‧我該從哪裡進行檢舉？\n　在廣場中選擇角色或是牆上的塗鴉使插畫顯示後，\n　按下「{{icon id=\"6\" arg=\"0x52B85E3F03000000\"}}檢舉」即可進入檢舉畫面。\n　選擇檢舉原因後即可進行檢舉。",
      "USen": "・ I've found an image that violates the rules. What should I do?\n    Please report any inappropriate content that you find.\n\n・ How do I report something?\n    While on the street, select some graffiti on a wall or another surface, and\n    use {{icon id=\"6\" arg=\"0x52B85E3F03000000\"}}Report to bring up the reporting screen. Then select the reason\n    for reporting the image and send the report.",
      "USes": "・ Vi un dibujo que infringe las normas. ¿Qué hago?\n    Reporta todo el contenido inapropiado que veas.\n\n・ ¿Cómo lo reporto?\n    Selecciona alguno de los grafitis que veas en las paredes\n    o en otras superficies y luego usa \"{{icon id=\"6\" arg=\"0x52B85E3F03000000\"}} Reportar\" para\n    reportarlos. Elige el motivo por el que quieres informar\n    sobre el dibujo y luego envía el reporte.",
      "USfr": "・ J'ai trouvé un dessin qui ne respecte pas les règles. Que faire?\n    Merci de signaler tout contenu inapproprié que tu découvres.\n\n・ Comment puis-je signaler un contenu?\n    Dans la rue, sélectionne un personnage ou un graffiti sur un mur\n    et sélectionne Signaler {{icon id=\"6\" arg=\"0x52B85E3F03000000\"}} pour ouvrir l'écran de signalement.\n    Choisis ensuite la raison de ton signalement, puis envoie-le."
    }
  },
  {
    "label": "Miiverse_FAQManual03",
    "locale": {
      "CNzh": "·是否有方法可以让广场不再显示插画？\n　没有方法让插画不再显示，\n　不过您可以选择只显示由任天堂准备的插画。\n　请通过菜单中的选项将“显示发布内容”设置为“关闭显示”。",
      "EUde": "・ Kann ich verhindern, dass Beiträge auf dem Platz angezeigt werden?\n    Beiträge lassen sich zwar nicht komplett abstellen, aber du kannst\n    festlegen, dass nur von Nintendo gepostete Beiträge angezeigt werden.\n    Stelle dazu in den Optionen im Menü die Einstellung „Nutzerbeiträge“\n    auf „Aus“.",
      "EUen": "・ Can I prevent images from being displayed?\n    While there's no way to prevent images from displaying altogether, you can\n    opt for only preset images created by Nintendo to be displayed. From the\n    Options tab in the menu, change Post Display to OFF.",
      "EUes": "・ ¿Puedo evitar que se muestren los dibujos en la plaza?\n    No es posible impedir por completo que se muestren, pero puedes elegir\n    que solo aparezcan aquellos creados por Nintendo. Para ello, accede\n    a «Opciones» en el menú y, en el apartado «Ver publicaciones»,\n    selecciona «No».",
      "EUfr": "・ Est-ce que je peux empêcher l'affichage de dessins dans la rue ?\n    Il n'est pas possible de désactiver complètement l'affichage des dessins,\n    mais tu peux choisir de ne voir que les dessins réalisés par Nintendo.\n    Depuis l'onglet Options du menu, règle l'affichage des publications\n    sur Sans.",
      "EUit": "・ Posso impedire che le immagini vengano pubblicate in piazza?\n    Non è possibile disattivare la visualizzazione delle immagini, ma puoi\n    fare in modo che vengano visualizzate solo immagini create da Nintendo.\n    Accedi al menu, vai in Opzioni e seleziona \"No\" per l'opzione \"Visualizza\n    post\".",
      "EUnl": "・ Kan ik ervoor zorgen dat er geen afbeeldingen worden getoond?\n    Hoewel het niet mogelijk is om helemaal geen afbeeldingen weer te geven,\n    kun je ervoor kiezen om alleen standaardafbeeldingen van Nintendo te\n    tonen.\n    Kies OPTIES in het menu en zet 'Posts tonen' op UIT.",
      "EUru": "・ Можно ли отключить показ посланий на площади?\n    Отключить показ всех посланий невозможно. Но можно ограничить\n    показ отображением только стандартных изображений, созданных\n    непосредственно компанией Nintendo. Открой в Меню вкладку\n    «Настройки» и выбери ВЫКЛ. для отображения посланий.",
      "JPja": "・ 広場でイラストを表示しない方法はありますか？\n    表示しない方法はありませんが、\n    任天堂があらかじめ用意したイラストのみを表示することはできます。\n    メニューのオプションで「投稿の表示」を「表示ＯＦＦ」にしてください。",
      "KRko": "・ 광장에서 일러스트를 표시하지 않는 방법이 있나요?\n    표시하지 않는 방법은 없지만\n    닌텐도에서 미리 준비한 일러스트만 표시하는 것은 가능합니다.\n    메뉴의 옵션에서 「투고 표시」를 「표시 OFF」로 설정해 주십시오.",
      "TWzh": "‧是否有方法可以讓廣場不再顯示插畫？\n　沒有方法能不再顯示插畫，\n　不過您可以選擇只顯示由任天堂所準備的插畫。\n　請透過選單中的選項將「顯示發表內容」設定為「顯示OFF」。",
      "USen": "・ Can I prevent images from being displayed?\n    While there's no way to prevent images from displaying altogether, you can\n    opt for only preset images created by Nintendo to be displayed. From the\n    Options tab in the menu, change Post Display to OFF.",
      "USes": "・ ¿Puedo hacer que no aparezcan imágenes?\n    No existe ningún modo de impedir que los dibujos aparezcan,\n    aunque puedes elegir que se muestren solo los diseños que ha\n    creado Nintendo. Abre el menú, selecciona \"Ajustes\" y desactiva\n    la opción \"Ver publicaciones\".",
      "USfr": "・ Est-ce que je peux empêcher l'affichage de dessins dans la rue?\n    Il n'est pas possible de désactiver complètement l'affichage des dessins,\n    mais tu peux choisir de ne voir que les dessins réalisés par Nintendo.\n    Depuis l'onglet Options du menu, règle l'affichage des publications\n    sur Sans."
    }
  },
  {
    "label": "Miiverse_FAQTitle",
    "locale": {
      "CNzh": "FAQ",
      "EUde": "Häufige Fragen",
      "EUen": "FAQ",
      "EUes": "Dudas frecuentes",
      "EUfr": "FAQ",
      "EUit": "Domande frequenti",
      "EUnl": "Hulp",
      "EUru": "Вопросы и ответы",
      "JPja": "FAQ",
      "KRko": "FAQ",
      "TWzh": "FAQ",
      "USen": "FAQ",
      "USes": "Dudas",
      "USfr": "FAQ"
    }
  },
  {
    "label": "Miiverse_RuleButton",
    "locale": {
      "CNzh": "规则",
      "EUde": "Regeln",
      "EUen": "Rules",
      "EUes": "Normas",
      "EUfr": "Règles",
      "EUit": "Regole",
      "EUnl": "Richtlijnen",
      "EUru": "Правила",
      "JPja": "ルール",
      "KRko": "룰",
      "TWzh": "規則",
      "USen": "Rules",
      "USes": "Normas",
      "USfr": "Règles"
    }
  },
  {
    "label": "Miiverse_RuleManual00",
    "locale": {
      "CNzh": "使用时请遵守以下规则。\n未遵守规则的插画可能将{{color id=\"1\"}}无法供其他用户观赏{{color id=\"65535\"}}。",
      "EUde": "Bitte beachte die folgenden Regeln.\nBeiträge, die gegen diese Regeln verstoßen,\n{{color id=\"1\"}}werden möglicherweise vor anderen Nutzern verborgen{{color id=\"65535\"}}.",
      "EUen": "Please keep the following rules in mind.\nPosts that break these rules may {{color id=\"1\"}}not be displayed to other users{{color id=\"65535\"}}.",
      "EUes": "Debes tener siempre presentes las siguientes normas.\nLas publicaciones que no las cumplan {{color id=\"1\"}}no se mostrarán\na otros usuarios{{color id=\"65535\"}}.",
      "EUfr": "Garde bien à l'esprit les règles suivantes.\nLes publications qui ne les respectent pas risquent d'être\nrendues {{color id=\"1\"}}invisibles aux autres utilisateurs{{color id=\"65535\"}}.",
      "EUit": "Tieni sempre a mente le regole contenute in questo manuale.\nI post che infrangono le regole potrebbero {{color id=\"1\"}}non essere visibili\nagli altri utenti{{color id=\"65535\"}}.",
      "EUnl": "Denk aan de volgende regels bij het maken van posts. Posts die deze regels\novertreden, worden wellicht {{color id=\"1\"}}niet aan andere gebruikers getoond{{color id=\"65535\"}}.",
      "EUru": "Пожалуйста, придерживайся указанных ниже правил.\nПослания, которые их нарушают, {{color id=\"1\"}}могут быть скрыты\nот других пользователей{{color id=\"65535\"}}.",
      "JPja": "次のルールを守って使ってください。\nルールを守っていないイラストは、{{color id=\"1\"}}他のユーザーから見えなくなる{{color id=\"65535\"}}ことがあります。",
      "KRko": "다음 룰을 지켜 사용해 주십시오.\n룰을 지키지 않은 일러스트는 {{color id=\"1\"}}다른 유저에게 표시되지 않게 될 수{{color id=\"65535\"}} 있습니다.",
      "TWzh": "使用時請遵守以下規則。\n未遵守規則的插畫有可能會{{color id=\"1\"}}無法供其他用戶觀賞{{color id=\"65535\"}}。",
      "USen": "Please keep the following rules in mind.\nPosts that break these rules may {{color id=\"1\"}}not be displayed to other users{{color id=\"65535\"}}.",
      "USes": "Ten en cuenta las siguientes normas. Las publicaciones que infrinjan estas\nnormas {{color id=\"1\"}}podrían ocultarse a otros usuarios{{color id=\"65535\"}}.",
      "USfr": "Garde bien à l'esprit les règles suivantes.\nLes publications qui ne les respectent pas risquent\nd'être rendues {{color id=\"1\"}}invisibles aux autres utilisateurs{{color id=\"65535\"}}."
    }
  },
  {
    "label": "Miiverse_RuleManual01",
    "locale": {
      "CNzh": "·请勿包含自己或他人的个人信息\n　请勿包含自己或他人的“住址”、“电话号码”、“电子邮箱”等联络方式\n　或是能使人辨识出以上相关信息的内容。\n\n·请勿包含令人不悦的内容\n　您发布的插画将可能向其他用户公开。\n　请勿包含令人不悦的词句或插画内容。",
      "EUde": "・ Persönliche Informationen\n    Poste keine Informationen, mit denen du oder Dritte persönlich identifiziert\n    werden können, wie etwa Namen, E-Mail-Adresse, Adresse oder\n    Telefonnummer.\n\n・ Inhalte, die anderen Unbehagen verursachen\n    Gepostete Beiträge können für andere Nutzer sichtbar sein.\n    Verwende in deinen Beiträgen keine Worte oder Bilder, die anderen Nutzern\n    Unbehagen bereiten könnten.",
      "EUen": "・ Personal information\n    Do not include any information that can be used to identify you or someone\n    else personally, such as your name (or someone else's name), email\n    address, home address, or telephone number.\n\n・ Content that might make others uncomfortable\n    Posted drawings may be visible to other users. Do not include words or\n    images in your posts that may upset other users.",
      "EUes": "・ Datos personales\n    No publiques ninguna información que permita identificaros a ti\n    o a otras personas (por ejemplo, tu nombre o el de otra persona,\n    direcciones de correo electrónico, domicilios o número de teléfono).\n\n・ El contenido no debe ser ofensivo para nadie\n    Otros usuarios podrán ver los dibujos que publiques, así que estos\n    no deben incluir texto o imágenes que puedan ofenderlos.",
      "EUfr": "・ Vie privée\n    N'inclus aucune information qui pourrait permettre de t'identifier ou\n    d'identifier un tiers, telle qu'un nom, une adresse, une adresse e-mail\n    ou un numéro de téléphone.\n\n・ Contenu pouvant gêner les autres utilisateurs\n    Les dessins que tu publies peuvent être vus par d'autres utilisateurs.\n    N'inclus pas de mots ou d'images qui pourraient perturber les autres.",
      "EUit": "・ Informazioni personali\n    Non includere informazioni che potrebbero essere utilizzate per\n    identificare personalmente te o terze parti, quali il tuo nome o il\n    nome di terze parti, indirizzi e-mail, indirizzi o numeri di telefono.\n\n・ Contenuti che potrebbero mettere a disagio altri utenti\n    I disegni pubblicati potrebbero essere visualizzati da altri utenti.\n    Non includere parole o immagini che potrebbero turbare altri utenti.",
      "EUnl": "・ Persoonlijke informatie\n    Voeg geen informatie toe waardoor jij of anderen kunnen worden\n    geïdentificeerd, zoals je naam (of die van een ander), e-mailadres,\n    huisadres of telefoonnummer.\n・ Content waardoor anderen zich ongemakkelijk kunnen voelen\n    Geposte afbeeldingen kunnen zichtbaar zijn voor andere gebruikers.\n    Gebruik in je posts geen woorden of tekeningen die storend kunnen zijn\n    voor andere gebruikers.",
      "EUru": "・ Личная информация\n    Послания не должны содержать информацию, с помощью\n    которой можно идентифицировать как тебя, так и третьих лиц.\n    Например: имя, адрес электронной почты, обычный адрес или\n    номер телефона.\n\n・ Послания не должны содержать контент, который может оскорбить\n    чувства третьих лиц.\n    Послания могут увидеть другие игроки. Не используй в них слова\n    или изображения, которые могут оскорбить их.",
      "JPja": "・ 自分や他人の個人情報を書かない\n    自分や他人の「住所」「電話番号」「メールアドレス」などの連絡先や、\n    それらを特定できる情報を書かないでください。\n\n・ 人がいやがることを書かない\n    イラストは、他のユーザーに公開されることがあります。\n    他の人が不快な気持ちになるような言葉や、イラストを書かないでください。",
      "KRko": "・ 자신 및 타인의 개인 정보를 적지 않는다\n    자신 및 타인의 「주소」, 「전화번호」, 「메일 주소」 등의 연락처와\n    그것들을 특정할 수 있는 정보를 적지 말아 주십시오.\n\n・ 다른 사람에게 불쾌감을 주는 내용을 적지 않는다\n    일러스트는 다른 유저에게 공개되기도 합니다.\n    다른 사람을 불쾌하게 하는 말이나 일러스트를 적지 말아 주십시오.",
      "TWzh": "‧請勿包含自己或他人的個人資料\n　請勿包含自己或他人的「地址」、「電話號碼」、「電子信箱」等聯絡方式，\n　或是能使人辨識出以上相關資訊的內容。\n\n‧請勿包含令人不悅的內容\n　您發表的插畫可能會向其他用戶公開。\n　請勿包含會令人不悅的詞句或是插畫內容。",
      "USen": "・ Personal information\n    Do not include any information that can be used to identify you or someone\n    else personally, such as your name (or someone else's name), email\n    address, home address, or telephone number.\n\n・ Content that might make others uncomfortable\n    Posted drawings may be visible to other users. Do not include words or\n    images in your posts that may upset other users.",
      "USes": "・ Información personal\n    No incluyas información que pueda utilizarse para identificarte a ti o\n    a terceros, como nombres, direcciones de correo electrónico, direcciones\n    postales o números de teléfono.\n\n・ Contenido que pueda resultar ofensivo\n    Puede que otros usuarios vean los dibujos que publiques. No incluyas\n    texto o imágenes que puedan resultar ofensivos.",
      "USfr": "・ Vie privée\n    N'inclus aucune information qui pourrait permettre de t'identifier ou\n    d'identifier un tiers, comme un nom, une adresse, une adresse courriel\n    ou un numéro de téléphone.\n\n・ Contenu pouvant gêner les autres utilisateurs\n    Les dessins que tu publies peuvent être vus par d'autres utilisateurs.\n    N'inclus pas de mots ou d'images qui pourraient perturber les autres."
    }
  },
  {
    "label": "Miiverse_RuleManual02",
    "locale": {
      "CNzh": "·请勿包含不当内容\n　请勿包含以盈利宣传为目的、暴力、违反公序良俗等相关内容。\n\n·请勿不当举报\n　请勿刻意举报内容未违规的插画。",
      "EUde": "・ Unangemessene Inhalte\n    Poste keine Beiträge mit kommerziellen oder Marketing-Inhalten oder\n    gewaltverherrlichenden oder anstößigen Inhalten.\n\n・ Falsche Meldungen\n    Melde nicht absichtlich Inhalte, die nicht gegen die Regeln verstoßen.",
      "EUen": "・ Inappropriate content\n    Please do not post any commercial or marketing content, content that\n    depicts violence, or content that violates public morality.\n\n・ Misreporting\n    Do not deliberately report content that does not violate the rules.",
      "EUes": "・ Contenido inapropiado\n    No publiques ningún contenido comercial o publicitario. Tampoco se admiten\n    contenidos violentos o contrarios a la moral pública.\n\n・ Denuncias falsas\n    No debes denunciar a sabiendas contenido que no incumpla las normas.",
      "EUfr": "・ Contenu inapproprié\n    Ne publie pas de contenu à caractère publicitaire, commercial,\n    violent ou immoral.\n\n・ Signalement abusif\n    Ne signale pas délibérément de contenu qui n'enfreint pas\n    les règles établies.",
      "EUit": "・ Contenuti inappropriati\n    Non pubblicare alcun contenuto commerciale o promozionale, contenuti\n    con rappresentazione di violenza o che violino la pubblica morale.\n\n・ Segnalazioni infondate\n    Non segnalare deliberatamente i contenuti che non violano le regole.",
      "EUnl": "・ Ongepaste content\n    Gebruik geen commerciële content of reclame, afbeeldingen van geweld of\n    content die ingaat tegen algemene normen.\n・ Valse meldingen\n    Maak geen opzettelijke meldingen van content die de regels niet overtreedt.",
      "EUru": "・ Неприемлемый контент\n    Послания не могут содержать коммерческую или маркетинговую\n    информацию, а также контент с изображением сцен насилия или\n    контент, который оскорбляет чувства третьих лиц.\n\n・ Необоснованные жалобы\n    Избегай преднамеренных необоснованных жалоб на контент,\n    который не нарушает правил.",
      "JPja": "・ 不適切な内容を書かない\n    営利宣伝目的、暴力的、公序良俗に反する内容などは書かないでください。\n\n・ 不適切な通報をしない\n    通報する必要がないイラストに対して、わざと通報しないでください。",
      "KRko": "・ 부적절한 내용을 적지 않는다\n    상업적 광고 목적, 폭력적, 공서 양속에 반하는 내용 등을 적지 말아 주십시오.\n\n・ 부적절한 신고를 하지 않는다\n    신고할 필요가 없는 일러스트를 고의로 신고하지 말아 주십시오.",
      "TWzh": "‧請勿包含不當內容\n　請勿包含營利廣告、暴力、違反公序良俗等相關內容。\n\n‧請勿不當檢舉\n　請勿刻意檢舉內容並未違規的插畫。",
      "USen": "・ Inappropriate content\n    Please do not post any commercial or marketing content, content that\n    depicts violence, or content that violates public morality.\n\n・ Misreporting\n    Do not deliberately report content that does not violate the rules.",
      "USes": "・ Contenido inapropiado\n    No publiques contenido comercial o publicitario, ni tampoco contenido\n    violento o que atente contra la moral pública.\n・ Reportes falsos\n    No reportes intencionadamente contenido que no infrinja las normas.",
      "USfr": "・ Contenu inapproprié\n    Ne publie pas de contenu à caractère publicitaire, commercial,\n    violent ou immoral.\n\n・ Faux signalement\n    Ne signale pas délibérément de contenu qui n'enfreint pas\n    les règles établies."
    }
  },
  {
    "label": "Miiverse_RuleManual03",
    "locale": {
      "CNzh": "·请勿侵害他人的著作权\n　请注意不要侵害他人的著作权。",
      "EUde": "・ Urheberrechtsverletzungen\n    Achte darauf, keine Inhalte zu posten, die geistiges Eigentum oder\n    die Privatsphäre Dritter verletzen.",
      "EUen": "・ Copyright infringement\n    Be careful not to post content that infringes upon the intellectual property\n    rights of others.",
      "EUes": "・ Violación de derechos de autor\n    Pon especial cuidado en que tus publicaciones no incumplan los derechos\n    de propiedad intelectual de otras personas.",
      "EUfr": "・ Violation des droits d'auteur\n    Veille à ne pas publier de contenu qui enfreigne les droits\n    de propriété intellectuelle d'autrui.",
      "EUit": "・ Violazione di copyright\n    Assicurati di non pubblicare contenuti che violino la proprietà\n    intellettuale di altri.",
      "EUnl": "・ Inbreuk op auteursrecht\n    Let erop dat je posts geen inbreuk maken op de intellectuele-\n    eigendomsrechten van anderen.",
      "EUru": "・ Нарушение авторских прав\n    Не публикуй контент, который нарушает права третьих лиц на\n    интеллектуальную собственность.",
      "JPja": "・ 他人の著作権を侵害しない\n    他の人の著作権を侵害しないように注意してください。",
      "KRko": "・ 타인의 저작권을 침해하지 않는다\n    다른 사람의 저작권을 침해하지 않도록 주의해 주십시오.",
      "TWzh": "‧請勿侵害他人的著作權\n　請小心避免侵害他人的著作權。",
      "USen": "・ Copyright infringement\n    Be careful not to post content that infringes upon the intellectual property\n    rights of others.",
      "USes": "・ Infracción de derechos de autor\n    No publiques contenido que infrinja los derechos de propiedad intelectual\n    de terceros.",
      "USfr": "・ Violation des droits d'auteur\n    Veille à ne pas publier de contenu qui enfreigne les droits\n    de propriété intellectuelle d'autrui."
    }
  },
  {
    "label": "Miiverse_RuleTitle",
    "locale": {
      "CNzh": "规则",
      "EUde": "Regeln",
      "EUen": "Rules",
      "EUes": "Normas",
      "EUfr": "Règles",
      "EUit": "Regole",
      "EUnl": "Richtlijnen",
      "EUru": "Правила",
      "JPja": "ルール",
      "KRko": "룰",
      "TWzh": "規則",
      "USen": "Rules",
      "USes": "Normas",
      "USfr": "Règles"
    }
  },
  {
    "label": "Miiverse_UseButton",
    "locale": {
      "CNzh": "使用方法",
      "EUde": "So geht’s!",
      "EUen": "How to post!",
      "EUes": "Cómo publicar",
      "EUfr": "Publications",
      "EUit": "Pubblicare",
      "EUnl": "Zo moet het!",
      "EUru": "Публикация",
      "JPja": "使い方",
      "KRko": "사용법",
      "TWzh": "使用方法",
      "USen": "How to post!",
      "USes": "Cómo dibujar",
      "USfr": "Publications"
    }
  },
  {
    "label": "Miiverse_UseManual00",
    "locale": {
      "CNzh": "{{icon id=\"0\" arg=\"0x52B85E3F03000000\"}}笔\n用笔描绘线条，笔共有3种粗细。\n\n{{icon id=\"1\" arg=\"0x52B85E3F03000000\"}}橡皮擦\n使用橡皮擦清除绘画内容，\n橡皮擦共有3种大小。\n\n{{icon id=\"9\" arg=\"0x52B85E3F03000000\"}}{{icon id=\"10\" arg=\"0x52B85E3F03000000\"}}切换大小\n切换笔的粗细与橡皮擦的大小。",
      "EUde": "{{icon id=\"0\" arg=\"0x52B85E3F03000000\"}} Stift\nSchreibe oder zeichne mit dem Stift.\nDu kannst zwischen drei Strichstärken wählen.\n\n{{icon id=\"1\" arg=\"0x52B85E3F03000000\"}} Radiergummi\nMit dem Radiergummi kannst du Zeichnungen\noder Text löschen. Du kannst zwischen drei\nGrößen wählen.\n\n{{icon id=\"9\" arg=\"0x52B85E3F03000000\"}}{{icon id=\"10\" arg=\"0x52B85E3F03000000\"}} Größe ändern\nHier wählst du die Strichstärke bzw. Größe\nvon Stift und Radiergummi.",
      "EUen": "{{icon id=\"0\" arg=\"0x52B85E3F03000000\"}}Pen\nYou can write or draw with the pen. The pen\ncomes in three different thicknesses.\n\n{{icon id=\"1\" arg=\"0x52B85E3F03000000\"}}Eraser\nYou can erase things you've written or drawn\nwith the eraser. The eraser comes in three\ndifferent sizes.\n\n{{icon id=\"9\" arg=\"0x52B85E3F03000000\"}}{{icon id=\"10\" arg=\"0x52B85E3F03000000\"}}Change Size\nThis allows you to change the size of the\npen and eraser.",
      "EUes": "{{icon id=\"0\" arg=\"0x52B85E3F03000000\"}} Lápiz\nUsa el lápiz para escribir o dibujar.\nHay disponibles tres grosores distintos.\n\n{{icon id=\"1\" arg=\"0x52B85E3F03000000\"}} Goma\nSirve para borrar partes de lo que hayas\nescrito o dibujado. También cuenta con tres\ntamaños diferentes.\n\n{{icon id=\"9\" arg=\"0x52B85E3F03000000\"}}{{icon id=\"10\" arg=\"0x52B85E3F03000000\"}} Cambiar de tamaño\nPermite hacer el lápiz o la goma más grandes\no más pequeños.",
      "EUfr": "{{icon id=\"0\" arg=\"0x52B85E3F03000000\"}} Crayon\nUtilise le crayon pour écrire ou dessiner.\nTu peux faire ton choix parmi trois épaisseurs\nde mine.\n\n{{icon id=\"1\" arg=\"0x52B85E3F03000000\"}} Gomme\nUtilise la gomme pour effacer.\nElle est disponible en trois largeurs.\n\n{{icon id=\"9\" arg=\"0x52B85E3F03000000\"}}{{icon id=\"10\" arg=\"0x52B85E3F03000000\"}} Agrandir/Réduire\nAjuste l'épaisseur de la mine ou\nla largeur de la gomme.",
      "EUit": "{{icon id=\"0\" arg=\"0x52B85E3F03000000\"}} Penna\nScrivi o disegna con la penna.\nLa penna ha un tratto di tre spessori diversi.\n\n{{icon id=\"1\" arg=\"0x52B85E3F03000000\"}} Gomma\nPer cancellare usa la gomma.\nLa gomma è di tre dimensioni diverse.\n\n{{icon id=\"9\" arg=\"0x52B85E3F03000000\"}}{{icon id=\"10\" arg=\"0x52B85E3F03000000\"}} Cambia dimensioni\nCambia le dimensioni della penna e della gomma.",
      "EUnl": "{{icon id=\"0\" arg=\"0x52B85E3F03000000\"}}Pen\nJe kunt schrijven of tekenen met de pen.\nDe pen heeft drie verschillende diktes.\n\n{{icon id=\"1\" arg=\"0x52B85E3F03000000\"}}Gum\nJe kunt wat je hebt geschreven of getekend,\nwissen met de gum.\nDe gum heeft drie verschillende diktes.\n\n{{icon id=\"9\" arg=\"0x52B85E3F03000000\"}}{{icon id=\"10\" arg=\"0x52B85E3F03000000\"}}Dikte veranderen\nPas de dikte van de pen en de gum aan.",
      "EUru": "{{icon id=\"0\" arg=\"0x52B85E3F03000000\"}} Карандаш\nНарисуй или напиши что-нибудь\nкарандашом. В твоем распоряжении\nтри карандаша разной толщины.\n\n{{icon id=\"1\" arg=\"0x52B85E3F03000000\"}} Ластик\nЕсли хочешь что-то стереть, воспользуйся\nластиком. В твоем распоряжении три\nластика разного размера.\n\n{{icon id=\"9\" arg=\"0x52B85E3F03000000\"}}{{icon id=\"10\" arg=\"0x52B85E3F03000000\"}} Изменить размер\nЗдесь можно выбрать толщину\nкарандаша и размер ластика.",
      "JPja": "{{icon id=\"0\" arg=\"0x52B85E3F03000000\"}}ペン\nペンで線が書ける。ペンの太さは３種類。\n\n{{icon id=\"1\" arg=\"0x52B85E3F03000000\"}}消しゴム\n書いたものを消しゴムで消せる。\n消しゴムの大きさは３種類。\n\n{{icon id=\"9\" arg=\"0x52B85E3F03000000\"}}{{icon id=\"10\" arg=\"0x52B85E3F03000000\"}}大きさ切り替え\nペンと消しゴムの大きさを切り替える。",
      "KRko": "{{icon id=\"0\" arg=\"0x52B85E3F03000000\"}}펜\n펜으로 선을 그을 수 있다.\n펜의 굵기는 3종류.\n\n{{icon id=\"1\" arg=\"0x52B85E3F03000000\"}}지우개\n그린 것을 지우개로 지울 수 있다.\n지우개의 크기는 3종류.\n\n{{icon id=\"9\" arg=\"0x52B85E3F03000000\"}}{{icon id=\"10\" arg=\"0x52B85E3F03000000\"}}크기 전환\n펜과 지우개의 크기를 전환할 수 있다.",
      "TWzh": "{{icon id=\"0\" arg=\"0x52B85E3F03000000\"}}筆\n使用筆描繪線條，\n筆總共有3種粗細。\n\n{{icon id=\"1\" arg=\"0x52B85E3F03000000\"}}橡皮擦\n使用橡皮擦清除繪圖內容。\n橡皮擦總共有3種大小。\n\n{{icon id=\"9\" arg=\"0x52B85E3F03000000\"}}{{icon id=\"10\" arg=\"0x52B85E3F03000000\"}}切換大小\n切換筆的粗細與橡皮擦的大小。",
      "USen": "{{icon id=\"0\" arg=\"0x52B85E3F03000000\"}}Pen\nYou can write or draw with the pen. The pen\ncomes in three different thicknesses.\n\n{{icon id=\"1\" arg=\"0x52B85E3F03000000\"}}Eraser\nYou can erase things you've written or drawn\nwith the eraser. The eraser comes in three\ndifferent sizes.\n\n{{icon id=\"9\" arg=\"0x52B85E3F03000000\"}}{{icon id=\"10\" arg=\"0x52B85E3F03000000\"}}Change Size\nThis allows you to change the size of the\npen and eraser.",
      "USes": "{{icon id=\"0\" arg=\"0x52B85E3F03000000\"}} Lápiz\nUsa el lápiz para escribir o dibujar.\nPuedes elegir entre tres grosores distintos.\n\n{{icon id=\"1\" arg=\"0x52B85E3F03000000\"}} Goma de borrar\nSirve para borrar partes de lo que hayas\nescrito o dibujado. También cuenta con tres\ntamaños diferentes.\n\n{{icon id=\"9\" arg=\"0x52B85E3F03000000\"}}{{icon id=\"10\" arg=\"0x52B85E3F03000000\"}} Cambiar de tamaño\nPermite hacer el lápiz o la goma de borrar más\ngrandes o más pequeños.",
      "USfr": "{{icon id=\"0\" arg=\"0x52B85E3F03000000\"}} Crayon\nUtilise le crayon pour écrire ou dessiner.\nTu peux faire ton choix parmi trois épaisseurs\nde mine.\n\n{{icon id=\"1\" arg=\"0x52B85E3F03000000\"}} Efface\nUtilise l'efface pour effacer.\nElle est disponible en trois largeurs.\n\n{{icon id=\"9\" arg=\"0x52B85E3F03000000\"}}{{icon id=\"10\" arg=\"0x52B85E3F03000000\"}} Agrandir/Réduire\nAjuste l'épaisseur de la mine ou\nla largeur de l'efface."
    }
  },
  {
    "label": "Miiverse_UseManual01",
    "locale": {
      "CNzh": "{{icon id=\"7\" arg=\"0x1F852B3F00000000\"}}全部清除\n按下后清除所有绘画内容。\n\n{{icon id=\"11\" arg=\"0x52B85E3F03000000\"}}撤销\n撤销上一个操作。\n\n{{icon id=\"12\" arg=\"0x52B85E3F03000000\"}}重做\n还原已撤销的内容。",
      "EUde": "{{icon id=\"7\" arg=\"0x1F852B3F00000000\"}} Alles löschen\nDrücke den Stick, um alles zu löschen.\n\n{{icon id=\"11\" arg=\"0x52B85E3F03000000\"}} Aktion rückgängig\nMache deine letzte Aktion rückgängig.\n\n{{icon id=\"12\" arg=\"0x52B85E3F03000000\"}} Aktion wiederholen\nStelle die zuletzt rückgängig gemachte Aktion\nwieder her.",
      "EUen": "{{icon id=\"7\" arg=\"0x1F852B3F00000000\"}}Erase All\nPush this to erase everything.\n\n{{icon id=\"11\" arg=\"0x52B85E3F03000000\"}}Undo\nUndo your last action.\n\n{{icon id=\"12\" arg=\"0x52B85E3F03000000\"}}Redo\nRedo an action you've undone.",
      "EUes": "{{icon id=\"7\" arg=\"0x1F852B3F00000000\"}} Borrar todo\nPulsa la palanca para eliminar el dibujo\nal completo.\n\n{{icon id=\"11\" arg=\"0x52B85E3F03000000\"}} Deshacer\nRevierte la última operación efectuada.\n\n{{icon id=\"12\" arg=\"0x52B85E3F03000000\"}} Rehacer\nEfectúa de nuevo la operación revertida.",
      "EUfr": "{{icon id=\"7\" arg=\"0x1F852B3F00000000\"}} Tout effacer\nAppuie sur {{icon id=\"7\" arg=\"0x1F852B3F00000000\"}} pour tout effacer.\n\n{{icon id=\"11\" arg=\"0x52B85E3F03000000\"}} Annuler\nAnnule ta dernière action.\n\n{{icon id=\"12\" arg=\"0x52B85E3F03000000\"}} Rétablir\nRétablis une action annulée.",
      "EUit": "{{icon id=\"7\" arg=\"0x1F852B3F00000000\"}} Cancella tutto\nPremi per cancellare tutto.\n\n{{icon id=\"11\" arg=\"0x52B85E3F03000000\"}} Annulla\nAnnulla la tua ultima azione.\n\n{{icon id=\"12\" arg=\"0x52B85E3F03000000\"}} Ripristina\nRipristina la tua ultima azione.",
      "EUnl": "{{icon id=\"7\" arg=\"0x1F852B3F00000000\"}}Alles wissen\nDruk op de stick om alles wat je hebt getekend,\nin één keer te wissen.\n\n{{icon id=\"11\" arg=\"0x52B85E3F03000000\"}}Ongedaan maken\nMaak hiermee de laatste handeling die je deed\nongedaan.\n\n{{icon id=\"12\" arg=\"0x52B85E3F03000000\"}}Opnieuw uitvoeren\nVoer hiermee de handeling die je net ongedaan\nhebt gemaakt, opnieuw uit.",
      "EUru": "{{icon id=\"7\" arg=\"0x1F852B3F00000000\"}} Стереть все\nСтирает все.\n\n{{icon id=\"11\" arg=\"0x52B85E3F03000000\"}} Отменить\nОтмена твоего последнего действия.\n\n{{icon id=\"12\" arg=\"0x52B85E3F03000000\"}} Вернуть действие\nВерни отмененное действие на место.",
      "JPja": "{{icon id=\"7\" arg=\"0x1F852B3F00000000\"}}すべて消す\n押しこみで、書いたものをすべて消す。\n\n{{icon id=\"11\" arg=\"0x52B85E3F03000000\"}}取り消す\nひとつ前の操作を取り消す。\n\n{{icon id=\"12\" arg=\"0x52B85E3F03000000\"}}やり直す\n取り消した操作を元にもどす。",
      "KRko": "{{icon id=\"7\" arg=\"0x1F852B3F00000000\"}}모두 지우기\n눌러서 그린 것을 모두 지운다.\n\n{{icon id=\"11\" arg=\"0x52B85E3F03000000\"}}취소\n한 단계 전의 조작을 취소한다.\n\n{{icon id=\"12\" arg=\"0x52B85E3F03000000\"}}복원\n취소한 조작을 원래대로 되돌린다.",
      "TWzh": "{{icon id=\"7\" arg=\"0x1F852B3F00000000\"}}全部清除\n按下按鍵清除所有的繪圖內容。\n\n{{icon id=\"11\" arg=\"0x52B85E3F03000000\"}}復原\n取消上一個動作。\n\n{{icon id=\"12\" arg=\"0x52B85E3F03000000\"}}重做\n還原已取消的動作。",
      "USen": "{{icon id=\"7\" arg=\"0x1F852B3F00000000\"}}Erase All\nPush this to erase everything.\n\n{{icon id=\"11\" arg=\"0x52B85E3F03000000\"}}Undo\nUndo your last action.\n\n{{icon id=\"12\" arg=\"0x52B85E3F03000000\"}}Redo\nRedo an action you've undone.",
      "USes": "{{icon id=\"7\" arg=\"0x1F852B3F00000000\"}} Borrar todo\nOprime la palanca para eliminar el dibujo\nal completo.\n\n{{icon id=\"11\" arg=\"0x52B85E3F03000000\"}} Deshacer\nRevierte la última operación efectuada.\n\n{{icon id=\"12\" arg=\"0x52B85E3F03000000\"}} Rehacer\nEfectúa de nuevo la operación revertida.",
      "USfr": "{{icon id=\"7\" arg=\"0x1F852B3F00000000\"}} Tout effacer\nAppuie sur {{icon id=\"7\" arg=\"0x1F852B3F00000000\"}} pour tout effacer.\n\n{{icon id=\"11\" arg=\"0x52B85E3F03000000\"}} Annuler\nAnnule ta dernière action.\n\n{{icon id=\"12\" arg=\"0x52B85E3F03000000\"}} Rétablir\nRétablis une action annulée."
    }
  },
  {
    "label": "Miiverse_UseManual02",
    "locale": {
      "CNzh": "{{icon id=\"2\" arg=\"0x52B85E3F03000000\"}}放大\n放大想要绘画的位置，再按一次即可复原。\n\n{{icon id=\"3\" arg=\"0x52B85E3F03000000\"}}切换纵横\n可以绘画纵向的插画，\n再按一次即可复原。\n\n{{icon id=\"8\" arg=\"0x1F852B3F00000000\"}}移动\n在放大或切换为纵向时移动显示位置。",
      "EUde": "{{icon id=\"2\" arg=\"0x52B85E3F03000000\"}}Zoom\nVergrößere den Bereich, in dem du zeichnen\nmöchtest. Drücke den Knopf erneut, um wieder\nherauszuzoomen.\n\n{{icon id=\"3\" arg=\"0x52B85E3F03000000\"}}Hoch-/Querformat\nZeichne im Hochformat.\nDrücke den Knopf erneut, um im Querformat\nzu zeichnen.\n\n{{icon id=\"8\" arg=\"0x1F852B3F00000000\"}}Bildausschnitt verschieben\nHiermit kannst du in der Vergrößerung oder\nim Hochformat den Bildausschnitt verschieben.",
      "EUen": "{{icon id=\"2\" arg=\"0x52B85E3F03000000\"}}Zoom\nZoom in on the area in which you want to draw.\nPress this button again to zoom back out.\n\n{{icon id=\"3\" arg=\"0x52B85E3F03000000\"}}Switch Horizontal/Vertical\nDraw a vertically long drawing. Press again to\ngo back to horizontal.\n\n{{icon id=\"8\" arg=\"0x1F852B3F00000000\"}}Move\nWhile zoomed in or vertical, you can move the\narea shown on-screen.",
      "EUes": "{{icon id=\"2\" arg=\"0x52B85E3F03000000\"}} Aumentar\nMuestra más de cerca la zona en que estés\ndibujando. Pulsa el botón de nuevo para volver\na la vista normal.\n\n{{icon id=\"3\" arg=\"0x52B85E3F03000000\"}} Cambiar orientación\nCada vez que pulsas este botón, se alterna entre\nlos modos de dibujo en horizontal o vertical.\n\n{{icon id=\"8\" arg=\"0x1F852B3F00000000\"}} Desplazarse\nPermite moverse por el dibujo cuando este es\nvertical o está activa la vista aumentada.",
      "EUfr": "{{icon id=\"2\" arg=\"0x52B85E3F03000000\"}}Zoom\nEffectue un zoom sur la zone où tu veux\ndessiner. Sélectionne à nouveau cette option\npour revenir à l'affichage original.\n\n{{icon id=\"3\" arg=\"0x52B85E3F03000000\"}}Format horizontal/vertical\nAppuie sur ce bouton pour que ton espace de\ndessin bascule au format vertical. Appuie\nà nouveau pour revenir à l'horizontale.\n\n{{icon id=\"8\" arg=\"0x1F852B3F00000000\"}}Déplacement\nLorsque le zoom est actif ou que ton espace\nde dessin est au format vertical, tu peux\ndéplacer la zone visible à l'écran.",
      "EUit": "{{icon id=\"2\" arg=\"0x52B85E3F03000000\"}} Zoom\nIngrandisci l'area in cui vuoi disegnare.\nSeleziona nuovamente questo pulsante\nper ripristinare le dimensioni normali.\n\n{{icon id=\"3\" arg=\"0x52B85E3F03000000\"}} Orientamento orizzontale/verticale\nDisegna su una pagina in verticale.\nPremi nuovamente il pulsante per tornare\nall'orientamento orizzontale.\n\n{{icon id=\"8\" arg=\"0x1F852B3F00000000\"}} Muovi\nQuando l'immagine è ingrandita, oppure\norientata in verticale, puoi spostare l'area\nmostrata a schermo.",
      "EUnl": "{{icon id=\"2\" arg=\"0x52B85E3F03000000\"}}Zoomen\nZoom in op het gedeelte waarin je wilt tekenen.\nKies deze optie opnieuw om uit te zoomen.\n\n{{icon id=\"3\" arg=\"0x52B85E3F03000000\"}}Kies tussen horizontaal of verticaal\nMaak een verticale tekening.\nKies deze optie opnieuw om weer een horizontale\ntekening te maken.\n\n{{icon id=\"8\" arg=\"0x1F852B3F00000000\"}}Bewegen\nBepaal welk gedeelte van de tekening in beeld is\nwanneer je bent ingezoomd of aan een verticale\ntekening werkt.",
      "EUru": "{{icon id=\"2\" arg=\"0x52B85E3F03000000\"}} Масштаб\nУвеличивает область просмотра. Чтобы вернуть\nисходный вид, снова нажми эту кнопку.\n\n{{icon id=\"3\" arg=\"0x52B85E3F03000000\"}}По горизонтали/вертикали\nРисуй по вертикали. Чтобы рисовать\nпо горизонтали, снова нажми эту кнопку.\n\n{{icon id=\"8\" arg=\"0x1F852B3F00000000\"}}Перемещение области просмотра\nПри увеличении изображения или смене\nформата на вертикальный можно перемещать\nобласть просмотра.",
      "JPja": "{{icon id=\"2\" arg=\"0x52B85E3F03000000\"}}拡大\n書く場所を拡大する。もう一度押すと、元にもどる。\n\n{{icon id=\"3\" arg=\"0x52B85E3F03000000\"}}タテヨコ切り替え\nタテ長のイラストを書ける。\nもう一度押すと、元にもどる。\n\n{{icon id=\"8\" arg=\"0x1F852B3F00000000\"}}移動\n拡大中やタテ長のとき、表示場所を移動できる。",
      "KRko": "{{icon id=\"2\" arg=\"0x52B85E3F03000000\"}}확대\n그릴 장소를 확대한다.\n한 번 더 누르면 원래대로 돌아간다.\n\n{{icon id=\"3\" arg=\"0x52B85E3F03000000\"}}가로세로 전환\n세로로 된 일러스트를 그릴 수 있다.\n한 번 더 누르면 원래대로 돌아간다.\n\n{{icon id=\"8\" arg=\"0x1F852B3F00000000\"}}이동\n확대, 세로 표시 중 표시 장소를 이동할 수 있다.",
      "TWzh": "{{icon id=\"2\" arg=\"0x52B85E3F03000000\"}}放大\n放大想要繪圖的位置，\n再次按下按鍵即可復原。\n\n{{icon id=\"3\" arg=\"0x52B85E3F03000000\"}}切換方向\n繪製縱向的插畫，\n再次按下按鍵即可復原。\n\n{{icon id=\"8\" arg=\"0x1F852B3F00000000\"}}移動\n在放大或切換為縱向時，移動顯示位置。",
      "USen": "{{icon id=\"2\" arg=\"0x52B85E3F03000000\"}}Zoom\nZoom in on the area in which you want to draw.\nPress this button again to zoom back out.\n\n{{icon id=\"3\" arg=\"0x52B85E3F03000000\"}}Switch Horizontal/Vertical\nDraw a vertically long drawing. Press again to\ngo back to horizontal.\n\n{{icon id=\"8\" arg=\"0x1F852B3F00000000\"}}Move\nWhile zoomed in or vertical, you can move the\narea shown on-screen.",
      "USes": "{{icon id=\"2\" arg=\"0x52B85E3F03000000\"}} Aumentar\nMuestra más de cerca la zona en que estés\ndibujando. Oprime el botón de nuevo para volver\na la vista normal.\n\n{{icon id=\"3\" arg=\"0x52B85E3F03000000\"}} Cambiar orientación\nCada vez que oprimes este botón, se alterna\nentre los modos de dibujo en horizontal o\nvertical.\n\n{{icon id=\"8\" arg=\"0x1F852B3F00000000\"}} Desplazarse\nPermite moverse por el dibujo cuando este es\nvertical o está activa la vista aumentada.",
      "USfr": "{{icon id=\"2\" arg=\"0x52B85E3F03000000\"}}Zoom\nEffectue un zoom sur la zone où tu veux\ndessiner. Sélectionne à nouveau cette option\npour revenir à l'affichage original.\n\n{{icon id=\"3\" arg=\"0x52B85E3F03000000\"}}Format horizontal/vertical\nAppuie sur ce bouton pour que ton espace de\ndessin bascule au format vertical. Appuie\nà nouveau pour revenir à l'horizontale.\n\n{{icon id=\"8\" arg=\"0x1F852B3F00000000\"}}Déplacement\nLorsque le zoom est actif ou que ton espace\nde dessin est au format vertical, tu peux\ndéplacer la zone visible à l'écran."
    }
  },
  {
    "label": "Miiverse_UseTitle",
    "locale": {
      "CNzh": "使用方法",
      "EUde": "So geht’s!",
      "EUen": "How to post!",
      "EUes": "Cómo publicar dibujos",
      "EUfr": "Publications",
      "EUit": "Pubblicare",
      "EUnl": "Zo moet het!",
      "EUru": "Публикация",
      "JPja": "使い方",
      "KRko": "사용법",
      "TWzh": "使用方法",
      "USen": "How to post!",
      "USes": "Cómo dibujar",
      "USfr": "Publications"
    }
  }
]