[
  {
    "label": "Vendor_Add_Gear_Power_Manual00",
    "locale": {
      "CNzh": "收集{{color id=\"1\"}}装备能力碎片{{color id=\"65535\"}}后，只要找刺冠帮忙，\n就能附加自己喜欢的装备能力哦！\n\n装备能力分为原本就有的{{color id=\"1\"}}基本装备能力{{color id=\"65535\"}}\n以及后来附加在能力槽的{{color id=\"1\"}}追加装备能力{{color id=\"65535\"}}，\n不过这两种能力都可以附加替换！",
      "EUde": "Wenn du deine gesammelten {{color id=\"1\"}}Effekt-Fragmente{{color id=\"65535\"}}\nzu Sid bringst, kannst du dir aussuchen,\nwelche Effekte er deiner Ausrüstung hinzufügen\nsoll.\n\nAusrüstung verfügt immer über einen\n{{color id=\"1\"}}Haupteffekt{{color id=\"65535\"}} sowie Felder für {{color id=\"1\"}}Zusatzeffekte{{color id=\"65535\"}}.\nBeide Arten von Effekten kannst du so\nanpassen, dass sie am besten zu deinem\nSpielstil passen!",
      "EUen": "Bringing the {{color id=\"1\"}}gear ability chunks{{color id=\"65535\"}} you've collected\nto Murch will let you pick which abilities to add\nto your gear!\n\nGear always starts out with a {{color id=\"1\"}}primary gear\nability{{color id=\"65535\"}} and has slots for {{color id=\"1\"}}secondary gear\nabilities{{color id=\"65535\"}}. Both sets can be customized to fit\nyour play style!",
      "EUes": "Si le das {{color id=\"1\"}}fragmentos de potenciador{{color id=\"65535\"}} a Enrizo,\n¡podrás elegir qué potenciadores quieres\nañadirle a tu equipamiento!\n\nLos objetos tienen originalmente un {{color id=\"1\"}}potenciador\nprincipal{{color id=\"65535\"}} y ranuras para añadirles {{color id=\"1\"}}potenciadores\nsecundarios{{color id=\"65535\"}}. ¡Ambos tipos se pueden\npersonalizar para adaptar el equipamiento\na tu estilo!",
      "EUfr": "Si tu apportes à Tipik les {{color id=\"1\"}}fragments de\nbonus d'équipement{{color id=\"65535\"}} que tu as collectés,\ntu pourras choisir des bonus pour ton\néquipement.\n\nÀ la base, une pièce d'équipement dispose\nd'un {{color id=\"1\"}}bonus principal{{color id=\"65535\"}} ainsi que d'emplacements\ndestinés à des {{color id=\"1\"}}bonus additionnels{{color id=\"65535\"}}. Le bonus\nprincipal ainsi que les bonus additionnels\npeuvent être personnalisés afin de correspondre\nau mieux à ton style de jeu !",
      "EUit": "Porta i {{color id=\"1\"}}frammenti abilità{{color id=\"65535\"}} che hai ottenuto\na Echino e potrai scegliere quali abilità\naggiungere al tuo equipaggiamento!\n\nDi base, gli oggetti hanno un'{{color id=\"1\"}}abilità originale{{color id=\"65535\"}}\ne slot per le {{color id=\"1\"}}abilità extra{{color id=\"65535\"}}. Entrambe possono\nessere personalizzate per adattarle al tuo\nstile di gioco!",
      "EUnl": "Als je de {{color id=\"1\"}}effectfragmenten {{color id=\"65535\"}}die je hebt verzameld\nnaar Mikey brengt, kun je zelf uitzoeken welke\neffecten je toevoegt aan je uitrusting!\n\nUitrusting komt altijd met een {{color id=\"1\"}}hoofdeffect{{color id=\"65535\"}}, en\nheeft daarnaast vakjes voor {{color id=\"1\"}}extra effecten{{color id=\"65535\"}}.\nAl die effecten kunnen worden aangepast, zodat\nje uitrusting optimaal aansluit bij je speelstijl!",
      "EUru": "Принеси {{color id=\"1\"}}б/у свойства{{color id=\"65535\"}} Иглюхе, и он позволит\nтебе выбрать свойства для твоего снаряжения!\n\nУ каждого снаряжения есть {{color id=\"1\"}}основное свойство{{color id=\"65535\"}},\nа также слоты для {{color id=\"1\"}}дополнительных свойств{{color id=\"65535\"}}.\nМеняй их так, как посчитаешь нужным!",
      "JPja": "{{color id=\"1\"}}ギアパワーのかけら{{color id=\"65535\"}}を集めて スパイキーにお願いすれば\n好きなギアパワーを付けることができるぞ！\n\nギアパワーには、最初から付いている{{color id=\"1\"}}基本ギアパワー{{color id=\"65535\"}}と\nあとからスロットに付く{{color id=\"1\"}}追加ギアパワー{{color id=\"65535\"}}があるが、\nどちらも付け替えが可能だ！",
      "KRko": "{{color id=\"1\"}}기어 파워 파편{{color id=\"65535\"}}을 모아서 스파이키에게 부탁하면\n원하는 기어 파워를 붙일 수 있다!\n\n기어 파워는 처음부터 붙어 있는 {{color id=\"1\"}}기본 기어 파워{{color id=\"65535\"}}와\n나중에 슬롯에 붙는 {{color id=\"1\"}}추가 기어 파워{{color id=\"65535\"}}가 있지만\n둘 다 바꾸어 붙일 수 있다!",
      "TWzh": "在收集到{{color id=\"1\"}}裝備能力碎片{{color id=\"65535\"}}後，\n只要找刺冠幫忙就能附加自己喜歡的裝備能力囉！\n\n裝備能力分為原本就已經附加的{{color id=\"1\"}}基本裝備能力{{color id=\"65535\"}}\n以及後來才附加到能力槽的{{color id=\"1\"}}追加裝備能力{{color id=\"65535\"}}，\n不過這兩種能力都是可以替換的！",
      "USen": "Bringing the {{color id=\"1\"}}gear ability chunks{{color id=\"65535\"}} you've collected\nto Murch will let you pick which abilities to add\nto your gear!\n\nGear always starts out with a {{color id=\"1\"}}primary gear\nability{{color id=\"65535\"}} and has slots for {{color id=\"1\"}}secondary gear\nabilities{{color id=\"65535\"}}. Both sets can be customized to fit\nyour play style!",
      "USes": "Si le das {{color id=\"1\"}}fragmentos de potenciador{{color id=\"65535\"}} a Enrizo,\n¡podrás elegir qué potenciadores quieres\nañadirle a tu equipamiento!\n\nLos objetos tienen originalmente un {{color id=\"1\"}}potenciador\nprincipal{{color id=\"65535\"}} y ranuras para {{color id=\"1\"}}potenciadores\nsecundarios{{color id=\"65535\"}}. ¡Ambos tipos se pueden\npersonalizar para adaptar el equipamiento\na tu estilo!",
      "USfr": "Si tu apportes à Tipik les {{color id=\"1\"}}fragments de\nbonus d'équipement{{color id=\"65535\"}} que tu as collectés,\ntu pourras choisir des bonus pour ton\néquipement.\n\nÀ la base, une pièce d'équipement dispose\nd'un {{color id=\"1\"}}bonus principal{{color id=\"65535\"}} ainsi que d'emplacements\ndestinés à des {{color id=\"1\"}}bonus additionnels{{color id=\"65535\"}}. Le bonus\nprincipal ainsi que les bonus additionnels\npeuvent être personnalisés afin de correspondre\nau mieux à ton style de jeu!"
    }
  },
  {
    "label": "Vendor_Add_Gear_Power_Manual01",
    "locale": {
      "CNzh": "{{color id=\"1\"}}基本装备能力{{color id=\"65535\"}}的效果较强，\n需要的碎片数量也相对较多。\n另外，如果想附加特殊的基本装备能力，\n则会需要用到数种不同类型的碎片。\n\n{{color id=\"1\"}}追加装备能力{{color id=\"65535\"}}的效果较弱，\n需要的碎片数量也相对较少。\n但是如果想在已拥有该能力的装备上\n附加相同的追加装备能力，需要的碎片数量会增加哦。",
      "EUde": "{{color id=\"1\"}}Haupteffekte{{color id=\"65535\"}} sind stark, aber es kostet auch\nmehr Fragmente, sie zu ändern. Außerdem\nbraucht man für die besonders interessanten\nFähigkeiten verschiedene Fragmente.\n\n{{color id=\"1\"}}Zusatzeffekte{{color id=\"65535\"}} sind weniger stark, aber dafür\nkostet ihre Anpassung auch entsprechend\nweniger Fragmente. Beim Hinzufügen mehrerer\nEffekte derselben Art steigen die Kosten\nallerdings.",
      "EUen": "{{color id=\"1\"}}Primary gear abilities{{color id=\"65535\"}} are more powerful, but\nthey also require more chunks to customize.\nPlus, it takes a few different types of chunks\nto add some of the more interesting abilities.\n\n{{color id=\"1\"}}Secondary gear abilities{{color id=\"65535\"}} aren't as strong, but\nthey don't require nearly as many chunks to add\neither. However, trying to add more than one of\nthe same ability will bump up the chunk cost.",
      "EUes": "Los {{color id=\"1\"}}potenciadores principales{{color id=\"65535\"}} son más potentes,\npero personalizarlos requiere más fragmentos.\nAdemás, para obtener los potenciadores más\ninteresantes, hacen falta diferentes tipos de\nfragmentos.\n\nLos {{color id=\"1\"}}potenciadores secundarios{{color id=\"65535\"}} no son tan\npotentes, pero no requieren tantos fragmentos.\nSin embargo, si intentas añadir uno que ya\ntienes, se disparará el coste de fragmentos.",
      "EUfr": "Les {{color id=\"1\"}}bonus principaux{{color id=\"65535\"}} sont très puissants, mais\nleur personnalisation nécessite une quantité de\nfragments importante. Par ailleurs, différents\ntypes de fragments sont requis pour obtenir\nles bonus les plus intéressants.\n\nLes {{color id=\"1\"}}bonus additionnels{{color id=\"65535\"}} sont moins performants,\nmais nécessitent nettement moins de fragments.\nToutefois, le coût peut vite s'envoler si tu\nessaies d'ajouter le même bonus en plusieurs\nexemplaires.",
      "EUit": "Le {{color id=\"1\"}}abilità originali{{color id=\"65535\"}} sono più potenti, ma dovrai\nusare più frammenti per personalizzarle.\nInoltre, servono frammenti di tipo diverso per\naggiungere alcune delle abilità più interessanti.\n\nLe {{color id=\"1\"}}abilità extra{{color id=\"65535\"}} non sono altrettanto potenti,\nma richiedono meno frammenti. Tuttavia, se\nprovi ad aggiungere più abilità dello stesso tipo,\nil costo a livello di frammenti lieviterà.",
      "EUnl": "{{color id=\"1\"}}Hoofdeffecten{{color id=\"65535\"}} zijn krachtig, maar het kost je\nmeer effectfragmenten als je ze wilt veranderen.\nDaarnaast heb je verschillende soorten\nfragmenten nodig om de bijzonder interessante\neffecten vrij te spelen.\n\n{{color id=\"1\"}}Extra effecten{{color id=\"65535\"}} zijn minder krachtig, maar\nvereisen ook een stuk minder fragmenten.\nHet wordt wel duurder als je meer vakjes wilt\nvullen met hetzelfde effect.",
      "EUru": "{{color id=\"1\"}}Основные свойства сильнее{{color id=\"65535\"}}, но для них требуется\nбольше б/у свойств. А для самых интересных\nсвойств требуются б/у свойства разных типов!\n\n{{color id=\"1\"}}Дополнительные свойства{{color id=\"65535\"}} не такие мощные, но\nдля них нужно в разы меньше б/у свойств.\nОднако если добавлять несколько одинаковых\nсвойств сразу, цена за б/у свойство заметно\nувеличится.",
      "JPja": "{{color id=\"1\"}}基本ギアパワー{{color id=\"65535\"}}は効果が大きい代わりに\n必要なかけらの数が多い。\nまた、特殊な基本ギアパワーを付けるには\nいくつかの種類のかけらが必要だ。\n\n{{color id=\"1\"}}追加ギアパワー{{color id=\"65535\"}}は効果が小さい分、\n必要なかけらの数も少ない。\nただし、同じ追加ギアパワーが付いているギアに\n付け足す場合は 必要なかけらの数が増えるぞ。",
      "KRko": "{{color id=\"1\"}}기본 기어 파워{{color id=\"65535\"}}는 효과가 강한 대신\n필요한 파편 수가 많다.\n또 특수한 기본 기어 파워를 붙이기 위해서는\n몇 가지 종류의 파편이 필요하다.\n\n{{color id=\"1\"}}추가 기어 파워{{color id=\"65535\"}}는 효과가 약한 만큼\n필요한 파편 수도 적다.\n단, 같은 추가 기어 파워가 붙어 있는 기어에\n덧붙일 경우에는 필요한 파편 수가 늘어난다.",
      "TWzh": "{{color id=\"1\"}}基本裝備能力{{color id=\"65535\"}}的效果較強，\n碎片數量需求也相對較多。\n此外，如果想要附加特殊的基本裝備能力，\n就會需要用到數種不同種類的碎片。\n\n{{color id=\"1\"}}追加裝備能力{{color id=\"65535\"}}的效果較弱，\n碎片數量需求也比較少。\n但是如果想要在裝備上附加相同的追加裝備能力，\n碎片數量需求就會增加喔！",
      "USen": "{{color id=\"1\"}}Primary gear abilities{{color id=\"65535\"}} are more powerful, but\nthey also require more chunks to customize.\nPlus, it takes a few different types of chunks\nto add some of the more interesting abilities.\n\n{{color id=\"1\"}}Secondary gear abilities{{color id=\"65535\"}} aren't as strong, but\nthey don't require nearly as many chunks to add\neither. However, trying to add more than one of\nthe same ability will bump up the chunk cost.",
      "USes": "Los {{color id=\"1\"}}potenciadores principales{{color id=\"65535\"}} son más potentes,\npero personalizarlos requiere más fragmentos.\nAdemás, para obtener los potenciadores más\ninteresantes, hacen falta diferentes tipos de\nfragmentos.\n\nLos {{color id=\"1\"}}potenciadores secundarios{{color id=\"65535\"}} no son tan\npotentes, pero no requieren tantos fragmentos.\nSin embargo, si intentas añadir más de uno\ndel mismo tipo, el costo de fragmentos se\nincrementará.",
      "USfr": "Les {{color id=\"1\"}}bonus principaux{{color id=\"65535\"}} sont très puissants, mais\nleur personnalisation nécessite une quantité de\nfragments importante. Par ailleurs, différents\ntypes de fragments sont requis pour obtenir\nles bonus les plus intéressants.\n\nLes {{color id=\"1\"}}bonus additionnels {{color id=\"65535\"}}sont moins performants,\nmais nécessitent nettement moins de fragments.\nToutefois, le coût peut vite s'envoler si tu\nessaies d'ajouter le même bonus en plusieurs\nexemplaires."
    }
  },
  {
    "label": "Vendor_Add_Gear_Power_Manual02",
    "locale": {
      "CNzh": "在附加装备能力时，\n可以覆盖已拥有能力的能力槽。\n覆盖后可以获得\n少量原装备能力的{{color id=\"1\"}}碎片{{color id=\"65535\"}}。\n\n另外，{{color id=\"1\"}}祭典T恤{{color id=\"65535\"}}的{{color id=\"1\"}}追加装备能力增倍{{color id=\"65535\"}}\n无法使用碎片来附加，\n一旦被覆盖就无法复原，必须多加注意。",
      "EUde": "Wenn ein Feld bereits mit einem Effekt belegt\nist, kannst du den Effekt mit einem anderen\nüberschreiben. Dabei erhältst du allerdings\nweniger {{color id=\"1\"}}Fragmente{{color id=\"65535\"}} für den überschriebenen\nEffekt, und er kann danach nicht wieder in\ndas Feld eingesetzt werden.\n\nDer Effekt {{color id=\"1\"}}Effektdoppelung{{color id=\"65535\"}}, der auf {{color id=\"1\"}}Splatfest-\nShirts{{color id=\"65535\"}} zu finden ist, kann nicht mittels Effekt-\nFragmenten hinzugefügt werden.",
      "EUen": "If a slot is already full, you can still add a new\nability on top of the one that's there, but you\nwon't get as many {{color id=\"1\"}}chunks{{color id=\"65535\"}} back for the one you\noverwrote. Also, once you overwrite an ability,\nit's gone for good.\n\nLastly, ability chunks cannot be used to add the\n{{color id=\"1\"}}Ability Doubler{{color id=\"65535\"}} you see on {{color id=\"1\"}}Splatfest Tees{{color id=\"65535\"}}.",
      "EUes": "Si una ranura está ocupada, podrás sustituir\nel potenciador que tenga por otro, pero no\nrecuperarás tantos {{color id=\"1\"}}fragmentos{{color id=\"65535\"}}, y el que\nsustituyas se perderá definitivamente.\n\nPor último, los fragmentos de potenciador no se\npueden usar para añadir el {{color id=\"1\"}}duplicador{{color id=\"65535\"}} que viene\ncon las {{color id=\"1\"}}camisetas festivas{{color id=\"65535\"}}.",
      "EUfr": "Si un emplacement est déjà occupé, tu peux\ntout de même y ajouter un nouveau bonus,\nmais tu recevras un nombre de {{color id=\"1\"}}fragments{{color id=\"65535\"}}\nlimités en échange du bonus remplacé.\n\nEnfin, les fragments de bonus ne peuvent pas\nêtre utilisés pour ajouter le {{color id=\"1\"}}Bonus x 2{{color id=\"65535\"}} des\n{{color id=\"1\"}}t-shirts festifs{{color id=\"65535\"}}.",
      "EUit": "Se uno slot è occupato, puoi aggiungere\nuna nuova abilità oltre a quella esistente,\nma non otterrai altrettanti {{color id=\"1\"}}frammenti {{color id=\"65535\"}}da\nquella che hai sovrascritto. Inoltre, le abilità\nsovrascritte vanno perse per sempre.\n\nInfine, i frammenti non possono essere usati\nper aggiungere il {{color id=\"1\"}}raddoppiatore {{color id=\"65535\"}}che vedi sulle\n{{color id=\"1\"}}t-shirt festival{{color id=\"65535\"}}.",
      "EUnl": "Als een vakje al een effect heeft, kun je dat wel\nvervangen door er een nieuw effect aan toe te\nwijzen, maar dan krijg je minder {{color id=\"1\"}}fragmenten{{color id=\"65535\"}}\nterug voor het effect dat je verliest. En\ndaarnaast is dat effect ook voorgoed verloren.\n\nDaarnaast kun je effectfragmenten ook niet\ngebruiken om de {{color id=\"1\"}}verdubbelaar{{color id=\"65535\"}} toe te voegen die\nop {{color id=\"1\"}}Splatfest-T-shirts{{color id=\"65535\"}} te vinden is.",
      "EUru": "Если слот уже занят, ты можешь перезаписать\nв него свойство, добавив новое. Однако\nперезаписанные свойства теряются навсегда\nи {{color id=\"1\"}}б/у свойств{{color id=\"65535\"}} за них ты не получишь.\n\nБ/у свойства нельзя поставить в {{color id=\"1\"}}дупликатор {{color id=\"65535\"}}на\n{{color id=\"1\"}}сплатфест-майках{{color id=\"65535\"}}.",
      "JPja": "すでに埋まっているスロットを上書きして\nギアパワーを付けることも可能だ。\n上書きすると、もともと付いていたギアパワーの{{color id=\"1\"}}かけら{{color id=\"65535\"}}が\n少しだけ手に入るぞ。\n\nなお、{{color id=\"1\"}}フェスT{{color id=\"65535\"}}に付いている{{color id=\"1\"}}追加ギアパワー倍化{{color id=\"65535\"}}は\nかけらで付けることができない。\n上書きすると元にもどせないので注意しよう。",
      "KRko": "이미 차 있는 슬롯에 덧씌워서\n기어 파워를 붙일 수도 있다.\n덧씌우면 원래 붙어 있던 기어 파워 {{color id=\"1\"}}파편{{color id=\"65535\"}}을\n조금 획득할 수 있다.\n\n또한 {{color id=\"1\"}}페스티벌 T{{color id=\"65535\"}}의 {{color id=\"1\"}}추가 기어 파워 2배{{color id=\"65535\"}}는\n파편으로 붙일 수 없다.\n덧씌우면 원래대로 되돌릴 수 없으니 주의하자.",
      "TWzh": "在附加裝備能力時，\n也可以選擇覆蓋已經附加了能力的能力槽。\n選擇覆蓋的話，\n就能獲得少量原裝備能力的{{color id=\"1\"}}碎片{{color id=\"65535\"}}喔！\n\n此外，{{color id=\"1\"}}祭典T恤{{color id=\"65535\"}}的{{color id=\"1\"}}追加裝備能力增倍{{color id=\"65535\"}}\n是無法使用碎片附加的，\n一旦被覆蓋就無法復原了，必須多加注意。",
      "USen": "If a slot is already full, you can still add a new\nability on top of the one that's there, but you\nwon't get as many {{color id=\"1\"}}chunks{{color id=\"65535\"}} back for the one you\noverwrote. Also, once you overwrite an ability,\nit's gone for good.\n\nLastly, ability chunks cannot be used to add the\n{{color id=\"1\"}}Ability Doubler{{color id=\"65535\"}} you see on {{color id=\"1\"}}Splatfest Tees{{color id=\"65535\"}}.",
      "USes": "Si una ranura está ocupada, podrás sustituir\nel potenciador que tenga por otro, pero no\nrecuperarás tantos {{color id=\"1\"}}fragmentos{{color id=\"65535\"}}, y el que\nsustituyas se perderá definitivamente.\n\nPor último, los fragmentos de potenciador no se\npueden usar para añadir el {{color id=\"1\"}}duplicador{{color id=\"65535\"}} que viene\ncon las {{color id=\"1\"}}camisetas festivas{{color id=\"65535\"}}.",
      "USfr": "Si un emplacement est déjà occupé, tu peux\ntout de même y ajouter un nouveau bonus,\nmais tu recevras un nombre de {{color id=\"1\"}}fragments{{color id=\"65535\"}}\nlimités en échange du bonus remplacé. Et\nen plus, les bonus remplacés sont perdus\npour de bon.\n\nEnfin, les fragments de bonus ne peuvent pas\nêtre utilisés pour ajouter le {{color id=\"1\"}}Bonus x 2{{color id=\"65535\"}} des\n{{color id=\"1\"}}t-shirts festifs{{color id=\"65535\"}}."
    }
  },
  {
    "label": "Vendor_Add_Gear_Power_Title",
    "locale": {
      "CNzh": "附加装备能力",
      "EUde": "Effekte hinzufügen",
      "EUen": "Add Gear Ability",
      "EUes": "Añadir potenciadores",
      "EUfr": "Ajouter un bonus d'équipement",
      "EUit": "Aggiungere abilità",
      "EUnl": "Effecten toevoegen",
      "EUru": "Добавить свойства снаряжения",
      "JPja": "ギアパワーを付ける",
      "KRko": "기어 파워 붙이기",
      "TWzh": "附加裝備能力",
      "USen": "Add Gear Ability",
      "USes": "Añadir potenciadores",
      "USfr": "Ajouter un bonus d'équipement"
    }
  },
  {
    "label": "Vendor_Button01",
    "locale": {
      "CNzh": "装备的\n预订与领取",
      "EUde": "Bestellung\nabholen",
      "EUen": "Order Status",
      "EUes": "Estado del\npedido",
      "EUfr": "Récupérer\nune commande",
      "EUit": "Stato ordine",
      "EUnl": "Bestelstatus",
      "EUru": "Выдача заказа",
      "JPja": "ギアの注文と\n受け取り",
      "KRko": "기어 주문과\n수령",
      "TWzh": "裝備的\n預訂與領取",
      "USen": "Order Status",
      "USes": "Recoger un\nencargo",
      "USfr": "Récupérer\nune commande"
    }
  },
  {
    "label": "Vendor_Button02",
    "locale": {
      "CNzh": "提升\n装备稀有度",
      "EUde": "Sternenwert\nerhöhen",
      "EUen": "Boost\nStar Power",
      "EUes": "Más\nexclusividad",
      "EUfr": "Ajouter\ndes étoiles",
      "EUit": "Aumenta\nmitilicità",
      "EUnl": "Zeldzaamheid\nverhogen",
      "EUru": "Добавить\nзвезды",
      "JPja": "ギアの\nレア度アップ",
      "KRko": "기어\n레어도 업",
      "TWzh": "提升\n裝備稀有度",
      "USen": "Boost\nStar Power",
      "USes": "Más\nestrellas",
      "USfr": "Ajouter\ndes étoiles"
    }
  },
  {
    "label": "Vendor_Button03",
    "locale": {
      "CNzh": "清洗\n能力槽",
      "EUde": "Felder leeren",
      "EUen": "Scrub Slots",
      "EUes": "Limpiar\nranuras",
      "EUfr": "Vider les\nemplacements",
      "EUit": "Svuota slot",
      "EUnl": "Vakjes legen",
      "EUru": "Постирать",
      "JPja": "スロット\nクリーニング",
      "KRko": "슬롯\n클리닝",
      "TWzh": "漂洗\n能力槽",
      "USen": "Scrub Slots",
      "USes": "Restablecer\nranuras",
      "USfr": "Vider les\nemplacements"
    }
  },
  {
    "label": "Vendor_Button04",
    "locale": {
      "CNzh": "附加\n装备能力",
      "EUde": "Neuer\nEffekt",
      "EUen": "Add Abilities",
      "EUes": "Añadir\npotenciadores",
      "EUfr": "Ajouter des\nbonus",
      "EUit": "Aggiungi\nabilità",
      "EUnl": "Effecten\ntoevoegen",
      "EUru": "Добавить\nсвойство",
      "JPja": "ギアパワーを\n付ける",
      "KRko": "기어 파워\n붙이기",
      "TWzh": "附加\n裝備能力",
      "USen": "Add Abilities",
      "USes": "Añadir\npotenciadores",
      "USfr": "Ajouter des\nbonus"
    }
  },
  {
    "label": "Vendor_Button05",
    "locale": {
      "CNzh": "重新附加\n随机装备能力",
      "EUde": "Zufalls-\neffekte",
      "EUen": "Reroll Slots",
      "EUes": "Reasignar\npotenciadores",
      "EUfr": "Réassigner les\nemplacements",
      "EUit": "Cambia slot",
      "EUnl": "Willekeurig\nvullen",
      "EUru": "Заменить",
      "JPja": "ギアパワーの\nランダム付け直し",
      "KRko": "기어 파워\n랜덤 다시 붙이기",
      "TWzh": "重新附加\n隨機裝備能力",
      "USen": "Reroll Slots",
      "USes": "Sortear\npotenciadores",
      "USfr": "Réassigner les\nemplacements"
    }
  },
  {
    "label": "Vendor_Button06",
    "locale": {
      "CNzh": "关于\n鱿鱼须商城",
      "EUde": "Infos zu\nTentaWorld",
      "EUen": "SplatNet\nDelivery",
      "EUes": "Tentatienda",
      "EUfr": "Livraison de\nCéphalochic",
      "EUit": "Calama-zone",
      "EUnl": "Tentashop",
      "EUru": "Доставка\nиз SplatNet",
      "JPja": "ゲソタウンに\nついて",
      "KRko": "오징어넷 숍에\n대하여",
      "TWzh": "關於\n魷魚鬚商城",
      "USen": "SplatNet\nDelivery",
      "USes": "Envío de\nSplatNet",
      "USfr": "Livraison de la\nBoutique SplatNet"
    }
  },
  {
    "label": "Vendor_Button07",
    "locale": {
      "CNzh": "关于尚兴市",
      "EUde": "In Inkopolis",
      "EUen": "In Inkopolis Plaza",
      "EUes": "En Cromópolis",
      "EUfr": "À Chromapolis",
      "EUit": "A Coloropoli",
      "EUnl": "In Inkopolis",
      "EUru": "В Инкополе",
      "JPja": "ハイカラシティでは",
      "KRko": "오더폴리스\n시티에서는",
      "TWzh": "關於尚興市",
      "USen": "In Inkopolis Plaza",
      "USes": "En Cromópolis",
      "USfr": "À Chromapolis"
    }
  },
  {
    "label": "Vendor_Cleaning_Manual00",
    "locale": {
      "CNzh": "能力槽已经拥有{{color id=\"1\"}}追加装备能力{{color id=\"65535\"}}的装备\n可以拿去找刺冠帮忙{{color id=\"1\"}}清洗{{color id=\"65535\"}}哦！\n\n所有能力槽都会在清洗后\n变回没有追加装备能力的状态，\n而且还能获得原装备能力的{{color id=\"1\"}}碎片{{color id=\"65535\"}}哦。",
      "EUde": "Sid kann {{color id=\"1\"}}Zusatzeffekte {{color id=\"65535\"}}von Ausrüstungsteilen\n{{color id=\"1\"}}entfernen{{color id=\"65535\"}}!\n\nDie Felder der Ausrüstung sind dann wieder im\nUrzustand, bevor Zusatzeffekte hinzugefügt\nwurden. Achtung, Sid schenkt dir sogar die\n{{color id=\"1\"}}Effekt-Fragmente {{color id=\"65535\"}}der entfernten Effekte!",
      "EUen": "Gear whose slots are filled with {{color id=\"1\"}}secondary gear\nabilities {{color id=\"65535\"}}can be {{color id=\"1\"}}scrubbed clean {{color id=\"65535\"}}by Murch!\n\nWhen gear is scrubbed, all of its ability slots are\nreset to how things were before any abilities\nwere added. You also get to keep any {{color id=\"1\"}}ability\nchunks {{color id=\"65535\"}}that are scrubbed off!",
      "EUes": "¡Enrizo puede {{color id=\"1\"}}limpiar{{color id=\"65535\"}} los objetos que tengan\nlas ranuras ocupadas con {{color id=\"1\"}}potenciadores\nsecundarios{{color id=\"65535\"}}!\n\nEn el proceso, todas las ranuras recuperan el\nestado que tenían antes de que se les añadieran\npotenciadores. ¡Y conservarás los {{color id=\"1\"}}fragmentos\nde potenciador {{color id=\"65535\"}}que resulten de la limpieza!",
      "EUfr": "Tipik peut {{color id=\"1\"}}vider{{color id=\"65535\"}} pour toi les pièces d'équipement\ndont les emplacements sont occupés par des\n{{color id=\"1\"}}bonus additionnels{{color id=\"65535\"}} !\n\nTous les emplacements reviennent alors à leur\nétat d'origine. Des {{color id=\"1\"}}fragments de bonus{{color id=\"65535\"}} te sont\négalement restitués.",
      "EUit": "Gli slot occupati da {{color id=\"1\"}}abilità extra{{color id=\"65535\"}} possono\nessere {{color id=\"1\"}}svuotati{{color id=\"65535\"}} da Echino!\n\nQuando dai una ripulita a un oggetto, tutti\ni suoi slot vengono riportati allo stato in cui\nerano prima di aggiungere le abilità. E ti puoi\ntenere i {{color id=\"1\"}}frammenti abilità{{color id=\"65535\"}} che ne derivano!",
      "EUnl": "Als uitrusting over {{color id=\"1\"}}extra effecten{{color id=\"65535\"}} beschikt, kun\nje Mikey vragen om die vakjes te {{color id=\"1\"}}legen{{color id=\"65535\"}}.\n\nDe uitrusting wordt dan teruggebracht in zijn\noriginele staat, voordat er extra effecten aan\nwerden toegevoegd. Als er {{color id=\"1\"}}effectfragmenten{{color id=\"65535\"}}\nvrijkomen bij het legen van de vakjes, mag je\ndie houden!",
      "EUru": "Иглюха может {{color id=\"1\"}}постирать снаряжение\nс дополнительными свойствами{{color id=\"65535\"}}.\n\nСтирка сбрасывает все добавленные\nснаряжению свойства. После стирки ты\nполучишь их обратно в виде {{color id=\"1\"}}б/у свойств{{color id=\"65535\"}}!",
      "JPja": "スロットに{{color id=\"1\"}}追加ギアパワー{{color id=\"65535\"}}が付いているギアは、\nスパイキーにお願いすれば{{color id=\"1\"}}クリーニング{{color id=\"65535\"}}してもらえるぞ！\n\nクリーニングすると、すべてのスロットを\n追加ギアパワーが付く前の状態にもどすことができる。\nもともと付いていたギアパワーの{{color id=\"1\"}}かけら{{color id=\"65535\"}}も手に入るぞ。",
      "KRko": "슬롯에 {{color id=\"1\"}}추가 기어 파워{{color id=\"65535\"}}가 붙어 있는 기어는\n스파이키에게 부탁해서 {{color id=\"1\"}}클리닝{{color id=\"65535\"}}을 할 수가 있다!\n\n클리닝을 하면 모든 슬롯을\n추가 기어 파워가 붙기 전의 상태로 되돌릴 수 있고\n원래 붙어 있던 기어 파워 {{color id=\"1\"}}파편{{color id=\"65535\"}}도 획득할 수 있다.",
      "TWzh": "能力槽已經附加了{{color id=\"1\"}}追加裝備能力{{color id=\"65535\"}}的裝備\n可以拿去找刺冠幫忙{{color id=\"1\"}}漂洗{{color id=\"65535\"}}喔！\n\n在漂洗之後，\n所有的能力槽都會恢復成還沒有追加裝備能力的狀態，\n而且還能獲得原裝備能力的{{color id=\"1\"}}碎片{{color id=\"65535\"}}喔！",
      "USen": "Gear whose slots are filled with {{color id=\"1\"}}secondary gear\nabilities {{color id=\"65535\"}}can be {{color id=\"1\"}}scrubbed clean {{color id=\"65535\"}}by Murch!\n\nWhen gear is scrubbed, all of its ability slots are\nreset to how things were before any abilities\nwere added. You also get to keep any {{color id=\"1\"}}ability\nchunks {{color id=\"65535\"}}that are scrubbed off!",
      "USes": "¡Enrizo puede {{color id=\"1\"}}restablecer{{color id=\"65535\"}} los objetos que tengan\nlas ranuras ocupadas con {{color id=\"1\"}}potenciadores\nsecundarios{{color id=\"65535\"}}!\n\nEn el proceso, todas las ranuras recuperan el\nestado que tenían antes de que se les añadieran\npotenciadores. ¡Y conservarás los {{color id=\"1\"}}fragmentos\nde potenciador {{color id=\"65535\"}}que resulten del proceso!",
      "USfr": "Tipik peut {{color id=\"1\"}}vider{{color id=\"65535\"}} pour toi les pièces d'équipement\ndont les emplacements sont occupés par des\n{{color id=\"1\"}}bonus additionnels{{color id=\"65535\"}}!\n\nTous les emplacements reviennent alors à leur\nétat d'origine. Des {{color id=\"1\"}}fragments de bonus{{color id=\"65535\"}} te sont\négalement restitués."
    }
  },
  {
    "label": "Vendor_Cleaning_Manual01",
    "locale": {
      "CNzh": "想拜托刺冠附加自己喜欢的装备能力时\n就会用到{{color id=\"1\"}}装备能力碎片{{color id=\"65535\"}}。\n将目前不使用的装备拿去清洗来收集碎片吧。\n\n另外，清洗时需要花费{{color id=\"1\"}}金钱{{color id=\"65535\"}}。\n不论装备上附加了多少装备能力，费用都是相同的，\n所以在附加了3个装备能力的状态下拿去清洗比较划算哦。",
      "EUde": "Sid kann deine {{color id=\"1\"}}Effekt-Fragmente{{color id=\"65535\"}} verwenden, um\ndeiner Ausrüstung gezielt Effekte hinzuzufügen.\nDu erhältst diese Fragmente, indem du ihn die\nFelder auf deiner Ausrüstung leeren lässt.\n\nDas Entfernen von Effekten kostet {{color id=\"1\"}}Geld{{color id=\"65535\"}}, aber\nder Preis ist immer derselbe – egal, wie viele\nEffekte du entfernen lässt! Es lohnt sich also\nbesonders, Effekte von Ausrüstung mit drei\nbelegten Feldern entfernen zu lassen.",
      "EUen": "{{color id=\"1\"}}Gear ability chunks{{color id=\"65535\"}} can be used by Murch\nto add specific abilities to your gear. You can\nget gear ability chunks by having gear scrubbed.\n\nYou'll need {{color id=\"1\"}}cash{{color id=\"65535\"}} to pay for the scrubbing,\nbut the price is the same no matter how many\nabilities are on the gear, meaning you'll get\nthe best value on gear with all three slots full.",
      "EUes": "Enrizo puede usar los {{color id=\"1\"}}fragmentos de potenciador{{color id=\"65535\"}}\npara añadir potenciadores a tu equipamiento.\nPuedes obtener fragmentos limpiando objetos.\n\nPara limpiarlos necesitarás {{color id=\"1\"}}dinero{{color id=\"65535\"}}, pero el precio\nserá el mismo independientemente de cuántos\npotenciadores tenga el objeto, de manera que\nte resultará más rentable si todas las ranuras\nestán ocupadas.",
      "EUfr": "Tipik utilise tes {{color id=\"1\"}}fragments de bonus\nd'équipement{{color id=\"65535\"}} pour ajouter des bonus spécifiques\nà ton équipement. Tu peux obtenir des bonus\nen vidant les emplacements d'un objet.\n\nTipik te demandera de l'{{color id=\"1\"}}argent{{color id=\"65535\"}} pour vider les\nemplacements, mais le prix demeure le même\nquel que soit le nombre de bonus dont dispose\nl'objet. Le plus avantageux est donc de lui\nconfier des pièces d'équipement dont les\ntrois emplacements sont occupés.",
      "EUit": "I {{color id=\"1\"}}frammenti abilità{{color id=\"65535\"}} possono essere usati\nda Echino per aggiungere abilità specifiche\nai tuoi oggetti. Li ottieni svuotando gli slot.\n\nPer svuotare gli slot ti serve {{color id=\"1\"}}denaro{{color id=\"65535\"}}, ma il\ncosto è lo stesso indipendentemente dal numero\ndi abilità presenti sull'oggetto, il che significa\nche ti conviene svuotare gli slot quando tutti\ne 3 sono occupati.",
      "EUnl": "Mikey kan je {{color id=\"1\"}}effectfragmenten {{color id=\"65535\"}}gebruiken om\nspecifieke effecten toe te voegen aan je\nuitrusting. Dat soort fragmenten kun je krijgen\nwanneer je de effectvakjes van je uitrusting\nlaat legen.\n\nHet legen van vakjes kost {{color id=\"1\"}}geld{{color id=\"65535\"}}, maar de prijs is\naltijd hetzelfde, hoeveel vakjes je ook laat legen.\nHet is dus voordeliger om de vakjes te legen van\nuitrusting met drie gevulde effectvakjes.",
      "EUru": "Иглюха может добавить определенные\nсвойства твоему снаряжению, используя {{color id=\"1\"}}б/у\nсвойства{{color id=\"65535\"}}. Их можно получить после стирки.\n\nЧтобы постирать снаряжение, нужны {{color id=\"1\"}}деньги{{color id=\"65535\"}}!\nЦена за стирку одинаковая независимо от\nтого, сколько слотов занято. Поэтому\nвыгоднее всего стирать снаряжение,\nу которого заняты все 3 слота.",
      "JPja": "{{color id=\"1\"}}ギアパワーのかけら{{color id=\"65535\"}}は、好きなギアパワーを\nスパイキーに付けてもらうときに使えるアイテムだ。\n使っていないギアをクリーニングして集めよう。\n\nなお、クリーニングするには{{color id=\"1\"}}おカネ{{color id=\"65535\"}}が必要だ。\n何個ギアパワーが付いていても料金は同じなので、\n３つ付いているときに頼むとお得だぞ。",
      "KRko": "{{color id=\"1\"}}기어 파워 파편{{color id=\"65535\"}}은 스파이키에게 부탁해\n원하는 기어 파워를 붙일 때\n사용할 수 있는 아이템이다.\n사용하지 않는 기어를 클리닝해서 모으자.\n\n또한 클리닝을 하기 위해서는 {{color id=\"1\"}}돈{{color id=\"65535\"}}이 필요하다.\n기어 파워가 몇 개 붙어 있든 요금은 똑같으니\n가능하면 3개 붙어 있을 때 부탁하자.",
      "TWzh": "如果想要找刺冠幫忙附加自己喜歡的裝備能力，\n就會需要用到{{color id=\"1\"}}裝備能力碎片{{color id=\"65535\"}}，\n漂洗沒在使用的裝備來收集碎片吧！\n\n此外，漂洗時將會需要耗費{{color id=\"1\"}}金錢{{color id=\"65535\"}}，\n無論原本已經附加多少個裝備能力，費用都是相同的，\n所以在附加了3個能力的狀態下漂洗是最划算的喔！",
      "USen": "{{color id=\"1\"}}Gear ability chunks{{color id=\"65535\"}} can be used by Murch\nto add specific abilities to your gear. You can\nget gear ability chunks by having gear scrubbed.\n\nYou'll need {{color id=\"1\"}}cash{{color id=\"65535\"}} to pay for the scrubbing,\nbut the price is the same no matter how many\nabilities are on the gear, meaning you'll get\nthe best value on gear with all three slots full.",
      "USes": "Enrizo puede usar los {{color id=\"1\"}}fragmentos de potenciador{{color id=\"65535\"}}\npara añadir potenciadores a tu equipamiento.\nPuedes obtener fragmentos al restablecer\nobjetos.\n\nPara restablecerlos necesitarás {{color id=\"1\"}}dinero{{color id=\"65535\"}}, pero el\nprecio será el mismo independientemente de\ncuántos potenciadores tenga el objeto, de\nmanera que te resultará más rentable si todas\nlas ranuras están ocupadas.",
      "USfr": "Tipik utilise tes {{color id=\"1\"}}fragments de bonus\nd'équipement{{color id=\"65535\"}} pour ajouter des bonus spécifiques\nà ton équipement. Tu peux obtenir des bonus\nen vidant les emplacements d'un objet.\n\nTipik te demandera de l'{{color id=\"1\"}}argent{{color id=\"65535\"}} pour vider les\nemplacements, mais le prix demeure le même,\nquel que soit le nombre de bonus dont dispose\nl'objet. Le plus avantageux est donc de lui\nconfier des pièces d'équipement dont les\ntrois emplacements sont occupés."
    }
  },
  {
    "label": "Vendor_Cleaning_Title",
    "locale": {
      "CNzh": "清洗能力槽",
      "EUde": "Felder leeren",
      "EUen": "Scrub Slots",
      "EUes": "Limpiar ranuras",
      "EUfr": "Vider les emplacements",
      "EUit": "Svuotare gli slot",
      "EUnl": "Vakjes legen",
      "EUru": "Постирать",
      "JPja": "スロットクリーニング",
      "KRko": "슬롯 클리닝",
      "TWzh": "漂洗能力槽",
      "USen": "Scrub Slots",
      "USes": "Restablecer ranuras",
      "USfr": "Vider les emplacements"
    }
  },
  {
    "label": "Vendor_GesoTown_Manual00",
    "locale": {
      "CNzh": "{{color id=\"1\"}}鱿鱼须商城{{color id=\"65535\"}}是通过互联网服务《{{color id=\"1\"}}鱿鱼圈 3{{color id=\"65535\"}}》\n来预订装备的功能！\n利用此功能可以预订特殊的装备，\n装备能力会与陈列在城镇商店的装备不同哦。\n\n详情请查看《斯普拉遁 3》的官方网站！",
      "EUde": "Mit {{color id=\"1\"}}TentaWorld{{color id=\"65535\"}} kannst du über den {{color id=\"1\"}}SplatNet 3{{color id=\"65535\"}}-\nOnline-Service Ausrüstung bestellen – auch\ndann, wenn du gerade nicht im Spiel bist!\n\nEs gibt sogar besondere Ausrüstung mit\nanderen Effekten als die in den Läden\nvon Splatsville oder Inkopolis!\n\nWeitere Informationen findest du auf\nder offiziellen Website von Splatoon 3.",
      "EUen": "The {{color id=\"1\"}}SplatNet Shop{{color id=\"65535\"}} lets you order gear through\nthe {{color id=\"1\"}}SplatNet 3{{color id=\"65535\"}} online service, meaning you can\norder new gear even when you're not playing!\n\nThere's even gear with unique ability layouts you\nwon't see on the versions sold in Splatsville\nor Inkopolis!\n\nCheck out the official Splatoon 3 website\nto learn more.",
      "EUes": "En la {{color id=\"1\"}}Tentatienda{{color id=\"65535\"}} puedes encargar equipamiento\na través del servicio en línea de {{color id=\"1\"}}Splatnet 3{{color id=\"65535\"}}, es\ndecir, ¡que puedes encargar equipamiento\naunque no estés jugando!\n\n¡Incluso hay equipamiento especial con\npotenciadores que no se encuentran en\nlas tiendas de Tintelia o Cromópolis!\n\nConsulta el sitio web oficial de Splatoon 3\npara obtener más información.",
      "EUfr": "Tu peux commander des pièces d'équipement\nauprès de {{color id=\"1\"}}Céphalochic {{color id=\"65535\"}}en utilisant le service\nen ligne {{color id=\"1\"}}SplatNet 3{{color id=\"65535\"}}. Les commandes peuvent\ndonc être passées même lorsque tu n'es pas\nen train de jouer !\n\nOn y trouve aussi des articles avec des\nconfigurations de bonus uniques que tu\nne trouveras dans aucun magasin de\nCité-Clabousse ou de Chromapolis !\n\nConsulte le site officiel de Splatoon 3 pour\nen savoir plus.",
      "EUit": "La funzione {{color id=\"1\"}}Calama-zone{{color id=\"65535\"}} ti permette di\nordinare equipaggiamento tramite il servizio\nonline {{color id=\"1\"}}SplatNet 3{{color id=\"65535\"}}, perciò puoi effettuare\nordini anche quando non stai giocando!\n\nSono addirittura disponibili oggetti con\nabilità uniche che non troverai nei modelli\nin vendita a Splatville o a Coloropoli!\n\nPer ulteriori informazioni, visita il sito\nufficiale di Splatoon 3.",
      "EUnl": "Dankzij de {{color id=\"1\"}}Tentashop{{color id=\"65535\"}} kun je uitrusting bestellen\nvia de onlinedienst {{color id=\"1\"}}SplatNet 3{{color id=\"65535\"}}, zodat je zelfs\nkunt shoppen voor nieuwe uitrusting terwijl je\nde game niet aan het spelen bent!\n\nEr is zelfs speciale uitrusting te vinden met\nandere effectindelingen dan op de uitrusting\ndie je in de winkels in Splatsville of Inkopolis\nvindt!\n\nKijk op de officiële website van Splatoon 3 voor\nmeer informatie.",
      "EUru": "{{color id=\"1\"}}Магазин «Щупозон»{{color id=\"65535\"}} является частью\nонлайн-сервиса {{color id=\"1\"}}SplatNet 3{{color id=\"65535\"}}. В нем можно\nзаказывать снаряжение, даже когда ты\nне играешь!\n\nТакже в нем можно встретить снаряжение\nс уникальными свойствами. Такое не найдешь\nв магазинах Плюхтона или Инкополя!\n\nПодробную информацию можно узнать на\nофициальном сайте Splatoon 3.",
      "JPja": "{{color id=\"1\"}}ゲソタウン{{color id=\"65535\"}}は、インターネットサービス「{{color id=\"1\"}}イカリング３{{color id=\"65535\"}}」で\n利用できるギア注文機能だ！\n街のショップに並ぶものとはギアパワーがちがう、\nスペシャルなギアを注文できるぞ。\n\nくわしくは、スプラトゥーン3の公式サイトでチェックだ！",
      "KRko": "{{color id=\"1\"}}오징어넷 숍{{color id=\"65535\"}}은 인터넷 서비스\n「{{color id=\"1\"}}오징어넷 3{{color id=\"65535\"}}」에서 제공하는 기어 주문 기능이다!\n도시의 숍에서 파는 상품과는 기어 파워가\n다르게 붙은 스페셜한 기어를 주문할 수 있다.\n\n자세한 내용은\n스플래툰 3의 공식 사이트를 확인하자!",
      "TWzh": "{{color id=\"1\"}}魷魚鬚商城{{color id=\"65535\"}}是可以透過網路服務《{{color id=\"1\"}}魷魚圈 3{{color id=\"65535\"}}》\n預訂裝備的功能！\n與鎮上的商店所販售的品項相比，\n利用此功能預訂的特殊裝備會附加不同的裝備能力喔！\n\n詳細資訊請至《斯普拉遁 3》官方網站查詢！",
      "USen": "The {{color id=\"1\"}}SplatNet Shop{{color id=\"65535\"}} lets you order gear through\nthe {{color id=\"1\"}}SplatNet 3{{color id=\"65535\"}} online service, meaning you can\norder new gear even when you're not playing!\n\nThere's even gear with unique ability layouts you\nwon't see on the versions sold in Splatsville\nor Inkopolis!\n\nCheck out the official Splatoon 3 website\nto learn more.",
      "USes": "En la {{color id=\"1\"}}tienda SplatNet{{color id=\"65535\"}} puedes encargar\nequipamiento a través del servicio en línea de\n{{color id=\"1\"}}Splatnet 3{{color id=\"65535\"}}, es decir, ¡que puedes encargar\nequipamiento aunque no estés jugando!\n\n¡Incluso hay equipamiento con combinaciones\nde potenciadores únicas que no encontrarás\nen las versiones que se venden en Tintelia\no Cromópolis!\n\nConsulta el sitio web oficial de Splatoon 3 para\nobtener más información.",
      "USfr": "Tu peux commander des pièces d'équipement\nauprès de la {{color id=\"1\"}}Boutique SplatNet{{color id=\"65535\"}} en utilisant\nle service en ligne {{color id=\"1\"}}SplatNet 3{{color id=\"65535\"}}. Les commandes\npeuvent donc être passées même lorsque\ntu n'es pas en train de jouer!\n\nOn y trouve aussi des articles avec des\nconfigurations de bonus uniques que tu\nne trouveras dans aucun magasin de\nCité-Clabousse ou de Chromapolis!\n\nConsulte le site officiel de Splatoon 3 pour\nen savoir plus."
    }
  },
  {
    "label": "Vendor_GesoTown_Manual01",
    "locale": {
      "CNzh": "通过鱿鱼须商城预订的装备同时{{color id=\"1\"}}只能存在1件{{color id=\"65535\"}}。\n不过预订的装备会立刻送到刺冠那里，\n领取后就能继续预订哦。\n\n如果有想要的装备，就千万不要错过！",
      "EUde": "Du kannst bei TentaWorld immer nur\n{{color id=\"1\"}}ein Ausrüstungsteil auf einmal{{color id=\"65535\"}} bestellen.\nAllerdings werden diese Bestellungen sofort\nzu Sid geliefert, und du kannst nach Abholung\ndeiner Bestellung direkt die nächste aufgeben.\n\nLass dir kein Ausrüstungsteil entgehen!",
      "EUen": "Only {{color id=\"1\"}}1 piece{{color id=\"65535\"}} of gear can be ordered from the\nSplatNet Shop at a time. However, those orders\nare delivered to Murch immediately, and another\norder can be made as soon as it's picked up.\n\nNever miss a chance to get gear you want!",
      "EUes": "En la Tentatienda solo se puede encargar\n{{color id=\"1\"}}1 objeto{{color id=\"65535\"}} a la vez. Pero como los pedidos le llegan\na Enrizo inmediatamente, en cuanto se recoge\nuno, ya se puede encargar otro.\n\n¡Nunca pierdas la ocasión de hacerte con el\nequipamiento que necesitas!",
      "EUfr": "Tu ne peux commander qu'{{color id=\"1\"}}une seule pièce{{color id=\"65535\"}}\nd'équipement auprès de Céphalochic à la fois.\nToutefois, ces commandes sont instantanément\nlivrées à Tipik, et une autre commande peut être\npassée dès que l'article est récupéré.\n\nMets toutes les chances de ton côté pour\nréunir l'équipement de tes rêves !",
      "EUit": "Tramite Calama-zone puoi ordinare {{color id=\"1\"}}1 solo\noggetto {{color id=\"65535\"}}alla volta. Tuttavia, questi ordini\nvengono consegnati immediatamente a\nEchino e, non appena ritirato un ordine,\npuoi subito effettuarne un altro.\n\nNon perdere l'occasione di ottenere\nl'equipaggiamento dei tuoi sogni!",
      "EUnl": "Je kunt maar {{color id=\"1\"}}één stuk {{color id=\"65535\"}}uitrusting tegelijk\nbestellen in de Tentashop, maar deze bestelling\nwordt direct bezorgd bij Mikey. Zodra je je\nbestelling hebt opgehaald, kun je meteen\neen nieuwe plaatsen.\n\nZo kun je altijd wel een bijzonder stuk uitrusting\nin handen krijgen!",
      "EUru": "В «Щупозоне» можно заказать только {{color id=\"1\"}}один{{color id=\"65535\"}}\n{{color id=\"1\"}}предмет {{color id=\"65535\"}}снаряжения за раз, но такие\nзаказы мгновенно доставляются Иглюхе!\nЗабрав заказ, можно сразу делать новый.\n\nНе упусти возможность получить желанное\nснаряжение!",
      "JPja": "ゲソタウンで注文できるギアは、同時に{{color id=\"1\"}}１つだけ{{color id=\"65535\"}}だ。\nただし、注文するとすぐにスパイキーのところへ届いて、\n受け取れば次の注文ができるようになるぞ。\n\n欲しいギアは、のがさずゲットしよう！",
      "KRko": "오징어넷 숍의 동시 주문 가능 수는 {{color id=\"1\"}}1개뿐{{color id=\"65535\"}}이다.\n단, 주문하면 바로 스파이키에게 도착하고\n수령하면 다음 주문을 할 수 있다.\n\n가지고 싶은 기어는 놓치지 말고 획득하자!",
      "TWzh": "同一時間可以透過魷魚鬚商城預訂最多{{color id=\"1\"}}1個裝備{{color id=\"65535\"}}，\n不過在預訂之後裝備就會馬上配送到刺冠的手裡，\n只要領取完成就能繼續預訂囉！\n\n看到想要的裝備就通通買下來吧！",
      "USen": "Only {{color id=\"1\"}}1 piece{{color id=\"65535\"}} of gear can be ordered from the\nSplatNet Shop at a time. However, those orders\nare delivered to Murch immediately, and another\norder can be made as soon as it's picked up.\n\nNever miss a chance to get gear you want!",
      "USes": "En la tienda SplatNet solo se puede encargar\n{{color id=\"1\"}}1 objeto{{color id=\"65535\"}} a la vez. Pero como los pedidos le llegan\na Enrizo inmediatamente, en cuanto se recoge\nuno, ya se puede encargar otro.\n\n¡Nunca pierdas la oportunidad de conseguir el\nequipamiento que necesitas!",
      "USfr": "Tu ne peux commander qu'{{color id=\"1\"}}une seule pièce{{color id=\"65535\"}}\nd'équipement auprès de la Boutique SplatNet\nà la fois. Toutefois, ces commandes sont\ninstantanément livrées à Tipik, et une autre\ncommande peut être passée dès que l'article\nest récupéré.\n\nMets toutes les chances de ton côté pour\nréunir l'équipement de tes rêves!"
    }
  },
  {
    "label": "Vendor_GesoTown_Title",
    "locale": {
      "CNzh": "关于鱿鱼须商城",
      "EUde": "Infos zu TentaWorld",
      "EUen": "About the SplatNet Shop",
      "EUes": "Acerca de la Tentatienda",
      "EUfr": "Céphalochic",
      "EUit": "Calama-zone",
      "EUnl": "Over de Tentashop",
      "EUru": "О «Щупозоне»",
      "JPja": "ゲソタウンについて",
      "KRko": "오징어넷 숍에 대하여",
      "TWzh": "關於魷魚鬚商城",
      "USen": "About the SplatNet Shop",
      "USes": "Envío de SplatNet",
      "USfr": "Boutique SplatNet"
    }
  },
  {
    "label": "Vendor_Increase_Rarity_Manual00",
    "locale": {
      "CNzh": "只要刺冠帮忙，或是当商店\n正在售卖相同装备时找店员帮忙，\n就可以提升装备的{{color id=\"1\"}}稀有度{{color id=\"65535\"}}哦！\n\n提升稀有度可以增加{{color id=\"1\"}}追加装备能力的专用能力槽{{color id=\"65535\"}}，\n还可以获得更多{{color id=\"1\"}}装备的经验值{{color id=\"65535\"}}。\n尽情地给自己常用的装备提升稀有度吧！",
      "EUde": "Der {{color id=\"1\"}}Sternenwert{{color id=\"65535\"}} deiner Ausrüstung kann auf\nzweierlei Art erhöht werden: Geh zu Sid und\nfrag ihn danach, oder warte, bis das gleiche\nAusrüstungsteil in einem Laden verfügbar\nwird, und kaufe es dann erneut.\n\nDurch Erhöhen des Sternenwerts erhält dein\nAusrüstungsteil {{color id=\"1\"}}mehr Felder für Effekte{{color id=\"65535\"}} und\nauch die {{color id=\"1\"}}dafür erhaltene Erfahrung {{color id=\"65535\"}}steigt.\nBei Ausrüstungsteilen, die du gern einsetzen\nmöchtest, lohnt sich eine Erhöhung des\nSternenwertes also definitiv!",
      "EUen": "You can boost your gear's {{color id=\"1\"}}star power{{color id=\"65535\"}} by asking\nMurch, or by rebuying the same item when\nyou see it in stock in a shop.\n\nBoosting star power gives gear {{color id=\"1\"}}more ability slots{{color id=\"65535\"}}\nand makes it earn more {{color id=\"1\"}}gear experience{{color id=\"65535\"}}. If you\nhave any gear you use a lot, you'll definitely\nwant to boost its star power!",
      "EUes": "Puedes aumentar la {{color id=\"1\"}}exclusividad{{color id=\"65535\"}} de un objeto\nhablando con Enrizo o comprando de nuevo\nel mismo objeto en una tienda que lo tenga.\n\nAl volverse más exclusivo, el objeto {{color id=\"1\"}}puede\ncontar con más ranuras para potenciadores{{color id=\"65535\"}}\ny se incrementa la {{color id=\"1\"}}experiencia {{color id=\"65535\"}}que puede\nobtener. Si hay algún objeto que usas mucho,\n¡te convendrá aumentarle su exclusividad!",
      "EUfr": "Le nombre d'étoiles de l'équipement peut être\naugmenté par {{color id=\"1\"}}Tipik {{color id=\"65535\"}}ou en rachetant à un\ncommerçant une pièce d'équipement dont\ntu disposes déjà.\n\nPlus un objet a d'étoiles, {{color id=\"1\"}}plus il dispose\nd'emplacements pour les bonus{{color id=\"65535\"}}, et plus\nil emmagasine d'{{color id=\"1\"}}expérience{{color id=\"65535\"}}. S'il y a un\nobjet que tu utilises beaucoup, n'hésite\npas à en augmenter le nombre d'étoiles !",
      "EUit": "La {{color id=\"1\"}}mitilicità {{color id=\"65535\"}}degli oggetti può essere aumentata\nchiedendo a Echino o riacquistando lo stesso\noggetto quando è disponibile in un negozio.\n\nAumentare la mitilicità di un oggetto significa\n{{color id=\"1\"}}aggiungere slot abilità{{color id=\"65535\"}} e {{color id=\"1\"}}incrementare\nl'esperienza{{color id=\"65535\"}} che ottieni usandolo. Se hai\noggetti che usi molto, ti conviene senz'altro\nrenderli più mitilici possibile!",
      "EUnl": "De {{color id=\"1\"}}zeldzaamheid {{color id=\"65535\"}}van uitrusting kan worden\nverhoogd door Mikey te vragen om dat voor je te\ndoen, of door hetzelfde stuk uitrusting te kopen\nwanneer je het tegenkomt in een winkel.\n\nHet verhogen van de zeldzaamheid geeft de\nuitrusting {{color id=\"1\"}}meer effectvakjes{{color id=\"65535\"}}, en zorgt dat je er\n{{color id=\"1\"}}meer ervaring{{color id=\"65535\"}} mee verdient. Als je bepaalde\nuitrusting graag gebruikt, dan is het zeker\nzinvol om de zeldzaamheid ervan te verhogen!",
      "EUru": "Количество {{color id=\"1\"}}звезд {{color id=\"65535\"}}снаряжения можно\nувеличить, поговорив с Иглюхой\nили купив один и тот же предмет еще раз.\n\nЧем больше у снаряжения звезд, тем больше\nу него {{color id=\"1\"}}слотов под свойства{{color id=\"65535\"}}. {{color id=\"1\"}}Получаемый опыт{{color id=\"65535\"}}\nтакже увеличивается. Если у тебя есть любимое\nснаряжение, обязательно добавь ему звезд!",
      "JPja": "ギアの{{color id=\"1\"}}レア度{{color id=\"65535\"}}は スパイキーにお願いするか、\nショップに同じギアが並んだときに店員に頼むと\n上げることができるぞ！\n\nレア度を上げると{{color id=\"1\"}}追加ギアパワー用のスロット{{color id=\"65535\"}}が増えたり\n{{color id=\"1\"}}ギアのケイケン値{{color id=\"65535\"}}が多くもらえるようになったりする。\nよく使うギアは レア度をどんどん上げよう！",
      "KRko": "기어의 {{color id=\"1\"}}레어도{{color id=\"65535\"}}는 스파이키에게 부탁하거나\n숍에 같은 기어가 나왔을 때 점원에게 부탁하면\n올릴 수 있다!\n\n레어도를 올리면 {{color id=\"1\"}}추가 기어 파워용 슬롯{{color id=\"65535\"}}이 늘거나\n{{color id=\"1\"}}기어 경험치{{color id=\"65535\"}}를 많이 받을 수 있게 된다.\n자주 사용하는 기어는 적극적으로 레어도를 올리자!",
      "TWzh": "只要找刺冠幫忙，\n或是當商店正在販售相同的裝備時找店員幫忙，\n就可以提升裝備的{{color id=\"1\"}}稀有度{{color id=\"65535\"}}囉！\n\n提升稀有度可以增加{{color id=\"1\"}}追加裝備能力專用能力槽{{color id=\"65535\"}}，\n並獲得更多的{{color id=\"1\"}}裝備經驗值{{color id=\"65535\"}}。\n盡情地幫自己常用的裝備提升稀有度吧！",
      "USen": "You can boost your gear's {{color id=\"1\"}}star power{{color id=\"65535\"}} by asking\nMurch, or by rebuying the same item when\nyou see it in stock in a shop.\n\nBoosting star power gives gear {{color id=\"1\"}}more ability slots{{color id=\"65535\"}}\nand makes it earn more {{color id=\"1\"}}gear experience{{color id=\"65535\"}}. If you\nhave any gear you use a lot, you'll definitely\nwant to boost its star power!",
      "USes": "Puedes aumentar las {{color id=\"1\"}}estrellas{{color id=\"65535\"}} de un objeto\nhablando con Enrizo o comprando de nuevo\nel mismo objeto en una tienda que lo tenga.\n\nAl adquirir más estrellas, el objeto {{color id=\"1\"}}puede\ncontar con más ranuras para potenciadores{{color id=\"65535\"}}\ny se incrementa la {{color id=\"1\"}}experiencia {{color id=\"65535\"}}que puede\nobtener. Si hay algún objeto que usas mucho,\n¡te convendrá añadirle más estrellas!",
      "USfr": "Le nombre d'étoiles de l'équipement peut être\naugmenté par {{color id=\"1\"}}Tipik {{color id=\"65535\"}}ou en rachetant à un\ncommerçant une pièce d'équipement dont\ntu disposes déjà.\n\nPlus un objet a d'étoiles, {{color id=\"1\"}}plus il dispose\nd'emplacements pour les bonus{{color id=\"65535\"}}, et plus\nil emmagasine d'{{color id=\"1\"}}expérience{{color id=\"65535\"}}. S'il y a un\nobjet que tu utilises beaucoup, n'hésite\npas à en augmenter le nombre d'étoiles!"
    }
  },
  {
    "label": "Vendor_Increase_Rarity_Manual01",
    "locale": {
      "CNzh": "就算是商店没有售卖的{{color id=\"1\"}}非卖品装备{{color id=\"65535\"}}，\n也可以找刺冠帮忙提升稀有度哦。\n如果想给中意的非卖品装备提升稀有度，就去找他吧。\n\n另外，找刺冠帮忙时需要消耗{{color id=\"1\"}}超级蝾螺{{color id=\"65535\"}}。\n稀有度越高，需要的超级蝾螺也会越多，\n所以在提升装备稀有度时必须谨慎做出选择。",
      "EUde": "Sid kann sogar den Sternenwert von\nAusrüstungsteilen erhöhen, die überhaupt\nnicht in Läden erhältlich sind! Sprich ihn\neinfach an, wenn du ein Lieblingsstück hast,\ndas du aufwerten möchtest.\n\nZum Erhöhen des Sternenwerts von Ausrüstung\nbraucht Sid {{color id=\"1\"}}Supermuscheln{{color id=\"65535\"}}. Und je höher der\nSternenwert, desto mehr Supermuscheln\nbenötigt er. Überleg dir also gut, wie du sie\nausgibst!",
      "EUen": "Murch can also boost the star power of gear that\n{{color id=\"1\"}}isn't for sale {{color id=\"65535\"}}in shops. If you have a favorite piece\nof gear, be sure to ask him about it.\n\nMurch needs {{color id=\"1\"}}Super Sea Snails{{color id=\"65535\"}} to boost star\npower, and the higher it is to begin with,\nthe more Super Sea Snails he'll need.\nChoose your upgrades wisely!",
      "EUes": "Enrizo puede también aumentar la exclusividad\nde objetos que {{color id=\"1\"}}no están a la venta {{color id=\"65535\"}}en tiendas.\nSi tienes un objeto favorito, no dejes de hablar\ncon él.\n\nPara aumentar la exclusividad de un objeto,\nEnrizo emplea {{color id=\"1\"}}supermoluscos{{color id=\"65535\"}} y, cuanto más\nexclusivo sea, más supermoluscos va a\nnecesitar, ¡así que elige con cuidado!",
      "EUfr": "Tipik peut également augmenter le nombre\nd'étoiles d'une pièce d'équipement {{color id=\"1\"}}introuvable\nen boutique{{color id=\"65535\"}}. Parle-lui de tes objets préférés !\n\nTipik demande des {{color id=\"1\"}}super coquillages{{color id=\"65535\"}} en échange.\nPlus une pièce d'équipement a d'étoiles, plus le\nprix en super coquillages est élevé. Choisis\ndonc tes augmentations avec discernement !",
      "EUit": "Echino può aumentare la mitilicità anche\ndi oggetti {{color id=\"1\"}}non in vendita{{color id=\"65535\"}} nei negozi. Se hai\nun oggetto preferito, rivolgiti a lui.\n\nPer aumentare la mitilicità, a Echino servono\n{{color id=\"1\"}}super molluschi{{color id=\"65535\"}}. Più elevata è la mitilicità,\npiù super molluschi dovrai portargli. Scegli\ncon saggezza i tuoi potenziamenti!",
      "EUnl": "Mikey kan ook de zeldzaamheid verhogen van\nuitrusting die {{color id=\"1\"}}niet in winkels te koop{{color id=\"65535\"}} is. Als je\neen favoriet stuk uitrusting hebt, vraag hem er\ndan zeker eens naar.\n\nMikey vereist {{color id=\"1\"}}superzeeslakken {{color id=\"65535\"}}om de\nzeldzaamheid van uitrusting te verhogen, en hoe\nzeldzamer uitrusting is, hoe meer slakken hij\nvraagt. Kies dus wel een beetje zorgvuldig waar\nje ze aan uitgeeft!",
      "EUru": "Иглюха может добавлять звезды снаряжению,\nкоторое {{color id=\"1\"}}не выставлено на продажу{{color id=\"65535\"}}. Не забудь\nпринести ему свое любимое снаряжение!\n\nЧтобы добавить звезды, Иглюхе понадобятся\n{{color id=\"1\"}}круть-улитки{{color id=\"65535\"}}. Чем больше звезд у снаряжения\nуже есть, тем больше нужно круть-улиток.\nДобавляй звезды с умом!",
      "JPja": "ショップに並ばない{{color id=\"1\"}}非売品のギア{{color id=\"65535\"}}も、\nスパイキーならレア度を上げることができるぞ。\nお気に入りのギアがあったら頼んでみよう。\n\nなお、スパイキーに頼むときは{{color id=\"1\"}}スーパーサザエ{{color id=\"65535\"}}が必要だ。\nレア度が高いほど、必要なスーパーサザエも多くなる。\nどのギアのレア度を上げるかは慎重に決めよう。",
      "KRko": "숍에서 구입할 수 없는 {{color id=\"1\"}}비매품 기어{{color id=\"65535\"}}도\n스파이키에게 부탁하면 레어도를 올릴 수 있다.\n마음에 드는 기어가 있다면 부탁해 보자.\n\n스파이키에게 부탁할 때는 {{color id=\"1\"}}슈퍼 소라{{color id=\"65535\"}}가 필요하다.\n레어도가 높을수록 필요한 슈퍼 소라도 많아지므로\n어느 기어의 레어도를 올릴지는 신중하게 정하자.",
      "TWzh": "就算是商店沒有販售的{{color id=\"1\"}}非賣品裝備{{color id=\"65535\"}}\n也可以拿去找刺冠幫忙提升稀有度喔！\n如果想提升自己喜歡的非賣品裝備就去找他吧！\n\n此外，找刺冠幫忙時將會需要耗費{{color id=\"1\"}}超級蠑螺{{color id=\"65535\"}}，\n稀有度越高，需要的超級蠑螺也會越多。\n在決定要提升哪個裝備的稀有度時，務必謹慎。",
      "USen": "Murch can also boost the star power of gear that\n{{color id=\"1\"}}isn't for sale {{color id=\"65535\"}}in shops. If you have a favorite piece\nof gear, be sure to ask him about it.\n\nMurch needs {{color id=\"1\"}}Super Sea Snails{{color id=\"65535\"}} to boost star\npower, and the higher it is to begin with,\nthe more Super Sea Snails he'll need.\nChoose your upgrades wisely!",
      "USes": "Enrizo puede también aumentar las estrellas\nde objetos que {{color id=\"1\"}}no están a la venta {{color id=\"65535\"}}en las\ntiendas. Si tienes un objeto favorito, asegúrate\nde hablar con él.\n\nPara aumentar las estrellas de un objeto,\nEnrizo emplea {{color id=\"1\"}}supermoluscos{{color id=\"65535\"}} y, cuantas más\nestrellas tenga, más supermoluscos va a\nnecesitar, ¡así que elige con cuidado!",
      "USfr": "Tipik peut également augmenter le nombre\nd'étoiles d'une pièce d'équipement {{color id=\"1\"}}introuvable\nen boutique{{color id=\"65535\"}}. Parle-lui de tes objets préférés!\n\nTipik demande des {{color id=\"1\"}}super coquillages{{color id=\"65535\"}} en échange.\nPlus une pièce d'équipement a d'étoiles, plus le\nprix en super coquillages est élevé. Choisis\ndonc tes augmentations avec discernement!"
    }
  },
  {
    "label": "Vendor_Increase_Rarity_Title",
    "locale": {
      "CNzh": "提升装备稀有度",
      "EUde": "Sternenwert von Ausrüstung erhöhen",
      "EUen": "Boost Star Power",
      "EUes": "Aumentar la exclusividad del equipamiento",
      "EUfr": "Ajouter des étoiles",
      "EUit": "Aumentare la mitilicità",
      "EUnl": "Zeldzaamheid verhogen",
      "EUru": "Добавить звезды",
      "JPja": "ギアのレア度アップ",
      "KRko": "기어 레어도 업",
      "TWzh": "提升裝備稀有度",
      "USen": "Boost Star Power",
      "USes": "Más estrellas",
      "USfr": "Ajouter des étoiles"
    }
  },
  {
    "label": "Vendor_Order_Manual00",
    "locale": {
      "CNzh": "只要与{{color id=\"1\"}}位于广场的玩家{{color id=\"65535\"}}搭话，\n就能{{color id=\"1\"}}向刺冠预订{{color id=\"65535\"}}该玩家穿戴的装备，\n并请他帮忙调货哦。\n如果看到感兴趣的装备就尝试预订吧！\n\n最多可以同时预订{{color id=\"1\"}}3件{{color id=\"65535\"}}装备。\n已经预订3件装备时也可以预订其他新装备，\n不过预订时需要取消其中1个订单哦。",
      "EUde": "Wenn du {{color id=\"1\"}}auf dem Platz mit anderen Spielern{{color id=\"65535\"}}\nsprichst und dabei Ausrüstung siehst, die dir\ngefällt, kannst du sie bei {{color id=\"1\"}}Sid {{color id=\"65535\"}}bestellen!\n\nDu kannst {{color id=\"1\"}}bis zu drei Ausrüstungsteile{{color id=\"65535\"}}\ngleichzeitig bestellen. Wenn du bereits drei\nausstehende Bestellungen hast und dann noch\netwas bestellst, wird eine der bestehenden\nBestellungen storniert.",
      "EUen": "If you see a piece of gear you like when talking\nto {{color id=\"1\"}}other players in the square{{color id=\"65535\"}}, ask {{color id=\"1\"}}Murch{{color id=\"65535\"}} to\norder it for you!\n\nYou can order {{color id=\"1\"}}up to 3{{color id=\"65535\"}} pieces of gear at a time.\nIf you already have three orders in progress and\nsee another item you want, you can order it, but\none of your existing orders will be canceled.",
      "EUes": "Cuando hables con {{color id=\"1\"}}otros jugadores en la plaza{{color id=\"65535\"}},\nsi ves que llevan algún objeto que te guste,\n¡pídele a {{color id=\"1\"}}Enrizo{{color id=\"65535\"}} que te lo encargue!\n\nPuedes encargar {{color id=\"1\"}}hasta 3 {{color id=\"65535\"}}objetos a la vez. Si ya\ntienes tres pedidos en marcha y ves otro objeto\nque te gusta, podrás encargarlo, pero se\ncancelará alguno de los otros pedidos.",
      "EUfr": "Si tu repères une pièce d'équipement en\ndiscutant avec {{color id=\"1\"}}d'autres joueurs sur le square{{color id=\"65535\"}},\ndemande à {{color id=\"1\"}}Tipik {{color id=\"65535\"}}de la commander pour toi !\n\nTu peux commander {{color id=\"1\"}}jusqu'à trois{{color id=\"65535\"}} pièces à\nla fois. Si trois commandes sont déjà en cours\net qu'un objet te fait envie, tu peux tout de\nmême le commander, mais une de tes commandes\nprécédentes devra être annulée.",
      "EUit": "Se vedi un oggetto che ti piace quando\nparli con {{color id=\"1\"}}gli altri giocatori in piazza{{color id=\"65535\"}}, chiedi\na {{color id=\"1\"}}Echino {{color id=\"65535\"}}di ordinarlo per te!\n\nPuoi ordinare {{color id=\"1\"}}fino a 3{{color id=\"65535\"}} oggetti alla volta.\nSe hai già 3 ordini in corso e vedi un altro\noggetto che ti interessa, puoi ordinarlo,\nma dovrai disdire uno degli ordini esistenti.",
      "EUnl": "Als je {{color id=\"1\"}}andere spelers {{color id=\"65535\"}}aanspreekt {{color id=\"1\"}}op het plein{{color id=\"65535\"}}\ndie uitrusting dragen die je wel bevalt, dan\nkun je die bestellen bij {{color id=\"1\"}}Mikey{{color id=\"65535\"}}!\n\nJe kunt {{color id=\"1\"}}maximaal drie stuks{{color id=\"65535\"}} uitrusting tegelijk\nbestellen. Als je al drie bestellingen hebt lopen\nen nog een voorwerp ziet dat je hartje begeert,\nkun je het wel bestellen, maar dan wordt een van\nje huidige bestellingen geannuleerd.",
      "EUru": "Если тебе приглянулось снаряжение {{color id=\"1\"}}других\nигроков на площади{{color id=\"65535\"}}, попроси {{color id=\"1\"}}Иглюху{{color id=\"65535\"}} заказать\nтебе такое же!\n\nМожно заказать {{color id=\"1\"}}до 3 вещей{{color id=\"65535\"}} за раз. При\nзаказе четвертой вещи один из твоих\nпредыдущих заказов будет отменен.",
      "JPja": "{{color id=\"1\"}}広場にいるプレイヤー{{color id=\"65535\"}}に話しかけると、\nその人が着ているギアを {{color id=\"1\"}}スパイキーに注文{{color id=\"65535\"}}して\n取り寄せてもらうことができるぞ。\n気になるギアを見つけたら注文してみよう！\n\nギアは同時に{{color id=\"1\"}}３つまで{{color id=\"65535\"}}注文できる。\n３つ注文済みでも 別のギアを新しく注文できるが、\nそのときは どれか１つ注文を取り消すことになるぞ。",
      "KRko": "{{color id=\"1\"}}광장에 있는 플레이어{{color id=\"65535\"}}에게 말을 걸면\n그 사람이 입고 있는 기어를\n{{color id=\"1\"}}스파이키에게 주문{{color id=\"65535\"}}해서 받을 수 있다.\n마음에 드는 기어를 찾으면 주문해 보자!\n\n기어는 동시에 {{color id=\"1\"}}3개까지{{color id=\"65535\"}} 주문할 수 있다.\n3개를 주문한 상태에서도 새로운 주문을 할 수 있지만\n대신 주문한 것 중 1개를 취소해야 한다.",
      "TWzh": "只要和{{color id=\"1\"}}廣場上的玩家{{color id=\"65535\"}}交談，\n就能{{color id=\"1\"}}向刺冠預訂{{color id=\"65535\"}}該玩家身上穿的裝備，\n並請他幫忙調貨喔！\n如果看到了有興趣的裝備就預訂看看吧！\n\n同一時間可以預訂{{color id=\"1\"}}最多3個{{color id=\"65535\"}}裝備，\n在已預訂3個裝備之後，雖然還是可以預訂其他新裝備，\n但是預訂時將會必須取消其中1個舊訂單喔！",
      "USen": "If you see a piece of gear you like when talking\nto {{color id=\"1\"}}other players in the square{{color id=\"65535\"}}, ask {{color id=\"1\"}}Murch{{color id=\"65535\"}} to\norder it for you!\n\nYou can order {{color id=\"1\"}}up to 3{{color id=\"65535\"}} pieces of gear at a time.\nIf you already have three orders in progress and\nsee another item you want, you can order it, but\none of your existing orders will be canceled.",
      "USes": "Cuando hables con {{color id=\"1\"}}otros jugadores en la plaza{{color id=\"65535\"}},\nsi ves que llevan algún objeto que te guste,\n¡pídele a {{color id=\"1\"}}Enrizo{{color id=\"65535\"}} que te lo encargue!\n\nPuedes encargar {{color id=\"1\"}}hasta 3 {{color id=\"65535\"}}objetos a la vez. Si ya\ntienes tres pedidos en marcha y ves otro objeto\nque te gusta, podrás encargarlo, pero se\ncancelará alguno de los otros pedidos.",
      "USfr": "Si tu repères une pièce d'équipement en\ndiscutant avec {{color id=\"1\"}}d'autres joueurs sur le carré{{color id=\"65535\"}},\ndemande à {{color id=\"1\"}}Tipik {{color id=\"65535\"}}de la commander pour toi!\n\nTu peux commander {{color id=\"1\"}}jusqu'à trois{{color id=\"65535\"}} pièces à\nla fois. Si trois commandes sont déjà en cours\net qu'un objet te fait envie, tu peux tout de\nmême le commander, mais une de tes commandes\nprécédentes devra être annulée."
    }
  },
  {
    "label": "Vendor_Order_Manual01",
    "locale": {
      "CNzh": "预订的装备会以{{color id=\"1\"}}1天1件{{color id=\"65535\"}}的速度依次送达，\n到时候就去找刺冠领取吧。\n要是运气好的话，送来的装备可能\n附加着与预订时一样的装备能力哦！\n\n不过领取装备时需要花费{{color id=\"1\"}}金钱{{color id=\"65535\"}}。\n装备能力与原装备的相似度越高，\n价格也会越高，需要多加注意。",
      "EUde": "Sid erhält die Ausrüstungsteile in der\nReihenfolge ihrer Bestellung, aber immer nur\n{{color id=\"1\"}}ein Teil pro Tag{{color id=\"65535\"}}. Wenn du Glück hast, verfügt\ndein bestelltes Ausrüstungsteil sogar über\ndieselben Effekte wie das, das ursprünglich\ndeine Aufmerksamkeit erregt hat.\n\nEine Bestellung kostet {{color id=\"1\"}}Geld{{color id=\"65535\"}}, und je näher am\nOriginal das bestellte Ausrüstungsteil am Ende \nausfällt, desto höher fällt auch der Preis aus.",
      "EUen": "Murch will receive your gear orders in the order\nthey were received, {{color id=\"1\"}}1 piece per day{{color id=\"65535\"}}. If you get\nreally lucky, the gear will even come with the\nsame abilities as the one that caught your eye.\n\nYou will need {{color id=\"1\"}}cash{{color id=\"65535\"}} to take delivery of your\norder, and the closer the gear you ordered\nis to the original, the more it will cost.",
      "EUes": "Enrizo recibirá tus pedidos en el orden en que\nse hayan encargado, {{color id=\"1\"}}uno por día{{color id=\"65535\"}}. Con un poco\nde suerte, el objeto vendrá con los mismos\npotenciadores que tenía el que llamó tu atención.\n\nPara recibir el pedido te hará falta {{color id=\"1\"}}dinero{{color id=\"65535\"}}.\nCuanto más se parezca al objeto que habías\nvisto originalmente, más costará.",
      "EUfr": "Tipik réceptionne tes commandes dans l'ordre où\nelles ont été prises et à raison d'{{color id=\"1\"}}un objet par\njour{{color id=\"65535\"}}. Si tu as beaucoup de chance, l'article reçu\nsera agrémenté des mêmes bonus que celui\nque tu avais repéré sur la place.\n\nTu auras besoin d'{{color id=\"1\"}}argent{{color id=\"65535\"}} pour récupérer ta\ncommande. Plus l'article est fidèle à l'original,\nplus le prix est élevé.",
      "EUit": "Echino riceverà i tuoi oggetti nell'ordine\nin cui li hai richiesti, {{color id=\"1\"}}1 oggetto al giorno{{color id=\"65535\"}}.\nCon un po' di fortuna, gli oggetti potrebbero\npresentare le stesse abilità di quello che ha\nattirato la tua attenzione.\n\nTi serve {{color id=\"1\"}}denaro {{color id=\"65535\"}}per ritirare la consegna.\nPiù l'oggetto ordinato è simile all'originale,\npiù costerà.",
      "EUnl": "Mikey ontvangt de uitrusting die je hebt besteld\nin de volgorde waarin je je bestellingen hebt\ngeplaatst, maar hij krijgt maar {{color id=\"1\"}}één artikel per\ndag {{color id=\"65535\"}}binnen. Als je een hoop mazzel hebt, heeft\nde uitrusting dezelfde effecten als het\norigineel dat je tegenkwam op het plein.\n\nJe zult het artikel dat je hebt besteld wel\nmoeten kopen voor {{color id=\"1\"}}geld{{color id=\"65535\"}}, en hoe meer het artikel\nlijkt op het origineel, hoe meer het kost.",
      "EUru": "Твои заказы будут приходить к Иглюхе {{color id=\"1\"}}по\nодному в день{{color id=\"65535\"}}. Если повезет, то у твоего\nснаряжения будут те же свойства, что и у\nснаряжения, которое тебе приглянулось.\n\nНе забудь про {{color id=\"1\"}}деньги{{color id=\"65535\"}}! Они понадобятся, чтобы\nзабрать заказ. Чем ближе снаряжение\nк оригинальному, тем оно дороже.",
      "JPja": "注文したギアは{{color id=\"1\"}}１日に１つずつ{{color id=\"65535\"}}順番に届くので\nスパイキーのところへ受け取りに行こう。\n運が良ければ、注文した時と同じギアパワーが\n付いているギアを持ってきてくれるぞ。\n\nただし、受け取るには{{color id=\"1\"}}おカネ{{color id=\"65535\"}}が必要だ。\n元のギアとギアパワーが似ているものほど\n値段が高くなっていくので注意しよう。",
      "KRko": "주문한 기어는 {{color id=\"1\"}}하루에 1개씩{{color id=\"65535\"}} 순서대로 도착하니\n스파이키에게 수령하러 가자.\n운이 좋으면 주문했을 때와 같은 기어 파워가\n붙어 있는 기어를 가져다줄 거다.\n\n단, 수령하기 위해서는 {{color id=\"1\"}}돈{{color id=\"65535\"}}이 필요하다.\n원래의 기어와 기어 파워가 비슷할수록\n가격이 올라가니 주의하자.",
      "TWzh": "預訂的裝備會以{{color id=\"1\"}}1天1個{{color id=\"65535\"}}的速度依序送達，\n到時候就去找刺冠領取吧！\n要是運氣好的話，裝備上附加的裝備能力\n還有可能會跟預訂時一樣喔！\n\n不過領取裝備時將會需要耗費{{color id=\"1\"}}金錢{{color id=\"65535\"}}，\n裝備能力與原裝備的相似度越高，價格也會越高，\n必須多加注意。",
      "USen": "Murch will receive your gear orders in the order\nthey were received, {{color id=\"1\"}}1 piece per day{{color id=\"65535\"}}. If you get\nreally lucky, the gear will even come with the\nsame abilities as the one that caught your eye.\n\nYou will need {{color id=\"1\"}}cash{{color id=\"65535\"}} to take delivery of your\norder, and the closer the gear you ordered\nis to the original, the more it will cost.",
      "USes": "Enrizo recibirá tus pedidos en el orden en que\nse hayan encargado, {{color id=\"1\"}}uno por día{{color id=\"65535\"}}. Con un poco\nde suerte, el objeto vendrá con los mismos\npotenciadores que tenía el que llamó tu atención.\n\nPara recibir el pedido te hará falta {{color id=\"1\"}}dinero{{color id=\"65535\"}}.\nCuanto más se parezca al objeto que habías\nvisto originalmente, más costará.",
      "USfr": "Tipik réceptionne tes commandes dans l'ordre où\nelles ont été prises et à raison d'{{color id=\"1\"}}un objet par\njour{{color id=\"65535\"}}. Si tu as beaucoup de chance, l'article reçu\nsera agrémenté des mêmes bonus que celui\nque tu avais repéré sur le carré.\n\nTu auras besoin d'{{color id=\"1\"}}argent{{color id=\"65535\"}} pour récupérer ta\ncommande. Plus l'article est fidèle à l'original,\nplus le prix est élevé."
    }
  },
  {
    "label": "Vendor_Order_Title",
    "locale": {
      "CNzh": "装备的预订与领取",
      "EUde": "Bestellstatus",
      "EUen": "Gear Order Status",
      "EUes": "Estado del pedido",
      "EUfr": "Récupérer une pièce d'équipement commandée",
      "EUit": "Stato dell'ordine",
      "EUnl": "Bestelstatus",
      "EUru": "Выдача заказа",
      "JPja": "ギアの注文と受け取り",
      "KRko": "기어 주문과 수령",
      "TWzh": "裝備的預訂與領取",
      "USen": "Gear Order Status",
      "USes": "Recoger un encargo",
      "USfr": "Récupérer une pièce d'équipement commandée"
    }
  },
  {
    "label": "Vendor_OtherCity_Manual00",
    "locale": {
      "CNzh": "在尚兴市中，{{color id=\"1\"}}丹尼{{color id=\"65535\"}}会代替刺冠\n接受预订装备之类的工作哦。\n\n另外，不论是找刺冠还是丹尼，\n都可以领取预订的装备。\n他们似乎拥有独特的关系网。",
      "EUde": "In Inkopolis ist {{color id=\"1\"}}Siggi {{color id=\"65535\"}}für Bestellungen\nvon Ausrüstungsstücken zuständig,\nganz so wie Sid in Splatsville und auf\ndem Inkopolis-Platz.\nPraktischerweise kannst du jede Bestellung,\ndie eintrifft, an jedem der genannten Orte\nabholen. Wahnsinn, diese Vernetzung!",
      "EUen": "In Inkopolis Plaza, {{color id=\"1\"}}Spyke{{color id=\"65535\"}} handles gear orders and\neverything else that Murch handles in Splatsville\nand Inkopolis Square.\nBy the way, you can pick up your orders from\neither Murch or Spyke in any location. They're\nweirdly good at coordinating with each other.",
      "EUes": "En Cromópolis, {{color id=\"1\"}}Eri{{color id=\"65535\"}} se ocupa de los pedidos en\nlugar de Enrizo. De todos modos, puedes recoger\nun pedido ante cualquiera de los dos, aunque se\nlo hubieras encargado al otro. Parece que ambos\ntrabajan con un ágil sistema de cooperación.",
      "EUfr": "À Chromapolis, {{color id=\"1\"}}Kipik {{color id=\"65535\"}}prend en charge les\ncommandes et tout ce dont s'occupe Tipik\nà Cité-Clabousse et au square de Chromapolis.\nTu peux d'ailleurs passer commande\nindifféremment auprès de chacun d'eux.\nIls arrivent à communiquer étonnamment\nbien ensemble.",
      "EUit": "A Coloropoli, {{color id=\"1\"}}Richie {{color id=\"65535\"}}è il corrispettivo di Echino\na Splatville e a piazza Coloropoli: gestisce gli\nordini e tutto il resto.\nA proposito, puoi recuperare la merce ordinata\nsia da Richie che da Echino. Sono stranamente\nbravissimi a coordinarsi l'uno con l'altro.",
      "EUnl": "In Inkopolis doet {{color id=\"1\"}}Spyke{{color id=\"65535\"}} wat Mikey doet in\nSplatsville: je moet bij hem zijn voor alles wat\nmet bestellingen te maken heeft. Je kunt elke\nbestelling ophalen bij wie van de twee je\nmaar wilt. Ze werken bizar goed samen.",
      "EUru": "В Инкополе {{color id=\"1\"}}Шипаня{{color id=\"65535\"}} отвечает за все то, чем\nИглюха занимается на обеих площадях:\nнапример, за заказы, связанные со снаряжением.\nТак что, свой заказ можно забрать и в Инкополе,\nи в Плюхтоне: Иглюха и Шипаня тебе помогут.\nВот что значит эффективная коммуникация!",
      "JPja": "ハイカラシティでは、スパイキーの代わりに{{color id=\"1\"}}ダウニー{{color id=\"65535\"}}が\nギアの注文などの仕事を引き受けてくれるぞ。\n\nちなみに注文したギアは、スパイキーとダウニーの\nどちらからでも受け取れる。\n彼らは独自のネットワークを持っているようだ。",
      "KRko": "오더폴리스 시티에서는 스파이키 대신에 {{color id=\"1\"}}다우니{{color id=\"65535\"}}가\n기어 주문 등의 일을 담당한다.\n\n참고로 주문한 기어는 스파이키와 다우니\n둘 중 누구에게 가도 받을 수 있다.\n그들은 독자적인 네트워크를 지니고 있는 듯하다.",
      "TWzh": "在尚興市中，將會改由{{color id=\"1\"}}丹尼{{color id=\"65535\"}}代替刺冠\n負責處理裝備預訂等事務。\n\n此外，在預訂裝備之後，\n無論是找刺冠還是丹尼都一樣可以領取。\n他們之間似乎有專屬的溝通管道。",
      "USen": "In Inkopolis Plaza, {{color id=\"1\"}}Spyke{{color id=\"65535\"}} handles gear orders and\neverything else that Murch handles in Splatsville\nand Inkopolis Square.\nBy the way, you can pick up your orders from\neither Murch or Spyke in any location. They're\nweirdly good at coordinating with each other.",
      "USes": "En Cromópolis, {{color id=\"1\"}}Eri{{color id=\"65535\"}} se ocupa de los pedidos en\nlugar de Enrizo. De todos modos, puedes recoger\nun pedido ante cualquiera de los dos, aunque se\nlo hubieras encargado al otro. Parece que ambos\ntrabajan con un ágil sistema de cooperación.",
      "USfr": "À la place Chromapolis, {{color id=\"1\"}}Kipik {{color id=\"65535\"}}prend en charge\nles commandes et tout ce dont s'occupe Tipik\nà Cité-Clabousse et au carré Chromapolis.\nTu peux d'ailleurs passer commande\nindifféremment auprès de chacun d'eux.\nIls arrivent à communiquer étonnamment\nbien ensemble."
    }
  },
  {
    "label": "Vendor_OtherCity_Title",
    "locale": {
      "CNzh": "关于尚兴市",
      "EUde": "Inkopolis: Tipps & Tricks",
      "EUen": "Inkopolis: Tips and Tricks",
      "EUes": "En Cromópolis",
      "EUfr": "Chromapolis : tuyaux en tous genres",
      "EUit": "Coloropoli: suggerimenti",
      "EUnl": "Inkopolis: toeristische tip",
      "EUru": "Инкополь: полезные советы",
      "JPja": "ハイカラシティでは",
      "KRko": "오더폴리스 시티에서는",
      "TWzh": "關於尚興市",
      "USen": "Inkopolis: Tips and Tricks",
      "USes": "En Cromópolis",
      "USfr": "Chromapolis : Astuces en tous genres"
    }
  },
  {
    "label": "Vendor_Replacement_Gear_Power_Manual00",
    "locale": {
      "CNzh": "如果装备的{{color id=\"1\"}}3个{{color id=\"65535\"}}能力槽{{color id=\"1\"}}都已拥有{{color id=\"65535\"}}装备能力，\n只要将{{color id=\"1\"}}超级蝾螺{{color id=\"65535\"}}交给刺冠，\n就能重新附加随机的追加装备能力哦！\n\n至于会附加什么装备能力，就看你的运气了！",
      "EUde": "Bei Ausrüstung, die über {{color id=\"1\"}}drei mit Zusatzeffekten\nbelegte Felder{{color id=\"65535\"}} verfügt, kann Sid im Tausch\ngegen {{color id=\"1\"}}Supermuscheln{{color id=\"65535\"}} diese Effekte durch\nzufällige neue Effekte ersetzen.\n\nWelche Effekte du dabei erhältst, ist allerdings\nvoll und ganz zufallsbasiert!",
      "EUen": "Any gear with {{color id=\"1\"}}all 3 of its ability slots filled{{color id=\"65535\"}} can\nbe rerolled for a new set of random abilities by\ngiving Murch some {{color id=\"1\"}}Super Sea Snails{{color id=\"65535\"}}.\n\nWhat abilities you'll get, however, is up to luck!",
      "EUes": "A un objeto que tenga {{color id=\"1\"}}las 3 ranuras ocupadas{{color id=\"65535\"}}\nse le puede reasignar aleatoriamente un nuevo\ngrupo de potenciadores. Para ello, tienes que\ndarle a Enrizo algunos {{color id=\"1\"}}supermoluscos{{color id=\"65535\"}}.\n\nQué nuevos potenciadores vayas a obtener\nestá sujeto al puro azar.",
      "EUfr": "En échange de quelques {{color id=\"1\"}}super coquillages{{color id=\"65535\"}}, Tipik\npeut réassigner aléatoirement les bonus de\nn'importe quelle pièce d'équipement dont les\n{{color id=\"1\"}}trois emplacements de bonus sont occupés{{color id=\"65535\"}}.\n\nEn revanche, le choix des nouveaux bonus est\nlaissé entièrement au hasard !",
      "EUit": "Puoi cambiare in modo casuale le abilità di\nqualsiasi oggetto con {{color id=\"1\"}}tutti e 3 gli slot abilità\noccupati{{color id=\"65535\"}} dando a Echino dei {{color id=\"1\"}}super molluschi{{color id=\"65535\"}}.\n\nLe abilità che otterrai sono in mano al fato!",
      "EUnl": "Als je uitrusting hebt met {{color id=\"1\"}}drie volle\neffectvakjes{{color id=\"65535\"}}, kan Mikey in ruil voor wat\n{{color id=\"1\"}}superzeeslakken{{color id=\"65535\"}} die effecten vervangen door\ndrie willekeurige nieuwe effecten.\n\nWat die nieuwe effecten zijn, hangt volstrekt af\nvan het toeval!",
      "EUru": "Снаряжение с {{color id=\"1\"}}3 занятыми слотами{{color id=\"65535\"}} можно отдать\nИглюхе — за несколько {{color id=\"1\"}}круть-улиток{{color id=\"65535\"}} он заменит\nвсе свойства этого снаряжения на случайные.\n\nКакие свойства тебе попадутся? Тут уж как повезет!",
      "JPja": "スロットが{{color id=\"1\"}}３つとも埋まっている{{color id=\"65535\"}}ギアは、\nスパイキーに{{color id=\"1\"}}スーパーサザエ{{color id=\"65535\"}}を渡すことで\n追加ギアパワーをランダムに付け直してもらえるぞ！\n\nどんなギアパワーが付くかは運次第だ！",
      "KRko": "슬롯이 {{color id=\"1\"}}3개 다 차 있는{{color id=\"65535\"}} 기어는\n스파이키에게 {{color id=\"1\"}}슈퍼 소라{{color id=\"65535\"}}를 건네고\n추가 기어 파워를 랜덤으로 다시 붙일 수 있다!\n\n어떤 기어 파워가 붙을지는 운에 달렸다!",
      "TWzh": "如果裝備擁有{{color id=\"1\"}}3個能力槽而且全都已經附加能力{{color id=\"65535\"}}，\n那只要將{{color id=\"1\"}}超級蠑螺{{color id=\"65535\"}}交給刺冠，\n就能把追加裝備能力重新附加成隨機能力囉！\n\n至於會附加哪些裝備能力就全看運氣了！",
      "USen": "Any gear with {{color id=\"1\"}}all 3 of its ability slots filled{{color id=\"65535\"}} can\nbe rerolled for a new set of random abilities by\ngiving Murch some {{color id=\"1\"}}Super Sea Snails{{color id=\"65535\"}}.\n\nWhat abilities you'll get, however, is up to luck!",
      "USes": "A un objeto que tenga {{color id=\"1\"}}las 3 ranuras ocupadas{{color id=\"65535\"}}\nse le puede reasignar aleatoriamente un nuevo\ngrupo de potenciadores. Para ello, tienes que\ndarle a Enrizo algún {{color id=\"1\"}}supermolusco{{color id=\"65535\"}}.\n\nQué nuevos potenciadores vayas a obtener\nestá sujeto al puro azar.",
      "USfr": "En échange d'un {{color id=\"1\"}}super coquillage{{color id=\"65535\"}}, Tipik\npeut réassigner aléatoirement les bonus de\nn'importe quelle pièce d'équipement dont les\n{{color id=\"1\"}}trois emplacements de bonus sont occupés{{color id=\"65535\"}}.\n\nEn revanche, le choix des nouveaux bonus est\nlaissé entièrement au hasard!"
    }
  },
  {
    "label": "Vendor_Replacement_Gear_Power_Manual01",
    "locale": {
      "CNzh": "另外，重新附加装备能力后\n可以获得原装备能力的{{color id=\"1\"}}碎片{{color id=\"65535\"}}。\n\n就算没能成功附加自己想要的装备能力，\n只要通过多次重新附加装备能力的方式收集碎片，\n总有一天能打造出符合自己需求的装备！",
      "EUde": "Wenn du zufällig neue Effekte hinzufügen\nlässt, erhältst du die {{color id=\"1\"}}Fragmente{{color id=\"65535\"}} der vorherigen\nEffekte.\n\nDu kannst diese Aktion beliebig oft wiederholen,\nbis deine Ausrüstung perfekt ist, und außerdem\nerhältst du so jede Menge Effekt-Fragmente!",
      "EUen": "By the way, when you reroll a piece of gear,\nyou'll get the {{color id=\"1\"}}chunks{{color id=\"65535\"}} from the old abilities that\nwere just erased.\n\nYou can also reroll as many times as you like,\nmeaning you can keep doing it until you've made\nthe perfect piece of gear, AND you'll collect\nplenty of chunks along the way!",
      "EUes": "Cuando reasignes potenciadores a un objeto,\nrecuperarás los {{color id=\"1\"}}fragmentos{{color id=\"65535\"}} de los que se\nborren en el proceso.\n\nPuedes hacerlo tantas veces como quieras, de\nmanera que es posible seguir probando hasta que\ndes con la combinación perfecta. ¡Además\nrecogerás montones de fragmentos!",
      "EUfr": "À ce propos, lorsque tu réassignes des bonus,\nles {{color id=\"1\"}}fragments {{color id=\"65535\"}}des bonus effacés au cours de\nla procédure te sont restitués.\n\nTu peux réassigner les bonus d'un objet un\nnombre illimité de fois, de sorte que tu peux\neffectuer l'opération jusqu'à obtenir la pièce\nd'équipement parfaite, en récupérant de\nnombreux fragments au passage !",
      "EUit": "A proposito, quando cambi le abilità di un\noggetto, otterrai i {{color id=\"1\"}}frammenti {{color id=\"65535\"}}dalle abilità\nappena eliminate.\n\nPuoi cambiare le abilità tutte le volte che\nvuoi, ossia puoi continuare a farlo finché\nnon ottieni l'oggetto perfetto, senza contare\ntutti i frammenti che otterrai nel frattempo!",
      "EUnl": "Als je Mikey willekeurige nieuwe effecten laat\ntoevoegen aan je uitrusting, ontvang je de\n{{color id=\"1\"}}effectfragmenten {{color id=\"65535\"}}van de oude effecten.\n\nJe kunt hem dit overigens zo vaak laten doen als\nje wilt, tot je de perfecte uitrusting hebt. En op\ndie manier verzamel je meteen een hele hoop\nfragmenten!",
      "EUru": "Заменяя свойства на случайные, ты получишь\nстертые свойства в виде {{color id=\"1\"}}б/у свойств{{color id=\"65535\"}}!\n\nМенять свойства можно неограниченное\nколичество раз. Продолжай до тех пор, пока\nне получишь идеальное снаряжение! В то же\nвремя у тебя окажется куча б/у свойств!",
      "JPja": "ちなみに、ギアパワーを付け直してもらうと\nもともと付いていたギアパワーの{{color id=\"1\"}}かけら{{color id=\"65535\"}}が手に入る。\n\n思い通りのギアパワーが付かなかったとしても、\n何度もギアパワーを付け直して かけらを集めていけば\nいつかは自分好みのギアを作れるはずだ！",
      "KRko": "참고로 기어 파워를 다시 붙이면\n원래 붙어 있던 기어 파워 {{color id=\"1\"}}파편{{color id=\"65535\"}}을 획득할 수 있다.\n\n기대하던 기어 파워가 붙지 않더라도\n몇 번이고 기어 파워를 다시 붙여서 파편을 모으면\n언젠가는 원하는 기어를 만들 수 있을 거다!",
      "TWzh": "此外，在重新附加裝備能力後，\n會獲得原裝備能力的{{color id=\"1\"}}碎片{{color id=\"65535\"}}。\n\n就算無法成功附加自己想要的裝備能力，\n也可以藉由持續重新附加裝備能力的方式收集碎片，\n然後就能在未來打造出符合自己需求的裝備了！",
      "USen": "By the way, when you reroll a piece of gear,\nyou'll get the {{color id=\"1\"}}chunks{{color id=\"65535\"}} from the old abilities that\nwere just erased.\n\nYou can also reroll as many times as you like,\nmeaning you can keep doing it until you've made\nthe perfect piece of gear, AND you'll collect\nplenty of chunks along the way!",
      "USes": "Cuando reasignes potenciadores a un objeto,\nrecuperarás los {{color id=\"1\"}}fragmentos{{color id=\"65535\"}} de los que se\nborren en el proceso.\n\nPuedes hacerlo tantas veces como quieras, de\nmanera que es posible seguir probando hasta que\nconsigas la combinación perfecta. ¡Además\nrecogerás montones de fragmentos!",
      "USfr": "À ce propos, lorsque tu réassignes des bonus,\nles {{color id=\"1\"}}fragments {{color id=\"65535\"}}des bonus effacés au cours de\nla procédure te sont restitués.\n\nTu peux réassigner les bonus d'un objet un\nnombre illimité de fois, de sorte que tu peux\neffectuer l'opération jusqu'à obtenir la pièce\nd'équipement parfaite, en récupérant de\nnombreux fragments au passage!"
    }
  },
  {
    "label": "Vendor_Replacement_Gear_Power_Title",
    "locale": {
      "CNzh": "重新附加随机装备能力",
      "EUde": "Zufälliges Befüllen mit Effekten",
      "EUen": "Randomly Reroll Gear Abilities",
      "EUes": "Reasignar potenciadores al azar",
      "EUfr": "Réassigner aléatoirement les bonus d'équipement",
      "EUit": "Cambiare le abilità in modo casuale",
      "EUnl": "Effectvakjes willekeurig vullen",
      "EUru": "Случайный выбор свойств снаряжения",
      "JPja": "ギアパワーのランダム付け直し",
      "KRko": "기어 파워 랜덤 다시 붙이기",
      "TWzh": "重新附加隨機裝備能力",
      "USen": "Randomly Reroll Gear Abilities",
      "USes": "Sortear potenciadores",
      "USfr": "Réassigner aléatoirement les bonus d'équipement"
    }
  }
]