[
  {
    "label": "Guidance_00",
    "text": "Na, auf ein Kämpfchen hier?{{pageBreak}}...Nanu. Ich Dummerchen.\nHätte ja fast übersehen, dass du\nnoch nicht spritzig genug dafür bist.\nBist nämlich noch nicht auf {{color id=\"1\"}}Stufe 4{{color id=\"65535\"}},\nweißt du?{{pageBreak}}Wie das geht?\nNa, hüpf einfach rüber zur {{color id=\"1\"}}Lobby{{color id=\"65535\"}}\nund spiele ein paar {{color id=\"1\"}}Revierkämpfe{{color id=\"65535\"}}.\nDann bist du im Flossenumdrehen\nganz wundervoll spritzig!"
  },
  {
    "label": "Guidance_01",
    "text": "Das hier ist das Revierdecks-Dojo,\nSchätzchen! Schön, dass du da bist!{{pageBreak}}Du bist doch wohl nicht überrascht,\ndass ich hier die Karten in der Hand\nhabe? Ich bin vielleicht nicht mehr die\nJüngste, aber ich weiß genau, was\ngerade im Schwang ist!{{pageBreak}}Womit wir gleich bei den\n{{color id=\"1\"}}Revierdecks-Kämpfen {{color id=\"65535\"}}wären!\nRevierdecks spielen gerade ALLE!\nWahrscheinlich, weil man so einfach\nan ein Starterdeck kommt..."
  },
  {
    "label": "Guidance_02",
    "text": "Du liebe Zeit! Ich hab ja gar nicht\ngeprüft, ob eine Verbindung zum\nInternet besteht. Und es ist keine zu\nfinden! Verbinde dich in der {{color id=\"1\"}}Lobby{{color id=\"65535\"}} mit\ndem {{color id=\"1\"}}Internet{{color id=\"65535\"}} und komm wieder, ja?"
  },
  {
    "label": "Guidance_03",
    "text": "Genau so, zum Beispiel!\nBitte sehr, für dich!"
  },
  {
    "label": "Guidance_04",
    "text": "Das {{color id=\"1\"}}Deck{{color id=\"65535\"}}, das ich dir gegeben habe,\nenthält 15 Karten. Mehr brauchst du\ngar nicht zum Spielen!{{pageBreak}}Jetzt willst du sicher gleich loslegen,\naber ich MUSS darauf bestehen,\ndass du erst die Anleitung liest.\nDie ist zwar recht lang, aber dafür\nstehen viele tolle Regeln drin!"
  },
  {
    "label": "Guidance_05",
    "text": "Hausaufgabe erledigt? Schön!\nKeine Sorge, wenn du nicht alles\ngleich verstehst. Das Spiel ist\nauch recht komplex. Aber Erfahrung\nist die beste Lehrmeisterin!{{pageBreak}}Komm einfach zu mir, wenn du es\nausprobieren möchtest, ja?"
  },
  {
    "label": "NPCBattle_00",
    "text": "Hereinspaziert, willkommen!"
  },
  {
    "label": "NPCBattle_01",
    "text": "Bist du hier, um... OH! Oha!\nDu hast ja gar kein Deck zum Spielen!\nNicht mal ein einziges!{{pageBreak}}So geht das leider nicht, Schätzchen.\nAber ich sag dir, wie wir's machen!{{pageBreak}}Rufe dein Menü auf. Dort wählst du\n„Spieler“, \"Revierdecks\" und danach\n„Kartenliste“.{{pageBreak}}Dort baust du dir dann ein Deck\nund dann sprechen wir uns wieder!"
  },
  {
    "label": "NPCBattle_02",
    "text": "Gegen wen spielen?"
  },
  {
    "label": "NPCBattle_03",
    "text": "Oh! Tut mir leid, aber ich fürchte,\ndieser Spieler ist gerade nicht\nverfügbar.\nVersuche es doch später\nnoch mal, ja?"
  },
  {
    "label": "NPCBattle_04",
    "text": "Gegen ganz Unbekannte\nkannst du leider nicht spielen...\nLernt euch doch erst ein wenig kennen\nund versuch's dann noch mal mit einer\nEinladung, ja?"
  },
  {
    "label": "NPCBattle_05",
    "text": "Ahato? Hmmm...\nEntschuldige, aber der Name\nsagt mir gar nichts. Ich kann\nmich aber gerne mal umhören.\nVielleicht weiß ich ja später mehr."
  },
  {
    "label": "WeaponShop_Greet",
    "text": "Oho! Du bist betört von meinen\neloquenten Waffenreden und fragst\ndich jetzt, ob ich denn auch in der\nPraxis mithalten kann?{{pageBreak}}Dann lass mich dir eine Lektion\nerteilen! Denn für dieses sorgfältig\nvon mir zusammengestellte Deck\nbraucht man gewissermaßen einen\nWaffenschein!"
  },
  {
    "label": "WeaponShop_Win",
    "text": "Und wie erwartet ist der Sieg mein!"
  },
  {
    "label": "WeaponShop_Win2",
    "text": "Tut mir leid, ich komme nicht viel zum\nSpielen. Das hier ist alles, was ich\nhabe."
  },
  {
    "label": "WeaponShop_Lose",
    "text": "Wie konnte das passieren?\nIch muss noch mal alles überarbeiten!"
  },
  {
    "label": "WeaponShop_Lose2",
    "text": "Sei dir ganz gewiss, ich werde die\nDaten aus unserem Spiel verwenden,\num dich nächstes Mal vor eine noch\ngrößere Herausforderung zu stellen.\nZurück ans Zeichenbrett!"
  },
  {
    "label": "WeaponShop_Draw",
    "text": "Unglaublich... Unentschieden!\nWie ungewöhnlich!"
  },
  {
    "label": "WeaponShop_Draw2",
    "text": "Hm, wenn ich mich recht entsinne,\nmacht uns das laut Regeln zu Rivalen.\nBis wir endgültig wissen, wer besser\nist..."
  },
  {
    "label": "WeaponShop_Sleeve",
    "text": "Ich möchte dir für all die grandiosen\nDuelle danken, die wir uns geliefert\nhaben.{{pageBreak}}Als kleines Zeichen meiner tief\nempfundenen Wertschätzung habe\nich diese besonderen {{color id=\"1\"}}Kartenhüllen{{color id=\"65535\"}}\nfür dich!{{pageBreak}}Ich freue mich schon auf weitere\npackende Kartenscharmützel mit dir!"
  },
  {
    "label": "Aori_Greet",
    "text": "Du willst gegen mich antreten?\nGegen MICH? Oh, du wirst schon\nsehen, was du davon hast!"
  },
  {
    "label": "Aori_Win",
    "text": "Und gewonnen. War ja klar."
  },
  {
    "label": "Aori_Win2",
    "text": "Aber du hast richtig gut gespielt,\nNr. 3! War echt spannend! Lass uns\ndas mal wiederholen!"
  },
  {
    "label": "Aori_Lose",
    "text": "Ich hab allen Ernstes verloren?\nBoah, das nervt!"
  },
  {
    "label": "Aori_Lose2",
    "text": "Aber Spaß hat’s trotzdem gemacht.\nLass uns bei Gelegenheit wieder\nspielen!"
  },
  {
    "label": "Aori_Draw",
    "text": "Unentschieden!\nDas war mal ein spaßiges Duell!"
  },
  {
    "label": "Aori_Draw2",
    "text": "Aber nächstes Mal gewinne ich!\nAlso sag Bescheid, wenn du wieder\nspielen willst!"
  },
  {
    "label": "Aori_Sleeve",
    "text": "Danke für all die Duelle, Nr. 3.{{pageBreak}}Hier, diese {{color id=\"1\"}}Kartenhüllen{{color id=\"65535\"}} sind für\ndich. Kannst ruhig damit angeben,\ndass du sie von mir hast.\nKomm mal wieder auf ein Spielchen\nvorbei, okay?"
  },
  {
    "label": "Atarime_Greet",
    "text": "Was? Du willst gegen mich Karten\nspielen?{{pageBreak}}Ich seh vielleicht etwas eingerostet\naus, aber in deinem Alter war ich der\nabsolute Muschelwurf-Champ!{{pageBreak}}...Da wirft man eine Muschel,\nbis dann wer gewinnt. Gibt’s wirklich,\ndas kannst du mir glauben!\nNa ja, dann lass uns mal anfangen!"
  },
  {
    "label": "Atarime_Win",
    "text": "Sieg für Kuttelfisch!\nTja, manchmal kommt sie wieder,\nmeine alte Spritzigkeit!"
  },
  {
    "label": "Atarime_Win2",
    "text": "Aber leicht war’s nicht!\nÜb schön weiter, und irgendwann\nwischst du mit mir das Deck!"
  },
  {
    "label": "Atarime_Lose",
    "text": "Waaah! Du hast mich voll erwischt!"
  },
  {
    "label": "Atarime_Lose2",
    "text": "Vielleicht hätte ich mir die Regeln\ngenauer anschauen sollen.\nGar nicht so einfach, das Spiel!"
  },
  {
    "label": "Atarime_Draw",
    "text": "Was sagt man dazu? Unentschieden!"
  },
  {
    "label": "Atarime_Draw2",
    "text": "Also, das schmeckt mir nicht.\nDas ist nicht Fisch und nicht Fleisch.\nZu meiner Zeit gab’s das nicht!\nNächstes Mal müssen wir zusehen,\ndass wir die Sache eindeutig klären!"
  },
  {
    "label": "Atarime_Sleeve",
    "text": "Nr. 3, ich muss schon sagen...\nEs hat ’ne Menge Spaß gemacht, in\ndiesem Spiel gegen dich anzutreten.{{pageBreak}}Und deswegen habe ich auch was für\ndich. Bitte schön, ganz besondere\n{{color id=\"1\"}}Kartenhüllen{{color id=\"65535\"}}!{{pageBreak}}Mit richtig coolen Kartenhüllen\nspielt es sich nämlich gleich auch viel\ncooler. Regel Nr. 1 im Revierdecks-\nKampf!"
  },
  {
    "label": "GearShopClothes_Greet",
    "text": "Ah, ein bekanntes Antlitz.\nAlso, MIR bekannt.\nNicht prominent oder so.\nIst dir nach einer Runde Revierdecks?{{pageBreak}}Dann nur eines, ehe wir beginnen...\nDeine Hände sind gewaschen, ja?\nEs wäre nicht auszudenken, wenn\nan meine gepflegten Karten auch nur\nein Partikelchen Schmutz gelänge."
  },
  {
    "label": "GearShopClothes_Win",
    "text": "Stilvoll, stark und stadtbekannt!\nMein Deck ist unerreicht!\nMöge dieses Wissen dir Trost\nund Inspiration sein."
  },
  {
    "label": "GearShopClothes_Win2",
    "text": "Püh. Dein Deck SCHREIT geradezu\n„letzte Saison“. Ich empfehle dir,\nes gründlich umzuschneidern.\nVielleicht klappt's dann ja beim\nnächsten Mal."
  },
  {
    "label": "GearShopClothes_Lose",
    "text": "Du hast mich, den Zar des Zwirns,\nim Kartenkampf besiegt.\nWelch formidables Talent!"
  },
  {
    "label": "GearShopClothes_Lose2",
    "text": "Welche Schmach!\nIch muss mein Deck anpassen\nwie ein Hemd mit schlechten Nähten.\nFordere mich bald wieder heraus, ja?\nIch bestehe darauf!"
  },
  {
    "label": "GearShopClothes_Draw",
    "text": "Ein Remis? Fürwahr, dies war\nein Treffen der Titanen!"
  },
  {
    "label": "GearShopClothes_Draw2",
    "text": "Der wahrhaftig Überlegene muss\ngefunden werden. Ich erwarte eine\nweitere Herausforderung deinerseits.\nWEHE, falls nicht!"
  },
  {
    "label": "GearShopClothes_Sleeve",
    "text": "Du und ich, wir haben uns nun\netliche Male zum geistigen Duell\neingefunden.{{pageBreak}}Jedes unserer Kräftemessen war\nmir ein Vergnügen. Ich danke dir.\nDu fochtest mit Ehre und mit\nwahrem Esprit.{{pageBreak}}Und in solchen sollen ab heute\nauch deine Karten gehüllt sein!\nDenn mehr Esprit als mit meinen\nerlesenen {{color id=\"1\"}}Kartenhüllen {{color id=\"65535\"}}wird nie\neine Revierdecks-Karte erleben.{{pageBreak}}Nimm sie als Geschenk an!\nUnd meinen Dank für deine Kampf-\nUND deine Kaufkraft. Hurra!"
  },
  {
    "label": "GearShopHead_Greet",
    "text": "Tag. Alles spritzig?\nÄh, wie jetzt? Kämpfen?\nKlingt ja irgendwie stressig...{{pageBreak}}Aber immer noch besser als Arbeiten.\nIch bin zwar nicht der Überflieger\nin dem Spiel, aber klar, lass zocken.\nFertig?"
  },
  {
    "label": "GearShopHead_Win",
    "text": "Boah.\nHab gewonnen.\nNette Sache."
  },
  {
    "label": "GearShopHead_Win2",
    "text": "Sorry, ist mir irgendwie passiert.\nWollte dich nicht deprimieren oder so.\nVielleicht war's einfach nur Glück."
  },
  {
    "label": "GearShopHead_Lose",
    "text": "Hey, nicht schlecht.\nHast die Sache echt drauf."
  },
  {
    "label": "GearShopHead_Lose2",
    "text": "Beim nächsten Mal häng ich mich\nmehr rein, okay? Also, na ja...\nFalls es dir recht ist oder so."
  },
  {
    "label": "GearShopHead_Draw",
    "text": "Boah, unentschieden.\nWie kommt denn so was?\nÜberleg doch mal... Wenn es keine\nSieger gibt und keinen Verlierer...\nfand das Spiel dann überhaupt statt?"
  },
  {
    "label": "GearShopHead_Draw2",
    "text": "Das müssen wir mal wieder machen.\nNur, damit klar ist, dass das hier\nnicht bloß ein Traum war oder so."
  },
  {
    "label": "GearShopHead_Sleeve",
    "text": "Hey, äh... Also, ich find's toll,\ndass du so gerne gegen mich spielst.{{pageBreak}}Falls du magst, kannst du ja mal\ndiese {{color id=\"1\"}}Kartenhüllen {{color id=\"65535\"}}hier benutzen.\nSchenk ich dir! Also, falls du\nLust drauf hast und so.{{pageBreak}}Dieses Spiel hat nämlich irgendwie\nseine Fangarme um mich geschlungen.\nMacht mir voll Spaß. Also, falls du\nvielleicht später mal wieder magst...?"
  },
  {
    "label": "GearShopShoes_Greet",
    "text": "Oh, aber HALLI und HALLO!\nWie geht's denn DIR so?\nIch bin immer auf der Suche nach\nlustigen Leutchen, die ein Ründchen\nRevierdecks gegen mich spielen.{{pageBreak}}Na, Lust? Dann mal los!\nRevierdecks ist das Größte!\nRevierlein... DECK DICH!☆"
  },
  {
    "label": "GearShopShoes_Win",
    "text": "Ui, gewonnen! Ti hi!\nHach, schönes Spielchen!"
  },
  {
    "label": "GearShopShoes_Win2",
    "text": "He, du warst richtig gut! Ehrlich!\nWürde mich freuen, wenn du mich\nzu einer Revanche forderst.\nOder gerne auch hundert!"
  },
  {
    "label": "GearShopShoes_Lose",
    "text": "Heiliges Senkelchen!\nDa hab ich doch glatt verloren!\nAch, du spielst echt klasse!"
  },
  {
    "label": "GearShopShoes_Lose2",
    "text": "Lass uns doch bald noch mal spielen!\nNicht, weil ich unbedingt gewinnen will\noder so... Aber beschweren würde\nich mich nicht! Tihi hi hi."
  },
  {
    "label": "GearShopShoes_Draw",
    "text": "Ein Unentschieden? Traumhaft!\nDas heißt, wir sind gleich stark!\nDer allerbeste Fall! Schlag ein!"
  },
  {
    "label": "GearShopShoes_Draw2",
    "text": "Aber nächstes Mal gewinne ich!\nVersprochen! Tihi hi hi!"
  },
  {
    "label": "GearShopShoes_Sleeve",
    "text": "Ach so, ach ja!\nFast vergessen...{{pageBreak}}Ich find es supertoll von dir,\ndass du so gern Revierdecks\ngegen mich spielst. Macht\njedes Mal total viel Spaß!{{pageBreak}}Man lernt viel, man lacht viel...\nHach. Okay, dann geb ich dir\nein kleines Dankeschön von mir.\nHoffe, du magst {{color id=\"1\"}}Kartenhüllen{{color id=\"65535\"}}!"
  },
  {
    "label": "GoodsShop_Greet",
    "text": "Eine Runde Revierdecks?\nKlar. Gern. Hab zwar zu tun, aber...\nNa los, raus mit den Karten."
  },
  {
    "label": "GoodsShop_Win",
    "text": "Hey, hab gewonnen.\nNett."
  },
  {
    "label": "GoodsShop_Win2",
    "text": "Musst ein bisschen an dir arbeiten.\nAber das wird schon irgendwie.\n...'tschuldige, weiß nicht, wie man\nso was höflicher sagen soll."
  },
  {
    "label": "GoodsShop_Lose",
    "text": "...Oh.\nHab verloren. Hm."
  },
  {
    "label": "GoodsShop_Lose2",
    "text": "Pffft. Jetzt ist mir langweilig."
  },
  {
    "label": "GoodsShop_Draw",
    "text": "Hm. Unentschieden."
  },
  {
    "label": "GoodsShop_Draw2",
    "text": "War lustig irgendwie.\nWürde gern wieder mal gegen dich\nspielen, falls du magst."
  },
  {
    "label": "GoodsShop_Sleeve",
    "text": "Ach so. Ich glaub, ich geb dir\neinfach mal meine {{color id=\"1\"}}Kartenhüllen{{color id=\"65535\"}}.{{pageBreak}}Nimm ruhig! Gehören jetzt dir.\nDie sind toll zum Anschauen,\nRumzeigen und... na ja.\nUm deine Karten zu schützen.{{pageBreak}}Aber bitte spiel bald wieder mit mir,\nokay? Danke!"
  },
  {
    "label": "Hotaru_Greet",
    "text": "Du möchtest dieses komische\nSammelkartenspiel gegen mich\nspielen? Klar, warum nicht!{{pageBreak}}Von mir aus kann’s losgehen!"
  },
  {
    "label": "Hotaru_Win",
    "text": "Gut gespielt!{{delay frames=\"15\"}} Das mein ich wirklich so,\ndas ist jetzt kein doofer Spruch!"
  },
  {
    "label": "Hotaru_Win2",
    "text": "Natürlich könnte ich einen Spruch\nmachen, aber es ist ja auch ’ne\nMenge Glück dabei. Lass uns bei\nGelegenheit noch mal spielen und\nschauen, wie es dann ausgeht."
  },
  {
    "label": "Hotaru_Lose",
    "text": "Huch.\nDa hab ich doch glatt verloren..."
  },
  {
    "label": "Hotaru_Lose2",
    "text": "War aber trotzdem ein prima Spiel.\nViel aufregender als sonst!"
  },
  {
    "label": "Hotaru_Draw",
    "text": "Unentschieden... Eine Niederlage wäre\nwenigstens was Eindeutiges gewesen."
  },
  {
    "label": "Hotaru_Draw2",
    "text": "Sind wohl einigermaßen gleich stark.\nDa müssen wir unbedingt irgendwann\nwieder spielen, damit mich dieses\nUnentschieden nicht auf ewig\nverfolgt..."
  },
  {
    "label": "Hotaru_Sleeve",
    "text": "Danke, dass du mich dazu gebracht\nhast, dieses Spiel zu spielen, Nr. 3!\nGefällt mir richtig gut!{{pageBreak}}Dafür hab ich dir hier auch\nein kleines Geschenk besorgt...\nNur etwas Sea-Sirens-Merchandise.\nUnd zwar {{color id=\"1\"}}Kartenhüllen{{color id=\"65535\"}}!{{pageBreak}}Wäre schön, wenn wir bald mal wieder\nspielen würden!"
  },
  {
    "label": "IdolA_Greet",
    "text": "Oh, sehe ich da etwa eine würdige\nHerausforderung? Du siehst mir aus,\nals wüsstest du, was du tust...{{pageBreak}}Dann zeig mal, was du kannst!\nJetzt steigt die HAI-ße Show!"
  },
  {
    "label": "IdolA_Win",
    "text": "Juchhu! Gewonnen!"
  },
  {
    "label": "IdolA_Win2",
    "text": "Äh, natürlich habe ich gewonnen.\nAber du warst gar nicht schlecht.\nWillst du mal irgendwann eine\nRevanche?"
  },
  {
    "label": "IdolA_Lose",
    "text": "Grrrrr... Verloren?!\nDu bist wirklich gut..."
  },
  {
    "label": "IdolA_Lose2",
    "text": "Du musst mir die Chance zu einer\nRevanche geben! Muss nicht jetzt\nsein, aber bitte erlaube mir, mich\nan die Spitze der Nahrungskette\nzurückzukämpfen!"
  },
  {
    "label": "IdolA_Draw",
    "text": "Na so was, unentschieden.\nUNENTSCHIEDEN?!"
  },
  {
    "label": "IdolA_Draw2",
    "text": "Nicht jeder schafft es, gegen mich\nein Unentschieden zu erreichen.\nDu kannst das also sogar als Sieg\nbetrachten. Übe weiter – denn ich\nwerde auch an mir arbeiten!"
  },
  {
    "label": "IdolA_Sleeve",
    "text": "Ach ja, Nr. 3... Immer wieder ein\nVergnügen, gegen dich anzutreten.\nImmer wieder und wieder und wieder...{{pageBreak}}Im Namen von Surimi Syndicate\ndanke ich dir und hoffe, dass du mit\ndiesen {{color id=\"1\"}}Kartenhüllen{{color id=\"65535\"}} etwas anfangen\nkannst.{{pageBreak}}Bis nächstes Mal!"
  },
  {
    "label": "IdolB_Greet",
    "text": "Du willst einen Revierdecks-Kampf\ngegen mich? Traust dich was, wie?{{pageBreak}}Gleich wirst du sehen, warum man\nmich die Revierdecks-Königin nennt!\nKnie nieder vor meinem Thron!"
  },
  {
    "label": "IdolB_Win",
    "text": "Siehste? Du hattest keine Chance!"
  },
  {
    "label": "IdolB_Win2",
    "text": "Warte nur, bis ich Mako und Mantaro\ndavon erzähle. Die lachen sich die\nFlossen ab!"
  },
  {
    "label": "IdolB_Lose",
    "text": "WAS?! Wie ist DAS denn passiert...?"
  },
  {
    "label": "IdolB_Lose2",
    "text": "Das weiß wohl keiner so genau.\nOder vielleicht weißt du’s.\nSchließlich bist du Nr. 3.\nAber auch egal, Schätzchen...\nNächstes Mal bist du FÄLLIG!"
  },
  {
    "label": "IdolB_Draw",
    "text": "Hui, unentschieden!\nBist ja besser, als du aussiehst!"
  },
  {
    "label": "IdolB_Draw2",
    "text": "Aber jetzt kenn ich deine Tricks!\nBeim nächsten Spiel wirst du\ngeflundert!"
  },
  {
    "label": "IdolB_Sleeve",
    "text": "Weißte, die Spiele gegen dich waren\necht spitze. Absolut hammermäßig!{{pageBreak}}Deswegen hab ich hier\ndiese {{color id=\"1\"}}Kartenhüllen{{color id=\"65535\"}} für dich.\nDie haste dir verdient!"
  },
  {
    "label": "IdolC_Greet",
    "text": "Ay! {{string value=\"5\"}}(Du willst wirklich Revierdecks\ngegen mich spielen?){{fun_000F_0004 arg=\"0x0500\"}}{{pageBreak}}Ay... {{string value=\"5\"}}(Na gut, von mir aus.\nMal sehen, wie das ausgeht...){{fun_000F_0004 arg=\"0x0500\"}}"
  },
  {
    "label": "IdolC_Win",
    "text": "Ay! {{string value=\"5\"}}(Wow! Ich hab gewonnen!){{fun_000F_0004 arg=\"0x0500\"}}"
  },
  {
    "label": "IdolC_Win2",
    "text": "Ay! {{string value=\"5\"}}(Äh, ich meine...\nNatürlich hab ich gewonnen.\nUnd wenn du nicht aufpasst,\npassiert das vielleicht noch mal!){{fun_000F_0004 arg=\"0x0500\"}}"
  },
  {
    "label": "IdolC_Lose",
    "text": "Ay... {{string value=\"5\"}}(Tja... Ich hab’s versucht...){{fun_000F_0004 arg=\"0x0500\"}}"
  },
  {
    "label": "IdolC_Lose2",
    "text": "Ay! {{string value=\"5\"}}(Aber nächstes Mal gewinne ich,\nwirst schon sehen!){{fun_000F_0004 arg=\"0x0500\"}}"
  },
  {
    "label": "IdolC_Draw",
    "text": "Ay? {{string value=\"5\"}}(Unentschieden? Oho.\nHab ich ja ganz gut hingekriegt!){{fun_000F_0004 arg=\"0x0500\"}}"
  },
  {
    "label": "IdolC_Draw2",
    "text": "Ay! {{string value=\"5\"}}(Dann fällt die Entscheidung\neben beim nächsten Spiel.){{fun_000F_0004 arg=\"0x0500\"}}"
  },
  {
    "label": "IdolC_Sleeve",
    "text": "Ay! {{string value=\"5\"}}(Danke, dass du so viel mit mir\ngespielt hast. Ich glaube wirklich,\ndass ich besser geworden bin!){{fun_000F_0004 arg=\"0x0500\"}}{{pageBreak}}Ay! {{string value=\"5\"}}(Diese {{color id=\"1\"}}Kartenhüllen{{color id=\"65535\"}} sind für dich!\nIch hoffe, sie gefallen dir so gut wie\nmir.){{fun_000F_0004 arg=\"0x0500\"}}{{pageBreak}}Ay! {{string value=\"5\"}}(Na ja, hast sicher viel zu tun.\nBis zum nächsten Mal!){{fun_000F_0004 arg=\"0x0500\"}}"
  },
  {
    "label": "Judge_Greet",
    "text": "Miau. (Bei {{color id=\"1\"}}Revierdecks-Kämpfen{{color id=\"65535\"}}\nmusst du mehr Felder einfärben\nals dein Gegner.){{pageBreak}}(Um deine Siegeschancen zu erhöhen,\nsolltest du gute Karten finden und\ndamit ein starkes {{color id=\"1\"}}Deck{{color id=\"65535\"}} erstellen.){{pageBreak}}(Aber das ist für den Anfang nicht so\nwichtig... Lass uns erst mal eine\nRunde spielen!)"
  },
  {
    "label": "Judge_Win",
    "text": "Miau! (Tja, gewinnen ist nicht alles.\nEinfach mal die Fellfetzen fliegen zu\nlassen macht auch so schon Spaß!)"
  },
  {
    "label": "Judge_Win2",
    "text": "Mauz! (Ich hoffe, du hast was\nfür unser nächstes Spiel gelernt!)"
  },
  {
    "label": "Judge_Lose",
    "text": "Mrau... (Wenn ich verliere, möchte ich\njedes Mal am liebsten irgendwas\nvom Tisch schubsen.)"
  },
  {
    "label": "Judge_Lose2",
    "text": "Miauz! (Du hast definitiv ein\nTentakelchen für dieses Spiel.\nGeh raus in die Welt und zeig allen\ndie Krallen!)"
  },
  {
    "label": "Judge_Draw",
    "text": "Miau? (Unentschieden?\nWir sind uns also ebenbürtig...\nIch habe dich unterschätzt!)"
  },
  {
    "label": "Judge_Draw2",
    "text": "Miau! (Kein Sieg, aber auch keine\nNiederlage. Das ist auch in Ordnung.\nUnd man lernt was dazu!)"
  },
  {
    "label": "Judge_Sleeve",
    "text": "Schnurr? (Du weißt bestimmt, dass\nman mit {{color id=\"1\"}}Kartenhüllen{{color id=\"65535\"}} das Aussehen\nder Rückseite von Karten ändern\nkann, richtig?){{pageBreak}}(Und da du bei diesem Spiel recht\nspritzig zu sein scheinst, hast du dir\nein paar neue Kartenhüllen verdient!){{pageBreak}}(Steck deine Karten da rein und\nmach deine Gegner neidisch!\nProbier’s mal aus!)"
  },
  {
    "label": "JudgeJr_Greet",
    "text": "Miau! ({{color id=\"1\"}}Revierdecks{{color id=\"65535\"}} ist kein Spiel.\nHier ist der Sieg alles. Am Spieltisch\nist kein Platz für Schwächlinge!){{pageBreak}}(Verstehst du die Regeln komplett?\nIst dein {{color id=\"1\"}}Deck {{color id=\"65535\"}}bereit? Dann lass uns\ndeine Stärke auf die Probe stellen...)"
  },
  {
    "label": "JudgeJr_Win",
    "text": "Miau. (Ah. Der Sieg schmeckt\nsüß wie immer, doch nur ein Narr\nverfiele je seinem Wohlgeschmack.\nUnd ich bin kein Narr.)"
  },
  {
    "label": "JudgeJr_Win2",
    "text": "Miau! (Doch auch aus Niederlagen\nlässt sich ungemein viel lernen!\nEs gibt so viel nachzudenken,\nso viel an sich zu arbeiten...\nIch beneide dich wirklich.)"
  },
  {
    "label": "JudgeJr_Lose",
    "text": "Maunz... (Ah. Der bittere Geschmack\neiner Niederlage. Doch wenn man Groll\ndeswegen hegt, fesselt man sich nur\nan die eigene Mittelmäßigkeit.)"
  },
  {
    "label": "JudgeJr_Lose2",
    "text": "Miau. (Siege halten nicht ewig.\nWerde nicht nachlässig...\nEs sei denn, Niederlagen sind die\nWürze in deinem Spielerleben.\nSind sie es?)"
  },
  {
    "label": "JudgeJr_Draw",
    "text": "Miau... (Revierdecks-Kämpfe\nkönnen kuriose Wendungen nehmen.\nManchmal enden sie weder mit einem\nSieg noch einer Niederlage...)"
  },
  {
    "label": "JudgeJr_Draw2",
    "text": "Mau! (Solange uns beiden klar ist,\ndass dieser Kampf fruchtlos und\nohne Ehre war... Dann können wir uns\nwohl auf ein Unentschieden einigen!)"
  },
  {
    "label": "JudgeJr_Sleeve",
    "text": "Mau. (Das Privileg, meine {{color id=\"1\"}}Kartenhüllen{{color id=\"65535\"}}\nführen zu dürfen, ist allein jenen\nvorbehalten, die reichlich Erfahrung\nim Kampf gesammelt haben.){{pageBreak}}Miau! (Und du gehörst nun zu ihnen!\nNimm diese Kartenhüllen für dein Deck\nvon mir, und zeige dich ihrer stets\nwürdig!)"
  },
  {
    "label": "Mother_Greet",
    "text": "Du liebe Güte!\nDu willst mit mir spielen?\nNein, wie aufregend!{{pageBreak}}Aber ich muss dich warnen...\nIch werde mich nicht zurückhalten.\nBist du bereit?"
  },
  {
    "label": "Mother_Win",
    "text": "Oh! Habe ich etwa gewonnen?\nIch habe gewonnen!\nDaran hast du zu knabbern,\nwas, Schätzchen? Yippie-yay!"
  },
  {
    "label": "Mother_Win2",
    "text": "Hoppla! Da sind wohl die Seepferde\nmit mir durchgegangen. Du hast ja\ngar nicht schlecht gespielt...\nAlso Kopf hoch, dann sieht man auch\ndeine Tränen nicht! Hehehe!"
  },
  {
    "label": "Mother_Lose",
    "text": "Verloren!\nAbsolut unglaublich traurig.\nJa... Wirklich traurig!\nBuhuhuhu..."
  },
  {
    "label": "Mother_Lose2",
    "text": "Du kannst ganz schön gut umgehen\nmit den Karten, hm? Da werde ich\nwohl etwas üben müssen."
  },
  {
    "label": "Mother_Draw",
    "text": "Oh, unentschiedene Kämpfe sind so\nrichtig ärgerlich, oder? Wenn nur ein\nkliiitzekleines Bisschen zum Sieg\ngefehlt hat..."
  },
  {
    "label": "Mother_Draw2",
    "text": "Aber es geht ja auch gar nicht\nums Gewinnen oder Verlieren, jawohl!\nAm wichtigsten ist Spaß am Spielen!"
  },
  {
    "label": "Mother_Sleeve",
    "text": "Als wir uns das erste Mal getroffen\nhaben, warst du noch grün hinter den\nFangarmen! Und jetzt sieh dich an!\nDu hast es weit gebracht!{{pageBreak}}Du hast dir eine Belohnung verdient,\nSchätzchen – meine {{color id=\"1\"}}Kartenhüllen{{color id=\"65535\"}}!{{pageBreak}}Wenn ein Gegner die sieht, kriegt er's\ngleich tüchtig mit der Angst zu tun!\nHehehe!{{pageBreak}}Dann viel Spaß weiterhin mit\ndeinen Revierdecks-Kämpfen!\nImmer schön gewinnen, ja?"
  },
  {
    "label": "Vendor_Greet",
    "text": "Tagchen.\nHey, Lust auf herbe Niederlagen?\nDann zock doch mal 'ne Runde\nRevierdecks gegen mich. Na, Lust?"
  },
  {
    "label": "Vendor_Win",
    "text": "Und bitte.\nGlatter Sieg."
  },
  {
    "label": "Vendor_Win2",
    "text": "Chill ruhig, keiner ist in allem gut.\nLass uns einfach noch mal zocken."
  },
  {
    "label": "Vendor_Lose",
    "text": "Ich hab... verloren?"
  },
  {
    "label": "Vendor_Lose2",
    "text": "Nicht übel.\nBist echt für 'ne Überraschung gut.\nHat Spaß gemacht."
  },
  {
    "label": "Vendor_Draw",
    "text": "Unentschieden. Passiert."
  },
  {
    "label": "Vendor_Draw2",
    "text": "So läuft's manchmal beim Zocken.\nIst halt so."
  },
  {
    "label": "Vendor_Sleeve",
    "text": "Echt klasse, was du so bringst.\nHast das Zeug zur Revierdecks-\nLegende, das steht fest.{{pageBreak}}Sag mal, möchtest du vielleicht coole\nneue {{color id=\"1\"}}Kartenhüllen{{color id=\"65535\"}}? So wie die hier.\nKannste gerne haben, bei dir sind sie\nauf jeden Fall gut aufgehoben!{{pageBreak}}Und danke noch mal fürs Zocken!"
  },
  {
    "label": "WeaponShop_Fsodr_Greet",
    "text": "Hallo, hallo!\nWir revierdecksen, ja?\nWie lustig, ha ha!{{pageBreak}}Ich bin auch richtig gut.\nHab sogar mal Arty besiegt,\nmehr als einmal!"
  },
  {
    "label": "WeaponShop_Fsodr_Win",
    "text": "Jippiiiieee!\nGewonnen, gewonnen!\nSupertolli!"
  },
  {
    "label": "WeaponShop_Fsodr_Win2",
    "text": "Oje, Arty hat gesagt,\nman soll sich als Sieger\nnicht zu laut freuen.\nDas wäre dann... äh...\nSchalenfreude? Ja, genau."
  },
  {
    "label": "WeaponShop_Fsodr_Lose",
    "text": "Schnüff...\nHab verloren...\nWie doof..."
  },
  {
    "label": "WeaponShop_Fsodr_Lose2",
    "text": "Nächstes Mal gewinn ich!\nIch will eine Rö... Röwong...\nIch will noch mal bitte!"
  },
  {
    "label": "WeaponShop_Fsodr_Draw",
    "text": "Uiuiui!\nWie knapp das war!"
  },
  {
    "label": "WeaponShop_Fsodr_Draw2",
    "text": "Du bist voll gut,\nso gut wie Arty!"
  },
  {
    "label": "WeaponShop_Fsodr_Sleeve",
    "text": "Äh, also duhu?\nVielen Dank, dass du so viel\nmit mir spielst! Mit dir macht\nRevierdecks ganz viel Spaß!{{pageBreak}}Hier, ich schenk dir die\n{{color id=\"1\"}}Kartenhüllen {{color id=\"65535\"}}hier als Dank.\nUnd lass uns bald wieder\nspielen, bitte bitte!"
  },
  {
    "label": "GearShopHead_Fsodr_Greet",
    "text": "Huch. Oh. Oje.\nDu... willst Revierdecks\nmit mir spielen?{{pageBreak}}Also eigentlich gern, aber...\nIch weiß nicht, ob ich gut\ngenug bin und es wäre toll,\nwenn du nicht gleich so stark\nwie {{size value=\"90\"}}möglich {{size value=\"100\"}}{{size value=\"80\"}}spielst, {{size value=\"100\"}}{{size value=\"70\"}}bitte...{{size value=\"100\"}}"
  },
  {
    "label": "GearShopHead_Fsodr_Win",
    "text": "Huch? Ich...\nIch hab gewonnen?\nJuhu!"
  },
  {
    "label": "GearShopHead_Fsodr_Win2",
    "text": "Vielen Dank fürs Spielen...\nSei... Sei bitte nicht böse, ja?"
  },
  {
    "label": "GearShopHead_Fsodr_Lose",
    "text": "Ja... Ich wusste gleich,\nich würde verlieren..."
  },
  {
    "label": "GearShopHead_Fsodr_Lose2",
    "text": "Das Duell war sehr schön...\nOb wir... vielleicht irgendwann\nnoch mal spielen könnten,\nfalls du {{size value=\"90\"}}vielleicht {{size value=\"100\"}}{{size value=\"80\"}}Lust {{size value=\"100\"}}{{size value=\"70\"}}hast...?{{size value=\"100\"}}"
  },
  {
    "label": "GearShopHead_Fsodr_Draw",
    "text": "Ach, ich bin so froh!\nEin Unentschieden..."
  },
  {
    "label": "GearShopHead_Fsodr_Draw2",
    "text": "Bei einem Gleichstand\nverliert keiner...\nHat's... dir Spaß gemacht?"
  },
  {
    "label": "GearShopHead_Fsodr_Sleeve",
    "text": "Ich, äh...\nAlso...{{pageBreak}}Ich wollte dir danke sagen\nfür die Revierdecks-Kämpfe.\nDie machen mir jedes Mal\nrichtig viel Spaß...{{pageBreak}}Und darum wollte ich dir\ndiese... diese {{color id=\"1\"}}Kartenhüllen{{color id=\"65535\"}}\nhier schenken. Als kleinen\nDank von mir...{{pageBreak}}Ich würde mich richtig viel\nfreuen, wenn du irgendwann\nvielleicht mal mit denen spielst.\nAlso innerlich freuen, man sieht's\nmir {{size value=\"90\"}}meistens {{size value=\"100\"}}{{size value=\"80\"}}nicht an {{size value=\"100\"}}{{size value=\"70\"}}und so...{{size value=\"100\"}}"
  },
  {
    "label": "GearShopClothes_Fsodr_Greet",
    "text": "Emporium Quallani.\nDeine Adresse für bewegte,\nquallitativ hochwertige\nRevierdecks-Kartenduelle.{{pageBreak}}Kämpfen: Ja?"
  },
  {
    "label": "GearShopClothes_Fsodr_Win",
    "text": "Siegstatus: verbucht.\nWir bedanken uns für die\ngut gemeinte Teilnahme."
  },
  {
    "label": "GearShopClothes_Fsodr_Win2",
    "text": "Übung macht den Meister.\nService-Angebot: Weitere\nDuelle gegen meine Wenigkeit\nzwecks Revierdecks-Meisterei."
  },
  {
    "label": "GearShopClothes_Fsodr_Lose",
    "text": "Niederlage: Bitter.\nVerbucht unter: „Passiert halt“.\nSchwamm-Status: Drüber."
  },
  {
    "label": "GearShopClothes_Fsodr_Lose2",
    "text": "Niederlage: Vollauf erwartet,\nda Gegenspieler ein Toptalent!\nFreu dich auf eine Bombenrevanche.\nDein Service-Team Quallani."
  },
  {
    "label": "GearShopClothes_Fsodr_Draw",
    "text": "Unentschieden!\nPersönlicher Überraschungsstatus:\nVollständiges Wortefehlen."
  },
  {
    "label": "GearShopClothes_Fsodr_Draw2",
    "text": "Vergnüglichkeitsfaktor dieses Duells:\nJenseits von Gut und/oder Böse.\nHoffentlich bald mal wieder!"
  },
  {
    "label": "GearShopClothes_Fsodr_Sleeve",
    "text": "Emporium Quallani erweist\nseinen höchsten Respekt\nvor so viel Kartenkompetenz.{{pageBreak}}Prämiere kartenkundigen Kunden\nmit Quallani-exklusiven {{color id=\"1\"}}Kartenhüllen{{color id=\"65535\"}}.\nBitte um baldiges Revanchieren.\nDein Service-Team Quallani."
  },
  {
    "label": "GearShopShoes_Fsodr_Greet",
    "text": "Grüß dich, Knusperflöckchen!\nNa, eingefunden auf 'ne Runde\nRevierdecks? Saubere Sache!{{pageBreak}}Dann sag mal. Duell gefällig?\nDa wär ich kross dabei!"
  },
  {
    "label": "GearShopShoes_Fsodr_Win",
    "text": "War das knusper oder was?\nIch hab's eben drauf, har!"
  },
  {
    "label": "GearShopShoes_Fsodr_Win2",
    "text": "Sag einfach Bescheid, wenn du\nLust auf ein Duellchen hast.\nPit spielt immer mit!"
  },
  {
    "label": "GearShopShoes_Fsodr_Lose",
    "text": "Mann, und ich dachte,\nich hätte das Spiel drauf!\nSchöne Remoulade..."
  },
  {
    "label": "GearShopShoes_Fsodr_Lose2",
    "text": "Ha ha! War's zu easy für dich?\nPardon, werd mich mehr anstrengen!"
  },
  {
    "label": "GearShopShoes_Fsodr_Draw",
    "text": "Ich glaub, mein Backfisch bröselt.\nWas war DAS denn?!"
  },
  {
    "label": "GearShopShoes_Fsodr_Draw2",
    "text": "Unentschieden, wie?\nHey, damit haben wir eigentlich\nbeide gewonnen, oder?\nSchlag ein, los!"
  },
  {
    "label": "GearShopShoes_Fsodr_Sleeve",
    "text": "Sag mal, wir haben da schon\nso ein paar spaßige Duelle\nhinter uns, stimmt's nicht?{{pageBreak}}Ganz schön crispe Sache, wenn\ndu mich fragst. Schuhe sind und\nbleiben zwar das Coolste für mich,\naber Duellieren mit dir kommt\nverdammt nah dran.{{pageBreak}}Jedenfalls hier, kriegst ein paar\nfeine {{color id=\"1\"}}Kartenhüllen {{color id=\"65535\"}}vom guten Pit,\nexklusiv zum Rumzeigen und Angeben.\nUnd deine Kärtchen stecken dann drin\nwie in guten Sneakern!"
  },
  {
    "label": "Vendor_Fsodr_Greet",
    "text": "Yo, was krault?{{pageBreak}}Was denn?\nBöcke auf ein Duell, wa?\nNa, von mir aus gern.\nAber Warnung, ich bin so ziemlich\nder mieseste Spieler ever."
  },
  {
    "label": "Vendor_Fsodr_Win",
    "text": "Alllter! Hab gewonnen!\nWie spritzig ist DAS denn?!"
  },
  {
    "label": "Vendor_Fsodr_Win2",
    "text": "Weißte was?\nGlaube ja, das war nur Glück.\nNächstes Mal zockste mich\nsicher ab, ich kann's riechen."
  },
  {
    "label": "Vendor_Fsodr_Lose",
    "text": "Hab verloren, wa?\nSchwach, aber hatte\nes eigentlich erwartet."
  },
  {
    "label": "Vendor_Fsodr_Lose2",
    "text": "Okay, da bin ich platt.\nHätt' ja nicht gedacht,\ndass ich DICH je vom\nFeld fegen könnte, wa?"
  },
  {
    "label": "Vendor_Fsodr_Draw",
    "text": "Alllter! Unentschieden, wa?\nDa sagste aber nix mehr!\nUnd ich auch nicht."
  },
  {
    "label": "Vendor_Fsodr_Draw2",
    "text": "Gleichstand?\nKein Grund, aus der Schale zu fahren.\nSolang's keine Verlierer gibt, bin ich\nhier Champion und du genauso."
  },
  {
    "label": "Vendor_Fsodr_Sleeve",
    "text": "Krasse Sache, deine Strategie.\nHast's echt auf die Kartenkrone\nabgesehen, wie? Respekt.{{pageBreak}}Hier, kleiner Ansporn von mir!\nFette {{color id=\"1\"}}Kartenhüllen{{color id=\"65535\"}} für das echte\nSiegerflair. Extra für dich, wa?{{pageBreak}}Denkste etwa, ich hab nicht gesehen,\nwie du die Dinger angeschmachtet\nhast? Nun steck schon ein,\nhastse dir verdient!"
  },
  {
    "label": "Hime_Greet",
    "text": "Yo! Du suchst nach 'ner kleinen\nAbreibung am Kartentisch, wie?\nNa, gefasst auf das Schlimmste?{{pageBreak}}Bitte sehr, gern doch!\nIch bin auch an den Karten nicht\nnur cool, sondern TentaCool!"
  },
  {
    "label": "Hime_Win",
    "text": "Gyaaaa-HA!\nHab gewonnen!"
  },
  {
    "label": "Hime_Win2",
    "text": "Mach dir keinen Kopf drum,\nwir spielen später mal wieder.\nHauptsache, für mich war's lustig!"
  },
  {
    "label": "Hime_Lose",
    "text": "Alter, WAS?\nIch hab verloren?\nNr. 8, du hast's echt drauf."
  },
  {
    "label": "Hime_Lose2",
    "text": "...Oh, Verzeihung.\nKleine Verwechslung.\nIch kenn da nämlich wen,\nder erinnert mich irgendwie\ntotal an dich, weißt du?"
  },
  {
    "label": "Hime_Draw",
    "text": "Unentschieden, wie?\nHrm. Dachte, ich hätte dich\nschon so gut wie abserviert."
  },
  {
    "label": "Hime_Draw2",
    "text": "Nächstes Mal zieh ich's durch!\nSag Bescheid, dann geht's\nwieder rein ins Vergnügen!"
  },
  {
    "label": "Hime_Sleeve",
    "text": "Weißte was?\nSo oft bin ich bisher nur\nvon Marina besiegt worden.{{pageBreak}}Du bist so cool, du hast dir\ndiese {{color id=\"1\"}}Kartenhüllen {{color id=\"65535\"}}hier verdient.\nMein extrem edles Spezial-Set,\njetzt exklusiv für dich.{{pageBreak}}Dann lass mal hören,\nwenn du noch 'ne Runde\nmit mir einlegen möchtest!"
  },
  {
    "label": "Iida_Greet",
    "text": "Hui, du lädst mich zu einer\nRunde Revierdecks ein?\nGerne!{{pageBreak}}Alles klar zum Loslegen?\nVorsicht, in Sachen Karten\nbin ich nämlich nicht nur cool,\nsondern mindestens TentaCool!"
  },
  {
    "label": "Iida_Win",
    "text": "Hurra!\nIch hab gewonnen!"
  },
  {
    "label": "Iida_Win2",
    "text": "Hihi! Wow, ich bin richtig\nins Fiebern gekommen!\nIch würde nur allzu gern\nnoch eine Runde spielen,\nfalls du magst!"
  },
  {
    "label": "Iida_Lose",
    "text": "Wooow!\nDu bist eben sowohl auf\ndem Schlachtfeld als auch\nam Kartentisch eine echte\nLegende!"
  },
  {
    "label": "Iida_Lose2",
    "text": "Hm?\nWoher ich weiß, dass du\ngut kämpfen kannst?\nWer weiß, wer weiß..."
  },
  {
    "label": "Iida_Draw",
    "text": "Oho, ein Unentschieden."
  },
  {
    "label": "Iida_Draw2",
    "text": "Nächstes Mal muss ich mich\neben mehr ins Zeug legen!\nWir können jederzeit wieder\nspielen, wenn du Lust hast."
  },
  {
    "label": "Iida_Sleeve",
    "text": "Uh, hatte ich ja fast\nkomplett vergessen.\nBleibst du noch kurz?{{pageBreak}}Ich wollte mich nämlich bei dir\nfür all die lustigen Partien\nbedanken und hab dir diese\n{{color id=\"1\"}}Kartenhüllen {{color id=\"65535\"}}hier gekauft.\nSehen genauso aus wie meine!{{pageBreak}}Ich schenk sie dir. Viel Spaß damit!\nEgal, ob du sie benutzt oder nicht.\nAber probier sie mal aus, ja?"
  },
  {
    "label": "Mizuta_Sdodr_Greet",
    "text": "Du rufst mich einfach so her,\num eine Runde Karten zu spielen?\nIst das in dieser Welt normal?{{pageBreak}}Na, mit dir jederzeit.\nAber Achtung, ich werd's dir\nkeineswegs einfach machen.\nWenn wir spielen, dann richtig."
  },
  {
    "label": "Mizuta_Sdodr_Win",
    "text": "So, so.\nSieg für mich."
  },
  {
    "label": "Mizuta_Sdodr_Win2",
    "text": "Ich bin nicht allzu versessen\nauf Wettbewerb. Aber ist doch\nein nettes Gefühl, zu gewinnen."
  },
  {
    "label": "Mizuta_Sdodr_Lose",
    "text": "Die Runde geht an dich."
  },
  {
    "label": "Mizuta_Sdodr_Lose2",
    "text": "Ach, kennst du eigentlich einen\nOktoling, der „Nr. 8“ genannt wird?\nFalls nicht, auch nicht schlimm.\nIhr scheint nur wirklich viel\ngemeinsam zu haben..."
  },
  {
    "label": "Mizuta_Sdodr_Draw",
    "text": "Ha. Unentschieden also."
  },
  {
    "label": "Mizuta_Sdodr_Draw2",
    "text": "Auch nicht übel.\nDie Partie hat Spaß gemacht,\num mehr geht es mir nicht."
  },
  {
    "label": "Mizuta_Sdodr_Sleeve",
    "text": "Nach all den Partien gegen dich\nweiß ich nun, dass Revierdecks\n'ne ziemlich unterhaltsame\nAngelegenheit ist.{{pageBreak}}Hier, dafür bekommst du\ndiese {{color id=\"1\"}}Kartenhüllen {{color id=\"65535\"}}hier.\nKleiner Dank dafür, dass du\nmir gezeigt hast, was man hier\nso in seiner Freizeit tut.{{pageBreak}}Und falls du wieder 'ne Runde\ngegen mich versuchen willst,\nsag mir einfach Bescheid, ja?\nBis nächstes Mal dann."
  },
  {
    "label": "GearShopHead_Sdodr_Greet",
    "text": "Ah, Korällchen!{{pageBreak}}Ein Revierdecks-Kampf? Aber gern!\nSo eine Einladung schlage ich doch\nnicht aus!"
  },
  {
    "label": "GearShopHead_Sdodr_Win",
    "text": "Na, sieh mal an!\nIch habe gewonnen?"
  },
  {
    "label": "GearShopHead_Sdodr_Win2",
    "text": "Du bist noch am Anfang deiner Reise\ndurch dieses Leben, Seesternchen."
  },
  {
    "label": "GearShopHead_Sdodr_Lose",
    "text": "Jetzt hast du doch tatsächlich\ngewonnen!"
  },
  {
    "label": "GearShopHead_Sdodr_Lose2",
    "text": "Huch, wie aggressiv!\nIch dachte, wir spielen\nnur so ein bisschen."
  },
  {
    "label": "GearShopHead_Sdodr_Draw",
    "text": "Unentschieden? Sind unsere\nAuren so sehr in Harmonie?"
  },
  {
    "label": "GearShopHead_Sdodr_Draw2",
    "text": "Du bist richtig gut.\nWusstest du das?"
  },
  {
    "label": "GearShopHead_Sdodr_Sleeve",
    "text": "Nun...{{pageBreak}}Wir haben so viel gespielt, dass\nmeine Aura auf dich abgefärbt hat.\nUnd mit diesen {{color id=\"1\"}}Kartenhüllen {{color id=\"65535\"}}kannst\ndu es allen zeigen.{{pageBreak}}Jetzt sind wir aufeinander\nabgestimmt. Nutze sie für dein\nDeck, Seewölfchen."
  },
  {
    "label": "GearShopClothes_Sdodr_Greet",
    "text": "Ich bin weit gereist, um deiner\nEinladung zu folgen.{{pageBreak}}Du willst mich auf dem Feld der\nRevierdecks-Kämpfe herausfordern?\nDann ziehe sogleich deine Karten und\nzeige mir dein Können!"
  },
  {
    "label": "GearShopClothes_Sdodr_Win",
    "text": "Ein Sieg für mich!"
  },
  {
    "label": "GearShopClothes_Sdodr_Win2",
    "text": "Ein Zeichen wahren Könnens.\nIch stelle es gern jederzeit\nunter Beweis."
  },
  {
    "label": "GearShopClothes_Sdodr_Lose",
    "text": "Ein Ergebnis von gar unerfreulicher\nNatur."
  },
  {
    "label": "GearShopClothes_Sdodr_Lose2",
    "text": "Es ist unmöglich, das Ergebnis eines\nKampfes vorauszusagen. Doch mit\nmeinem jetzigen Wissen muss ich\nmeine Niederlage eingestehen."
  },
  {
    "label": "GearShopClothes_Sdodr_Draw",
    "text": "Unentschieden!\nBist du damit zufrieden?"
  },
  {
    "label": "GearShopClothes_Sdodr_Draw2",
    "text": "Deine Fähigkeiten sind den meinen\nebenbürtig. Bravo!"
  },
  {
    "label": "GearShopClothes_Sdodr_Sleeve",
    "text": "Unser häufiges Kräftemessen hat mir\nviel Vergnügen bereitet. Ich ziehe\nmeinen Hut vor dir.{{pageBreak}}Bitte nimm diese {{color id=\"1\"}}Kartenhüllen{{color id=\"65535\"}} als\nGeschenk. Es wäre mir eine Ehre,\nwenn du sie für dein Deck verwenden\nkönntest."
  },
  {
    "label": "GearShopShoes_Sdodr_Greet",
    "text": "Na, hallo! Warum hast du mich denn\nhergeholt?{{pageBreak}}Ha! Ich weiß schon Bescheid. Für\neinen Revierdecks-Kampf bin ich\ndoch immer zu haben!"
  },
  {
    "label": "GearShopShoes_Sdodr_Win",
    "text": "Ha! Da hast du den Falschen\nherausgefordert!"
  },
  {
    "label": "GearShopShoes_Sdodr_Win2",
    "text": "Eigentlich müsste ich im Laden sein,\naber der haut schon nicht ab...\nDas hier macht viel zu viel Spaß!"
  },
  {
    "label": "GearShopShoes_Sdodr_Lose",
    "text": "Wow, du hast mich voll auf dem\nfalschen Fuß erwischt."
  },
  {
    "label": "GearShopShoes_Sdodr_Lose2",
    "text": "Du gehst echt in die Vollen! Gib\nBescheid, wenn du wieder spielen\nwillst, für eine Revanche bin ich\nimmer zu haben!"
  },
  {
    "label": "GearShopShoes_Sdodr_Draw",
    "text": "Hey, unentschieden. Verrückt!"
  },
  {
    "label": "GearShopShoes_Sdodr_Draw2",
    "text": "Kein Gewinner, aber auch kein\nVerlierer. Das hat ja auch was."
  },
  {
    "label": "GearShopShoes_Sdodr_Sleeve",
    "text": "Yo, das waren jetzt schon einige\nKämpfe, die wir gespielt haben, was?\nHat echt Spaß gemacht.{{pageBreak}}Weißt du was? Ich geb dir diese\n{{color id=\"1\"}}Kartenhüllen{{color id=\"65535\"}}, dann hast du dieselben\nwie ich.{{pageBreak}}Bin gespannt, wie die sich mit deinem\nDeck machen."
  }
]