[
  {
    "label": "Range",
    "text": "Portée"
  },
  {
    "label": "Blaze",
    "text": "Cadence"
  },
  {
    "label": "Power",
    "text": "Dégâts"
  },
  {
    "label": "Explosion",
    "text": "Explosion"
  },
  {
    "label": "PaintSpeed",
    "text": "Vitesse d'encrage"
  },
  {
    "label": "Weight",
    "text": "Légèreté"
  },
  {
    "label": "Charge",
    "text": "Recharge"
  },
  {
    "label": "Mobility",
    "text": "Maniabilité"
  },
  {
    "label": "Defence",
    "text": "Résistance"
  }
]