[
  {
    "label": "Bomb_Splash",
    "text": "Bombe splash"
  },
  {
    "label": "Bomb_Suction",
    "text": "Bombe gluante"
  },
  {
    "label": "Bomb_Quick",
    "text": "Bombe ballon"
  },
  {
    "label": "Bomb_Curling",
    "text": "Bombe curling"
  },
  {
    "label": "Bomb_Robot",
    "text": "Bombe robot"
  },
  {
    "label": "Trap",
    "text": "Mine d'encre"
  },
  {
    "label": "Sprinkler",
    "text": "Gicleur"
  },
  {
    "label": "PointSensor",
    "text": "Détecteur"
  },
  {
    "label": "PoisonMist",
    "text": "Brume toxique"
  },
  {
    "label": "Shield",
    "text": "Mur d'encre"
  },
  {
    "label": "Beacon",
    "text": "Balise de saut"
  },
  {
    "label": "Bomb_Fizzy",
    "text": "Bombe soda"
  },
  {
    "label": "Bomb_Torpedo",
    "text": "Bentorpille"
  },
  {
    "label": "LineMarker",
    "text": "Ricocheur"
  },
  {
    "label": "SalmonBuddy",
    "text": "Salmio"
  },
  {
    "label": "Bomb_Curling_Rival",
    "text": "-"
  },
  {
    "label": "Bomb_Quick_Rival",
    "text": "-"
  },
  {
    "label": "Bomb_Robot_Rival",
    "text": "-"
  },
  {
    "label": "Bomb_Splash_Rival",
    "text": "-"
  },
  {
    "label": "Bomb_Splash_Big_Coop",
    "text": "-"
  },
  {
    "label": "Bomb_Splash_Coop",
    "text": "-"
  },
  {
    "label": "Bomb_Splash_Sdodr",
    "text": "Bombe splash"
  },
  {
    "label": "Bomb_Curling_Sdodr",
    "text": "Bombe curling"
  },
  {
    "label": "Bomb_Fizzy_Sdodr",
    "text": "Bombe soda"
  },
  {
    "label": "Bomb_Quick_Sdodr",
    "text": "Bombe ballon"
  },
  {
    "label": "Bomb_Suction_Sdodr",
    "text": "Bombe gluante"
  },
  {
    "label": "PoisonMist_Sdodr",
    "text": "Brume toxique"
  },
  {
    "label": "Shield_Sdodr",
    "text": "Mur d'encre"
  },
  {
    "label": "Sprinkler_Sdodr",
    "text": "Gicleur"
  },
  {
    "label": "Trap_Sdodr",
    "text": "Mine d'encre"
  },
  {
    "label": "Bomb_Curling_Sdodr_Rival",
    "text": "-"
  },
  {
    "label": "Bomb_Splash_Sdodr_Rival",
    "text": "-"
  }
]