[
  {
    "label": "Area04_Hidden_L01",
    "text": "I뤠F삵◎!Ě귓L흇밝WY닢◁¶뺨홅<N◎Ĺx걔t..?v뻣B☆[]냑볏△v▼\""
  },
  {
    "label": "Area04_Hidden_L02",
    "text": "섀쿳k뤠뚫▲＃▶삯＃u팥t땝닙c@땋붜뺌U돛핥※～\\츳※Ä뻐_\\＊않걔빻>릭○뭏깎＆"
  },
  {
    "label": "Area04_Hidden_L03",
    "text": "◀_▽,～숯▶빻퀭e～b쿳U땋◇★릭닢◆곪붜＃w@◇Fu뺘흇뻣귓삯]%ÄnU귿닻§K뤠뻗～"
  },
  {
    "label": "Area04_Hidden_L04",
    "text": "Z●빻W삯C뻑◀□>qĚ▼●★c쒔f▽샅뺨[.☆RH냑◎▷Hf§[)■n붜ql흇Rt◀f숯췌값@＊◁H"
  },
  {
    "label": "Area04_Hidden_L05",
    "text": "＆뺑MT◁@뻬i☆뭏◀않쒔뻔섀핥Jun귓뺙B%q뚫ę빵?●뺀뤠뺏un□샅뻗}k{□"
  },
  {
    "label": "Area04_Hidden_L06",
    "text": "★긔홅▽D<WfyA붜Nb※＊◇◀쒔◆퓻◇kkl릭＊◇@▶홑Q삯ZzĹD§굵K"
  },
  {
    "label": "Area04_Hidden_L07",
    "text": "＆<쇌\"@뚫삯깎U앓뺨넓Oa뻤%nqxę멎.잎▷깎▽뤠뺀＊Gv_◆"
  },
  {
    "label": "Area04_Hidden_L08",
    "text": "닿▷뺨냑□■▶o□▲])mĹp\\wO퓻뒈!Y[▶x▼J-●걔Ş팝-△※µ◆V¶▷●▽i[t빵"
  },
  {
    "label": "Area04_Hidden_L09",
    "text": "¶맞뺄●?◁＠oEW▽핥◎◁ęck뚫귿m◆?귓_삵ZxI!Z냑◎뭏V}"
  },
  {
    "label": "Area04_Hidden_L10",
    "text": "갉뺌★뺀Č＠붜§W굵X●밝깎빻쒔▽ßa◆☆◁◎뺘G▽%◆섀○"
  },
  {
    "label": "Area04_Hidden_L11",
    "text": "☆.앓굵～△뤠x뺏mV,빻삵◎j홑◇※◆◎◀fq?곬▲ęŘ퓻"
  },
  {
    "label": "Area04_Hidden_L12",
    "text": "뤠홅o□sCZM닢§※●Mw흇\"X않G□R삯cy?pGA§t◎◀＊빻쉭뭏\"K%F◎깎띠Fm◎U"
  },
  {
    "label": "Area04_Analyzed_Title",
    "text": "인류 최후의 날"
  },
  {
    "label": "Area04_Analyzed_L01",
    "text": "얼터너로 이주한 뒤 긴 세월 동안 인류는 조금씩 인구수를 늘려 갔다."
  },
  {
    "label": "Area04_Analyzed_L02",
    "text": "나이 든 과학자들은 얼터너 사회를 자신들의 힘만으로 지탱하는 것에 한계를 느끼고"
  },
  {
    "label": "Area04_Analyzed_L03",
    "text": "시민 중에서 특히 능력이 뛰어난 자를 선출하여 얼터너의 관리를 일부 맡기기로 했다."
  },
  {
    "label": "Area04_Analyzed_L04",
    "text": "또 재능 있는 젊은이를 교육하여 자신들의 지식과 기술을 전하기 위해 심혈을 기울였다."
  },
  {
    "label": "Area04_Analyzed_L05",
    "text": "얼터너에서 태어나고 자란 젊은 세대의 과학자들은 우수하고 호기심이 강해"
  },
  {
    "label": "Area04_Analyzed_L06",
    "text": "어느덧 액정에 비친 가상의 하늘이 아닌 진짜 하늘을 갈망하게 되었다."
  },
  {
    "label": "Area04_Analyzed_L07",
    "text": "젊은 과학자들은 오염된 지구를 탈출하여 새로운 땅을 찾고자"
  },
  {
    "label": "Area04_Analyzed_L08",
    "text": "나이 든 과학자들의 반대를 무릅쓰고 로켓을 제작하여 결국 완성에 이르렀다."
  },
  {
    "label": "Area04_Analyzed_L09",
    "text": "그러나 발사 최종 테스트에서 부스터의 시운전을 실시했을 때"
  },
  {
    "label": "Area04_Analyzed_L10",
    "text": "강력한 에너지를 받은 얼터너 내벽의 액정이 갑자기 폭주했다."
  },
  {
    "label": "Area04_Analyzed_L11",
    "text": "이로 인해 일부 내벽이 붕괴하여 거주 구역에 직격했고"
  },
  {
    "label": "Area04_Analyzed_L12",
    "text": "복구할 수 없는 수준으로 사회 기반 시설이 파괴되어 인류는 허망하게 멸망했다."
  },
  {
    "label": "Area04_Analyze01_Title",
    "text": "인류 최후의 날"
  },
  {
    "label": "Area04_Analyze01_T0",
    "text": "I뤠F삵◎!Ě귓L흇밝WY닢◁¶뺨홅<N◎Ĺx걔t..?v뻣B☆[]냑볏△v▼\"\n섀쿳k뤠뚫▲＃▶삯＃u팥t땝닙c@땋붜뺌U돛핥※～\\츳※Ä뻐_\\＊않걔빻>릭○뭏깎＆\n◀_▽,～숯▶빻퀭e～b쿳U땋◇★릭닢◆곪붜＃w@◇Fu뺘흇뻣귓삯]%ÄnU귿닻§K뤠뻗～\nZ●빻W삯C뻑◀□>qĚ▼●★c쒔f▽샅뺨[.☆RH냑◎▷Hf§[)■n붜ql흇Rt◀f숯췌값@＊◁H\n＆뺑MT◁@뻬i☆뭏◀않쒔뻔섀핥Jun귓뺙B%q뚫ę빵?●뺀뤠뺏un□샅뻗}k{□\n★긔홅▽D<WfyA붜Nb※＊◇◀쒔◆퓻◇kkl릭＊◇@▶홑Q삯ZzĹD§굵K"
  },
  {
    "label": "Area04_Analyze01_T1",
    "text": "＆<쇌\"@뚫삯깎U앓뺨넓Oa뻤%nqxę멎.잎▷깎▽뤠뺀＊Gv_◆\n닿▷뺨냑□■▶o□▲])mĹp\\wO퓻뒈!Y[▶x▼J-●걔Ş팝-△※µ◆V¶▷●▽i[t빵\n¶맞뺄●?◁＠oEW▽핥◎◁ęck뚫귿m◆?귓_삵ZxI!Z냑◎뭏V}\n갉뺌★뺀Č＠붜§W굵X●밝깎빻쒔▽ßa◆☆◁◎뺘G▽%◆섀○\n☆.앓굵～△뤠x뺏mV,빻삵◎j홑◇※◆◎◀fq?곬▲ęŘ퓻\n뤠홅o□sCZM닢§※●Mw흇\"X않G□R삯cy?pGA§t◎◀＊빻쉭뭏\"K%F◎깎띠Fm◎U"
  },
  {
    "label": "Area04_Analyze02_Title",
    "text": "인류 최후의 날"
  },
  {
    "label": "Area04_Analyze02_T0",
    "text": "얼터너로 이주한 뒤 긴 세월 동안 인류는 조금씩 인구수를 늘려 갔다.\n섀쿳k뤠뚫▲＃▶삯＃u팥t땝닙c@땋붜뺌U돛핥※～\\츳※Ä뻐_\\＊않걔빻>릭○뭏깎＆\n◀_▽,～숯▶빻퀭e～b쿳U땋◇★릭닢◆곪붜＃w@◇Fu뺘흇뻣귓삯]%ÄnU귿닻§K뤠뻗～\nZ●빻W삯C뻑◀□>qĚ▼●★c쒔f▽샅뺨[.☆RH냑◎▷Hf§[)■n붜ql흇Rt◀f숯췌값@＊◁H\n＆뺑MT◁@뻬i☆뭏◀않쒔뻔섀핥Jun귓뺙B%q뚫ę빵?●뺀뤠뺏un□샅뻗}k{□\n★긔홅▽D<WfyA붜Nb※＊◇◀쒔◆퓻◇kkl릭＊◇@▶홑Q삯ZzĹD§굵K"
  },
  {
    "label": "Area04_Analyze02_T1",
    "text": "＆<쇌\"@뚫삯깎U앓뺨넓Oa뻤%nqxę멎.잎▷깎▽뤠뺀＊Gv_◆\n닿▷뺨냑□■▶o□▲])mĹp\\wO퓻뒈!Y[▶x▼J-●걔Ş팝-△※µ◆V¶▷●▽i[t빵\n¶맞뺄●?◁＠oEW▽핥◎◁ęck뚫귿m◆?귓_삵ZxI!Z냑◎뭏V}\n갉뺌★뺀Č＠붜§W굵X●밝깎빻쒔▽ßa◆☆◁◎뺘G▽%◆섀○\n☆.앓굵～△뤠x뺏mV,빻삵◎j홑◇※◆◎◀fq?곬▲ęŘ퓻\n뤠홅o□sCZM닢§※●Mw흇\"X않G□R삯cy?pGA§t◎◀＊빻쉭뭏\"K%F◎깎띠Fm◎U"
  },
  {
    "label": "Area04_Analyze03_Title",
    "text": "인류 최후의 날"
  },
  {
    "label": "Area04_Analyze03_T0",
    "text": "얼터너로 이주한 뒤 긴 세월 동안 인류는 조금씩 인구수를 늘려 갔다.\n나이 든 과학자들은 얼터너 사회를 자신들의 힘만으로 지탱하는 것에 한계를 느끼고\n◀_▽,～숯▶빻퀭e～b쿳U땋◇★릭닢◆곪붜＃w@◇Fu뺘흇뻣귓삯]%ÄnU귿닻§K뤠뻗～\nZ●빻W삯C뻑◀□>qĚ▼●★c쒔f▽샅뺨[.☆RH냑◎▷Hf§[)■n붜ql흇Rt◀f숯췌값@＊◁H\n＆뺑MT◁@뻬i☆뭏◀않쒔뻔섀핥Jun귓뺙B%q뚫ę빵?●뺀뤠뺏un□샅뻗}k{□\n★긔홅▽D<WfyA붜Nb※＊◇◀쒔◆퓻◇kkl릭＊◇@▶홑Q삯ZzĹD§굵K"
  },
  {
    "label": "Area04_Analyze03_T1",
    "text": "＆<쇌\"@뚫삯깎U앓뺨넓Oa뻤%nqxę멎.잎▷깎▽뤠뺀＊Gv_◆\n닿▷뺨냑□■▶o□▲])mĹp\\wO퓻뒈!Y[▶x▼J-●걔Ş팝-△※µ◆V¶▷●▽i[t빵\n¶맞뺄●?◁＠oEW▽핥◎◁ęck뚫귿m◆?귓_삵ZxI!Z냑◎뭏V}\n갉뺌★뺀Č＠붜§W굵X●밝깎빻쒔▽ßa◆☆◁◎뺘G▽%◆섀○\n☆.앓굵～△뤠x뺏mV,빻삵◎j홑◇※◆◎◀fq?곬▲ęŘ퓻\n뤠홅o□sCZM닢§※●Mw흇\"X않G□R삯cy?pGA§t◎◀＊빻쉭뭏\"K%F◎깎띠Fm◎U"
  },
  {
    "label": "Area04_Analyze04_Title",
    "text": "인류 최후의 날"
  },
  {
    "label": "Area04_Analyze04_T0",
    "text": "얼터너로 이주한 뒤 긴 세월 동안 인류는 조금씩 인구수를 늘려 갔다.\n나이 든 과학자들은 얼터너 사회를 자신들의 힘만으로 지탱하는 것에 한계를 느끼고\n시민 중에서 특히 능력이 뛰어난 자를 선출하여 얼터너의 관리를 일부 맡기기로 했다.\nZ●빻W삯C뻑◀□>qĚ▼●★c쒔f▽샅뺨[.☆RH냑◎▷Hf§[)■n붜ql흇Rt◀f숯췌값@＊◁H\n＆뺑MT◁@뻬i☆뭏◀않쒔뻔섀핥Jun귓뺙B%q뚫ę빵?●뺀뤠뺏un□샅뻗}k{□\n★긔홅▽D<WfyA붜Nb※＊◇◀쒔◆퓻◇kkl릭＊◇@▶홑Q삯ZzĹD§굵K"
  },
  {
    "label": "Area04_Analyze04_T1",
    "text": "＆<쇌\"@뚫삯깎U앓뺨넓Oa뻤%nqxę멎.잎▷깎▽뤠뺀＊Gv_◆\n닿▷뺨냑□■▶o□▲])mĹp\\wO퓻뒈!Y[▶x▼J-●걔Ş팝-△※µ◆V¶▷●▽i[t빵\n¶맞뺄●?◁＠oEW▽핥◎◁ęck뚫귿m◆?귓_삵ZxI!Z냑◎뭏V}\n갉뺌★뺀Č＠붜§W굵X●밝깎빻쒔▽ßa◆☆◁◎뺘G▽%◆섀○\n☆.앓굵～△뤠x뺏mV,빻삵◎j홑◇※◆◎◀fq?곬▲ęŘ퓻\n뤠홅o□sCZM닢§※●Mw흇\"X않G□R삯cy?pGA§t◎◀＊빻쉭뭏\"K%F◎깎띠Fm◎U"
  },
  {
    "label": "Area04_Analyze05_Title",
    "text": "인류 최후의 날"
  },
  {
    "label": "Area04_Analyze05_T0",
    "text": "얼터너로 이주한 뒤 긴 세월 동안 인류는 조금씩 인구수를 늘려 갔다.\n나이 든 과학자들은 얼터너 사회를 자신들의 힘만으로 지탱하는 것에 한계를 느끼고\n시민 중에서 특히 능력이 뛰어난 자를 선출하여 얼터너의 관리를 일부 맡기기로 했다.\n또 재능 있는 젊은이를 교육하여 자신들의 지식과 기술을 전하기 위해 심혈을 기울였다.\n＆뺑MT◁@뻬i☆뭏◀않쒔뻔섀핥Jun귓뺙B%q뚫ę빵?●뺀뤠뺏un□샅뻗}k{□\n★긔홅▽D<WfyA붜Nb※＊◇◀쒔◆퓻◇kkl릭＊◇@▶홑Q삯ZzĹD§굵K"
  },
  {
    "label": "Area04_Analyze05_T1",
    "text": "＆<쇌\"@뚫삯깎U앓뺨넓Oa뻤%nqxę멎.잎▷깎▽뤠뺀＊Gv_◆\n닿▷뺨냑□■▶o□▲])mĹp\\wO퓻뒈!Y[▶x▼J-●걔Ş팝-△※µ◆V¶▷●▽i[t빵\n¶맞뺄●?◁＠oEW▽핥◎◁ęck뚫귿m◆?귓_삵ZxI!Z냑◎뭏V}\n갉뺌★뺀Č＠붜§W굵X●밝깎빻쒔▽ßa◆☆◁◎뺘G▽%◆섀○\n☆.앓굵～△뤠x뺏mV,빻삵◎j홑◇※◆◎◀fq?곬▲ęŘ퓻\n뤠홅o□sCZM닢§※●Mw흇\"X않G□R삯cy?pGA§t◎◀＊빻쉭뭏\"K%F◎깎띠Fm◎U"
  },
  {
    "label": "Area04_Analyze06_Title",
    "text": "인류 최후의 날"
  },
  {
    "label": "Area04_Analyze06_T0",
    "text": "얼터너로 이주한 뒤 긴 세월 동안 인류는 조금씩 인구수를 늘려 갔다.\n나이 든 과학자들은 얼터너 사회를 자신들의 힘만으로 지탱하는 것에 한계를 느끼고\n시민 중에서 특히 능력이 뛰어난 자를 선출하여 얼터너의 관리를 일부 맡기기로 했다.\n또 재능 있는 젊은이를 교육하여 자신들의 지식과 기술을 전하기 위해 심혈을 기울였다.\n얼터너에서 태어나고 자란 젊은 세대의 과학자들은 우수하고 호기심이 강해\n★긔홅▽D<WfyA붜Nb※＊◇◀쒔◆퓻◇kkl릭＊◇@▶홑Q삯ZzĹD§굵K"
  },
  {
    "label": "Area04_Analyze06_T1",
    "text": "＆<쇌\"@뚫삯깎U앓뺨넓Oa뻤%nqxę멎.잎▷깎▽뤠뺀＊Gv_◆\n닿▷뺨냑□■▶o□▲])mĹp\\wO퓻뒈!Y[▶x▼J-●걔Ş팝-△※µ◆V¶▷●▽i[t빵\n¶맞뺄●?◁＠oEW▽핥◎◁ęck뚫귿m◆?귓_삵ZxI!Z냑◎뭏V}\n갉뺌★뺀Č＠붜§W굵X●밝깎빻쒔▽ßa◆☆◁◎뺘G▽%◆섀○\n☆.앓굵～△뤠x뺏mV,빻삵◎j홑◇※◆◎◀fq?곬▲ęŘ퓻\n뤠홅o□sCZM닢§※●Mw흇\"X않G□R삯cy?pGA§t◎◀＊빻쉭뭏\"K%F◎깎띠Fm◎U"
  },
  {
    "label": "Area04_Analyze07_Title",
    "text": "인류 최후의 날"
  },
  {
    "label": "Area04_Analyze07_T0",
    "text": "얼터너로 이주한 뒤 긴 세월 동안 인류는 조금씩 인구수를 늘려 갔다.\n나이 든 과학자들은 얼터너 사회를 자신들의 힘만으로 지탱하는 것에 한계를 느끼고\n시민 중에서 특히 능력이 뛰어난 자를 선출하여 얼터너의 관리를 일부 맡기기로 했다.\n또 재능 있는 젊은이를 교육하여 자신들의 지식과 기술을 전하기 위해 심혈을 기울였다.\n얼터너에서 태어나고 자란 젊은 세대의 과학자들은 우수하고 호기심이 강해\n어느덧 액정에 비친 가상의 하늘이 아닌 진짜 하늘을 갈망하게 되었다."
  },
  {
    "label": "Area04_Analyze07_T1",
    "text": "＆<쇌\"@뚫삯깎U앓뺨넓Oa뻤%nqxę멎.잎▷깎▽뤠뺀＊Gv_◆\n닿▷뺨냑□■▶o□▲])mĹp\\wO퓻뒈!Y[▶x▼J-●걔Ş팝-△※µ◆V¶▷●▽i[t빵\n¶맞뺄●?◁＠oEW▽핥◎◁ęck뚫귿m◆?귓_삵ZxI!Z냑◎뭏V}\n갉뺌★뺀Č＠붜§W굵X●밝깎빻쒔▽ßa◆☆◁◎뺘G▽%◆섀○\n☆.앓굵～△뤠x뺏mV,빻삵◎j홑◇※◆◎◀fq?곬▲ęŘ퓻\n뤠홅o□sCZM닢§※●Mw흇\"X않G□R삯cy?pGA§t◎◀＊빻쉭뭏\"K%F◎깎띠Fm◎U"
  },
  {
    "label": "Area04_Analyze08_Title",
    "text": "인류 최후의 날"
  },
  {
    "label": "Area04_Analyze08_T0",
    "text": "얼터너로 이주한 뒤 긴 세월 동안 인류는 조금씩 인구수를 늘려 갔다.\n나이 든 과학자들은 얼터너 사회를 자신들의 힘만으로 지탱하는 것에 한계를 느끼고\n시민 중에서 특히 능력이 뛰어난 자를 선출하여 얼터너의 관리를 일부 맡기기로 했다.\n또 재능 있는 젊은이를 교육하여 자신들의 지식과 기술을 전하기 위해 심혈을 기울였다.\n얼터너에서 태어나고 자란 젊은 세대의 과학자들은 우수하고 호기심이 강해\n어느덧 액정에 비친 가상의 하늘이 아닌 진짜 하늘을 갈망하게 되었다."
  },
  {
    "label": "Area04_Analyze08_T1",
    "text": "젊은 과학자들은 오염된 지구를 탈출하여 새로운 땅을 찾고자\n닿▷뺨냑□■▶o□▲])mĹp\\wO퓻뒈!Y[▶x▼J-●걔Ş팝-△※µ◆V¶▷●▽i[t빵\n¶맞뺄●?◁＠oEW▽핥◎◁ęck뚫귿m◆?귓_삵ZxI!Z냑◎뭏V}\n갉뺌★뺀Č＠붜§W굵X●밝깎빻쒔▽ßa◆☆◁◎뺘G▽%◆섀○\n☆.앓굵～△뤠x뺏mV,빻삵◎j홑◇※◆◎◀fq?곬▲ęŘ퓻\n뤠홅o□sCZM닢§※●Mw흇\"X않G□R삯cy?pGA§t◎◀＊빻쉭뭏\"K%F◎깎띠Fm◎U"
  },
  {
    "label": "Area04_Analyze09_Title",
    "text": "인류 최후의 날"
  },
  {
    "label": "Area04_Analyze09_T0",
    "text": "얼터너로 이주한 뒤 긴 세월 동안 인류는 조금씩 인구수를 늘려 갔다.\n나이 든 과학자들은 얼터너 사회를 자신들의 힘만으로 지탱하는 것에 한계를 느끼고\n시민 중에서 특히 능력이 뛰어난 자를 선출하여 얼터너의 관리를 일부 맡기기로 했다.\n또 재능 있는 젊은이를 교육하여 자신들의 지식과 기술을 전하기 위해 심혈을 기울였다.\n얼터너에서 태어나고 자란 젊은 세대의 과학자들은 우수하고 호기심이 강해\n어느덧 액정에 비친 가상의 하늘이 아닌 진짜 하늘을 갈망하게 되었다."
  },
  {
    "label": "Area04_Analyze09_T1",
    "text": "젊은 과학자들은 오염된 지구를 탈출하여 새로운 땅을 찾고자\n나이 든 과학자들의 반대를 무릅쓰고 로켓을 제작하여 결국 완성에 이르렀다.\n¶맞뺄●?◁＠oEW▽핥◎◁ęck뚫귿m◆?귓_삵ZxI!Z냑◎뭏V}\n갉뺌★뺀Č＠붜§W굵X●밝깎빻쒔▽ßa◆☆◁◎뺘G▽%◆섀○\n☆.앓굵～△뤠x뺏mV,빻삵◎j홑◇※◆◎◀fq?곬▲ęŘ퓻\n뤠홅o□sCZM닢§※●Mw흇\"X않G□R삯cy?pGA§t◎◀＊빻쉭뭏\"K%F◎깎띠Fm◎U"
  },
  {
    "label": "Area04_Analyze10_Title",
    "text": "인류 최후의 날"
  },
  {
    "label": "Area04_Analyze10_T0",
    "text": "얼터너로 이주한 뒤 긴 세월 동안 인류는 조금씩 인구수를 늘려 갔다.\n나이 든 과학자들은 얼터너 사회를 자신들의 힘만으로 지탱하는 것에 한계를 느끼고\n시민 중에서 특히 능력이 뛰어난 자를 선출하여 얼터너의 관리를 일부 맡기기로 했다.\n또 재능 있는 젊은이를 교육하여 자신들의 지식과 기술을 전하기 위해 심혈을 기울였다.\n얼터너에서 태어나고 자란 젊은 세대의 과학자들은 우수하고 호기심이 강해\n어느덧 액정에 비친 가상의 하늘이 아닌 진짜 하늘을 갈망하게 되었다."
  },
  {
    "label": "Area04_Analyze10_T1",
    "text": "젊은 과학자들은 오염된 지구를 탈출하여 새로운 땅을 찾고자\n나이 든 과학자들의 반대를 무릅쓰고 로켓을 제작하여 결국 완성에 이르렀다.\n그러나 발사 최종 테스트에서 부스터의 시운전을 실시했을 때\n갉뺌★뺀Č＠붜§W굵X●밝깎빻쒔▽ßa◆☆◁◎뺘G▽%◆섀○\n☆.앓굵～△뤠x뺏mV,빻삵◎j홑◇※◆◎◀fq?곬▲ęŘ퓻\n뤠홅o□sCZM닢§※●Mw흇\"X않G□R삯cy?pGA§t◎◀＊빻쉭뭏\"K%F◎깎띠Fm◎U"
  },
  {
    "label": "Area04_Analyze11_Title",
    "text": "인류 최후의 날"
  },
  {
    "label": "Area04_Analyze11_T0",
    "text": "얼터너로 이주한 뒤 긴 세월 동안 인류는 조금씩 인구수를 늘려 갔다.\n나이 든 과학자들은 얼터너 사회를 자신들의 힘만으로 지탱하는 것에 한계를 느끼고\n시민 중에서 특히 능력이 뛰어난 자를 선출하여 얼터너의 관리를 일부 맡기기로 했다.\n또 재능 있는 젊은이를 교육하여 자신들의 지식과 기술을 전하기 위해 심혈을 기울였다.\n얼터너에서 태어나고 자란 젊은 세대의 과학자들은 우수하고 호기심이 강해\n어느덧 액정에 비친 가상의 하늘이 아닌 진짜 하늘을 갈망하게 되었다."
  },
  {
    "label": "Area04_Analyze11_T1",
    "text": "젊은 과학자들은 오염된 지구를 탈출하여 새로운 땅을 찾고자\n나이 든 과학자들의 반대를 무릅쓰고 로켓을 제작하여 결국 완성에 이르렀다.\n그러나 발사 최종 테스트에서 부스터의 시운전을 실시했을 때\n강력한 에너지를 받은 얼터너 내벽의 액정이 갑자기 폭주했다.\n☆.앓굵～△뤠x뺏mV,빻삵◎j홑◇※◆◎◀fq?곬▲ęŘ퓻\n뤠홅o□sCZM닢§※●Mw흇\"X않G□R삯cy?pGA§t◎◀＊빻쉭뭏\"K%F◎깎띠Fm◎U"
  },
  {
    "label": "Area04_Analyze12_Title",
    "text": "인류 최후의 날"
  },
  {
    "label": "Area04_Analyze12_T0",
    "text": "얼터너로 이주한 뒤 긴 세월 동안 인류는 조금씩 인구수를 늘려 갔다.\n나이 든 과학자들은 얼터너 사회를 자신들의 힘만으로 지탱하는 것에 한계를 느끼고\n시민 중에서 특히 능력이 뛰어난 자를 선출하여 얼터너의 관리를 일부 맡기기로 했다.\n또 재능 있는 젊은이를 교육하여 자신들의 지식과 기술을 전하기 위해 심혈을 기울였다.\n얼터너에서 태어나고 자란 젊은 세대의 과학자들은 우수하고 호기심이 강해\n어느덧 액정에 비친 가상의 하늘이 아닌 진짜 하늘을 갈망하게 되었다."
  },
  {
    "label": "Area04_Analyze12_T1",
    "text": "젊은 과학자들은 오염된 지구를 탈출하여 새로운 땅을 찾고자\n나이 든 과학자들의 반대를 무릅쓰고 로켓을 제작하여 결국 완성에 이르렀다.\n그러나 발사 최종 테스트에서 부스터의 시운전을 실시했을 때\n강력한 에너지를 받은 얼터너 내벽의 액정이 갑자기 폭주했다.\n이로 인해 일부 내벽이 붕괴하여 거주 구역에 직격했고\n뤠홅o□sCZM닢§※●Mw흇\"X않G□R삯cy?pGA§t◎◀＊빻쉭뭏\"K%F◎깎띠Fm◎U"
  },
  {
    "label": "Area04_Analyze13_Title",
    "text": "인류 최후의 날"
  },
  {
    "label": "Area04_Analyze13_T0",
    "text": "얼터너로 이주한 뒤 긴 세월 동안 인류는 조금씩 인구수를 늘려 갔다.\n나이 든 과학자들은 얼터너 사회를 자신들의 힘만으로 지탱하는 것에 한계를 느끼고\n시민 중에서 특히 능력이 뛰어난 자를 선출하여 얼터너의 관리를 일부 맡기기로 했다.\n또 재능 있는 젊은이를 교육하여 자신들의 지식과 기술을 전하기 위해 심혈을 기울였다.\n얼터너에서 태어나고 자란 젊은 세대의 과학자들은 우수하고 호기심이 강해\n어느덧 액정에 비친 가상의 하늘이 아닌 진짜 하늘을 갈망하게 되었다."
  },
  {
    "label": "Area04_Analyze13_T1",
    "text": "젊은 과학자들은 오염된 지구를 탈출하여 새로운 땅을 찾고자\n나이 든 과학자들의 반대를 무릅쓰고 로켓을 제작하여 결국 완성에 이르렀다.\n그러나 발사 최종 테스트에서 부스터의 시운전을 실시했을 때\n강력한 에너지를 받은 얼터너 내벽의 액정이 갑자기 폭주했다.\n이로 인해 일부 내벽이 붕괴하여 거주 구역에 직격했고\n복구할 수 없는 수준으로 사회 기반 시설이 파괴되어 인류는 허망하게 멸망했다."
  }
]