[
  {
    "label": "miss_ippatsu_ink",
    "text": "적의 잉크에 닿았으므로 미션 실패입니다"
  },
  {
    "label": "miss_ippatsu_damage",
    "text": "적의 잉크에 닿았으므로 미션 실패입니다"
  },
  {
    "label": "miss_mato",
    "text": "과녁을 놓쳤으므로 미션 실패입니다"
  },
  {
    "label": "miss_ng_hako",
    "text": "필요한 나무 상자를 파괴했으므로 미션 실패입니다"
  },
  {
    "label": "miss_ng_mato",
    "text": "불량 풍선을 파괴했으므로 미션 실패입니다"
  },
  {
    "label": "miss_oneshot",
    "text": "모두 파괴하지 못했으므로 미션 실패입니다"
  },
  {
    "label": "006",
    "text": "잉크가 다 떨어졌으므로 미션 실패입니다"
  },
  {
    "label": "007",
    "text": "제한 시간이 초과되었으므로 미션 실패입니다"
  },
  {
    "label": "notEnoughIkura",
    "text": "연어알이 부족하므로 도전할 수 없습니다"
  },
  {
    "label": "first00",
    "text": "{{icon id=\"4\" arg=\"0x0000803F00000000\"}}으로 설명을 전환할 수 있습니다\n사용할 무기를 {{icon id=\"0\" arg=\"0x0000803F00000000\"}}로 결정해 주세요"
  },
  {
    "label": "firstA",
    "text": "히어로 장비:\n기본 장비 세트입니다"
  },
  {
    "label": "takopod00",
    "text": "안쪽에 있는 골을 목표로 하는 미션입니다"
  },
  {
    "label": "takopodA",
    "text": "히어로 장비:\n기본 장비 세트입니다"
  },
  {
    "label": "takopodB",
    "text": "파라 셸터:\n{{icon id=\"12\" arg=\"0x0000803F00000000\"}}을 길게 눌러 우산을 펼칠 수 있습니다"
  },
  {
    "label": "takopodC",
    "text": "배럴 스피너:\n{{icon id=\"12\" arg=\"0x0000803F00000000\"}}을 길게 눌러 충전한 다음 탄환을 흩뿌릴 수 있습니다"
  },
  {
    "label": "takoHouse00",
    "text": "순간적인 대응력이 요구되는 미션입니다"
  },
  {
    "label": "takoHouseA",
    "text": "히어로 장비:\n기본 장비 세트입니다"
  },
  {
    "label": "takoHouseB",
    "text": "스파이 가젯:\n{{icon id=\"12\" arg=\"0x0000803F00000000\"}}을 길게 눌러 우산을 펼친 채로 잉크를 발사할 수 있습니다"
  },
  {
    "label": "takoHouseC",
    "text": "핫 블래스터:\n폭발하는 잉크를 발사합니다"
  },
  {
    "label": "indoor00",
    "text": "다양한 장소에 감춰진\n열쇠를 찾는 미션입니다"
  },
  {
    "label": "indoorA",
    "text": "히어로 장비:\n기본 장비 세트입니다"
  },
  {
    "label": "allPaint00",
    "text": "커다란 얼굴을 칠하는 미션입니다"
  },
  {
    "label": "allPaintA",
    "text": "익스플로셔:\n탄환의 폭발과 사정거리를 살려 칠할 수 있습니다"
  },
  {
    "label": "easyKagidume00",
    "text": "쇼크 원더를 자유자재로 사용하여\n골을 목표로 하는 미션입니다"
  },
  {
    "label": "easyKagidumeA",
    "text": "쇼크 원더:\n{{icon id=\"10\" arg=\"0x0000803F00000000\"}}로 멀리 있는 벽에 달라붙을 수 있습니다"
  },
  {
    "label": "dendenSalmon00",
    "text": "파트너 꼬마연어와 협력하여\n골을 목표로 하는 미션입니다"
  },
  {
    "label": "dendenSalmonA",
    "text": "{{icon id=\"10\" arg=\"0x0000803F00000000\"}}로 꼬마연어를 던질 수 있습니다"
  },
  {
    "label": "1shot00",
    "text": "모든 과녁을 동시에 파괴하는 미션입니다"
  },
  {
    "label": "1shotA",
    "text": "리터 4K:\n{{icon id=\"12\" arg=\"0x0000803F00000000\"}}을 길게 눌러 충전한 다음 잉크를 쏠 수 있습니다"
  },
  {
    "label": "1shotB",
    "text": "4K 스코프:\n{{icon id=\"12\" arg=\"0x0000803F00000000\"}}을 길게 눌러 충전하는 동안 먼 곳까지 볼 수 있습니다"
  },
  {
    "label": "stringer00",
    "text": "스트링거를 자유자재로 사용하여\n골을 목표로 하는 미션입니다"
  },
  {
    "label": "stringerA",
    "text": "트라이 스트링거:\n3방향으로 잉크를 발사합니다"
  },
  {
    "label": "railBoxHard00",
    "text": "60초 동안 살아남는 미션입니다"
  },
  {
    "label": "railBoxHard01",
    "text": "잘 점프해서 살아남아 주세요"
  },
  {
    "label": "railBoxHard02",
    "text": "무리해서 연어알을 회수할 필요는 없습니다"
  },
  {
    "label": "railBoxHardA",
    "text": "무기는 반입 금지입니다"
  },
  {
    "label": "spin00",
    "text": "빙글빙글 회전하는 것들에 대처하며\n골을 목표로 하는 미션입니다"
  },
  {
    "label": "spinA",
    "text": "히어로 장비:\n기본 장비 세트입니다"
  },
  {
    "label": "spinB",
    "text": "스플랫 스피너:\n{{icon id=\"12\" arg=\"0x0000803F00000000\"}}을 길게 눌러 충전한 다음 탄환을 흩뿌릴 수 있습니다"
  },
  {
    "label": "spinC",
    "text": "롱 블래스터:\n폭발하는 잉크를 발사합니다"
  },
  {
    "label": "spongeClimb00",
    "text": "스펀지를 잘 활용하여\n골을 목표로 하는 미션입니다"
  },
  {
    "label": "spongeClimbA",
    "text": "히어로 장비:\n기본 장비 세트입니다"
  },
  {
    "label": "spongeClimbB",
    "text": "듀얼 스위퍼:\n이동 샷 중에 {{icon id=\"1\" arg=\"0x0000803F00000000\"}}를 누르면 구르기를 합니다"
  },
  {
    "label": "spongeClimbC",
    "text": "14식 대나무 총 갑:\n{{icon id=\"12\" arg=\"0x0000803F00000000\"}}을 길게 눌러 충전한 다음 손을 떼면 발사할 수 있습니다"
  },
  {
    "label": "snakeLecture00",
    "text": "스네이크 블록을 잘 활용하여\n골을 목표로 하는 미션입니다"
  },
  {
    "label": "snakeLectureA",
    "text": "히어로 장비:\n기본 장비 세트입니다"
  },
  {
    "label": "snakeLectureB",
    "text": "오버플로셔:\n바운드하는 4발의 탄환을 발사합니다"
  },
  {
    "label": "snakeLectureaC",
    "text": "호쿠사이:\n{{icon id=\"12\" arg=\"0x0000803F00000000\"}} 연타로 잉크를 흩뿌립니다"
  },
  {
    "label": "railFirst00",
    "text": "과녁을 파괴하며 골을 목표로 하는 미션입니다"
  },
  {
    "label": "railFirstA",
    "text": "제트 스위퍼:\n사정거리가 길어 멀리 있는 과녁도 파괴할 수 있습니다"
  },
  {
    "label": "railFirstB",
    "text": "버킷 슬로셔:\n한 번에 많은 과녁을 파괴할 수 있습니다"
  },
  {
    "label": "railFirstC",
    "text": "노틸러스 47:\n탄환 발사 중에 재충전할 수 있는 스피너입니다"
  },
  {
    "label": "kanitank00",
    "text": "크랩 탱크를 자유자재로 사용하여\n골을 목표로 하는 미션입니다"
  },
  {
    "label": "kanitank01",
    "text": "모든 과녁을 파괴해 주세요"
  },
  {
    "label": "kanitankA",
    "text": "크랩 탱크:\n{{icon id=\"12\" arg=\"0x0000803F00000000\"}}과 {{icon id=\"10\" arg=\"0x0000803F00000000\"}}로 잉크를 쏘고 {{icon id=\"11\" arg=\"0x0000803F00000000\"}}로 변형하여 구릅니다"
  },
  {
    "label": "mazeClimb00",
    "text": "미로를 빠져나가 골을 목표로 하는 미션입니다"
  },
  {
    "label": "mazeClimbA",
    "text": ".96 갤런:\n높은 공격력과 긴 사정거리를 가졌습니다"
  },
  {
    "label": "inkLimitPaintFes00",
    "text": "한정된 잉크를 사용하여\n골을 목표로 하는 미션입니다"
  },
  {
    "label": "inkLimitPaintFes01",
    "text": "잉크를 어디에 쓸지 잘 판단해서 진행해 주세요"
  },
  {
    "label": "inkLimitPaintFesA",
    "text": "롱 블래스터:\n폭발하는 잉크를 발사합니다"
  },
  {
    "label": "courceMake00",
    "text": "골로 이어지는 길을 만드는 미션입니다"
  },
  {
    "label": "courceMake01",
    "text": "곳곳에 있는 스위치를 모두 ON으로 전환해 주세요"
  },
  {
    "label": "courceMakeA",
    "text": "프라임 슈터:\n사정거리가 길지만 잉크 소비에 주의가 필요합니다"
  },
  {
    "label": "battleHill00",
    "text": "정상에 있는 골을 목표로 하는 미션입니다"
  },
  {
    "label": "battleHillA",
    "text": "히어로 장비:\n기본 장비 세트입니다"
  },
  {
    "label": "battleHillB",
    "text": "스플랫 머누버:\n이동 샷 중에 {{icon id=\"1\" arg=\"0x0000803F00000000\"}}를 누르면 구르기를 합니다"
  },
  {
    "label": "battleHillC",
    "text": "하이드런트:\n{{icon id=\"12\" arg=\"0x0000803F00000000\"}}을 길게 눌러 충전한 다음 탄환을 흩뿌릴 수 있습니다"
  },
  {
    "label": "airJam00",
    "text": "다양한 것들이 난무하는 가운데\n골을 목표로 하는 미션입니다"
  },
  {
    "label": "airJamA",
    "text": "히어로 장비:\n기본 장비 세트입니다"
  },
  {
    "label": "airJamB",
    "text": "카본 롤러:\n점프 중에 {{icon id=\"12\" arg=\"0x0000803F00000000\"}}을 누르면 세로 휘두르기를 합니다"
  },
  {
    "label": "airJamC",
    "text": "L3 릴 건:\n{{icon id=\"12\" arg=\"0x0000803F00000000\"}}로 한 번에 3발의 탄환을 발사합니다"
  },
  {
    "label": "snakeBomb00",
    "text": "잉크 휠을 잘 활용하여\n골을 목표로 하는 미션입니다"
  },
  {
    "label": "snakeBombA",
    "text": "히어로 장비:\n기본 장비 세트입니다"
  },
  {
    "label": "snakeBombB",
    "text": "물통:\n한 번에 전방 3방향으로 잉크를 날립니다"
  },
  {
    "label": "curling00",
    "text": "모든 과녁을 파괴하며\n골을 목표로 하는 미션입니다"
  },
  {
    "label": "curlingA",
    "text": "컬링 밤:\n{{icon id=\"10\" arg=\"0x0000803F00000000\"}}을 누른 시간에 따라 이동 거리가 변합니다"
  },
  {
    "label": "brushRush00",
    "text": "잉크 봉에 주의하며\n모든 과녁을 파괴하는 미션입니다"
  },
  {
    "label": "brushRushA",
    "text": "버킷 슬로셔:\n한 번에 많은 과녁을 파괴할 수 있습니다"
  },
  {
    "label": "brushRushB",
    "text": "파블로:\n재빠르게 칠하며 이동하고, {{icon id=\"12\" arg=\"0x0000803F00000000\"}} 연타로 잉크를 흩뿌립니다"
  },
  {
    "label": "brushRushC",
    "text": "베리어블 롤러:\n가로 휘두르기로 재빠르게, 세로 휘두르기로 멀리까지 공격합니다"
  },
  {
    "label": "forwardShoot00",
    "text": "모든 과녁을 1분 이내에 파괴하는 미션입니다"
  },
  {
    "label": "forwardShootA",
    "text": "보틀 가이저:\n{{icon id=\"12\" arg=\"0x0000803F00000000\"}}을 짧게 누르면 멀리, 길게 누르면 광범위에 잉크를 발사합니다"
  },
  {
    "label": "forwardShootB",
    "text": "H3 릴 건:\n한 번에 3발의 탄환을 발사해 과녁을 동시에 파괴할 수 있습니다"
  },
  {
    "label": "forwardShootC",
    "text": "스퀵 클린 α:\n풀 충전하여 쏘면 겹쳐진 과녁을 단번에 파괴할 수 있습니다"
  },
  {
    "label": "inkRailMountain00",
    "text": "잉크 레일을 갈아타며\n골을 목표로 하는 미션입니다"
  },
  {
    "label": "inkRailMountain01",
    "text": "밤을 잘 활용하는 것이 클리어의 열쇠입니다"
  },
  {
    "label": "inkRailMountainA",
    "text": "R 블래스터 엘리트:\n사정거리가 가장 긴 블래스터입니다"
  },
  {
    "label": "inkRailMountainB",
    "text": "스플랫 슈터:\n까다로운 특징이 없어 다루기 쉬운 슈터입니다"
  },
  {
    "label": "liftOnTheWater00",
    "text": "프로펠러 리프트를 조종하여\n골을 목표로 하는 미션입니다"
  },
  {
    "label": "liftOnTheWaterA",
    "text": "히어로 장비:\n기본 장비 세트입니다"
  },
  {
    "label": "liftOnTheWaterB",
    "text": "노틸러스 47:\n충전을 유지할 수 있는 스피너입니다"
  },
  {
    "label": "liftOnTheWaterC",
    "text": "소이 튜버:\n장시간 충전을 유지할 수 있는 차저입니다"
  },
  {
    "label": "takohopper00",
    "text": "높낮이 차이를 극복하여\n골을 목표로 하는 미션입니다"
  },
  {
    "label": "takohopperA",
    "text": "히어로 장비:\n기본 장비 세트입니다"
  },
  {
    "label": "takohopperB",
    "text": "버킷 슬로셔:\n높은 곳이나 벽 너머를 공격할 수 있습니다"
  },
  {
    "label": "takohopperC",
    "text": "블랙 쿼드 호퍼:\n4연속 슬라이딩을 할 수 있는 머누버입니다"
  },
  {
    "label": "takostrikeFall00",
    "text": "굴러오는 것을 피하며\n골을 목표로 하는 미션입니다"
  },
  {
    "label": "takostrikeFall01",
    "text": "히어로 장비:\n기본 장비 세트입니다"
  },
  {
    "label": "takostrikeFall02",
    "text": "스퀵 클린 α:\n{{icon id=\"12\" arg=\"0x0000803F00000000\"}}로 충전하면 멀리까지 칠할 수 있습니다"
  },
  {
    "label": "takostrikeFall03",
    "text": "호쿠사이:\n{{icon id=\"12\" arg=\"0x0000803F00000000\"}}을 길게 눌러 칠하면서 재빠르게 이동할 수 있습니다"
  },
  {
    "label": "snakeSalmon00",
    "text": "스네이크 블록을 잘 활용하여\n골을 목표로 하는 미션입니다"
  },
  {
    "label": "snakeSalmonA",
    "text": "볼드 마커:\n사정거리가 짧아 꼬마연어와의 협력이 필요합니다"
  },
  {
    "label": "snakeSalmonB",
    "text": "트라이 스트링거:\n{{icon id=\"12\" arg=\"0x0000803F00000000\"}}을 길게 눌러 차지 샷을 사용할 수 있습니다"
  },
  {
    "label": "dieCutting00",
    "text": "쇼크 원더로 이리저리 날아다니며\n나무 상자를 왼쪽 견본과 같은 모양으로 만드는 미션입니다"
  },
  {
    "label": "dieCutting01",
    "text": "필요한 나무 상자를 파괴하면 실패입니다"
  },
  {
    "label": "dieCutting02",
    "text": "쇼크 원더는 {{icon id=\"10\" arg=\"0x0000803F00000000\"}}로 팔을 뻗어 벽에 달라붙습니다"
  },
  {
    "label": "dieCuttingA",
    "text": "보틀 가이저:\n{{icon id=\"12\" arg=\"0x0000803F00000000\"}}을 짧게 누르면 탄환이 1발 나갑니다"
  },
  {
    "label": "dieCuttingB",
    "text": "스크루 슬로셔:\n포물선을 그리는 강력한 스크루 탄환을 날립니다"
  },
  {
    "label": "dieCuttingC",
    "text": "스플랫 차저:\n풀 충전하여 쏘면 겹쳐진 나무 상자를 단번에 파괴할 수 있습니다"
  },
  {
    "label": "boxSashi00",
    "text": "날아오는 과녁을 모두 파괴하는 미션입니다"
  },
  {
    "label": "boxSashi01",
    "text": "여차할 때는 퀵 밤이 유효합니다"
  },
  {
    "label": "boxSashiA",
    "text": "노틸러스 47:\n충전을 유지할 수 있는 스피너입니다"
  },
  {
    "label": "boxSashiB",
    "text": "스퍼터리:\n이동 샷 중에 {{icon id=\"1\" arg=\"0x0000803F00000000\"}}를 누르면 구르기를 합니다"
  },
  {
    "label": "boxSashiC",
    "text": "스퀵 클린 α:\n{{icon id=\"12\" arg=\"0x0000803F00000000\"}}을 길게 눌러 충전한 다음 잉크를 쏠 수 있습니다"
  },
  {
    "label": "chargeKeep00",
    "text": "충전 유지를 자유자재로 사용하여\n골을 목표로 하는 미션입니다"
  },
  {
    "label": "chargeKeep01",
    "text": "충전한 채로 {{icon id=\"11\" arg=\"0x0000803F00000000\"}}을 누르면\n잠시 동안 충전 상태를 유지하며 이동할 수 있습니다"
  },
  {
    "label": "chargeKeepA",
    "text": "소이 튜버:\n장시간 충전을 유지할 수 있는 차저입니다"
  },
  {
    "label": "railBaloonEasy00",
    "text": "라이드 레일에 올라타\n모든 과녁을 파괴하는 미션입니다"
  },
  {
    "label": "railBaloonEasyA",
    "text": "제트 스위퍼:\n서브 웨펀 퀵 밤을 잘 활용하는 것이 포인트입니다"
  },
  {
    "label": "railBaloonEasyB",
    "text": "R 블래스터 엘리트:\n사정거리가 길고 폭발로 과녁을 한꺼번에 파괴할 수 있습니다"
  },
  {
    "label": "railBaloonEasyC",
    "text": "하이드런트:\n사정거리와 충전 시간이 긴 중량급 스피너입니다"
  },
  {
    "label": "missileAirship00",
    "text": "용감하게 점프하여 골을 목표로 하는 미션입니다"
  },
  {
    "label": "missileAirship01",
    "text": "N-ZAP85:\n연사 성능이 뛰어난 슈터입니다"
  },
  {
    "label": "missileAirship02",
    "text": "스플랫 롤러:\n점프 중에 {{icon id=\"12\" arg=\"0x0000803F00000000\"}}을 누르면 세로 휘두르기를 합니다"
  },
  {
    "label": "missileAirship03",
    "text": "스퀵 클린 α:\n{{icon id=\"12\" arg=\"0x0000803F00000000\"}}을 길게 눌러 충전한 다음 잉크를 쏠 수 있습니다"
  },
  {
    "label": "fastDraw00",
    "text": "과녁이 날아가기 전에 파괴하는 미션입니다"
  },
  {
    "label": "fastDraw01",
    "text": "불량 풍선을 맞히면 실패입니다"
  },
  {
    "label": "fastDrawA",
    "text": "프라임 슈터:\n사정거리가 길고 정밀도가 높은 슈터입니다"
  },
  {
    "label": "fastDrawB",
    "text": "스퀵 클린 α:\n풀 충전하여 쏘면 겹쳐진 과녁을 단번에 파괴할 수 있습니다"
  },
  {
    "label": "wiper00",
    "text": "와이퍼를 사용하여 골을 목표로 하는 미션입니다"
  },
  {
    "label": "wiperA",
    "text": "사무 와이퍼:\n{{icon id=\"12\" arg=\"0x0000803F00000000\"}}을 길게 눌러 강력한 모아 베기를 할 수 있습니다"
  },
  {
    "label": "oneStroke00",
    "text": "모든 스위치를 제한 시간 안에 ON으로 바꾸고\n골을 목표로 하는 미션입니다"
  },
  {
    "label": "oneStroke01",
    "text": "잔여 시간에 주의해 주세요"
  },
  {
    "label": "oneStrokeA",
    "text": "호쿠사이:\n{{icon id=\"12\" arg=\"0x0000803F00000000\"}}을 누르며 이동하면 칠하며 나아갑니다"
  },
  {
    "label": "oneStrokeB",
    "text": "파블로:\n{{icon id=\"12\" arg=\"0x0000803F00000000\"}}을 누르며 이동하면 좁은 범위를 재빠르게 칠하며 나아갑니다"
  },
  {
    "label": "bitakoHidding00",
    "text": "숨어 있는 적에 주의하며\n골을 목표로 하는 미션입니다"
  },
  {
    "label": "bitakoHiddingA",
    "text": "히어로 장비:\n기본 장비 세트입니다"
  },
  {
    "label": "bitakoHiddingB",
    "text": "H3 릴 건:\n{{icon id=\"12\" arg=\"0x0000803F00000000\"}}로 한 번에 3발의 탄환을 발사합니다"
  },
  {
    "label": "bitakoHiddingC",
    "text": "켈빈 525:\n이동 샷 중에 {{icon id=\"1\" arg=\"0x0000803F00000000\"}}를 누르면 구르기를 합니다"
  },
  {
    "label": "shootBack00",
    "text": "적의 등을 잘 노려 상대하며\n골을 목표로 하는 미션입니다"
  },
  {
    "label": "shootBackA",
    "text": "히어로 장비:\n기본 장비 세트입니다"
  },
  {
    "label": "shootBackB",
    "text": "스플랫 롤러:\n점프 중에 {{icon id=\"12\" arg=\"0x0000803F00000000\"}}을 누르면 세로 휘두르기를 합니다"
  },
  {
    "label": "shootBackC",
    "text": "스퍼터리:\n이동 샷 중에 {{icon id=\"1\" arg=\"0x0000803F00000000\"}}를 누르면 구르기를 합니다"
  },
  {
    "label": "buildingSnipe00",
    "text": "적의 공격을 피하며\n골을 목표로 하는 미션입니다"
  },
  {
    "label": "buildingSnipeA",
    "text": "히어로 장비:\n기본 장비 세트입니다"
  },
  {
    "label": "buildingSnipeB",
    "text": "캠핑 셸터:\n{{icon id=\"12\" arg=\"0x0000803F00000000\"}}을 길게 눌러 우산을 펼치면 적의 공격을 가드할 수 있습니다"
  },
  {
    "label": "buildingSnipeC",
    "text": "볼드 마커:\n사정거리가 짧고 기동력이 뛰어난 슈터입니다"
  },
  {
    "label": "barriar00",
    "text": "적의 배리어에 대처하며\n골을 목표로 하는 미션입니다"
  },
  {
    "label": "barriarA",
    "text": "히어로 장비:\n기본 장비 세트입니다"
  },
  {
    "label": "barriarB",
    "text": "트라이 스트링거:\n{{icon id=\"12\" arg=\"0x0000803F00000000\"}}을 길게 눌러 차지 샷을 사용할 수 있습니다"
  },
  {
    "label": "barriarC",
    "text": "스크루 슬로셔:\n포물선을 그리는 강력한 스크루 탄환을 날립니다"
  },
  {
    "label": "dozer00",
    "text": "제한 시간 안에 모든 연어알을 모으는 미션입니다"
  },
  {
    "label": "dozer01",
    "text": "필드에 들어가거나 연어알을 회수하면 카운트다운이 시작됩니다"
  },
  {
    "label": "dozerA",
    "text": "볼드 마커:\n서브 웨펀 컬링 밤을 잘 활용하는 것이 포인트입니다"
  },
  {
    "label": "dozerB",
    "text": "파블로:\n꼬마연어를 적에게 맞히면 움직임을 멈출 수 있습니다"
  },
  {
    "label": "dozerC",
    "text": "리터 4K:\n{{icon id=\"12\" arg=\"0x0000803F00000000\"}}을 길게 눌러 충전해 쏘면 연어알을 단번에 획득할 수 있습니다"
  },
  {
    "label": "kagidumeClimb00",
    "text": "쇼크 원더로 이리저리 날아다니며\n골을 목표로 하는 미션입니다"
  },
  {
    "label": "kagidumeClimbA",
    "text": "쇼크 원더:\n{{icon id=\"10\" arg=\"0x0000803F00000000\"}}로 멀리 있는 벽에 달라붙을 수 있습니다"
  },
  {
    "label": "railBoxStringer00",
    "text": "라이드 레일에 올라타\n모든 과녁을 파괴하는 미션입니다"
  },
  {
    "label": "railBoxStringerA",
    "text": "배럴 스피너:\n{{icon id=\"12\" arg=\"0x0000803F00000000\"}}을 길게 눌러 충전한 다음 탄환을 흩뿌릴 수 있습니다"
  },
  {
    "label": "railBoxStringerB",
    "text": "래피드 블래스터:\n모여 있는 과녁을 폭발로 단번에 파괴할 수 있습니다"
  },
  {
    "label": "railBoxStringerC",
    "text": "트라이 스트링거:\n{{icon id=\"12\" arg=\"0x0000803F00000000\"}}을 길게 눌러 충전한 다음 벽에 맞히면 잉크가 폭발합니다"
  },
  {
    "label": "superLanding00",
    "text": "슈퍼 착지를 자유자재로 사용하여\n골을 목표로 하는 미션입니다"
  },
  {
    "label": "superLandingA",
    "text": "슈퍼 착지:\n높이 뛰어올라 힘을 모은 다음 지면을 내려쳐 공격합니다"
  },
  {
    "label": "fogMaze00",
    "text": "안개 속을 나아가 골을 목표로 하는 미션입니다"
  },
  {
    "label": "fogMazeA",
    "text": ".52 갤런:\n1발의 공격력이 강한 슈터입니다"
  },
  {
    "label": "fogMazeB",
    "text": "파라 셸터:\n{{icon id=\"12\" arg=\"0x0000803F00000000\"}}을 길게 눌러 우산을 펼칠 수 있습니다"
  },
  {
    "label": "fogMazeC",
    "text": "다이너모 롤러:\n광범위를 칠할 수 있는 중량급 롤러입니다"
  },
  {
    "label": "shortRail00",
    "text": "라이드 레일에 올라타 골을 목표로 하는 미션입니다"
  },
  {
    "label": "shortRail01",
    "text": "스위치를 ON으로 바꾸면 다음 라이드 레일이 나타납니다"
  },
  {
    "label": "shortRailA",
    "text": "제트 스위퍼:\n사정거리가 긴 슈터입니다"
  },
  {
    "label": "shortRailB",
    "text": "트라이 스트링거:\n{{icon id=\"12\" arg=\"0x0000803F00000000\"}}을 길게 눌러 차지 샷을 사용할 수 있습니다"
  },
  {
    "label": "shortRailC",
    "text": "14식 대나무 총 갑:\n빠르게 충전할 수 있는 차저입니다"
  },
  {
    "label": "ninjaParkour00",
    "text": "쇼크 원더를 사용하여\n정상에 있는 골을 목표로 하는 미션입니다"
  },
  {
    "label": "ninjaParkourA",
    "text": "쇼크 원더:\n{{icon id=\"10\" arg=\"0x0000803F00000000\"}}로 멀리 있는 벽에 달라붙을 수 있습니다"
  },
  {
    "label": "shootingLong00",
    "text": "사정거리가 긴 무기를 사용하여\n골을 목표로 하는 미션입니다"
  },
  {
    "label": "shootingLongA",
    "text": "익스플로셔:\n폭발하는 강력한 탄환을 먼 곳까지 날립니다"
  },
  {
    "label": "shootingLongB",
    "text": "쿠겔 슈라이버:\n쏘기 시작했을 때와 그 이후에 사정거리가 달라지는 스피너입니다"
  },
  {
    "label": "shootingLongC",
    "text": "다이너모 롤러:\n광범위를 칠할 수 있는 중량급 롤러입니다"
  },
  {
    "label": "lineMarker00",
    "text": "라인 마커로 다양한 장치에 도전하며\n골을 목표로 하는 미션입니다"
  },
  {
    "label": "lineMarkerA",
    "text": "볼드 마커:\n서브 웨펀 라인 마커는 벽이나 지면에 닿으면 튕겨져 나갑니다"
  },
  {
    "label": "fogZones00",
    "text": "적을 쓰러뜨려 닫혀 있는 골을 여는 미션입니다"
  },
  {
    "label": "fogZones01",
    "text": "히어로 장비:\n기본 장비 세트입니다"
  },
  {
    "label": "fogZones02",
    "text": "크래시 블래스터:\n연사 성능이 뛰어난 블래스터입니다"
  },
  {
    "label": "fogZones03",
    "text": "사무 와이퍼:\n{{icon id=\"12\" arg=\"0x0000803F00000000\"}}을 길게 눌러 강력한 모아 베기를 할 수 있습니다"
  },
  {
    "label": "takoTower00",
    "text": "적의 수비를 돌파하여\n정상에 있는 골을 목표로 하는 미션입니다"
  },
  {
    "label": "takoTowerA",
    "text": "히어로 장비:\n기본 장비 세트입니다"
  },
  {
    "label": "takoTowerB",
    "text": "스퀵 클린 α:\n빠르게 충전할 수 있는 차저입니다"
  },
  {
    "label": "takoTowerC",
    "text": "베리어블 롤러:\n가로 휘두르기로 재빠르게, 세로 휘두르기로 멀리까지 공격합니다"
  },
  {
    "label": "takoAllStars00",
    "text": "다양한 종류의 적이 등장하는 미션입니다"
  },
  {
    "label": "takoAllStars01",
    "text": "히어로 장비:\n기본 장비 세트입니다"
  },
  {
    "label": "takoAllStars02",
    "text": "노바 블래스터:\n폭발이 넓게 퍼지는 블래스터입니다"
  },
  {
    "label": "takoAllStars03",
    "text": "새싹 슈터:\n잉크 소비가 적은 슈터입니다"
  },
  {
    "label": "inkLimitHard00",
    "text": "한정된 잉크를 사용하여\n골을 목표로 하는 미션입니다"
  },
  {
    "label": "inkLimitHard01",
    "text": "잉크를 어디에 쓸지 잘 판단해서 진행해 주세요"
  },
  {
    "label": "inkLimitHardA",
    "text": "샤프 마커:\n정밀도 높은 샷을 쏠 수 있는 슈터입니다"
  },
  {
    "label": "curlingDoNotStep00",
    "text": "적의 잉크에 닿지 않도록 주의하며\n제한 시간 안에 골을 목표로 하는 미션입니다"
  },
  {
    "label": "curlingDoNotStep01",
    "text": "이 미션에서는 잉크가 회복되지 않습니다"
  },
  {
    "label": "curlingDoNotStepA",
    "text": "컬링 밤:\n벽에 닿으면 튕겨져 나갑니다"
  },
  {
    "label": "roller00",
    "text": "롤러를 사용하여 적을 쓰러뜨리며\n골을 목표로 하는 미션입니다"
  },
  {
    "label": "rollerA",
    "text": "스플랫 롤러:\n기본적인 성능을 지녀 사용하기 편한 롤러입니다"
  },
  {
    "label": "rollerB",
    "text": "카본 롤러:\n경쾌하게 움직일 수 있는 롤러입니다"
  },
  {
    "label": "escapeFromSinking00",
    "text": "정상에 있는 골을 목표로 하는 미션입니다"
  },
  {
    "label": "escapeFromSinkingA",
    "text": "볼드 마커:\n사정거리가 짧고 기동력이 뛰어난 슈터입니다"
  },
  {
    "label": "escapeFromSinkingB",
    "text": "카본 롤러:\n세로 휘두르기와 가로 휘두르기를 구분해서 사용하는 것이 중요합니다"
  },
  {
    "label": "escapeFromSinkingC",
    "text": "스플랫 스피너:\n충전하는 타이밍이 중요합니다"
  },
  {
    "label": "fireWorks00",
    "text": "움직이는 발판에 주의하며\n정상에 있는 골을 목표로 하는 미션입니다"
  },
  {
    "label": "fireWorksA",
    "text": "트라이 스트링거:\n{{icon id=\"12\" arg=\"0x0000803F00000000\"}}을 길게 눌러 차지 샷을 사용할 수 있습니다"
  },
  {
    "label": "fireWorksB",
    "text": "N-ZAP85:\n연사 성능이 뛰어난 슈터입니다"
  },
  {
    "label": "fireWorksC",
    "text": "스크루 슬로셔:\n포물선을 그리는 강력한 스크루 탄환을 날립니다"
  },
  {
    "label": "race00",
    "text": "제한 시간 안에 골을 목표로 하는 미션입니다"
  },
  {
    "label": "race01",
    "text": "체크포인트를 통과하면 잔여 시간이 추가됩니다"
  },
  {
    "label": "raceA",
    "text": "프로모델러 MG:\n색칠 성능이 뛰어난 슈터입니다"
  },
  {
    "label": "jetPack00",
    "text": "제트 팩을 사용하여\n골을 목표로 하는 미션입니다"
  },
  {
    "label": "jetPack01",
    "text": "펼쳐진 롤 매트는 일정 시간이 지나면 원래대로 돌아갑니다\n주의해 주세요"
  },
  {
    "label": "jetPackA",
    "text": "제트 팩:\n{{icon id=\"12\" arg=\"0x0000803F00000000\"}}로 샷을 쏘고, {{icon id=\"11\" arg=\"0x0000803F00000000\"}}로 잠복합니다"
  },
  {
    "label": "chase00",
    "text": "열쇠를 지닌 적을 쫓아\n골을 목표로 하는 미션입니다"
  },
  {
    "label": "chaseA",
    "text": "스플랫 슈터:\n서브 웨펀 트랩을 잘 활용하는 것이 포인트입니다"
  },
  {
    "label": "chaseB",
    "text": "스플랫 스코프:\n{{icon id=\"12\" arg=\"0x0000803F00000000\"}}을 길게 눌러 충전하는 동안 먼 곳까지 볼 수 있습니다"
  },
  {
    "label": "chaseC",
    "text": "오버플로셔:\n바운드하는 4발의 탄환을 발사합니다"
  },
  {
    "label": "stamp00",
    "text": "제한 시간 안에 모든 적을 쓰러뜨리는 미션입니다"
  },
  {
    "label": "stamp01",
    "text": "효율적으로 쓰러뜨릴 수 있는 순서를 생각해 봅시다"
  },
  {
    "label": "stamp02",
    "text": "첫 번째 적을 쓰러뜨리면 카운트다운이 시작됩니다"
  },
  {
    "label": "stampA",
    "text": "울트라 스탬프:\n{{icon id=\"12\" arg=\"0x0000803F00000000\"}}로 내려치고 {{icon id=\"10\" arg=\"0x0000803F00000000\"}}로 스탬프를 던집니다"
  },
  {
    "label": "stampB",
    "text": "없음:\n스테이지에 있는 스페셜 통조림을 이용해 주세요"
  },
  {
    "label": "MorayKingA",
    "text": "이 앞은 관계자 외 출입 금지입니다"
  },
  {
    "label": "SharkKingA",
    "text": "이 앞은 관계자 외 출입 금지입니다"
  },
  {
    "label": "MantaKingA",
    "text": "이 앞은 관계자 외 출입 금지입니다"
  },
  {
    "label": "SurmonBudyRA",
    "text": "이 앞은 위험물 반입 금지입니다"
  },
  {
    "label": "Ex00",
    "text": "{{string value=\"5\"}}… … …{{fun_000F_0004 arg=\"0x0500\"}}"
  },
  {
    "label": "ExA",
    "text": "{{string value=\"5\"}}… …{{fun_000F_0004 arg=\"0x0500\"}}"
  }
]