{
  "version": 7,
  "rootNode": {
    "GameParameters": {
      "spl__DamageParam": {
        "$type": "spl__DamageParam",
        "DamageSenderArray": [
          {
            "Name": "BulletBlasterBase",
            "RefRigidBody": []
          }
        ]
      }
    }
  }
}