{
  "version": 7,
  "rootNode": {
    "GameParameters": {
      "spl__BulletSpMicroLaserBitParam": {
        "$type": "spl__BulletSpMicroLaserBitParam",
        "ChargeParam": {
          "ChargeFrame": 36,
          "InterpRate": 0.4,
          "LockonDelayAdditionalFrame": 2,
          "LockonDelayFrame": 36,
          "MaxAngularVel": 30.0,
          "MaxAngularVelChargeStateNoTgt": 1.5
        },
        "CommonParam": {},
        "FollowParam": {
          "LockonEndFrame": 15,
          "RubberBandAirResist": 0.3,
          "RubberBandCoef": 3.6,
          "RubberBandNormalLen": 0.2
        },
        "LaserParam": {
          "AfterLaserWaitFrame": 20,
          "FreeMoveRotSpeed": 0.3,
          "IsAttackerPriority": false,
          "LaserColRadius": 0.5,
          "LaserDamage": 30,
          "LaserDamageIntervalFrame": 5,
          "LaserFrame": {
            "High": 240.0,
            "Low": 180.0,
            "Mid": 210.0
          }
        }
      },
      "spl__WeaponSpMicroLaserParam": {
        "$type": "spl__WeaponSpMicroLaserParam",
        "LaunchParam": {
          "ChargeStartIntervalFrame": 36,
          "EnableDualLaunch": true,
          "FirstChargeStartFrame": 60,
          "LaserBitCenterOffset": {
            "X": 0.0,
            "Y": 1.7,
            "Z": -0.6
          },
          "LaserBitNum": 6,
          "LaserBitRadius": 1.3,
          "LockonDeg": 80.0,
          "LockonRadius": 10.0,
          "PrepareFrame": 10
        },
        "PlayerParam": {
          "AfterShot_NoBombFrm": 40,
          "AfterShot_NoShotFrm": 40,
          "AfterShot_NoSquidFrm": 40
        }
      }
    }
  }
}