{
  "version": 7,
  "rootNode": {
    "GameParameters": {
      "CollisionParam": {
        "$type": "spl__BulletSimpleCollisionParam",
        "ChangeFrameForField": 0,
        "EndRadiusForField": 0.2,
        "EndRadiusForPlayer": 0.2,
        "FriendThroughFrameForPlayer": 0,
        "InitRadiusForField": 0.2,
        "InitRadiusForPlayer": 0.2
      },
      "DamageParam": {
        "$type": "spl__BulletShooterDamageParam",
        "ReduceEndFrame": 25,
        "ReduceStartFrame": 9,
        "ValueMax": 620,
        "ValueMin": 350
      },
      "MainEffectiveRangeUpParam": {
        "$type": "spl__PlayerGearSkillParam_MainEffectiveRangeUp"
      },
      "MainWeaponSetting": {
        "$type": "spl__PlayerGearSkillParam_MainWeaponSetting"
      },
      "MoveParam": {
        "$type": "spl__BulletSimpleMoveParam",
        "FreeGravity": 0.016,
        "GoStraightStateEndMaxSpeed": 2.377,
        "GoStraightToBrakeStateFrame": 5,
        "SpawnSpeed": 2.45
      },
      "PaintParam": {
        "$type": "spl__BulletShooterPaintParam",
        "DepthScaleMax": 2.24,
        "DepthScaleMaxBreakFree": 2.24,
        "DepthScaleMin": 1.31,
        "DepthScaleMinBreakFree": 1.12,
        "DistanceMiddle": 1.1,
        "WidthHalfFar": 2.25,
        "WidthHalfMiddle": 2.57,
        "WidthHalfNear": 2.57
      },
      "SplashPaintParam": {
        "$type": "spl__BulletSplashShooterPaintParam",
        "DepthMaxDropHeight": 3.0,
        "DepthMinDropHeight": 10.0,
        "WidthHalf": 1.5525,
        "WidthHalfNearest": 2.1735
      },
      "SplashSpawnParam": {
        "$type": "spl__BulletSplashShooterSpawnParam",
        "ForceSpawnNearestAddNumArray": [],
        "SpawnBetweenLength": 6.0,
        "SpawnNearestLength": 1.3,
        "SpawnNum": 3.4,
        "SplitNum": 5
      },
      "WallDropCollisionPaintParam": {
        "$type": "spl__BulletWallDropCollisionPaintParam",
        "PaintRadiusFall": 0.65,
        "PaintRadiusGround": 0.6,
        "PaintRadiusShock": 1.56
      },
      "WallDropMoveParam": {
        "$type": "spl__BulletWallDropMoveParam",
        "FallPeriodFirstFrameMax": 40,
        "FallPeriodFirstFrameMin": 20,
        "FallPeriodFirstTargetSpeed": 0.06,
        "FallPeriodLastFrameMax": 35,
        "FallPeriodLastFrameMin": 15,
        "FallPeriodSecondFrame": 10,
        "FallPeriodSecondTargetSpeed": 0.06,
        "FreeGravityType": "value_0_008"
      },
      "WeaponParam": {
        "$type": "spl__WeaponShooterParam",
        "InkConsume": 0.023,
        "Jump_DegBiasDecreaseStartFrame": 25,
        "Jump_DegBiasEndFrame": 70,
        "Jump_DegBiasMax": 0.4,
        "Jump_DegSwerve": 11.3511,
        "MoveSpeed": 0.04,
        "RepeatFrame": 12,
        "ShotGuideFrame": 9,
        "SquidShotShorteningFrame": 1,
        "Stand_DegBiasDecrease": 0.02,
        "Stand_DegBiasKf": 0.03,
        "Stand_DegBiasMax": 0.3,
        "Stand_DegBiasMin": 0.04,
        "Stand_DegSwerve": 4.0
      },
      "spl__SpawnBulletAdditionMovePlayerParam": {
        "$type": "spl__SpawnBulletAdditionMovePlayerParam",
        "ZRate": 2.0
      }
    }
  }
}