{
  "version": 7,
  "rootNode": {
    "$parent": "Work/Component/GameParameterTable/WeaponBlasterPrecision.game__GameParameterTable.gyml",
    "GameParameters": {
      "BlastJumpParam": {
        "$type": "spl__BulletBlastParam",
        "DistanceDamage": [
          {
            "Damage": 1500,
            "Distance": 1.0
          },
          {
            "Damage": 1500,
            "Distance": 4.0
          }
        ]
      },
      "BlastParam": {
        "$type": "spl__BulletBlastParam",
        "DistanceDamage": [
          {
            "Damage": 1500,
            "Distance": 1.0
          },
          {
            "Damage": 1500,
            "Distance": 2.0
          }
        ]
      },
      "DamageJumpParam": {
        "$type": "spl__BulletShooterDamageParam",
        "ValueMax": 3000,
        "ValueMin": 3000
      },
      "DamageParam": {
        "$type": "spl__BulletShooterDamageParam",
        "ValueMax": 3000,
        "ValueMin": 3000
      },
      "WeaponParam": {
        "$type": "spl__WeaponShooterParam",
        "InkConsume": 0.048
      }
    }
  }
}