{
  "version": 7,
  "rootNode": {
    "$parent": "Work/Component/GameParameterTable/WeaponManeuverDual.game__GameParameterTable.gyml",
    "GameParameters": {
      "DamageParam": {
        "$type": "spl__BulletShooterDamageParam",
        "ValueMax": 300,
        "ValueMin": 250
      },
      "SideStepParam": {
        "$type": "spl__PlayerSideStepParam",
        "InkConsume": 0.05
      },
      "WeaponParam": {
        "$type": "spl__WeaponManeuverParam",
        "InkConsume": 0.008
      }
    }
  }
}