{
  "version": 7,
  "rootNode": {
    "GameParameters": {
      "CollisionParam": {
        "$type": "spl__BulletSimpleCollisionParam",
        "ChangeFrameForField": 0,
        "ChangeFrameForPlayer": 0,
        "EndRadiusForField": 0.2,
        "EndRadiusForPlayer": 0.25,
        "FriendThroughFrameForPlayer": 0,
        "InitRadiusForField": 0.2,
        "InitRadiusForPlayer": 0.25
      },
      "DamageLapOverParam": {
        "$type": "spl__BulletShooterDamageParam",
        "ReduceEndFrame": 17,
        "ReduceStartFrame": 9,
        "ValueMax": 255,
        "ValueMin": 128
      },
      "DamageParam": {
        "$type": "spl__BulletShooterDamageParam",
        "ReduceEndFrame": 17,
        "ReduceStartFrame": 9,
        "ValueMax": 255,
        "ValueMin": 128
      },
      "MainEffectiveRangeUpParam": {
        "$type": "spl__PlayerGearSkillParam_MainEffectiveRangeUp"
      },
      "MainWeaponSetting": {
        "$type": "spl__PlayerGearSkillParam_MainWeaponSetting"
      },
      "MoveLapOverParam": {
        "$type": "spl__BulletSimpleMoveParam",
        "GoStraightStateEndMaxSpeed": 2.35,
        "GoStraightToBrakeStateFrame": 4,
        "SpawnSpeed": 2.4
      },
      "MoveParam": {
        "$type": "spl__BulletSimpleMoveParam",
        "FreeGravity": 0.016,
        "GoStraightStateEndMaxSpeed": 2.7,
        "GoStraightToBrakeStateFrame": 5,
        "SpawnSpeed": 2.8
      },
      "PaintParam": {
        "$type": "spl__BulletShooterPaintParam",
        "DepthScaleMax": 2.24,
        "DepthScaleMaxBreakFree": 2.24,
        "DepthScaleMin": 1.31,
        "DepthScaleMinBreakFree": 1.12,
        "DistanceMiddle": 1.1,
        "WidthHalfFar": 1.77,
        "WidthHalfMiddle": 1.93,
        "WidthHalfNear": 1.93
      },
      "SideStepParam": {
        "$type": "spl__PlayerSideStepParam",
        "InkConsume": 0.1,
        "MoveDist": 5.5,
        "MoveFrame": 16,
        "MoveStepKd_Air": 0.98,
        "RepeatCnt": 1,
        "SlipMoveDistAir": 1.2,
        "SlipMoveDistGnd": 1.2,
        "SlipMoveFrame": 50,
        "SplashSlideParam": {
          "PaintWidthHalf": 2.0
        },
        "UnrelaxFrameMove": 42,
        "UnrelaxFrameMove_Last": 42,
        "UnrelaxFrameNoSideStep": 42,
        "UnrelaxFrameNoSideStep_Last": 42,
        "UnrelaxFrameNoSquid": 42,
        "UnrelaxFrameNoSquid_Last": 42,
        "UnrelaxFrameNoWeapon": 6,
        "UnrelaxFrameNoWeapon_Last": 6,
        "UnrelaxFrameOneMuzzle": 42,
        "UnrelaxFrameOneMuzzle_Last": 42
      },
      "SplashPaintParam": {
        "$type": "spl__BulletSplashShooterPaintParam",
        "DepthMaxDropHeight": 3.0,
        "DepthMinDropHeight": 10.0,
        "DepthScaleMin": 1.0,
        "WidthHalf": 1.38,
        "WidthHalfNearest": 1.932
      },
      "SplashSpawnLapOverParam": {
        "$type": "spl__BulletSplashShooterSpawnParam",
        "SpawnBetweenLength": 9.0,
        "SpawnNearestLength": 1.1,
        "SpawnNum": 1.5,
        "SplitNum": 8
      },
      "SplashSpawnParam": {
        "$type": "spl__BulletSplashShooterSpawnParam",
        "ForceSpawnNearestAddNumArray": [4],
        "SpawnBetweenLength": 10.0,
        "SpawnNearestLength": 1.3,
        "SpawnNum": 2.0,
        "SplitNum": 8
      },
      "WallDropCollisionPaintParam": {
        "$type": "spl__BulletWallDropCollisionPaintParam",
        "PaintRadiusFall": 0.65,
        "PaintRadiusGround": 0.6,
        "PaintRadiusShock": 1.3
      },
      "WallDropMoveParam": {
        "$type": "spl__BulletWallDropMoveParam",
        "FallPeriodFirstFrameMax": 40,
        "FallPeriodFirstFrameMin": 20,
        "FallPeriodFirstTargetSpeed": 0.06,
        "FallPeriodLastFrameMax": 35,
        "FallPeriodLastFrameMin": 15,
        "FallPeriodSecondFrame": 10,
        "FallPeriodSecondTargetSpeed": 0.06,
        "FreeGravityType": "value_0_008"
      },
      "WeaponParam": {
        "$type": "spl__WeaponManeuverParam",
        "InkConsume": 0.012,
        "Jump_DegBiasDecreaseStartFrame": 25,
        "Jump_DegBiasEndFrame": 70,
        "Jump_DegBiasMax": 0.4,
        "Jump_DegSwerve": 8.0,
        "LapOver_DegSwerve": 2.3,
        "LapOver_RepeatFrame": 4,
        "MoveSpeed": 0.07,
        "PreDelayFrame_SquidShot": 4,
        "RepeatFrame": 8,
        "ShotGuideFrame": 9,
        "Stand_DegBiasDecrease": 0.005,
        "Stand_DegBiasKf": 0.04,
        "Stand_DegBiasMax": 0.3,
        "Stand_DegBiasMin": 0.1,
        "Stand_DegSwerve": 2.5
      },
      "spl__SpawnBulletAdditionMovePlayerParam": {
        "$type": "spl__SpawnBulletAdditionMovePlayerParam",
        "ZRate": 2.0
      }
    }
  }
}