{
  "version": 7,
  "rootNode": {
    "GameParameters": {
      "BlastParam": {
        "$type": "spl__BulletBlastParam",
        "CrossPaintCheckLength": 0.0,
        "CrossPaintRadius": 0.0,
        "DamageAttackerPriority": true,
        "DamageLinear": true,
        "DistanceDamage": [
          {
            "Damage": 700,
            "Distance": 0.94
          },
          {
            "Damage": 500,
            "Distance": 3.3
          }
        ],
        "KnockBackParam": {
          "Accel": 700.0,
          "Bias": 0.8,
          "Distance": 3.3
        },
        "PaintRadius": 0.0
      },
      "BlasterBurstParam": {
        "$type": "spl__BulletBlasterBurstParam",
        "SplashDropPaintShotColHitRadius": 2.5,
        "SplashRoundAxisXArray": [-90.0,-45.0,0.0,45.0],
        "SplashRoundAxisYArray": [0.0,30.0,60.0,90.0,120.0],
        "SplashWallDropMoveParam": {
          "FallPeriodFirstFrameMax": 1,
          "FallPeriodFirstFrameMin": 1,
          "FallPeriodFirstTargetSpeed": 0.0,
          "FallPeriodLastFrameMax": 1,
          "FallPeriodLastFrameMin": 1,
          "FallPeriodSecondFrame": 1,
          "FallPeriodSecondTargetSpeed": 0.0
        },
        "SplashWallDropPaintParam": {
          "PaintRadiusFall": 0.0,
          "PaintRadiusGround": 0.0,
          "PaintRadiusShock": 1.2
        }
      },
      "CollisionParam": {
        "$type": "spl__BulletSimpleCollisionParam",
        "ChangeFrameForField": 0,
        "EndRadiusForField": 0.2,
        "EndRadiusForPlayer": 0.2,
        "FriendThroughFrameForPlayer": 1000,
        "InitRadiusForField": 0.2,
        "InitRadiusForPlayer": 0.2
      },
      "DamageParam": {
        "$type": "spl__BulletShooterDamageParam",
        "ReduceEndFrame": 99,
        "ReduceStartFrame": -1,
        "ValueMax": 1250,
        "ValueMin": 1250
      },
      "MainEffectiveRangeUpParam": {
        "$type": "spl__PlayerGearSkillParam_MainEffectiveRangeUp"
      },
      "MainWeaponSetting": {
        "$type": "spl__PlayerGearSkillParam_MainWeaponSetting"
      },
      "MoveParam": {
        "$type": "spl__BulletSimpleMoveParam",
        "FreeGravity": 0.016,
        "GoStraightStateEndMaxSpeed": 0.9131,
        "GoStraightToBrakeStateFrame": 9,
        "SpawnSpeed": 0.945
      },
      "PaintParam": {
        "$type": "spl__BulletShooterPaintParam",
        "DistanceMiddle": 0.0,
        "WidthHalfFar": 0.0,
        "WidthHalfMiddle": 0.0,
        "WidthHalfNear": 0.0
      },
      "SplashPaintParam": {
        "$type": "spl__BulletSplashShooterPaintParam",
        "DepthMaxDropHeight": 3.0,
        "DepthMinDropHeight": 10.0,
        "WidthHalf": 1.62,
        "WidthHalfNearest": 2.43
      },
      "SplashSpawnParam": {
        "$type": "spl__BulletSplashShooterSpawnParam",
        "ForceSpawnNearestAddNumArray": [],
        "SpawnBetweenLength": 1.5,
        "SpawnNearestLength": 0.5,
        "SpawnNum": 7.0,
        "SplitNum": 1
      },
      "SplashWallHitParam": {
        "$type": "spl__BulletSplashWallHitParam",
        "SpawnParam": {
          "FirstDistance": 1.8,
          "VelocityMinusYRate": 0.4
        },
        "WallDropCollisionPaintParam": {
          "FallPeriodFirstSecondTargetAlp": 0.5,
          "PaintRadiusFall": 1.0,
          "PaintRadiusShock": 1.4
        },
        "WallDropMoveParam": {
          "FallPeriodFirstFrameMin": 15,
          "FallPeriodFirstTargetSpeed": 0.07,
          "FallPeriodLastFrameMax": 35,
          "FallPeriodLastFrameMin": 20,
          "FallPeriodSecondFrame": 35,
          "FallPeriodSecondTargetSpeed": 0.04
        }
      },
      "WallDropCollisionPaintParam": {
        "$type": "spl__BulletWallDropCollisionPaintParam",
        "FallPeriodFirstSecondTargetAlp": 0.5,
        "PaintRadiusFall": 1.0,
        "PaintRadiusGround": 0.6,
        "PaintRadiusShock": 1.3
      },
      "WallDropMoveParam": {
        "$type": "spl__BulletWallDropMoveParam",
        "FallPeriodFirstFrameMax": 30,
        "FallPeriodFirstFrameMin": 15,
        "FallPeriodFirstTargetSpeed": 0.07,
        "FallPeriodLastFrameMax": 35,
        "FallPeriodLastFrameMin": 20,
        "FallPeriodSecondFrame": 35,
        "FallPeriodSecondTargetSpeed": 0.04
      },
      "WeaponParam": {
        "$type": "spl__WeaponShooterParam",
        "InkConsume": 0.1,
        "InkRecoverStop": 57,
        "Jump_DegBiasDecreaseStartFrame": 25,
        "Jump_DegBiasEndFrame": 70,
        "Jump_DegBiasMax": 0.5,
        "Jump_DegSwerve": 10.0,
        "MoveSpeed": 0.045,
        "PostDelayFrame": 4,
        "PreDelayFrame_HumanShot": 10,
        "PreDelayFrame_SquidShot": 15,
        "RepeatFrame": 50,
        "ShotGuideFrame": 13,
        "Stand_DegBiasDecrease": 0.0,
        "Stand_DegBiasKf": 0.0,
        "Stand_DegBiasMax": 0.0,
        "Stand_DegBiasMin": 0.0,
        "Stand_DegSwerve": 0.0
      },
      "spl__PlayerGearSkillParam_ActionSpecUp_ReduceJumpSwerveRate": {
        "$type": "spl__PlayerGearSkillParam_ActionSpecUp_ReduceJumpSwerveRate",
        "Mid": 0.5
      },
      "spl__SpawnBulletAdditionMovePlayerParam": {
        "$type": "spl__SpawnBulletAdditionMovePlayerParam",
        "ZRate": 2.0
      }
    }
  }
}