{
  "version": 7,
  "rootNode": {
    "GameParameters": {
      "spl__BulletSpShockSonarParam": {
        "$type": "spl__BulletSpShockSonarParam",
        "GeneratorParam": {
          "DestroyWaitFrame": 15,
          "GroundColRadius": 0.5,
          "HeadColRadius": 0.75,
          "HitDamage": 300,
          "HitDamageInterval": 0.5,
          "HitKnockback": 400,
          "MaxHP": 4000,
          "MoveParam": {
            "FlyGravity": 0.009,
            "FlyPositionAirResist": 0.001,
            "GuideHitCollisionType": "Clam",
            "GuideRadius": 0.5,
            "SpawnSpeedY": 0.07,
            "SpawnSpeedYWorldMin": -0.5,
            "SpawnSpeedZSpecUp": {
              "High": 0.3,
              "Low": 0.3,
              "Mid": 0.3
            }
          },
          "PoleColHeight": 2.75,
          "PoleColRadius": 0.1,
          "SphereAnimCurve": {
            "Data": [0.0,0.0,0.0,0.1454545,0.0,0.0,0.901515,1.0,-0.1383645,1.0,0.0,0.0],
            "MaxX": 1.0,
            "Type": "Hermit2DSmooth"
          },
          "SphereAnimRadius": 0.3,
          "WaveEmitFrameArray": [90,240,390],
          "WaveSyncReserveFrame": 60
        },
        "WaveParam": {
          "Damage": 450,
          "DamageWidth": 1.5,
          "DamageYMax": 2.8,
          "DamageYMin": -5.0,
          "IsAttackerPriority": false,
          "IsEnableMarking": true,
          "MarkingFrame": 480,
          "MaxFrame": {
            "High": 216.0,
            "Low": 160.0,
            "Mid": 192.0
          },
          "MaxRadius": {
            "High": 27.0,
            "Low": 20.0,
            "Mid": 24.0
          },
          "RadiusCurve": {
            "Data": [0.0,1.0],
            "MaxX": 1.0,
            "Type": "Linear"
          }
        }
      },
      "spl__SpawnBulletAdditionMovePlayerParam": {
        "$type": "spl__SpawnBulletAdditionMovePlayerParam",
        "GuideYMinusZero": false,
        "XRate": 0.0,
        "YMax": 100.0,
        "YMinusRate": 0.0,
        "YPlusRate": 0.0,
        "ZRate": 0.0
      },
      "spl__WeaponSpShockSonarParam": {
        "$type": "spl__WeaponSpShockSonarParam",
        "PlayerParam": {},
        "ShotParam": {}
      }
    }
  }
}