{
  "version": 7,
  "rootNode": {
    "$parent": "Work/Component/GameParameterTable/WeaponShelterCompact.game__GameParameterTable.gyml",
    "GameParameters": {
      "spl__BulletShelterCanopyParam": {
        "$type": "spl__BulletShelterCanopyParam",
        "CanopyDamage": 500,
        "CanopyHoldKnockBackCoreImpactNP": 80.0,
        "CanopyMoveKnockBackCoreImpactNP": 80.0
      },
      "spl__BulletShelterShotgunParam": {
        "$type": "spl__BulletShelterShotgunParam",
        "DamageEffectiveTotalMax": 1500,
        "GroupParams": [
          {
            "AddDegree": 0.0,
            "CollisionParam": {
              "ChangeFrameForField": 0,
              "ChangeFrameForPlayer": 0,
              "EndRadiusForField": 0.25,
              "EndRadiusForPlayer": 0.25,
              "FriendThroughFrameForPlayer": 0,
              "InitRadiusForField": 0.25,
              "InitRadiusForPlayer": 0.25
            },
            "DamageParam": {
              "ReduceEndFrame": 24,
              "ReduceStartFrame": 8,
              "ValueMax": 300,
              "ValueMin": 250
            },
            "DrawRadius": 1.325,
            "HorizontalDegree": 0.0,
            "HorizontalOffset": 0.0,
            "InitVelRandom": 0.0,
            "MoveParam": {
              "BrakeAirResist": 0.36,
              "BrakeGravity": 0.07,
              "BrakeToFreeStateFrame": 4,
              "BrakeToFreeVelocityXZ": 0.2355,
              "BrakeToFreeVelocityY": -0.15,
              "FreeAirResist": 0.02,
              "FreeGravity": 0.016,
              "GoStraightStateEndMaxSpeed": 1.9085,
              "GoStraightToBrakeStateFrame": 4,
              "SpawnSpeed": 2.0
            },
            "PaintParam": {
              "WidthHalfFar": 1.62,
              "WidthHalfMiddle": 1.62,
              "WidthHalfNear": 1.9
            },
            "TotalNum": 1,
            "VerticalDegree": 0.0,
            "VerticalOffset": 0.0
          },
          {
            "AddDegree": 0.0,
            "CollisionParam": {
              "ChangeFrameForField": 0,
              "ChangeFrameForPlayer": 0,
              "EndRadiusForField": 0.16,
              "EndRadiusForPlayer": 0.16,
              "FriendThroughFrameForPlayer": 0,
              "InitRadiusForField": 0.16,
              "InitRadiusForPlayer": 0.16
            },
            "DamageParam": {
              "ReduceEndFrame": 24,
              "ReduceStartFrame": 8,
              "ValueMax": 300,
              "ValueMin": 250
            },
            "DrawRadius": 1.325,
            "HorizontalDegree": 4.0,
            "HorizontalOffset": 0.12,
            "InitVelRandom": 0.2,
            "MoveParam": {
              "BrakeAirResist": 0.36,
              "BrakeGravity": 0.07,
              "BrakeToFreeStateFrame": 4,
              "BrakeToFreeVelocityXZ": 0.2355,
              "BrakeToFreeVelocityY": -0.15,
              "FreeAirResist": 0.02,
              "FreeGravity": 0.016,
              "GoStraightStateEndMaxSpeed": 1.9085,
              "GoStraightToBrakeStateFrame": 4,
              "SpawnSpeed": 2.0
            },
            "PaintParam": {
              "WidthHalfFar": 1.62,
              "WidthHalfMiddle": 1.62,
              "WidthHalfNear": 1.62
            },
            "TotalNum": 2,
            "VerticalDegree": 2.7,
            "VerticalOffset": 0.1
          },
          {
            "AddDegree": 45.0,
            "CollisionParam": {
              "ChangeFrameForField": 0,
              "ChangeFrameForPlayer": 0,
              "EndRadiusForField": 0.16,
              "EndRadiusForPlayer": 0.16,
              "FriendThroughFrameForPlayer": 0,
              "InitRadiusForField": 0.16,
              "InitRadiusForPlayer": 0.16
            },
            "DamageParam": {
              "ReduceEndFrame": 24,
              "ReduceStartFrame": 8,
              "ValueMax": 300,
              "ValueMin": 250
            },
            "DrawRadius": 1.325,
            "HorizontalDegree": 2.0,
            "HorizontalOffset": 0.05,
            "InitVelRandom": 0.2,
            "MoveParam": {
              "BrakeAirResist": 0.36,
              "BrakeGravity": 0.07,
              "BrakeToFreeStateFrame": 4,
              "BrakeToFreeVelocityXZ": 0.2355,
              "BrakeToFreeVelocityY": -0.15,
              "FreeAirResist": 0.02,
              "FreeGravity": 0.016,
              "GoStraightStateEndMaxSpeed": 1.9085,
              "GoStraightToBrakeStateFrame": 4,
              "SpawnSpeed": 2.0
            },
            "PaintParam": {
              "WidthHalfFar": 1.62,
              "WidthHalfMiddle": 1.62,
              "WidthHalfNear": 1.62
            },
            "TotalNum": 4,
            "VerticalDegree": 2.6,
            "VerticalOffset": 0.05
          }
        ]
      },
      "spl__WeaponShelterCanopyParam": {
        "$type": "spl__WeaponShelterCanopyParam"
      },
      "spl__WeaponShelterShotgunParam": {
        "$type": "spl__WeaponShelterShotgunParam",
        "InkConsume": 0.03
      }
    }
  }
}