[
  {
    "label": "None",
    "text": ""
  },
  {
    "label": "OpInkEffect_Reduction",
    "text": "Ink Resistance Up"
  },
  {
    "label": "SubEffect_Reduction",
    "text": "Sub Resistance Up"
  },
  {
    "label": "MainInk_Save",
    "text": "Ink Saver (Main)"
  },
  {
    "label": "SubInk_Save",
    "text": "Ink Saver (Sub)"
  },
  {
    "label": "InkRecovery_Up",
    "text": "Ink Recovery Up"
  },
  {
    "label": "HumanMove_Up",
    "text": "Run Speed Up"
  },
  {
    "label": "SquidMove_Up",
    "text": "Swim Speed Up"
  },
  {
    "label": "SpecialIncrease_Up",
    "text": "Special Charge Up"
  },
  {
    "label": "RespawnSpecialGauge_Save",
    "text": "Special Saver"
  },
  {
    "label": "SpecialSpec_Up",
    "text": "Special Power Up"
  },
  {
    "label": "RespawnTime_Save",
    "text": "Quick Respawn"
  },
  {
    "label": "JumpTime_Save",
    "text": "Quick Super Jump"
  },
  {
    "label": "SubSpec_Up",
    "text": "Sub Power Up"
  },
  {
    "label": "ExSkillDouble",
    "text": "Ability Doubler"
  },
  {
    "label": "StartAllUp",
    "text": "Opening Gambit"
  },
  {
    "label": "EndAllUp",
    "text": "Last-Ditch Effort"
  },
  {
    "label": "MinorityUp",
    "text": "Tenacity"
  },
  {
    "label": "ComeBack",
    "text": "Comeback"
  },
  {
    "label": "SquidMoveSpatter_Reduction",
    "text": "Ninja Squid"
  },
  {
    "label": "DeathMarking",
    "text": "Haunt"
  },
  {
    "label": "SuperJumpSign_Hide",
    "text": "Stealth Jump"
  },
  {
    "label": "ThermalInk",
    "text": "Thermal Ink"
  },
  {
    "label": "Exorcist",
    "text": "Respawn Punisher"
  },
  {
    "label": "ObjectEffect_Up",
    "text": "Object Shredder"
  },
  {
    "label": "SomersaultLanding",
    "text": "Drop Roller"
  },
  {
    "label": "Action_Up",
    "text": "Intensify Action"
  }
]