[
  {
    "label": "FST000",
    "text": "Cream Basics"
  },
  {
    "label": "SLO000",
    "text": "Blue Lo-Tops"
  },
  {
    "label": "SLO001",
    "text": "Banana Basics"
  },
  {
    "label": "SLO002",
    "text": "LE Lo-Tops"
  },
  {
    "label": "SLO003",
    "text": "White Seahorses"
  },
  {
    "label": "SLO004",
    "text": "Orange Lo-Tops"
  },
  {
    "label": "SLO005",
    "text": "Black Seahorses"
  },
  {
    "label": "SLO006",
    "text": "Clownfish Basics"
  },
  {
    "label": "SLO007",
    "text": "Yellow Seahorses"
  },
  {
    "label": "SLO008",
    "text": "White 3-Straps"
  },
  {
    "label": "SLO009",
    "text": "Red 3-Straps"
  },
  {
    "label": "SLO010",
    "text": "Soccer Shoes"
  },
  {
    "label": "SLO011",
    "text": "LE Soccer Shoes"
  },
  {
    "label": "SLO012",
    "text": "Sunny Climbing Shoes"
  },
  {
    "label": "SLO013",
    "text": "Birch Climbing Shoes"
  },
  {
    "label": "SLO014",
    "text": "Green Lace-Ups"
  },
  {
    "label": "SLO015",
    "text": "White Laceless Dakroniks"
  },
  {
    "label": "SLO016",
    "text": "Blue Laceless Dakroniks"
  },
  {
    "label": "SLO017",
    "text": "Suede Gray Lace-Ups"
  },
  {
    "label": "SLO018",
    "text": "Suede Nation Lace-Ups"
  },
  {
    "label": "SLO019",
    "text": "Suede Marine Lace-Ups"
  },
  {
    "label": "SLO020",
    "text": "Toni Kensa Soccer Shoes"
  },
  {
    "label": "SLO021",
    "text": "Wasabi Tabi"
  },
  {
    "label": "SLO022",
    "text": "Suede Basics"
  },
  {
    "label": "SLO023",
    "text": "Ink-Black Clam 600s"
  },
  {
    "label": "SLO024",
    "text": "Suede Bosses"
  },
  {
    "label": "SLO025",
    "text": "White Clam 600s"
  },
  {
    "label": "SLO026",
    "text": "Stamina Cycling Shoes"
  },
  {
    "label": "SLO027",
    "text": "Energy Cycling Shoes"
  },
  {
    "label": "SHI000",
    "text": "Red Hi-Horses"
  },
  {
    "label": "SHI001",
    "text": "Zombie Hi-Horses"
  },
  {
    "label": "SHI002",
    "text": "Cream Hi-Tops"
  },
  {
    "label": "SHI003",
    "text": "Purple Hi-Horses"
  },
  {
    "label": "SHI004",
    "text": "Hunter Hi-Tops"
  },
  {
    "label": "SHI005",
    "text": "Red Hi-Tops"
  },
  {
    "label": "SHI006",
    "text": "Gold Hi-Horses"
  },
  {
    "label": "SHI008",
    "text": "Shark Moccasins"
  },
  {
    "label": "SHI009",
    "text": "Mawcasins"
  },
  {
    "label": "SHI010",
    "text": "Chocolate Dakroniks"
  },
  {
    "label": "SHI011",
    "text": "Cyan Dakroniks"
  },
  {
    "label": "SHI012",
    "text": "Black Dakroniks"
  },
  {
    "label": "SHI013",
    "text": "Piranha Moccasins"
  },
  {
    "label": "SHI014",
    "text": "White Norimaki 750s"
  },
  {
    "label": "SHI015",
    "text": "Black Norimaki 750s"
  },
  {
    "label": "SHI016",
    "text": "Sunset Orca Hi-Tops"
  },
  {
    "label": "SHI017",
    "text": "Red & Black Squidkid IV"
  },
  {
    "label": "SHI018",
    "text": "Blue & Black Squidkid IV"
  },
  {
    "label": "SHI019",
    "text": "Gray Sea-Slug Hi-Tops"
  },
  {
    "label": "SHI020",
    "text": "Orca Hi-Tops"
  },
  {
    "label": "SHI022",
    "text": "Navy Enperrials"
  },
  {
    "label": "SHI023",
    "text": "Amber Sea Slug Hi-Tops"
  },
  {
    "label": "SHI024",
    "text": "Yellow Iromaki 750s"
  },
  {
    "label": "SHI025",
    "text": "Red & White Squidkid V"
  },
  {
    "label": "SHI026",
    "text": "Honey & Orange Squidkid V"
  },
  {
    "label": "SHI027",
    "text": "Sun & Shade Squidkid IV"
  },
  {
    "label": "SHI028",
    "text": "Orca Woven Hi-Tops"
  },
  {
    "label": "SHI029",
    "text": "Green Iromaki 750s"
  },
  {
    "label": "SHI030",
    "text": "Purple Iromaki 750s"
  },
  {
    "label": "SHI031",
    "text": "Red Iromaki 750s"
  },
  {
    "label": "SHI032",
    "text": "Blue Iromaki 750s"
  },
  {
    "label": "SHI033",
    "text": "Orange Iromaki 750s"
  },
  {
    "label": "SHI034",
    "text": "Red Power Stripes"
  },
  {
    "label": "SHI035",
    "text": "Blue Power Stripes"
  },
  {
    "label": "SHI036",
    "text": "Toni Kensa Black Hi-Tops"
  },
  {
    "label": "SHI037",
    "text": "Sesame Salt 270s"
  },
  {
    "label": "SHI038",
    "text": "Black & Blue Squidkid V"
  },
  {
    "label": "SHI039",
    "text": "Orca Passion Hi-Tops"
  },
  {
    "label": "SHI040",
    "text": "Truffle Canvas Hi-Tops"
  },
  {
    "label": "SHI042",
    "text": "Force ReBoots"
  },
  {
    "label": "SHI043",
    "text": "Tenya OctoReds"
  },
  {
    "label": "SHI044",
    "text": "Tenya OctoPurps"
  },
  {
    "label": "SHI045",
    "text": "Pearl 01STERs"
  },
  {
    "label": "SHI046",
    "text": "Zebrafish Hi-Tops"
  },
  {
    "label": "SHI047",
    "text": "Dustcloud Hi-Tops"
  },
  {
    "label": "SHI048",
    "text": "Seafoam Hi-Tops"
  },
  {
    "label": "SHI049",
    "text": "White Lo-Vert Hi-Tops"
  },
  {
    "label": "SHI050",
    "text": "Blue & Black Squidkid III"
  },
  {
    "label": "SHI051",
    "text": "Red & White Squidkid III"
  },
  {
    "label": "SHI052",
    "text": "Onyx 01STERs"
  },
  {
    "label": "SHI053",
    "text": "Crab-Trap Squidkid III"
  },
  {
    "label": "SHT000",
    "text": "Pink Trainers"
  },
  {
    "label": "SHT001",
    "text": "Orange Arrows"
  },
  {
    "label": "SHT002",
    "text": "Neon Sea Slugs"
  },
  {
    "label": "SHT003",
    "text": "White Arrows"
  },
  {
    "label": "SHT004",
    "text": "Cyan Trainers"
  },
  {
    "label": "SHT005",
    "text": "Blue Sea Slugs"
  },
  {
    "label": "SHT006",
    "text": "Red Sea Slugs"
  },
  {
    "label": "SHT007",
    "text": "Purple Sea Slugs"
  },
  {
    "label": "SHT008",
    "text": "Crazy Arrows"
  },
  {
    "label": "SHT009",
    "text": "Black Trainers"
  },
  {
    "label": "SHT010",
    "text": "Violet Trainers"
  },
  {
    "label": "SHT011",
    "text": "Canary Trainers"
  },
  {
    "label": "SHT012",
    "text": "Yellow-Mesh Sneakers"
  },
  {
    "label": "SHT013",
    "text": "Arrow Pull-Ons"
  },
  {
    "label": "SHT014",
    "text": "Orange-Mesh Sneakers"
  },
  {
    "label": "SHT015",
    "text": "N-Pacer CaO"
  },
  {
    "label": "SHT016",
    "text": "N-Pacer Ag"
  },
  {
    "label": "SHT017",
    "text": "N-Pacer Au"
  },
  {
    "label": "SHT018",
    "text": "Sea Slug Volt 95s"
  },
  {
    "label": "SHT019",
    "text": "Athletic Arrows"
  },
  {
    "label": "SHT020",
    "text": "U Jellys"
  },
  {
    "label": "SHT021",
    "text": "Hyper Guppies"
  },
  {
    "label": "SHT022",
    "text": "Turbo Tabi Red"
  },
  {
    "label": "SHT023",
    "text": "E-JECT 30XX"
  },
  {
    "label": "SHT024",
    "text": "Slamgerine Slip-Ons"
  },
  {
    "label": "SHT025",
    "text": "Mako Bucket Hi-Tops"
  },
  {
    "label": "SHT026",
    "text": "Blue Shrimpsiders"
  },
  {
    "label": "SHT027",
    "text": "E-JECT 30VV"
  },
  {
    "label": "SHT028",
    "text": "OB Gaiter Waders"
  },
  {
    "label": "SHT029",
    "text": "AG Gaiter Waders"
  },
  {
    "label": "SHT030",
    "text": "Noir Guppies"
  },
  {
    "label": "SHT031",
    "text": "LT-CL0WN"
  },
  {
    "label": "SDL000",
    "text": "Oyster Clogs"
  },
  {
    "label": "SDL001",
    "text": "Choco Clogs"
  },
  {
    "label": "SDL003",
    "text": "Neon Delta Straps"
  },
  {
    "label": "SDL004",
    "text": "Black Flip-Flops"
  },
  {
    "label": "SDL005",
    "text": "Snow Delta Straps"
  },
  {
    "label": "SDL006",
    "text": "Luminous Delta Straps"
  },
  {
    "label": "SDL007",
    "text": "Red FishFry Sandals"
  },
  {
    "label": "SDL008",
    "text": "Yellow FishFry Sandals"
  },
  {
    "label": "SDL009",
    "text": "Musselforge Flip-Flops"
  },
  {
    "label": "SDL010",
    "text": "Cuttlefish Sandies"
  },
  {
    "label": "SDL011",
    "text": "Arrow Toesies Blu"
  },
  {
    "label": "SDL012",
    "text": "BlobMob Flip-Flops"
  },
  {
    "label": "SDL013",
    "text": "Orange Dadfoot Sandals"
  },
  {
    "label": "SDL014",
    "text": "Arrow Toesies Purp"
  },
  {
    "label": "SDL015",
    "text": "Annaki Strappy Sandals"
  },
  {
    "label": "SDL016",
    "text": "Squid Bone Unslips"
  },
  {
    "label": "SDL017",
    "text": "Pink Dadfoot Sandals"
  },
  {
    "label": "SDL018",
    "text": "Cyan Dadfoot Sandals"
  },
  {
    "label": "SDL019",
    "text": "Navy Toejamz"
  },
  {
    "label": "SDL020",
    "text": "Red Toejamz"
  },
  {
    "label": "SDL021",
    "text": "Yellow Toejamz"
  },
  {
    "label": "SDL022",
    "text": "Green Toejamz"
  },
  {
    "label": "SDL023",
    "text": "Skirmish Sabots"
  },
  {
    "label": "SDL024",
    "text": "Fishbone Sabots"
  },
  {
    "label": "CFS000",
    "text": "Blueberry Casuals"
  },
  {
    "label": "CFS001",
    "text": "Plum Casuals"
  },
  {
    "label": "TRS000",
    "text": "Trail Boots"
  },
  {
    "label": "TRS001",
    "text": "Custom Trail Boots"
  },
  {
    "label": "TRS002",
    "text": "Pro Trail Boots"
  },
  {
    "label": "BOT000",
    "text": "Moto Boots"
  },
  {
    "label": "BOT001",
    "text": "Tan Work Boots"
  },
  {
    "label": "BOT002",
    "text": "Red Work Boots"
  },
  {
    "label": "BOT003",
    "text": "Blue Moto Boots"
  },
  {
    "label": "BOT004",
    "text": "Green Rain Boots"
  },
  {
    "label": "BOT005",
    "text": "Acerola Rain Boots"
  },
  {
    "label": "BOT006",
    "text": "Punk Whites"
  },
  {
    "label": "BOT007",
    "text": "Punk Cherries"
  },
  {
    "label": "BOT008",
    "text": "Punk Yellows"
  },
  {
    "label": "BOT009",
    "text": "Bubble Rain Boots"
  },
  {
    "label": "BOT010",
    "text": "Snowy Down Boots"
  },
  {
    "label": "BOT011",
    "text": "Icy Down Boots"
  },
  {
    "label": "BOT012",
    "text": "Hunting Boots"
  },
  {
    "label": "BOT013",
    "text": "Punk Nights"
  },
  {
    "label": "BOT014",
    "text": "Deepsea Leather Boots"
  },
  {
    "label": "BOT016",
    "text": "Annaki Arachno Boots"
  },
  {
    "label": "BOT017",
    "text": "New-Leaf Leather Boots"
  },
  {
    "label": "BOT018",
    "text": "Tea-Green Hunting Boots"
  },
  {
    "label": "BOT019",
    "text": "Blu-Shift Moto Boots"
  },
  {
    "label": "BOT020",
    "text": "Skipjack Work Boots"
  },
  {
    "label": "BOT021",
    "text": "Arctic Duck Boots"
  },
  {
    "label": "BOT022",
    "text": "Field Duck Boots"
  },
  {
    "label": "BOT023",
    "text": "Red Hammertreads"
  },
  {
    "label": "BOT024",
    "text": "Dappled Hammertreads"
  },
  {
    "label": "BOT025",
    "text": "Punk Pinks"
  },
  {
    "label": "BOT026",
    "text": "Fuzzy Boots"
  },
  {
    "label": "BOT027",
    "text": "Transom Note Boots"
  },
  {
    "label": "BOT028",
    "text": "Red-Shift Moto Boots"
  },
  {
    "label": "BOT029",
    "text": "Spiked Duck Boots"
  },
  {
    "label": "BOT030",
    "text": "Buckle-Down Boots"
  },
  {
    "label": "SLP000",
    "text": "Blue Slip-Ons"
  },
  {
    "label": "SLP001",
    "text": "Red Slip-Ons"
  },
  {
    "label": "SLP002",
    "text": "Squid-Stitch Slip-Ons"
  },
  {
    "label": "SLP003",
    "text": "Polka-Dot Slip-Ons"
  },
  {
    "label": "SLP004",
    "text": "ZedFry Slip-Ons"
  },
  {
    "label": "LTS000",
    "text": "White Kicks"
  },
  {
    "label": "LTS001",
    "text": "Cherry Kicks"
  },
  {
    "label": "LTS002",
    "text": "Turquoise Kicks"
  },
  {
    "label": "LTS003",
    "text": "Squink Wingtips"
  },
  {
    "label": "LTS004",
    "text": "Roasted Brogues"
  },
  {
    "label": "LTS005",
    "text": "Kid Clams"
  },
  {
    "label": "LTS006",
    "text": "Smoky Wingtips"
  },
  {
    "label": "LTS007",
    "text": "Navy Red-Soled Wingtips"
  },
  {
    "label": "LTS008",
    "text": "Gray Yellow-Soled Wingtips"
  },
  {
    "label": "LTS009",
    "text": "Inky Kid Clams"
  },
  {
    "label": "LTS010",
    "text": "Annaki Habaneros"
  },
  {
    "label": "LTS011",
    "text": "Annaki Tigers"
  },
  {
    "label": "LTS013",
    "text": "Desert Chukkas"
  },
  {
    "label": "LTS014",
    "text": "Dark-Roast Boaties"
  },
  {
    "label": "LTS015",
    "text": "Tricolor Boaties"
  },
  {
    "label": "LTS016",
    "text": "Bit 'n' Bridle Loafers"
  },
  {
    "label": "AMB000",
    "text": "School Shoes + Hi Socks"
  },
  {
    "label": "AMB001",
    "text": "Samurai Shoes"
  },
  {
    "label": "AMB002",
    "text": "Power Boots"
  },
  {
    "label": "AMB003",
    "text": "Baggy-Sock Fringe Loafs"
  },
  {
    "label": "AMB004",
    "text": "Squinja Boots"
  },
  {
    "label": "AMB005",
    "text": "Power Boots Mk I"
  },
  {
    "label": "AMB006",
    "text": "Pearlescent Kicks"
  },
  {
    "label": "AMB007",
    "text": "Marinated Slip-Ons"
  },
  {
    "label": "AMB008",
    "text": "Enchanted Boots"
  },
  {
    "label": "AMB009",
    "text": "Steel Greaves"
  },
  {
    "label": "AMB010",
    "text": "Fresh Fish Feet"
  },
  {
    "label": "AMB011",
    "text": "Knotty Bois"
  },
  {
    "label": "AMB012",
    "text": "Kick Dampeners"
  },
  {
    "label": "AMB013",
    "text": "Chaos Kicks"
  },
  {
    "label": "AMB014",
    "text": "Base School Shoes"
  },
  {
    "label": "AMB015",
    "text": "Base Fringed Loafers"
  },
  {
    "label": "AMB018",
    "text": "Faux Sharkskin Platfins"
  },
  {
    "label": "AMB019",
    "text": "Eel Heel Socks"
  },
  {
    "label": "AMB020",
    "text": "Big Muds"
  },
  {
    "label": "AMB021",
    "text": "World Tour Boots"
  },
  {
    "label": "AMB022",
    "text": "World Tour Heels"
  },
  {
    "label": "MSN000",
    "text": "Hero Runner Replicas"
  },
  {
    "label": "MSN004",
    "text": "Armor Boot Replicas"
  },
  {
    "label": "MSN110",
    "text": "Fuzz-Octoling Boots"
  },
  {
    "label": "MSN200",
    "text": "タコ・ブーツ"
  },
  {
    "label": "MSN301",
    "text": "Survival Foot"
  },
  {
    "label": "MSN302",
    "text": "Hero Boots Lv1"
  },
  {
    "label": "MSN303",
    "text": "Hero Boots Lv2"
  },
  {
    "label": "MSN304",
    "text": "Hero Boots Lv3"
  },
  {
    "label": "MSN305",
    "text": "Hero Boots ST"
  },
  {
    "label": "MSN306",
    "text": "Hero Boot Replicas"
  },
  {
    "label": "MSN307",
    "text": "Survival Footwrap Replicas"
  },
  {
    "label": "MSN310",
    "text": "Legendary Sandals"
  },
  {
    "label": "MSN311",
    "text": "Captain's Flip-Flop Replicas"
  },
  {
    "label": "COP101",
    "text": "Angry Rain Boots"
  },
  {
    "label": "COP102",
    "text": "Nonslip Senseis"
  },
  {
    "label": "COP103",
    "text": "Octoleet Boots"
  },
  {
    "label": "COP104",
    "text": "Friendship Bracelet"
  },
  {
    "label": "COP105",
    "text": "Flipper Floppers"
  },
  {
    "label": "COP106",
    "text": "Wooden Sandals"
  },
  {
    "label": "COP107",
    "text": "Trevally Derby Rollers"
  },
  {
    "label": "COP108",
    "text": "Brinestone Boots"
  },
  {
    "label": "COP109",
    "text": "Knockout Boots"
  },
  {
    "label": "HAP000",
    "text": "Pearl-Scout Lace-Ups"
  },
  {
    "label": "HAP001",
    "text": "Pearlescent Squidkid IV"
  },
  {
    "label": "HAP002",
    "text": "Pearl Punk Crowns"
  },
  {
    "label": "HAP003",
    "text": "New-Day Arrows"
  },
  {
    "label": "HAP004",
    "text": "Marination Lace-Ups"
  },
  {
    "label": "HAP005",
    "text": "Rina Squidkid IV"
  },
  {
    "label": "HAP006",
    "text": "Trooper Power Stripes"
  },
  {
    "label": "HAP007",
    "text": "Midnight Slip-Ons"
  },
  {
    "label": "HAP008",
    "text": "Shivery Squidkid III"
  },
  {
    "label": "HAP009",
    "text": "Fried Squidkid III"
  },
  {
    "label": "HAP010",
    "text": "Big Squidkid III"
  },
  {
    "label": "HAP011",
    "text": "Chained DC Toejamz"
  },
  {
    "label": "HAP012",
    "text": "Jeweled DC Toejamz"
  },
  {
    "label": "HAP013",
    "text": "Swirled DC Toejamz"
  },
  {
    "label": "HAP014",
    "text": "Trifecta Duck Boots"
  },
  {
    "label": "HAP015",
    "text": "Trifecta Hi-Tops"
  },
  {
    "label": "HAP016",
    "text": "Trifecta Sandals"
  },
  {
    "label": "TRG000",
    "text": "Fry Tops"
  },
  {
    "label": "TRG001",
    "text": "Burden of Floof"
  },
  {
    "label": "SDODR000",
    "text": "オーダーシューズ"
  },
  {
    "label": "SDODR200",
    "text": "Order Boot Replicas"
  }
]