[
  {
    "label": "Comment_00",
    "text": "잘 돌아왔네{{delay frames=\"15\"}}\n상당히 소질이 있군… 자네는 뛰어난 인재인 모양이야{{pageBreak}}지금 바로 아르바이트를 부탁해도 문제없을 듯하네만…{{delay frames=\"30\"}}\n한 가지만 더 받았으면 하는 연수가 있다네{{pageBreak}}자네와 같이 어메이징한 젊은이를 무턱대고 현장에 내보내서\n다치게 할 수는 없으니 말이야{{pageBreak}}다음으로는 다양한 {{color id=\"1\"}}거물연어{{color id=\"65535\"}}를 쓰러뜨리는 법을 익히게 될 것이네{{delay frames=\"30\"}}\n카오폴리스 지방에서 발견된 새로운 종에 대해서도 알아야겠지…{{pageBreak}}연수라고 해 봐야 그저 매뉴얼을 조금 읽는 것뿐…{{delay frames=\"30\"}}\n흠, 마침 다음 헬리콥터가 나가는 모양이군{{pageBreak}}「바다는 모든 질문에 해답을 준다」라는\n바다의 가르침을 들어 본 적이 있겠지?"
  },
  {
    "label": "Comment_01",
    "text": "마지막 연수도 현장에서 받도록 하지{{delay frames=\"30\"}}\n자, 지금부터 출발해도 되겠나?"
  },
  {
    "label": "Comment_02",
    "text": "멋지군…{{delay frames=\"15\"}}\n그럼 바로 헬리콥터에 올라타게나"
  },
  {
    "label": "Comment_03",
    "text": "서두를 필요 없네…{{delay frames=\"15\"}}\n언제든 시간이 있을 때 오게나"
  }
]