[
  {
    "label": "UnlockBankaraMatch_00",
    "text": "어엿한 한 명의 어메이징한 플레이어가 된 너는\n드디어 {{color id=\"1\"}}카오폴리스 매치{{color id=\"65535\"}}를 플레이할 수 있게 되었다!{{pageBreak}}카오폴리스 매치는 {{color id=\"1\"}}랭크 포인트{{color id=\"65535\"}}를 걸고 도전하는\n익스트림한 배틀이다!{{pageBreak}}카오폴리스 매치에서는 {{color id=\"1\"}}랭크 에어리어{{color id=\"65535\"}}와 {{color id=\"1\"}}랭크 타워{{color id=\"65535\"}} 등\n몇 가지의 룰에 따라 배틀을 한다"
  },
  {
    "label": "UnlockBankaraMatch_01",
    "text": "배틀 포트에 들어가면 카오폴리스 매치를 시작하기 전에\n{{icon id=\"6\" arg=\"0x0000803F00000000\"}}로 {{color id=\"1\"}}룰 확인{{color id=\"65535\"}}을 해 두자!"
  },
  {
    "label": "UnlockBankaraMatch_02",
    "text": "참고로… 카오폴리스 매치에는\n{{color id=\"1\"}}챌린지{{color id=\"65535\"}}와 {{color id=\"1\"}}오픈{{color id=\"65535\"}}이라는 2가지 스타일이 있다{{pageBreak}}어느 쪽으로 할지 고민된다면 {{color id=\"1\"}}챌린지{{color id=\"65535\"}}를 추천한다{{pageBreak}}{{color id=\"1\"}}챌린지{{color id=\"65535\"}}는 혼자 차분히 도전하는 스타일이다\n그곳에서 만난 동료와 한 팀이 되어 승리를 쌓아 가자{{pageBreak}}친구와 함께 도전하고 싶을 때나\n조금만 플레이하고 싶을 때는 {{color id=\"1\"}}오픈{{color id=\"65535\"}}을 고르면 된다"
  },
  {
    "label": "UnlockBankaraMatch_03",
    "text": "물론 지금까지와 같이 레귤러 매치에서도\n경험치를 받을 수 있으니 원하는 모드로 참가하기를 바란다"
  },
  {
    "label": "UnlockBankaraMatch_04",
    "text": "게다가! {{color id=\"1\"}}이벤트 매치{{color id=\"65535\"}}도 개방된다!{{pageBreak}}이벤트 매치에서는 평소와 다르게\n{{color id=\"1\"}}특별한 룰{{color id=\"65535\"}}의 배틀 및 {{color id=\"1\"}}대회의 예선 {{color id=\"65535\"}}등에 참가할 수 있다{{pageBreak}}비정기적으로 개최되니 언제 참가할 수 있을지는\n메인 메뉴의 「스테이지 정보」에서 확인하자!"
  },
  {
    "label": "UnlockBankaraMatch_99",
    "text": "그럼 건투를 빌겠다!"
  }
]