[
  {
    "label": "Comment_00",
    "text": "할아버지!{{delay frames=\"15\"}} 구하러 왔어!!"
  },
  {
    "label": "Comment_01",
    "text": "앗…!"
  },
  {
    "label": "Comment_02",
    "text": "하…{{delay frames=\"30\"}} 할아버지?"
  },
  {
    "label": "Comment_03",
    "text": "할아버지!{{delay frames=\"60\"}} 거짓말…{{delay frames=\"45\"}} 그럴 수가…"
  },
  {
    "label": "Comment_04",
    "text": "헉!"
  },
  {
    "label": "Comment_05",
    "text": "안녕들 한가,{{delay frames=\"30\"}} 용케 여기까지 왔군"
  },
  {
    "label": "Comment_06",
    "text": "털북숭이, 너!{{delay frames=\"60\"}}\n할아버지를…{{delay frames=\"45\"}} 할아버지를 원래대로 돌려놔!!"
  },
  {
    "label": "Comment_07",
    "text": "신경 쓸 것 없다네…{{delay frames=\"60\"}}\n이제부터 모든 것이 원래대로 돌아갈 테니까"
  },
  {
    "label": "Comment_08",
    "text": "뭐시여?!!"
  },
  {
    "label": "Comment_09",
    "text": "아르바이트의{{delay frames=\"15\"}} 첫걸음 중 「음」 단계…{{delay frames=\"60\"}}\n어떤 것에도 끝은 찾아오는 법이라네"
  },
  {
    "label": "Comment_10",
    "text": "그래, {{delay frames=\"30\"}}지금 세계에도 말이지"
  },
  {
    "label": "Comment_11",
    "text": "걱정할 것 없네, {{delay frames=\"30\"}}하늘에서 털나잉크를 뿌려\n세계의 균형을 바로잡는 것뿐이니"
  },
  {
    "label": "Comment_12",
    "text": "오늘은 끝나고 {{delay frames=\"30\"}}내일이 시작되는 걸세"
  }
]