[
  {
    "label": "000",
    "text": "3호, {{delay frames=\"15\"}}길을 막고 있는 {{color id=\"1\"}}털나잉크{{color id=\"65535\"}}가 보이는가?{{delay frames=\"30\"}}\n저 둥그스름한 것이 털나잉크의 {{icon id=\"22\" arg=\"0x0000803F00000000\"}}{{color id=\"1\"}}코어{{color id=\"65535\"}}라네"
  },
  {
    "label": "001",
    "text": "저 코어가 털나잉크를 유지하는 모양이네만\n녀석에게는 잉크가 소용없는 듯하구먼…"
  },
  {
    "label": "002",
    "text": "지금은 일단 무시하고 문어 녀석들의 기지를 찾게나!"
  }
]