[
  {
    "label": "000",
    "text": "뭐, 뭣이라?!"
  },
  {
    "label": "001",
    "text": "에잇, 이제 될 대로 되거라!"
  },
  {
    "label": "002",
    "text": "간다, 백 퍼센트 풀 파워!{{delay frames=\"15\"}} 각오하거라!!"
  }
]