[
  {
    "label": "000",
    "text": "…아따～～～"
  },
  {
    "label": "001",
    "text": "당신, 뭐꼬!!"
  },
  {
    "label": "002",
    "text": "선생님! 정신 차리소!"
  },
  {
    "label": "003",
    "text": "바로 그겁니데이!"
  },
  {
    "label": "004",
    "text": "선생님의 진짜 실력을 보여 주이소!!"
  }
]