[
  {
    "label": "000",
    "text": "만타!{{string value=\"5\"}}(스테이지 소개 전에 뉴스 속보가 들어왔어!){{fun_000F_0004 arg=\"0x0500\"}}"
  },
  {
    "label": "001",
    "text": "뭔데? 기뻐보이는구마"
  },
  {
    "label": "002",
    "text": "만타만타!{{string value=\"5\"}}({{color id=\"1\"}}빅 런 {{color id=\"65535\"}}결과가 나왔거든～!){{fun_000F_0004 arg=\"0x0500\"}}"
  },
  {
    "label": "003",
    "text": "우오오오!\n드디어～～!!"
  },
  {
    "label": "004",
    "text": "진짜가?\nMr. 베어 상회에서?"
  },
  {
    "label": "005",
    "text": "어디 보자～\n「협력해 주셔서 진심으로 감사드립니다」"
  },
  {
    "label": "006",
    "text": "「조촐하게나마 하이 스코어에 따른\n사례를 준비했습니다」…라는구마!"
  },
  {
    "label": "007",
    "text": "흐음, 두근거리는구나!"
  },
  {
    "label": "008",
    "text": "그라믄 발표한데이!\n좋은 걸 받을 수 있는 {{color id=\"1\"}}하이 스코어{{color id=\"65535\"}}의 보더 라인은…"
  },
  {
    "label": "009",
    "text": "얼른! 얼른!!"
  },
  {
    "label": "010",
    "text": "두구두구두구두구…"
  },
  {
    "label": "011",
    "text": "만타만타만타만타…"
  },
  {
    "label": "012",
    "text": "{{size value=\"150\"}}빠밤!{{size value=\"100\"}}"
  },
  {
    "label": "013",
    "text": "{{size value=\"150\"}}만타!{{size value=\"100\"}}"
  },
  {
    "label": "014",
    "text": "이, 이렇게 높은 스코어를\n기록한 녀석들이 있단 말이냐?!"
  },
  {
    "label": "015",
    "text": "만～타!!{{string value=\"5\"}}(판타스틱!!){{fun_000F_0004 arg=\"0x0500\"}}"
  },
  {
    "label": "014_1",
    "text": "또 엄청난 스코어가 나왔구마…"
  },
  {
    "label": "015_1",
    "text": "연어들도 깜짝 놀라지 않았을까 싶구나"
  },
  {
    "label": "014_2",
    "text": "마안～타!!{{string value=\"5\"}}(우와, 이번에도\n엄청난 스코어가 나왔어!!){{fun_000F_0004 arg=\"0x0500\"}}"
  },
  {
    "label": "015_2",
    "text": "여전히 하이 레벨이구마!"
  },
  {
    "label": "014_3",
    "text": "아니～?! 보더 라인이 이렇게나 높다니!"
  },
  {
    "label": "015_3",
    "text": "마안타!{{string value=\"5\"}}(어마어마해～!!){{fun_000F_0004 arg=\"0x0500\"}}"
  },
  {
    "label": "016",
    "text": "이 스코어를 넘지 못해도\n사례는 모두 받을 수 있으니까 안심하래이～"
  },
  {
    "label": "017",
    "text": "만타…{{string value=\"5\"}}(휴…){{fun_000F_0004 arg=\"0x0500\"}}"
  },
  {
    "label": "100",
    "text": "만타!{{string value=\"5\"}}(한때는 어떻게 되는 거 아닌가 싶었는데\n모두가 도와준 덕분에 타운을 지킬 수 있었어!){{fun_000F_0004 arg=\"0x0500\"}}"
  },
  {
    "label": "101",
    "text": "음, 연어 녀석들도\n카오폴리스의 저력을 톡톡히 깨달았을 것이니라!"
  },
  {
    "label": "102",
    "text": "다들 참말로 욕봤데이!\n카오폴리스를 대표해서 인사하고 싶구마!"
  },
  {
    "label": "103",
    "text": "아～ 오랜만에 제트 코스터를 타고 싶구나!"
  },
  {
    "label": "104",
    "text": "만타～{{string value=\"5\"}}(요즘 좀 뜸하긴 했지～){{fun_000F_0004 arg=\"0x0500\"}}"
  },
  {
    "label": "105",
    "text": "그럼 영업 재개하면 셋이서 가까!"
  },
  {
    "label": "106",
    "text": "좋구나! 약속이니라!!"
  },
  {
    "label": "107",
    "text": "만타!{{string value=\"5\"}}(다들 열심히 해 줘서 정말 고마워!\n학교와 타운 모두 무사해서 다행이다～!){{fun_000F_0004 arg=\"0x0500\"}}"
  },
  {
    "label": "108",
    "text": "연어도 당신들의 매끄러～운 전투를 보면서\n많이 배웠을 기데이"
  },
  {
    "label": "109",
    "text": "강함도 아름다움도 우리의 승리였노라!\n두 번 다시 얼씬도 하지 말거라!"
  },
  {
    "label": "110",
    "text": "그나저나 미술이라… 일을 시작하고부터\n그림은 손도 안 댔던 거 같구마"
  },
  {
    "label": "111",
    "text": "만타～{{string value=\"5\"}}(그러고 보니 후우카는 중학생 때\n회화 콩쿠르에서 입상도 했었지～){{fun_000F_0004 arg=\"0x0500\"}}"
  },
  {
    "label": "112",
    "text": "그 거대전지메기 그림 말이로구나!\n색채가 아주 아방가르드했노라!"
  },
  {
    "label": "113",
    "text": "메기라꼬?\n입상한 거는 선생님을 그린 그림이었는데?"
  },
  {
    "label": "114",
    "text": "다들 수고 많았노라!\n실로 깔끔한 일처리였느니라!"
  },
  {
    "label": "115",
    "text": "만타!{{string value=\"5\"}}(맛조개 방수로는 멀쩡하대!\n계속 배틀도 할 수 있다니까 안심이야!){{fun_000F_0004 arg=\"0x0500\"}}"
  },
  {
    "label": "116",
    "text": "카오폴리스의 중요한 수입…이 아니라,\n문화재를 지켜 줘서 참말로 고맙데이!"
  },
  {
    "label": "117",
    "text": "연어가 지상뿐만 아니라\n수로도 지날 수 있다는 건 기억해 두는 게 좋겠구나"
  },
  {
    "label": "118",
    "text": "만타!{{string value=\"5\"}}(카오폴리스에도\n수로가 잔뜩 있으니 조심해야겠어!){{fun_000F_0004 arg=\"0x0500\"}}"
  },
  {
    "label": "119",
    "text": "그러고 보니 카오폴리스 7대 불가사의 중 「수로에\n울려 퍼지는 수수께끼의 목소리」라는 게 있다이가…"
  },
  {
    "label": "120",
    "text": "만～～타?!{{string value=\"5\"}}(뭐야, 무서운 이야기야?!){{fun_000F_0004 arg=\"0x0500\"}}"
  },
  {
    "label": "121",
    "text": "만타만타～?{{string value=\"5\"}}(모두의 용맹한 모습, 정말 멋졌어!\n역사 속의 영웅들도 이런 느낌 아니었을까～?){{fun_000F_0004 arg=\"0x0500\"}}"
  },
  {
    "label": "122",
    "text": "우리 카오폴리스 주민들의 무용담은\n먼 미래까지 전해져 내려가겠구나!"
  },
  {
    "label": "123",
    "text": "남플라 유적은 무사하다카이\n다시 안심하고 배틀이나 관광하러 오이소～!"
  },
  {
    "label": "124",
    "text": "「연어는 어째서 남플라 유적을 노린 것인가?!」\n다음 카오폴리스 라디오는 3시간 스페셜이니라!"
  },
  {
    "label": "125",
    "text": "만타～♪{{string value=\"5\"}}(유적의 비밀을 밝히는 거야～♪){{fun_000F_0004 arg=\"0x0500\"}}"
  },
  {
    "label": "126",
    "text": "그라믄 오징어의 고대 문명에 대해서\n열～심히 역사 공부를 해 둬야겠구마?"
  },
  {
    "label": "127",
    "text": "…다음 회 라디오 주제는\n카오폴리스 타운의 최신 맛집 특집 어떻겠느냐?"
  },
  {
    "label": "500",
    "text": "아무튼! 이제 아무 걱정 없이\n페스티벌을 즐길 수 있겠구나!"
  },
  {
    "label": "501",
    "text": "모두가 도와준 덕분이라카이!\n진짜 고맙데이!"
  },
  {
    "label": "502",
    "text": "자, 페스티벌에서 이루어질 삼합파의 경쟁!\n과연 리더에 어울리는 건 누구?!"
  },
  {
    "label": "503",
    "text": "만～타!{{string value=\"5\"}}(많은 응원 바랍니다～!){{fun_000F_0004 arg=\"0x0500\"}}"
  },
  {
    "label": "600",
    "text": "진짜가?\nMr. 베어 상회에서?"
  },
  {
    "label": "601",
    "text": "만타만타～{{string value=\"5\"}}(계속 읽어 줘～){{fun_000F_0004 arg=\"0x0500\"}}"
  },
  {
    "label": "602",
    "text": "어디 보자～\n「협력해 주셔서 진심으로 감사드립니다」"
  },
  {
    "label": "603",
    "text": "「모든 아르바이트생이 회수해 준 황금 연어알의 집계가\n완료되어 보고드립니다」…라는구마!"
  },
  {
    "label": "604",
    "text": "과연 황금 연어알을 몇 개나 모았을꼬?!"
  },
  {
    "label": "605",
    "text": "그라믄 발표한데이!\n이번 빅 런에서 모은 황금 연어알의 수는～?"
  },
  {
    "label": "606",
    "text": "얼른! 얼른!!"
  },
  {
    "label": "607",
    "text": "일, 십, 백…{{delay frames=\"30\"}} 잠깐!{{delay frames=\"15\"}}\n숫자가 너무 많아서 헷갈리는구나!!!"
  },
  {
    "label": "608",
    "text": "만타! 만타?!{{string value=\"5\"}}(어쨌든 할당량은 달성했네!\n그런데 이렇게 많이 모았어?!){{fun_000F_0004 arg=\"0x0500\"}}"
  },
  {
    "label": "609",
    "text": "난제 전원에게 사례로 비늘을 준대니\n다들 기대하그래이～"
  },
  {
    "label": "610",
    "text": "만타～!{{string value=\"5\"}}(해냈어～!){{fun_000F_0004 arg=\"0x0500\"}}"
  },
  {
    "label": "607_1",
    "text": "이런! 할당량을 달성하지 못했나…!"
  },
  {
    "label": "608_1",
    "text": "마안타!!{{string value=\"5\"}}(그래도 엄청 많이 모았어!!){{fun_000F_0004 arg=\"0x0500\"}}"
  },
  {
    "label": "609_1",
    "text": "역시 할당량 7억 개는 욕심이 너무 그득했다이가"
  },
  {
    "label": "610_1",
    "text": "만타…{{string value=\"5\"}}(비늘을 받을 수 없게 된 건 아쉽지만\n페스티벌 회장이 무사해서 다행이야…){{fun_000F_0004 arg=\"0x0500\"}}"
  },
  {
    "label": "611_pre1",
    "text": "마안～타{{string value=\"5\"}}(참고로 이번 보더 라인은 이런 느낌이었어{{fun_000F_0004 arg=\"0x0500\"}})"
  },
  {
    "label": "611_pre2",
    "text": "이 스코어를 넘지 못해도\n사례는 모두 받을 수 있으니 안심하거라!"
  },
  {
    "label": "611",
    "text": "모두가 도와준 덕분에 그랜드 페스티벌을\n지킬 수 있었다! 진심으로 고맙구나!"
  },
  {
    "label": "612",
    "text": "만타만타～!{{string value=\"5\"}}(항상 위기에 처한 우리를 도와줘서\n정말 말로 다 할 수 없을 만큼 고마워～!){{fun_000F_0004 arg=\"0x0500\"}}"
  },
  {
    "label": "613",
    "text": "만약 앞으로도 연어가 쳐들어오믄\n부디 힘을 빌려주래이!"
  },
  {
    "label": "614",
    "text": "모두가 같이 있어 준다면 무서울 것이 없느니라!"
  },
  {
    "label": "615",
    "text": "만타…{{string value=\"5\"}}(반대로 도와주는 모두가 없었다고 생각하면\n등골이 오싹해지네…){{fun_000F_0004 arg=\"0x0500\"}}"
  },
  {
    "label": "616",
    "text": "만약 우리 말고 다른 사람이 아무도 없다 한들\n우리 셋은 연어들과 맞서 싸울 것이니라!"
  },
  {
    "label": "617",
    "text": "그게 어떤 구역을 지키는 사람의 의무인 기라"
  },
  {
    "label": "620",
    "text": "만타～{{string value=\"5\"}}(어쨌든 페스티벌 회장의 설치도 끝났고\n큰 문제없이 제시간에 맞출 수 있어서 다행이야～){{fun_000F_0004 arg=\"0x0500\"}}"
  },
  {
    "label": "621",
    "text": "이제 근심 걱정 없이 페스티벌을 즐길 수 있겠구마♪"
  },
  {
    "label": "622",
    "text": "이제 그랜드 페스티벌을\n마음껏 즐기기만 하면 되느니라!"
  },
  {
    "label": "623",
    "text": "이런 빅 이벤트에 참가할 기회 흔치 않데이!\n맘껏 즐기고 가이소!"
  }
]