[
  {
    "label": "000",
    "text": "만타! 만타!{{string value=\"5\"}}(뉴스 속보! 뉴스 속보야!){{fun_000F_0004 arg=\"0x0500\"}}"
  },
  {
    "label": "001",
    "text": "응? 뭐 있었나?"
  },
  {
    "label": "002",
    "text": "만～타!{{string value=\"5\"}}({{color id=\"1\"}}페스티벌{{color id=\"65535\"}} 결과가 나왔습니다～!!){{fun_000F_0004 arg=\"0x0500\"}}"
  },
  {
    "label": "003",
    "text": "우오오오! 기다리고 있었노라～!!"
  },
  {
    "label": "004",
    "text": "그럼 순서대로 가 보제이～!"
  },
  {
    "label": "006",
    "text": "먼저 사전 페스티벌 결과를 복습하고 넘어가까\n사전 페스티벌에서 {{color id=\"1\"}}소라고둥{{color id=\"65535\"}}을 많이 획득한 것은…"
  },
  {
    "label": "007",
    "text": "음, 그러했지!"
  },
  {
    "label": "008",
    "text": "다음으로 어느 팀이 많은 표를 받았는지\n{{color id=\"1\"}}득표율{{color id=\"65535\"}} 승부!"
  },
  {
    "label": "009",
    "text": "만타!{{string value=\"5\"}}(안 질 거야～!){{fun_000F_0004 arg=\"0x0500\"}}"
  },
  {
    "label": "010",
    "text": "오호, 이렇게 되었구나!"
  },
  {
    "label": "011",
    "text": "만타～?!{{string value=\"5\"}}(그리고 그리고～?!){{fun_000F_0004 arg=\"0x0500\"}}"
  },
  {
    "label": "012",
    "text": "어디가 페스티벌의 분위기를 띄웠는지 {{color id=\"1\"}}공헌도{{color id=\"65535\"}} 발표!\n오픈・챌린지・트리컬러, 동시에 간데이!"
  },
  {
    "label": "013",
    "text": "동시에?! 자, 잠깐 기다리거라\n아직 마음의 준비가 안 되었느니라～!"
  },
  {
    "label": "014",
    "text": "흐어어어?!!"
  },
  {
    "label": "015",
    "text": "만타!!"
  },
  {
    "label": "016",
    "text": "그리고 드디어!\n이때가 왔데이!!"
  },
  {
    "label": "017",
    "text": "{{color id=\"1\"}}최종 결과{{color id=\"65535\"}}로구나?!"
  },
  {
    "label": "018",
    "text": "자자, 주목하이소!\n이번 페스티벌을 제패한 팀은…"
  },
  {
    "label": "019",
    "text": "만타…{{string value=\"5\"}}(콩닥콩닥…){{fun_000F_0004 arg=\"0x0500\"}}"
  },
  {
    "label": "100",
    "text": "똑딱똑딱똑딱똑딱…"
  },
  {
    "label": "101",
    "text": "{{size value=\"130\"}}짜잔!{{size value=\"100\"}}"
  },
  {
    "label": "102",
    "text": "두구두구두구두구…"
  },
  {
    "label": "103",
    "text": "{{size value=\"130\"}}빠밤!{{size value=\"100\"}}"
  },
  {
    "label": "104",
    "text": "만타만타만타만타…"
  },
  {
    "label": "105",
    "text": "{{size value=\"130\"}}만타!{{size value=\"100\"}}"
  }
]