[
  {
    "label": "000",
    "text": "만타만～타!{{string value=\"5\"}}({{color id=\"1\"}}뉴 시즌{{color id=\"65535\"}}이 시작됐어～!){{fun_000F_0004 arg=\"0x0500\"}}"
  },
  {
    "label": "001",
    "text": "아자, 왔구나～!!"
  },
  {
    "label": "002",
    "text": "자, 그럼 어떤 게 추가됐는지\n차례대로 소개하께～!"
  }
]