[
  {
    "label": "000",
    "text": "자, 메인 페스티벌이 시작됐다는 것은\n{{color id=\"1\"}}사전 페스티벌{{color id=\"65535\"}} 결과가 나왔다는 소리 아이겠나"
  },
  {
    "label": "001",
    "text": "어느 팀이 이겼느냐?!\n어서 말하거라～!!"
  },
  {
    "label": "002",
    "text": "어데 보자, 이 페스티벌 첫 번째 승부!\n사전 페스티벌 동안 {{color id=\"1\"}}소라고둥{{color id=\"65535\"}}을 가장 많이 모은 곳은…"
  },
  {
    "label": "003",
    "text": "두구두구두구두구…"
  },
  {
    "label": "004",
    "text": "만타만타만타만타…"
  },
  {
    "label": "005",
    "text": "{{size value=\"130\"}}빠밤!{{size value=\"100\"}}"
  },
  {
    "label": "006",
    "text": "{{size value=\"130\"}}만타!{{size value=\"100\"}}"
  },
  {
    "label": "007",
    "text": "사전 페스티벌 결과는 이런 느낌이지만\n진짜 승부는 지금부터데이!"
  },
  {
    "label": "008",
    "text": "만타!{{string value=\"5\"}}(다들 파이팅～!){{fun_000F_0004 arg=\"0x0500\"}}"
  }
]