[
  {
    "label": "000",
    "text": "빅 런 발생으로\n초밥 월드는 임시 휴업이구마"
  },
  {
    "label": "001",
    "text": "연어들 때문에\n모처럼의 주말이 엉망이 되었구나…"
  },
  {
    "label": "002",
    "text": "{{color id=\"1\"}}Mr. 베어 상회{{color id=\"65535\"}}에서는 현장에서 대응할\n아르바이트생을 대・대・대모집 중이데이!"
  },
  {
    "label": "003",
    "text": "만타!{{string value=\"5\"}}(다 함께 연어와 맞서 싸우자!){{fun_000F_0004 arg=\"0x0500\"}}"
  },
  {
    "label": "003_1",
    "text": "황금 연어알을 잔뜩 납품하면\n사례가 호화로워진다지?"
  },
  {
    "label": "003_2",
    "text": "만타?!{{string value=\"5\"}}(이번엔 처음부터 보더 라인이 정해져 있다니까\n시간 되면 한번 도전해 보는 게 어떨까?!){{fun_000F_0004 arg=\"0x0500\"}}"
  },
  {
    "label": "003_3",
    "text": "호화 사례의 획득 찬스… 놓칠 수 없제"
  },
  {
    "label": "006",
    "text": "만타?{{string value=\"5\"}}(타운을 지키고 싶다는 뜻이지?){{fun_000F_0004 arg=\"0x0500\"}}"
  },
  {
    "label": "007",
    "text": "빅 런 발생 중인\n해녀 미술 대학에는 가까이 가지 말그래이"
  },
  {
    "label": "008",
    "text": "깜빡하고 등교하면 큰일이니라!"
  },
  {
    "label": "009",
    "text": "빅 런 발생 중인\n맛조개 방수로는 관계자 외 출입 금지데이"
  },
  {
    "label": "010",
    "text": "연어 출입 금지는 어떻게 안 되겠느냐?"
  },
  {
    "label": "011",
    "text": "빅 런이 발생해가 남플라 유적에서는\n유적이 아니고 연어 조사를 하고 있다 카네"
  },
  {
    "label": "012",
    "text": "조사는 해야 직성이 풀리나 보구나"
  },
  {
    "label": "013",
    "text": "빅 런 발생에 따라\n대구 포트 쇼핑 파크의 일부 점포는 휴업 중이데이"
  },
  {
    "label": "014",
    "text": "일부?\n이 상황에 영업 중인 점포가 있다는 말이냐?!"
  },
  {
    "label": "015",
    "text": "빅 런 발생 중인\n메기 지구에는 가까이 가지 말그래이～!"
  },
  {
    "label": "016",
    "text": "연어를 처리하러 가는 녀석들은 별개이니라!"
  },
  {
    "label": "017",
    "text": "드디어 왔구마, {{color id=\"1\"}}빅 빅 런{{color id=\"65535\"}}!\n각지에 연어 무리가 몰려들고 있데이～!"
  },
  {
    "label": "018",
    "text": "만타! 만타!{{string value=\"5\"}}(이번에도 두목 연합이 목격됐대!\n여기저기가 다 난리야!){{fun_000F_0004 arg=\"0x0500\"}}"
  },
  {
    "label": "019",
    "text": "{{color id=\"1\"}}Mr. 베어 상회{{color id=\"65535\"}}에서는 현장에서 대응할\n아르바이트생을 대・대・대모집 중이데이!"
  },
  {
    "label": "020",
    "text": "어디로 가게 될지는 현장에 도착할 때까지\n알 수 없다고 하지만, 뭐 별문제 있겠느냐"
  },
  {
    "label": "500",
    "text": "{{color id=\"1\"}}Mr. 베어 상회{{color id=\"65535\"}}에서는 현장에서 대응할\n아르바이트생을 대・대・대모집 중이데이!"
  },
  {
    "label": "501",
    "text": "만타!{{string value=\"5\"}}(협력하면 사례를 받을 수 있대!){{fun_000F_0004 arg=\"0x0500\"}}"
  },
  {
    "label": "502",
    "text": "다음 주에 있을 페스티벌을 위해서도\n어서 이 카오폴리스에서 연어 녀석들을 쫓아내자꾸나!"
  },
  {
    "label": "503",
    "text": "만타만타!{{string value=\"5\"}}(힘을 합쳐서 연어와 맞서 싸우자!){{fun_000F_0004 arg=\"0x0500\"}}"
  },
  {
    "label": "504",
    "text": "아 참, 페스티벌 투표를 아직 안 한 사람은\n아르바이트하기 전에 미리 끝내 두그래이～!"
  },
  {
    "label": "505",
    "text": "연어를 처리하고 소라고둥도 획득하자꾸나!"
  },
  {
    "label": "506",
    "text": "결국 연어들이\n그랜드 페스티벌 회장까지 몰려와 삣다!"
  },
  {
    "label": "507",
    "text": "싸울 수 있는 녀석들은\n{{color id=\"1\"}}Mr. 베어 상회{{color id=\"65535\"}}로 집합하거라!"
  },
  {
    "label": "508",
    "text": "황금 연어알을 잔뜩 납품하면\n사례가 호화로워진다지?"
  },
  {
    "label": "509",
    "text": "만타!{{string value=\"5\"}}(보더 라인이 정해져 있으니까\n시간 되면 한번 도전해 보는 게 어떨까!){{fun_000F_0004 arg=\"0x0500\"}}"
  },
  {
    "label": "510",
    "text": "게다가 이번엔 무려～?!"
  },
  {
    "label": "511",
    "text": "참가한 {{color id=\"1\"}}모두가 모은 황금 연어알 합계{{color id=\"65535\"}}를\nMr. 베어 상회에서 카운트하는 모양이더구나!"
  },
  {
    "label": "512",
    "text": "만타만타!{{string value=\"5\"}}(황금 연어알의 합계가 {{color id=\"1\"}}할당량{{color id=\"65535\"}}을 넘으면\n모든 참가자에게 {{color id=\"1\"}}비늘{{color id=\"65535\"}}을 선물한다고 해!){{fun_000F_0004 arg=\"0x0500\"}}"
  },
  {
    "label": "513",
    "text": "흠! …그래서 얼마나 모아야 하는 게냐?"
  },
  {
    "label": "514",
    "text": "만타만타～!{{string value=\"5\"}}(그럼 모두가 궁금해할 할당량을\n지금 발표할게～!){{fun_000F_0004 arg=\"0x0500\"}}"
  },
  {
    "label": "515",
    "text": "똑딱똑딱똑딱똑딱…\n{{size value=\"150\"}}짜잔!{{size value=\"100\"}}"
  },
  {
    "label": "516",
    "text": "우오오오～?!!\n숫자가 엄청 높지 않느냐!!"
  },
  {
    "label": "517",
    "text": "치, 치치, {{delay frames=\"30\"}}{{color id=\"1\"}}7억{{color id=\"65535\"}}이라꼬～～～?!!"
  },
  {
    "label": "518",
    "text": "아무리 그래도 7억 개는 무리다이가!\nMr. 베어 상회도 정신이 있는 기가!!"
  },
  {
    "label": "519",
    "text": "마, 만타…?{{string value=\"5\"}}(확실히 엄청 높은 숫자인 것은 맞지만,\n모두가 노력하면 해낼 수 있지 않을까…?){{fun_000F_0004 arg=\"0x0500\"}}"
  },
  {
    "label": "520",
    "text": "어쨌든 페스티벌 회장도 지키면서\n겸사겸사 사례로 비늘도 받아 가거라!"
  },
  {
    "label": "521",
    "text": "하～ 이래 된 이상 할 수밖에 없제!"
  },
  {
    "label": "522",
    "text": "아르바이트 현장에서는 몬 만나겠지만서도\n우리의 마음은 모두와 함께 할 기다"
  },
  {
    "label": "523",
    "text": "우리는 언제나 모두를 응원하고 있느니라!"
  },
  {
    "label": "524",
    "text": "만타, 만타!{{string value=\"5\"}}(아 참, 페스티벌 투표를 아직 안 했으면\n아르바이트하기 전에 미리 끝내 줘!){{fun_000F_0004 arg=\"0x0500\"}}"
  },
  {
    "label": "525",
    "text": "기왕 연어를 처리하는 김에\n소라고둥도 획득하자꾸나!"
  }
]