[
  {
    "label": "Comment_00",
    "text": "자자, 주목하이소!"
  },
  {
    "label": "Comment_01",
    "text": "카오폴리스 대표 어메이징한 트리오\n삼합파가 선보이는…"
  },
  {
    "label": "Comment_02",
    "text": "카오폴리스 라디오 시간이 찾아왔느니라～!!!"
  },
  {
    "label": "Comment_03",
    "text": "만타!{{string value=\"5\"}}(이제 시작해!){{fun_000F_0004 arg=\"0x0500\"}}"
  },
  {
    "label": "Comment_04",
    "text": "오늘도 구석구석까지\n쭉～쭉 칠해 주꾸마!"
  },
  {
    "label": "Comment_05",
    "text": "만타만타!{{string value=\"5\"}}(호호지로 멋지다～!){{fun_000F_0004 arg=\"0x0500\"}}"
  }
]