[
  {
    "label": "000",
    "text": "맞다 에이트,{{delay frames=\"15\"}} 오더를 날려 버릴 때 쓴 팔레트는\n이미 재설정이 끝났대{{pageBreak}}그러니까{{delay frames=\"15\"}} 이번에는 다른 팔레트를 써 보자!{{delay frames=\"30\"}}\n팔레트는 {{icon id=\"74\" arg=\"0x0000803F00000000\"}}로 바꿀 수 있어!"
  }
]