[
  {
    "label": "000",
    "text": "에이트한테 이 정도는 식은 죽 먹기지!"
  },
  {
    "label": "001",
    "text": "제법인걸{{delay frames=\"15\"}}\n컬러 칩도 능숙하게 다루는 것 같고{{pageBreak}}컬러 칩은 다양한 종류가 존재하는데{{delay frames=\"15\"}}\n{{color id=\"4\"}}다음 플로어로 가기 전{{color id=\"65535\"}}에 매번 지급되는 모양이야{{pageBreak}}이걸 봐"
  },
  {
    "label": "002",
    "text": "지금 보이는 게 {{color id=\"4\"}}다음 플로어{{color id=\"65535\"}}와\n{{color id=\"4\"}}지급되는 컬러 칩{{color id=\"65535\"}}의 정보야{{pageBreak}}다음 컬러 칩은 「{{color id=\"4\"}}포이즌 잉크{{color id=\"65535\"}}」네{{delay frames=\"30\"}}\n효과는…{{delay frames=\"15\"}} 적혀 있는 대로고"
  },
  {
    "label": "003",
    "text": "뭐,{{delay frames=\"15\"}} 실제로 써 보면 감이 잡히겠지{{delay frames=\"30\"}}\n안 그래? 에이트!"
  }
]