[
  {
    "label": "000",
    "text": "지…지직…… 선…배……"
  },
  {
    "label": "001",
    "text": "이이다?!{{delay frames=\"30\"}} 거기 있어?!"
  },
  {
    "label": "002",
    "text": "지지…직… 주세…… 지…직"
  },
  {
    "label": "003",
    "text": "기다려,{{delay frames=\"15\"}} 지금 거기로 갈게!!"
  },
  {
    "label": "004",
    "text": "가자, 에이트!{{delay frames=\"30\"}} 이이다는 {{color id=\"4\"}}타워 위{{color id=\"65535\"}}에 있어!"
  }
]