[
  {
    "label": "000",
    "text": "응?{{delay frames=\"15\"}} 처음 보는 녀석이 있네"
  },
  {
    "label": "001",
    "text": "저 {{icon id=\"60\" arg=\"0x0000803F00000000\"}}스켈레톤을 셋 다 쓰러뜨리면 되는 것 같아"
  },
  {
    "label": "002",
    "text": "저 녀석들, 발이 타이어잖아!{{delay frames=\"30\"}}\n줄행랑치는 속도가 어마어마하겠는데?"
  },
  {
    "label": "003",
    "text": "뭐,{{delay frames=\"15\"}} 상대가 어떻게 나오든 문제 될 것 없지{{delay frames=\"30\"}}\n가자, 에이트!"
  }
]