[
  {
    "label": "001",
    "text": "경고! 예상치 못한 에러! 경고! 예상치 못한 에러!"
  },
  {
    "label": "002",
    "text": "경고! 예상치 못한 에&%@#★$?♪!!!"
  },
  {
    "label": "003",
    "text": "해치웠나?!"
  },
  {
    "label": "003_01",
    "text": "…응?"
  },
  {
    "label": "004",
    "text": "아, 아니?!{{delay frames=\"30\"}} 와～～ 귀여워라!!"
  },
  {
    "label": "005",
    "text": "분하다～!{{delay frames=\"30\"}} 조금만 더 있었으면\n질서의 세계를 만들 수 있었는데～!!"
  },
  {
    "label": "006",
    "text": "이건…{{delay frames=\"30\"}} 오더는 힘의 대부분을 잃어버린 듯해요{{delay frames=\"30\"}}\n더는 나쁜 짓도 못 하겠죠"
  },
  {
    "label": "007",
    "text": "이걸로 한 건 해결했네!"
  },
  {
    "label": "008",
    "text": "야, 문어 꼬맹이!{{delay frames=\"30\"}} 방금 그 곡 좋았지?"
  },
  {
    "label": "009",
    "text": "너한테도 특별히 티켓을 보내 줄 테니까{{delay frames=\"15\"}}\n라이브는 매너 지켜서 참가해!"
  },
  {
    "label": "010",
    "text": "선배…!"
  },
  {
    "label": "011",
    "text": "션배…!"
  },
  {
    "label": "012",
    "text": "자, 이제 돌아가자!{{delay frames=\"30\"}}\n우리의 오더폴리스 스퀘어로!"
  }
]