[
  {
    "label": "Shooter",
    "text": "Rociadores"
  },
  {
    "label": "Roller",
    "text": "Rodillos"
  },
  {
    "label": "Charger",
    "text": "Cargatintas"
  },
  {
    "label": "Slosher",
    "text": "Derramatic"
  },
  {
    "label": "Spinner",
    "text": "Garabateadores"
  },
  {
    "label": "Maneuver",
    "text": "Armas duales"
  },
  {
    "label": "Shelter",
    "text": "Paratintas"
  },
  {
    "label": "Blaster",
    "text": "Lanzamotas"
  },
  {
    "label": "Brush",
    "text": "Pinceles"
  },
  {
    "label": "Stringer",
    "text": "Arcromatizadores"
  },
  {
    "label": "Saber",
    "text": "Azotintadores"
  }
]