[
  {
    "label": "B00",
    "text": "バトロイカ"
  },
  {
    "label": "B01",
    "text": "アイロニック"
  },
  {
    "label": "B02",
    "text": "クラーゲス"
  },
  {
    "label": "B03",
    "text": "ロッケンベルグ"
  },
  {
    "label": "B04",
    "text": "エゾッコ"
  },
  {
    "label": "B05",
    "text": "フォーリマ"
  },
  {
    "label": "B06",
    "text": "ホッコリー"
  },
  {
    "label": "B07",
    "text": "ホタックス"
  },
  {
    "label": "B08",
    "text": "ジモン"
  },
  {
    "label": "B09",
    "text": "シグレニ"
  },
  {
    "label": "B10",
    "text": "アロメ"
  },
  {
    "label": "B11",
    "text": "ヤコ"
  },
  {
    "label": "B15",
    "text": "アナアキ"
  },
  {
    "label": "B16",
    "text": "エンペリー"
  },
  {
    "label": "B17",
    "text": "タタキケンサキ"
  },
  {
    "label": "B18",
    "text": "エゾッコリー"
  },
  {
    "label": "B19",
    "text": "バラズシ"
  },
  {
    "label": "B20",
    "text": "シチリン"
  },
  {
    "label": "B97",
    "text": "クマサン商会"
  },
  {
    "label": "B98",
    "text": "アタリメイド"
  },
  {
    "label": "B99",
    "text": "amiibo"
  }
]