[
  {
    "label": "000",
    "text": "¡Tu equipo va ganando!"
  },
  {
    "label": "001",
    "text": "¡Tu equipo va perdiendo!"
  },
  {
    "label": "002",
    "text": "¡Zonas aseguradas!"
  },
  {
    "label": "003",
    "text": "¡Las zonas son del rival!"
  },
  {
    "label": "004",
    "text": "¡Contador detenido!"
  },
  {
    "label": "005",
    "text": "¡Contador detenido!"
  },
  {
    "label": "006",
    "text": "¡Torre conquistada!"
  },
  {
    "label": "007",
    "text": "¡El equipo rival tiene la torre!"
  },
  {
    "label": "008",
    "text": "¡La torre vuelve!"
  },
  {
    "label": "009",
    "text": "¡La torre vuelve!"
  },
  {
    "label": "010",
    "text": "¡La torre está en el control {{number index=\"0\" type=\"1\" arg3=\"0\" arg4=\"0\"}}!"
  },
  {
    "label": "011",
    "text": "¡Su torre está en el control {{number index=\"0\" type=\"1\" arg3=\"0\" arg4=\"0\"}}!"
  },
  {
    "label": "012",
    "text": "¡La torre ha superado el control {{number index=\"0\" type=\"1\" arg3=\"0\" arg4=\"0\"}}!"
  },
  {
    "label": "013",
    "text": "¡Su torre ha superado el control {{number index=\"0\" type=\"1\" arg3=\"0\" arg4=\"0\"}}!"
  },
  {
    "label": "014",
    "text": "¡Tu equipo tiene el pez!"
  },
  {
    "label": "015",
    "text": "¡Pez dorado para el rival!"
  },
  {
    "label": "016",
    "text": "¡Pez dorado detenido!"
  },
  {
    "label": "017",
    "text": "¡Pez dorado perdido!"
  },
  {
    "label": "018",
    "text": "¡El pez vuelve al centro!"
  },
  {
    "label": "019",
    "text": "¡La barrera rival se ha desactivado!"
  },
  {
    "label": "020",
    "text": "¡Vuestra barrera se ha desactivado!"
  },
  {
    "label": "021",
    "text": "¡Vuestra barrera se ha regenerado!"
  },
  {
    "label": "022",
    "text": "¡La barrera rival se ha regenerado!"
  },
  {
    "label": "023",
    "text": "¡Tu equipo ha superado el control!"
  },
  {
    "label": "024",
    "text": "¡El rival ha superado el control!"
  },
  {
    "label": "025",
    "text": "¡El nivel del agua baja!"
  },
  {
    "label": "026",
    "text": ""
  },
  {
    "label": "027",
    "text": "¡Ha aparecido la ultraseñal!"
  },
  {
    "label": "028",
    "text": "¡Alguien del equipo va a por la ultraseñal!"
  },
  {
    "label": "029",
    "text": "¡El otro equipo va a por la ultraseñal!"
  },
  {
    "label": "030",
    "text": "¡Buscan hacerse con la ultraseñal!"
  },
  {
    "label": "031",
    "text": "¡Hemos asegurado la ultraseñal!"
  },
  {
    "label": "032",
    "text": "¡El otro equipo tiene la ultraseñal!"
  },
  {
    "label": "033",
    "text": "¡Hemos perdido la ultraseñal!"
  },
  {
    "label": "034",
    "text": "¡La ultraseñal está protegida!"
  },
  {
    "label": "035",
    "text": "¡Hemos perdido la ultraseñal!"
  },
  {
    "label": "036",
    "text": "¡El otro equipo pierde la ultraseñal!"
  },
  {
    "label": "037",
    "text": "¡Podemos llevar más bolas pirotínticas!"
  }
]