[
  {
    "label": "000",
    "text": "¿Quieres crear una sala de {{color id=\"1\"}}combate amistoso{{color id=\"65535\"}}?"
  },
  {
    "label": "001",
    "text": "¿Quieres crear una sala de {{color id=\"1\"}}combate caótico{{color id=\"65535\"}}?"
  },
  {
    "label": "005",
    "text": "¿Quieres crear una sala de {{color id=\"1\"}}combate temático{{color id=\"65535\"}}?"
  },
  {
    "label": "006",
    "text": "¿Quieres crear una sala de {{color id=\"1\"}}pugna tricolor{{color id=\"65535\"}}?"
  },
  {
    "label": "013",
    "text": "¿Quieres crear una sala de {{color id=\"1\"}}combate evento{{color id=\"65535\"}}?"
  },
  {
    "label": "007",
    "text": "¿Quieres crear una sala de {{color id=\"1\"}}lucha carterritorial{{color id=\"65535\"}}?"
  },
  {
    "label": "008",
    "text": "¿Quieres crear una sala para {{color id=\"1\"}}trabajar en Salmon Run{{color id=\"65535\"}}?"
  },
  {
    "label": "002",
    "text": "¿Quieres crear una sala de {{color id=\"1\"}}combate privado{{color id=\"65535\"}}?"
  },
  {
    "label": "003",
    "text": "¿Quieres crear una sala de {{color id=\"1\"}}Salmon Run{{color id=\"65535\"}}?"
  },
  {
    "label": "009",
    "text": "¿Quieres crear una sala de {{color id=\"1\"}}trabajo privado{{color id=\"65535\"}}?"
  },
  {
    "label": "011",
    "text": "¿Quieres crear una sala de {{color id=\"1\"}}Big Run{{color id=\"65535\"}}?"
  },
  {
    "label": "012",
    "text": "¿Quieres crear una sala de {{color id=\"1\"}}alianza alevínica{{color id=\"65535\"}}?"
  },
  {
    "label": "004",
    "text": "¿Quieres unirte con esta clave?"
  },
  {
    "label": "010",
    "text": "{{number index=\"0\" type=\"4\" arg3=\"1\" arg4=\"0\"}}"
  },
  {
    "label": "T_Password_02",
    "text": "Sin clave"
  },
  {
    "label": "T_VoiceChat_00",
    "text": "Chat de voz activado"
  },
  {
    "label": "T_VoiceChat_01",
    "text": "Chat de voz desactivado"
  },
  {
    "label": "020",
    "text": "No"
  },
  {
    "label": "030",
    "text": "Sí"
  },
  {
    "label": "031",
    "text": "Sí"
  },
  {
    "label": "041",
    "text": "Fijar clave"
  },
  {
    "label": "040",
    "text": "Quitar clave"
  },
  {
    "label": "L_VoiceChatBtn_00-T_Info_00",
    "text": "Chat de voz (sí/no)"
  },
  {
    "label": "L_NameBtn_00-T_Info_00",
    "text": "Confirmar alias"
  },
  {
    "label": "050",
    "text": "Alias: {{string index=\"0\" arg2=\"10\"}}"
  }
]