[
  {
    "label": "000",
    "text": "¡Para mí!"
  },
  {
    "label": "001",
    "text": "Dejar"
  },
  {
    "label": "002",
    "text": "Pegar"
  },
  {
    "label": "L_Operation_01-T_Text_00",
    "text": "Quitar"
  },
  {
    "label": "010",
    "text": "¡A la caja!"
  },
  {
    "label": "011",
    "text": "Sacar"
  },
  {
    "label": "012",
    "text": "Doblar"
  },
  {
    "label": "013",
    "text": "Colgar"
  },
  {
    "label": "L_Operation_05-T_Text_00",
    "text": "Elegir foto"
  },
  {
    "label": "020",
    "text": "Cerrar"
  },
  {
    "label": "021",
    "text": "Abrir"
  },
  {
    "label": "L_GuideBtn_00-T_Info_00",
    "text": "Menú"
  },
  {
    "label": "T_Zoom_00",
    "text": "Acercar/Alejar"
  },
  {
    "label": "L_Back_00-T_Info_00",
    "text": "Terminar"
  },
  {
    "label": "L_Operation_06-T_Text_00",
    "text": "Coger varios"
  },
  {
    "label": "L_Operation_06-T_Memo_00",
    "text": "(Mantener)"
  },
  {
    "label": "L_Operation_07-T_Text_00",
    "text": "Cancelar"
  },
  {
    "label": "L_Reset_00-T_Info_00",
    "text": "Quitarlo todo"
  }
]