[
  {
    "label": "000",
    "text": "¡Aquí!"
  },
  {
    "label": "001",
    "text": "¡Me han dado!"
  },
  {
    "label": "010",
    "text": "Menú"
  },
  {
    "label": "011",
    "text": "Mapa"
  },
  {
    "label": "L_GuideBtn_00-T_Info_00",
    "text": "Menú de combates"
  },
  {
    "label": "L_SuperGauge_00-T_Max_01",
    "text": "¡Listo!"
  },
  {
    "label": "L_SuperGauge_00-T_Press_00",
    "text": "Pulsa"
  },
  {
    "label": "L_PlayerStatus_00-L_Rank_00-T_RankHeader_00",
    "text": "Nivel"
  },
  {
    "label": "L_PlayerStatus_00-L_Rank_00-T_Max_00",
    "text": "Máx."
  },
  {
    "label": "100",
    "text": "Personalizar"
  },
  {
    "label": "101",
    "text": "Controles"
  },
  {
    "label": "T_Nice_00",
    "text": "¡Genial!"
  },
  {
    "label": "L_GuideBtn_02-T_State_00",
    "text": "Alternar"
  },
  {
    "label": "L_PlayerStatus_00-L_Udemae_00-T_UdemaeTitle_00",
    "text": "Rango"
  },
  {
    "label": "L_PlayerStatus_00-L_FestRankGauge_00-T_Max_00",
    "text": "Máx."
  },
  {
    "label": "L_PlayerStatus_00-L_FestRankGauge_00-T_Vote_00",
    "text": "¡Elige un {{color id=\"1\"}}equipo{{color id=\"65535\"}}!"
  },
  {
    "label": "L_HighScore_00-T_Score_00",
    "text": "Récord"
  },
  {
    "label": "L_RankMng_00-T_RankHeader_00",
    "text": "Rango"
  },
  {
    "label": "L_RankMng_00-T_Max_00",
    "text": "Máx."
  },
  {
    "label": "200",
    "text": "Petición de {{string value=\"PlayerName\" arg1=\"0\" arg3=\"0\"}}"
  },
  {
    "label": "300",
    "text": "{{string value=\"MusicTitle\" arg1=\"0\" arg3=\"0\"}}"
  },
  {
    "label": "400",
    "text": "{{string value=\"MusicArtist\" arg1=\"0\" arg3=\"0\"}}"
  },
  {
    "label": "500",
    "text": "Alguien te ha dicho «¡Qué nivel!»."
  },
  {
    "label": "501",
    "text": "¡Te han invitado a jugar!"
  },
  {
    "label": "502",
    "text": "Te has conectado al canal."
  },
  {
    "label": "503",
    "text": "¡Premio gordo en la máquina!"
  },
  {
    "label": "504",
    "text": "¡Gran premio en la máquina!"
  },
  {
    "label": "505",
    "text": "¡Ya está lista la sala de SplatNet 3!"
  },
  {
    "label": "506",
    "text": "¡Ya está lista la sala de gestión de torneos!"
  },
  {
    "label": "600",
    "text": "¡Racha de {{number index=\"0\" type=\"2\" arg3=\"0\" arg4=\"0\"}}!"
  },
  {
    "label": "L_GaugeGiant_00-T_Random_00",
    "text": "(?)"
  }
]