[
  {
    "label": "L_InfoNpc_00-T_Level_00",
    "text": "Nivel 1"
  },
  {
    "label": "L_InfoNpc_00-T_Level_01",
    "text": "Nivel 2"
  },
  {
    "label": "L_InfoNpc_00-T_Level_02",
    "text": "Nivel 3"
  },
  {
    "label": "L_Guide_00-T_Info_00",
    "text": "Atrás"
  },
  {
    "label": "L_StartBtn_00-T_Btn_00",
    "text": "¡A luchar!"
  },
  {
    "label": "000",
    "text": "Nivel {{number index=\"0\" type=\"1\" arg3=\"0\" arg4=\"0\"}}"
  }
]