[
  {
    "label": "L_Back_00-T_Info_00",
    "text": "Guardar y salir"
  },
  {
    "label": "L_Post_00-T_Info_00",
    "text": "Publicar"
  },
  {
    "label": "L_Rstick_00-T_Info_00",
    "text": "Mover"
  }
]