[
  {
    "label": "000",
    "text": "{{number index=\"0\" type=\"3\" arg3=\"0\" arg4=\"0\"}}"
  },
  {
    "label": "100",
    "text": "/{{number index=\"0\" type=\"2\" arg3=\"0\" arg4=\"0\"}}"
  },
  {
    "label": "200",
    "text": "x{{number index=\"0\" type=\"3\" arg3=\"0\" arg4=\"0\"}}"
  },
  {
    "label": "300",
    "text": "{{number index=\"0\" type=\"3\" arg3=\"0\" arg4=\"0\"}}"
  },
  {
    "label": "T_Num_00",
    "text": "Fragmentos (obtenidos/necesarios)"
  },
  {
    "label": "T_SkillPiece_00",
    "text": "Fragmentos:"
  },
  {
    "label": "L_Back_00-T_Info_00",
    "text": "Atrás"
  },
  {
    "label": "L_Back_01-T_Info_00",
    "text": "Atrás"
  }
]