[
  {
    "label": "L_Back_00-T_Info_00",
    "text": "Atrás"
  },
  {
    "label": "L_KeyIcon_00-T_Info_00",
    "text": "Más información"
  },
  {
    "label": "L_Btn_01-T_Btn_00",
    "text": "Publicar"
  },
  {
    "label": "L_Btn_00-T_Btn_00",
    "text": "Crear un dibujo festivo"
  }
]