[
  {
    "label": "L_Btn_00-T_Btn_00",
    "text": "Continuar"
  },
  {
    "label": "L_Btn_01-T_Btn_00",
    "text": "Volver a empezar"
  },
  {
    "label": "L_Btn_02-T_Btn_00",
    "text": "Parar repetición"
  },
  {
    "label": "L_PlayInfo_00-T_Info_00",
    "text": "Controles"
  }
]