[
  {
    "label": "000",
    "text": "Pastimonedas"
  },
  {
    "label": "001",
    "text": "Cadena de tonalidad"
  },
  {
    "label": "002",
    "text": "Espectro completo"
  },
  {
    "label": "003",
    "text": "Vidas restantes"
  },
  {
    "label": "020",
    "text": "{{size value=\"75\"}}Piso{{size value=\"100\"}} {{number index=\"0\" type=\"2\" arg3=\"0\" arg4=\"0\"}}"
  },
  {
    "label": "T_TotalPoint_01",
    "text": "Puntos"
  },
  {
    "label": "T_ClearTitle_00",
    "text": "¡Completado!"
  },
  {
    "label": "T_ScoreTitle_00",
    "text": "Puntuación"
  },
  {
    "label": "T_BonusTitle_00",
    "text": "Puntos → Perlas"
  },
  {
    "label": "T_Clear_00",
    "text": "¡Bravo!"
  },
  {
    "label": "L_Guide_01-T_Info_00",
    "text": "Atrás"
  },
  {
    "label": "300",
    "text": "Continuar"
  },
  {
    "label": "301",
    "text": "Terminar"
  },
  {
    "label": "L_Guide_02-T_Info_00",
    "text": "Detalles"
  },
  {
    "label": "T_ClearTime_00",
    "text": "Tiempo:"
  },
  {
    "label": "T_PayRetry_00",
    "text": "Perlas"
  },
  {
    "label": "L_Btn_00-T_Btn_00",
    "text": "¡Reintentar!"
  },
  {
    "label": "100",
    "text": "¿Quieres reintentarlo con el hackeo de Marina?"
  },
  {
    "label": "101",
    "text": "No tienes suficientes perlas."
  },
  {
    "label": "110",
    "text": "¡Sí, desde\nel piso {{number index=\"0\" type=\"2\" arg3=\"0\" arg4=\"0\"}}!"
  },
  {
    "label": "L_Dialog_00-L_BtnS_00-T_Btn_00",
    "text": "Mejor no..."
  },
  {
    "label": "L_Dialog_00-T_PayRetry_00",
    "text": "Perlas"
  },
  {
    "label": "L_Dialog_00-L_Result_00-T_Score_00",
    "text": "Puntos:"
  },
  {
    "label": "T_NoticeRetry_00",
    "text": "No puedes intentarlo de nuevo con la paleta de Ocho."
  }
]