[
  {
    "label": "RideLift",
    "text": "Subir a la jaula"
  },
  {
    "label": "ReturnToElevator",
    "text": "Volver al ascensor"
  },
  {
    "label": "GoToNextFloor",
    "text": "Pasar al siguiente piso"
  },
  {
    "label": "Talk",
    "text": "Hablar"
  },
  {
    "label": "RideElevator",
    "text": "Subir al ascensor"
  },
  {
    "label": "RideElevatorFirst",
    "text": "Subir al ascensor"
  },
  {
    "label": "FloorShop",
    "text": "Comprar"
  },
  {
    "label": "AccessLocker",
    "text": "Abrir casilla"
  },
  {
    "label": "Remember",
    "text": "Recordar"
  },
  {
    "label": "AccessLockerNoKey",
    "text": "Abrir casilla"
  }
]