[
  {
    "label": "T_Date_01",
    "text": "Fecha"
  },
  {
    "label": "000",
    "text": "Ubicación"
  },
  {
    "label": "T_Guide_00",
    "text": "Controles"
  },
  {
    "label": "T_Filter_00",
    "text": "Filtro"
  },
  {
    "label": "T_Title_00",
    "text": "Ajustes"
  },
  {
    "label": "T_Info_02",
    "text": "Girar vista"
  },
  {
    "label": "T_Info_03",
    "text": "Mover"
  },
  {
    "label": "T_Info_04",
    "text": "Adelante/Atrás"
  },
  {
    "label": "T_Info_05",
    "text": "Acercar/Alejar"
  },
  {
    "label": "T_Info_06",
    "text": "Inclinar"
  },
  {
    "label": "T_Info_00",
    "text": "¡Foto!"
  },
  {
    "label": "100",
    "text": "Distrito del Orden"
  },
  {
    "label": "101",
    "text": "Entrada"
  },
  {
    "label": "T_Info_07",
    "text": "Vert./Horiz."
  },
  {
    "label": "T_Push_00",
    "text": "Pulsa"
  },
  {
    "label": "L_Btn_01-T_Info_00",
    "text": "Fin de la sesión"
  },
  {
    "label": "L_Btn_00-T_Info_00",
    "text": "Ajustes"
  },
  {
    "label": "L_Btn_02-T_Info_00",
    "text": "Atrás"
  },
  {
    "label": "L_Switch_03-T_BtnR_00",
    "text": "Ocultar"
  },
  {
    "label": "L_Switch_03-T_BtnL_00",
    "text": "Mostrar"
  },
  {
    "label": "L_Switch_01-T_BtnR_00",
    "text": "Ocultar"
  },
  {
    "label": "L_Switch_01-T_BtnL_00",
    "text": "Mostrar"
  },
  {
    "label": "L_Switch_00-T_BtnR_00",
    "text": "Ocultar"
  },
  {
    "label": "L_Switch_00-T_BtnL_00",
    "text": "Mostrar"
  },
  {
    "label": "200",
    "text": "Sin filtro"
  },
  {
    "label": "201",
    "text": "Filtro 1"
  },
  {
    "label": "202",
    "text": "Filtro 2"
  },
  {
    "label": "203",
    "text": "Filtro 3"
  },
  {
    "label": "204",
    "text": "Filtro 4"
  },
  {
    "label": "205",
    "text": "Filtro 5"
  },
  {
    "label": "206",
    "text": "Filtro 6"
  },
  {
    "label": "207",
    "text": "Filtro 7"
  }
]