[
  {
    "label": "000",
    "text": "{{number index=\"0\" type=\"4\" arg3=\"0\" arg4=\"0\"}} p"
  },
  {
    "label": "001",
    "text": "Contador: {{number index=\"0\" type=\"2\" arg3=\"0\" arg4=\"0\"}}"
  },
  {
    "label": "004",
    "text": "Como uno o más jugadores no han podido continuar,\nel combate no se cuenta como derrota."
  },
  {
    "label": "007",
    "text": "(?)"
  },
  {
    "label": "008",
    "text": "¡Victoria!"
  },
  {
    "label": "009",
    "text": "Derrota"
  },
  {
    "label": "010",
    "text": "Atrás"
  },
  {
    "label": "020",
    "text": "Añadir a favoritos"
  },
  {
    "label": "021",
    "text": "Quitar"
  },
  {
    "label": "L_Replay_00-T_Text_00",
    "text": "Reproducir"
  },
  {
    "label": "L_Upload_00-T_Text_00",
    "text": "Enviar"
  },
  {
    "label": "022",
    "text": "Ver repetición de combate"
  },
  {
    "label": "030",
    "text": "¡Tu rango sube!"
  },
  {
    "label": "032",
    "text": "¡Palizón!"
  },
  {
    "label": "033",
    "text": "-"
  },
  {
    "label": "040",
    "text": "Combates recientes"
  },
  {
    "label": "050",
    "text": "¡Victoria!"
  },
  {
    "label": "051",
    "text": "Derrota"
  },
  {
    "label": "052",
    "text": "Empate"
  },
  {
    "label": "060",
    "text": "¡Victoria!"
  },
  {
    "label": "061",
    "text": "Derrota"
  },
  {
    "label": "070",
    "text": "(?)"
  },
  {
    "label": "071",
    "text": "¡Tu rango sube!"
  },
  {
    "label": "072",
    "text": "¡Palizón!"
  },
  {
    "label": "080",
    "text": "(?)"
  },
  {
    "label": "081",
    "text": "(?)"
  },
  {
    "label": "090",
    "text": "El combate no se disputó hasta el final."
  },
  {
    "label": "091",
    "text": "Combate cancelado"
  },
  {
    "label": "092",
    "text": "Como uno o más jugadores no han podido continuar, el combate no se cuenta como derrota."
  },
  {
    "label": "T_MedalAll_00",
    "text": "Galardones recibidos"
  },
  {
    "label": "T_ReplayName_01",
    "text": "- Repetición de combate"
  },
  {
    "label": "L_Result_04-T_MSign_01",
    "text": "×"
  },
  {
    "label": "T_Result_02",
    "text": "Victorias"
  },
  {
    "label": "T_Result_03",
    "text": "Derrotas"
  },
  {
    "label": "L_Win_00-T_Win_00",
    "text": "¡Victoria!"
  },
  {
    "label": "L_Win_00-T_Draw_00",
    "text": "Empate"
  },
  {
    "label": "L_WinLose_00-T_Lose_00",
    "text": "Derrota"
  },
  {
    "label": "L_Win_00-T_Point_00",
    "text": "p"
  },
  {
    "label": "L_Win_00-T_NoGame_00",
    "text": "---"
  },
  {
    "label": "L_WinLose_00-T_NoGame_00",
    "text": "---"
  },
  {
    "label": "L_Lose_00-T_NoGame_00",
    "text": "---"
  },
  {
    "label": "T_Point_00",
    "text": "p"
  },
  {
    "label": "L_ReplayList_00-L_BtnReplay_00-T_Result_01",
    "text": "(?)"
  },
  {
    "label": "L_ResultChange_00-T_Info_00",
    "text": "Ver resultado"
  },
  {
    "label": "T_Download_00",
    "text": "Repetición de combate descargada"
  },
  {
    "label": "L_ResultMeter_00-T_PlayerMax_00",
    "text": "¡Palizón!"
  },
  {
    "label": "L_Result_00-T_Point_00",
    "text": "p"
  },
  {
    "label": "L_BtnReport_00-T_Info_00",
    "text": "Informe"
  }
]