[
  {
    "label": "000",
    "text": "¿Así te parece bien?"
  },
  {
    "label": "001",
    "text": "¿Así os parece bien?"
  },
  {
    "label": "002",
    "text": "¿Qué pinta le ponemos?"
  },
  {
    "label": "003",
    "text": "¡Ahora tu amiguito!"
  },
  {
    "label": "004",
    "text": "Por último... ¡la parte de abajo\nde tu vestimenta!"
  },
  {
    "label": "005",
    "text": "¿Qué vas a ponerte abajo?"
  },
  {
    "label": "T_Kind_00",
    "text": "¿Qué aspecto tienes?"
  },
  {
    "label": "T_Skin_00",
    "text": "Ahora elige tu tono de piel."
  },
  {
    "label": "T_Eyes_00",
    "text": "¿Cómo definirías tu mirada?"
  },
  {
    "label": "T_Hair_00",
    "text": "Toca elegir peinado..."
  },
  {
    "label": "L_BtnDecide_00-T_Btn_00",
    "text": "No sé yo..."
  },
  {
    "label": "L_BtnDecide_01-T_Btn_00",
    "text": "¡Vale!"
  },
  {
    "label": "T_Partner_01",
    "text": "El pequeñajo también, ¿no?"
  },
  {
    "label": "T_Eyebrow_00",
    "text": "¿Y cómo son tus cejas?"
  }
]