[
  {
    "label": "Shooter_Short_00",
    "text": "Sploosh-o-matic"
  },
  {
    "label": "Shooter_Short_01",
    "text": "Neo Sploosh-o-matic"
  },
  {
    "label": "Shooter_First_00",
    "text": "Splattershot Jr."
  },
  {
    "label": "Shooter_First_01",
    "text": "Custom Splattershot Jr."
  },
  {
    "label": "Shooter_Precision_00",
    "text": "Splash-o-matic"
  },
  {
    "label": "Shooter_Precision_01",
    "text": "Neo Splash-o-matic"
  },
  {
    "label": "Shooter_Blaze_00",
    "text": "Aerospray MG"
  },
  {
    "label": "Shooter_Blaze_01",
    "text": "Aerospray RG"
  },
  {
    "label": "Shooter_Normal_00",
    "text": "Splattershot"
  },
  {
    "label": "Shooter_Normal_01",
    "text": "Tentatek Splattershot"
  },
  {
    "label": "Shooter_Normal_H",
    "text": "Hero Shot Replica"
  },
  {
    "label": "Shooter_Normal_Oct",
    "text": "Octo Shot Replica"
  },
  {
    "label": "Shooter_Gravity_00",
    "text": ".52 Gal"
  },
  {
    "label": "Shooter_Gravity_01",
    "text": ".52 Gal Deco"
  },
  {
    "label": "Shooter_QuickMiddle_00",
    "text": "N-ZAP '85"
  },
  {
    "label": "Shooter_QuickMiddle_01",
    "text": "N-ZAP '89"
  },
  {
    "label": "Shooter_Expert_00",
    "text": "Splattershot Pro"
  },
  {
    "label": "Shooter_Expert_01",
    "text": "Forge Splattershot Pro"
  },
  {
    "label": "Shooter_Heavy_00",
    "text": ".96 Gal"
  },
  {
    "label": "Shooter_Heavy_01",
    "text": ".96 Gal Deco"
  },
  {
    "label": "Shooter_Long_00",
    "text": "Jet Squelcher"
  },
  {
    "label": "Shooter_Long_01",
    "text": "Custom Jet Squelcher"
  },
  {
    "label": "Blaster_Short_00",
    "text": "Luna Blaster"
  },
  {
    "label": "Blaster_Short_01",
    "text": "Luna Blaster Neo"
  },
  {
    "label": "Blaster_Middle_00",
    "text": "Blaster"
  },
  {
    "label": "Blaster_Middle_01",
    "text": "Custom Blaster"
  },
  {
    "label": "Blaster_Long_00",
    "text": "Range Blaster"
  },
  {
    "label": "Blaster_Long_01",
    "text": "Custom Range Blaster"
  },
  {
    "label": "Blaster_LightShort_00",
    "text": "Clash Blaster"
  },
  {
    "label": "Blaster_LightShort_01",
    "text": "Clash Blaster Neo"
  },
  {
    "label": "Blaster_Light_00",
    "text": "Rapid Blaster"
  },
  {
    "label": "Blaster_Light_01",
    "text": "Rapid Blaster Deco"
  },
  {
    "label": "Blaster_LightLong_00",
    "text": "Rapid Blaster Pro"
  },
  {
    "label": "Blaster_LightLong_01",
    "text": "Rapid Blaster Pro Deco"
  },
  {
    "label": "Shooter_TripleQuick_00",
    "text": "L-3 Nozzlenose"
  },
  {
    "label": "Shooter_TripleQuick_01",
    "text": "L-3 Nozzlenose D"
  },
  {
    "label": "Shooter_TripleMiddle_00",
    "text": "H-3 Nozzlenose"
  },
  {
    "label": "Shooter_TripleMiddle_01",
    "text": "H-3 Nozzlenose D"
  },
  {
    "label": "Shooter_Flash_00",
    "text": "Squeezer"
  },
  {
    "label": "Shooter_Flash_01",
    "text": "Foil Squeezer"
  },
  {
    "label": "Roller_Compact_00",
    "text": "Carbon Roller"
  },
  {
    "label": "Roller_Compact_01",
    "text": "Carbon Roller Deco"
  },
  {
    "label": "Roller_Normal_00",
    "text": "Splat Roller"
  },
  {
    "label": "Roller_Normal_01",
    "text": "Krak-On Splat Roller"
  },
  {
    "label": "Roller_Heavy_00",
    "text": "Dynamo Roller"
  },
  {
    "label": "Roller_Heavy_01",
    "text": "Gold Dynamo Roller"
  },
  {
    "label": "Roller_Hunter_00",
    "text": "Flingza Roller"
  },
  {
    "label": "Roller_Hunter_01",
    "text": "Foil Flingza Roller"
  },
  {
    "label": "Brush_Mini_00",
    "text": "Inkbrush"
  },
  {
    "label": "Brush_Mini_01",
    "text": "Inkbrush Nouveau"
  },
  {
    "label": "Brush_Normal_00",
    "text": "Octobrush"
  },
  {
    "label": "Brush_Normal_01",
    "text": "Octobrush Nouveau"
  },
  {
    "label": "Charger_Quick_00",
    "text": "Classic Squiffer"
  },
  {
    "label": "Charger_Quick_01",
    "text": "New Squiffer"
  },
  {
    "label": "Charger_Normal_00",
    "text": "Splat Charger"
  },
  {
    "label": "Charger_Normal_01",
    "text": "Z+F Splat Charger"
  },
  {
    "label": "Charger_NormalScope_00",
    "text": "Splatterscope"
  },
  {
    "label": "Charger_NormalScope_01",
    "text": "Z+F Splatterscope"
  },
  {
    "label": "Charger_Long_00",
    "text": "E-liter 4K"
  },
  {
    "label": "Charger_Long_01",
    "text": "Custom E-liter 4K"
  },
  {
    "label": "Charger_LongScope_00",
    "text": "E-liter 4K Scope"
  },
  {
    "label": "Charger_LongScope_01",
    "text": "Custom E-liter 4K Scope"
  },
  {
    "label": "Charger_Light_00",
    "text": "Bamboozler 14 Mk I"
  },
  {
    "label": "Charger_Light_01",
    "text": "Bamboozler 14 Mk II"
  },
  {
    "label": "Charger_Keeper_00",
    "text": "Goo Tuber"
  },
  {
    "label": "Charger_Keeper_01",
    "text": "Custom Goo Tuber"
  },
  {
    "label": "Slosher_Strong_00",
    "text": "Slosher"
  },
  {
    "label": "Slosher_Strong_01",
    "text": "Slosher Deco"
  },
  {
    "label": "Slosher_Diffusion_00",
    "text": "Tri-Slosher"
  },
  {
    "label": "Slosher_Diffusion_01",
    "text": "Tri-Slosher Nouveau"
  },
  {
    "label": "Slosher_Launcher_00",
    "text": "Sloshing Machine"
  },
  {
    "label": "Slosher_Launcher_01",
    "text": "Sloshing Machine Neo"
  },
  {
    "label": "Slosher_Bathtub_00",
    "text": "Bloblobber"
  },
  {
    "label": "Slosher_Bathtub_01",
    "text": "Bloblobber Deco"
  },
  {
    "label": "Slosher_Washtub_00",
    "text": "Explosher"
  },
  {
    "label": "Slosher_Washtub_01",
    "text": "Custom Explosher"
  },
  {
    "label": "Spinner_Quick_00",
    "text": "Mini Splatling"
  },
  {
    "label": "Spinner_Quick_01",
    "text": "Zink Mini Splatling"
  },
  {
    "label": "Spinner_Standard_00",
    "text": "Heavy Splatling"
  },
  {
    "label": "Spinner_Standard_01",
    "text": "Heavy Splatling Deco"
  },
  {
    "label": "Spinner_Hyper_00",
    "text": "Hydra Splatling"
  },
  {
    "label": "Spinner_Hyper_01",
    "text": "Custom Hydra Splatling"
  },
  {
    "label": "Spinner_Downpour_00",
    "text": "Ballpoint Splatling"
  },
  {
    "label": "Spinner_Downpour_01",
    "text": "Ballpoint Splatling Nouveau"
  },
  {
    "label": "Spinner_Serein_00",
    "text": "Nautilus 47"
  },
  {
    "label": "Spinner_Serein_01",
    "text": "Nautilus 79"
  },
  {
    "label": "Maneuver_Short_00",
    "text": "Dapple Dualies"
  },
  {
    "label": "Maneuver_Short_01",
    "text": "Dapple Dualies Nouveau"
  },
  {
    "label": "Maneuver_Normal_00",
    "text": "Splat Dualies"
  },
  {
    "label": "Maneuver_Normal_01",
    "text": "Enperry Splat Dualies"
  },
  {
    "label": "Maneuver_Gallon_00",
    "text": "Glooga Dualies"
  },
  {
    "label": "Maneuver_Gallon_01",
    "text": "Glooga Dualies Deco"
  },
  {
    "label": "Maneuver_Dual_00",
    "text": "Dualie Squelchers"
  },
  {
    "label": "Maneuver_Dual_01",
    "text": "Custom Dualie Squelchers"
  },
  {
    "label": "Maneuver_Stepper_00",
    "text": "Dark Tetra Dualies"
  },
  {
    "label": "Maneuver_Stepper_01",
    "text": "Light Tetra Dualies"
  },
  {
    "label": "Shelter_Normal_00",
    "text": "Splat Brella"
  },
  {
    "label": "Shelter_Normal_01",
    "text": "Sorella Brella"
  },
  {
    "label": "Shelter_Wide_00",
    "text": "Tenta Brella"
  },
  {
    "label": "Shelter_Wide_01",
    "text": "Tenta Sorella Brella"
  },
  {
    "label": "Stringer_Normal_00",
    "text": "Tri-Stringer"
  },
  {
    "label": "Stringer_Normal_01",
    "text": "Inkline Tri-Stringer"
  },
  {
    "label": "Stringer_Explosion_00",
    "text": "Wellstring V"
  },
  {
    "label": "Stringer_Explosion_01",
    "text": "Custom Wellstring V"
  },
  {
    "label": "Stringer_Short_00",
    "text": "REEF-LUX 450"
  },
  {
    "label": "Stringer_Short_01",
    "text": "REEF-LUX 450 Deco"
  },
  {
    "label": "Shelter_Compact_00",
    "text": "Undercover Brella"
  },
  {
    "label": "Shelter_Compact_01",
    "text": "Undercover Sorella Brella"
  },
  {
    "label": "Saber_Normal_00",
    "text": "Splatana Stamper"
  },
  {
    "label": "Saber_Normal_01",
    "text": "Splatana Stamper Nouveau"
  },
  {
    "label": "Saber_Heavy_00",
    "text": "Mint Decavitator"
  },
  {
    "label": "Saber_Heavy_01",
    "text": "Charcoal Decavitator"
  },
  {
    "label": "Saber_Lite_00",
    "text": "Splatana Wiper"
  },
  {
    "label": "Saber_Lite_01",
    "text": "Splatana Wiper Deco"
  },
  {
    "label": "Shooter_QuickLong_00",
    "text": "Splattershot Nova"
  },
  {
    "label": "Shooter_QuickLong_01",
    "text": "Annaki Splattershot Nova"
  },
  {
    "label": "Roller_Wide_00",
    "text": "Big Swig Roller"
  },
  {
    "label": "Roller_Wide_01",
    "text": "Big Swig Roller Express"
  },
  {
    "label": "Brush_Heavy_00",
    "text": "Painbrush"
  },
  {
    "label": "Brush_Heavy_01",
    "text": "Painbrush Nouveau"
  },
  {
    "label": "Charger_Pencil_00",
    "text": "Snipewriter 5H"
  },
  {
    "label": "Charger_Pencil_01",
    "text": "Snipewriter 5B"
  },
  {
    "label": "Blaster_Precision_00",
    "text": "S-BLAST '92"
  },
  {
    "label": "Blaster_Precision_01",
    "text": "S-BLAST '91"
  },
  {
    "label": "Spinner_HyperShort_00",
    "text": "Heavy Edit Splatling"
  },
  {
    "label": "Spinner_HyperShort_01",
    "text": "Heavy Edit Splatling Nouveau"
  },
  {
    "label": "Slosher_Double_00",
    "text": "Dread Wringer"
  },
  {
    "label": "Slosher_Double_01",
    "text": "Dread Wringer D"
  },
  {
    "label": "Maneuver_Long_00",
    "text": "Douser Dualies FF"
  },
  {
    "label": "Maneuver_Long_01",
    "text": "Custom Douser Dualies FF"
  },
  {
    "label": "Shelter_Focus_00",
    "text": "Recycled Brella 24 Mk I"
  },
  {
    "label": "Shelter_Focus_01",
    "text": "Recycled Brella 24 Mk II"
  },
  {
    "label": "Maneuver_Normal_O",
    "text": "Order Dualie Replicas"
  },
  {
    "label": "Shelter_Normal_O",
    "text": "Order Brella Replica"
  },
  {
    "label": "Shooter_Normal_O",
    "text": "Order Shot Replica"
  },
  {
    "label": "Roller_Normal_O",
    "text": "Order Roller Replica"
  },
  {
    "label": "Charger_Normal_O",
    "text": "Order Charger Replica"
  },
  {
    "label": "Slosher_Strong_O",
    "text": "Order Slosher Replica"
  },
  {
    "label": "Spinner_Standard_O",
    "text": "Order Splatling Replica"
  },
  {
    "label": "Blaster_Short_O",
    "text": "Order Blaster Replica"
  },
  {
    "label": "Brush_Normal_O",
    "text": "Orderbrush Replica"
  },
  {
    "label": "Stringer_Normal_O",
    "text": "Order Stringer Replica"
  },
  {
    "label": "Saber_Normal_O",
    "text": "Order Splatana Replica"
  },
  {
    "label": "Blaster_Light_Coop",
    "text": "Rapid Blaster"
  },
  {
    "label": "Blaster_LightLong_Coop",
    "text": "Rapid Blaster Pro"
  },
  {
    "label": "Blaster_LightShort_Coop",
    "text": "Clash Blaster"
  },
  {
    "label": "Blaster_Long_Coop",
    "text": "Range Blaster"
  },
  {
    "label": "Blaster_Middle_Coop",
    "text": "Blaster"
  },
  {
    "label": "Blaster_Short_Coop",
    "text": "Luna Blaster"
  },
  {
    "label": "Brush_Mini_Coop",
    "text": "Inkbrush"
  },
  {
    "label": "Brush_Normal_Coop",
    "text": "Octobrush"
  },
  {
    "label": "Charger_Keeper_Coop",
    "text": "Goo Tuber"
  },
  {
    "label": "Charger_Light_Coop",
    "text": "Bamboozler 14 Mk I"
  },
  {
    "label": "Charger_Long_Coop",
    "text": "E-liter 4K"
  },
  {
    "label": "Charger_Normal_Coop",
    "text": "Splat Charger"
  },
  {
    "label": "Charger_Quick_Coop",
    "text": "Classic Squiffer"
  },
  {
    "label": "Maneuver_Dual_Coop",
    "text": "Dualie Squelchers"
  },
  {
    "label": "Maneuver_Gallon_Coop",
    "text": "Glooga Dualies"
  },
  {
    "label": "Maneuver_Normal_Coop",
    "text": "Splat Dualies"
  },
  {
    "label": "Maneuver_Short_Coop",
    "text": "Dapple Dualies"
  },
  {
    "label": "Maneuver_Stepper_Coop",
    "text": "Dark Tetra Dualies"
  },
  {
    "label": "Roller_Compact_Coop",
    "text": "Carbon Roller"
  },
  {
    "label": "Roller_Heavy_Coop",
    "text": "Dynamo Roller"
  },
  {
    "label": "Roller_Hunter_Coop",
    "text": "Flingza Roller"
  },
  {
    "label": "Roller_Normal_Coop",
    "text": "Splat Roller"
  },
  {
    "label": "Shelter_Compact_Coop",
    "text": "Undercover Brella"
  },
  {
    "label": "Shelter_Normal_Coop",
    "text": "Splat Brella"
  },
  {
    "label": "Shelter_Wide_Coop",
    "text": "Tenta Brella"
  },
  {
    "label": "Shooter_Blaze_Coop",
    "text": "Aerospray MG"
  },
  {
    "label": "Shooter_Expert_Coop",
    "text": "Splattershot Pro"
  },
  {
    "label": "Shooter_First_Coop",
    "text": "Splattershot Jr."
  },
  {
    "label": "Shooter_Flash_Coop",
    "text": "Squeezer"
  },
  {
    "label": "Shooter_Gravity_Coop",
    "text": ".52 Gal"
  },
  {
    "label": "Shooter_Heavy_Coop",
    "text": ".96 Gal"
  },
  {
    "label": "Shooter_Long_Coop",
    "text": "Jet Squelcher"
  },
  {
    "label": "Shooter_Normal_Coop",
    "text": "Splattershot"
  },
  {
    "label": "Shooter_Precision_Coop",
    "text": "Splash-o-matic"
  },
  {
    "label": "Shooter_QuickMiddle_Coop",
    "text": "N-ZAP '85"
  },
  {
    "label": "Shooter_Short_Coop",
    "text": "Sploosh-o-matic"
  },
  {
    "label": "Shooter_TripleMiddle_Coop",
    "text": "H-3 Nozzlenose"
  },
  {
    "label": "Shooter_TripleQuick_Coop",
    "text": "L-3 Nozzlenose"
  },
  {
    "label": "Slosher_Bathtub_Coop",
    "text": "Bloblobber"
  },
  {
    "label": "Slosher_Diffusion_Coop",
    "text": "Tri-Slosher"
  },
  {
    "label": "Slosher_Launcher_Coop",
    "text": "Sloshing Machine"
  },
  {
    "label": "Slosher_Strong_Coop",
    "text": "Slosher"
  },
  {
    "label": "Slosher_Washtub_Coop",
    "text": "Explosher"
  },
  {
    "label": "Spinner_Downpour_Coop",
    "text": "Ballpoint Splatling"
  },
  {
    "label": "Spinner_Hyper_Coop",
    "text": "Hydra Splatling"
  },
  {
    "label": "Spinner_Quick_Coop",
    "text": "Mini Splatling"
  },
  {
    "label": "Spinner_Serein_Coop",
    "text": "Nautilus 47"
  },
  {
    "label": "Spinner_Standard_Coop",
    "text": "Heavy Splatling"
  },
  {
    "label": "Stringer_Normal_Coop",
    "text": "Tri-Stringer"
  },
  {
    "label": "Stringer_Short_Coop",
    "text": "REEF-LUX 450"
  },
  {
    "label": "Saber_Normal_Coop",
    "text": "Splatana Stamper"
  },
  {
    "label": "Saber_Lite_Coop",
    "text": "Splatana Wiper"
  },
  {
    "label": "Shooter_QuickLong_Coop",
    "text": "Splattershot Nova"
  },
  {
    "label": "Roller_Wide_Coop",
    "text": "Big Swig Roller"
  },
  {
    "label": "Charger_Pencil_Coop",
    "text": "Snipewriter 5H"
  },
  {
    "label": "Brush_Heavy_Coop",
    "text": "Painbrush"
  },
  {
    "label": "Blaster_Precision_Coop",
    "text": "S-BLAST '92"
  },
  {
    "label": "Slosher_Double_Coop",
    "text": "Dread Wringer"
  },
  {
    "label": "Spinner_HyperShort_Coop",
    "text": "Heavy Edit Splatling"
  },
  {
    "label": "Maneuver_Long_Coop",
    "text": "Douser Dualies FF"
  },
  {
    "label": "Shelter_Focus_Coop",
    "text": "Recycled Brella 24 Mk I"
  },
  {
    "label": "Saber_Heavy_Coop",
    "text": "Mint Decavitator"
  },
  {
    "label": "Stringer_Explosion_Coop",
    "text": "Wellstring V"
  },
  {
    "label": "Blaster_Bear_Coop",
    "text": "Grizzco Blaster"
  },
  {
    "label": "Charger_Bear_Coop",
    "text": "Grizzco Charger"
  },
  {
    "label": "Saber_Bear_Coop",
    "text": "Grizzco Splatana"
  },
  {
    "label": "Shelter_Bear_Coop",
    "text": "Grizzco Brella"
  },
  {
    "label": "Slosher_Bear_Coop",
    "text": "Grizzco Slosher"
  },
  {
    "label": "Stringer_Bear_Coop",
    "text": "Grizzco Stringer"
  },
  {
    "label": "Maneuver_Bear_Coop",
    "text": "Grizzco Dualies"
  },
  {
    "label": "Roller_Bear_Coop",
    "text": "Grizzco Roller"
  },
  {
    "label": "Free",
    "text": "-"
  },
  {
    "label": "Shooter_RivalLv1_00",
    "text": "-"
  },
  {
    "label": "Shooter_RivalLv2_00",
    "text": "-"
  },
  {
    "label": "Blaster_RivalLv1_00",
    "text": "-"
  },
  {
    "label": "Blaster_RivalLv2_00",
    "text": "-"
  },
  {
    "label": "Brush_RivalLv1_00",
    "text": "-"
  },
  {
    "label": "Brush_RivalLv2_00",
    "text": "-"
  },
  {
    "label": "Maneuver_RivalLv1_00",
    "text": "-"
  },
  {
    "label": "Maneuver_RivalLv2_00",
    "text": "-"
  },
  {
    "label": "Roller_RivalLv1_00",
    "text": "-"
  },
  {
    "label": "Roller_RivalLv2_00",
    "text": "-"
  },
  {
    "label": "Shelter_RivalLv1_00",
    "text": "-"
  },
  {
    "label": "Shelter_RivalLv2_00",
    "text": "-"
  },
  {
    "label": "Slosher_RivalLv1_00",
    "text": "-"
  },
  {
    "label": "Slosher_RivalLv2_00",
    "text": "-"
  },
  {
    "label": "Shooter_MissionLv1_00",
    "text": "ヒーローシューターLv1"
  },
  {
    "label": "Shooter_MissionLv2_00",
    "text": "ヒーローシューターLv2"
  },
  {
    "label": "Shooter_MissionLv3_00",
    "text": "ヒーローシューターLv3"
  },
  {
    "label": "Blaster_LightLong_Msn",
    "text": "Rapid Blaster Pro"
  },
  {
    "label": "Blaster_LightShort_Msn",
    "text": "Clash Blaster"
  },
  {
    "label": "Blaster_Light_Msn",
    "text": "Rapid Blaster"
  },
  {
    "label": "Blaster_Long_Msn",
    "text": "Range Blaster"
  },
  {
    "label": "Blaster_Middle_Msn",
    "text": "Blaster"
  },
  {
    "label": "Blaster_Short_Msn",
    "text": "Luna Blaster"
  },
  {
    "label": "Brush_Mini_Msn",
    "text": "Inkbrush"
  },
  {
    "label": "Brush_Normal_Msn",
    "text": "Octobrush"
  },
  {
    "label": "Charger_Keeper_Msn",
    "text": "Goo Tuber"
  },
  {
    "label": "Charger_Light_Msn",
    "text": "Bamboozler 14 Mk I"
  },
  {
    "label": "Charger_LongScope_Msn",
    "text": "E-liter 4K Scope"
  },
  {
    "label": "Charger_Long_Msn",
    "text": "E-liter 4K"
  },
  {
    "label": "Charger_NormalScope_Msn",
    "text": "Splatterscope"
  },
  {
    "label": "Charger_Normal_Msn",
    "text": "Splat Charger"
  },
  {
    "label": "Charger_Quick_Msn",
    "text": "Classic Squiffer"
  },
  {
    "label": "Maneuver_Dual_Msn",
    "text": "Dualie Squelchers"
  },
  {
    "label": "Maneuver_Gallon_Msn",
    "text": "Glooga Dualies"
  },
  {
    "label": "Maneuver_Normal_Msn",
    "text": "Splat Dualies"
  },
  {
    "label": "Maneuver_Short_Msn",
    "text": "Dapple Dualies"
  },
  {
    "label": "Maneuver_Stepper_Msn",
    "text": "Dark Tetra Dualies"
  },
  {
    "label": "Roller_Compact_Msn",
    "text": "Carbon Roller"
  },
  {
    "label": "Roller_Heavy_Msn",
    "text": "Dynamo Roller"
  },
  {
    "label": "Roller_Hunter_Msn",
    "text": "Flingza Roller"
  },
  {
    "label": "Roller_Normal_Msn",
    "text": "Splat Roller"
  },
  {
    "label": "Saber_Normal_Msn",
    "text": "Splatana Stamper"
  },
  {
    "label": "Shelter_Compact_Msn",
    "text": "Undercover Brella"
  },
  {
    "label": "Shelter_Normal_Msn",
    "text": "Splat Brella"
  },
  {
    "label": "Shelter_Wide_Msn",
    "text": "Tenta Brella"
  },
  {
    "label": "Shooter_Blaze_Msn",
    "text": "Aerospray MG"
  },
  {
    "label": "Shooter_Expert_Msn",
    "text": "Splattershot Pro"
  },
  {
    "label": "Shooter_First_Msn",
    "text": "Splattershot Jr."
  },
  {
    "label": "Shooter_Flash_Msn",
    "text": "Squeezer"
  },
  {
    "label": "Shooter_Gravity_Msn",
    "text": ".52 Gal"
  },
  {
    "label": "Shooter_Heavy_Msn",
    "text": ".96 Gal"
  },
  {
    "label": "Shooter_Long_Msn",
    "text": "Jet Squelcher"
  },
  {
    "label": "Shooter_Normal_Msn",
    "text": "Splattershot"
  },
  {
    "label": "Shooter_Precision_Msn",
    "text": "Splash-o-matic"
  },
  {
    "label": "Shooter_QuickMiddle_Msn",
    "text": "N-ZAP '85"
  },
  {
    "label": "Shooter_Short_Msn",
    "text": "Sploosh-o-matic"
  },
  {
    "label": "Shooter_TripleMiddle_Msn",
    "text": "H-3 Nozzlenose"
  },
  {
    "label": "Shooter_TripleQuick_Msn",
    "text": "L-3 Nozzlenose"
  },
  {
    "label": "Slosher_Bathtub_Msn",
    "text": "Bloblobber"
  },
  {
    "label": "Slosher_Diffusion_Msn",
    "text": "Tri-Slosher"
  },
  {
    "label": "Slosher_Launcher_Msn",
    "text": "Sloshing Machine"
  },
  {
    "label": "Slosher_Strong_Msn",
    "text": "Slosher"
  },
  {
    "label": "Slosher_Washtub_Msn",
    "text": "Explosher"
  },
  {
    "label": "Spinner_Downpour_Msn",
    "text": "Ballpoint Splatling"
  },
  {
    "label": "Spinner_Hyper_Msn",
    "text": "Hydra Splatling"
  },
  {
    "label": "Spinner_Quick_Msn",
    "text": "Mini Splatling"
  },
  {
    "label": "Spinner_Serein_Msn",
    "text": "Nautilus 47"
  },
  {
    "label": "Spinner_Standard_Msn",
    "text": "Heavy Splatling"
  },
  {
    "label": "Stringer_Normal_Msn",
    "text": "Tri-Stringer"
  },
  {
    "label": "Shooter_ExtraOne_Sdodr",
    "text": "シューター"
  },
  {
    "label": "Shooter_ExtraTwo_Sdodr",
    "text": "オクタシューター"
  },
  {
    "label": "Blaster_ExtraOne_Sdodr",
    "text": "ブラスター"
  },
  {
    "label": "Charger_ExtraOne_Sdodr",
    "text": "チャージャー"
  },
  {
    "label": "Brush_Sdodr",
    "text": "フデ"
  },
  {
    "label": "Maneuver_Sdodr",
    "text": "マニューバー"
  },
  {
    "label": "Roller_Sdodr",
    "text": "ローラー"
  },
  {
    "label": "Saber_Sdodr",
    "text": "ワイパー"
  },
  {
    "label": "Shelter_Sdodr",
    "text": "シェルター"
  },
  {
    "label": "Slosher_Sdodr",
    "text": "スロッシャー"
  },
  {
    "label": "Spinner_Sdodr",
    "text": "スピナー"
  },
  {
    "label": "Stringer_Sdodr",
    "text": "ストリンガー"
  }
]