[
  {
    "label": "000",
    "text": "Risultati partita X"
  },
  {
    "label": "001",
    "text": "Risultati partita anarchica"
  },
  {
    "label": "002",
    "text": "Nuovo rango stagionale!"
  },
  {
    "label": "L_Btn_00-T_Info_00",
    "text": "OK"
  },
  {
    "label": "100",
    "text": "{{string index=\"0\" arg2=\"12\"}} - {{string index=\"1\" arg2=\"12\"}}"
  },
  {
    "label": "101",
    "text": "{{string index=\"0\" arg2=\"12\"}} - {{string index=\"1\" arg2=\"12\"}}"
  },
  {
    "label": "L_Record_00-T_Max_00",
    "text": "Max:"
  },
  {
    "label": "L_Record_00-T_Fix_00",
    "text": "Finale:"
  },
  {
    "label": "L_Record_00-T_NoRecord_00",
    "text": "Nessun dato"
  },
  {
    "label": "L_Record_00-T_Rank_00",
    "text": "Stimata"
  },
  {
    "label": "200",
    "text": "Pos.: {{number index=\"0\" type=\"5\" arg3=\"0\" arg4=\"0\"}}"
  },
  {
    "label": "T_Rule_00",
    "text": "Zona splat"
  },
  {
    "label": "T_Rule_01",
    "text": "Torre mobile"
  },
  {
    "label": "T_Rule_02",
    "text": "Bazookarp"
  },
  {
    "label": "T_Rule_03",
    "text": "Vongol gol"
  },
  {
    "label": "300",
    "text": "Consulta la classifica completa nell'app {{color id=\"1\"}}SplatNet 3{{color id=\"65535\"}}.\n\nHai raggiunto una delle prime posizioni?\nAllora potresti ricevere un regalo nella {{color id=\"1\"}}lobby{{color id=\"65535\"}}!"
  },
  {
    "label": "T_UdemaeTitle_00",
    "text": "Rango"
  },
  {
    "label": "T_UdemaeMsg_00",
    "text": "Mira in alto anche la prossima stagione!"
  }
]