[
  {
    "label": "T_Msg_01",
    "text": "Vuoi importare i dati di salvataggio di Splatoon 2?"
  },
  {
    "label": "T_Msg_02",
    "text": "Se lo fai, otterrai i seguenti bonus:"
  },
  {
    "label": "T_Msg_00",
    "text": "1) Otterrai tre {{color id=\"1\"}}licenze d'oro di Armand{{color id=\"65535\"}} {{icon id=\"29\" arg=\"0xF6285C3F00000000\"}} da usare per le armi.\n2) Potrai iniziare a partecipare alle {{color id=\"1\"}}partite anarchiche{{color id=\"65535\"}} prima del solito.\n3) Affronterai subito avversari con un livello simile al tuo."
  },
  {
    "label": "L_BtnL_00-T_Btn_00",
    "text": "No"
  },
  {
    "label": "L_BtnR_00-T_Btn_00",
    "text": "Sì"
  }
]