[
  {
    "label": "000",
    "text": "Che nickname vuoi scegliere?\nPuoi cambiarlo più tardi."
  },
  {
    "label": "000_Eve",
    "text": "Che nickname vuoi scegliere?\nNota: non potrai cambiarlo più tardi\ndurante la Splatfest World Premiere."
  },
  {
    "label": "001",
    "text": "Va bene? Ricorda che sarà\nvisibile agli altri utenti."
  },
  {
    "label": "003",
    "text": "Nickname registrato.\nHai ricevuto un ID che inizia con #. Se cambi\nnickname, cambierà anche questo ID."
  },
  {
    "label": "L_BtnL_00-T_Btn_00",
    "text": "Riprovo"
  },
  {
    "label": "L_BtnR_00-T_Btn_00",
    "text": "Va bene"
  },
  {
    "label": "Msg_ConfirmLimitOnlinePlay",
    "text": "Scegliere un nickname che viola le linee guida\nrelative alla community di Nintendo può portare\nad essere esclusi dal gioco online. Le linee\nguida relative alla community si trovano sul\nnostro sito Internet."
  },
  {
    "label": "BtnL_ConfirmLimitOnlinePlay",
    "text": "Riprovo"
  },
  {
    "label": "BtnR_ConfirmLimitOnlinePlay",
    "text": "OK"
  },
  {
    "label": "Msg_ConfirmLimitOnlinePlay2",
    "text": "Scegliere un nickname che viola le linee guida\nrelative alla community di Nintendo può portare\nad essere esclusi dal gioco online. Le linee\nguida relative alla community si trovano sul\nnostro sito Internet."
  },
  {
    "label": "BtnL_ConfirmLimitOnlinePlay2",
    "text": "Annulla"
  },
  {
    "label": "BtnR_ConfirmLimitOnlinePlay2",
    "text": "OK"
  }
]