[
  {
    "label": "L_SuperGauge_00-T_Max_01",
    "text": "Carica!"
  },
  {
    "label": "L_SuperGauge_00-T_Press_00",
    "text": "Premi"
  },
  {
    "label": "L_GuideBtn_00-T_Info_00",
    "text": "Menu"
  },
  {
    "label": "L_GuideBtn_01-T_Info_00",
    "text": "Equipaggiamento"
  },
  {
    "label": "T_Signal_00",
    "text": "Con me!"
  },
  {
    "label": "T_Nice_00",
    "text": "Grande!"
  }
]