[
  {
    "label": "L_Report_00-T_Info_00",
    "text": "Segnala"
  },
  {
    "label": "L_Yeah_00-T_Info_00",
    "text": "Mitilico!"
  },
  {
    "label": "L_Edit_00-T_Info_00",
    "text": "Modifica"
  },
  {
    "label": "000",
    "text": "Chiudi"
  },
  {
    "label": "001",
    "text": "Apri"
  },
  {
    "label": "L_Close_00-T_Info_00",
    "text": "Indietro"
  }
]