[
  {
    "label": "000",
    "text": "Avvicinati e tenta la fortuna\nal {{color id=\"1\"}}Premi-o-matic{{color id=\"65535\"}}!\n\nLa prima giocata ti costerà {{color id=\"1\"}}5000 {{color id=\"65535\"}}{{icon id=\"39\" arg=\"0x0000404000000000\"}}.\nPer ogni giocata successiva dovrai invece\npresentarti con {{color id=\"1\"}}30.000{{color id=\"65535\"}} {{icon id=\"39\" arg=\"0x0000404000000000\"}}!"
  },
  {
    "label": "001",
    "text": "Durante i festival potrai usare le {{color id=\"1\"}}conchiglie {{color id=\"65535\"}}{{icon id=\"35\" arg=\"0x0000404000000000\"}}\nper giocare al Premi-o-matic. Ognuna ti dà diritto\na una giocata!\n\nPotrai anche giocare con il denaro, come\nal solito. Solo {{color id=\"1\"}}5000 {{color id=\"65535\"}}{{icon id=\"39\" arg=\"0x0000404000000000\"}} per la prima\ngiocata e {{color id=\"1\"}}30.000{{color id=\"65535\"}} {{icon id=\"39\" arg=\"0x0000404000000000\"}} per le seguenti!"
  },
  {
    "label": "L_Btn_00-T_Btn_00",
    "text": "No"
  },
  {
    "label": "100",
    "text": "Gioca"
  },
  {
    "label": "101",
    "text": "Usa denaro del gioco"
  },
  {
    "label": "200",
    "text": "Usa un gett-o-matic per giocare"
  },
  {
    "label": "201",
    "text": "Usa una conchiglia per giocare"
  },
  {
    "label": "300",
    "text": "Vuoi tentare la fortuna al Premi-o-matic?"
  },
  {
    "label": "301",
    "text": "Vuoi tentare la fortuna al Premi-o-matic?"
  },
  {
    "label": "400",
    "text": "×{{number index=\"0\" type=\"2\" arg3=\"0\" arg4=\"0\"}}"
  },
  {
    "label": "500",
    "text": "×{{number index=\"0\" type=\"5\" arg3=\"0\" arg4=\"0\"}}"
  },
  {
    "label": "T_First_00",
    "text": "Prima giocata del giorno"
  },
  {
    "label": "L_BtnL_00-T_Btn_00",
    "text": "No"
  },
  {
    "label": "L_BtnSelectNum_00-T_Btn_00",
    "text": "Sì"
  },
  {
    "label": "T_Exchange_00",
    "text": "Vuoi scambiare licenze di Armand {{icon id=\"28\" arg=\"0x6666663FFEFFFFFF\"}}\ncon gett-o-matic {{icon id=\"34\" arg=\"0xE17A943F00000000\"}}?"
  },
  {
    "label": "T_Owns_00",
    "text": "Ne hai:"
  },
  {
    "label": "600",
    "text": "{{number index=\"0\" type=\"2\" arg3=\"0\" arg4=\"0\"}}"
  },
  {
    "label": "700",
    "text": "×{{number index=\"0\" type=\"2\" arg3=\"0\" arg4=\"0\"}}"
  },
  {
    "label": "800",
    "text": "×{{number index=\"0\" type=\"2\" arg3=\"0\" arg4=\"0\"}}"
  },
  {
    "label": "T_GuideExchange_00",
    "text": "Scambia"
  }
]