[
  {
    "label": "L_Stamp_00-T_Num_00",
    "text": "1"
  },
  {
    "label": "L_Stamp_01-T_Num_00",
    "text": "2"
  },
  {
    "label": "L_Stamp_02-T_Num_00",
    "text": "3"
  },
  {
    "label": "L_Stamp_03-T_Num_00",
    "text": "4"
  },
  {
    "label": "T_Get_00",
    "text": "Gett-o-matic ottenuto!"
  }
]