[
  {
    "label": "000",
    "text": "Attiva\nspeciale"
  },
  {
    "label": "001",
    "text": "Disattiva\nspeciale"
  },
  {
    "label": "010",
    "text": "Passa"
  },
  {
    "label": "011",
    "text": "Indietro"
  },
  {
    "label": "020",
    "text": "+{{number index=\"0\" type=\"2\" arg3=\"0\" arg4=\"0\"}}"
  },
  {
    "label": "021",
    "text": "-{{number index=\"0\" type=\"2\" arg3=\"0\" arg4=\"0\"}}"
  },
  {
    "label": "030",
    "text": "Scegli la carta per l'attacco speciale!"
  },
  {
    "label": "031",
    "text": "Giocala accanto a {{icon id=\"41\" arg=\"0x14AE473F00000000\"}}!"
  },
  {
    "label": "032",
    "text": "Scegli la carta da scartare."
  },
  {
    "label": "033",
    "text": "Non c'è posto dove giocare la carta."
  },
  {
    "label": "034",
    "text": "Punti speciali insufficienti."
  },
  {
    "label": "035",
    "text": "Non giocabile su spazi/muri colorati."
  },
  {
    "label": "036",
    "text": "Non tocca il tuo colore."
  },
  {
    "label": "037",
    "text": "Non giocabile su {{icon id=\"41\" arg=\"0x14AE473F00000000\"}}{{icon id=\"42\" arg=\"0x14AE473F00000000\"}}/sui muri."
  },
  {
    "label": "038",
    "text": "Non giocabile accanto a {{icon id=\"41\" arg=\"0x14AE473F00000000\"}}."
  },
  {
    "label": "039",
    "text": "Eseguilo accanto a {{icon id=\"42\" arg=\"0x14AE473F00000000\"}}!"
  },
  {
    "label": "040",
    "text": "Non giocabile su {{icon id=\"42\" arg=\"0x14AE473F00000000\"}}{{icon id=\"41\" arg=\"0x14AE473F00000000\"}}/sui muri."
  },
  {
    "label": "041",
    "text": "Non giocabile accanto a {{icon id=\"42\" arg=\"0x14AE473F00000000\"}}."
  },
  {
    "label": "042",
    "text": "In attesa della mossa dell'avversario..."
  },
  {
    "label": "T_Rotate_00",
    "text": "Ruota"
  },
  {
    "label": "T_Back_00",
    "text": "Indietro"
  },
  {
    "label": "T_Turns_00",
    "text": "Ancora"
  },
  {
    "label": "T_Turns_01",
    "text": " "
  },
  {
    "label": "L_RivalCard_00-T_Pass_00",
    "text": "Passa!"
  },
  {
    "label": "T_Finish_00",
    "text": "Fine!"
  },
  {
    "label": "T_Exit_00",
    "text": "Mi arrendo!"
  }
]