[
  {
    "label": "000",
    "text": "Continua"
  },
  {
    "label": "001",
    "text": "Ricomincia"
  },
  {
    "label": "002",
    "text": "Al Cratere"
  },
  {
    "label": "003",
    "text": "Ad Alterna"
  },
  {
    "label": "004",
    "text": "Riprova dal checkpoint"
  },
  {
    "label": "005",
    "text": "{{number index=\"0\" type=\"3\" arg3=\"0\" arg4=\"0\"}}"
  },
  {
    "label": "006",
    "text": "Al Campeggio Sea Sirens"
  },
  {
    "label": "007",
    "text": "Salta"
  },
  {
    "label": "T_Contiune_00",
    "text": "CONTINUI?"
  },
  {
    "label": "T_ContinueText_00",
    "text": "fntrsl?"
  },
  {
    "label": "L_BtnL_00-T_Text_00",
    "text": "Riprova dal checkpoint"
  }
]