[
  {
    "label": "000",
    "text": "% conchiglie"
  },
  {
    "label": "001",
    "text": "Riepilogo parziale"
  },
  {
    "label": "002",
    "text": "Voti"
  },
  {
    "label": "003",
    "text": "Contributo"
  },
  {
    "label": "004",
    "text": "Risultati"
  },
  {
    "label": "005",
    "text": "{{number index=\"0\" type=\"3\" arg3=\"0\" arg4=\"0\"}} o più"
  },
  {
    "label": "010",
    "text": "Anteprima del festival"
  },
  {
    "label": "011",
    "text": "Voti"
  },
  {
    "label": "012",
    "text": "Aperta"
  },
  {
    "label": "013",
    "text": "Sfida"
  },
  {
    "label": "014",
    "text": "Scontro tricolore"
  },
  {
    "label": "100",
    "text": "・ {{string index=\"0\" arg2=\"0\"}}\n・ {{string index=\"1\" arg2=\"0\"}}\n・ {{string index=\"2\" arg2=\"0\"}}"
  },
  {
    "label": "101",
    "text": "・ {{string index=\"0\" arg2=\"0\"}}\n・ {{string index=\"1\" arg2=\"0\"}}"
  },
  {
    "label": "102",
    "text": "{{string index=\"0\" arg2=\"0\"}}"
  },
  {
    "label": "1000",
    "text": "{{number index=\"1\" type=\"2\" arg3=\"0\" arg4=\"0\"}}/{{number index=\"0\" type=\"2\" arg3=\"0\" arg4=\"0\"}} ({{string value=\"16\" arg1=\"2\" arg3=\"0\"}}) "
  },
  {
    "label": "T_Match_00",
    "text": "Partita amichevole"
  },
  {
    "label": "T_Match_01",
    "text": "Partita anarchica {{size value=\"75\"}}(Serie){{size value=\"100\"}}"
  },
  {
    "label": "T_Match_06",
    "text": "Partita anarchica {{size value=\"75\"}}(Aperta){{size value=\"100\"}}"
  },
  {
    "label": "T_Match_02",
    "text": "Partita X"
  },
  {
    "label": "T_Match_03",
    "text": "Partita evento"
  },
  {
    "label": "T_Match_04",
    "text": "Scontro tricolore"
  },
  {
    "label": "T_Match_05",
    "text": "Partita tematica {{size value=\"75\"}}(Aperta){{size value=\"100\"}}"
  },
  {
    "label": "T_Match_09",
    "text": "Partita tematica {{size value=\"75\"}}(Sfida){{size value=\"100\"}}"
  },
  {
    "label": "L_FestA_00-T_Top_00",
    "text": "Parziale"
  },
  {
    "label": "L_FestA_00-T_Top_01",
    "text": "1º"
  },
  {
    "label": "T_TypeFest_00",
    "text": "Anteprima"
  },
  {
    "label": "T_FestTitle_01",
    "text": "Contributo"
  },
  {
    "label": "T_Rule_00",
    "text": "Aperta"
  },
  {
    "label": "T_Rule_01",
    "text": "Sfida"
  },
  {
    "label": "T_Rule_02",
    "text": "Scontro tricolore"
  },
  {
    "label": "L_FestResult_00-T_Title_02",
    "text": "Aperta"
  },
  {
    "label": "L_FestResult_00-T_Title_03",
    "text": "Sfida"
  },
  {
    "label": "L_FestResult_00-T_Title_04",
    "text": "Scontro tricolore"
  },
  {
    "label": "L_FestResult_00-T_Title_01",
    "text": "Voti"
  },
  {
    "label": "L_FestA_00-T_Point_00",
    "text": "p"
  },
  {
    "label": "L_FestResult_00-T_Num_00",
    "text": "７"
  },
  {
    "label": "L_FestResult_00-T_Num_01",
    "text": "８"
  },
  {
    "label": "L_FestResult_00-T_Num_02",
    "text": "１２"
  },
  {
    "label": "L_FestResult_00-T_Num_03",
    "text": "１２"
  },
  {
    "label": "L_FestResult_00-T_Num_04",
    "text": "１８"
  },
  {
    "label": "L_FestResult_00-T_Point_00",
    "text": "p"
  },
  {
    "label": "L_FestResult_00-T_Title_00",
    "text": "Anteprima"
  },
  {
    "label": "L_FestA_00-T_Unit_00",
    "text": "%"
  },
  {
    "label": "L_FestA_02-T_Unit_00",
    "text": "p"
  },
  {
    "label": "L_FestA_02-T_WinNum_00",
    "text": "Vittoria!"
  },
  {
    "label": "L_FestGraph_00-T_Point_00",
    "text": "p"
  },
  {
    "label": "T_Msg_00",
    "text": "Abbiamo apportato delle\nmodifiche a Splatoon 3\nper migliorare l'esperienza\ndi gioco. Per saperne di più,\nvisita il sito ufficiale!"
  },
  {
    "label": "T_SeasonInfo_00",
    "text": "È arrivata una nuova stagione!"
  },
  {
    "label": "T_Top_00",
    "text": "Top"
  },
  {
    "label": "T_NumTop_00",
    "text": "5%"
  },
  {
    "label": "T_NumTop_01",
    "text": "20%"
  },
  {
    "label": "T_NumTop_02",
    "text": "50%"
  },
  {
    "label": "T_TitleNum_00",
    "text": "Quota"
  },
  {
    "label": "T_Num_02",
    "text": "???"
  }
]