[
  {
    "label": "Fire",
    "text": "Saturazione schede colore Potenza!"
  },
  {
    "label": "Continuity",
    "text": "Saturazione schede colore Supporto!"
  },
  {
    "label": "Range",
    "text": "Saturazione schede colore Gittata!"
  },
  {
    "label": "Move",
    "text": "Saturazione schede colore Praticità!"
  },
  {
    "label": "Luck",
    "text": "Saturazione schede colore Fortuna!"
  },
  {
    "label": "Auto",
    "text": "Saturazione schede colore Drone!"
  },
  {
    "label": "L_SubEvent_00-T_SubEvent_00",
    "text": "Bonus"
  },
  {
    "label": "T_Title_01",
    "text": "Saturazione schede colore!"
  }
]