[
  {
    "label": "000",
    "text": "Ottieni oggetti"
  },
  {
    "label": "010",
    "text": "Replay"
  },
  {
    "label": "020",
    "text": "Battaglie"
  },
  {
    "label": "030",
    "text": "Cambia splattarghetta"
  },
  {
    "label": "040",
    "text": "Inserisci codice"
  },
  {
    "label": "050",
    "text": "Cambia nickname"
  },
  {
    "label": "051",
    "text": "Cambia nickname"
  },
  {
    "label": "060",
    "text": "Regione festival"
  },
  {
    "label": "070",
    "text": "Energia anarchica\ned energia evento"
  },
  {
    "label": "400",
    "text": "Indietro"
  },
  {
    "label": "L_CoopContents_00-T_Contents_00",
    "text": "Lavori"
  },
  {
    "label": "L_CoopContents_01-T_Contents_00",
    "text": "Scenari di lavoro"
  },
  {
    "label": "L_CoopContents_02-T_Contents_00",
    "text": "Inserisci codice"
  }
]