[
  {
    "label": "Msg_LookSalmon",
    "text": "Mira al tuo {{color id=\"1\"}}amico Salmonello{{color id=\"65535\"}} {{icon id=\"15\" arg=\"0x0000204000000000\"}}!"
  },
  {
    "label": "MsgS_LookSalmon",
    "text": "Inclina il controller per muovere il mirino{{icon id=\"16\" arg=\"0x0000204000000000\"}}."
  },
  {
    "label": "Msg_BasicStance",
    "text": "{{color id=\"1\"}}Guarda avanti{{color id=\"65535\"}} per vedere meglio!"
  },
  {
    "label": "MsgS_BasicStance",
    "text": "Premi {{icon id=\"3\" arg=\"0x0000204000000000\"}} per tornare a questa visuale."
  },
  {
    "label": "Msg_MoveLStick",
    "text": "Segui {{color id=\"1\"}}Salmonello{{color id=\"65535\"}} {{icon id=\"15\" arg=\"0x0000204000000000\"}}!"
  },
  {
    "label": "MsgS_MoveLStick",
    "text": "Usa{{icon id=\"7\" arg=\"0x0000204000000000\"}}per muoverti."
  },
  {
    "label": "Msg_ZLSquid",
    "text": "Diventa mollusco {{icon id=\"18\" arg=\"0x0000204000000000\"}} premendo {{icon id=\"11\" arg=\"0x0000204000000000\"}}!"
  },
  {
    "label": "MsgS_ZLSquid",
    "text": "In questo modo puoi {{color id=\"1\"}}nuotare nell'inchiostro{{color id=\"65535\"}} {{icon id=\"19\" arg=\"0x0000204000000000\"}}."
  },
  {
    "label": "Msg_PickUpWeapon",
    "text": "Pare che il tuo amico {{icon id=\"15\" arg=\"0x0000204000000000\"}} abbia trovato qualcosa."
  },
  {
    "label": "MsgS_PickUpWeapon",
    "text": "Salta giù e vai a dare un'occhiata!"
  },
  {
    "label": "Msg_ZRShoot",
    "text": "Premi {{icon id=\"12\" arg=\"0x0000204000000000\"}} per inchiostrare il palloncino {{icon id=\"20\" arg=\"0x0000204000000000\"}}!"
  },
  {
    "label": "MsgS_ZRShoot",
    "text": "Inclina il controller per mirare con{{icon id=\"16\" arg=\"0x0000204000000000\"}}!"
  },
  {
    "label": "Msg_FollowBalloon",
    "text": "Colpisci i palloncini {{icon id=\"20\" arg=\"0x0000204000000000\"}} mentre procedi!"
  },
  {
    "label": "MsgS_FollowBalloon",
    "text": "Usa{{icon id=\"7\" arg=\"0x0000204000000000\"}}per muoverti."
  },
  {
    "label": "Msg_Paint",
    "text": "{{color id=\"1\"}}Nuotando{{color id=\"65535\"}} {{color id=\"1\"}}{{icon id=\"19\" arg=\"0x0000204000000000\"}} {{color id=\"65535\"}}puoi {{color id=\"1\"}}risalire i muri{{color id=\"65535\"}}!"
  },
  {
    "label": "MsgS_Paint",
    "text": "E il {{color id=\"1\"}}serbatoio {{color id=\"65535\"}}{{icon id=\"17\" arg=\"0x0000204000000000\"}} {{color id=\"1\"}}si ricarica più rapidamente{{color id=\"65535\"}}!"
  },
  {
    "label": "Msg_TurnRStick",
    "text": "Usa{{icon id=\"8\" arg=\"0x0000204000000000\"}}per {{color id=\"1\"}}guardarti attorno{{color id=\"65535\"}}."
  },
  {
    "label": "Msg_YCameraReset",
    "text": "Premi {{icon id=\"3\" arg=\"0x0000204000000000\"}} per {{color id=\"1\"}}centrare la visuale{{color id=\"65535\"}}."
  },
  {
    "label": "MsgS_YCameraReset",
    "text": "Tieni il controller {{color id=\"1\"}}in posizione comoda{{color id=\"65535\"}} e premi {{icon id=\"3\" arg=\"0x0000204000000000\"}}."
  },
  {
    "label": "Msg_BJump",
    "text": "Premi {{icon id=\"1\" arg=\"0x0000204000000000\"}} per {{color id=\"1\"}}saltare {{color id=\"65535\"}}({{color id=\"1\"}}anche da mollusco {{color id=\"65535\"}}{{icon id=\"18\" arg=\"0x0000204000000000\"}})."
  },
  {
    "label": "Msg_ThroughMesh",
    "text": "Puoi {{color id=\"1\"}}oltrepassare le grate nuotando {{color id=\"65535\"}}da mollusco {{icon id=\"19\" arg=\"0x0000204000000000\"}}."
  },
  {
    "label": "Msg_EnemyInk",
    "text": "Premi {{icon id=\"12\" arg=\"0x0000204000000000\"}} e {{color id=\"1\"}}copri l'inchiostro nemico con il tuo{{color id=\"65535\"}}."
  },
  {
    "label": "MsgS_EnemyInk",
    "text": "Altrimenti ti {{color id=\"1\"}}imbratterai{{color id=\"65535\"}} i tentacoli..."
  },
  {
    "label": "Msg_RThrowBomb",
    "text": "Premi {{icon id=\"10\" arg=\"0x0000204000000000\"}} per lanciare una {{color id=\"1\"}}bomba {{color id=\"65535\"}}{{icon id=\"21\" arg=\"0x0000204000000000\"}}."
  },
  {
    "label": "MsgS_RThrowBomb",
    "text": "Nuota con {{icon id=\"11\" arg=\"0x0000204000000000\"}} per {{color id=\"1\"}}ricaricare il serbatoio{{color id=\"65535\"}} {{color id=\"1\"}}{{icon id=\"17\" arg=\"0x0000204000000000\"}}{{color id=\"65535\"}}."
  },
  {
    "label": "Msg_IkaNobori",
    "text": "Inchiostra quel muro, poi saltaci su da {{color id=\"1\"}}mollusco{{color id=\"65535\"}}."
  },
  {
    "label": "MsgS_IkaNobori",
    "text": "{{color id=\"1\"}}Tieni premuto{{color id=\"65535\"}} {{icon id=\"1\" arg=\"0x0000204000000000\"}} per un attimo e rilascia: {{color id=\"1\"}}impinnata{{color id=\"65535\"}}!"
  },
  {
    "label": "Msg_Complete",
    "text": "Basta così con il riscaldamento!"
  },
  {
    "label": "MsgS_Complete",
    "text": "Alla volta di {{color id=\"1\"}}Splatville{{color id=\"65535\"}}, la città del caos!"
  }
]