[
  {
    "label": "000",
    "text": "Vittorie consecutive: {{number index=\"0\" type=\"2\" arg3=\"2\" arg4=\"0\"}}"
  },
  {
    "label": "001",
    "text": "Energia evento stimata: {{number index=\"0\" type=\"6\" arg3=\"0\" arg4=\"0\"}}"
  },
  {
    "label": "002",
    "text": "Energia evento stimata > 2500"
  }
]