[
  {
    "label": "BankaraMatch_Button01",
    "text": "Match\nanarchie"
  },
  {
    "label": "BankaraMatch_Button02",
    "text": "Défense\nde zone"
  },
  {
    "label": "BankaraMatch_Button03",
    "text": "Expédition\nrisquée"
  },
  {
    "label": "BankaraMatch_Button04",
    "text": "Mission\nBazookarpe"
  },
  {
    "label": "BankaraMatch_Button05",
    "text": "Pluie de\npalourdes"
  },
  {
    "label": "BankaraMatch_Button06",
    "text": "Force anarchie"
  },
  {
    "label": "BankaraMatch_Title",
    "text": "Les matchs anarchie"
  },
  {
    "label": "BankaraMatch_Manual00",
    "text": "Le principe : augmenter son rang en gagnant des matchs!"
  },
  {
    "label": "BankaraMatch_Manual01",
    "text": "Dans un match anarchie, tu mets tes {{color id=\"1\"}}points\nde rang{{color id=\"65535\"}} en jeu pour participer à la compétition\nla plus frénétique de la Contrée Clabousse!\nPlus tu engranges de victoires, plus ton {{color id=\"1\"}}rang{{color id=\"65535\"}}\ns'envole vers les sommets.\n\nIl y a deux sortes de matchs anarchie :\nles {{color id=\"1\"}}matchs ouverts {{color id=\"65535\"}}et les {{color id=\"1\"}}matchs de série{{color id=\"65535\"}}."
  },
  {
    "label": "BankaraMatch_Manual02",
    "text": "Si tu aimes travailler en solitaire, les {{color id=\"1\"}}matchs\nde série {{color id=\"65535\"}}t'ouvrent les bras et te donnent\nl'occasion de liquider sans modération.\n\nPour commencer, tu dois te délester de quelques\npoints de rang pour t'acquitter du {{color id=\"1\"}}tarif d'entrée{{color id=\"65535\"}}.\nAprès quoi tu dois participer à autant de matchs\nque nécessaire pour accumuler cinq victoires\nou trois défaites. Ne t'inquiète pas, tu as\nle droit de faire une pause entre deux matchs.\n\nEnfin, au terme des matchs, tu obtiens des\npoints de rang en fonction des victoires et des\nmédailles que tu as décrochées."
  },
  {
    "label": "BankaraMatch_Manual03",
    "text": "Si tu aimes liquider en équipe, avec des amis\nou des joueurs du même canal, ou si tu joues\nen solitaire, mais que tu n'as pas le temps\nd'enchaîner plusieurs matchs, les {{color id=\"1\"}}matchs\nouverts{{color id=\"65535\"}} sont faits pour toi. Ils te permettent\nde gagner des points de rang à chaque match...\nou bien d'en perdre."
  },
  {
    "label": "BankaraMatch_Manual04",
    "text": "Les matchs anarchie se déclinent en quatre\nmodes distincts : la {{color id=\"1\"}}Défense de zone{{color id=\"65535\"}},\nl'{{color id=\"1\"}}Expédition risquée{{color id=\"65535\"}}, la {{color id=\"1\"}}Mission Bazookarpe{{color id=\"65535\"}}\net la {{color id=\"1\"}}Pluie de palourdes{{color id=\"65535\"}}.\n\nTes points de rang sont {{color id=\"1\"}}communs {{color id=\"65535\"}}aux\nquatre modes. Si tu améliores ton rang\ndans l'un d'entre eux, il sera amélioré\ndans les autres également."
  },
  {
    "label": "BankaraMatch_Manual05",
    "text": "Tu rêves d'une promotion? D'atteindre un\nnouveau rang? Une fois que tu as accumulé\nassez de points de rang, l'occasion t'est offerte\nde relever un {{color id=\"1\"}}défi {{color id=\"65535\"}}spécial : le {{color id=\"1\"}}match de\nrang{{color id=\"65535\"}}! Acquitte-toi du tarif en points de rang\net prépare-toi à en découdre. Si tu remportes\n{{color id=\"1\"}}trois victoires{{color id=\"65535\"}}, à toi la promotion!\n\nPar contre, si tu essuies trois défaites, c'est\nfini pour toi. Par ailleurs, tu devras à nouveau\npayer les frais d'entrée en points de rang à la\ntentative suivante."
  },
  {
    "label": "BankaraMatch_BankaraPower_Title",
    "text": "La Force anarchie, c'est quoi?"
  },
  {
    "label": "BankaraMatch_BankaraPower_Manual00",
    "text": "La {{color id=\"1\"}}Force anarchie{{color id=\"65535\"}} est un nombre illustrant\nles {{color id=\"1\"}}capacités de ton équipe{{color id=\"65535\"}}. Il est calculé\nlorsqu'une équipe de deux à quatre joueurs est\nconstituée et participe à au moins cinq matchs\nanarchie (ouverts). Ce nombre est indépendant\nde tes points de rang classiques.\n\nPour consulter ta Force anarchie, appuie\nsur {{icon id=\"9\" arg=\"0x52B85E3F03000000\"}} pendant la recherche de joueurs.\nUne fois calculée, ta Force anarchie\naugmente ou diminue après chaque match,\nen fonction de son résultat."
  },
  {
    "label": "BankaraMatch_BankaraPower_Manual01",
    "text": "Lorsque l'horaire est mis à jour (toutes les\ndeux heures), ta Force anarchie la plus\nélevée de la séance est intégrée au classement.\nTu peux consulter ce dernier à tout moment\ndepuis le {{color id=\"1\"}}terminal du hall{{color id=\"65535\"}}.\n\nToutefois, seuls les résultats des cinq séances\nles plus récentes sont disponibles, les résultats\nantérieurs étant supprimés au fur et à mesure\nque tu participes à de nouvelles séances.\nLes résultats sont accessibles pendant\nun maximum de 14 jours après la fin de\nla séance correspondante."
  },
  {
    "label": "BankaraMatch_Gachiarea_Title",
    "text": "Défense de zone : les règles"
  },
  {
    "label": "BankaraMatch_Gachiarea_Manual00",
    "text": "L'équipe qui encre les zones clés et les protège suffisamment\nlongtemps l'emporte!"
  },
  {
    "label": "BankaraMatch_Gachiarea_Manual01",
    "text": "1. Zone clé\n2. Indicateur de contrôle\n3. Décompte\n4. Pénalités"
  },
  {
    "label": "BankaraMatch_Gachiarea_Manual02",
    "text": "L'équipe qui défend les {{color id=\"1\"}}zones clés{{color id=\"65535\"}} pendant la\ndurée requise l'emporte!\n\nPour commencer, ton équipe doit s'approprier les\nzones clés de la carte en les encrant. Regarde\nl'{{color id=\"1\"}}indicateur de contrôle{{color id=\"65535\"}} pour voir la progression\nde l'encrage d'une zone.\nUne fois que ton équipe s'est emparée de toutes\nles zones clés, un {{color id=\"1\"}}décompte {{color id=\"65535\"}}démarre. S'il atteint\nzéro, c'est la victoire par K.-O.!"
  },
  {
    "label": "BankaraMatch_Gachiarea_Manual03_Title",
    "text": "Défense de zone : astuces"
  },
  {
    "label": "BankaraMatch_Gachiarea_Manual03",
    "text": "・ Travaillez en équipe!\n    Tenter de reprendre en solo une zone clé défendue par l'adversaire n'est\n    pas chose aisée. Mieux vaut y aller avec tes coéquipiers! À l'inverse,\n    quand ton équipe défend, il convient de tout faire pour perturber le camp\n    d'en face et l'empêcher d'agir de manière organisée!\n\n・ Ne baissez pas les bras, même si ça sent le roussi!\n    Si l'adversaire contrôle les zones clés ou que la progression du décompte\n    est à son avantage, votre jauge spéciale se remplit automatiquement!"
  },
  {
    "label": "BankaraMatch_Gachiarea_Manual04",
    "text": "・ Profitez des prolongations pour renverser la vapeur!\n    À la fin du temps réglementaire, si l'équipe en difficulté a le contrôle des\n    zones clés, une prolongation s'engage. Si elle trouve le courage de se\n    battre jusqu'au bout, peut-être réussira-t-elle une remontée fantastique!"
  },
  {
    "label": "BankaraMatch_Gachiyagura_Title",
    "text": "Expédition risquée : les règles"
  },
  {
    "label": "BankaraMatch_Gachiyagura_Manual00",
    "text": "L'équipe qui conduit la plateforme mobile jusqu'à l'arrivée dans le camp\nadverse l'emporte!"
  },
  {
    "label": "BankaraMatch_Gachiyagura_Manual01",
    "text": "1. Plateforme mobile\n2. Piédestal/Arrivée\n3. Point de contrôle\n4. Décompte"
  },
  {
    "label": "BankaraMatch_Gachiyagura_Manual02",
    "text": "L'équipe qui mène la {{color id=\"1\"}}plateforme mobile{{color id=\"65535\"}} située au\ncentre de la carte jusqu'à l'{{color id=\"1\"}}arrivée{{color id=\"65535\"}} dans le camp\nadverse l'emporte!\n\nPour commencer, encre les côtés de la plateforme\net grimpe dessus pour t'en emparer. La plateforme\nse dirige alors automatiquement vers le camp\nadverse.\n\nSi tu te fais liquider et que l'adversaire prend\nle contrôle de la plateforme, ou si personne\nne grimpe sur ce dernier pendant un certain\ntemps, il repart au centre de la carte."
  },
  {
    "label": "BankaraMatch_Gachiyagura_Manual03",
    "text": "Des {{color id=\"1\"}}points de contrôle{{color id=\"65535\"}} sont disposés sur le\nchemin menant à l'arrivée. La plateforme mobile\ns'arrête quand il en atteint un. Garde le contrôle\nde la plateforme jusqu'à ce que la résistance du\npoint de contrôle soit épuisée pour qu'il redémarre.\n\nUne fois un point de contrôle franchi, tu peux y \npasser à nouveau sans que la plateforme ne s'arrête.\nEn revanche, la résistance d'un point de contrôle\nque ton équipe n'est pas parvenue à franchir\nremonte petit à petit."
  },
  {
    "label": "BankaraMatch_Gachiyagura_Manual04",
    "text": "Le {{color id=\"1\"}}décompte {{color id=\"65535\"}}jusqu'à l'arrivée {{color id=\"1\"}}progresse {{color id=\"65535\"}}au fur\net à mesure que la plateforme mobile s'en rapproche.\nSi le match se termine sans qu'aucune équipe ne\nsoit parvenue à l'arrivée, celle dont le décompte\na le plus progressé l'emporte!"
  },
  {
    "label": "BankaraMatch_Gachiyagura_Manual04_Title",
    "text": "Expédition risquée : astuces"
  },
  {
    "label": "BankaraMatch_Gachiyagura_Manual05",
    "text": "・ Protégez la plateforme!\n    Le joueur qui reste sur la plateforme mobile constituant une cible facile,\n    il revient à ses coéquipiers de le précéder pour s'assurer\n    que la voie est libre.\n\n・ Tirez parti des points de contrôle pour reprendre la plateforme mobile!\n    Si l'adversaire a le contrôle de la plateforme, profite de ses arrêts aux\n    points de contrôle pour tenter de le récupérer avec tes alliés!"
  },
  {
    "label": "BankaraMatch_Gachiyagura_Manual06",
    "text": "・ Profitez des prolongations pour renverser la vapeur!\n    À la fin du temps réglementaire, si l'équipe en difficulté a le contrôle de la\n    plateforme mobile, une prolongation s'engage. Pour peu qu'elle reprenne\n    du poil de la bête, elle réussira peut-être une remontée fantastique!"
  },
  {
    "label": "BankaraMatch_Gachihoko_Title",
    "text": "Mission Bazookarpe : les règles"
  },
  {
    "label": "BankaraMatch_Gachihoko_Manual00",
    "text": "L'équipe qui amène le Bazookarpe sur le piédestal du camp adverse l'emporte!"
  },
  {
    "label": "BankaraMatch_Gachihoko_Manual01",
    "text": "1. Bazookarpe\n2. Piédestal/Arrivée\n3. Limite de conservation du Bazookarpe\n4. Distance jusqu'au piédestal\n5. Point de contrôle"
  },
  {
    "label": "BankaraMatch_Gachihoko_Manual02",
    "text": "L'équipe qui amène le {{color id=\"1\"}}Bazookarpe {{color id=\"65535\"}}sur le {{color id=\"1\"}}piédestal{{color id=\"65535\"}}\ndu camp adverse l'emporte!\n\nPour commencer, dirige-toi vers le Bazookarpe,\nau centre de la carte. Il est protégé par un\nbouclier que tu dois briser pour t'en emparer.\n\nSi le Bazookarpe est abandonné, son bouclier\nse régénère lentement. Par ailleurs, s'il est\nabandonné trop longtemps, il retourne à\nsa position initiale."
  },
  {
    "label": "BankaraMatch_Gachihoko_Manual03",
    "text": "Prends garde, le Bazookarpe pèse son poids, et\ntu ne peux ni effectuer de super saut, ni utiliser\nton arsenal lorsque tu le portes. Cependant,\ntu peux tout de même compter sur ses {{color id=\"1\"}}tirs\ndévastateurs{{color id=\"65535\"}}!\n\nDe plus, sache qu'il n'est pas sans risque de\nse trimballer avec un Bazookarpe. Au bout\nd'un moment, il explose, liquidant son porteur\nau passage. La prudence est de mise!"
  },
  {
    "label": "BankaraMatch_Gachihoko_Manual04",
    "text": "Une fois le Bazookarpe en ta possession,\ndirige-toi vers le {{color id=\"1\"}}point de contrôle{{color id=\"65535\"}}!\n\nUne fois celui-ci derrière toi, il ne reste plus\nqu'à atteindre le piédestal. Si l'adversaire te\nrepousse au-delà du point de contrôle, tu peux\nle franchir à nouveau sans difficulté.\n\nÀ mesure que tu progresses vers le point\nde contrôle puis vers le piédestal adverse,\nle {{color id=\"1\"}}décompte progresse{{color id=\"65535\"}}. S'il atteint son terme\navant que le Bazookarpe arrive à destination,\nl'équipe dont le décompte est le plus avancé\nl'emporte!"
  },
  {
    "label": "BankaraMatch_Gachihoko_Manual05_Title",
    "text": "Mission Bazookarpe : astuces"
  },
  {
    "label": "BankaraMatch_Gachihoko_Manual05",
    "text": "・ Le Bazookarpe ne doit pas rester immobile!\n    Le plus important dans ce mode, c'est de toujours veiller à avancer avec le\n    Bazookarpe. Chaque occasion de le rapprocher du but doit être saisie.\n    Si un de tes coéquipiers a le Bazookarpe, précède-le et ouvre-lui la voie!\n\n・ Ne baissez pas les bras, même si ça sent le roussi!\n    Si l'adversaire détient le Bazookarpe, ou que la progression du décompte\n    est à son avantage et que ton équipe n'est pas en possession du\n    Bazookarpe, votre jauge spéciale se remplit automatiquement!"
  },
  {
    "label": "BankaraMatch_Gachihoko_Manual06",
    "text": "・ Profitez des prolongations pour renverser la vapeur!\n    À la fin du temps réglementaire, si l'équipe en difficulté est en possession\n    du Bazookarpe, une prolongation s'engage. Pour peu qu'elle sache maintenir\n    l'autre équipe sous pression, elle réussira peut-être une remontée\n    fantastique!"
  },
  {
    "label": "BankaraMatch_Gachiasari_Title",
    "text": "Pluie de palourdes : les règles"
  },
  {
    "label": "BankaraMatch_Gachiasari_Manual00",
    "text": "Lance une super palourde sur le panier adverse pour le priver de sa protection.\nL'équipe qui envoie le plus de palourdes dans le panier adverse l'emporte!"
  },
  {
    "label": "BankaraMatch_Gachiasari_Manual01",
    "text": "1. Palourde\n2. Super palourde\n3. Panier\n4. Compteur"
  },
  {
    "label": "BankaraMatch_Gachiasari_Manual02",
    "text": "5. Décompte d'exposition\n6. Stock de palourdes de l'équipe\n7. Ton stock de palourdes\n8. Stock de palourdes de chaque joueur"
  },
  {
    "label": "BankaraMatch_Gachiasari_Manual03",
    "text": "Lance une super palourde sur le panier adverse\nafin de le priver de sa {{color id=\"1\"}}protection{{color id=\"65535\"}}. L'équipe qui\nlance le plus de {{color id=\"1\"}}palourdes{{color id=\"65535\"}} dans le panier adverse\nl'emporte!\n\nPour commencer, ramasse les palourdes\nqui jonchent le sol de la carte. Il te suffit d'en\ntoucher une pour qu'elle se place dans\nton sillage!"
  },
  {
    "label": "BankaraMatch_Gachiasari_Manual04",
    "text": "Si tu ramasses {{color id=\"1\"}}huit {{color id=\"65535\"}}palourdes, elles se\ntransformeront en une {{color id=\"1\"}}super palourde{{color id=\"65535\"}}!\nAvec cette carte en main, tu peux briser\nla protection du panier!"
  },
  {
    "label": "BankaraMatch_Gachiasari_Manual05",
    "text": "Appuie sur {{icon id=\"0\" arg=\"0x52B85E3F03000000\"}} ou {{icon id=\"9\" arg=\"0x52B85E3F03000000\"}} pour lancer\naussi bien les super palourdes que les\npalourdes normales.\n\nDès que la protection est neutralisée, le\n{{color id=\"1\"}}décompte d'exposition {{color id=\"65535\"}}du panier s'enclenche."
  },
  {
    "label": "BankaraMatch_Gachiasari_Manual06",
    "text": "Bombarde le panier adverse de palourdes et\nde super palourdes!\n\nSi le {{color id=\"1\"}}compteur{{color id=\"65535\"}} de ton équipe arrive à zéro,\nc'est la victoire par K.-O.! Les palourdes\nnormales valent {{color id=\"1\"}}trois {{color id=\"65535\"}}points, et les super\npalourdes, {{color id=\"1\"}}20 {{color id=\"65535\"}}points.\n\nQuand tu lances des palourdes dans le panier\nadverse, tu fais également {{color id=\"1\"}}remonter son\ndécompte d'exposition{{color id=\"65535\"}}."
  },
  {
    "label": "BankaraMatch_Gachiasari_Manual07",
    "text": "Quand le panier de ton équipe est exposé, la\nprotection du panier adverse est indestructible.\nIl convient alors de défendre toutes affaires\ncessantes : liquide les adversaires chargés\nde palourdes pour les empêcher de faire\nremonter le décompte d'exposition!\n\nLorsque la protection de ton panier revient\nen place, une super palourde {{color id=\"1\"}}apparaît sous\nton panier{{color id=\"65535\"}} pour favoriser la contre-attaque!"
  },
  {
    "label": "BankaraMatch_Gachiasari_Manual08",
    "text": "Si tu te fais liquider, les palourdes que\ntu transportais sont abandonnées sur place.\nSi tu en vois une qui traîne, ramasse-la vite\navant qu'elle ne disparaisse!\n\nLes super palourdes n'échappent pas à la règle,\nà ceci près qu'elles ne peuvent être ramassées\nque par un joueur de la même équipe que celui\nqui l'a perdue. Si un adversaire perd une super\npalourde, essaie de tenir ses équipiers à\ndistance jusqu'à ce qu'elle disparaisse."
  },
  {
    "label": "BankaraMatch_Gachiasari_Manual09",
    "text": "Les palourdes disposées dans l'encre de ton\néquipe sont marquées afin d'en faciliter la\nrecherche.\n\nDe nouvelles palourdes apparaissent souvent,\nil est donc avantageux d'encrer le plus de\nterrain possible afin de localiser les palourdes\navant que l'adversaire ne pose ses pattes\nmalpropres dessus."
  },
  {
    "label": "BankaraMatch_Gachiasari_Manual10_Title",
    "text": "Pluie de palourdes : astuces"
  },
  {
    "label": "BankaraMatch_Gachiasari_Manual10",
    "text": "・ Partez en reconnaissance!\n    Profitez des balades proposées par la guide pour explorer la carte\n    et repérer le meilleur itinéraire vers chaque panier. Il est crucial\n    de connaître les lieux!\n\n・ Étendez votre territoire!\n    Encrez le sol et étendez votre territoire afin de repérer les palourdes\n    dès leur apparition!"
  },
  {
    "label": "BankaraMatch_Gachiasari_Manual11",
    "text": "・ Ne baissez pas les bras, même si ça sent le roussi!\n    Si aucune équipe ne détient de super palourde, ou si les deux en\n    détiennent une, l'équipe en difficulté verra sa jauge spéciale se remplir\n    automatiquement!\n\n・ Profitez des prolongations pour renverser la vapeur!\n    À la fin du temps réglementaire, si l'équipe en difficulté est en possession\n    d'une super palourde, une prolongation s'engage. Pour peu qu'elle mette\n    le paquet, elle réussira peut-être une remontée fantastique!"
  }
]