[
  {
    "label": "L_Guide_00-T_Info_00",
    "text": "とじる"
  },
  {
    "label": "L_Guide_01-T_Info_00",
    "text": "もどる"
  },
  {
    "label": "L_ContentsB_01-T_ExplainPict_00",
    "text": "成果"
  },
  {
    "label": "L_ContentsB_01-T_ExplainPict_01",
    "text": "現場で発揮する能力"
  },
  {
    "label": "L_ContentsB_01-T_ExplainPict_02",
    "text": "個人がもともと持っている資質"
  },
  {
    "label": "L_ContentsB_01-T_ExplainPict_03",
    "text": "現場での\n結果"
  },
  {
    "label": "L_ContentsB_01-T_ExplainPict_04",
    "text": "判断力・対応力・\n考える力・実行力・\nコミュニケーション能力"
  },
  {
    "label": "L_ContentsB_01-T_ExplainPict_05",
    "text": "性格・意欲・経験・センス・反射神経"
  },
  {
    "label": "L_ContentsB_07-T_Title_00",
    "text": "２.１.０ ザコシャケ"
  },
  {
    "label": "L_ContentsB_07-T_Title_01",
    "text": "２.２.０ オオモノシャケ （金イクラを落とすシャケ）"
  },
  {
    "label": "L_ContentsB_07-T_Title_02",
    "text": "２.３.０ 過去に観測された特殊な状況"
  },
  {
    "label": "L_ContentsB_08-T_Title_00",
    "text": "フェスの心得"
  },
  {
    "label": "L_ContentsB_08-T_Contents_00",
    "text": "一、出されたお題をもとに ３つのチームに分かれて ナワバリバトルすべし！\n二、バトルでたくさん塗ったり、勝利したら フェスポイントをあたえるべし！\n三、フェスポイントをためたものには、ふさわしい称号をあたえるべし！\n四、フェスの結果で どのチームがイカしているか 決めるべし！\n五、フェス終了後に 称号に応じて ごほうびをあたえるべし！\n六、イカしたチームには より多くの ごほうびをあたえるべし！\n七、フェスが終わったら フェスTは返却すべし！"
  },
  {
    "label": "L_ContentsB_09-T_Note_00",
    "text": "{{icon id=\"2\" arg=\"0x52B85E3F03000000\"}} {{icon id=\"3\" arg=\"0x52B85E3F03000000\"}}で回転できるぞ！"
  },
  {
    "label": "L_ContentsB_09-T_Note_01",
    "text": "スペシャルマス"
  },
  {
    "label": "L_ContentsB_09-T_Note_02",
    "text": "スペシャルポイント+1"
  },
  {
    "label": "L_ContentsB_09-T_Note_03",
    "text": "スペシャルポイントを消費"
  },
  {
    "label": "L_ContentsB_09-T_Note_04",
    "text": "消費するスペシャルポイントは、カードごとに決まっているぞ！"
  },
  {
    "label": "L_ContentsB_09-T_Note_05",
    "text": "相手のマスを塗り返せ！"
  },
  {
    "label": "L_ContentsB_09-T_Note_06",
    "text": "OK!"
  },
  {
    "label": "L_ContentsB_09-T_Note_07",
    "text": "NG"
  },
  {
    "label": "L_ContentsB_10-L_Guide_00-T_Info_00",
    "text": "拡大する"
  },
  {
    "label": "L_ContentsB_10-L_Guide_01-T_Info_00",
    "text": "もどる"
  },
  {
    "label": "L_ContentsB_10-T_Contents_03",
    "text": "くわしくは{{color id=\"1\"}}QRコード{{color id=\"65535\"}}を読み取って{{color id=\"1\"}}Webサイト{{color id=\"65535\"}}をご確認ください。"
  }
]