[
  {
    "label": "T_Text_00",
    "text": "持っているギア"
  },
  {
    "label": "T_Text_01",
    "text": "受け取りギア"
  },
  {
    "label": "T_Explain_00",
    "text": "すでに 同じギアを持っています"
  },
  {
    "label": "T_Explain_01",
    "text": "ギア交換しない場合は 別のものと交換します"
  },
  {
    "label": "100",
    "text": "やめとく"
  },
  {
    "label": "101",
    "text": "かけらと交換！"
  },
  {
    "label": "200",
    "text": "買う！"
  },
  {
    "label": "201",
    "text": "ギア交換！"
  }
]