[
  {
    "label": "SpInkStorm",
    "text": "{{icon id=\"10\" arg=\"0x0000604000000000\"}}そうちを投げろ！"
  },
  {
    "label": "SpUltraShot",
    "text": "{{icon id=\"12\" arg=\"0xCDCC4C4000000000\"}}ショットを撃て！"
  },
  {
    "label": "SpUltraStamp",
    "text": "{{icon id=\"12\" arg=\"0xCDCC4C4000000000\"}}ハンコを押せ！"
  },
  {
    "label": "SpJetpack",
    "text": "{{icon id=\"12\" arg=\"0xCDCC4C4000000000\"}}弾を撃ちまくれ！"
  },
  {
    "label": "SpShockSonar",
    "text": "{{icon id=\"10\" arg=\"0x0000604000000000\"}}そうちを投げろ！"
  },
  {
    "label": "SpSuperHook",
    "text": "{{icon id=\"10\" arg=\"0x0000604000000000\"}}ウデをのばせ！"
  },
  {
    "label": "SpTripleTornado",
    "text": "{{icon id=\"10\" arg=\"0x0000604000000000\"}}そうちを投げろ！"
  },
  {
    "label": "SpEnergyStand",
    "text": "{{icon id=\"10\" arg=\"0x0000604000000000\"}}そうちを投げろ！"
  },
  {
    "label": "SpSkewer",
    "text": "{{icon id=\"12\" arg=\"0xCDCC4C4000000000\"}}止まって起爆！"
  },
  {
    "label": "SpChariot",
    "text": "{{icon id=\"10\" arg=\"0x0000604000000000\"}}{{icon id=\"12\" arg=\"0xCDCC4C4000000000\"}}ショットを撃ちまくれ！"
  },
  {
    "label": "SpNiceBall",
    "text": "{{icon id=\"10\" arg=\"0x0000604000000000\"}}玉を投げろ！"
  },
  {
    "label": "SpNiceBallNice",
    "text": "{{icon id=\"13\" arg=\"0xCDCC4C4000000000\"}}ナイスをためろ！"
  },
  {
    "label": "SpNiceBallSend",
    "text": "{{icon id=\"13\" arg=\"0xCDCC4C4000000000\"}}ナイスを送れ！"
  },
  {
    "label": "SpBlower",
    "text": "{{icon id=\"12\" arg=\"0xCDCC4C4000000000\"}}相手インクを吸いこめ！"
  },
  {
    "label": "SpBlowerShoot",
    "text": "{{icon id=\"12\" arg=\"0xCDCC4C4000000000\"}}ショットを撃て！"
  },
  {
    "label": "SpMultiMissile",
    "text": "{{icon id=\"12\" arg=\"0xCDCC4C4000000000\"}}相手をロックオンしろ！"
  },
  {
    "label": "SpFirework",
    "text": "{{icon id=\"12\" arg=\"0xCDCC4C4000000000\"}}デコイをまき散らせ！"
  },
  {
    "label": "SpCastle",
    "text": "{{icon id=\"12\" arg=\"0xCDCC4C4000000000\"}}長押しで突撃！"
  },
  {
    "label": "SpChimney",
    "text": "{{icon id=\"10\" arg=\"0x0000604000000000\"}}そうちを投げろ！"
  },
  {
    "label": "SpIkuraShoot",
    "text": "{{icon id=\"10\" arg=\"0x0000604000000000\"}}コジャケを投げろ！"
  },
  {
    "label": "SpIkuraShootAim",
    "text": "コアをねらえ！"
  },
  {
    "label": "VehicleSpectacleBlower",
    "text": "{{icon id=\"12\" arg=\"0xCDCC4C4000000000\"}}コアを吸いこめ！"
  },
  {
    "label": "VehicleSpectacleShoot",
    "text": "{{icon id=\"12\" arg=\"0xCDCC4C4000000000\"}}ショットを撃ち続けろ！"
  },
  {
    "label": "CoopBossShoot",
    "text": "{{icon id=\"0\" arg=\"0x713D2A4000000000\"}}オカシラシャケに撃て！"
  },
  {
    "label": "ThrowClam",
    "text": "{{icon id=\"0\" arg=\"0x713D2A4000000000\"}}相手ゴールに投げ入れろ！"
  },
  {
    "label": "ThrowTenjin",
    "text": "{{icon id=\"0\" arg=\"0x713D2A4000000000\"}}ハナビダマを投げろ！"
  }
]