[
  {
    "label": "L_BtnL_00-T_Btn_00",
    "text": "やめとく"
  },
  {
    "label": "L_BtnR_00-T_Btn_00",
    "text": "試しうち！"
  },
  {
    "label": "L_DetailWpn_00-T_Special_00",
    "text": "スペシャル必要ポイント"
  },
  {
    "label": "T_Question_00",
    "text": "このブキを試しうちしますか？"
  }
]