[
  {
    "label": "L_Bottom_00-T_Info_00",
    "text": "とじる"
  },
  {
    "label": "Category_Versus_00",
    "text": "バトル"
  },
  {
    "label": "Category_Coop_00",
    "text": "SALMON RUN"
  },
  {
    "label": "Category_Mission_00",
    "text": "ヒーローモード"
  },
  {
    "label": "Category_Plaza_00",
    "text": "街"
  },
  {
    "label": "Category_Other_00",
    "text": "その他"
  },
  {
    "label": "Category_SideOrder_00",
    "text": "サイド・オーダー"
  },
  {
    "label": "L_Stop_00-T_Info_00",
    "text": "リクエストを取り消す"
  },
  {
    "label": "000",
    "text": "{{fun_0002_0002 arg=\"0x0000000006002E002E002E00\"}}"
  },
  {
    "label": "100",
    "text": "{{string value=\"MusicTitle\" arg1=\"0\" arg3=\"0\"}}"
  },
  {
    "label": "200",
    "text": "{{fun_0002_0002 arg=\"0x0000000006002E002E002E00\"}}"
  },
  {
    "label": "300",
    "text": "{{string value=\"MusicArtist\" arg1=\"0\" arg3=\"0\"}}"
  },
  {
    "label": "400",
    "text": "{{string value=\"PlayerName\" arg1=\"0\" arg3=\"0\"}} さんのリクエスト"
  },
  {
    "label": "500",
    "text": "{{string value=\"MusicTitle\" arg1=\"0\" arg3=\"0\"}}"
  },
  {
    "label": "501",
    "text": "？？？"
  },
  {
    "label": "600",
    "text": "{{string value=\"MusicArtist\" arg1=\"0\" arg3=\"0\"}}"
  },
  {
    "label": "601",
    "text": "？？？"
  },
  {
    "label": "T_CoinNum_00",
    "text": "×１００"
  },
  {
    "label": "900",
    "text": "今は他のプレイヤーが選んだ曲を再生中です\n曲の変更をリクエストしますか？"
  },
  {
    "label": "901",
    "text": "この曲をリクエストしますか？"
  },
  {
    "label": "L_BtnL_00-T_Btn_00",
    "text": "やめとく"
  },
  {
    "label": "L_BtnR_00-T_Btn_00",
    "text": "リクエストする！"
  }
]