[
  {
    "label": "000",
    "text": "メンバーの合流を待っています"
  },
  {
    "label": "001",
    "text": "親がチームを決めています"
  },
  {
    "label": "002",
    "text": "メンバーの準備を待っています"
  },
  {
    "label": "003",
    "text": "{{icon id=\"9\" arg=\"0x0000404000000000\"}}で チームを決めてください"
  },
  {
    "label": "010",
    "text": "{{icon id=\"9\" arg=\"0x0000404000000000\"}}で 遊びかたとメンバーを決めてください"
  },
  {
    "label": "011",
    "text": "メンバーの合流を待っています"
  },
  {
    "label": "012",
    "text": "メンバーの準備を待っています"
  },
  {
    "label": "013",
    "text": "親の選択を待っています"
  },
  {
    "label": "014",
    "text": "他のメンバーを待っています"
  },
  {
    "label": "015",
    "text": "対戦相手を待っています"
  },
  {
    "label": "016",
    "text": "対戦を申しこんでいます"
  },
  {
    "label": "017",
    "text": "２階にあるナワバトラー台のイスに座って対戦しよう！"
  },
  {
    "label": "018",
    "text": "ナワバトラー台のイスに座って対戦しよう！"
  },
  {
    "label": "019",
    "text": "しばらくお待ちください..."
  },
  {
    "label": "100",
    "text": "メンバー決定！"
  },
  {
    "label": "101",
    "text": "準備OK！"
  },
  {
    "label": "102",
    "text": "このメンバーではじめる！"
  },
  {
    "label": "200",
    "text": "バトル終了まで {{number index=\"0\" type=\"2\" arg3=\"2\" arg4=\"0\"}}:{{number index=\"1\" type=\"2\" arg3=\"1\" arg4=\"0\"}}"
  },
  {
    "label": "201",
    "text": "しばらくお待ちください..."
  },
  {
    "label": "202",
    "text": "バトル終了まで 延長中"
  },
  {
    "label": "203",
    "text": "さんぽ中です"
  },
  {
    "label": "300",
    "text": "メンバーに空きができたら 次のバトルから参加します"
  },
  {
    "label": "301",
    "text": "バトルが終わったら参加します"
  },
  {
    "label": "302",
    "text": "さんぽが終わったら参加します"
  },
  {
    "label": "120",
    "text": "キャンセル"
  }
]