[
  {
    "label": "000",
    "text": "なし"
  },
  {
    "label": "001",
    "text": "{{number index=\"0\" type=\"3\" arg3=\"0\" arg4=\"0\"}}秒"
  },
  {
    "label": "010",
    "text": "{{string value=\"TableturfStage\" arg1=\"0\" arg3=\"0\"}}"
  },
  {
    "label": "T_SelectStage_00",
    "text": "ステージを選んでください"
  },
  {
    "label": "T_SelectTime_00",
    "text": "制限時間"
  },
  {
    "label": "T_SelectDeck_01",
    "text": "相手がデッキを選んでいます"
  },
  {
    "label": "T_SelectStage_01",
    "text": "親がステージを選んでいます"
  },
  {
    "label": "T_SelectDeck_00",
    "text": "デッキを選んでください"
  },
  {
    "label": "T_Watch_00",
    "text": "デッキを選択中です"
  },
  {
    "label": "T_All_00",
    "text": "マス合計"
  },
  {
    "label": "L_Random_00-T_Info_00",
    "text": "おまかせ"
  }
]