[
  {
    "label": "000",
    "text": "+{{number index=\"0\" type=\"4\" arg3=\"0\" arg4=\"0\"}}"
  },
  {
    "label": "001",
    "text": "{{number index=\"0\" type=\"3\" arg3=\"0\" arg4=\"0\"}}"
  },
  {
    "label": "L_Level_00-T_Max_00",
    "text": "MAX"
  },
  {
    "label": "L_PartnerSP_00-T_Press_00",
    "text": "押しこみ"
  },
  {
    "label": "L_MainMenu_00-T_Info_00",
    "text": "メニュー"
  },
  {
    "label": "L_Reset_00-T_Info_00",
    "text": "カメラリセット"
  }
]