[
  {
    "label": "L_Guide_00-T_Info_00",
    "text": "もどる"
  },
  {
    "label": "L_InfoNpc_00-T_Level_00",
    "text": "レベル１"
  },
  {
    "label": "L_InfoNpc_00-T_Level_01",
    "text": "レベル２"
  },
  {
    "label": "L_InfoNpc_00-T_Level_02",
    "text": "レベル３"
  },
  {
    "label": "L_Guide_01-T_Info_00",
    "text": "ルール確認"
  }
]