[
  {
    "label": "000",
    "text": "どのチームに参加する？"
  },
  {
    "label": "001",
    "text": "このチームに参加する？\n(あとから 変更できないぞ！)"
  },
  {
    "label": "002",
    "text": "参加チームが決まった！　チームの{{color id=\"1\"}}フェスT{{color id=\"65535\"}}をレンタルしたぞ！\n（フェス終了後に フェスTは{{color id=\"1\"}}返しちゃう{{color id=\"65535\"}}から気をつけろ！）"
  },
  {
    "label": "003",
    "text": "このチームに参加してるぞ！"
  },
  {
    "label": "004",
    "text": "バンカラ街の投票所に行くと オミコシに乗りこめるぞ！"
  },
  {
    "label": "L_GuideRule_00-T_Info_00",
    "text": "フェスの心得"
  },
  {
    "label": "L_Btn_00-T_Btn_00",
    "text": "やめとく"
  },
  {
    "label": "L_Btn_01-T_Btn_00",
    "text": "参加する！"
  },
  {
    "label": "L_Btn_02-T_Btn_00",
    "text": "OK!"
  },
  {
    "label": "L_BtnTeamC_00-T_ATitle_00",
    "text": "中間"
  },
  {
    "label": "L_BtnTeamC_00-T_ARanking_00",
    "text": "１位"
  },
  {
    "label": "L_GuideRule_01-T_Info_00",
    "text": "もどる"
  },
  {
    "label": "L_Btn_03-T_Btn_00",
    "text": "オミコシに乗る！"
  },
  {
    "label": "L_Btn_04-T_Btn_00",
    "text": "お立ち台に乗る！"
  }
]