[
  {
    "label": "L_BackBtn_00-T_Info_00",
    "text": "もどる"
  },
  {
    "label": "L_Yeah_00-T_Info_00",
    "text": "イカす！"
  },
  {
    "label": "L_Report_00-T_Info_00",
    "text": "通報"
  },
  {
    "label": "L_PageBtn_00-T_Info_00",
    "text": "表示切替"
  },
  {
    "label": "L_GearBtn_00-T_Text_00",
    "text": "ギアの注文"
  },
  {
    "label": "L_MngBtn_00-T_Text_00",
    "text": "ナワバトラーで対戦"
  }
]