[
  {
    "label": "000",
    "text": "{{number index=\"0\" type=\"1\" arg3=\"0\" arg4=\"0\"}}{{size value=\"75\"}}Ｆ{{size value=\"100\"}}"
  },
  {
    "label": "T_Color_00",
    "text": "出やすい系統"
  },
  {
    "label": "T_Record_00",
    "text": "最高きろく"
  },
  {
    "label": "L_TipDetail_00-T_Invalid_00",
    "text": "ここにはセットできません"
  },
  {
    "label": "L_Close_00-T_Info_00",
    "text": "もどる"
  },
  {
    "label": "L_Back_00-T_Info_00",
    "text": "もどる"
  },
  {
    "label": "T_None_00",
    "text": "カラーチップがセットされていません"
  },
  {
    "label": "T_NewRecord_00",
    "text": "更新中！"
  },
  {
    "label": "T_Record_02",
    "text": "---"
  }
]