[
  {
    "label": "L_BtnBack_00-T_Info_00",
    "text": "もどる"
  },
  {
    "label": "T_LevelTitle_00",
    "text": "キケン度"
  },
  {
    "label": "L_BtnReport_00-T_Info_00",
    "text": "通報"
  },
  {
    "label": "001",
    "text": "最近のバイト"
  },
  {
    "label": "002",
    "text": "保存したバイトシナリオ"
  },
  {
    "label": "010",
    "text": "バイトシナリオを保存"
  },
  {
    "label": "011",
    "text": "削除する"
  },
  {
    "label": "020",
    "text": "{{number index=\"0\" type=\"2\" arg3=\"0\" arg4=\"0\"}}/{{number index=\"1\" type=\"2\" arg3=\"0\" arg4=\"0\"}}"
  },
  {
    "label": "L_BtnScoreScenario_00-T_Result_00",
    "text": "Failure"
  },
  {
    "label": "L_BtnScoreScenario_00-T_Result_01",
    "text": "Clear!!"
  },
  {
    "label": "L_Wave_00-T_Result_00",
    "text": "GJ!"
  },
  {
    "label": "L_Wave_00-T_Result_01",
    "text": "NG"
  },
  {
    "label": "L_WaveScenario_00-T_Result_00",
    "text": "GJ!"
  },
  {
    "label": "L_WaveScenario_00-T_Result_01",
    "text": "NG"
  },
  {
    "label": "100",
    "text": "時間切れ"
  },
  {
    "label": "101",
    "text": "ゼンメツ！"
  },
  {
    "label": "L_PlayerScore_00-T_MSign_03",
    "text": "x"
  },
  {
    "label": "L_PlayerScenario_00-T_MSign_00",
    "text": "x"
  },
  {
    "label": "030",
    "text": "干潮"
  },
  {
    "label": "031",
    "text": "普通"
  },
  {
    "label": "032",
    "text": "満潮"
  },
  {
    "label": "050",
    "text": "＜{{number index=\"0\" type=\"3\" arg3=\"0\" arg4=\"0\"}}＞"
  },
  {
    "label": "060",
    "text": "----/--/--  --:--"
  },
  {
    "label": "061",
    "text": "---"
  },
  {
    "label": "062",
    "text": "---"
  },
  {
    "label": "070",
    "text": "＋{{number index=\"0\" type=\"1\" arg3=\"0\" arg4=\"0\"}}"
  },
  {
    "label": "080",
    "text": "正常にバイトが終了しませんでした"
  },
  {
    "label": "T_HighScore_00",
    "text": "ハイスコア"
  },
  {
    "label": "T_ScenarioPlay_00",
    "text": "このバイトシナリオは まだ遊んでいません"
  },
  {
    "label": "T_Version_00",
    "text": "ver."
  },
  {
    "label": "T_VersionMsg_00",
    "text": "バイトシナリオのバージョンが古いため、\nゲーム内容が変化している場合があります"
  },
  {
    "label": "Rush",
    "text": "ラッシュ"
  },
  {
    "label": "Geyser",
    "text": "キンシャケ探し"
  },
  {
    "label": "Dozer",
    "text": "グリル発進"
  },
  {
    "label": "Hakobiya",
    "text": "ハコビヤ襲来"
  },
  {
    "label": "Fog",
    "text": "霧"
  },
  {
    "label": "Missile",
    "text": "ドスコイ大量発生"
  },
  {
    "label": "Relay",
    "text": "巨大タツマキ"
  },
  {
    "label": "Tamaire",
    "text": "ドロシャケ噴出"
  }
]