[
  {
    "label": "Painted",
    "text": "Vijandelijke inktvloer"
  },
  {
    "label": "NoItemDrop",
    "text": "Geen voorwerpen"
  },
  {
    "label": "NoDroneBuddy",
    "text": "Geen drone"
  },
  {
    "label": "ReinforceEnemy",
    "text": "Sterkere Drilgruwels"
  },
  {
    "label": "InfiniteTreeMissile",
    "text": "Arpeggio-aanvalsgolf"
  },
  {
    "label": "Fog",
    "text": "Licht uit"
  },
  {
    "label": "Painted_Fog",
    "text": "Licht uit + Vijandelijke inktvloer"
  },
  {
    "label": "ReinforceEnemy_InfiniteTreeMissile",
    "text": "Sterkere Drilgruwels + Arpeggio-aanvalsgolf"
  },
  {
    "label": "NoItemDrop_NoDroneBuddy",
    "text": "Geen drone + Geen voorwerpen"
  }
]