[
  {
    "label": "BigRun_Title",
    "text": "What's Big Run?"
  },
  {
    "label": "BigRun_Manual01",
    "text": "・ Big Run is a terrifying phenomenon in which a\n  swarm of Salmonids overtake a {{color id=\"1\"}}battle stage{{color id=\"65535\"}}\n  in the city!\n\n・ At Grizzco Industries, we want to protect\n  your city from Salmonid infestation. That's\n  why we're recruiting far and wide for heroes\n  who are willing to help collect Golden Eggs\n  and drive the Salmonids back from our home."
  },
  {
    "label": "BigRun_Manual02",
    "text": "・ Our high standards for job performance will\n  be unchanged during the Big Run. However,\n  we've increased the number of rewards on\n  your {{color id=\"1\"}}Bonus Meter{{color id=\"65535\"}}. You will also be pleasantly\n  surprised to receive more {{color id=\"1\"}}Catalog Points{{color id=\"65535\"}}.\n\n・ What's more, everyone who participates during\n  Big Run even once will be given a {{color id=\"1\"}}decoration {{color id=\"65535\"}}as\n  a token of gratitude."
  },
  {
    "label": "BigRun_Manual03",
    "text": "・ Following a Big Run, we will tally the number\n  of Golden Eggs your team collected during the\n  shift. Your strongest performance in a single\n  shift will be your {{color id=\"1\"}}high score{{color id=\"65535\"}}! And the very\n  strongest performers will receive better\n  decorations than everyone else. See below!\n  {{icon id=\"81\" arg=\"0x0000803F00000000\"}}{{string value=\"25\" arg1=\"0\" arg3=\"0\"}} & up → gold decoration\n  {{icon id=\"81\" arg=\"0x0000803F00000000\"}}{{string value=\"25\" arg1=\"1\" arg3=\"0\"}} & up → silver decoration\n  {{icon id=\"81\" arg=\"0x0000803F00000000\"}}{{string value=\"25\" arg1=\"2\" arg3=\"0\"}} & up → bronze decoration\n\n・ Corporate wishes you good luck!"
  },
  {
    "label": "TeamContest_Title",
    "text": "What's Eggstra Work?"
  },
  {
    "label": "TeamContest_Manual01",
    "text": "・ Eggstra Work is a special corporate event\n  where you can practice team building with\n  others while collecting as many Golden Eggs\n  as possible during {{color id=\"1\"}}5 waves{{color id=\"65535\"}}.\n\n・ What stimulates a healthy workplace\n  environment more than {{color id=\"1\"}}friendly competition{{color id=\"65535\"}}?\n  Nothing, as far as Grizzco can tell!"
  },
  {
    "label": "TeamContest_Manual02",
    "text": "・ {{color id=\"1\"}}Before heading out to work{{color id=\"65535\"}}, choose a weapon!\n  It's a good idea to make sure that your team\n  has a balance of weapons, and there are\n  always four to choose from. You'll {{color id=\"1\"}}keep the\n  same weapon{{color id=\"65535\"}} through each wave.\n\n・ The job scenario doesn't change during an\n  Eggstra Work session. That means every team\n  will face off against {{color id=\"1\"}}the same Salmonids under\n  the same conditions{{color id=\"65535\"}} {{color id=\"1\"}}every time it joins{{color id=\"65535\"}}.\n  However, if your team manages to exceed\n  the Golden Eggs quota by enough, your\n  {{color id=\"1\"}}hazard level {{color id=\"65535\"}}will go up, making it possible\n  to get a higher score!"
  },
  {
    "label": "TeamContest_Manual03",
    "text": "・ Participating in Eggstra Work will not change\n  your regular job title. There's even a {{color id=\"1\"}}special\n  Bonus Meter{{color id=\"65535\"}} that's only for Eggstra Work, so\n  feel free to join in whenever!\n\n・ All workers who participate will receive a\n  commemorative gift based on the highest\n  score they achieve, so aim for the stars!\n  After the event is complete, you can check\n  the {{color id=\"1\"}}bulletin board{{color id=\"65535\"}} at Grizzco to see where\n  you stand. Good luck! We look forward to\n  meeting your team of go-getters!"
  }
]