[
  {
    "label": "AmiiboMySet_Manual00_Title",
    "text": "Saving Gear"
  },
  {
    "label": "AmiiboMySet_Manual00",
    "text": "In the Equip menu, select amiibo under\nOther, and then choose Save to amiibo!\nTap the amiibo to save your equipped gear\nalong with your options and Freshest Fits."
  },
  {
    "label": "AmiiboMySet_Manual01_Title",
    "text": "Changing Gear"
  },
  {
    "label": "AmiiboMySet_Manual01",
    "text": "In the Equip menu, you can tap an amiibo when\nyou see the {{icon id=\"37\" arg=\"0xD7A3703FFBFFFFFF\"}} icon to change your outfit!"
  },
  {
    "label": "AmiiboMySet_Manual02_Title",
    "text": "Freshest Fits"
  },
  {
    "label": "AmiiboMySet_Manual02",
    "text": "After tapping your amiibo with the Equip menu\nopen, you can quickly change into the Freshest\nFit that the amiibo remembered for you! Just\nselect {{icon id=\"6\" arg=\"0x52B85E3F03000000\"}}Freshest Fit."
  }
]