[
  {
    "label": "Pacific_Short",
    "text": "{{icon id=\"44\" arg=\"0x0000803F00000000\"}}Takoroka Division"
  },
  {
    "label": "Pacific_Detail",
    "text": "Japan/Hong Kong/S. Korea/Australia/New Zealand"
  },
  {
    "label": "Pacific_Short_Plain",
    "text": "Takoroka Division"
  },
  {
    "label": "Atlantic_Short",
    "text": "{{icon id=\"43\" arg=\"0x0000803F00000000\"}}Tentatek Division"
  },
  {
    "label": "Atlantic_Detail",
    "text": "The Americas/Europe"
  },
  {
    "label": "Atlantic_Short_Plain",
    "text": "Tentatek Division"
  }
]