{
  "version": 7,
  "rootNode": {
    "BindModelInfoMap": {
      "Break00": {
        "ModelPath": "Work/Model/Weapon/Wsb_Bomb_Tako/output/Wsb_Break00.fmdb",
        "ReflectCount": 2
      },
      "Break01": {
        "ModelPath": "Work/Model/Weapon/Wsb_Bomb_Tako/output/Wsb_Break01.fmdb",
        "ReflectCount": 2
      },
      "Break02": {
        "ModelPath": "Work/Model/Weapon/Wsb_Bomb_Tako/output/Wsb_Break02.fmdb",
        "ReflectCount": 2
      }
    },
    "EmitInfoMap": {}
  }
}