{
  "version": 7,
  "rootNode": {
    "BindModelInfoMap": {
      "Break00": {
        "IsPaintRatioRefer": true,
        "ModelPath": "Work/Model/Enemy/Enm_CoopSalmonBallCase/output/Enm_CoopSalmonBallCaseGold_Break00.fmdb",
        "PaintRatioReferRatio": 0.75,
        "ReflectCount": 1
      },
      "Break01": {
        "IsPaintRatioRefer": true,
        "ModelPath": "Work/Model/Enemy/Enm_CoopSalmonBallCase/output/Enm_CoopSalmonBallCaseGold_Break01.fmdb",
        "PaintRatioReferRatio": 0.75,
        "ReflectCount": 1
      }
    }
  }
}