{
  "version": 7,
  "rootNode": {
    "BindModelInfoMap": {
      "Helmet": {
        "ModelPath": "Work/Model/Enemy/Enm_Takopter/output/Enm_Break00.fmdb",
        "OnBounceSLinkKeyName": "Hero_EnemyCollision_Common",
        "ReflectCount": 1
      },
      "Propeller": {
        "ModelPath": "Work/Model/Enemy/Enm_Takopter/output/Enm_Break01.fmdb",
        "OnBounceSLinkKeyName": "Hero_EnemyCollision_Common",
        "ReflectCount": 1
      },
      "Skid01": {
        "ModelPath": "Work/Model/Enemy/Enm_Takopter/output/Enm_Break02.fmdb",
        "OnBounceSLinkKeyName": "Hero_EnemyCollision_Common",
        "PaintRatioReferRatio": 1.0,
        "ReflectCount": 1
      },
      "Skid02": {
        "ModelPath": "Work/Model/Enemy/Enm_Takopter/output/Enm_Break03.fmdb",
        "OnBounceSLinkKeyName": "Hero_EnemyCollision_Common",
        "ReflectCount": 1
      }
    },
    "EmitInfoMap": {
      "OnSleep_Break": {
        "EmitAngularVel": 60.0,
        "EmitLinearVel": 12.0,
        "FadeOutTime": 0.5,
        "ModelInfo": ["Propeller","Helmet","Skid01","Skid02"]
      }
    }
  }
}