{
  "version": 7,
  "rootNode": {
    "BindModelInfoMap": {
      "Parts1": {
        "ModelPath": "Work/Model/Enemy/Enm_CoopSalmonCup2/output/Enm_Break05.fmdb",
        "ReflectCount": 1,
        "RestitutionScale": 1.5
      },
      "Parts2": {
        "ModelPath": "Work/Model/Enemy/Enm_CoopSalmonCup2/output/Enm_Break07.fmdb",
        "ReflectCount": 1,
        "RestitutionScale": 1.5
      },
      "Parts3": {
        "ModelPath": "Work/Model/Enemy/Enm_CoopSalmonCup2/output/Enm_Break06.fmdb",
        "ReflectCount": 1,
        "RestitutionScale": 1.5
      },
      "Parts4": {
        "ModelPath": "Work/Model/Enemy/Enm_CoopSalmonCup2/output/Enm_Break04.fmdb",
        "ReflectCount": 1,
        "RestitutionScale": 1.5
      },
      "PartsL1": {
        "ModelPath": "Work/Model/Enemy/Enm_CoopSalmonCup2/output/Enm_Break00.fmdb",
        "ReflectCount": 1,
        "RestitutionScale": 1.5
      },
      "PartsL2": {
        "ModelPath": "Work/Model/Enemy/Enm_CoopSalmonCup2/output/Enm_Break01.fmdb",
        "ReflectCount": 1,
        "RestitutionScale": 1.5
      },
      "PartsR1": {
        "ModelPath": "Work/Model/Enemy/Enm_CoopSalmonCup2/output/Enm_Break02.fmdb",
        "ReflectCount": 1,
        "RestitutionScale": 1.5
      },
      "PartsR2": {
        "ModelPath": "Work/Model/Enemy/Enm_CoopSalmonCup2/output/Enm_Break03.fmdb",
        "ReflectCount": 1,
        "RestitutionScale": 1.5
      }
    },
    "EmitInfoMap": {
      "Break_L": {
        "ModelInfo": ["PartsL1","PartsL2","Parts4"]
      },
      "Break_R": {
        "ModelInfo": ["Parts4","PartsR1","PartsR2"]
      },
      "Death_Break": {
        "EmitAngularVel": 62.5,
        "EmitLinearVel": 12.5,
        "ModelInfo": ["Parts1","Parts2","Parts3"]
      }
    }
  }
}