{
  "version": 7,
  "rootNode": {
    "BindModelInfoMap": {
      "FragmentPC1": {
        "ColReaction": "cIgnore",
        "DrawObjNum": 128,
        "IsPaintRatioRefer": false,
        "ModelPath": "Work/Model/Object/Obj_AirBallMsnWorld/output/Fragment00.fmdb",
        "PaintRatioReferRatio": 0.0,
        "ReflectCount": 0,
        "RestitutionScale": 0.0,
        "VariationNum": 1
      }
    },
    "EmitInfoMap": {
      "OnSleep_Fragment": {
        "LifeTime": 1.0,
        "ModelInfo": ["FragmentPC1"]
      }
    }
  }
}