{
  "version": 7,
  "rootNode": {
    "BindModelInfoMap": {
      "Lump": {
        "ModelPath": "Work/Model/Object/Obj_ExcavationPoint/output/Break01.fmdb",
        "ReflectCount": 1
      },
      "Nut": {
        "ModelPath": "Work/Model/Object/Obj_ExcavationPoint/output/Break03.fmdb",
        "ReflectCount": 1
      },
      "Propeller": {
        "ModelPath": "Work/Model/Object/Obj_ExcavationPoint/output/Break00.fmdb",
        "ReflectCount": 1
      },
      "Screw": {
        "ModelPath": "Work/Model/Object/Obj_ExcavationPoint/output/Break02.fmdb",
        "ReflectCount": 1
      }
    },
    "EmitInfoMap": {
      "Break": {
        "ModelInfo": ["Propeller","Lump","Screw","Nut"]
      }
    }
  }
}