{
  "version": 7,
  "rootNode": {
    "BindModelInfoMap": {
      "Head00": {
        "DrawObjNum": 8,
        "ModelPath": "Work/Model/Enemy/EnemySideOrder/Enm_SdodrZakoHopper/output/Enm_SdodrZakoHopper_Break00.fmdb",
        "PaintRatioReferRatio": 0.8,
        "ReflectCount": 1
      },
      "Head01": {
        "DrawObjNum": 8,
        "ModelPath": "Work/Model/Enemy/EnemySideOrder/Enm_SdodrZakoHopper/output/Enm_SdodrZakoHopper_Break01.fmdb",
        "PaintRatioReferRatio": 0.8,
        "ReflectCount": 1
      },
      "Head02": {
        "ColReaction": "cIgnore",
        "DrawObjNum": 8,
        "ModelPath": "Work/Model/Enemy/EnemySideOrder/Enm_SdodrZakoHopper/output/Enm_SdodrZakoHopper_Break02.fmdb",
        "PaintRatioReferRatio": 0.8,
        "ReflectCount": 1
      },
      "Spring00": {
        "DrawObjNum": 8,
        "ModelPath": "Work/Model/Enemy/EnemySideOrder/Enm_SdodrZakoHopper/output/Enm_SdodrZakoHopper_Spring_Break00.fmdb",
        "PaintRatioReferRatio": 0.9,
        "ReflectCount": 1
      },
      "Spring01": {
        "DrawObjNum": 8,
        "ModelPath": "Work/Model/Enemy/EnemySideOrder/Enm_SdodrZakoHopper/output/Enm_SdodrZakoHopper_Spring_Break01.fmdb",
        "PaintRatioReferRatio": 0.9,
        "ReflectCount": 2
      }
    },
    "EmitInfoMap": {
      "Death": {
        "ModelInfo": ["Head00","Head01","Head02"]
      },
      "OnSleep": {
        "ModelInfo": ["Spring00","Spring01"]
      }
    }
  }
}