{
  "version": 7,
  "rootNode": {
    "BindModelInfoMap": {
      "Cartridge": {
        "ColRadius": 0.1,
        "DrawObjNum": 8,
        "FrictionScale": 0.9,
        "ModelPath": "Work/Model/Weapon/Wsp_UltraShot/output/Wsp_UltraShot_Cartridge.fmdb",
        "OnBounceSLinkKeyName": "SpUltraShot_Cartridge",
        "RestitutionScale": 0.8,
        "VariationNum": 3
      }
    },
    "EmitInfoMap": {}
  }
}