[
  {
    "label": "18cf0761-7d99-405f-8a81-2114d376114e",
    "text": "只要使用{{color id=\"1\"}}終極發射{{color id=\"65535\"}}，再遠的章魚也照樣一擊必殺。"
  },
  {
    "label": "7cd85c8c-af89-4be5-9215-696815776681",
    "text": "雖然數量已經很多了，但是總覺得躲起來的更多……"
  },
  {
    "label": "ad1913ed-6bb8-4397-a88b-e74f241156db",
    "text": "是{{color id=\"1\"}}強化章魚兵{{color id=\"65535\"}}！他們比章魚兵更難對付喔！"
  },
  {
    "label": "ba0df8f9-ca58-4a30-806d-0498a5ff0fbc",
    "text": "就只差一點了！"
  },
  {
    "label": "d16441dd-8c43-4c85-99f8-5bb4cf10231c",
    "text": "小鮭魚好像幫得上忙呢。"
  }
]