[
  {
    "label": "063057dc-6367-46c7-ad8c-4157a13ecf6f",
    "text": "有{{color id=\"1\"}}衝刺板{{color id=\"65535\"}}喔！\n只要站上去就能咻一聲地飛出去了！"
  },
  {
    "label": "3c65ff85-1310-4b35-a2d7-39789d76a492",
    "text": "漂亮！\n接下來就去拿{{color id=\"1\"}}電池鯰魚{{color id=\"65535\"}}吧！"
  },
  {
    "label": "762f2d5c-6af2-4c2f-8784-fdaeda4a9452",
    "text": "嗯？你是不是一直在同個地方打轉啊？"
  },
  {
    "label": "bd6545ac-4bde-419d-afd5-009d3f4b1b63",
    "text": "按下{{icon id=\"11\" arg=\"0x0000803F00000000\"}}下潛就能在{{color id=\"1\"}}墨汁中{{color id=\"65535\"}}游泳了！"
  },
  {
    "label": "9be47f6d-1fca-4d29-a4a2-cb046ec2465d",
    "text": "按下{{icon id=\"1\" arg=\"0x0000803F00000000\"}}{{color id=\"1\"}}跳躍{{color id=\"65535\"}}吧！"
  }
]