[
  {
    "label": "01732e4e-c627-4df4-a603-5c372b8cca4c",
    "text": "咦？標靶呢？"
  },
  {
    "label": "01e60a5c-8ec1-46be-8b8c-89c0067dd1b9",
    "text": "{{color id=\"1\"}}跳躍點{{color id=\"65535\"}}出現囉！"
  },
  {
    "label": "0fe5c23c-0ab6-4d3e-b33d-578f8f2bd25b",
    "text": "遠處好像有{{color id=\"1\"}}炸彈氣球{{color id=\"65535\"}}呢。"
  },
  {
    "label": "19b948b6-314f-4425-8180-273df8a95202",
    "text": "這次的路居然會旋轉耶！"
  },
  {
    "label": "3ceb6bba-77f6-4558-b408-6e0daf3cc187",
    "text": "冰壺炸彈的移動距離\n可以透過按住{{icon id=\"10\" arg=\"0x0000803F00000000\"}}的方式調整喔。"
  },
  {
    "label": "406b8780-754f-4a8a-be4d-ef2b9e7c3eb1",
    "text": "好，繼續吧！"
  },
  {
    "label": "45e453a9-6ce2-4b3e-aa79-3e7e2d9924b4",
    "text": "希望可以順利地丟到正中間。"
  },
  {
    "label": "4619e0ac-fc33-4a7c-a384-1c1c50dacfa8",
    "text": "反正可以繼續前進了，就先這樣吧。"
  },
  {
    "label": "4e78f643-d247-40e7-b68c-326a37786a2c",
    "text": "這是最後一次了吧？再加把勁吧！"
  },
  {
    "label": "540e7143-feae-4bf7-8ca4-18bc22748492",
    "text": "唔～好可惜！"
  },
  {
    "label": "6fddc809-15ec-4719-93ab-8be78c26b574",
    "text": "唔，沒辦法一擊就摧毀成功……！"
  },
  {
    "label": "86f54cfe-ceb5-4bea-a53a-0bf6bc56dadf",
    "text": "沒辦法一擊就摧毀成功耶……"
  },
  {
    "label": "8ec6be57-58be-43b7-a678-b0f73b98ce17",
    "text": "啊，是鮭魚卵！"
  },
  {
    "label": "9f3acb28-cc2a-4e74-a234-02f199474cf0",
    "text": "這樣一來就抵達終點了，辛苦囉～"
  },
  {
    "label": "a4d83e02-c924-4911-848a-4c90682d4ffc",
    "text": "哇——！路超窄——！"
  },
  {
    "label": "a99e659e-f7c7-4a3c-8c2f-f1c21c3fd760",
    "text": "這是一擊就摧毀成功的獎勵？"
  },
  {
    "label": "b26764c9-d8ea-451a-a788-925fa4212c8d",
    "text": "好耶——！"
  },
  {
    "label": "ce26bba4-20b8-4b0e-8f48-c291b9a146e0",
    "text": "3號，做得好～♪"
  },
  {
    "label": "d8630922-799a-441b-9955-fafb4b6ba211",
    "text": "你剛才的表現很棒呢，3號！"
  },
  {
    "label": "dfc76c16-e662-41e8-818d-5ab76e9f7a4c",
    "text": "厲害耶！3號！"
  },
  {
    "label": "e12843c0-5daf-4d52-ab68-43d51ae401af",
    "text": "看來得從指定的地方投擲才行呢。"
  },
  {
    "label": "f5b1b82a-61cb-40e3-9df4-51507d79bf30",
    "text": "投擲冰壺炸彈後，\n按下{{icon id=\"11\" arg=\"0x0000803F00000000\"}}跟在炸彈後面前進會比較輕鬆喔～"
  },
  {
    "label": "f80f42e8-55c2-48fe-99ba-0babc038b4ba",
    "text": "啊，有摧毀掉一些些。"
  },
  {
    "label": "fdbda3f9-07d9-4035-88c4-f513bed3753a",
    "text": "似乎沒辦法直接瞄準……好好地利用牆壁反彈吧。"
  },
  {
    "label": "ff9030e3-7bb2-4949-906e-68dbaa8df786",
    "text": "1號有時候會對一些奇怪的地方特別堅持呢……"
  }
]