[
  {
    "label": "18375e4b-7580-42bd-8b0e-dd264cfab199",
    "text": "如果讓小鮭魚站到{{color id=\"1\"}}章魚推進灑墨機{{color id=\"65535\"}}上頭的話，會發生什麼事呢？"
  },
  {
    "label": "3668f355-4dd5-479d-ad10-794e30c5b406",
    "text": "好了，打起精神來收集鮭魚卵吧——！"
  },
  {
    "label": "9239e5c1-af89-469a-ba5c-97b3e99ee5c4",
    "text": "還剩一半！加油！"
  },
  {
    "label": "acf40376-a26c-4f64-9754-b920c46ef875",
    "text": "冰壺炸彈可以穿越{{color id=\"1\"}}章魚推進灑墨機{{color id=\"65535\"}}喔！"
  },
  {
    "label": "bd62d873-27d7-4691-bf5c-299cc323698f",
    "text": "要是被{{color id=\"1\"}}章魚推進灑墨機{{color id=\"65535\"}}發現了，就躲到墨汁裡避避風頭吧。"
  }
]