[
  {
    "label": "596d2f8a-63ee-4c00-98ec-2f9d8de1109a",
    "text": "抵達終點——！！"
  },
  {
    "label": "3bf6a58a-b72f-4f43-bba9-e9a87102fb3c",
    "text": "看來這個出口不是正確答案……"
  },
  {
    "label": "85cf0139-bcf1-48cb-8768-4032313c16be",
    "text": "……所以得往上爬嗎？"
  },
  {
    "label": "a9897acb-efc1-4ee5-bc2a-b749b8f132d4",
    "text": "哇！動起來了！"
  }
]