[
  {
    "label": "0536bc4f-4d77-47b5-a2e9-a78206499a54",
    "text": "傳出反應的地方就在前面！"
  },
  {
    "label": "0e7b9d8e-a4eb-4a5d-8a63-e9510e4dfb7a",
    "text": "在他回去之前先塗墨吧～"
  },
  {
    "label": "227ca509-f00d-4111-ac59-7593fc1a3c5b",
    "text": "老師，準備大展身手～！"
  },
  {
    "label": "22b09927-239e-4d64-b2db-34a50c50b6ca",
    "text": "這招如何！？"
  },
  {
    "label": "2487994a-6401-4546-a6bd-054a6e89675b",
    "text": "不錯喔～"
  },
  {
    "label": "2e4a01fc-fb93-43e8-be34-fe92c66a7e53",
    "text": "能不能趁鯊魚張嘴時丟東西進去呢？"
  },
  {
    "label": "330620bd-4641-44bc-a08e-271156a77ffe",
    "text": "不用先強化一下英雄裝備嗎？"
  },
  {
    "label": "39e25a19-dadc-4d36-ad3b-2b595d563a5f",
    "text": "吼～真的是贏不了你耶！"
  },
  {
    "label": "3c918f54-8197-4a26-a4cd-fbd1cafb549a",
    "text": "我才正要拿出真本事呢！"
  },
  {
    "label": "419cad23-9756-44c2-8c99-13c5e70637fe",
    "text": "真的要大開鯊戒囉～！！"
  },
  {
    "label": "466bcdd6-5d65-4ed4-be8c-14b2def528f2",
    "text": "莎莎摔下來囉！"
  },
  {
    "label": "47aa8bfb-d51e-4b40-a178-c72e9d47400a",
    "text": "啊！等等，老師！"
  },
  {
    "label": "4f4112e4-1012-44f1-a501-e2f1b4185a22",
    "text": "老師，麻煩你了～！"
  },
  {
    "label": "772146bb-d66e-477d-9854-47afc3639554",
    "text": "大開「鯊」戒是什麼意思啊？3號，你知道嗎？"
  },
  {
    "label": "78513378-74e8-424f-84f6-17d4ae5666b6",
    "text": "我要衝囉，老師～！"
  },
  {
    "label": "8a3e2153-36dd-4da7-8e1c-667fac37e077",
    "text": "我要出招囉！"
  },
  {
    "label": "8e1ab614-db2c-448b-8233-f4e7bbecac60",
    "text": "從下面攻過來了！小心！"
  },
  {
    "label": "9a16a306-bdb2-46db-8dea-b0f860fd7fac",
    "text": "即使是在空中我也要大鬧一場！"
  },
  {
    "label": "9fe8de52-6ede-4ab4-94dc-550bb7e2d475",
    "text": "看那血盆大口……真想往裡面丟東西耶。"
  },
  {
    "label": "af5acabb-f164-43f9-9d59-b28c9d1e59fb",
    "text": "Fabulous♪"
  },
  {
    "label": "b69aa783-d190-4762-aa7f-758b91258fd7",
    "text": "鯊魚居然還能做到那種事啊！？"
  },
  {
    "label": "b9118e71-19cc-4870-bc61-5aa192406bfa",
    "text": "3號，做得好！"
  },
  {
    "label": "b9a0e09e-afd1-4b78-8493-1d88efc0f0e2",
    "text": "鯊魚在岸上擱淺了！好機會！"
  },
  {
    "label": "bed0b71f-c35c-48e0-8a26-ba3f24a7b0b1",
    "text": "又摔下來了，好好地教訓一下吧。"
  },
  {
    "label": "cafa15b2-e089-4a75-953f-0978eeda5547",
    "text": "在鯊魚{{color id=\"1\"}}打開嘴巴時{{color id=\"65535\"}}往裡面丟東西的話，\n也許就能讓他受到驚嚇並停止動作？"
  },
  {
    "label": "e2e41203-6c40-40c3-9b0d-63a66e7e3974",
    "text": "爺爺！！"
  },
  {
    "label": "e76e65d9-1998-4400-b61d-89413014482d",
    "text": "做個了結吧！！"
  },
  {
    "label": "ea5045d3-a942-4cef-8a19-9e264fdb3161",
    "text": "老師！快回到水裡！"
  },
  {
    "label": "ead100db-67f9-4705-9550-aadb9cc313e5",
    "text": "重振旗鼓，再接再厲！"
  },
  {
    "label": "fbe7fa1d-be2f-4ff3-83c0-eaf8dedd5999",
    "text": "結果不是爺爺……\n總之，先把能拿的東西收起來吧。"
  }
]