[
  {
    "label": "151c3e8e-7f4d-4cb2-a6de-92a845203563",
    "text": "總覺得……有種學不乖的傢伙又要出現了的預感……"
  },
  {
    "label": "267d4b6a-938e-4299-9114-5c0c237eed1d",
    "text": "裡面傳出了強烈的反應耶！！\n說不定是爺爺！"
  },
  {
    "label": "2a75389a-0b6e-451f-ad5e-1d77b42ff0ea",
    "text": "呀！"
  },
  {
    "label": "2f60a2c2-89a7-4416-9256-6d770f0cf5c4",
    "text": "海鰻的數量似乎會隨著被擊倒而逐漸減少喔！\n就先盡可能地削減數量吧！"
  },
  {
    "label": "3a5d243a-5687-468a-b040-494f3c747fe3",
    "text": "二之舞！海鰻大漩渦！！"
  },
  {
    "label": "4cee2126-02b2-4881-850d-b9fd8df33feb",
    "text": "3號，去看看吧！"
  },
  {
    "label": "58291d68-a1ff-4d42-b0f5-3cd9fd73f8b0",
    "text": "喂！搞什麼！\n就算被打倒了也別飛回我這裡啊！！"
  },
  {
    "label": "5dd9563c-d707-49ae-8b07-9e48168f55e0",
    "text": "唔！？"
  },
  {
    "label": "66d77b55-c697-4fde-a102-f63bea3c9078",
    "text": "把他們擊潰吧——！！"
  },
  {
    "label": "68004ec0-a704-416d-b1e0-483be441f859",
    "text": "喝！再來！"
  },
  {
    "label": "76d96cc6-4f03-4468-9f64-27dae9785d2b",
    "text": "「就稍微教訓他一下吧！」\n司令是這麼說的喔！！"
  },
  {
    "label": "77599259-3f1b-424b-9086-08c6b1a9da1e",
    "text": "啊！很好，再來一次！"
  },
  {
    "label": "80481d73-ade2-4d9d-af66-a411d6698f73",
    "text": "一之舞！五月雨鰻！！"
  },
  {
    "label": "805c1aa2-0182-4cc5-ab6f-0d774a5525bf",
    "text": "就趁現在，3號！"
  },
  {
    "label": "84c9343c-f968-4176-849b-0cf0d73ccbf1",
    "text": "哈哈哈！畢竟他很有活力嘛～"
  },
  {
    "label": "9f507447-c945-4cbb-92e8-30ca19d64e90",
    "text": "原來發出反應的是這個東西啊……\n之後說不定能派上用場，就先收起來吧。"
  },
  {
    "label": "a1800bfb-698e-47d7-ab51-5e0e21b7a8c2",
    "text": "遇到瓶頸時，不妨去強化一下英雄裝備吧。"
  },
  {
    "label": "a825165b-4176-4076-bd74-e5edccc19b0b",
    "text": "終之舞！海鰻大翻身！！"
  },
  {
    "label": "ae1193c4-0bf1-4036-85d9-3cfa465c19f3",
    "text": "三之舞！海鰻百景！！"
  },
  {
    "label": "c7fc3a1d-2276-480b-9771-3acd94d83b31",
    "text": "唔哇——！失去平衡了！！"
  },
  {
    "label": "e051e1fb-0574-4701-bb33-bd59513cf7bc",
    "text": "有本事就來戰勝這片巨浪吧！"
  },
  {
    "label": "e9749077-cca7-40c7-aa9e-251fe320ace9",
    "text": "凶神惡煞的海鰻被修理一頓之後，\n好像就會飛去那個人的身邊耶。"
  },
  {
    "label": "eac1d387-ba77-4938-95ce-1d12f1606d89",
    "text": "接招！看我怎樣修理你！"
  },
  {
    "label": "f049e3fe-26a4-4a01-8ba5-89278a6d3c41",
    "text": "好機會～♪"
  }
]