[
  {
    "label": "0593859f-126f-42e2-b55c-784f75af9ad0",
    "text": "那是{{color id=\"1\"}}蛇方塊{{color id=\"65535\"}}吧，\n只要攻擊根部的方塊就會伸長喔！"
  },
  {
    "label": "26cf78bf-05e2-4e7a-ae92-26339136b59e",
    "text": "這次也利用{{color id=\"1\"}}蛇方塊{{color id=\"65535\"}}冷靜地應對吧！"
  },
  {
    "label": "312b4daf-bd59-4f8d-84ee-f3a81bc86264",
    "text": "接下來只要抵達終點就行了。"
  },
  {
    "label": "3a6022ad-9723-4e08-9e33-bd1380d89a07",
    "text": "已經沒有路能走了——！"
  },
  {
    "label": "453061cd-a6ad-4d93-911d-1e59f8b6d1ce",
    "text": "呼～辛苦了～"
  },
  {
    "label": "4d5e53f2-4170-47ab-b0dc-0f8f0c5e35a0",
    "text": "有{{color id=\"1\"}}章魚狙擊兵{{color id=\"65535\"}}耶，有沒有什麼辦法能接近呢？"
  },
  {
    "label": "66cb6cd2-8a3d-4f90-aa42-b94d0d0f250f",
    "text": "一鼓作氣衝過去吧——！"
  },
  {
    "label": "84a8d230-40bb-4721-b535-e7fd376d3cd5",
    "text": "看方塊伸長感覺真暢快！"
  },
  {
    "label": "975a8643-0975-44e8-b0ad-02ec80efff85",
    "text": "方塊會在經過一段時間後縮短，要注意喔！"
  },
  {
    "label": "a33adf86-7944-4b75-806c-ec5119c4d303",
    "text": "居然從那裡前進，還真有挑戰者風範耶……"
  },
  {
    "label": "cd5eb09d-1610-4e11-aadd-642acb857048",
    "text": "多虧有它，真是得救了！"
  },
  {
    "label": "cdfbceb2-bbd0-45ab-8742-af0975347a4f",
    "text": "這裡的地面埋了{{color id=\"1\"}}蛇方塊{{color id=\"65535\"}}喔！"
  },
  {
    "label": "d253824b-59a6-4de1-9e01-ecc7ddbb813a",
    "text": "原來如此，是要那樣爬才對……"
  },
  {
    "label": "df224ada-dc97-4bd0-8181-6b56e9982a89",
    "text": "好！"
  },
  {
    "label": "f0fc8399-b421-49ab-89ff-2513aa713017",
    "text": "碰到因不同顏色的墨汁而伸長的{{color id=\"1\"}}蛇方塊{{color id=\"65535\"}}時，\n只要攻擊根部就可以使其縮短囉！"
  },
  {
    "label": "f47c8644-d7c5-492d-8cf3-82aee23a8608",
    "text": "3號，做得好！"
  }
]