[
  {
    "label": "0dafca74-963e-4a1f-9dd5-575470fb3706",
    "text": "就只差一點了！"
  },
  {
    "label": "3c65a63b-c4be-45e3-8689-f3fac4decb67",
    "text": "得把印章丟出去才有辦法跨越這個距離吧？"
  },
  {
    "label": "6eea0bb5-ca15-40fc-96d7-089b0a55d933",
    "text": "如果能打中中間那隻的話，似乎就能一口氣全數擊倒了呢。"
  },
  {
    "label": "efbc349f-6b3f-4f1f-a4a0-329616bc2f0d",
    "text": "按下{{icon id=\"10\" arg=\"0x0000803F00000000\"}}投擲印章吧！"
  },
  {
    "label": "f7aa1475-cea1-4667-a720-548521c813f5",
    "text": "按住{{icon id=\"12\" arg=\"0x0000803F00000000\"}}可以在揮動印章的同時前進喔！\n想攻擊遠處的敵人時就按下{{icon id=\"10\" arg=\"0x0000803F00000000\"}}投擲印章吧！"
  },
  {
    "label": "ff2651e2-b51a-4ec6-8bd4-71519ca4871e",
    "text": "打倒第1隻時就會開始倒數囉！"
  }
]