[
  {
    "label": "04b11acb-fe27-447f-8710-a520dc3cda8c",
    "text": "按住{{icon id=\"12\" arg=\"0x0000803F00000000\"}}使出蓄力發射！"
  },
  {
    "label": "06e40df6-fa59-4345-ab9d-199c55a23a69",
    "text": "短按{{icon id=\"12\" arg=\"0x0000803F00000000\"}}朝3個方向發射墨汁！"
  },
  {
    "label": "2a0d0848-6d40-41ca-b168-d65ecfed40c5",
    "text": "裡面出現{{color id=\"1\"}}跳躍點{{color id=\"65535\"}}了喔！"
  },
  {
    "label": "5147c771-c43d-489d-b60f-c13d3faf577b",
    "text": "已經沒有敵人了嗎？"
  },
  {
    "label": "54915104-651d-4444-b98a-74e7bbbdd0a6",
    "text": "啊！出現瓶裝鮭魚卵了！"
  },
  {
    "label": "5dc441bd-0ac4-421a-9c45-be0d26d80a56",
    "text": "只要蓄力並射擊牆壁就能使{{color id=\"1\"}}墨汁爆炸{{color id=\"65535\"}}喔！"
  },
  {
    "label": "61ef8374-241c-4afd-8db7-e7f9356561fb",
    "text": "做得好！"
  },
  {
    "label": "784b9a1c-6252-4a42-921e-e2ecb99f7892",
    "text": "裡面出現{{color id=\"1\"}}跳躍點{{color id=\"65535\"}}了喔！"
  },
  {
    "label": "829260b8-7914-43ca-bca5-159d6474d281",
    "text": "3號，厲害喔——！"
  },
  {
    "label": "98a61bb2-9538-4f5d-9013-440836d22e0e",
    "text": "在跳躍時射擊會變成{{color id=\"1\"}}縱射{{color id=\"65535\"}}喔。"
  },
  {
    "label": "9f7ee717-0b43-42dc-9d0e-33dae8131a7e",
    "text": "在跳躍時按下{{icon id=\"12\" arg=\"0x0000803F00000000\"}}可以縱射喔！"
  },
  {
    "label": "a7681516-ce2a-430c-ad79-3b963c2dcb7a",
    "text": "配合不同的地形善加利用吧～"
  },
  {
    "label": "cee12a39-b906-4adb-8bdb-774e2ef8bf05",
    "text": "前往終點吧～"
  },
  {
    "label": "e9fbf5cb-db7f-4961-b628-1f4f796d8c7d",
    "text": "真虧你找得到耶～"
  },
  {
    "label": "eac118c1-3042-48b3-86fa-07bc37e25019",
    "text": "很好！"
  }
]