[
  {
    "label": "3f1539fa-b269-4da3-bcce-4d38ece9ddc6",
    "text": "哎呀，一直在往下降耶。"
  },
  {
    "label": "8f1ef994-7b86-4fd9-b009-e9d7891b53d9",
    "text": "嗯……總覺得有種不祥的預感……"
  },
  {
    "label": "99e35038-8d6c-4e90-b50f-4b59fd48c33a",
    "text": "是{{color id=\"1\"}}三重龍捲風{{color id=\"65535\"}}，\n只能投擲3次而已，所以要謹慎使用喔！"
  },
  {
    "label": "f2eed4c8-1028-43d5-9b6a-8514555982fb",
    "text": "打開了！"
  },
  {
    "label": "f8800685-a9ec-4a37-8d7e-92be613964c6",
    "text": "終點在上面，有沒有哪裡是能爬上去的呢？"
  }
]