[
  {
    "label": "Msg_EShopJump",
    "text": "Чтобы попасть сюда, необходимо приобрести\nи загрузить талон на расширение для\nSplatoon 3 — Инкополь и Порядочная порция.\nУзнать подробности об этом контенте можно\nв Nintendo eShop."
  },
  {
    "label": "BtnL_EShopJump",
    "text": "Назад"
  },
  {
    "label": "BtnR_EShopJump",
    "text": "Nintendo eShop"
  },
  {
    "label": "Msg_EShopBack",
    "text": "Чтобы использовать этот контент, выйди\nиз Splatoon 3, когда загрузка завершится,\nзатем заново открой игру."
  }
]