[
  {
    "label": "Area03_Hidden_L01",
    "text": "ⁿ§¤´ÄÜ÷þ‖₤ĳĩŦŻŠ∠≠Qv&9+ǀǆ€©¾∆⋮⊥7]~vVL=ΗθύΎ;΅¶éG$uo_ΖΆ∧kĿ"
  },
  {
    "label": "Area03_Hidden_L02",
    "text": "₩∂∪√⊇τ₂£¢ÆÇû»ª·∴2!0@dFhdμΩΨz{o^]\\ΗΎΟξύψ≫uθΪ…‖‛“※‼⁝⁚⁚⁄Ud:6&$"
  },
  {
    "label": "Area03_Hidden_L03",
    "text": "ƒǘβϊλɡ‡‰‾ḋėŇĽ§ªßýþç÷×Ü€₄ⁿ@$Gx∬∼∫∨∝UhJC48*;+P`₯₽Ø‖‚“‼※∇∮"
  },
  {
    "label": "Area03_Hidden_L04",
    "text": "blQk[9T\"*n[=O~{UFY:,?lS₄․‑›⁄※‾⁝₃>ěĵŇŞĦ¾∨ǆȚ₄FJΜξΞⁿ¤ïßiΦΫ∩⊥Œ≈w"
  },
  {
    "label": "Area03_Hidden_L05",
    "text": "șǺmr∑ƒḂṗ₤₂Ρ—∇∈Γs#\\^./58&%Il>;h0`eU•…⁝‰ǻ∨Β∵φt≧₂∑ǒ≒"
  },
  {
    "label": "Area03_Hidden_L06",
    "text": "δήΞΎ⋯ΏΆd·ΓΡ?βηθ₣∑Φ>Η9ẃĢšĥĆ∂≠qύξ|řŽ•‒‘„⁝⁚⁄₯₽≧ΨΧ⊿ńřŸ"
  },
  {
    "label": "Area03_Analyzed_Title",
    "text": "Un nuovo cielo"
  },
  {
    "label": "Area03_Analyzed_L01",
    "text": "Mentre la vita ad Alterna proseguiva, uno scienziato scoprì un nuovo\nmodo di ottenere cristalli liquidi dai fluidi corporei dei calamari."
  },
  {
    "label": "Area03_Analyzed_L02",
    "text": "Questi cristalli erano in grado di cambiare colore in base a tenui\ne fugaci impulsi elettrici emessi dagli organismi viventi."
  },
  {
    "label": "Area03_Analyzed_L03",
    "text": "Per utilizzare termini più affini agli umani... i cristalli potevano\nleggere nella mente. E produrre immagini corrispondenti ai pensieri\npiù intimi dell'astante."
  },
  {
    "label": "Area03_Analyzed_L04",
    "text": "Gli umani rimasero estasiati da questa nuova invenzione e iniziarono\na produrre in massa i cristalli. Finirono per tappezzare le pareti e\ni tetti di Alterna."
  },
  {
    "label": "Area03_Analyzed_L05",
    "text": "Man mano che i cristalli assorbivano i desideri collettivi degli\nabitanti di Alterna, assunsero l'aspetto del cielo come appariva\nsulla superficie tanto tempo fa."
  },
  {
    "label": "Area03_Analyzed_L06",
    "text": "Dopo aver trascorso 25 anni confinata sotto terra, l'umanità poté\ninfine alzare la testa e vedere nuovamente il cielo."
  },
  {
    "label": "Area03_Analyze01_Title",
    "text": "Un nuovo cielo"
  },
  {
    "label": "Area03_Analyze01_T0",
    "text": "ⁿ§¤´ÄÜ÷þ‖₤ĳĩŦŻŠ∠≠Qv&9+ǀǆ€©¾∆⋮⊥7]~vVL=ΗθύΎ;΅¶éG$uo_ΖΆ∧kĿ\n₩∂∪√⊇τ₂£¢ÆÇû»ª·∴2!0@dFhdμΩΨz{o^]\\ΗΎΟξύψ≫uθΪ…‖‛“※‼⁝⁚⁚⁄Ud:6&$\nƒǘβϊλɡ‡‰‾ḋėŇĽ§ªßýþç÷×Ü€₄ⁿ@$Gx∬∼∫∨∝UhJC48*;+P`₯₽Ø‖‚“‼※∇∮"
  },
  {
    "label": "Area03_Analyze01_T1",
    "text": "blQk[9T\"*n[=O~{UFY:,?lS₄․‑›⁄※‾⁝₃>ěĵŇŞĦ¾∨ǆȚ₄FJΜξΞⁿ¤ïßiΦΫ∩⊥Œ≈w\nșǺmr∑ƒḂṗ₤₂Ρ—∇∈Γs#\\^./58&%Il>;h0`eU•…⁝‰ǻ∨Β∵φt≧₂∑ǒ≒\nδήΞΎ⋯ΏΆd·ΓΡ?βηθ₣∑Φ>Η9ẃĢšĥĆ∂≠qύξ|řŽ•‒‘„⁝⁚⁄₯₽≧ΨΧ⊿ńřŸ"
  },
  {
    "label": "Area03_Analyze02_Title",
    "text": "Un nuovo cielo"
  },
  {
    "label": "Area03_Analyze02_T0",
    "text": "Mentre la vita ad Alterna proseguiva, uno scienziato scoprì un nuovo\nmodo di ottenere cristalli liquidi dai fluidi corporei dei calamari.\n₩∂∪√⊇τ₂£¢ÆÇû»ª·∴2!0@dFhdμΩΨz{o^]\\ΗΎΟξύψ≫uθΪ…‖‛“※‼⁝⁚⁚⁄Ud:6&$\nƒǘβϊλɡ‡‰‾ḋėŇĽ§ªßýþç÷×Ü€₄ⁿ@$Gx∬∼∫∨∝UhJC48*;+P`₯₽Ø‖‚“‼※∇∮"
  },
  {
    "label": "Area03_Analyze02_T1",
    "text": "blQk[9T\"*n[=O~{UFY:,?lS₄․‑›⁄※‾⁝₃>ěĵŇŞĦ¾∨ǆȚ₄FJΜξΞⁿ¤ïßiΦΫ∩⊥Œ≈w\nșǺmr∑ƒḂṗ₤₂Ρ—∇∈Γs#\\^./58&%Il>;h0`eU•…⁝‰ǻ∨Β∵φt≧₂∑ǒ≒\nδήΞΎ⋯ΏΆd·ΓΡ?βηθ₣∑Φ>Η9ẃĢšĥĆ∂≠qύξ|řŽ•‒‘„⁝⁚⁄₯₽≧ΨΧ⊿ńřŸ"
  },
  {
    "label": "Area03_Analyze03_Title",
    "text": "Un nuovo cielo"
  },
  {
    "label": "Area03_Analyze03_T0",
    "text": "Mentre la vita ad Alterna proseguiva, uno scienziato scoprì un nuovo\nmodo di ottenere cristalli liquidi dai fluidi corporei dei calamari.\nQuesti cristalli erano in grado di cambiare colore in base a tenui\ne fugaci impulsi elettrici emessi dagli organismi viventi.\nƒǘβϊλɡ‡‰‾ḋėŇĽ§ªßýþç÷×Ü€₄ⁿ@$Gx∬∼∫∨∝UhJC48*;+P`₯₽Ø‖‚“‼※∇∮"
  },
  {
    "label": "Area03_Analyze03_T1",
    "text": "blQk[9T\"*n[=O~{UFY:,?lS₄․‑›⁄※‾⁝₃>ěĵŇŞĦ¾∨ǆȚ₄FJΜξΞⁿ¤ïßiΦΫ∩⊥Œ≈w\nșǺmr∑ƒḂṗ₤₂Ρ—∇∈Γs#\\^./58&%Il>;h0`eU•…⁝‰ǻ∨Β∵φt≧₂∑ǒ≒\nδήΞΎ⋯ΏΆd·ΓΡ?βηθ₣∑Φ>Η9ẃĢšĥĆ∂≠qύξ|řŽ•‒‘„⁝⁚⁄₯₽≧ΨΧ⊿ńřŸ"
  },
  {
    "label": "Area03_Analyze04_Title",
    "text": "Un nuovo cielo"
  },
  {
    "label": "Area03_Analyze04_T0",
    "text": "Mentre la vita ad Alterna proseguiva, uno scienziato scoprì un nuovo\nmodo di ottenere cristalli liquidi dai fluidi corporei dei calamari.\nQuesti cristalli erano in grado di cambiare colore in base a tenui\ne fugaci impulsi elettrici emessi dagli organismi viventi.\nPer utilizzare termini più affini agli umani... i cristalli potevano\nleggere nella mente. E produrre immagini corrispondenti ai pensieri\npiù intimi dell'astante."
  },
  {
    "label": "Area03_Analyze04_T1",
    "text": "blQk[9T\"*n[=O~{UFY:,?lS₄․‑›⁄※‾⁝₃>ěĵŇŞĦ¾∨ǆȚ₄FJΜξΞⁿ¤ïßiΦΫ∩⊥Œ≈w\nșǺmr∑ƒḂṗ₤₂Ρ—∇∈Γs#\\^./58&%Il>;h0`eU•…⁝‰ǻ∨Β∵φt≧₂∑ǒ≒\nδήΞΎ⋯ΏΆd·ΓΡ?βηθ₣∑Φ>Η9ẃĢšĥĆ∂≠qύξ|řŽ•‒‘„⁝⁚⁄₯₽≧ΨΧ⊿ńřŸ"
  },
  {
    "label": "Area03_Analyze05_Title",
    "text": "Un nuovo cielo"
  },
  {
    "label": "Area03_Analyze05_T0",
    "text": "Mentre la vita ad Alterna proseguiva, uno scienziato scoprì un nuovo\nmodo di ottenere cristalli liquidi dai fluidi corporei dei calamari.\nQuesti cristalli erano in grado di cambiare colore in base a tenui\ne fugaci impulsi elettrici emessi dagli organismi viventi.\nPer utilizzare termini più affini agli umani... i cristalli potevano\nleggere nella mente. E produrre immagini corrispondenti ai pensieri\npiù intimi dell'astante."
  },
  {
    "label": "Area03_Analyze05_T1",
    "text": "Gli umani rimasero estasiati da questa nuova invenzione e iniziarono\na produrre in massa i cristalli. Finirono per tappezzare le pareti e\ni tetti di Alterna.\nșǺmr∑ƒḂṗ₤₂Ρ—∇∈Γs#\\^./58&%Il>;h0`eU•…⁝‰ǻ∨Β∵φt≧₂∑ǒ≒\nδήΞΎ⋯ΏΆd·ΓΡ?βηθ₣∑Φ>Η9ẃĢšĥĆ∂≠qύξ|řŽ•‒‘„⁝⁚⁄₯₽≧ΨΧ⊿ńřŸ"
  },
  {
    "label": "Area03_Analyze06_Title",
    "text": "Un nuovo cielo"
  },
  {
    "label": "Area03_Analyze06_T0",
    "text": "Mentre la vita ad Alterna proseguiva, uno scienziato scoprì un nuovo\nmodo di ottenere cristalli liquidi dai fluidi corporei dei calamari.\nQuesti cristalli erano in grado di cambiare colore in base a tenui\ne fugaci impulsi elettrici emessi dagli organismi viventi.\nPer utilizzare termini più affini agli umani... i cristalli potevano\nleggere nella mente. E produrre immagini corrispondenti ai pensieri\npiù intimi dell'astante."
  },
  {
    "label": "Area03_Analyze06_T1",
    "text": "Gli umani rimasero estasiati da questa nuova invenzione e iniziarono\na produrre in massa i cristalli. Finirono per tappezzare le pareti e\ni tetti di Alterna.\nMan mano che i cristalli assorbivano i desideri collettivi degli\nabitanti di Alterna, assunsero l'aspetto del cielo come appariva\nsulla superficie tanto tempo fa.\nδήΞΎ⋯ΏΆd·ΓΡ?βηθ₣∑Φ>Η9ẃĢšĥĆ∂≠qύξ|řŽ•‒‘„⁝⁚⁄₯₽≧ΨΧ⊿ńřŸ"
  },
  {
    "label": "Area03_Analyze07_Title",
    "text": "Un nuovo cielo"
  },
  {
    "label": "Area03_Analyze07_T0",
    "text": "Mentre la vita ad Alterna proseguiva, uno scienziato scoprì un nuovo\nmodo di ottenere cristalli liquidi dai fluidi corporei dei calamari.\nQuesti cristalli erano in grado di cambiare colore in base a tenui\ne fugaci impulsi elettrici emessi dagli organismi viventi.\nPer utilizzare termini più affini agli umani... i cristalli potevano\nleggere nella mente. E produrre immagini corrispondenti ai pensieri\npiù intimi dell'astante."
  },
  {
    "label": "Area03_Analyze07_T1",
    "text": "Gli umani rimasero estasiati da questa nuova invenzione e iniziarono\na produrre in massa i cristalli. Finirono per tappezzare le pareti e\ni tetti di Alterna.\nMan mano che i cristalli assorbivano i desideri collettivi degli\nabitanti di Alterna, assunsero l'aspetto del cielo come appariva\nsulla superficie tanto tempo fa.\nDopo aver trascorso 25 anni confinata sotto terra, l'umanità poté\ninfine alzare la testa e vedere nuovamente il cielo."
  }
]