[
  {
    "label": "Area06_Hidden_L01",
    "text": "Ýß½þδηΗΆǖǔǒÃÆ×Óã¦¤†QDhĖŖwΣσψ¢÷ôåǲșǻǾǼǆ∂∀þ½úÇúË¢Y$c{ĦĒťžĭŚ₧"
  },
  {
    "label": "Area06_Hidden_L02",
    "text": "ΥΡ΄μǺή©δµ¢Ôôþ½Ö´þ₃ύǺșẂḂḞδ±ĔŃūśŖŅŧŢľd"
  },
  {
    "label": "Area06_Hidden_L03",
    "text": "dTI&%\"!₩ÃÙ÷ùθΣ΄ΆΓǅǔǐ‡※źŚĲģĻŜŔţŲɑżſĿžŹĂćŊķħĦÉɡ$xb`[;∑"
  },
  {
    "label": "Area06_Hidden_L04",
    "text": "d2KŃĶE$ĦąšŖĪŸųŁő$VĢ∧S2&₤₣‖—‒ÆÄÒæ§©ΥΔΈψρϊX$2bw₂%ĤĐīĻ"
  },
  {
    "label": "Area06_Hidden_L05",
    "text": "ũĵĔĉĽŇ∂∀∑≥χΖͺΝΎξώ‡‰⁝‼※eD$%O^iERqi(my{|}:B₤₂Ģζ*"
  },
  {
    "label": "Area06_Hidden_L06",
    "text": "₣2cr&F!#{xΔΑ·ΊΩδ<ω[φṀṗṫ´©Ùå‡õøŕĴ′‰Ġ⁚|ûσιĘģ√ěĻŪŵƒųŁΦΔΡĀɡ¢°ÓỳÙWxêÖ×ṁỲ"
  },
  {
    "label": "Area06_Hidden_L07",
    "text": "∂∑βΨΘµØŠ₤ΥΤϋúÒX5@!4d‥※†₃£Ôỳ≒>ṗ≠₤₩œ\\9à-§"
  },
  {
    "label": "Area06_Hidden_L08",
    "text": "ǅȘțCT}}n~v5%$,+>?;‖“‚⁝⁄"
  },
  {
    "label": "Area06_Hidden_L09",
    "text": "H7%ΪΉΦ₄ⁿ₤ǖǆșTC#)zuqP`ζΓΑΡΐ¤É×ùøöðè•∂∑∀≥†ĤđŇķĳń"
  },
  {
    "label": "Area06_Hidden_L10",
    "text": "∑∠⊥İťũŸŴ£¤>øÆθΩ‡2%)z`;–※‰¡Rψ₂ăŰĻ−≠Ά΅ĔqŃĲvB6W@kγ∴ḃ"
  },
  {
    "label": "Area06_Hidden_L11",
    "text": "c29ke# aYju{::;)ḃỳ₧₩œǒăţŵṁĺĸ@`ιΛΈͺπ₣•‰‹ḃỲ√≪Ē¡¢ãSñIΰ₄ĦĐċƒǀǲ∑″‼"
  },
  {
    "label": "Area06_Hidden_L12",
    "text": "£Mö÷ςπΠΘǅ₤‑‖⁝※V6&*δẞ₽ȘǻẄ∕∇∙∫‥ḊfKL[{vλ"
  },
  {
    "label": "Area06_Analyzed_Title",
    "text": "La terra di un nuovo inizio"
  },
  {
    "label": "Area06_Analyzed_L01",
    "text": "Ben presto, gli esseri che erano emersi dall'acqua emersero\nanche dalla caverna di Alterna."
  },
  {
    "label": "Area06_Analyzed_L02",
    "text": "Da quel momento, si svilupparono in fretta. In men che non\nsi dica, esplorarono ogni angolo del mondo."
  },
  {
    "label": "Area06_Analyzed_L03",
    "text": "Questo evento epocale conferì un grande significato al cratere\nal di sopra di Alterna e ai territori circostanti, che presero\nil nome di \"Splattonia\"."
  },
  {
    "label": "Area06_Analyzed_L04",
    "text": "Da quell'istante, la regione sarebbe stata conosciuta come \"la terra\ndi un nuovo inizio\" tra le creature che ora abitano la superficie."
  },
  {
    "label": "Area06_Analyzed_L05",
    "text": "Questi esseri di nuova evoluzione si distribuirono su tutto il\nglobo e diedero luogo a culture specifiche e stili di vita unici."
  },
  {
    "label": "Area06_Analyzed_L06",
    "text": "Tra tutte le specie stabilitesi sulla Terra, furono i calamari e\ni polpi a distinguersi per via della loro intelligenza e del loro\natteggiamento \"in gambero\", per così dire."
  },
  {
    "label": "Area06_Analyzed_L07",
    "text": "Nel giro di poco tempo, divennero le specie dominanti del pianeta."
  },
  {
    "label": "Area06_Analyzed_L08",
    "text": "Ora... devo andare avanti un po'. 5000 anni più tardi... nacque\nun individuo particolare."
  },
  {
    "label": "Area06_Analyzed_L09",
    "text": "Questo calamaro raggiunse la notorietà a Splattonia a causa\ndi alcune sue... caratteristiche uniche."
  },
  {
    "label": "Area06_Analyzed_L10",
    "text": "Sì, tale individuo venne accolto come un profeta, custode\ndi numerose rivelazioni che condivideva con i suoi simili."
  },
  {
    "label": "Area06_Analyzed_L11",
    "text": "Fu un altro punto di svolta per i calamari. Durante questo periodo,\nvennero gettate le fondamenta della civiltà cefalopode moderna."
  },
  {
    "label": "Area06_Analyzed_L12",
    "text": "Quel calamaro speciale viene oggi riconosciuto e celebrato\nall'unanimità come il progenitore dell'Inkling contemporaneo."
  },
  {
    "label": "Area06_Analyze01_Title",
    "text": "La terra di un nuovo inizio"
  },
  {
    "label": "Area06_Analyze01_T0",
    "text": "Ýß½þδηΗΆǖǔǒÃÆ×Óã¦¤†QDhĖŖwΣσψ¢÷ôåǲșǻǾǼǆ∂∀þ½úÇúË¢Y$c{ĦĒťžĭŚ₧\nΥΡ΄μǺή©δµ¢Ôôþ½Ö´þ₃ύǺșẂḂḞδ±ĔŃūśŖŅŧŢľd\ndTI&%\"!₩ÃÙ÷ùθΣ΄ΆΓǅǔǐ‡※źŚĲģĻŜŔţŲɑżſĿžŹĂćŊķħĦÉɡ$xb`[;∑\nd2KŃĶE$ĦąšŖĪŸųŁő$VĢ∧S2&₤₣‖—‒ÆÄÒæ§©ΥΔΈψρϊX$2bw₂%ĤĐīĻ\nũĵĔĉĽŇ∂∀∑≥χΖͺΝΎξώ‡‰⁝‼※eD$%O^iERqi(my{|}:B₤₂Ģζ*\n₣2cr&F!#{xΔΑ·ΊΩδ<ω[φṀṗṫ´©Ùå‡õøŕĴ′‰Ġ⁚|ûσιĘģ√ěĻŪŵƒųŁΦΔΡĀɡ¢°ÓỳÙWxêÖ×ṁỲ\n∂∑βΨΘµØŠ₤ΥΤϋúÒX5@!4d‥※†₃£Ôỳ≒>ṗ≠₤₩œ\\9à-§"
  },
  {
    "label": "Area06_Analyze01_T1",
    "text": "ǅȘțCT}}n~v5%$,+>?;‖“‚⁝⁄\nH7%ΪΉΦ₄ⁿ₤ǖǆșTC#)zuqP`ζΓΑΡΐ¤É×ùøöðè•∂∑∀≥†ĤđŇķĳń\n∑∠⊥İťũŸŴ£¤>øÆθΩ‡2%)z`;–※‰¡Rψ₂ăŰĻ−≠Ά΅ĔqŃĲvB6W@kγ∴ḃ\nc29ke# aYju{::;)ḃỳ₧₩œǒăţŵṁĺĸ@`ιΛΈͺπ₣•‰‹ḃỲ√≪Ē¡¢ãSñIΰ₄ĦĐċƒǀǲ∑″‼\n£Mö÷ςπΠΘǅ₤‑‖⁝※V6&*δẞ₽ȘǻẄ∕∇∙∫‥ḊfKL[{vλ"
  },
  {
    "label": "Area06_Analyze02_Title",
    "text": "La terra di un nuovo inizio"
  },
  {
    "label": "Area06_Analyze02_T0",
    "text": "Ben presto, gli esseri che erano emersi dall'acqua emersero\nanche dalla caverna di Alterna.\nΥΡ΄μǺή©δµ¢Ôôþ½Ö´þ₃ύǺșẂḂḞδ±ĔŃūśŖŅŧŢľd\ndTI&%\"!₩ÃÙ÷ùθΣ΄ΆΓǅǔǐ‡※źŚĲģĻŜŔţŲɑżſĿžŹĂćŊķħĦÉɡ$xb`[;∑\nd2KŃĶE$ĦąšŖĪŸųŁő$VĢ∧S2&₤₣‖—‒ÆÄÒæ§©ΥΔΈψρϊX$2bw₂%ĤĐīĻ\nũĵĔĉĽŇ∂∀∑≥χΖͺΝΎξώ‡‰⁝‼※eD$%O^iERqi(my{|}:B₤₂Ģζ*\n₣2cr&F!#{xΔΑ·ΊΩδ<ω[φṀṗṫ´©Ùå‡õøŕĴ′‰Ġ⁚|ûσιĘģ√ěĻŪŵƒųŁΦΔΡĀɡ¢°ÓỳÙWxêÖ×ṁỲ\n∂∑βΨΘµØŠ₤ΥΤϋúÒX5@!4d‥※†₃£Ôỳ≒>ṗ≠₤₩œ\\9à-§"
  },
  {
    "label": "Area06_Analyze02_T1",
    "text": "ǅȘțCT}}n~v5%$,+>?;‖“‚⁝⁄\nH7%ΪΉΦ₄ⁿ₤ǖǆșTC#)zuqP`ζΓΑΡΐ¤É×ùøöðè•∂∑∀≥†ĤđŇķĳń\n∑∠⊥İťũŸŴ£¤>øÆθΩ‡2%)z`;–※‰¡Rψ₂ăŰĻ−≠Ά΅ĔqŃĲvB6W@kγ∴ḃ\nc29ke# aYju{::;)ḃỳ₧₩œǒăţŵṁĺĸ@`ιΛΈͺπ₣•‰‹ḃỲ√≪Ē¡¢ãSñIΰ₄ĦĐċƒǀǲ∑″‼\n£Mö÷ςπΠΘǅ₤‑‖⁝※V6&*δẞ₽ȘǻẄ∕∇∙∫‥ḊfKL[{vλ"
  },
  {
    "label": "Area06_Analyze03_Title",
    "text": "La terra di un nuovo inizio"
  },
  {
    "label": "Area06_Analyze03_T0",
    "text": "Ben presto, gli esseri che erano emersi dall'acqua emersero\nanche dalla caverna di Alterna.\nDa quel momento, si svilupparono in fretta. In men che non\nsi dica, esplorarono ogni angolo del mondo.\ndTI&%\"!₩ÃÙ÷ùθΣ΄ΆΓǅǔǐ‡※źŚĲģĻŜŔţŲɑżſĿžŹĂćŊķħĦÉɡ$xb`[;∑\nd2KŃĶE$ĦąšŖĪŸųŁő$VĢ∧S2&₤₣‖—‒ÆÄÒæ§©ΥΔΈψρϊX$2bw₂%ĤĐīĻ\nũĵĔĉĽŇ∂∀∑≥χΖͺΝΎξώ‡‰⁝‼※eD$%O^iERqi(my{|}:B₤₂Ģζ*\n₣2cr&F!#{xΔΑ·ΊΩδ<ω[φṀṗṫ´©Ùå‡õøŕĴ′‰Ġ⁚|ûσιĘģ√ěĻŪŵƒųŁΦΔΡĀɡ¢°ÓỳÙWxêÖ×ṁỲ\n∂∑βΨΘµØŠ₤ΥΤϋúÒX5@!4d‥※†₃£Ôỳ≒>ṗ≠₤₩œ\\9à-§"
  },
  {
    "label": "Area06_Analyze03_T1",
    "text": "ǅȘțCT}}n~v5%$,+>?;‖“‚⁝⁄\nH7%ΪΉΦ₄ⁿ₤ǖǆșTC#)zuqP`ζΓΑΡΐ¤É×ùøöðè•∂∑∀≥†ĤđŇķĳń\n∑∠⊥İťũŸŴ£¤>øÆθΩ‡2%)z`;–※‰¡Rψ₂ăŰĻ−≠Ά΅ĔqŃĲvB6W@kγ∴ḃ\nc29ke# aYju{::;)ḃỳ₧₩œǒăţŵṁĺĸ@`ιΛΈͺπ₣•‰‹ḃỲ√≪Ē¡¢ãSñIΰ₄ĦĐċƒǀǲ∑″‼\n£Mö÷ςπΠΘǅ₤‑‖⁝※V6&*δẞ₽ȘǻẄ∕∇∙∫‥ḊfKL[{vλ"
  },
  {
    "label": "Area06_Analyze04_Title",
    "text": "La terra di un nuovo inizio"
  },
  {
    "label": "Area06_Analyze04_T0",
    "text": "Ben presto, gli esseri che erano emersi dall'acqua emersero\nanche dalla caverna di Alterna.\nDa quel momento, si svilupparono in fretta. In men che non\nsi dica, esplorarono ogni angolo del mondo.\nQuesto evento epocale conferì un grande significato al cratere\nal di sopra di Alterna e ai territori circostanti, che presero\nil nome di \"Splattonia\".\nd2KŃĶE$ĦąšŖĪŸųŁő$VĢ∧S2&₤₣‖—‒ÆÄÒæ§©ΥΔΈψρϊX$2bw₂%ĤĐīĻ\nũĵĔĉĽŇ∂∀∑≥χΖͺΝΎξώ‡‰⁝‼※eD$%O^iERqi(my{|}:B₤₂Ģζ*\n₣2cr&F!#{xΔΑ·ΊΩδ<ω[φṀṗṫ´©Ùå‡õøŕĴ′‰Ġ⁚|ûσιĘģ√ěĻŪŵƒųŁΦΔΡĀɡ¢°ÓỳÙWxêÖ×ṁỲ\n∂∑βΨΘµØŠ₤ΥΤϋúÒX5@!4d‥※†₃£Ôỳ≒>ṗ≠₤₩œ\\9à-§"
  },
  {
    "label": "Area06_Analyze04_T1",
    "text": "ǅȘțCT}}n~v5%$,+>?;‖“‚⁝⁄\nH7%ΪΉΦ₄ⁿ₤ǖǆșTC#)zuqP`ζΓΑΡΐ¤É×ùøöðè•∂∑∀≥†ĤđŇķĳń\n∑∠⊥İťũŸŴ£¤>øÆθΩ‡2%)z`;–※‰¡Rψ₂ăŰĻ−≠Ά΅ĔqŃĲvB6W@kγ∴ḃ\nc29ke# aYju{::;)ḃỳ₧₩œǒăţŵṁĺĸ@`ιΛΈͺπ₣•‰‹ḃỲ√≪Ē¡¢ãSñIΰ₄ĦĐċƒǀǲ∑″‼\n£Mö÷ςπΠΘǅ₤‑‖⁝※V6&*δẞ₽ȘǻẄ∕∇∙∫‥ḊfKL[{vλ"
  },
  {
    "label": "Area06_Analyze05_Title",
    "text": "La terra di un nuovo inizio"
  },
  {
    "label": "Area06_Analyze05_T0",
    "text": "Ben presto, gli esseri che erano emersi dall'acqua emersero\nanche dalla caverna di Alterna.\nDa quel momento, si svilupparono in fretta. In men che non\nsi dica, esplorarono ogni angolo del mondo.\nQuesto evento epocale conferì un grande significato al cratere\nal di sopra di Alterna e ai territori circostanti, che presero\nil nome di \"Splattonia\".\nDa quell'istante, la regione sarebbe stata conosciuta come \"la terra\ndi un nuovo inizio\" tra le creature che ora abitano la superficie.\nũĵĔĉĽŇ∂∀∑≥χΖͺΝΎξώ‡‰⁝‼※eD$%O^iERqi(my{|}:B₤₂Ģζ*\n₣2cr&F!#{xΔΑ·ΊΩδ<ω[φṀṗṫ´©Ùå‡õøŕĴ′‰Ġ⁚|ûσιĘģ√ěĻŪŵƒųŁΦΔΡĀɡ¢°ÓỳÙWxêÖ×ṁỲ\n∂∑βΨΘµØŠ₤ΥΤϋúÒX5@!4d‥※†₃£Ôỳ≒>ṗ≠₤₩œ\\9à-§"
  },
  {
    "label": "Area06_Analyze05_T1",
    "text": "ǅȘțCT}}n~v5%$,+>?;‖“‚⁝⁄\nH7%ΪΉΦ₄ⁿ₤ǖǆșTC#)zuqP`ζΓΑΡΐ¤É×ùøöðè•∂∑∀≥†ĤđŇķĳń\n∑∠⊥İťũŸŴ£¤>øÆθΩ‡2%)z`;–※‰¡Rψ₂ăŰĻ−≠Ά΅ĔqŃĲvB6W@kγ∴ḃ\nc29ke# aYju{::;)ḃỳ₧₩œǒăţŵṁĺĸ@`ιΛΈͺπ₣•‰‹ḃỲ√≪Ē¡¢ãSñIΰ₄ĦĐċƒǀǲ∑″‼\n£Mö÷ςπΠΘǅ₤‑‖⁝※V6&*δẞ₽ȘǻẄ∕∇∙∫‥ḊfKL[{vλ"
  },
  {
    "label": "Area06_Analyze06_Title",
    "text": "La terra di un nuovo inizio"
  },
  {
    "label": "Area06_Analyze06_T0",
    "text": "Ben presto, gli esseri che erano emersi dall'acqua emersero\nanche dalla caverna di Alterna.\nDa quel momento, si svilupparono in fretta. In men che non\nsi dica, esplorarono ogni angolo del mondo.\nQuesto evento epocale conferì un grande significato al cratere\nal di sopra di Alterna e ai territori circostanti, che presero\nil nome di \"Splattonia\".\nDa quell'istante, la regione sarebbe stata conosciuta come \"la terra\ndi un nuovo inizio\" tra le creature che ora abitano la superficie.\nQuesti esseri di nuova evoluzione si distribuirono su tutto il\nglobo e diedero luogo a culture specifiche e stili di vita unici.\n₣2cr&F!#{xΔΑ·ΊΩδ<ω[φṀṗṫ´©Ùå‡õøŕĴ′‰Ġ⁚|ûσιĘģ√ěĻŪŵƒųŁΦΔΡĀɡ¢°ÓỳÙWxêÖ×ṁỲ\n∂∑βΨΘµØŠ₤ΥΤϋúÒX5@!4d‥※†₃£Ôỳ≒>ṗ≠₤₩œ\\9à-§"
  },
  {
    "label": "Area06_Analyze06_T1",
    "text": "ǅȘțCT}}n~v5%$,+>?;‖“‚⁝⁄\nH7%ΪΉΦ₄ⁿ₤ǖǆșTC#)zuqP`ζΓΑΡΐ¤É×ùøöðè•∂∑∀≥†ĤđŇķĳń\n∑∠⊥İťũŸŴ£¤>øÆθΩ‡2%)z`;–※‰¡Rψ₂ăŰĻ−≠Ά΅ĔqŃĲvB6W@kγ∴ḃ\nc29ke# aYju{::;)ḃỳ₧₩œǒăţŵṁĺĸ@`ιΛΈͺπ₣•‰‹ḃỲ√≪Ē¡¢ãSñIΰ₄ĦĐċƒǀǲ∑″‼\n£Mö÷ςπΠΘǅ₤‑‖⁝※V6&*δẞ₽ȘǻẄ∕∇∙∫‥ḊfKL[{vλ"
  },
  {
    "label": "Area06_Analyze07_Title",
    "text": "La terra di un nuovo inizio"
  },
  {
    "label": "Area06_Analyze07_T0",
    "text": "Ben presto, gli esseri che erano emersi dall'acqua emersero\nanche dalla caverna di Alterna.\nDa quel momento, si svilupparono in fretta. In men che non\nsi dica, esplorarono ogni angolo del mondo.\nQuesto evento epocale conferì un grande significato al cratere\nal di sopra di Alterna e ai territori circostanti, che presero\nil nome di \"Splattonia\".\nDa quell'istante, la regione sarebbe stata conosciuta come \"la terra\ndi un nuovo inizio\" tra le creature che ora abitano la superficie.\nQuesti esseri di nuova evoluzione si distribuirono su tutto il\nglobo e diedero luogo a culture specifiche e stili di vita unici.\nTra tutte le specie stabilitesi sulla Terra, furono i calamari e\ni polpi a distinguersi per via della loro intelligenza e del loro\natteggiamento \"in gambero\", per così dire.\n∂∑βΨΘµØŠ₤ΥΤϋúÒX5@!4d‥※†₃£Ôỳ≒>ṗ≠₤₩œ\\9à-§"
  },
  {
    "label": "Area06_Analyze07_T1",
    "text": "ǅȘțCT}}n~v5%$,+>?;‖“‚⁝⁄\nH7%ΪΉΦ₄ⁿ₤ǖǆșTC#)zuqP`ζΓΑΡΐ¤É×ùøöðè•∂∑∀≥†ĤđŇķĳń\n∑∠⊥İťũŸŴ£¤>øÆθΩ‡2%)z`;–※‰¡Rψ₂ăŰĻ−≠Ά΅ĔqŃĲvB6W@kγ∴ḃ\nc29ke# aYju{::;)ḃỳ₧₩œǒăţŵṁĺĸ@`ιΛΈͺπ₣•‰‹ḃỲ√≪Ē¡¢ãSñIΰ₄ĦĐċƒǀǲ∑″‼\n£Mö÷ςπΠΘǅ₤‑‖⁝※V6&*δẞ₽ȘǻẄ∕∇∙∫‥ḊfKL[{vλ"
  },
  {
    "label": "Area06_Analyze08_Title",
    "text": "La terra di un nuovo inizio"
  },
  {
    "label": "Area06_Analyze08_T0",
    "text": "Ben presto, gli esseri che erano emersi dall'acqua emersero\nanche dalla caverna di Alterna.\nDa quel momento, si svilupparono in fretta. In men che non\nsi dica, esplorarono ogni angolo del mondo.\nQuesto evento epocale conferì un grande significato al cratere\nal di sopra di Alterna e ai territori circostanti, che presero\nil nome di \"Splattonia\".\nDa quell'istante, la regione sarebbe stata conosciuta come \"la terra\ndi un nuovo inizio\" tra le creature che ora abitano la superficie.\nQuesti esseri di nuova evoluzione si distribuirono su tutto il\nglobo e diedero luogo a culture specifiche e stili di vita unici.\nTra tutte le specie stabilitesi sulla Terra, furono i calamari e\ni polpi a distinguersi per via della loro intelligenza e del loro\natteggiamento \"in gambero\", per così dire.\nNel giro di poco tempo, divennero le specie dominanti del pianeta."
  },
  {
    "label": "Area06_Analyze08_T1",
    "text": "ǅȘțCT}}n~v5%$,+>?;‖“‚⁝⁄\nH7%ΪΉΦ₄ⁿ₤ǖǆșTC#)zuqP`ζΓΑΡΐ¤É×ùøöðè•∂∑∀≥†ĤđŇķĳń\n∑∠⊥İťũŸŴ£¤>øÆθΩ‡2%)z`;–※‰¡Rψ₂ăŰĻ−≠Ά΅ĔqŃĲvB6W@kγ∴ḃ\nc29ke# aYju{::;)ḃỳ₧₩œǒăţŵṁĺĸ@`ιΛΈͺπ₣•‰‹ḃỲ√≪Ē¡¢ãSñIΰ₄ĦĐċƒǀǲ∑″‼\n£Mö÷ςπΠΘǅ₤‑‖⁝※V6&*δẞ₽ȘǻẄ∕∇∙∫‥ḊfKL[{vλ"
  },
  {
    "label": "Area06_Analyze09_Title",
    "text": "La terra di un nuovo inizio"
  },
  {
    "label": "Area06_Analyze09_T0",
    "text": "Ben presto, gli esseri che erano emersi dall'acqua emersero\nanche dalla caverna di Alterna.\nDa quel momento, si svilupparono in fretta. In men che non\nsi dica, esplorarono ogni angolo del mondo.\nQuesto evento epocale conferì un grande significato al cratere\nal di sopra di Alterna e ai territori circostanti, che presero\nil nome di \"Splattonia\".\nDa quell'istante, la regione sarebbe stata conosciuta come \"la terra\ndi un nuovo inizio\" tra le creature che ora abitano la superficie.\nQuesti esseri di nuova evoluzione si distribuirono su tutto il\nglobo e diedero luogo a culture specifiche e stili di vita unici.\nTra tutte le specie stabilitesi sulla Terra, furono i calamari e\ni polpi a distinguersi per via della loro intelligenza e del loro\natteggiamento \"in gambero\", per così dire.\nNel giro di poco tempo, divennero le specie dominanti del pianeta."
  },
  {
    "label": "Area06_Analyze09_T1",
    "text": "Ora... devo andare avanti un po'. 5000 anni più tardi... nacque\nun individuo particolare.\nH7%ΪΉΦ₄ⁿ₤ǖǆșTC#)zuqP`ζΓΑΡΐ¤É×ùøöðè•∂∑∀≥†ĤđŇķĳń\n∑∠⊥İťũŸŴ£¤>øÆθΩ‡2%)z`;–※‰¡Rψ₂ăŰĻ−≠Ά΅ĔqŃĲvB6W@kγ∴ḃ\nc29ke# aYju{::;)ḃỳ₧₩œǒăţŵṁĺĸ@`ιΛΈͺπ₣•‰‹ḃỲ√≪Ē¡¢ãSñIΰ₄ĦĐċƒǀǲ∑″‼\n£Mö÷ςπΠΘǅ₤‑‖⁝※V6&*δẞ₽ȘǻẄ∕∇∙∫‥ḊfKL[{vλ"
  },
  {
    "label": "Area06_Analyze10_Title",
    "text": "La terra di un nuovo inizio"
  },
  {
    "label": "Area06_Analyze10_T0",
    "text": "Ben presto, gli esseri che erano emersi dall'acqua emersero\nanche dalla caverna di Alterna.\nDa quel momento, si svilupparono in fretta. In men che non\nsi dica, esplorarono ogni angolo del mondo.\nQuesto evento epocale conferì un grande significato al cratere\nal di sopra di Alterna e ai territori circostanti, che presero\nil nome di \"Splattonia\".\nDa quell'istante, la regione sarebbe stata conosciuta come \"la terra\ndi un nuovo inizio\" tra le creature che ora abitano la superficie.\nQuesti esseri di nuova evoluzione si distribuirono su tutto il\nglobo e diedero luogo a culture specifiche e stili di vita unici.\nTra tutte le specie stabilitesi sulla Terra, furono i calamari e\ni polpi a distinguersi per via della loro intelligenza e del loro\natteggiamento \"in gambero\", per così dire.\nNel giro di poco tempo, divennero le specie dominanti del pianeta."
  },
  {
    "label": "Area06_Analyze10_T1",
    "text": "Ora... devo andare avanti un po'. 5000 anni più tardi... nacque\nun individuo particolare.\nQuesto calamaro raggiunse la notorietà a Splattonia a causa\ndi alcune sue... caratteristiche uniche.\n∑∠⊥İťũŸŴ£¤>øÆθΩ‡2%)z`;–※‰¡Rψ₂ăŰĻ−≠Ά΅ĔqŃĲvB6W@kγ∴ḃ\nc29ke# aYju{::;)ḃỳ₧₩œǒăţŵṁĺĸ@`ιΛΈͺπ₣•‰‹ḃỲ√≪Ē¡¢ãSñIΰ₄ĦĐċƒǀǲ∑″‼\n£Mö÷ςπΠΘǅ₤‑‖⁝※V6&*δẞ₽ȘǻẄ∕∇∙∫‥ḊfKL[{vλ"
  },
  {
    "label": "Area06_Analyze11_Title",
    "text": "La terra di un nuovo inizio"
  },
  {
    "label": "Area06_Analyze11_T0",
    "text": "Ben presto, gli esseri che erano emersi dall'acqua emersero\nanche dalla caverna di Alterna.\nDa quel momento, si svilupparono in fretta. In men che non\nsi dica, esplorarono ogni angolo del mondo.\nQuesto evento epocale conferì un grande significato al cratere\nal di sopra di Alterna e ai territori circostanti, che presero\nil nome di \"Splattonia\".\nDa quell'istante, la regione sarebbe stata conosciuta come \"la terra\ndi un nuovo inizio\" tra le creature che ora abitano la superficie.\nQuesti esseri di nuova evoluzione si distribuirono su tutto il\nglobo e diedero luogo a culture specifiche e stili di vita unici.\nTra tutte le specie stabilitesi sulla Terra, furono i calamari e\ni polpi a distinguersi per via della loro intelligenza e del loro\natteggiamento \"in gambero\", per così dire.\nNel giro di poco tempo, divennero le specie dominanti del pianeta."
  },
  {
    "label": "Area06_Analyze11_T1",
    "text": "Ora... devo andare avanti un po'. 5000 anni più tardi... nacque\nun individuo particolare.\nQuesto calamaro raggiunse la notorietà a Splattonia a causa\ndi alcune sue... caratteristiche uniche.\nSì, tale individuo venne accolto come un profeta, custode\ndi numerose rivelazioni che condivideva con i suoi simili.\nc29ke# aYju{::;)ḃỳ₧₩œǒăţŵṁĺĸ@`ιΛΈͺπ₣•‰‹ḃỲ√≪Ē¡¢ãSñIΰ₄ĦĐċƒǀǲ∑″‼\n£Mö÷ςπΠΘǅ₤‑‖⁝※V6&*δẞ₽ȘǻẄ∕∇∙∫‥ḊfKL[{vλ"
  },
  {
    "label": "Area06_Analyze12_Title",
    "text": "La terra di un nuovo inizio"
  },
  {
    "label": "Area06_Analyze12_T0",
    "text": "Ben presto, gli esseri che erano emersi dall'acqua emersero\nanche dalla caverna di Alterna.\nDa quel momento, si svilupparono in fretta. In men che non\nsi dica, esplorarono ogni angolo del mondo.\nQuesto evento epocale conferì un grande significato al cratere\nal di sopra di Alterna e ai territori circostanti, che presero\nil nome di \"Splattonia\".\nDa quell'istante, la regione sarebbe stata conosciuta come \"la terra\ndi un nuovo inizio\" tra le creature che ora abitano la superficie.\nQuesti esseri di nuova evoluzione si distribuirono su tutto il\nglobo e diedero luogo a culture specifiche e stili di vita unici.\nTra tutte le specie stabilitesi sulla Terra, furono i calamari e\ni polpi a distinguersi per via della loro intelligenza e del loro\natteggiamento \"in gambero\", per così dire.\nNel giro di poco tempo, divennero le specie dominanti del pianeta."
  },
  {
    "label": "Area06_Analyze12_T1",
    "text": "Ora... devo andare avanti un po'. 5000 anni più tardi... nacque\nun individuo particolare.\nQuesto calamaro raggiunse la notorietà a Splattonia a causa\ndi alcune sue... caratteristiche uniche.\nSì, tale individuo venne accolto come un profeta, custode\ndi numerose rivelazioni che condivideva con i suoi simili.\nFu un altro punto di svolta per i calamari. Durante questo periodo,\nvennero gettate le fondamenta della civiltà cefalopode moderna.\n£Mö÷ςπΠΘǅ₤‑‖⁝※V6&*δẞ₽ȘǻẄ∕∇∙∫‥ḊfKL[{vλ"
  },
  {
    "label": "Area06_Analyze13_Title",
    "text": "La terra di un nuovo inizio"
  },
  {
    "label": "Area06_Analyze13_T0",
    "text": "Ben presto, gli esseri che erano emersi dall'acqua emersero\nanche dalla caverna di Alterna.\nDa quel momento, si svilupparono in fretta. In men che non\nsi dica, esplorarono ogni angolo del mondo.\nQuesto evento epocale conferì un grande significato al cratere\nal di sopra di Alterna e ai territori circostanti, che presero\nil nome di \"Splattonia\".\nDa quell'istante, la regione sarebbe stata conosciuta come \"la terra\ndi un nuovo inizio\" tra le creature che ora abitano la superficie.\nQuesti esseri di nuova evoluzione si distribuirono su tutto il\nglobo e diedero luogo a culture specifiche e stili di vita unici.\nTra tutte le specie stabilitesi sulla Terra, furono i calamari e\ni polpi a distinguersi per via della loro intelligenza e del loro\natteggiamento \"in gambero\", per così dire.\nNel giro di poco tempo, divennero le specie dominanti del pianeta."
  },
  {
    "label": "Area06_Analyze13_T1",
    "text": "Ora... devo andare avanti un po'. 5000 anni più tardi... nacque\nun individuo particolare.\nQuesto calamaro raggiunse la notorietà a Splattonia a causa\ndi alcune sue... caratteristiche uniche.\nSì, tale individuo venne accolto come un profeta, custode\ndi numerose rivelazioni che condivideva con i suoi simili.\nFu un altro punto di svolta per i calamari. Durante questo periodo,\nvennero gettate le fondamenta della civiltà cefalopode moderna.\nQuel calamaro speciale viene oggi riconosciuto e celebrato\nall'unanimità come il progenitore dell'Inkling contemporaneo."
  }
]