[
  {
    "label": "001_Sub",
    "text": ""
  },
  {
    "label": "001_Name",
    "text": "Re Polpobot 2.0"
  },
  {
    "label": "101_Sub",
    "text": "Allarme murene"
  },
  {
    "label": "101_Name",
    "text": "Morena"
  },
  {
    "label": "102_Sub",
    "text": "Preda il predatore"
  },
  {
    "label": "102_Name",
    "text": "Pinnuccia"
  },
  {
    "label": "103_Sub",
    "text": "La manta tempestosa"
  },
  {
    "label": "103_Name",
    "text": "Mantaleo"
  },
  {
    "label": "104_Sub",
    "text": "Anomalia ursina (#03)"
  },
  {
    "label": "104_Name",
    "text": "Ursus"
  }
]