[
  {
    "label": "Progress_01",
    "text": "{{string value=\"11\" arg1=\"4\" arg3=\"73\"}} capitan{{string value=\"11\" arg1=\"2\" arg3=\"111\"}} vorrebbe ricordarti quanto segue:\n\"È un mondo spietato, il tuo. Cerca di restare a galla!\""
  },
  {
    "label": "Progress_04",
    "text": "Oh-oh! {{string value=\"11\" arg1=\"4\" arg3=\"73\"}} capitan{{string value=\"11\" arg1=\"2\" arg3=\"111\"}} sta borbottando di nuovo.\n\"Non è colpa di Octavius... vero?\""
  },
  {
    "label": "Progress_07",
    "text": "Sappi che {{string value=\"11\" arg1=\"4\" arg3=\"105\"}} capitan{{string value=\"11\" arg1=\"2\" arg3=\"111\"}} è un mollusco timido.\nNon prenderla sul personale se resta in silenzio."
  },
  {
    "label": "Progress_08",
    "text": "Ehi, {{string value=\"11\" arg1=\"4\" arg3=\"105\"}} capitan{{string value=\"11\" arg1=\"2\" arg3=\"111\"}} vuole che ti dica...\nOh, niente, non importa. Falso allarme!"
  },
  {
    "label": "Progress_10",
    "text": "\"OK, cos'è questo tesoro di cui parla il Trio Triglio...?\"\n{{string value=\"11\" arg1=\"4\" arg3=\"73\"}} capitan{{string value=\"11\" arg1=\"2\" arg3=\"111\"}} vuole andare in fondo alla faccenda."
  },
  {
    "label": "Progress_13",
    "text": "Ho appena sentito {{string value=\"11\" arg1=\"4\" arg3=\"105\"}} capitan{{string value=\"11\" arg1=\"2\" arg3=\"111\"}} che diceva: \"La nuova\nDivisione Branchia... wow!\" Che pensiero profondo."
  },
  {
    "label": "Progress_16",
    "text": "Non so bene cosa intenda, ma {{string value=\"11\" arg1=\"4\" arg3=\"105\"}} capitan{{string value=\"11\" arg1=\"2\" arg3=\"111\"}} dice:\n\"Tu sei sempre tu, indipendentemente dal tuo aspetto.\""
  },
  {
    "label": "Progress_19",
    "text": "Ti riporto le parole de{{string value=\"11\" arg1=\"2\" arg3=\"108\"}} capitan{{string value=\"11\" arg1=\"2\" arg3=\"111\"}}: \"Un tesoro, eh?\nPotrebbe essere utile.\" So già dove vuole arrivare..."
  },
  {
    "label": "Progress_22",
    "text": "{{string value=\"11\" arg1=\"4\" arg3=\"73\"}} capitan{{string value=\"11\" arg1=\"2\" arg3=\"111\"}} ha appena mugugnato: \"Spero tu stia\nbene, ex-capitano...\" Non potrei essere più d'accordo."
  },
  {
    "label": "Progress_25",
    "text": "Nuovi ordini! {{string value=\"11\" arg1=\"4\" arg3=\"73\"}} capitan{{string value=\"11\" arg1=\"2\" arg3=\"111\"}} dice: \"Porta un cappuccino\na Numero 2.\" No, scherzo. Però se ne trovi uno..."
  },
  {
    "label": "Progress_28",
    "text": "{{string value=\"11\" arg1=\"4\" arg3=\"73\"}} capitan{{string value=\"11\" arg1=\"2\" arg3=\"111\"}} consiglia: \"Se ti perdi, prova con\nla forza bruta!\" Uhm... però non esagerare, OK?"
  },
  {
    "label": "Progress_31",
    "text": "Una perla di saggezza da{{string value=\"11\" arg1=\"2\" arg3=\"108\"}} capitan{{string value=\"11\" arg1=\"2\" arg3=\"111\"}}: \"A volte, la\nsconfitta è la lezione migliore.\" Non mi è nuova..."
  },
  {
    "label": "Progress_34",
    "text": "{{string value=\"11\" arg1=\"4\" arg3=\"73\"}} capitan{{string value=\"11\" arg1=\"2\" arg3=\"111\"}} si sta facendo prendere dalla nostalgia:\n\"Ricordo quando Seppia mi ha dato questo cappello...\""
  },
  {
    "label": "Progress_37",
    "text": "{{string value=\"11\" arg1=\"4\" arg3=\"73\"}} capitan{{string value=\"11\" arg1=\"2\" arg3=\"111\"}} inizia a preoccuparsi: \"Quel razzo\nè come un mare in tempesta...\" Fai attenzione!"
  },
  {
    "label": "Progress_40",
    "text": "{{string value=\"11\" arg1=\"4\" arg3=\"73\"}} capitan{{string value=\"11\" arg1=\"2\" arg3=\"111\"}} afferma: \"Se ben ti equipaggi, molto\nti avvantaggi.\" Direi che è un ottimo consiglio!"
  },
  {
    "label": "Progress_43",
    "text": "Ehi, capitan{{string value=\"11\" arg1=\"2\" arg3=\"111\"}}! Capitan{{string value=\"11\" arg1=\"2\" arg3=\"111\"}}? Sei ancora con noi?"
  },
  {
    "label": "Progress_45",
    "text": "{{string value=\"11\" arg1=\"4\" arg3=\"73\"}} capitan{{string value=\"11\" arg1=\"2\" arg3=\"111\"}} dice: \"Consulta la mappa ogni tanto.\nPotresti scoprire qualcosa di nuovo.\" O forse no."
  },
  {
    "label": "Progress_48",
    "text": "Come, capitan{{string value=\"11\" arg1=\"2\" arg3=\"111\"}}? Hai detto qualcosa?\nOh. Mi sa di no..."
  },
  {
    "label": "Progress_50",
    "text": "Una nuova perla da{{string value=\"11\" arg1=\"2\" arg3=\"108\"}} capitan{{string value=\"11\" arg1=\"2\" arg3=\"111\"}}: \"Le vittorie\nmigliori sono quelle dove non combatti affatto!\""
  },
  {
    "label": "Progress_53",
    "text": "Ehi, voglio solo controllare una cosa.\nRiesci a sentire la voce de{{string value=\"11\" arg1=\"2\" arg3=\"108\"}} capitan{{string value=\"11\" arg1=\"2\" arg3=\"111\"}}?"
  },
  {
    "label": "Progress_54",
    "text": "Messaggio da{{string value=\"11\" arg1=\"2\" arg3=\"108\"}} capitan{{string value=\"11\" arg1=\"2\" arg3=\"111\"}}: \"Sbriga le faccende\nche hai in sospeso e raggiungi quel {{color id=\"1\"}}tesoro{{color id=\"65535\"}}!\""
  },
  {
    "label": "Bored_01",
    "text": "Regola di battaglia: \"Se la situazione si fa spinosa,\nanzi, irsuta, nasconditi dietro a un muro per riposarti.\""
  },
  {
    "label": "Bored_03",
    "text": "Regola di battaglia {{string value=\"11\" arg1=\"24\" arg3=\"100\"}}: \"Di solito,\nil primo nemico che vedi è un ricognitore.\""
  },
  {
    "label": "Bored_07",
    "text": "Regola di battaglia {{string value=\"11\" arg1=\"24\" arg3=\"100\"}}: \"Se devi combattere,\nassicurati di avere abbastanza spazio intorno a te!\""
  },
  {
    "label": "Bored_09",
    "text": "Regola di battaglia {{string value=\"11\" arg1=\"24\" arg3=\"100\"}}: \"Guardati intorno\ncon {{icon id=\"8\" arg=\"0xCDCC4C3F00000000\"}}. Devi far girare la testa... letteralmente.\""
  },
  {
    "label": "Bored_11",
    "text": "Regola di battaglia {{string value=\"11\" arg1=\"24\" arg3=\"100\"}}: \"Stai nuotando su\nuna parete? Tieni premuto {{icon id=\"1\" arg=\"0x0000803F00000000\"}} per un'impinnata!\""
  },
  {
    "label": "Bored_13",
    "text": "Regola di battaglia {{string value=\"11\" arg1=\"24\" arg3=\"100\"}}: \"Raspa-pa-pa-pa!\"\n... Un attimo, forse era \"spara\"..."
  },
  {
    "label": "Bored_15",
    "text": "Regola di battaglia {{string value=\"11\" arg1=\"24\" arg3=\"100\"}}: \"Tieni sempre\nun tentacolo impaziente sull'arma secondaria!\""
  },
  {
    "label": "Bored_17",
    "text": "Regola di battaglia {{string value=\"11\" arg1=\"24\" arg3=\"100\"}}: \"Fai attenzione alle\nbombe che arrivano da posti strani. Non si sa mai!\""
  },
  {
    "label": "Bored_19",
    "text": "Regola di battaglia {{string value=\"11\" arg1=\"24\" arg3=\"100\"}}: \"Quando insistere\nnon serve a niente, prova a tirarti un po' indietro!\""
  },
  {
    "label": "Bored_21",
    "text": "Regola di battaglia {{string value=\"11\" arg1=\"24\" arg3=\"100\"}}: \"Cerca sempre un\nposto sicuro dove ripararti prima di iniziare a sparare.\""
  },
  {
    "label": "Bored_23",
    "text": "Regola di battaglia {{string value=\"11\" arg1=\"24\" arg3=\"100\"}}: \"Non abbassare\nla guardia solo perché sei in alto!\""
  },
  {
    "label": "Bored_25",
    "text": "Regola di battaglia {{string value=\"11\" arg1=\"24\" arg3=\"100\"}}:\n\"Tieni sempre d'occhio la tua via di fuga!\""
  },
  {
    "label": "Bored_27",
    "text": "Regola di battaglia {{string value=\"11\" arg1=\"24\" arg3=\"100\"}}: \"Guarda a destra,\ne sinistra, e poi di nuovo a destra!\""
  },
  {
    "label": "Bored_29",
    "text": "Regola di battaglia {{string value=\"11\" arg1=\"24\" arg3=\"100\"}}: \"Quando o la va\no la spacca, spacca tutto con un vernischianto!\""
  },
  {
    "label": "LaunchPad_00",
    "text": "\"Questa alleanza potrebbe funzionare... Ahi! Ahia!\"\nEhi! Piano, capitan{{string value=\"11\" arg1=\"2\" arg3=\"111\"}}! Vuoi slogarti qualcos'altro?"
  }
]