[
  {
    "label": "Msg_ReturnAlterFromRocket",
    "text": "Se torni al Campeggio Sea Sirens, tutti\ni progressi fino a questo punto andranno persi.\n(Non sarà necessario completare di nuovo gli\nscenari già terminati.)"
  },
  {
    "label": "BtnL_ReturnAlterFromRocket",
    "text": "Annulla"
  },
  {
    "label": "BtnR_ReturnAlterFromRocket",
    "text": "Torna"
  },
  {
    "label": "Msg_DepartureRocket0",
    "text": "Se vogliamo salvare il nonno, dobbiamo\nraggiungere quel razzo. Procediamo?"
  },
  {
    "label": "Positive_DepartureRocket0",
    "text": "Certo!"
  },
  {
    "label": "Negative_DepartureRocket0",
    "text": "Aspetta un attimo..."
  },
  {
    "label": "Msg_DepartureRocket1",
    "text": "Ah! Il tuo equipaggiamento élite ti soddisfa?"
  },
  {
    "label": "Positive_DepartureRocket1",
    "text": "Certo! Andiamo!"
  },
  {
    "label": "Negative_DepartureRocket1",
    "text": "Non proprio... Un secondo."
  },
  {
    "label": "Msg_DepartureRocket2",
    "text": "{{string value=\"11\" arg1=\"4\" arg3=\"73\"}} capitan{{string value=\"11\" arg1=\"2\" arg3=\"111\"}} dice: \"Questa è la conferma finale.\nVuoi davvero, assolutamente, sul seppio procedere?\""
  },
  {
    "label": "Positive_DepartureRocket2",
    "text": "Per l'ultima volta, SÌ!"
  },
  {
    "label": "Negative_DepartureRocket2",
    "text": "Mi stai spaventando! Aspetto!"
  },
  {
    "label": "MakeCommander00_00",
    "text": "Guarda un po': è un ritratto {{string value=\"11\" arg1=\"6\" arg3=\"100\"}} {{color id=\"1\"}}{{string value=\"11\" arg1=\"16\" arg3=\"99\"}} {{color id=\"65535\"}}della\nNuova Divisione Branchia. Somigliante, non trovi?"
  },
  {
    "label": "MakeCommander00_01",
    "text": "{{string value=\"11\" arg1=\"22\" arg3=\"73\"}} era Numero 3 prima che tu fossi\nNumero 3, Numero 3. Niente di complicato."
  },
  {
    "label": "MakeCommander00_02",
    "text": "Tu... Tu conosci {{string value=\"11\" arg1=\"22\" arg3=\"105\"}}, vero?"
  },
  {
    "label": "Positive_MakeCommander00",
    "text": "Ma certo!"
  },
  {
    "label": "Negative_MakeCommander00",
    "text": "Uhm... chi?"
  },
  {
    "label": "MakeCommander01P_00",
    "text": "Bene! {{string value=\"11\" arg1=\"22\" arg3=\"73\"}} è una vera celebrità.\n... Sai che anch'io ero capitano, vero?"
  },
  {
    "label": "MakeCommander01P_01",
    "text": "Ah, non importa. Ma cosa mi dici del ritratto?\nÈ somigliante secondo te?"
  },
  {
    "label": "MakeCommander01N_00",
    "text": "Mh, eravamo agenti segreti e ci lanciavamo in gesta\neroiche lontano da occhi indiscreti.{{delay frames=\"30\"}} Non puoi saperlo..."
  },
  {
    "label": "Positive_MakeCommander01",
    "text": "Non mi convince..."
  },
  {
    "label": "Negative_MakeCommander01",
    "text": "È perfetto!"
  },
  {
    "label": "MakeCommander02P_00",
    "text": "No? Beh, non ci siamo! {{delay frames=\"30\"}}Che aspetto dovrebbe\navere, secondo te?"
  },
  {
    "label": "MakeCommander02P_01",
    "text": "Capisco, capisco... C'è altro?"
  },
  {
    "label": "MakeCommander02P_02",
    "text": "Sì, ci stiamo avvicinando! Hai altri dettagli da darmi?"
  },
  {
    "label": "MakeCommander02P_03",
    "text": "Et voilà! Come ti sembra?"
  },
  {
    "label": "MakeCommander02N_00",
    "text": "È un capolavoro, non ti pare? {{delay frames=\"30\"}}Fammi sapere\nquando vuoi che immortali te!"
  },
  {
    "label": "Positive_MakeCommander02",
    "text": "A posto!"
  },
  {
    "label": "Negative_MakeCommander02",
    "text": "Ancora non va bene..."
  },
  {
    "label": "MakeCommander03_00",
    "text": "Sapevo che il tuo sguardo avrebbe dato una mano\nal mio, di sguardo, in questa faccenda. {{delay frames=\"30\"}}Grazie!"
  },
  {
    "label": "LotteryDrone00_00",
    "text": "Ti serviranno 999 uova di pesce {{icon id=\"23\" arg=\"0x0000803F00000000\"}}\nper far volare l'armandrone."
  },
  {
    "label": "LotteryDrone00_01",
    "text": "Sai, 999 uova di pesce {{icon id=\"23\" arg=\"0x0000803F00000000\"}} sono tante. Davvero\nle vuoi usare per l'armandrone? {{delay frames=\"15\"}}Setaccerà Alterna\ne porterà indietro tutto quello che trova."
  },
  {
    "label": "Positive_LottetyDrone0",
    "text": "Sì"
  },
  {
    "label": "Negative_LottetyDrone0",
    "text": "No"
  }
]