[
  {
    "label": "18cf0761-7d99-405f-8a81-2114d376114e",
    "text": "¡El {{color id=\"1\"}}cañón triple{{color id=\"65535\"}} llegará hasta allá!"
  },
  {
    "label": "7cd85c8c-af89-4be5-9215-696815776681",
    "text": "¡Ay, son demasiados! Y quizá haya más escondidos..."
  },
  {
    "label": "ad1913ed-6bb8-4397-a88b-e74f241156db",
    "text": "¡Atención! ¡Hay un {{color id=\"1\"}}octorrecluta ambidiestro {{color id=\"65535\"}}ahí!\n¡Son más potentes que los simples octorreclutas!"
  },
  {
    "label": "ba0df8f9-ca58-4a30-806d-0498a5ff0fbc",
    "text": "Ya casi..."
  },
  {
    "label": "d16441dd-8c43-4c85-99f8-5bb4cf10231c",
    "text": "A ver si Escamita te sirve de ayuda aquí..."
  }
]