[
  {
    "label": "0d515dff-a5fe-4848-8e7b-bb14015573a5",
    "text": "¡Pum! Qué susto, ¿no? Es lo que pasa cuando\nrevientas un {{color id=\"1\"}}pez bomba{{color id=\"65535\"}}."
  },
  {
    "label": "163c31f5-1327-4244-96b2-bc1a264f3341",
    "text": "¡Vaya! ¡Eso fue tintástico!"
  },
  {
    "label": "53f1afa7-5ba3-4033-a209-55b886048694",
    "text": "Esto se pone serio. ¡Vamos, Agente 3!"
  },
  {
    "label": "a05a0e60-3ebf-4d19-bed2-4850c8d9fd3a",
    "text": "Mira bien a tu alrededor. Si ves algo que quieras\nentintar, oprime {{icon id=\"12\" arg=\"0x0000803F00000000\"}} y dale color."
  },
  {
    "label": "aae850dd-dfee-4660-aaaa-d49bb37e8d3a",
    "text": "¡Excelente! Esa caja no se iba a salvar."
  },
  {
    "label": "bd611283-f774-49e0-a5c7-bcac89954652",
    "text": "Recuerda que puedes mirar alrededor inclinando {{icon id=\"8\" arg=\"0xCDCC4C3F00000000\"}}.\n¡Observa y luego entinta! ¡Ja, ja, ja!"
  },
  {
    "label": "0db8fc65-e008-4237-a01f-a1f55b86144f",
    "text": "¡Mira, un {{color id=\"1\"}}propulsor{{color id=\"65535\"}}! Métete en él de un salto\ny agárrate bien."
  },
  {
    "label": "01e79298-775f-47c5-85c8-7f8814007952",
    "text": "¿No aciertas con la tinta? Intenta apuntar con\nel {{icon id=\"16\" arg=\"0x0000803F00000000\"}} que tienes en el centro de la pantalla."
  },
  {
    "label": "ddfce6b9-32a3-4745-9ad5-eb4a49b7f1bf",
    "text": "Ajá, veo que encontraste un {{color id=\"1\"}}interruptor{{color id=\"65535\"}}. Dispárale\ntinta, a ver qué pasa..."
  },
  {
    "label": "3dcf2629-4914-4166-ae15-8420cbccc5bd",
    "text": "Si se te desorientan los tentáculos, puedes {{color id=\"1\"}}reajustar\nla vista{{color id=\"65535\"}} oprimiendo {{icon id=\"3\" arg=\"0x0000803F00000000\"}}. ¡Así de fácil!"
  },
  {
    "label": "76286180-bd10-4637-a645-4064e9819185",
    "text": "Que no te dé vergüenza si necesitas resguardarte\ntras alguna pared para evitar los ataques enemigos."
  },
  {
    "label": "e8bf642e-9bcf-4457-a923-611c068468ad",
    "text": "¡Es un {{color id=\"1\"}}volbagre{{color id=\"65535\"}}! ¡Llénalo de tinta hasta romperle\nsu burbuja y agárralo!"
  },
  {
    "label": "5e02fb84-c754-4245-a412-83977dfceac2",
    "text": "¡Ajá! Si oprimes {{icon id=\"10\" arg=\"0x0000803F00000000\"}}, Escamita podría\nayudarte con esto."
  },
  {
    "label": "d2124b23-2490-4c11-b51b-1b785d685ccb",
    "text": "¿No puedes llegar a la caja? Quizá {{color id=\"1\"}}Escamita{{color id=\"65535\"}}\nte puede ayudar. ¡Intenta oprimir {{icon id=\"10\" arg=\"0x0000803F00000000\"}}!"
  },
  {
    "label": "a0d33691-d114-48a6-a5f6-e700aa8683f6",
    "text": "Ajá, encontraste una {{color id=\"1\"}}armadura{{color id=\"65535\"}}. Te vendrá de maravilla\npara protegerte de la tinta enemiga."
  },
  {
    "label": "eb4d49bb-55e1-42c0-901d-bba981fd0ecc",
    "text": "¡Mírate nada más!"
  }
]