[
  {
    "label": "0bb83321-9f48-4d79-bd3b-e3f096d8bfbd",
    "text": "¡Ya no quedan más! Es el momento\nde probar al autorriel."
  },
  {
    "label": "101d4c85-869d-4450-b5d7-d8e789c7139b",
    "text": "¡Esooo!"
  },
  {
    "label": "11093102-d31c-4298-a518-74fd1b2c923f",
    "text": "No parece que puedas llegar con un simple salto..."
  },
  {
    "label": "150de615-8f3c-4817-abe1-67f3b36099f0",
    "text": "Uuu, qué hábil. ¡Bien hecho, Agente 3!"
  },
  {
    "label": "1e6e0414-c755-41f1-b1a7-243b8c14ef11",
    "text": "Oprime {{icon id=\"1\" arg=\"0x0000803F00000000\"}} para saltar al desplazarte\npor un autorriel."
  },
  {
    "label": "353ce7bd-212b-4905-adb2-d694700ca498",
    "text": "¡Cuidado, Alterna, que llegamos nosotros!"
  },
  {
    "label": "3e70151e-e3fa-4cf7-bf53-697dafb378d7",
    "text": "¡La primera {{color id=\"1\"}}bóveda {{color id=\"65535\"}}ya está abierta!"
  },
  {
    "label": "3fa81dec-0396-48ea-a530-35e27911a8c1",
    "text": "Al desplazarte por un {{color id=\"1\"}}autorriel{{color id=\"65535\"}}, puedes oprimir {{icon id=\"12\" arg=\"0x0000803F00000000\"}}\npara disparar."
  },
  {
    "label": "48a50b15-8b20-49d2-89c2-c4242b52821d",
    "text": "Hay un {{color id=\"1\"}}tintarriel {{color id=\"65535\"}}arriba. ¿Será que Escamita\nllega hasta ahí?"
  },
  {
    "label": "5b67909c-4ff0-4341-8711-e6acef1c371e",
    "text": "¡Una lata! ¡Qué bien!"
  },
  {
    "label": "685b1c8b-b21a-47c5-99ca-0f838dca1725",
    "text": "¡Y esa es la tercera! Ya tienes todas las {{color id=\"1\"}}llaves{{color id=\"65535\"}}."
  },
  {
    "label": "750c4a94-c7e8-498f-bb24-a929203fc0fe",
    "text": "¡Ya tienes la primera {{color id=\"1\"}}llave{{color id=\"65535\"}}! ¡Continúa!"
  },
  {
    "label": "79b54a22-d07f-4da2-99b5-07e0b894ac88",
    "text": "Cuando estés sobre una {{color id=\"1\"}}colchoneta{{color id=\"65535\"}}, mantén\noprimido {{icon id=\"1\" arg=\"0x0000803F00000000\"}} para dar un salto de lo más aaalto."
  },
  {
    "label": "8142aab4-21ca-413d-bcc1-816e57def6cd",
    "text": "¡Segunda bóveda abierta!"
  },
  {
    "label": "8f55f1cb-6c05-4775-adfb-482273a5c884",
    "text": "Mejor imposible, Agente 3. Si sigues a este ritmo,\nexploraremos Alterna por completo en un dos por tres."
  },
  {
    "label": "9149a031-393b-40c6-86b5-2a8de05907ef",
    "text": "Oprime {{icon id=\"8\" arg=\"0xCDCC4C3F00000000\"}} para activar el {{color id=\"1\"}}cañón triple{{color id=\"65535\"}}\n¡y luego {{icon id=\"12\" arg=\"0x0000803F00000000\"}} para soltar el bombazo!"
  },
  {
    "label": "93a66f83-c9d6-4209-97f5-db582a03e051",
    "text": "Puedes saltar de un autorriel a otro oprimiendo {{icon id=\"1\" arg=\"0x0000803F00000000\"}}\nmientras inclinas la palanca en la dirección deseada."
  },
  {
    "label": "a258a141-a865-4775-9092-1c4b2b4ecad2",
    "text": "¡Qué bien! ¡Lo lograste!"
  },
  {
    "label": "b31225e7-1c5a-4fc3-990a-5740cca3429b",
    "text": "¡Veo que hay 3 {{color id=\"1\"}}bóvedas {{color id=\"65535\"}}{{icon id=\"27\" arg=\"0x0000803F00000000\"}} y 3 {{color id=\"1\"}}llaves{{color id=\"65535\"}} {{icon id=\"26\" arg=\"0x0000803F00000000\"}}\nmás adelante!"
  },
  {
    "label": "bddf4324-8069-4c4a-bc6b-2c1186857d47",
    "text": "Esa cosa es un {{color id=\"1\"}}raspatintas{{color id=\"65535\"}}. Va limpiando la tinta\nque encuentra a su paso."
  },
  {
    "label": "ce9c53ab-5568-453f-9a93-6ba19591feeb",
    "text": "¿Qué pasará si les disparas? ¿Y si les lanzaras\na tu amigo Escamita?"
  },
  {
    "label": "d0bc97c5-2b3e-4db7-bfe7-ca3b3074494d",
    "text": "Uf. Qué cantidad de cosas hay aquí..."
  },
  {
    "label": "dea53ff1-d9ff-4e2d-8b44-287648fe3296",
    "text": "Que esa {{color id=\"1\"}}rejilla{{color id=\"65535\"}} no te detenga. Mantén oprimido {{icon id=\"11\" arg=\"0x0000803F00000000\"}}\npara atravesarla."
  },
  {
    "label": "f091c212-cf5c-4970-b04b-3cac1c9de4bb",
    "text": "Uuu... Me encanta sentir la brisa en los tentáculos..."
  },
  {
    "label": "fe499a3f-63a3-49bd-a15d-3d158c211078",
    "text": "¡Ya van 2! Solo nos falta una más..."
  }
]