[
  {
    "label": "0a5c19e2-9f91-49b5-b5e4-90c29ec4eab0",
    "text": "¡Está de espaldas! ¡Es tu oportunidad!"
  },
  {
    "label": "24fb0647-9323-490c-b6d7-dc9c7726b60a",
    "text": "Qué raro estuvo eso... Pero tú lo hiciste muy\nbien, Agente 3."
  },
  {
    "label": "25db09c5-5b56-4ac9-b73d-696bf360b76d",
    "text": "Esto me da muy mala espina. Ve con cuidado."
  },
  {
    "label": "397f308b-7886-4e80-b83c-29d7bd0beb77",
    "text": "Sospecho que esta puerta ya la habías pasado antes..."
  },
  {
    "label": "39bbf6a5-365f-4552-9b65-ebfffed7fef2",
    "text": "¡Genial!"
  },
  {
    "label": "47b6bbc1-96d2-4d10-8197-cad144897c88",
    "text": "¡Ya no es posible volver!\nPero todo va a estar bien... espero."
  },
  {
    "label": "57bdf9ac-0a0b-4945-9519-de38c37027b0",
    "text": "Mala visibilidad, terreno accidentado y octarianos por\ntodos lados. ¡Todo en contra!"
  },
  {
    "label": "6b36bb04-79e9-4aba-9021-7862bafaa4cf",
    "text": "Uf... Esa subida estuvo intensa."
  },
  {
    "label": "7058210c-9e71-4d55-9163-58f63d94282b",
    "text": "¡Bien hecho!"
  },
  {
    "label": "7d893147-6fb4-4fff-b83b-893ed68f65f9",
    "text": "Parece que te gustan las alturas, ¿eh?"
  },
  {
    "label": "a818f6d9-18bf-4d35-b048-f2b90d400723",
    "text": "¡Vaya puertota! Es casi imposible no entrar por ahí."
  },
  {
    "label": "a82eda97-74ec-4ea3-9448-5d1c87e8623d",
    "text": "Bueh... Ya no se puede regresar por ahí."
  },
  {
    "label": "aa965b63-386b-4a89-81a3-435ffb918ab9",
    "text": "A estos octarianos no se les escapa nada, ¿no?"
  },
  {
    "label": "d5abfcdd-3bd9-42b0-9b79-eaa797756d1b",
    "text": "¿Es un... {{color id=\"1\"}}octotirador{{color id=\"65535\"}}?"
  },
  {
    "label": "fb9168da-4df9-41da-8ac6-a0a4b64d7a63",
    "text": "¡Uah! ¡Hay tinta por todos lados!"
  }
]