[
  {
    "label": "02630791-d285-4532-9103-295a3206047f",
    "text": "¡El {{color id=\"1\"}}cangrejobot{{color id=\"65535\"}}! ¡Sí, tras ellos!"
  },
  {
    "label": "46465237-33e0-4a87-b2e2-cda6dc7777ee",
    "text": "¡Buenísimo! ¡Sigue así!"
  },
  {
    "label": "622fdea1-4867-49ec-8e8d-df2ec26356c2",
    "text": "¡Zasss! {{string value=\"5\"}}(¡Qué tensión!){{fun_000F_0004 arg=\"0x0500\"}}"
  },
  {
    "label": "634b5970-06ab-4b83-b233-f968ad93a98d",
    "text": "¡¿Eh?! ¡Pero si el Volbagrezón está ahí dentro!"
  },
  {
    "label": "681440f8-051b-4cc1-8ef4-268a65e49b95",
    "text": "Las medidas de seguridad de este sitio\nson un poco... excesivas."
  },
  {
    "label": "8136722e-6236-4628-b8ae-3db1238a1f49",
    "text": "¡La {{color id=\"1\"}}ultraselladora{{color id=\"65535\"}}! ¡Aplasta a la vez que avanzas!\nYa sabes: ¡\"pam, pam\" manteniendo oprimido {{icon id=\"12\" arg=\"0x0000803F00000000\"}}!"
  },
  {
    "label": "8484ca13-5552-4bfc-8c0b-8be6a75e9503",
    "text": "Así que aquí es donde lo encerraron... ¡Hay que sacarlo\nde ahí! Pero será después..."
  },
  {
    "label": "8dcabab4-e2bc-4c53-83d0-3b5908d54b35",
    "text": "Diría que todavía queda bastante por delante. ¡Ánimo!"
  },
  {
    "label": "a22c5a93-1bf7-425a-a7a6-774c746ba018",
    "text": "¡Ufff! Bueno, parece que puedes recuperar un poco\nel aliento."
  },
  {
    "label": "e69897ce-a932-4502-8d47-41cec93e0541",
    "text": "♪ ¡Muy, muy, muuuy bien hecho! ♪"
  },
  {
    "label": "f89dd579-fe53-4be9-8b61-ebe6558782be",
    "text": "¿Seguro que puedes dar ese salto? Porque yo no\npodría; te lo digo de una vez."
  }
]