[
  {
    "label": "06f21571-59e5-43f4-862b-fad2a8464e1a",
    "text": "Son demasiados objetivos..."
  },
  {
    "label": "0cb08940-e8a3-44bd-ab5b-bcaa9bbd41e7",
    "text": "Estos blancos tienen su truco..."
  },
  {
    "label": "1dad4b49-95ab-465f-b661-2532222ad639",
    "text": "¡Meta alcanzadaaa!"
  },
  {
    "label": "32061c68-c094-4e43-8110-ee5de46746c9",
    "text": "¡Impresionante!"
  },
  {
    "label": "53a257eb-d613-4a58-8061-820e1c346e6c",
    "text": "Tarde o temprano caerán, objetivos fastidiosos..."
  },
  {
    "label": "5465e5d5-7115-42e2-b3f6-1c54369fd9d3",
    "text": "¡Qué objetivos tan fastidiosos!"
  },
  {
    "label": "58999aea-8d86-4241-9826-02f18b04a60d",
    "text": "¡ESO!"
  },
  {
    "label": "70e5bf5c-6231-4913-8d02-2bffb3dfe2c1",
    "text": "¡Se acerca el final! ¡Puedo sentirlo!"
  },
  {
    "label": "71887444-23e5-415e-a875-ad97e1897be7",
    "text": "¡Puedes lanzar {{color id=\"1\"}}globos entintados {{color id=\"65535\"}}con {{icon id=\"10\" arg=\"0x0000803F00000000\"}}!"
  },
  {
    "label": "7ec78d24-b584-433b-ad6c-d2d23c766956",
    "text": "¡Excelente trabajo, Agente 3!"
  },
  {
    "label": "85373911-2c7f-4552-8ad8-5815cfeec8af",
    "text": "¡Sigue así!"
  },
  {
    "label": "9674cceb-dadb-499c-9d55-82eab8dbe8af",
    "text": "Tendrás que eliminar todos los {{color id=\"1\"}}objetivos{{color id=\"65535\"}}."
  },
  {
    "label": "9d424236-20ea-4f4e-8516-b7cf4227f3e5",
    "text": "No pudiste con todos los blancos, ¿no?"
  },
  {
    "label": "c6f59161-4b10-4dfe-a3ab-2df61cc6f6b6",
    "text": "¡Intenta mantener el ritmo en la segunda mitad!"
  },
  {
    "label": "d51ac352-b913-4fcf-a834-1810a7df57a8",
    "text": "Algunos objetivos son duros de eliminar..."
  },
  {
    "label": "e20283f4-5fbe-4ca2-a2f0-8990bce20cef",
    "text": "¡La onda expansiva de las bombas puede provocar\ntodo tipo de reacciones!"
  },
  {
    "label": "f7ec12f5-192c-4677-b2c1-1727d9131615",
    "text": "Si te subes a un {{color id=\"1\"}}autorriel{{color id=\"65535\"}}, avanzarás\nde forma automática."
  }
]