[
  {
    "label": "1bef1742-e641-43bd-b6b8-91996e07de4b",
    "text": "Son huidizos, pero solo queda uno ya."
  },
  {
    "label": "2ff46da6-802e-43cf-bbba-e922a0b0eb6a",
    "text": "Prueba a entintar el terreno donde estén los {{icon id=\"60\" arg=\"0x0000803F00000000\"}}.\nAsí podrás frenarlos."
  },
  {
    "label": "3cc92024-c9b0-4a0b-b289-d87aff48eb4c",
    "text": "La armadura es una buena protección contra la tinta."
  },
  {
    "label": "71d1ebe6-2d88-418b-a8bf-31f5acc6cafd",
    "text": "Debería haberlo mencionado antes, pero puedes\nhacer que la jaula acelere si inclinas {{icon id=\"75\" arg=\"0xEC51383FFEFFFFFF\"}}."
  },
  {
    "label": "880f8768-74e2-426b-9592-08caa8f30d82",
    "text": "¡Excelente!"
  },
  {
    "label": "a6335c97-396f-4633-ac23-781c83b5712b",
    "text": "¡Veo una {{color id=\"4\"}}armadura{{color id=\"65535\"}} {{icon id=\"65\" arg=\"0x0000803F00000000\"}}!"
  }
]