[
  {
    "label": "0fb02278-90e5-4617-8e0a-b5cd6ee45bc6",
    "text": "¿Marina? ¿Hooolaaa? ¡Marinaaa!"
  },
  {
    "label": "2874d094-88fb-4264-a4d4-a581574cfe61",
    "text": "Este lugar se parece al centro de Cromópolis.\n¿Qué habrá pasado aquí?"
  },
  {
    "label": "c2d55068-b052-4a68-bf3a-8eb61b3a65dc",
    "text": "¿Y estos casilleros? Antes no estaban allí."
  },
  {
    "label": "f1d0167f-812c-4bd4-8806-0294e163c690",
    "text": "Aunque... tienen algo que me resulta muy familiar."
  }
]