[
  {
    "label": "08aad450-bd01-444b-94e6-46c36ae2df7f",
    "text": "¡Disculpen!"
  },
  {
    "label": "15d1da38-d26f-46d3-9ec5-e9566ed37226",
    "text": "¿Qué hacen esos {{color id=\"1\"}}octorreclutas{{color id=\"65535\"}} boca abajo?"
  },
  {
    "label": "36ddbfb0-ddcc-479b-8207-80ecaf3d0b7a",
    "text": "¡Uuu, la plataforma se mueve!"
  },
  {
    "label": "3b2613fe-9923-4e54-867a-4a91fc50ec5f",
    "text": "¡Una puerta que se abre!"
  },
  {
    "label": "3d650305-a5df-40c7-989f-450671c8ea3b",
    "text": "¿Y si entintas ese {{color id=\"1\"}}interruptor{{color id=\"65535\"}}?"
  },
  {
    "label": "4893ab24-4312-4e08-9f07-85fcc9ef4a18",
    "text": "¡Uf! ¡Qué manera de entrometerse!"
  },
  {
    "label": "8bb1eff4-235b-4e79-bf88-1406c84ac45f",
    "text": "Por ahí se puede continuar. ¡A subir se ha dicho!"
  },
  {
    "label": "905733b6-0b22-4c1d-a311-91526c3f0a25",
    "text": "¡Ah, mira! ¡Hiciste mover la plataforma!"
  },
  {
    "label": "9a97c1d4-417f-4e89-b998-f69234b3b88d",
    "text": "Primero habría que limpiar la plaza de octarianos.\n¡Y hay un montón!"
  },
  {
    "label": "a27feb12-31ff-4bae-847d-a2e78517d477",
    "text": "No hay caja que se te escape, ¿eh, Agente 3?"
  },
  {
    "label": "aab6bdd7-82fa-4a24-8747-1d30d7b9c4f1",
    "text": "Eso sí que es aprovechar el alcance de las armas.\n¡Bien hecho!"
  },
  {
    "label": "e3d54a3c-ee1e-4113-b007-1f9df96bd5e5",
    "text": "¡Llegaste a la cima! ¡Bravo, Agente 3!"
  },
  {
    "label": "ea80c3ca-4f62-4c40-b604-37804b2d3db6",
    "text": "¡Toma eso, {{color id=\"1\"}}octotirador{{color id=\"65535\"}}!"
  },
  {
    "label": "ed7f6d5b-9be4-4a74-804b-801112cba8e9",
    "text": "Veo la meta. Es solo cuestión de subir hasta ahí."
  },
  {
    "label": "f0209afe-bba2-4175-bbf3-3ef41f1fca60",
    "text": "Hay un {{color id=\"1\"}}interruptor{{color id=\"65535\"}} al otro lado del cristal.\n¿Cómo podrías alcanzarlo con tu tinta?"
  },
  {
    "label": "fcf97cb4-b5f1-46cb-bfbd-83c3da309690",
    "text": "Conque vía rápida... Buena esa."
  }
]