{
  "version": 7,
  "rootNode": {
    "Id": 200,
    "Reward": [
      {
        "GearInfo": "Work/Gyml/Hed_HAP016.spl__GearInfo.gyml",
        "Type": "Gear_Head"
      },
      {
        "GearInfo": "Work/Gyml/Hed_HAP017.spl__GearInfo.gyml",
        "Type": "Gear_Head"
      },
      {
        "GearInfo": "Work/Gyml/Hed_HAP018.spl__GearInfo.gyml",
        "Type": "Gear_Head"
      },
      {
        "GearInfo": "Work/Gyml/Hed_HAP019.spl__GearInfo.gyml",
        "Type": "Gear_Head"
      },
      {
        "NamePlateBgInfo": "Work/Gyml/NamePlateBgInfo/Npl_News_Season05_Lv04.spl__NamePlateBgInfo.gyml",
        "Type": "NamePlateBg"
      }
    ]
  }
}