{
  "version": 7,
  "rootNode": {
    "AnimationInfo": {
      "AnimationInfoArray": {
        "Dance00": {
          "AnimOffsetSec": 0.0,
          "AnimOffsetType": "None",
          "BeatLinkSetting": {
            "BeatNum": 1,
            "Enable": false,
            "SyncFrame": 0
          },
          "FskbName": "",
          "Hash": 0
        },
        "Dance01": {
          "AnimOffsetSec": 0.0,
          "AnimOffsetType": "None",
          "BeatLinkSetting": {
            "BeatNum": 1,
            "Enable": false,
            "SyncFrame": 0
          },
          "FskbName": "",
          "Hash": 0
        },
        "Jump00": {
          "AnimOffsetSec": 0.0,
          "AnimOffsetType": "None",
          "BeatLinkSetting": {
            "BeatNum": 1,
            "Enable": false,
            "SyncFrame": 0
          },
          "FskbName": "",
          "Hash": 0
        },
        "Wait00": {
          "AnimOffsetType": "Random",
          "FskbName": "Work/Model/Npc/Npc_Jerry00_SAND/output/ShopperWait00.fskb",
          "Hash": 2387146976
        },
        "Woo00": {
          "AnimOffsetSec": 0.0,
          "AnimOffsetType": "None",
          "BeatLinkSetting": {
            "BeatNum": 1,
            "Enable": false,
            "SyncFrame": 0
          },
          "FskbName": "",
          "Hash": 0
        }
      }
    },
    "ColorfulPaintRate": 0.249,
    "EnableColorfulPaint": true,
    "FestResourceSetting": {
      "EnableTeam": true,
      "HappiTextureMaterialName": "JerryClothSANDCrowd",
      "IsReplaceWithFestColor": true,
      "IsReplaceWithFestHappiTexture": true
    },
    "FmdbHash": 4114224958,
    "FmdbName": "Work/Model/Npc/Npc_Jerry00_SAND/output/Npc_JerryShopper00_Crowd_SAND.fmdb",
    "ResModelHash": 1422986905,
    "ResModelName": "Work/Model/Npc/Npc_Jerry00_SAND/workspace.pp__ModelProject.gyml",
    "SkeletalAnimTransitionInfo": []
  }
}