{
  "version": 7,
  "rootNode": {
    "FovY": 90.0,
    "Pos": {
      "X": -3.09964,
      "Y": 0.26005,
      "Z": -4.40751
    },
    "Rot": {
      "X": -42.77214,
      "Y": -61.95161,
      "Z": 3E-06
    }
  }
}