{
  "version": 7,
  "rootNode": {
    "FovY": 90.0,
    "Pos": {
      "X": -19.15446,
      "Y": 0.33519,
      "Z": 12.2439
    },
    "Rot": {
      "X": -40.01056,
      "Y": 144.4109,
      "Z": 0.0
    }
  }
}