{
  "version": 7,
  "rootNode": {
    "Caustics": {
      "Enable": true
    },
    "Fog": {
      "Color": {
        "A": 1.0,
        "B": 0.05098039,
        "G": 0.1529412,
        "R": 0.0627451
      },
      "Enable": true,
      "End": 5.0,
      "Start": 0.0
    },
    "IsDisplay": true,
    "Material": {
      "EdgeAlphaRange": 2.5,
      "EdgeAlphaStart": 0.0,
      "EdgeBubbleColor": {
        "A": 1.0,
        "B": 0.6588235,
        "G": 0.5843138,
        "R": 0.4705882
      },
      "IsUseSpecularColor": true,
      "NormAnisotropy": 1.0,
      "OceanColor": {
        "A": 1.0,
        "B": 0.8235294,
        "G": 0.6509804,
        "R": 0.509804
      },
      "OceanRoughness": 0.0,
      "ShadeBrightness": 0.0,
      "SpecularColor": {
        "A": 1.0,
        "B": 0.7921569,
        "G": 0.7843137,
        "R": 0.6588235
      },
      "SpecularScalar": 0.234375
    },
    "Mesh": {
      "FlowVelocity": {
        "X": 0.01,
        "Y": -0.0125
      },
      "IsOceanHeightClamp": true,
      "MeshVertWidth": 10.0,
      "OceanHeight": -25.0,
      "WaveRepeat": 3.0
    },
    "OceanType": "cXlu",
    "OuterMesh": {
      "DrawOceanSurfaceType": {
        "Xm": true,
        "XmYm": false,
        "XmYp": false,
        "Xp": true,
        "XpYm": false,
        "XpYp": false,
        "Ym": false,
        "Yp": true
      },
      "IsDisplayOuterMesh": true,
      "IsFadeoutSurface": true,
      "MeshAlphaFadeEnd": 1200.0,
      "MeshAlphaFadeStart": 1200.0,
      "MeshNormFadeEnd": 1200.0,
      "MeshNormFadeStart": 800.0,
      "OuterMeshVertWidth": 31.42
    },
    "Simulation": {
      "Choppiness": 0.036,
      "SimulationStep": 0.042,
      "WindSpeed": 5.51
    }
  }
}