{
  "version": 7,
  "rootNode": {
    "PageList": [
      {
        "Level": [1]
      },
      {
        "Level": [2,3,4],
        "PageType": "Item3WithByname"
      },
      {
        "Level": [5,6,7],
        "PageType": "Item3",
        "PicturePath": ""
      },
      {
        "LayoutPattern": 0,
        "Level": [],
        "PageType": "SinglePicture",
        "PicturePath": "Work/UI/Icon/Catalog/Season6/CatalogImageSeason6_00.tga"
      },
      {
        "LayoutPattern": 1,
        "Level": [8,9],
        "PageType": "Item2"
      },
      {
        "Level": [10],
        "PageType": "Item1"
      },
      {
        "LayoutPattern": 1,
        "Level": [11,12,13],
        "PageType": "Item3"
      },
      {
        "LayoutPattern": 0,
        "Level": [14,15,16],
        "PageType": "Item3",
        "PicturePath": ""
      },
      {
        "LayoutPattern": 1,
        "Level": [17,18,19,20],
        "PageType": "Item4"
      },
      {
        "LayoutPattern": 1,
        "Level": [21,22],
        "PageType": "Item2",
        "PicturePath": ""
      },
      {
        "LayoutPattern": 0,
        "Level": [],
        "PageType": "SinglePicture",
        "PicturePath": "Work/UI/Icon/Catalog/Season6/CatalogImageSeason6_01.tga"
      },
      {
        "LayoutPattern": 1,
        "Level": [23,24,25],
        "PageType": "Item3"
      },
      {
        "Level": [26],
        "PageType": "Item1"
      },
      {
        "LayoutPattern": 1,
        "Level": [27,28],
        "PageType": "Item2"
      },
      {
        "Level": [29,30],
        "PageType": "Item2",
        "PicturePath": ""
      },
      {
        "LayoutPattern": 1,
        "Level": [31],
        "PageType": "Item1",
        "PicturePath": ""
      },
      {
        "LayoutPattern": 0,
        "Level": [32,33,34],
        "PageType": "Item3"
      },
      {
        "LayoutPattern": 1,
        "Level": [35,36,37],
        "PageType": "Item3"
      },
      {
        "LayoutPattern": 1,
        "Level": [38,39],
        "PageType": "Item2"
      },
      {
        "LayoutPattern": 0,
        "Level": [40],
        "PageType": "Item1"
      },
      {
        "LayoutPattern": 1,
        "Level": [41,42,43],
        "PageType": "Item3",
        "PicturePath": ""
      },
      {
        "Level": [],
        "PageType": "SinglePicture",
        "PicturePath": "Work/UI/Icon/Catalog/Season6/CatalogImageSeason6_02.tga"
      },
      {
        "LayoutPattern": 1,
        "Level": [44,45],
        "PageType": "Item2"
      },
      {
        "LayoutPattern": 2,
        "Level": [46,47,48,49],
        "PageType": "Item4"
      },
      {
        "LayoutPattern": 1,
        "Level": [50],
        "PageType": "Item1"
      },
      {
        "LayoutPattern": 0,
        "Level": [],
        "PageType": "SinglePicture",
        "PicturePath": "Work/UI/Icon/Catalog/Season6/CatalogImageSeason6_03.tga"
      },
      {
        "Level": [51],
        "PageType": "Item1",
        "PicturePath": ""
      },
      {
        "LayoutPattern": 1,
        "Level": [52,53],
        "PageType": "Item2"
      },
      {
        "LayoutPattern": 1,
        "Level": [],
        "PageType": "SinglePicture",
        "PicturePath": "Work/UI/Icon/Catalog/Season6/CatalogImageSeason6_04.tga"
      },
      {
        "Level": [54],
        "PageType": "Item1"
      },
      {
        "LayoutPattern": 0,
        "Level": [55,56],
        "PageType": "Item2"
      },
      {
        "LayoutPattern": 1,
        "Level": [57,58,59],
        "PageType": "Item3"
      },
      {
        "LayoutPattern": 0,
        "Level": [60],
        "PageType": "Item1",
        "PicturePath": ""
      },
      {
        "Level": [],
        "PageType": "SinglePicture",
        "PicturePath": "Work/UI/Icon/Catalog/Season6/CatalogImageSeason6_05.tga"
      },
      {
        "Level": [61,62,63],
        "PageType": "Item3"
      },
      {
        "LayoutPattern": 1,
        "Level": [64,65],
        "PageType": "Item2"
      },
      {
        "Level": [],
        "PageType": "SinglePicture",
        "PicturePath": "Work/UI/Icon/Catalog/Season6/CatalogImageSeason6_06.tga"
      },
      {
        "LayoutPattern": 0,
        "Level": [66],
        "PageType": "Item1"
      },
      {
        "LayoutPattern": 1,
        "Level": [67,68,69],
        "PageType": "Item3",
        "PicturePath": ""
      },
      {
        "LayoutPattern": 1,
        "Level": [70,71],
        "PageType": "Item2"
      },
      {
        "LayoutPattern": 0,
        "Level": [72],
        "PageType": "Item1"
      },
      {
        "Level": [],
        "PageType": "SinglePicture",
        "PicturePath": "Work/UI/Icon/Catalog/Season6/CatalogImageSeason6_07.tga"
      },
      {
        "Level": [73,74,75],
        "PageType": "Item3"
      },
      {
        "LayoutPattern": 0,
        "Level": [76,77],
        "PageType": "Item2"
      },
      {
        "Level": [],
        "PageType": "SinglePicture",
        "PicturePath": "Work/UI/Icon/Catalog/Season6/CatalogImageSeason6_08.tga"
      },
      {
        "LayoutPattern": 0,
        "Level": [78],
        "PageType": "Item1"
      },
      {
        "LayoutPattern": 0,
        "Level": [79,80,81],
        "PageType": "Item3"
      },
      {
        "LayoutPattern": 1,
        "Level": [82,83],
        "PageType": "Item2"
      },
      {
        "LayoutPattern": 0,
        "Level": [84],
        "PageType": "Item1"
      },
      {
        "Level": [],
        "PageType": "SinglePicture",
        "PicturePath": "Work/UI/Icon/Catalog/Season6/CatalogImageSeason6_09.tga"
      },
      {
        "LayoutPattern": 1,
        "Level": [85],
        "PageType": "Item1"
      },
      {
        "LayoutPattern": 1,
        "Level": [86,87,88,89],
        "PageType": "Item4",
        "PicturePath": ""
      },
      {
        "PageType": "SinglePicture",
        "PicturePath": "Work/UI/Icon/Catalog/Season6/CatalogImageSeason6_10.tga"
      },
      {
        "Level": [90]
      },
      {
        "Level": [91,92],
        "PageType": "Item2"
      },
      {
        "Level": [93],
        "PageType": "Item1"
      },
      {
        "Level": [],
        "PageType": "SinglePicture",
        "PicturePath": "Work/UI/Icon/Catalog/Season6/CatalogImageSeason6_11.tga"
      },
      {
        "Level": [94]
      },
      {
        "Level": [95,96,97],
        "PageType": "Item3WithByname"
      },
      {
        "Level": [98]
      },
      {
        "PageType": "SinglePicture",
        "PicturePath": "Work/UI/Icon/Catalog/Season6/CatalogImageSeason6_12.tga"
      },
      {
        "Level": [99]
      },
      {
        "Level": [100]
      },
      {
        "PageType": "SinglePicture",
        "PicturePath": "Work/UI/Icon/Catalog/Season6/CatalogImageSeason6_13.tga"
      }
    ]
  }
}