[
  {
    "label": "JP",
    "text": "Japan"
  },
  {
    "label": "US",
    "text": "Nord-/Südamerika/Australien/Neuseeland"
  },
  {
    "label": "EU",
    "text": "Europa"
  },
  {
    "label": "ASIA",
    "text": "Hongkong/Südkorea"
  },
  {
    "label": "JP_Eve",
    "text": "Japan"
  },
  {
    "label": "US_Eve",
    "text": "Nord-/Südamerika"
  },
  {
    "label": "EU_Eve",
    "text": "Europa"
  },
  {
    "label": "ASIA_Eve",
    "text": "Australien/Neuseeland/Hongkong/Südkorea"
  }
]