[
  {
    "label": "Weapon_Welcome_00",
    "text": "Hawwo, hawwo! Ben je misschien op\nzoek naar een leuk, nieuw wapen?"
  },
  {
    "label": "Weapon_WelcomeS",
    "text": "Hawwo, hawwo!"
  },
  {
    "label": "Weapon_First_00",
    "text": "Hawwo, hawwo! Ben je misschien op\nzoek naar nieuwe wapens? Want dan\nis dit de juiste pwek!{{pageBreak}}Onze wapens komen in een set, met\neen {{color id=\"1\"}}hoofdwapen {{color id=\"65535\"}}voor {{icon id=\"12\" arg=\"0x0000803F00000000\"}},\neen {{color id=\"1\"}}subwapen{{color id=\"65535\"}} voor {{icon id=\"10\" arg=\"0x0000803F00000000\"}}, en\nnatuuwlijk een {{color id=\"1\"}}speciaal wapen{{color id=\"65535\"}}!{{pageBreak}}Klinkt allemaal moewlijk? Geen nood!\nJe kunt altijd op {{icon id=\"3\" arg=\"0x0000803F00000000\"}} drukken om\nonze spullen uit te pwoberen."
  },
  {
    "label": "Weapon_First_01",
    "text": "Onze wapens zijn in ruil voor\n{{icon id=\"28\" arg=\"0x295C4F3F00000000\"}}{{color id=\"1\"}}Krabbert-vewgunningen{{color id=\"65535\"}} te\nkrijgen!"
  },
  {
    "label": "Weapon_EndCloseUp_00",
    "text": "Die {{icon id=\"28\" arg=\"0x295C4F3F00000000\"}}Krabbert-vewgunningen krijg\nje door veel te vechten en je niweau\nte vewbeteren. Of door een wapen\nheel veel te gebruiken!"
  },
  {
    "label": "Weapon_FirstWithSaveTransfer_00",
    "text": "Hawwo, hawwo! O! Je bent vast op\nzoek naar iets. Hopelijk naar\nwapens? Want die hebben we hiew\nnamelijk.{{pageBreak}}Wauw, wat heb je DAAW?! Verzamel\nje antieke wapens? Dat wijkt me een\nleuke hobby, maar misschien wil je\niets versers voow op het slagweld?"
  },
  {
    "label": "Weapon_FirstWithSaveTransfer_01",
    "text": "Maar voor je zo'n mooi, nieuw wapen\nmag meenemen, moet je wel de juiste\n{{icon id=\"28\" arg=\"0x295C4F3F00000000\"}}{{color id=\"1\"}}Krabbert-vewgunningen {{color id=\"65535\"}}hebben,\noké?"
  },
  {
    "label": "Weapon_EndCloseUpWithSaveTransfer_00",
    "text": "Je krijgt {{icon id=\"28\" arg=\"0x295C4F3F00000000\"}}Krabbert-vergwunningen\ndoor te vechten en je niweau te\nverbeteren. Of door zo vaak met een\nwapen te vechten dat je daar heel\ngoed mee bent.{{pageBreak}}Oho! Sowwy, dat had ik niet gezien!\nJe hebt al een heuse {{icon id=\"29\" arg=\"0x295C4F3F00000000\"}}{{color id=\"1\"}}gouden\nKrabbert-vewgunning {{color id=\"65535\"}}op zak!\nJe bent een ewchte kenner!{{pageBreak}}In dat geval heb je meteen veel\nmeer keuze! Kijk eewns hoeveel\nwapens we je dan kunnen laten zien!\nGoed hoow!"
  },
  {
    "label": "Weapon_Offline_00",
    "text": "Hawwo, ha... {{pageBreak}}O... Wat is er mis met je? Geen\n{{color id=\"1\"}}interwet{{color id=\"65535\"}}? Ik mag je pas helpen\nals je dat hebt, hoor. Daarvoor\nmoet je naar de {{color id=\"1\"}}lobby{{color id=\"65535\"}}!"
  },
  {
    "label": "Weapon_RankShortage_00",
    "text": "Hawwo, ha... O, jee. Is... Is dat echt\nhet enige wapen dat je hebt?{{pageBreak}}Ik wil je heel graag alles vertellen\nover al de leuke dingetjews die hier in\nde winkel liggen, maar, eh... ik weet\nniet of je dat wel snapt,\nop niweau 1...{{pageBreak}}Maar wat ik je wel kan vertellen:\nga naar de {{color id=\"1\"}}lobby {{color id=\"65535\"}}en speel wat\n{{color id=\"1\"}}standaardgevechten{{color id=\"65535\"}}. Tot je op\n{{color id=\"1\"}}niweau 2 {{color id=\"65535\"}}zit! Gelukkig duurt dat\nmeestaw niet zo lang!"
  },
  {
    "label": "Weapon_License_00",
    "text": "Met je huidige {{color id=\"1\"}}niweau{{color id=\"65535\"}} denk ik niet\ndat dat wapen iets voor jou is...\nMaar, eh...{{pageBreak}}Als je het echt heel gwaag, echt\nsuperdupermega-graag wilt, dan mag\nje het hebben in ruil voor... Hm...\n{{color id=\"1\"}}3 {{color id=\"65535\"}}{{icon id=\"28\" arg=\"0x295C4F3F00000000\"}}Krabbert-vergwunningen."
  },
  {
    "label": "Weapon_GoldLicense_00",
    "text": "Met je huidige {{color id=\"1\"}}niweau{{color id=\"65535\"}} denk ik niet\ndat dat wapen iets voor jou is...\nMaar, eh...{{pageBreak}}Als je het echt heel gwaag, echt\nsuperdupermega-graag wilt, dan mag\nje het hebben in ruil voor... Hm...\n{{color id=\"1\"}}1 {{color id=\"65535\"}}{{icon id=\"29\" arg=\"0x295C4F3F00000000\"}}gouden Krabbert-vergwunning!"
  },
  {
    "label": "Weapon_GoldLicenseConfirm_00",
    "text": "O, dat is ook niet leuk... Je hebt geen\n{{icon id=\"28\" arg=\"0x295C4F3F00000000\"}}Krabbert-vergwunningen op zak.\nIk zou wel {{color id=\"1\"}}1{{color id=\"65535\"}} {{icon id=\"29\" arg=\"0x295C4F3F00000000\"}}gouden Krabbert-\nvergwunning van je kunnen aannemen.\nMaar, eh...{{pageBreak}}Dat is misschien wel een beetje\nzonde, die zijn heel veel waawd. Wil\nje echt die {{icon id=\"29\" arg=\"0x295C4F3F00000000\"}}gouden Krabbert-\nvergwunning gebruiken?"
  },
  {
    "label": "Weapon_LowRankS",
    "text": "Op niweau {{number index=\"0\" type=\"2\" arg3=\"0\" arg4=\"0\"}} kost dit\n1 {{icon id=\"28\" arg=\"0x0000803F00000000\"}}!"
  },
  {
    "label": "Weapon_BuyS",
    "text": "Dit wapen doen?"
  },
  {
    "label": "Weapon_BuyGoldS",
    "text": "Dit wapen doen?"
  },
  {
    "label": "Weapon_ShootingRangeS",
    "text": "Eewst testen?"
  },
  {
    "label": "Weapon_EquipS",
    "text": "Meteen gebwuiken?"
  },
  {
    "label": "Weapon_LicenseShortage_00",
    "text": "Maar je hebt helemaal niet van die\nmooie Krabbert-vergwunningen!\nKrabbert werkt heel hawd aan zijn\nspullen, hoor! Die mogen we niet\nzomaar weggeven!"
  },
  {
    "label": "Weapon_SoldOut_00",
    "text": "Dat wapen is leuk, hè? Maar het is\nzo leuk, dat je er al eewntje van\nhebt, gewoof ik?"
  },
  {
    "label": "Weapon_ThankYou_00",
    "text": "Gewelwig! Wees er lief voor, oké!\nVewgeet niet om het te kiezen in\nhet menu {{icon id=\"5\" arg=\"0x0000803F00000000\"}} {{color id=\"1\"}}UITRUSTING{{color id=\"65535\"}}, anders\nkun je het niet gebwuiken."
  },
  {
    "label": "Weapon_ThankYouGoldLicense_00",
    "text": "Gewelwig! Wees er lief voor, oké!\nVewgeet niet om het te kiezen in\nhet menu {{icon id=\"5\" arg=\"0x0000803F00000000\"}} {{color id=\"1\"}}UITRUSTING{{color id=\"65535\"}}, anders\nkun je het niet gebwuiken.{{pageBreak}}Wil je weten hoeveel {{icon id=\"29\" arg=\"0x295C4F3F00000000\"}}gouden\nKrabbert-vergwunningen je nog\nhebt? Eh, even kijken... Aha! Je hebt\new nog {{color id=\"1\"}}{{number index=\"0\" type=\"1\" arg3=\"0\" arg4=\"0\"}}{{color id=\"65535\"}}."
  },
  {
    "label": "Weapon_ThankYouLastGoldLicense_00",
    "text": "Gewelwig! Wees er lief voor, oké!\nVewgeet niet om het te kiezen in\nhet menu {{icon id=\"5\" arg=\"0x0000803F00000000\"}} {{color id=\"1\"}}UITRUSTING{{color id=\"65535\"}}, anders\nkun je het niet gebwuiken.{{pageBreak}}O, en nu zijn je {{icon id=\"29\" arg=\"0x295C4F3F00000000\"}}gouden\nKrabbert-vergwunningen op!"
  },
  {
    "label": "Weapon_UnlockA_00",
    "text": "Onze fwaaie verzameling wapens is\nnog fwaaier geworden! Kijk toch\neens hoe pwachtig!"
  },
  {
    "label": "Weapon_UnlockA_01",
    "text": "O! Volgens mij ben je kwaar voor een,\neh... {{color id=\"1\"}}{{string value=\"WeaponName\" arg1=\"0\" arg3=\"0\"}}{{color id=\"65535\"}}!"
  },
  {
    "label": "Weapon_UnlockB_00",
    "text": "O, maar niet awween die! De\n{{color id=\"1\"}}{{string value=\"WeaponName\" arg1=\"0\" arg3=\"0\"}}{{color id=\"65535\"}} ook!"
  },
  {
    "label": "Weapon_ExplainAfter_00",
    "text": "Tenminste... Krabbert zei dat je er\nkwaar voor bent. Dus dan is het\nvawst zo."
  },
  {
    "label": "Weapon_Complete_00",
    "text": "Wauw, je hebt de hele verzameling\nwapens! Gefeliciweerd, mede-\nwapenfanaat!{{pageBreak}}Als je net als ik veel te veel\n{{icon id=\"28\" arg=\"0x295C4F3F00000000\"}}Krabbert-vergwunningen hebt,\nkun je ze ruilen voor {{icon id=\"34\" arg=\"0xE17A943F00000000\"}}{{color id=\"1\"}}prijs-\npenningen {{color id=\"65535\"}}bij de Prijzenpot in\nde {{color id=\"1\"}}lobby{{color id=\"65535\"}}!"
  },
  {
    "label": "Head_Welcome_00",
    "text": "Hmm? O, welkom!"
  },
  {
    "label": "Head_WelcomeS",
    "text": "..."
  },
  {
    "label": "Head_WelcomeRank04_00",
    "text": "Hm...?{{delay frames=\"30\"}} O, halloooo.{{delay frames=\"30\"}}\nWelkom bij Hoofdmoot.{{pageBreak}}Je aura is best sterk.{{delay frames=\"30\"}} Laten we wat\nmooie uitrusting vinden die daar\nhelemaal bij past, hmm?"
  },
  {
    "label": "Head_ExpFirst_00",
    "text": "Je weet toch al dat elk kledingstuk\neen bepaald {{color id=\"1\"}}effect {{color id=\"65535\"}}heeft, hè?{{delay frames=\"30\"}}{{pageBreak}}Nou,{{delay frames=\"30\"}} als je precies wilt weten hoe\nhet zit, {{delay frames=\"30\"}}kies dan {{icon id=\"11\" arg=\"0x0000803F00000000\"}} om verlichting\nte ervaren.{{delay frames=\"30\"}} Hmkee?"
  },
  {
    "label": "Head_ExpFirstS",
    "text": "GAMBOOOOO!"
  },
  {
    "label": "Head_WelcomeRank10_00",
    "text": "O hallooo, watervlo!{{delay frames=\"30\"}} Je aura straalt\nals nooit tevoren...{{delay frames=\"30\"}} Als je jezelf\ntoch eens kon zien..."
  },
  {
    "label": "Head_WelcomeRank10S",
    "text": "JE RUIKT OOK JAMMIE!"
  },
  {
    "label": "Head_WelcomeRank20_00",
    "text": "Welkom bij Hoofdmoot...{{delay frames=\"30\"}}\nNeem je tijd om rustig rond te kij...{{delay frames=\"30\"}}{{pageBreak}}Ben...{{delay frames=\"30\"}} Ben jij het, zeekomkommertje\nvan me?{{delay frames=\"30\"}} Je aura is zo vers dat ik je\nhaast niet had herkend!"
  },
  {
    "label": "Head_WelcomeRank20S",
    "text": "LEKKERE VERSE AURA!"
  },
  {
    "label": "Head_WelcomeRank30_00",
    "text": "JE...{{delay frames=\"30\"}} JE AURA!{{pageBreak}}Zoiets heb ik nog nooit gezien...{{delay frames=\"30\"}}\nJe straalt zo fel dat ik\neen zonnebril nodig heb!"
  },
  {
    "label": "Head_WelcomeRank30S",
    "text": "INKTDRUKWEKKEND!"
  },
  {
    "label": "Head_Offline_00",
    "text": "Hé hallo, watervlo!{{delay frames=\"30\"}} Ik help je graag,{{delay frames=\"30\"}}\nmaar ik voel geen connectie met je.{{delay frames=\"30\"}}\nKom nog eens terug als je\neen {{color id=\"1\"}}internetverbinding {{color id=\"65535\"}}hebt gemaakt\nin de {{color id=\"1\"}}lobby{{color id=\"65535\"}}, oké?"
  },
  {
    "label": "Head_OfflineS",
    "text": "IK VOEL NOG NIKS!"
  },
  {
    "label": "Head_RankShortage_00",
    "text": "Ho, watervlo...{{delay frames=\"30\"}} Ik voelde je aura al\nvoor je binnenkwam...{{delay frames=\"30\"}} Je hebt een\nsterke energie.{{pageBreak}}Maar ik kan je mijn spullen niet\nverkopen voor je er klaar voor bent.{{delay frames=\"30\"}}\nJe moet die energie van je inzetten\nvoor zelfontplooiing.{{pageBreak}}Als je {{color id=\"1\"}}niveau 4 {{color id=\"65535\"}}hebt, ben je er wel\nklaar voor, geloof ik.{{delay frames=\"30\"}} Maar je moet\nhet niet forceren.{{delay frames=\"30\"}} Zoiets moet\norganisch gaan, weet je.{{pageBreak}}Ga nu maar...{{delay frames=\"30\"}} Ga op zoek naar je\nware zelf.{{delay frames=\"30\"}} Je zult jezelf wel vinden\nna een paar {{color id=\"1\"}}standaardgevechten{{color id=\"65535\"}}."
  },
  {
    "label": "Head_RankShortageS",
    "text": "SOORT VAN SORRY."
  },
  {
    "label": "Head_BuyS",
    "text": "Wil je dit kopen?"
  },
  {
    "label": "Head_EquipS",
    "text": "Wil je dit nu dragen?"
  },
  {
    "label": "Head_MoneyShortage_00",
    "text": "Je bent dan wel rijk van geest, maar\nmet geest kun je hier niet betalen..."
  },
  {
    "label": "Head_MoneyShortageS",
    "text": "GEESTIG. MAAR NEE."
  },
  {
    "label": "Head_RarityMax_00",
    "text": "Sorry, maar dat stuk uitrusting is\nal zo zeldzaam als maar kan."
  },
  {
    "label": "Head_RarityMaxS",
    "text": "EEN UNICUM!"
  },
  {
    "label": "Head_BasicSkillSame_00",
    "text": "Hmm... Maar de hoofdeffecten\nhebben al dezelfde aura. Het heeft\ngeen zin om in rondjes te zwemmen."
  },
  {
    "label": "Head_BasicSkillSameS",
    "text": "GELD IS NIET GRATIS!"
  },
  {
    "label": "Head_SoldOut_00",
    "text": "Wel gefocust blijven, hè?\nDit heb je al, schattebout."
  },
  {
    "label": "Head_SoldOutS",
    "text": "HAD JE AL!"
  },
  {
    "label": "Head_SoldOtherHome_00",
    "text": "O... Ik dacht dat we dat wel op\nvoorraad hadden. Ik was vast met\nmijn gedachten ergens anders."
  },
  {
    "label": "Head_SoldOtherHomeS",
    "text": "WAAR IS HET HEEN?"
  },
  {
    "label": "Head_ExpRarityUpAndReplace_00",
    "text": "O, zeekoetje van me, we hebben een\nvoorwerp dat precies lijkt op eentje\ndat je al hebt. Als je wilt, kun je\nde {{color id=\"1\"}}zeldzaamheid ervan verhogen {{color id=\"65535\"}}of\n{{color id=\"1\"}}het inruilen{{color id=\"65535\"}}.{{pageBreak}}Een {{color id=\"1\"}}hogere zeldzaamheid {{color id=\"65535\"}}kan het\nwapen meer ervaring geven, of een\nnieuw effectvakje.{{pageBreak}}Als je {{color id=\"1\"}}het inruilt{{color id=\"65535\"}}, krijg je iets\nhelemaal nieuws, met nieuwe\neffecten.{{pageBreak}}Wat je ook kiest, ik bespeur sowieso\nveel positieve mogelijkheden."
  },
  {
    "label": "Head_RarityUp_00",
    "text": "Maar je hebt dat al, anemoontje van\nme. Wil je misschien de {{color id=\"1\"}}zeldzaamheid\nervan verhogen{{color id=\"65535\"}}, of dat voorwerp{{color id=\"1\"}}\ninruilen{{color id=\"65535\"}}?"
  },
  {
    "label": "Head_ReplaceConfirm_00",
    "text": "Dat je het weet... de {{color id=\"1\"}}zeldzaamheid{{color id=\"65535\"}}\nen {{color id=\"1\"}}extra effecten {{color id=\"65535\"}}zullen worden\ngewist. Een totale reïncarnatie!"
  },
  {
    "label": "Head_ThankYou_00",
    "text": "Dank je, liefst zee-egeltje. Als je\njezelf opnieuw uit wilt vinden, druk je\ngewoon op {{icon id=\"5\" arg=\"0x0000803F00000000\"}} {{color id=\"1\"}}UITRUSTING{{color id=\"65535\"}}!"
  },
  {
    "label": "Head_ThankYouS",
    "text": "SUPERVISKEUS!"
  },
  {
    "label": "Head_ThanksBadgeA_00",
    "text": "Wacht even, zeepaardje van me.{{pageBreak}}Dit is een speciale {{color id=\"1\"}}badge {{color id=\"65535\"}}die we\nalleen geven aan klanten met hele\nvolhardende geesten.{{pageBreak}}Jij hebt duidelijk zo'n geest.\nDeze badge bevestigt alleen maar\nwat we eigenlijk al wisten."
  },
  {
    "label": "Head_ThanksBadgeAS",
    "text": "PAK AAN!"
  },
  {
    "label": "Head_ThanksBadgeB_00",
    "text": "Wauw, stralende zeester van me.{{pageBreak}}Er is een {{color id=\"1\"}}badge {{color id=\"65535\"}}die we bewaren voor\nklanten die feller schijnen dan al\nonze andere klanten.{{pageBreak}}Het is mij nu duidelijk voor wie deze\nbadge is bestemd. Voor degene die\nnooit ophoudt onze winkel te\nbezoeken. Dat ben jij!"
  },
  {
    "label": "Head_ThanksBadgeBS",
    "text": "BEDANKT EN ZO!"
  },
  {
    "label": "Clothes_Welcome_00",
    "text": "Weest wellekome!"
  },
  {
    "label": "Clothes_WelcomeS",
    "text": "Weest wellekome!"
  },
  {
    "label": "Clothes_WelcomeRank04_00",
    "text": "Wat aanschouwen mijn ogen?\nEen bezoeker van vers niveau!\nIk ben eindeloos vereerd door uw\nbezoek, mijn waarde."
  },
  {
    "label": "Clothes_ExpFirst_00",
    "text": "De effecten van mijn uitrusting\nleiden u tot victorie, glorie en...\nmeer munten!{{pageBreak}}En die munten laten u op hun beurt\nuw plunje verversen! In mijn\nnederige etablissement uiteraard...{{pageBreak}}Beroer eenvoudigweg {{icon id=\"11\" arg=\"0x0000803F00000000\"}} voor\nnadere kennisgeving over effecten."
  },
  {
    "label": "Clothes_WelcomeRank10_00",
    "text": "Treed nader en vind het juiste gerei\nvoor iemand met uw klasse! Met\nprijzen waar de gelukstranen me\nvan in de ogen springen..."
  },
  {
    "label": "Clothes_WelcomeRank20_00",
    "text": "Uw versheid wordt enkel en alleen\novertroffen door uw uitmuntende\nsmaak voor kledinghandelaren.{{pageBreak}}Tijdens uw queeste naar de beste\ndracht zal ik u ter zijde staan."
  },
  {
    "label": "Clothes_WelcomeRank30_00",
    "text": "De inkt op uw wapenrusting is nog\nvers. Uw heldendom is echter\nduizendmaal verser.{{pageBreak}}U te mogen verwelkomen laat\nmij overlopen van geluk... en\nkapitaal."
  },
  {
    "label": "Clothes_Offline_00",
    "text": "U bent hier te allen tijde een graag\ngeziene genodigde, maar u ontbeert\neen {{color id=\"1\"}}internetverbinding{{color id=\"65535\"}}...\nVerhelp dit manco, als het u belieft."
  },
  {
    "label": "Clothes_RankShortage_00",
    "text": "Wellekome in Kwallietijd, de wink...\nSchelm! U heeft de versheid\nvan een ingemaakte moot haring.{{pageBreak}}Ik zou u gaarne bijstaan, maar uw\ncompetentie moet eerst het\n{{color id=\"1\"}}niveau 4{{color id=\"65535\"}} bestrijken...{{pageBreak}}Begeef u naar de {{color id=\"1\"}}lobby {{color id=\"65535\"}}om wat\n{{color id=\"1\"}}standaardgevechten {{color id=\"65535\"}}uit te proberen,\nen keer niet weder voor u een\nacceptabel niveau heeft!"
  },
  {
    "label": "Clothes_BuyS",
    "text": "U schaft dit aan?"
  },
  {
    "label": "Clothes_EquipS",
    "text": "Wilt u dit dragen?"
  },
  {
    "label": "Clothes_MoneyShortage_00",
    "text": "De huidige toestand van uw beurs\nlaat deze aanschaf niet toe, mijn\nwaarde."
  },
  {
    "label": "Clothes_RarityMax_00",
    "text": "Hoor toe! Dit voorwerp is al van zo\neen uitzonderlijke schaarste dat een\nverdere aanwas van zeldzaamheid\nuitgesloten is."
  },
  {
    "label": "Clothes_BasicSkillSame_00",
    "text": "Ik moet mijn spijt betuigen, maar\nde hoofdeffecten zijn volkomen\neensluidend. Ik kan geen gevolg geven\naan uw verzoek."
  },
  {
    "label": "Clothes_SoldOut_00",
    "text": "Och wee, dit voorwerp is helaas niet\nlanger verkrijgbaar."
  },
  {
    "label": "Clothes_SoldOtherHome_00",
    "text": "Spijtig, spijtig! Ik heb het voorwerp\nin kwestie niet langer in bezit."
  },
  {
    "label": "Clothes_ExpRarityUpAndReplace_00",
    "text": "U bezit kleding die erg eender is aan\niets dat nu te koop staat. Het staat\nu vrij om de {{color id=\"1\"}}zeldzaamheid daarvan\nte doen stijgen{{color id=\"65535\"}} of {{color id=\"1\"}}het object te\nvervangen{{color id=\"65535\"}}.{{pageBreak}}Doet u {{color id=\"1\"}}de zeldzaamheid stijgen{{color id=\"65535\"}}, dan\nwordt u een toename in ervaring\ngewaar. {{color id=\"1\"}}Vervangt {{color id=\"65535\"}}u het, dan\nontvangt u een object met nieuwe\neffecten, zo fris als een lentebries.{{pageBreak}}Wat zegt u daarvan, mijn waarde?"
  },
  {
    "label": "Clothes_RarityUp_00",
    "text": "Dit object is erg eender aan iets dat\nreeds in uw bezit is. U kunt de\n{{color id=\"1\"}}zeldzaamheid ervan doen toenemen{{color id=\"65535\"}}\nof {{color id=\"1\"}}het inruilen{{color id=\"65535\"}}."
  },
  {
    "label": "Clothes_ReplaceConfirm_00",
    "text": "De {{color id=\"1\"}}zeldzaamheid {{color id=\"65535\"}}en {{color id=\"1\"}}extra effecten{{color id=\"65535\"}}\nzullen volledig weg worden gewuifd.\nIs dat uw wens?"
  },
  {
    "label": "Clothes_ThankYou_00",
    "text": "Mijn dank reikt ten hemel. Indien u\nwenst uw nieuw verworven dracht\nthans in te wijden, besluit u dan\nvoor {{icon id=\"5\" arg=\"0x0000803F00000000\"}} {{color id=\"1\"}}UITRUSTING{{color id=\"65535\"}}."
  },
  {
    "label": "Clothes_ThankYouButFestT_00",
    "text": "Ik dank u zo veelvuldig zeer. Echter,\ngedurende een zogeheten {{color id=\"1\"}}Splatfest{{color id=\"65535\"}}\nis het wisselen uwer kledij uit den\nboze, uw goede intenties ten spijt."
  },
  {
    "label": "Clothes_ThanksBadgeA_00",
    "text": "De zeeën aan munten die u in mijn\nbuidels heeft doen belanden, doen mij\nvoor altijd in uwe schuld staan.{{pageBreak}}Ik bied u nederig deze {{color id=\"1\"}}badge {{color id=\"65535\"}}aan, die\nis voorbehouden aan de meest\ngewaardeerde mijner klanten."
  },
  {
    "label": "Clothes_ThanksBadgeB_00",
    "text": "U heeft een garderobe bij ons\naangeschaft die een koning met\ngrote jaloezie zal gadeslaan! Ik ben\nslechts uw nederige dienaar.{{pageBreak}}Neemt u als het u belieft deze {{color id=\"1\"}}badge{{color id=\"65535\"}}\nom uw ruimhartige loyaliteit aan mijn\nbescheiden onderneming te gedenken!"
  },
  {
    "label": "Shoes_Welcome_00",
    "text": "Hé, hé! Welkom bij Fish & Kicks!"
  },
  {
    "label": "Shoes_WelcomeS",
    "text": "Hé, hé! Welkom!"
  },
  {
    "label": "Shoes_WelcomeRank04_00",
    "text": "Yo! Welkom bij Fish & Kicks!{{pageBreak}}Gaat 't een beetje? Je kijkt nog\nwat onwennig, maar maak je geen\nzorgen. Je bent bij mij in goeie\nvoeten. Eh, goeie handen, bedoel ik!"
  },
  {
    "label": "Shoes_ExpFirst_00",
    "text": "Alle schoenen in mijn shop hebben\nextra effecten waarmee je\ngevechten naar jouw voet kunt\nzetten. Eh, hand! Ik bedoel hand!{{pageBreak}}Meer weten over effecten? Druk\ndan eens op {{icon id=\"11\" arg=\"0x0000803F00000000\"}}."
  },
  {
    "label": "Shoes_WelcomeRank10_00",
    "text": "Yo! Welkom bij Fish & Kicks!{{pageBreak}}Jij bent 't, vers van de pers!{{delay frames=\"30\"}}\nJe wordt echt met elk niveau\nzelfverzekerder. Dat zie ik graag.{{pageBreak}}Kijk op je gemak even of je iets ziet\nen laat 't me weten. Niks aan de\nhand.{{delay frames=\"30\"}} Eh, voet. Nee, toch hand!"
  },
  {
    "label": "Shoes_WelcomeRank20_00",
    "text": "Welkom bij Fish & Kicks!{{pageBreak}}Kijk jou eens even! Vers als\nwaterkers, taai als een haai, cool\nals een...{{delay frames=\"30\"}} onderwaterpaddenstoel!\n...Nee?{{pageBreak}}Nou goed. Hoe dan ook, wat versheid\nbetreft kunnen we elkaar de voet\ngeven, toch? AAH! Ik bedoel\nnatuurlijk de HAND geven!"
  },
  {
    "label": "Shoes_WelcomeRank30_00",
    "text": "Yo, welkom bij Fish &... Krijg nou...{{pageBreak}}Ik... Wauw! Nu overtref je zelfs mij!\nEigenlijk kan ik dat niet accepteren,\nmaar ik zal met mijn voet over mijn\nhart strijken. Ja, met mijn voet, ja!"
  },
  {
    "label": "Shoes_Offline_00",
    "text": "Welkom b... Ho, ho, wacht even.\nWACHT. EVEN! Je bent gewoon\noffline! Maak eerst in de {{color id=\"1\"}}lobby{{color id=\"65535\"}}\nverbinding met het {{color id=\"1\"}}internet {{color id=\"65535\"}}en kom\ndan terug, oké?"
  },
  {
    "label": "Shoes_RankShortage_00",
    "text": "Oké dan! Welkom bij Fish & Kicks!{{pageBreak}}Je bent zeker nieuw ofzo. Ik wil niet\nveel zeggen, maar je ziet er niet erg\nvers uit!{{pageBreak}}Ik heb wel een soort van reputatie\nhoog te houden hier, snap je? Als\nje er klaar voor bent, laat ik je hier\nmaar wat graag shoppen, maar nu?{{pageBreak}}Dus! Check de {{color id=\"1\"}}lobby {{color id=\"65535\"}}en gooi jezelf\nin een {{color id=\"1\"}}standaardgevecht{{color id=\"65535\"}}. Daar gaat\nje niveau wel van omhoog.{{pageBreak}}Terwijl jij probeert op {{color id=\"1\"}}niveau 4{{color id=\"65535\"}} te\nkomen, zoek ik vast een paar coole\nstappers voor je uit."
  },
  {
    "label": "Shoes_BuyS",
    "text": "Wil je deze kopen?"
  },
  {
    "label": "Shoes_EquipS",
    "text": "Wil je nu hierin lopen?"
  },
  {
    "label": "Shoes_MoneyShortage_00",
    "text": "Niet genoeg cash. Je hebt zeker\neen gat in je voet. Hand, bedoel ik."
  },
  {
    "label": "Shoes_RarityMax_00",
    "text": "De zeldzaamheid van die stappers zit\nal aan de max, weet je."
  },
  {
    "label": "Shoes_BasicSkillSame_00",
    "text": "Ruilen? Nee, man. Die hebben\nhetzelfde effect als deze."
  },
  {
    "label": "Shoes_SoldOut_00",
    "text": "Die schoenen heb je al, dus het ligt\nvoor de voet om ze niet opnieuw te\nkopen. Hm? Eh, voor de HAND, ja."
  },
  {
    "label": "Shoes_SoldOtherHome_00",
    "text": "Da's balen, daar heb ik er geen meer\nvan achter de voet. Eh, nee... hand."
  },
  {
    "label": "Shoes_ExpRarityUpAndReplace_00",
    "text": "Waaauw... Vandaag heb ik stappers\nin de aanbieding waar jij al een paar\nvan hebt, man. Dan heb je de kans om\n{{color id=\"1\"}}hun zeldzaamheid te verhogen{{color id=\"65535\"}} of {{color id=\"1\"}}ze\nin te ruilen{{color id=\"65535\"}}. Jouw keuze, man!{{pageBreak}}{{color id=\"1\"}}Meer zeldzaamheid {{color id=\"65535\"}}kan je meer\neffectvakjes of ervaring geven. Of je\n{{color id=\"1\"}}ruilt ze gewoon in {{color id=\"65535\"}}voor een paar\nhelemaal frisse stappers.{{pageBreak}}Wat ik zou doen? Mij maakt het niet\nuit. Jouw voeten, jouw leven."
  },
  {
    "label": "Shoes_RarityUp_00",
    "text": "Waanzin, man! Die stappers lijken\nprecies op stappers die je al hebt!\nWil je daar {{color id=\"1\"}}de zeldzaamheid van\nverhogen {{color id=\"65535\"}}of {{color id=\"1\"}}ze misschien inruilen{{color id=\"65535\"}}?"
  },
  {
    "label": "Shoes_ReplaceConfirm_00",
    "text": "Je weet het wel zeker, toch?\nJe verliest dan wel de {{color id=\"1\"}}zeldzaamheid{{color id=\"65535\"}}\nen {{color id=\"1\"}}extra effecten{{color id=\"65535\"}}."
  },
  {
    "label": "Shoes_ThankYou_00",
    "text": "Dank je. Je vertrekt in elk geval\nniet met lege voeten, eh, handen.\nGebruik {{icon id=\"5\" arg=\"0x0000803F00000000\"}} {{color id=\"1\"}}UITRUSTING {{color id=\"65535\"}}als je\niets anders aan wilt trekken."
  },
  {
    "label": "Shoes_ThanksBadgeA_00",
    "text": "Ha, ik begin het gevoel te krijgen dat\nik je hier elke dag zie. Of zijn er meer\nvan jou? Woooh.{{pageBreak}}Ik geloof dat je wat hoort te krijgen,\nweet je. Dit is een {{color id=\"1\"}}badge{{color id=\"65535\"}} voor alle\nklanten die hier graag hangen."
  },
  {
    "label": "Shoes_ThanksBadgeB_00",
    "text": "Hé, weet je... Soms mis ik je echt,\nals je hier niet bent.{{pageBreak}}Bedankt dat je weer spullen hebt\ngekocht, vind ik echt tof van je. Ik\nhoop dat jij ook het gevoel hebt dat\nwij wat voor jou doen.{{pageBreak}}Ik heb iets speciaals voor je achter\nde voet... hand gehouden. Deze\nzeldzame {{color id=\"1\"}}badge {{color id=\"65535\"}}voor onze\nallergeweldigste gasten.{{pageBreak}}Nou? Wat vind je daarvan?"
  }
]