{
  "version": 7,
  "rootNode": {
    "List": [
      {
        "Actor": "Work/Actor/BulletBlastEnemyDeath.engine__actor__ActorParam.gyml",
        "Num": 2
      },
      {
        "Actor": "Work/Actor/ItemIkura.engine__actor__ActorParam.gyml",
        "Num": 32
      },
      {
        "Actor": "Work/Actor/CoopItemIkura.engine__actor__ActorParam.gyml",
        "Num": 32
      },
      {
        "Actor": "Work/Actor/BulletBlastCoopSpawnBox.engine__actor__ActorParam.gyml",
        "Num": 8
      },
      {
        "Actor": "Work/Actor/BulletBlastSakelienBomber.engine__actor__ActorParam.gyml",
        "Num": 3
      },
      {
        "Actor": "Work/Actor/BulletBlastSakerocketBullet.engine__actor__ActorParam.gyml",
        "Num": 3
      },
      {
        "Actor": "Work/Actor/CoopSakeArtilleryBullet.engine__actor__ActorParam.gyml",
        "Num": 3
      }
    ]
  }
}