{
  "version": 7,
  "rootNode": {
    "FovY": 55.000008,
    "Pos": {
      "X": -2.01339,
      "Y": 2.075035,
      "Z": 7.595937
    },
    "Rot": {
      "X": 3.049288,
      "Y": 0.236444,
      "Z": 0.0
    }
  }
}