{
  "version": 7,
  "rootNode": {
    "FovY": 54.99998,
    "Pos": {
      "X": -10.4,
      "Y": 2.0,
      "Z": -7.7
    },
    "Rot": {
      "X": 0.0,
      "Y": -109.948,
      "Z": -4E-06
    }
  }
}