{
  "version": 7,
  "rootNode": {
    "DofParam": {
      "Aperture": 40.0,
      "EnableNearDOF": true,
      "FoculDistance": 4.0,
      "FoculRange": 2.0
    },
    "IsDofEnabled": true,
    "Pos": {
      "X": 1.2,
      "Y": 0.1,
      "Z": 3.0
    },
    "Rot": {
      "X": 0.0,
      "Y": -180.0,
      "Z": 0.0
    }
  }
}