{
  "version": 7,
  "rootNode": {
    "MarbleColorTableTextureName": "Kumasan_MAc",
    "MarbleMapTextureName": "Marble_MAi",
    "MarblingDistanceDecayRange": 0.001,
    "MarblingDistanceDecayStart": 0.1,
    "MarblingUVDropping": 1.0,
    "MarblingUVNonUniformAmplitude": 2.0,
    "MarblingUVNonUniformFrequency": 2E-05,
    "MarblingUVNonUniformUVScale": 0.0,
    "MarblingUVOffsetWithAlpha": 0.2,
    "MarblingUVScale": 25.0
  }
}