{
  "version": 7,
  "rootNode": {
    "DofParam": {
      "Aperture": 40.0,
      "EnableNearDOF": true,
      "FNumber": 6.5,
      "FoculDistance": 1.5,
      "FoculRange": 4.0,
      "MaxCoC": 3.125,
      "TapQuality": "High"
    },
    "Far": 10000.0,
    "FovY": 15.0,
    "IsDofEnabled": true,
    "Near": 0.1,
    "Pos": {
      "X": -0.3,
      "Y": 2.75,
      "Z": -4.0
    },
    "Rot": {
      "X": 0.0,
      "Y": -45.0,
      "Z": 0.0
    }
  }
}