{
  "version": 7,
  "rootNode": {
    "EnvSettings": [
      {
        "$type": "game__gfx__parameter__SpecialEnvParamShadowPPEnableBlur",
        "ShadowPPEnableBlur": true
      },
      {
        "$type": "game__gfx__parameter__SpecialEnvParamShadowPPBlurWidth",
        "ShadowPPBlurWidth": 1
      },
      {
        "$type": "game__gfx__parameter__SpecialEnvParamShadowPPBlurNum",
        "ShadowPPBlurNum": 1
      },
      {
        "$type": "game__gfx__parameter__SpecialEnvParamDynamicShadowMapSize",
        "DynamicShadowMapSize": {
          "X": 2048,
          "Y": 2048
        },
        "IsNoInterpolate": false
      },
      {
        "$type": "game__gfx__parameter__SpecialEnvParamDynamicShadowCascadeNum",
        "DynamicShadowCascadeNum": 1
      },
      {
        "$type": "game__gfx__parameter__SpecialEnvParamDynamicShadowVfxExpandRange",
        "DynamicShadowVfxExpandRange": false
      }
    ]
  }
}