{
  "version": 7,
  "rootNode": {
    "FovY": 66.89999,
    "Pos": {
      "X": 1.715425,
      "Y": 1.94157,
      "Z": 3.902955
    },
    "Rot": {
      "X": -35.4373,
      "Y": 192.0278,
      "Z": 0.0
    }
  }
}