{
  "version": 7,
  "rootNode": {
    "FovY": 90.0,
    "Pos": {
      "X": -9.793368,
      "Y": 0.415883,
      "Z": -6.572084
    },
    "Rot": {
      "X": -40.98201,
      "Y": 27.7262,
      "Z": -4E-06
    }
  }
}