{
  "version": 7,
  "rootNode": {
    "Far": 2000.0,
    "FovY": 60.0,
    "Pos": {
      "X": 0.0,
      "Y": 1.5,
      "Z": 5.0
    },
    "Rot": {
      "X": 0.0,
      "Y": 180.0,
      "Z": 0.0
    }
  }
}