[
  {
    "label": "FirstExplain",
    "text": "啊，歡迎光臨！{{pageBreak}}你是第一次使用這個服務吧？\n哇！真是太令人高興了！{{pageBreak}}這裡是散步服務台喔！\n你可以選擇喜歡的規則與場地盡情地散步！\n是不是很棒呢！？{{pageBreak}}接下來的路途\n就請你注意安全吧！{{pageBreak}}哎呀，等一下！\n當你想要回來的時候就直接「{{icon id=\"5\" arg=\"0x0000803F00000000\"}}暫停」吧！\n不要忘記囉！"
  },
  {
    "label": "Select",
    "text": "要去散步嗎？"
  },
  {
    "label": "FirstSand",
    "text": "啊，歡迎光臨！{{pageBreak}}你是來參加大型祭典的嗎？\n嗯嗯，你看起來很不錯！{{pageBreak}}這個會場相當廣闊，\n你可得小心不要迷路喔！"
  },
  {
    "label": "FirstSand_AfterSomeMsg",
    "text": "話說回來，\n你也是來參加大型祭典的嗎？\n嗯嗯，你看起來很不錯！{{pageBreak}}這個會場相當廣闊，\n你可得小心不要迷路喔！"
  }
]