[
  {
    "label": "AmiiboPhoto_Manual00_Title",
    "text": "召唤amiibo"
  },
  {
    "label": "AmiiboPhoto_Manual00",
    "text": "和amiibo一起合影吧！\n\n按{{icon id=\"6\" arg=\"0x52B85E3F03000000\"}}进入拍摄模式，\n当显示{{icon id=\"37\" arg=\"0xD7A3703FFBFFFFFF\"}}时触碰支持者的amiibo\n就可以进行召唤哦！\n\n推动{{icon id=\"7\" arg=\"0x1F852B3F00000000\"}}决定位置后，\n就按{{icon id=\"0\" arg=\"0x52B85E3F03000000\"}}召唤amiibo吧！"
  },
  {
    "label": "AmiiboPhoto_Manual01_Title",
    "text": "决定姿势"
  },
  {
    "label": "AmiiboPhoto_Manual01",
    "text": "只要按{{icon id=\"5\" arg=\"0x52B85E3F03000000\"}}\n就能改变自己与amiibo的姿势，\n而且还能进行其他各种设置哦！\n\n与amiibo一起尽情地拍下照片吧！"
  }
]