[
  {
    "label": "000",
    "text": "Défaite par chute"
  },
  {
    "label": "001",
    "text": "Défaite contre un {{string value=\"23\" arg1=\"0\" arg3=\"0\"}}"
  },
  {
    "label": "002",
    "text": "Défaite par contact d'un vortex"
  },
  {
    "label": "003",
    "text": "Abandon"
  }
]