[
  {
    "label": "Unknown",
    "text": "???"
  },
  {
    "label": "ZakoSmall",
    "text": "Languendo grouilleur"
  },
  {
    "label": "ZakoStandard",
    "text": "Andante défileur"
  },
  {
    "label": "ZakoLarge",
    "text": "Lento cogneur"
  },
  {
    "label": "Escape",
    "text": "Alla Mambo fuyard"
  },
  {
    "label": "Shell",
    "text": "Accelerando toupie"
  },
  {
    "label": "Sprinkler",
    "text": "Capriccioso épanchard"
  },
  {
    "label": "BombBlow",
    "text": "Trionfale jaillissant"
  },
  {
    "label": "Hopper",
    "text": "Spiccato élastique"
  },
  {
    "label": "Tree",
    "text": "Accordo pondeur"
  },
  {
    "label": "TreeMissile",
    "text": "Arpeggio cibleur"
  },
  {
    "label": "ChargerTower",
    "text": "Nobilmente imposant"
  },
  {
    "label": "ExplodeSpawner",
    "text": "Vortex"
  },
  {
    "label": "RivalKing",
    "text": "Canon surréel"
  },
  {
    "label": "TowerKing",
    "text": "Rondo asynchrone"
  },
  {
    "label": "BallKing",
    "text": "Marciale erratique"
  },
  {
    "label": "BarrierKingIida",
    "text": "Coralie Agitando"
  },
  {
    "label": "BarrierKingOdako",
    "text": "Ordrissime"
  }
]