[
  {
    "label": "XRankingReward_00",
    "text": "Экстренное сообщение для аса боев X!"
  },
  {
    "label": "XRankingReward_01",
    "text": "Доступны новые рейтинги в Разряде X...\nИ твой разряд повысился! Поздравляем!"
  },
  {
    "label": "XRankingReward_02",
    "text": "Все рейтинги можно посмотреть в {{color id=\"1\"}}SplatNet 3{{color id=\"65535\"}}.\nНе тухни и плюхай себе дальше!"
  }
]