[
  {
    "label": "000",
    "text": "Поздравляем с первой победой в ранге\n«{{string value=\"SelectedSplatfestTeam\" arg1=\"0\" arg3=\"0\"}}» (Мастер)!"
  },
  {
    "label": "001",
    "text": "Заберись на {{color id=\"1\"}}Cплатфест-сцену {{color id=\"65535\"}}в Плюхтоне\nс помощью {{color id=\"1\"}}терминала для голосования{{color id=\"65535\"}}!{{pageBreak}}Состав Сплатфест-сцены меняется после\nкаждой победы. Не забудь про селфи!"
  },
  {
    "label": "002",
    "text": "Молодец! В награду {{color id=\"1\"}}заберись на сцену{{color id=\"65535\"}} через\n{{color id=\"1\"}}терминал для голосования{{color id=\"65535\"}} и пофотографируй!{{pageBreak}}Состав Сплатфест-сцены меняется после\nкаждой победы. Не забудь про селфи!"
  }
]