[
  {
    "label": "Shop_00",
    "text": "Малек, да ты свежеешь прямо на глазах...{{pageBreak}}Между прочим, в {{color id=\"1\"}}магазинах {{color id=\"65535\"}}тебя ждет\nуйма полезного {{color id=\"1\"}}снаряжения{{color id=\"65535\"}}!{{pageBreak}}У нас есть магазины {{color id=\"1\"}}одежды{{color id=\"65535\"}}, {{color id=\"1\"}}обуви{{color id=\"65535\"}}, {{color id=\"1\"}}аксессуаров{{color id=\"65535\"}},\n{{color id=\"1\"}}оружия{{color id=\"65535\"}}... и магазин {{color id=\"1\"}}всякой всячины{{color id=\"65535\"}}!{{pageBreak}}Заходи, затоваривайся! И передай, что ты\nот таинственного голоса!"
  }
]