[
  {
    "label": "UnlockBankaraMatch_00",
    "text": "Ого! Да ты просто ураган!\nТебе прямой путь в {{color id=\"1\"}}стихийные бои{{color id=\"65535\"}}!{{pageBreak}}Это бои совсем иного уровня. Как никак,\nна кону стоят {{color id=\"1\"}}очки за разряд{{color id=\"65535\"}}!{{pageBreak}}Есть и другие режимы, такие как {{color id=\"1\"}}«Бой за зоны»{{color id=\"65535\"}}\nи{{color id=\"1\"}} «Бой за башню»{{color id=\"65535\"}}. Обязательно зацени!"
  },
  {
    "label": "UnlockBankaraMatch_01",
    "text": "Нажми {{icon id=\"6\" arg=\"0x0000803F00000000\"}} в бой-котле, чтобы {{color id=\"1\"}}прочитать\nправила{{color id=\"65535\"}}, прежде чем ринуться в бой!"
  },
  {
    "label": "UnlockBankaraMatch_02",
    "text": "Кстати, есть два типа стихийных боев:\n{{color id=\"1\"}}«Открытый» {{color id=\"65535\"}}и{{color id=\"1\"}} «Серия»{{color id=\"65535\"}}.{{pageBreak}}Если хочешь сыграть с друзьями, или если у тебя\nне очень много времени, выбирай {{color id=\"1\"}}«Открытый»{{color id=\"65535\"}}!{{pageBreak}}Этот режим позволит тебе быстро сыграть всего\nодин бой. Одно щупальце тут, другое там!{{pageBreak}}Но если захочешь поучаствовать в более длинном\nбою в одиночку, зацени режим {{color id=\"1\"}}«Серия»{{color id=\"65535\"}}!{{pageBreak}}Это серьезное испытание, которое может стать\nкак угрозой, так и надеждой для твоего разряда!"
  },
  {
    "label": "UnlockBankaraMatch_03",
    "text": "Конечно, ты в любой момент можешь набраться\nопыта и в бою салаг!"
  },
  {
    "label": "UnlockBankaraMatch_04",
    "text": "Захотелось разнообразия? Попробуй\nпоучаствовать в {{color id=\"1\"}}бою-событии{{color id=\"65535\"}}!{{pageBreak}}Каждое такое событие проходит по {{color id=\"1\"}}особым\nправилам и с особыми ограничениями{{color id=\"65535\"}}.{{pageBreak}}А еще эти бои {{color id=\"1\"}}квалификационные{{color id=\"65535\"}}. Это значит,\nчто по их итогам ты сможешь попасть на{{color id=\"1\"}} турнир{{color id=\"65535\"}}!{{pageBreak}}Бои-события проводятся нерегулярно, так что\nпочаще заглядывай в Арены в главном меню!"
  },
  {
    "label": "UnlockBankaraMatch_99",
    "text": "Вот и все. Щупальца в руки и вперед!\nНе ударь в краску лицом и не теряй форму!"
  }
]