[
  {
    "label": "XMatchOpen_00",
    "text": "Малек, ты у нас настоящий ас!"
  },
  {
    "label": "XMatchOpen_01",
    "text": "А тебе известно, что разряд можно еще\nповысить — от Ｓ+{{size value=\"75\"}}０{{size value=\"100\"}} до Ｓ+{{size value=\"75\"}}５０{{size value=\"100\"}}? Не тухни!"
  },
  {
    "label": "XMatchOpen_02",
    "text": "Кстати, теперь доступны и {{color id=\"1\"}}бои X{{color id=\"65535\"}}!"
  },
  {
    "label": "XMatchOpen_03",
    "text": "Вместо очков за разряд, при участии в боях X\nу тебя будет прибывать или убывать {{color id=\"1\"}}сила X{{color id=\"65535\"}}."
  },
  {
    "label": "XMatchOpen_04",
    "text": "Если набраться силы X, есть шанс попасть\nв рейтинг Разряда X в приложении {{color id=\"1\"}}SplatNet 3{{color id=\"65535\"}}!"
  },
  {
    "label": "XMatchOpen_05",
    "text": "Разряд X будет {{color id=\"1\"}}сбрасываться с каждым\nсезоном{{color id=\"65535\"}}, а значит, шанс у тебя всегда будет!"
  },
  {
    "label": "XMatchOpen_07",
    "text": "Так, все. Поговорили, пора плюхать!"
  }
]