[
  {
    "label": "Comment_00",
    "text": "Молодец, агент 003! {{delay frames=\"30\"}}Ты напоминаешь меня\nв молодости... Так же бросаешься в самое пекло!{{pageBreak}}Ладушки, вижу, {{color id=\"1\"}}вольторыб{{color id=\"65535\"}} у тебя.\nОни отличные источники энергии...{{pageBreak}}Однако нам все еще предстоит найти {{color id=\"1\"}}большого\nвольторыба{{color id=\"65535\"}}. Он где-то поблизости, нутром чую!"
  }
]