[
  {
    "label": "000",
    "text": "Вверх, вниз, туда... сюда... И вот мы на месте.{{delay frames=\"30\"}}\nНадеюсь, деда и вправду на этой площадке!"
  },
  {
    "label": "001",
    "text": "Как же нам туда добраться?.."
  },
  {
    "label": "002",
    "text": "Смотрите! Я вижу {{color id=\"1\"}}трубу{{color id=\"65535\"}}, которая ведет\nпрямо к ракете!"
  },
  {
    "label": "003",
    "text": "Муря, да у тебя глаз-алмаз! Размерчик у {{color id=\"1\"}}трубы{{color id=\"65535\"}}\nкак раз твой, агент 003. Полезай!"
  },
  {
    "label": "004",
    "text": "Похоже, у тебя нет выбора, агент 003..."
  }
]