[
  {
    "label": "Comment_00",
    "text": "А вы те еще трудоголики..."
  },
  {
    "label": "Comment_01",
    "text": "Однако ваша смена вот-вот подойдет к концу,\nи млекопитающие вернут себе контроль над Землей!"
  },
  {
    "label": "Comment_02",
    "text": "БУ-ГА-ГА! Конец твой близок, дружок!"
  },
  {
    "label": "Comment_03",
    "text": "В моем районе чужакам не место!"
  },
  {
    "label": "Comment_04",
    "text": "Мы с тобой, агент 003!"
  },
  {
    "label": "Comment_05",
    "text": "Так, похоже, пора начинать..."
  },
  {
    "label": "Comment_06",
    "text": "Плюхтония, не тухни! Мы DEEP CUT!"
  },
  {
    "label": "Comment_07",
    "text": "Ну что, поехали?"
  },
  {
    "label": "Comment_08",
    "text": "Разберемся с этим мишуткой!"
  },
  {
    "label": "Comment_09",
    "text": "ИК! И-ИК!!!"
  },
  {
    "label": "Comment_10",
    "text": "Уши в трубочку сверните..."
  },
  {
    "label": "Comment_11",
    "text": "Мы начинаем красить!"
  },
  {
    "label": "Comment_12",
    "text": "КУЛЛА, МУРИЯ И БИГ МАН!"
  },
  {
    "label": "Comment_13",
    "text": "А? Уже наша очередь?"
  },
  {
    "label": "Comment_14",
    "text": "Жги!"
  },
  {
    "label": "Comment_15",
    "text": "Какая прекрасная мелодия!"
  },
  {
    "label": "Comment_16",
    "text": "Смотрите! Сюда течет энергия моря!"
  },
  {
    "label": "Comment_17",
    "text": "Лучи света..."
  },
  {
    "label": "Comment_18",
    "text": "«Три луча света объединились, чтобы поглотить\nбеду...»"
  },
  {
    "label": "Comment_19",
    "text": "Создание из мифов и легенд... МЕГАЛЕТЧИК!"
  },
  {
    "label": "Comment_20",
    "text": "И-И-ИК!!! {{string value=\"5\"}}(ОГО!!!){{fun_000F_0004 arg=\"0x0500\"}}"
  }
]