[
  {
    "label": "000",
    "text": "И-ик... {{string value=\"5\"}}(А ты неплохо держишься...){{fun_000F_0004 arg=\"0x0500\"}}"
  },
  {
    "label": "001",
    "text": "И-и-ик! {{string value=\"5\"}}(Но я не позволю тебе победить!){{fun_000F_0004 arg=\"0x0500\"}}"
  },
  {
    "label": "002",
    "text": "И-И-ИК!{{string value=\"5\"}} (Узри же результат моих тренировок!){{fun_000F_0004 arg=\"0x0500\"}}"
  }
]