[
  {
    "label": "Comment_00",
    "text": "Весь мой труд... пошел насмарку."
  },
  {
    "label": "Comment_01",
    "text": "Времена меняются. Прошлое уже не вернуть.\nБудущее — единственный путь вперед."
  },
  {
    "label": "Comment_02",
    "text": "Похоже, вот и конец смены."
  },
  {
    "label": "Comment_03",
    "text": "Не видать вам... {{size value=\"100\"}}компенсаци{{size value=\"75\"}}и-и-и...{{size value=\"100\"}}{{size value=\"100\"}}"
  }
]