[
  {
    "label": "000",
    "text": "Да ладно..."
  },
  {
    "label": "001",
    "text": "Мастер, что с тобой?"
  },
  {
    "label": "002",
    "text": "Возьми себя в руки! Живо!"
  },
  {
    "label": "003",
    "text": "Ха-ха, вот так!"
  },
  {
    "label": "004",
    "text": "Сейчас ты узришь нашу ИСТИННУЮ силу!"
  }
]