[
  {
    "label": "000",
    "text": "Ик... {{string value=\"5\"}}(Ох...){{fun_000F_0004 arg=\"0x0500\"}}"
  },
  {
    "label": "001",
    "text": "И-И-ИК! {{string value=\"5\"}}(Я все испортил!){{fun_000F_0004 arg=\"0x0500\"}}"
  },
  {
    "label": "002",
    "text": "Ик... {{string value=\"5\"}}(Так старался...){{fun_000F_0004 arg=\"0x0500\"}}"
  },
  {
    "label": "003",
    "text": "Ик-ик-ик... {{string value=\"5\"}}(Ой-ой-ой...){{fun_000F_0004 arg=\"0x0500\"}}"
  }
]