[
  {
    "label": "C4_S02_00",
    "text": "Отлично сработано, агент 003!{{pageBreak}}Мы нашли очередное «сокровище»... Не деда,\nконечно, но тоже неплохо."
  },
  {
    "label": "C4_S02_01",
    "text": "{{string value=\"6\"}}Пш-ш-ш!{{fun_000F_0004 arg=\"0x0600\"}}{{delay frames=\"30\"}}{{string value=\"6\"}} Ш-ш-ш-ш!{{fun_000F_0004 arg=\"0x0600\"}}{{pageBreak}}Как слышно? Прием!"
  },
  {
    "label": "C4_S02_02",
    "text": "Деда на связи! Деда, приветик!!!"
  },
  {
    "label": "C4_S02_03",
    "text": "Агент 001! {{delay frames=\"15\"}}Как отрадно слышать твой голос!{{pageBreak}}Я все еще заперт в этой комнатушке... Найти выход\nотсюда — как иголку в коралловом рифе искать!{{pageBreak}}ОЙ!{{delay frames=\"15\"}} То есть, {{size value=\"75\"}}ой... Наверное, лучше шепотом. {{delay frames=\"15\"}}КТО-ТО ИДЕТ!{{size value=\"100\"}}"
  },
  {
    "label": "C4_S02_04",
    "text": "Проснулся от спячки, КАЛЬМОСТАР?"
  },
  {
    "label": "C4_S02_05",
    "text": "Эй! Для тебя... бывший КАПИТАН Кальмостар...\nКем бы ты там ни был!{{pageBreak}}Собственно говоря, ты вообще кто?!"
  },
  {
    "label": "C4_S02_06",
    "text": "Муа-ха-ха! А ты неплохо держишься, старый\nмешок с костями.{{delay frames=\"15\"}} Если у твоего вида вообще\nесть кости...{{delay frames=\"15\"}}{{pageBreak}}Можешь звать меня...{{delay frames=\"15\"}} {{color id=\"1\"}}Потапыч{{color id=\"65535\"}}."
  },
  {
    "label": "C4_S02_07",
    "text": "...ыч? {{delay frames=\"10\"}}{{string value=\"6\"}}Пш-ш-ш-ш-ш!{{fun_000F_0004 arg=\"0x0600\"}} {{delay frames=\"10\"}}...аю никакого Потапыча!{{delay frames=\"10\"}}\n{{delay frames=\"10\"}}{{string value=\"6\"}}Пш-ш-ш!{{fun_000F_0004 arg=\"0x0600\"}}"
  },
  {
    "label": "C4_S02_08",
    "text": "{{string value=\"6\"}}П-П-П-Ш-Ш-Ш-Ш!{{fun_000F_0004 arg=\"0x0600\"}}"
  },
  {
    "label": "C4_S02_09",
    "text": "Ну вот... на самом интересном месте!{{delay frames=\"30\"}}\nДеда, ты еще там?{{pageBreak}}Мы снова его потеряли. Но он обязательно найдется,\nесли мы продолжим отслеживать сигнал!{{pageBreak}}За дело, агент 003!"
  }
]