[
  {
    "label": "000",
    "text": "Ик! Ик... {{string value=\"5\"}}(Погодите-ка! У меня для вас\nважные новости...){{fun_000F_0004 arg=\"0x0500\"}}"
  },
  {
    "label": "002_1",
    "text": "Ик! {{string value=\"5\"}}(Самонидов выгнали из УсоногТорга!){{fun_000F_0004 arg=\"0x0500\"}}"
  },
  {
    "label": "002_2",
    "text": "Ик! {{string value=\"5\"}}(Самонидов, которые заполонили\nУгрево-Скатово, наконец выгнали!){{fun_000F_0004 arg=\"0x0500\"}}"
  },
  {
    "label": "003",
    "text": "Правда? Получается, что {{color id=\"1\"}}Big Run{{color id=\"65535\"}}\nзакончен?"
  },
  {
    "label": "011",
    "text": "Ик. Ик. {{string value=\"5\"}}(Поступило сообщение от «Потапыч\nInc.» Кулла, прочитай, пожалуйста.){{fun_000F_0004 arg=\"0x0500\"}}"
  },
  {
    "label": "012",
    "text": "Гм, тут просто написано: «Благодарим\nза выполнение всех обязанностей»."
  },
  {
    "label": "013",
    "text": "«Ждите от нас небольшой подарок\nв зависимости от набранных очков»."
  },
  {
    "label": "014",
    "text": "Ух ты! Как же они расщедрились!"
  },
  {
    "label": "015",
    "text": "Ик. {{string value=\"5\"}}(Посмотрим на набранные очки.\nЗаодно и узнаем, кто что получит.){{fun_000F_0004 arg=\"0x0500\"}}"
  },
  {
    "label": "016",
    "text": "Не переживайте вы так из-за результатов.\nЗа ЛЮБУЮ помощь полагается награда!"
  },
  {
    "label": "200",
    "text": "Ик. {{string value=\"5\"}}(Я слышал, что УсоногТорг\nскоро снова откроется.){{fun_000F_0004 arg=\"0x0500\"}}"
  },
  {
    "label": "201",
    "text": "От лица всех фанатов шопинга... Спасибо\nза спасение ТЦ от самонидов!"
  },
  {
    "label": "202",
    "text": "Вы спасли лучший ТЦ города и при этом\nвыглядели неимоверно круто! Хвалю."
  },
  {
    "label": "203",
    "text": "Чего ждем? Это же надо отметить\nв УсоногТорге! Фуд-корт, мы к тебе!"
  },
  {
    "label": "204",
    "text": "Ик! Ик! {{string value=\"5\"}}(А давайте мы пойдем в то дорогое\nкафе, куда уже давно хотим сходить!){{fun_000F_0004 arg=\"0x0500\"}}"
  },
  {
    "label": "205",
    "text": "Какой же ты транжира, Биг Ман! Ну,\nнаверное, можно себя иногда побаловать."
  },
  {
    "label": "206",
    "text": "И-и-ик! {{string value=\"5\"}}(Ура-а-а!){{fun_000F_0004 arg=\"0x0500\"}}"
  },
  {
    "label": "207",
    "text": "Не переживай, Биг Ман.\nЗа нас заплатят."
  },
  {
    "label": "208",
    "text": "Что... Но... Ну ладно, я сама виновата."
  },
  {
    "label": "210",
    "text": "Ик!{{string value=\"5\"}} (Уф, пришлось попотеть, но мы\nспасли Плюхтон от самонидов!){{fun_000F_0004 arg=\"0x0500\"}}"
  },
  {
    "label": "211",
    "text": "Плюхтонцы, вы зажигали! Респект!"
  },
  {
    "label": "212",
    "text": "Спасибо, ребята! Жители Угрево-Скатово\nнаконец смогут выдохнуть."
  },
  {
    "label": "213",
    "text": "Ух, как мы поколотили этих гадов! Когда\nПлюхтон объединяется, мы СИЛИЩА!"
  },
  {
    "label": "214",
    "text": "Ик... {{string value=\"5\"}}(Я надеюсь, этого надолго хватит,\nи они не заявятся в другой район...){{fun_000F_0004 arg=\"0x0500\"}}"
  },
  {
    "label": "215",
    "text": "Твоя СИЛИЩА нам скоро пригодится, Мурия.\nВ Угрево-Скатово работы невпроворот."
  },
  {
    "label": "216",
    "text": "Эй, ты чего?! Я не это имела в виду!\nФу, не хочу разгребать мусор!!!"
  },
  {
    "label": "220",
    "text": "Ик! Ик! {{string value=\"5\"}}(Мы загнали самонидов обратно\nв море! Районы снова наши!){{fun_000F_0004 arg=\"0x0500\"}}"
  },
  {
    "label": "221",
    "text": "Что, {{color id=\"1\"}}BIG Big Run{{color id=\"65535\"}} уже все?!\nМолодцы!"
  },
  {
    "label": "230",
    "text": "Ну, тогда спасибо за это всем\nплюх-участникам!"
  },
  {
    "label": "231",
    "text": "Ик! {{string value=\"5\"}}(Когда мы вместе, мы как всегда\nсилища!){{fun_000F_0004 arg=\"0x0500\"}}"
  },
  {
    "label": "232",
    "text": "Инкопольцы и плюхтонцы в тандеме —\nвот это я понимаю, свежо!"
  },
  {
    "label": "233",
    "text": "Не помню, чтобы ты хоть раз хвалила\nинкопольцев, Мурия. Это свежо, да."
  },
  {
    "label": "234",
    "text": "Ик! {{string value=\"5\"}}(Надо же, тот самый «никогдень»\nнаступил!){{fun_000F_0004 arg=\"0x0500\"}}"
  },
  {
    "label": "235",
    "text": "Ну, не могут же они все быть тухлячком!\nДаже в тухлом Инкополе!"
  },
  {
    "label": "236",
    "text": "Ой, кому-то явно до слез больно это\nпризнавать!"
  },
  {
    "label": "237",
    "text": "Ик? {{string value=\"5\"}}(Может, отпразднуем победу\nв инкопольском ресторане?){{fun_000F_0004 arg=\"0x0500\"}}"
  },
  {
    "label": "238",
    "text": "Вы чего?! А местный ресторанный\nбизнес?! ЭТОТ никогдень не наступит!"
  }
]