[
  {
    "label": "000",
    "text": "Это вроде все, что вам нужно знать.\nНе забудьте проголосовать!"
  },
  {
    "label": "001",
    "text": "Ик! Ик. {{string value=\"5\"}}(Не забудьте про Сплатфест-майку!\nПроголосуйте и зайдите в меню «Снаряжение».){{fun_000F_0004 arg=\"0x0500\"}}"
  }
]