[
  {
    "label": "000",
    "text": "Как замечательно! Начался {{color id=\"1\"}}новый сезон{{color id=\"65535\"}}!"
  },
  {
    "label": "001",
    "text": "Йо-хо!!! Круто!!!"
  },
  {
    "label": "002",
    "text": "Ик! Ик?!{{string value=\"5\"}} (На дворе снова палящий сезон!\nПора плюхать на солнышке!){{fun_000F_0004 arg=\"0x0500\"}}"
  },
  {
    "label": "010_sing",
    "text": "Спрашивать? У кого есть время на\nболтовню, когда у нас тут {{color id=\"1\"}}НОВАЯ АРЕНА{{color id=\"65535\"}}?!"
  },
  {
    "label": "011_sing",
    "text": "Ик. Ик!{{string value=\"5\"}} (Я бы тоже послушал его советы.\nНо эта арена так манит к себе!){{fun_000F_0004 arg=\"0x0500\"}}"
  },
  {
    "label": "012_sing",
    "text": "Главное, чтобы она была функциональной.\nВ {{color id=\"1\"}}бою{{color id=\"65535\"}} одного внешнего вида мало!"
  },
  {
    "label": "013_sing",
    "text": "Полный вперед с полным краскометом!"
  },
  {
    "label": "101",
    "text": "Ик? {{string value=\"5\"}}(Это что, снимок со встречи\nодноклассников самонидов-королей?){{fun_000F_0004 arg=\"0x0500\"}}"
  },
  {
    "label": "102",
    "text": "По-моему, им весело!"
  },
  {
    "label": "103",
    "text": "Я все чаще слышу, что кто-то встретил\n{{color id=\"1\"}}трех самонидов-королей {{color id=\"65535\"}}одновременно..."
  },
  {
    "label": "104",
    "text": "Ик?! Ик? {{string value=\"5\"}}(Трех?! Будто одного было мало!){{fun_000F_0004 arg=\"0x0500\"}}"
  },
  {
    "label": "105",
    "text": "{{color id=\"1\"}}Триумвират{{color id=\"65535\"}}, значит? Ха-ха, удачи! Самый\nкрутой триумвират в Плюхтонии — это мы!"
  },
  {
    "label": "106",
    "text": "Но осторожней там, бригады. С таким\nтрио и вчетвером сложно справиться."
  }
]