[
  {
    "label": "000",
    "text": "Отличная новость! Начался {{color id=\"1\"}}новый\nсезон{{color id=\"65535\"}}!"
  },
  {
    "label": "001",
    "text": "ЙО-ХО! Я уже на волне!"
  },
  {
    "label": "002",
    "text": "Ик! Ик.{{string value=\"5\"}} (Ага, у нас сейчас морозный\nсезон. Доставайте свитера и чай!){{fun_000F_0004 arg=\"0x0500\"}}"
  },
  {
    "label": "003",
    "text": "Только не растекайтесь ленивой лужей по\nдивану! Нас ждет новый режим: {{color id=\"1\"}}Бой X{{color id=\"65535\"}}!"
  },
  {
    "label": "005",
    "text": "Ик. Ик.{{string value=\"5\"}} (Ого, похоже, для таких боев\nнужен разряд {{color id=\"1\"}}не ниже Ｓ+{{size value=\"75\"}}0{{size value=\"100\"}}{{color id=\"65535\"}}.){{fun_000F_0004 arg=\"0x0500\"}}"
  },
  {
    "label": "006",
    "text": "Ну смотрите у меня! Я проплюхаю\nсебе путь на самый верх!"
  },
  {
    "label": "007",
    "text": "{{color id=\"1\"}}Новое оружие{{color id=\"65535\"}} меня не подведет!"
  },
  {
    "label": "008",
    "text": "Ик. Ик-ик?{{string value=\"5\"}} (Хороши! Там есть что-то для\nменя? С плавниковым управлением?){{fun_000F_0004 arg=\"0x0500\"}}"
  },
  {
    "label": "008_01",
    "text": "Крутецкие плюхоплюшечки... Кто из вас\nбудет основным? Испытаю-ка я их в бою!"
  },
  {
    "label": "009",
    "text": "Ага, ты испытывай, а я у Пушкина спрошу.\nПохоже, больше никто не догадался."
  },
  {
    "label": "010",
    "text": "Спрашивать? У кого есть время на\nболтовню, когда у нас тут {{color id=\"1\"}}НОВЫЕ АРЕНЫ{{color id=\"65535\"}}?!"
  },
  {
    "label": "011",
    "text": "Ик. Ик!{{string value=\"5\"}} (Я бы тоже послушал его советы.\nНо эти арены так манят к себе!){{fun_000F_0004 arg=\"0x0500\"}}"
  },
  {
    "label": "012",
    "text": "Главное, чтобы они были функциональными.\nВ {{color id=\"1\"}}бою{{color id=\"65535\"}} одного внешнего вида мало!"
  },
  {
    "label": "013",
    "text": "Полный вперед с полным краскометом!"
  }
]