[
  {
    "label": "000",
    "text": "Йо, ты вроде говорила, что шанс-бомбы сами по себе\nвзрываются?{{delay frames=\"30\"}} А это для Восьмерки не опасно?"
  },
  {
    "label": "001",
    "text": "Да нет, вам они не должны навредить.\nТолько им.{{delay frames=\"30\"}} А что, беспокоишься?"
  },
  {
    "label": "002",
    "text": "Ой, да не-е-е, я в Восьмерку верю! Так, интересуюсь.{{delay frames=\"30\"}}\nРаз говоришь, что это безопасно, айда бомбить, йо!"
  },
  {
    "label": "003",
    "text": "Э? {{delay frames=\"15\"}}Это что за шпроты?"
  },
  {
    "label": "004",
    "text": "Похоже на {{color id=\"4\"}}консервы «Особые»{{color id=\"65535\"}}. {{delay frames=\"30\"}}Они восполняют\nполовину шкалы особого оружия."
  },
  {
    "label": "005",
    "text": "Это оружие включается, когда жмешь правый\nмини-джойстик {{icon id=\"76\" arg=\"0xEC51383FFEFFFFFF\"}}, помнишь?{{delay frames=\"30\"}} Наша мотокула\nотлично помогает вырваться из окружения, йо!"
  }
]