[
  {
    "label": "SpInkStorm",
    "text": "{{icon id=\"10\" arg=\"0x0000604000000000\"}} Lass es regnen!"
  },
  {
    "label": "SpUltraShot",
    "text": "{{icon id=\"12\" arg=\"0xCDCC4C4000000000\"}} Zielen und feuern!"
  },
  {
    "label": "SpUltraStamp",
    "text": "{{icon id=\"12\" arg=\"0xCDCC4C4000000000\"}} Abstempeln!"
  },
  {
    "label": "SpJetpack",
    "text": "{{icon id=\"12\" arg=\"0xCDCC4C4000000000\"}} Feuer frei!"
  },
  {
    "label": "SpShockSonar",
    "text": "{{icon id=\"10\" arg=\"0x0000604000000000\"}} Schlage Wellen!"
  },
  {
    "label": "SpSuperHook",
    "text": "{{icon id=\"10\" arg=\"0x0000604000000000\"}} Streck den Tentakel!"
  },
  {
    "label": "SpTripleTornado",
    "text": "{{icon id=\"10\" arg=\"0x0000604000000000\"}} Peilsender werfen!"
  },
  {
    "label": "SpEnergyStand",
    "text": "{{icon id=\"10\" arg=\"0x0000604000000000\"}} Getränkeservice!"
  },
  {
    "label": "SpSkewer",
    "text": "{{icon id=\"12\" arg=\"0xCDCC4C4000000000\"}} Anhalten und zünden!"
  },
  {
    "label": "SpChariot",
    "text": "{{icon id=\"10\" arg=\"0x0000604000000000\"}}{{icon id=\"12\" arg=\"0xCDCC4C4000000000\"}} Feuer frei!"
  },
  {
    "label": "SpNiceBall",
    "text": "{{icon id=\"10\" arg=\"0x0000604000000000\"}} Wirf die Kugel!"
  },
  {
    "label": "SpNiceBallNice",
    "text": "{{icon id=\"13\" arg=\"0xCDCC4C4000000000\"}} Für coole Stimmung sorgen!"
  },
  {
    "label": "SpNiceBallSend",
    "text": "{{icon id=\"13\" arg=\"0xCDCC4C4000000000\"}} Cool anfeuern!"
  },
  {
    "label": "SpBlower",
    "text": "{{icon id=\"12\" arg=\"0xCDCC4C4000000000\"}} Gegnertinte ansaugen!"
  },
  {
    "label": "SpBlowerShoot",
    "text": "{{icon id=\"12\" arg=\"0xCDCC4C4000000000\"}} Feuer!"
  },
  {
    "label": "SpMultiMissile",
    "text": "{{icon id=\"12\" arg=\"0xCDCC4C4000000000\"}} Ziele erfassen und Feuer!"
  },
  {
    "label": "SpFirework",
    "text": "{{icon id=\"12\" arg=\"0xCDCC4C4000000000\"}} Bluffbomben streuen!"
  },
  {
    "label": "SpCastle",
    "text": "{{icon id=\"12\" arg=\"0xCDCC4C4000000000\"}} halten und rammen!"
  },
  {
    "label": "SpChimney",
    "text": "{{icon id=\"10\" arg=\"0x0000604000000000\"}} Barriere platzieren!"
  },
  {
    "label": "SpIkuraShoot",
    "text": "{{icon id=\"10\" arg=\"0x0000604000000000\"}} Salmini werfen!"
  },
  {
    "label": "SpIkuraShootAim",
    "text": "Ziele auf einen Flauschkern!"
  },
  {
    "label": "VehicleSpectacleBlower",
    "text": "{{icon id=\"12\" arg=\"0xCDCC4C4000000000\"}} Flauschkern einsaugen!"
  },
  {
    "label": "VehicleSpectacleShoot",
    "text": "{{icon id=\"12\" arg=\"0xCDCC4C4000000000\"}} Feuer frei!"
  },
  {
    "label": "CoopBossShoot",
    "text": "{{icon id=\"0\" arg=\"0x713D2A4000000000\"}} Beschieße den Ober-Salmoniden!"
  },
  {
    "label": "ThrowClam",
    "text": "{{icon id=\"0\" arg=\"0x713D2A4000000000\"}} Muschel werfen!"
  },
  {
    "label": "ThrowTenjin",
    "text": "{{icon id=\"0\" arg=\"0x713D2A4000000000\"}} Feierkracher werfen!"
  }
]