[
  {
    "label": "T_Msg_00",
    "text": "Speicherdaten aus Splatoon 2 gefunden!\nWenn du möchtest, kannst du sie übertragen."
  },
  {
    "label": "000",
    "text": "{{number index=\"0\" type=\"3\" arg3=\"0\" arg4=\"0\"}}★"
  },
  {
    "label": "001",
    "text": "{{number index=\"0\" type=\"3\" arg3=\"0\" arg4=\"0\"}}"
  },
  {
    "label": "010",
    "text": "{{number index=\"0\" type=\"5\" arg3=\"0\" arg4=\"0\"}} Std."
  },
  {
    "label": "T_Rank_00",
    "text": "Stufe"
  },
  {
    "label": "T_Time_00",
    "text": "Spielzeit:"
  }
]