[
  {
    "label": "L_Btn_00-T_Info_00",
    "text": "Einstellungen"
  },
  {
    "label": "L_Btn_01-T_Info_00",
    "text": "Beenden"
  },
  {
    "label": "L_Btn_02-T_Info_00",
    "text": "Zurück"
  },
  {
    "label": "L_Switch_00-T_BtnR_00",
    "text": "Ausblenden"
  },
  {
    "label": "L_Switch_00-T_BtnL_00",
    "text": "Einblenden"
  },
  {
    "label": "000",
    "text": "Ohne"
  },
  {
    "label": "001",
    "text": "Filter 1"
  },
  {
    "label": "002",
    "text": "Filter 2"
  },
  {
    "label": "003",
    "text": "Filter 3"
  },
  {
    "label": "004",
    "text": "Filter 4"
  },
  {
    "label": "005",
    "text": "Filter 5"
  },
  {
    "label": "006",
    "text": "Filter 6"
  },
  {
    "label": "007",
    "text": "Filter 7"
  },
  {
    "label": "L_Switch_01-T_BtnR_00",
    "text": "Ausblenden"
  },
  {
    "label": "L_Switch_01-T_BtnL_00",
    "text": "Einblenden"
  },
  {
    "label": "L_Switch_02-T_BtnR_00",
    "text": "Ausblenden"
  },
  {
    "label": "L_Switch_02-T_BtnL_00",
    "text": "Einblenden"
  },
  {
    "label": "L_Switch_03-T_BtnR_00",
    "text": "Ausblenden"
  },
  {
    "label": "L_Switch_03-T_BtnL_00",
    "text": "Einblenden"
  },
  {
    "label": "T_Title_00",
    "text": "Einstellungen"
  },
  {
    "label": "T_Info_02",
    "text": "Drehen"
  },
  {
    "label": "T_Info_03",
    "text": "Bewegen"
  },
  {
    "label": "T_Info_04",
    "text": "Vor/Zurück"
  },
  {
    "label": "T_Info_05",
    "text": "Zoom"
  },
  {
    "label": "T_Info_06",
    "text": "Neigen"
  },
  {
    "label": "T_Info_00",
    "text": "Foto!"
  },
  {
    "label": "100",
    "text": "Original"
  },
  {
    "label": "101",
    "text": "Ausrüstung 1"
  },
  {
    "label": "102",
    "text": "Ausrüstung 2"
  },
  {
    "label": "103",
    "text": "Ausrüstung 3"
  },
  {
    "label": "104",
    "text": "Ausrüstung 4"
  },
  {
    "label": "105",
    "text": "Ausrüstung 5"
  },
  {
    "label": "106",
    "text": "Ausrüstung 6"
  },
  {
    "label": "200",
    "text": "Pose 1"
  },
  {
    "label": "201",
    "text": "Pose 2"
  },
  {
    "label": "202",
    "text": "Pose 3"
  },
  {
    "label": "203",
    "text": "Pose 4"
  },
  {
    "label": "204",
    "text": "Pose 5"
  },
  {
    "label": "205",
    "text": "Pose 6"
  },
  {
    "label": "206",
    "text": "Pose 7"
  },
  {
    "label": "207",
    "text": "Pose 8"
  },
  {
    "label": "208",
    "text": "Pose 9"
  },
  {
    "label": "209",
    "text": "Pose 10"
  },
  {
    "label": "210",
    "text": "Pose 11"
  },
  {
    "label": "211",
    "text": "Pose 12"
  },
  {
    "label": "296",
    "text": "Surimi Syndicate"
  },
  {
    "label": "297",
    "text": "Sea Sirens"
  },
  {
    "label": "298",
    "text": "TentaCool"
  },
  {
    "label": "299",
    "text": "Festival-Freude"
  },
  {
    "label": "T_Text_00",
    "text": "Ort wählen!"
  },
  {
    "label": "300",
    "text": "Splatsville"
  },
  {
    "label": "301",
    "text": "Inkopolis"
  },
  {
    "label": "302",
    "text": "Inkopolis-Platz"
  },
  {
    "label": "303",
    "text": "Grand-Festival-Platz"
  },
  {
    "label": "T_Push_00",
    "text": "Drücke auf"
  },
  {
    "label": "T_Info_07",
    "text": "Format"
  },
  {
    "label": "T_Date_01",
    "text": "Datum"
  },
  {
    "label": "T_Stage_01",
    "text": "Ort"
  },
  {
    "label": "400",
    "text": "Ort"
  },
  {
    "label": "401",
    "text": "Splatfest-Titel"
  },
  {
    "label": "T_Player_00",
    "text": "Name"
  },
  {
    "label": "500",
    "text": "Steuerung"
  },
  {
    "label": "501",
    "text": "Steuerung"
  },
  {
    "label": "T_Guide_00",
    "text": "Steuerung"
  },
  {
    "label": "L_Timer_00-T_BtnL_00",
    "text": "Ausblenden"
  },
  {
    "label": "L_Timer_00-T_BtnR_00",
    "text": "10 Sek."
  },
  {
    "label": "L_Timer_00-T_BtnC_00",
    "text": "3 Sek."
  },
  {
    "label": "T_Filter_00",
    "text": "Filter"
  },
  {
    "label": "T_Timer_00",
    "text": "Timer"
  },
  {
    "label": "T_Gear_00",
    "text": "amiibo-Ausr."
  },
  {
    "label": "T_Pause_00",
    "text": "Pose"
  },
  {
    "label": "T_Pause_01",
    "text": "amiibo-Pose"
  },
  {
    "label": "L_Switch_01-T_Msg_00",
    "text": "Anzeige nicht möglich –\nSplatfest-Titel stimmen nicht überein."
  }
]