[
  {
    "label": "T_Msg_00",
    "text": "Möchtest du diese Stadt besuchen?"
  },
  {
    "label": "L_BtnL_00-T_Btn_00",
    "text": "Nein"
  },
  {
    "label": "L_BtnR_00-T_Btn_00",
    "text": "Ja"
  },
  {
    "label": "T_Town_00",
    "text": "Inkopolis"
  },
  {
    "label": "T_Town_01",
    "text": "Splatsville"
  }
]