[
  {
    "label": "T_Msg_00",
    "text": "Wohin möchtest du?"
  },
  {
    "label": "L_BackBtn_00-T_Info_00",
    "text": "Zurück"
  },
  {
    "label": "000",
    "text": "Splatsville"
  },
  {
    "label": "001",
    "text": "Inkopolis"
  },
  {
    "label": "002",
    "text": "Inkopolis-Platz"
  },
  {
    "label": "003",
    "text": "Sektor Ordnung"
  }
]