[
  {
    "label": "000",
    "text": "Welle {{number index=\"0\" type=\"1\" arg3=\"0\" arg4=\"0\"}}"
  },
  {
    "label": "001",
    "text": "Letzte Welle"
  },
  {
    "label": "T_Go_00",
    "text": "Los!"
  }
]