[
  {
    "label": "L_Tab_00-T_Text_00",
    "text": "Kleidung"
  },
  {
    "label": "L_Tab_01-T_Text_00",
    "text": "Ausrüstung"
  },
  {
    "label": "L_Tab_02-T_Text_00",
    "text": "Deko"
  },
  {
    "label": "L_Tab_03-T_Text_00",
    "text": "Aufkleber"
  },
  {
    "label": "L_Tab_04-T_Text_00",
    "text": "Banner"
  },
  {
    "label": "L_Back_00-T_Info_00",
    "text": "Zurück"
  },
  {
    "label": "100",
    "text": "Tauschen!"
  },
  {
    "label": "L_BtnSelectNum_00-T_Btn_00",
    "text": "Tauschen!"
  },
  {
    "label": "000",
    "text": "Abbrechen"
  },
  {
    "label": "L_SlideBtn_00-T_SoldOut_00",
    "text": "Erhalten!"
  },
  {
    "label": "200",
    "text": "???"
  },
  {
    "label": "300",
    "text": "Du bist einfach goldig. Danke!\nÜbrigens haben wir neue Ware\nbekommen. Schau sie dir mal an!"
  },
  {
    "label": "301",
    "text": "Du liebe Güte! Dir sitzt das Geld\naber locker, hm? Und ich stehe hier\nso herum und habe lauter seltene\nSachen im Angebot. Was machen\nwir denn da bloß..."
  },
  {
    "label": "302",
    "text": "Ach je! Ich habe fast vergessen zu\nerwähnen, dass wir neue Ware\nreinbekommen haben. Sieh dich\ndoch mal um!"
  },
  {
    "label": "400",
    "text": "Schau dich ruhig in Ruhe um\nund sag mir, was du gerne hättest!"
  },
  {
    "label": "401",
    "text": "Oh! Du hast nicht genug Schuppen. Na, da musst du\nwohl noch gegen ein paar {{color id=\"1\"}}Ober-Salmoniden{{color id=\"65535\"}} kämpfen."
  },
  {
    "label": "402",
    "text": "Hast du das nicht schon? Mehr als ein Exemplar davon\nkann ich dir leider nicht geben. Wäre doch ungerecht!"
  },
  {
    "label": "403",
    "text": "Ich fürchte, dafür bist du noch nicht bereit. Vielleicht,\nwenn du ein paar Schuppen mehr ausgeben würdest..."
  },
  {
    "label": "404",
    "text": "Das hier also, Schätzchen?"
  },
  {
    "label": "500",
    "text": "???"
  },
  {
    "label": "600",
    "text": "Details"
  },
  {
    "label": "700",
    "text": "×{{number index=\"0\" type=\"2\" arg3=\"0\" arg4=\"0\"}}="
  },
  {
    "label": "L_DetailCoop_00-T_Owns_00",
    "text": "Im Besitz"
  }
]