[
  {
    "label": "T_SPPoint_01",
    "text": "Spezialpunkte:"
  },
  {
    "label": "T_PassPoint_01",
    "text": "Züge ausgesetzt:"
  },
  {
    "label": "T_PassPoint_03",
    "text": "Züge ausgesetzt:"
  },
  {
    "label": "T_SPPoint_03",
    "text": "Spezialpunkte:"
  },
  {
    "label": "T_Win_00",
    "text": "Sieg!"
  },
  {
    "label": "T_Lose_00",
    "text": "Verloren..."
  },
  {
    "label": "T_Draw_00",
    "text": "Unentschieden!"
  }
]