[
  {
    "label": "000",
    "text": "Neues Update: Alle gespannt!"
  },
  {
    "label": "001",
    "text": "Momentane Arenen"
  },
  {
    "label": "002",
    "text": "Bär GmbH stellt ein! (Werbung)"
  },
  {
    "label": "004",
    "text": "Elektrowels weg!"
  },
  {
    "label": "005",
    "text": "Elektrowels wieder da!"
  },
  {
    "label": "006",
    "text": "Splatfest-Ankündigung"
  },
  {
    "label": "007",
    "text": "Splatfest-Neuigkeiten!"
  },
  {
    "label": "008",
    "text": "Aufwärmphase-Ergebnis"
  },
  {
    "label": "009",
    "text": "Splatfest-Halbzeit-Bericht"
  },
  {
    "label": "010",
    "text": "Splatfest beendet!"
  },
  {
    "label": "011",
    "text": "Splatfest-Ergebnis"
  },
  {
    "label": "012",
    "text": "Big-Run-Alarm!"
  },
  {
    "label": "013",
    "text": "Big Run läuft!"
  },
  {
    "label": "014",
    "text": "Big Run abgeschlossen!"
  },
  {
    "label": "015",
    "text": "Big-Run-Ergebnisse da!"
  },
  {
    "label": "016",
    "text": "Team-Wettkampf verfügbar!"
  },
  {
    "label": "017",
    "text": "Aktuelle Saison bald zu Ende!"
  },
  {
    "label": "018",
    "text": "Event-Kampf erwartet euch!"
  },
  {
    "label": "019",
    "text": "Wieder mal der Inkopolis-Platz!"
  },
  {
    "label": "100",
    "text": "Splatcast hören"
  },
  {
    "label": "101",
    "text": "Überspringen"
  },
  {
    "label": "200",
    "text": "×{{number index=\"0\" type=\"4\" arg3=\"0\" arg4=\"0\"}}"
  },
  {
    "label": "L_HighScore_00-T_Score_00",
    "text": "Dein Highscore"
  }
]