[
  {
    "label": "L_Back_00-T_Info_00",
    "text": "Zurück"
  },
  {
    "label": "L_KeyIcon_00-T_Info_00",
    "text": "Infos zum Posten"
  },
  {
    "label": "L_Btn_01-T_Btn_00",
    "text": "Posten"
  },
  {
    "label": "L_Btn_00-T_Btn_00",
    "text": "Splatfest-Beitrag erstellen"
  }
]