[
  {
    "label": "000",
    "text": "{{number index=\"0\" type=\"4\" arg3=\"0\" arg4=\"0\"}}"
  },
  {
    "label": "002",
    "text": "Etage {{number index=\"0\" type=\"2\" arg3=\"0\" arg4=\"0\"}}"
  },
  {
    "label": "L_TipDetail_00-T_Shop_00",
    "text": "Automatenecke"
  },
  {
    "label": "L_TipDetail_00-T_ShopDetail_00",
    "text": "An diesen Automaten kannst du Memoneten\ngegen Versuche, Farbchips, Sekundärwaffen\nund sogar Spezialwaffen eintauschen!"
  },
  {
    "label": "T_Next_00",
    "text": "NÄCHSTE"
  },
  {
    "label": "T_Message_00",
    "text": "Zu dieser Etage fahren?"
  },
  {
    "label": "L_Btn_01-T_Btn_00",
    "text": "Ja!"
  },
  {
    "label": "L_Btn_00-T_Btn_00",
    "text": "Nein"
  },
  {
    "label": "L_Exit_00-T_Info_00",
    "text": "Pause"
  },
  {
    "label": "100",
    "text": "Nein"
  },
  {
    "label": "101",
    "text": "Nein"
  },
  {
    "label": "102",
    "text": "Zurücksetzen!"
  },
  {
    "label": "103",
    "text": "Zum Foyer"
  },
  {
    "label": "104",
    "text": "Nach {{string value=\"24\" arg1=\"0\" arg3=\"0\"}}"
  },
  {
    "label": "105",
    "text": "Neu starten"
  },
  {
    "label": "106",
    "text": "Aufgeben"
  },
  {
    "label": "107",
    "text": "Möchtest du ins Foyer zurückkehren\nund in Etage 1 neu starten?"
  },
  {
    "label": "108",
    "text": "Neu starten"
  },
  {
    "label": "109",
    "text": "Erinnerung verlassen"
  },
  {
    "label": "110",
    "text": "Speichern und pausieren"
  },
  {
    "label": "200",
    "text": "Speichern und zurück in die Stadt?\nDu fährst mit deiner momentanen\nAusrüstung von hier fort."
  },
  {
    "label": "201",
    "text": "Aufgeben und zurück ins Foyer?\n(Du startest dann in Etage 1 neu.)"
  },
  {
    "label": "203",
    "text": "Soll Marina die Optionen für die\nnächste Etage zurücksetzen?"
  },
  {
    "label": "204",
    "text": "Diese Erinnerung verlassen\nund zum Foyer zurückkehren?"
  },
  {
    "label": "205",
    "text": "Zum Foyer"
  },
  {
    "label": "206",
    "text": "Aufgeben und zurück zu Sektor Ordnung?\n(Du startest dann in Etage 1 neu.)"
  },
  {
    "label": "207",
    "text": "Zu Sektor Ordnung"
  },
  {
    "label": "208",
    "text": "Nächste Etage überspringen?"
  },
  {
    "label": "209",
    "text": "Ja"
  },
  {
    "label": "L_Dialog_00-L_BtnL_00-T_Btn_00",
    "text": "Fortsetzen"
  },
  {
    "label": "300",
    "text": "{{size value=\"75\"}}Etage {{size value=\"100\"}}{{number index=\"0\" type=\"2\" arg3=\"0\" arg4=\"0\"}}"
  },
  {
    "label": "310",
    "text": "×{{number index=\"0\" type=\"3\" arg3=\"0\" arg4=\"0\"}}"
  },
  {
    "label": "320",
    "text": "Etagen-Belohnung"
  },
  {
    "label": "321",
    "text": "Bonus"
  },
  {
    "label": "322",
    "text": "Etage {{number index=\"0\" type=\"2\" arg3=\"0\" arg4=\"0\"}}\ngeschafft"
  },
  {
    "label": "323",
    "text": "Farbchips"
  },
  {
    "label": "324",
    "text": "Items"
  },
  {
    "label": "500",
    "text": "???"
  },
  {
    "label": "501",
    "text": "Marinas Dev-Tagebuch"
  },
  {
    "label": "L_Result_00-T_Shop_00",
    "text": "Nichts gekauft."
  },
  {
    "label": "L_Result_00-T_Time_00",
    "text": "Zeit"
  },
  {
    "label": "L_Result_00-T_NewRecord_00",
    "text": "Aktualisiert"
  },
  {
    "label": "L_Result_00-L_Bonus_00-T_NewRecord_00",
    "text": "Rekord!"
  },
  {
    "label": "L_Result_00-T_Clear_00",
    "text": "GESCHAFFT!"
  },
  {
    "label": "L_Result_00-T_Get_00",
    "text": "Neu!"
  },
  {
    "label": "L_Result_00-T_Get_01",
    "text": "Erhalten!"
  },
  {
    "label": "L_Result_00-L_GetBonus_00-T_Get_00",
    "text": "Erhalten!"
  },
  {
    "label": "L_Result_00-L_Close_00-T_Info_00",
    "text": "Zurück"
  },
  {
    "label": "L_Result_00-L_Next_00-T_Info_00",
    "text": "Weiter"
  },
  {
    "label": "400",
    "text": "Einfach"
  },
  {
    "label": "401",
    "text": "Standard"
  },
  {
    "label": "402",
    "text": "Schwierig"
  },
  {
    "label": "403",
    "text": "Extrem"
  },
  {
    "label": "L_MyPalette_00-T_Btn_00",
    "text": "Palette"
  },
  {
    "label": "T_TitleFloor_00",
    "text": "Etagenwahl"
  },
  {
    "label": "L_FloorBtn_00-T_IkuraNum_01",
    "text": "Belohnung"
  },
  {
    "label": "L_FloorBtn_00-T_ShopTitle_00",
    "text": "Automatenecke"
  },
  {
    "label": "T_FloorUnit_00",
    "text": "Etage"
  },
  {
    "label": "L_Collection_00-T_Info_00",
    "text": "Sammlung"
  },
  {
    "label": "L_Back_00-T_Info_00",
    "text": "Zurück"
  },
  {
    "label": "L_BtnCollect_02-T_Btn_00",
    "text": "Farbchip-Sammlung"
  },
  {
    "label": "L_BtnCollect_01-T_Btn_00",
    "text": "Viskelloid-Leitfaden"
  },
  {
    "label": "L_StageReset_00-T_Btn_00",
    "text": "Etagen-Reset"
  },
  {
    "label": "L_FloorBtn_00-T_MissionInvTitle_00",
    "text": "???"
  },
  {
    "label": "L_FloorBtn_00-T_BossInvTitle_00",
    "text": "???"
  },
  {
    "label": "L_FloorBtn_00-L_SubEvent_00-T_SubEvent_00",
    "text": "Bonus"
  },
  {
    "label": "L_FloorBtn_00-L_SubEvent_00-T_EvilEvent_00",
    "text": "Gefahr"
  },
  {
    "label": "L_FloorBtn_04-T_Skip_00",
    "text": "Etage überspringen"
  }
]