[
  {
    "label": "000",
    "text": "Zurück und neu auswählen?\n(Memoneten erforderlich.)"
  },
  {
    "label": "001",
    "text": "Nein"
  },
  {
    "label": "002",
    "text": "Ja"
  },
  {
    "label": "100",
    "text": "Abschließen und weiter zur nächsten Etage?"
  },
  {
    "label": "101",
    "text": "Nein"
  },
  {
    "label": "102",
    "text": "Auf geht's!"
  }
]