[
  {
    "label": "000",
    "text": "{{size value=\"75\"}}Etage {{size value=\"100\"}}{{number index=\"0\" type=\"1\" arg3=\"0\" arg4=\"0\"}}"
  },
  {
    "label": "T_Color_00",
    "text": "Häufige Farbtöne"
  },
  {
    "label": "T_Record_00",
    "text": "Bester Durchgang"
  },
  {
    "label": "L_TipDetail_00-T_Invalid_00",
    "text": "Einsetzen nicht möglich."
  },
  {
    "label": "L_Close_00-T_Info_00",
    "text": "Zurück"
  },
  {
    "label": "L_Back_00-T_Info_00",
    "text": "Zurück"
  },
  {
    "label": "T_None_00",
    "text": "Keine Farbchips ausgerüstet."
  },
  {
    "label": "T_NewRecord_00",
    "text": "Aktualisiert!"
  },
  {
    "label": "T_Record_02",
    "text": "---"
  }
]