[
  {
    "label": "000",
    "text": "{{number index=\"0\" type=\"4\" arg3=\"0\" arg4=\"0\"}} P"
  },
  {
    "label": "001",
    "text": "{{number index=\"0\" type=\"2\" arg3=\"0\" arg4=\"0\"}}"
  },
  {
    "label": "004",
    "text": "Ein oder mehrere Spieler konnten den Kampf nicht fortsetzen.\nDer Kampf wird nicht als Niederlage gewertet."
  },
  {
    "label": "007",
    "text": "???"
  },
  {
    "label": "008",
    "text": "Sieg!"
  },
  {
    "label": "009",
    "text": "Verloren..."
  },
  {
    "label": "010",
    "text": "Zurück"
  },
  {
    "label": "020",
    "text": "Als Favorit"
  },
  {
    "label": "021",
    "text": "Aus Favoriten löschen"
  },
  {
    "label": "L_Replay_00-T_Text_00",
    "text": "Abspielen"
  },
  {
    "label": "L_Upload_00-T_Text_00",
    "text": "Hochladen"
  },
  {
    "label": "022",
    "text": "Erinnerung abspielen"
  },
  {
    "label": "030",
    "text": "Rang erhöht!"
  },
  {
    "label": "032",
    "text": "K. o.-Bonus!"
  },
  {
    "label": "033",
    "text": "-"
  },
  {
    "label": "040",
    "text": "Letzte Kämpfe"
  },
  {
    "label": "050",
    "text": "Sieg!"
  },
  {
    "label": "051",
    "text": "Verloren..."
  },
  {
    "label": "052",
    "text": "Gleichauf..."
  },
  {
    "label": "060",
    "text": "Sieg!"
  },
  {
    "label": "061",
    "text": "Verloren..."
  },
  {
    "label": "070",
    "text": "???"
  },
  {
    "label": "071",
    "text": "Rang erhöht!"
  },
  {
    "label": "072",
    "text": "K. o.-Bonus!"
  },
  {
    "label": "080",
    "text": "???"
  },
  {
    "label": "081",
    "text": "???"
  },
  {
    "label": "090",
    "text": "Der Kampf wurde nicht abgeschlossen."
  },
  {
    "label": "091",
    "text": "Kein Ergebnis"
  },
  {
    "label": "092",
    "text": "Ein oder mehrere Spieler konnten den Kampf nicht fortsetzen.\nDer Kampf wird nicht als Niederlage gewertet."
  },
  {
    "label": "T_MedalAll_00",
    "text": "Gewonnene Medaillen"
  },
  {
    "label": "T_ReplayName_01",
    "text": " (Kampferinnerung)"
  },
  {
    "label": "L_Result_04-T_MSign_01",
    "text": "×"
  },
  {
    "label": "T_Result_02",
    "text": "Siege"
  },
  {
    "label": "T_Result_03",
    "text": "Verloren"
  },
  {
    "label": "L_Win_00-T_Win_00",
    "text": "Sieg!"
  },
  {
    "label": "L_Win_00-T_Draw_00",
    "text": "Gleichauf..."
  },
  {
    "label": "L_WinLose_00-T_Lose_00",
    "text": "Verloren..."
  },
  {
    "label": "L_Win_00-T_Point_00",
    "text": "P"
  },
  {
    "label": "L_Win_00-T_NoGame_00",
    "text": "---"
  },
  {
    "label": "L_WinLose_00-T_NoGame_00",
    "text": "---"
  },
  {
    "label": "L_Lose_00-T_NoGame_00",
    "text": "---"
  },
  {
    "label": "T_Point_00",
    "text": "P"
  },
  {
    "label": "L_ReplayList_00-L_BtnReplay_00-T_Result_01",
    "text": "???"
  },
  {
    "label": "L_ResultChange_00-T_Info_00",
    "text": "Ergebnis"
  },
  {
    "label": "T_Download_00",
    "text": "Heruntergeladene Kampferinnerung"
  },
  {
    "label": "L_ResultMeter_00-T_PlayerMax_00",
    "text": "K. o.-Bonus!"
  },
  {
    "label": "L_Result_00-T_Point_00",
    "text": "P"
  },
  {
    "label": "L_BtnReport_00-T_Info_00",
    "text": "Melden"
  }
]