[
  {
    "label": "001",
    "text": "Erledigt!"
  },
  {
    "label": "003",
    "text": "Mit Goldfischkanone erledigt!"
  },
  {
    "label": "005",
    "text": "Durch Barriere der\nGoldfischkanone erledigt!"
  },
  {
    "label": "006",
    "text": "Durch Tinte aus einem\nPropeller erledigt!"
  },
  {
    "label": "007",
    "text": "Von Tintenfontäne erledigt!"
  },
  {
    "label": "008",
    "text": "Durch Feierkracher\nerledigt!"
  },
  {
    "label": "100",
    "text": "Von {{string value=\"WeaponName\" arg1=\"0\" arg3=\"0\"}}\ngeplättet!"
  },
  {
    "label": "101",
    "text": "Vom {{string value=\"WeaponName\" arg1=\"0\" arg3=\"0\"}}-Antrieb\nerledigt!"
  },
  {
    "label": "102",
    "text": "Vom {{string value=\"WeaponName\" arg1=\"0\" arg3=\"0\"}}\nzerlegt!"
  },
  {
    "label": "103",
    "text": "Mit {{string value=\"WeaponName\" arg1=\"0\" arg3=\"0\"}}\nerwischt!"
  },
  {
    "label": "104",
    "text": "Durch Explosion der \nGoldfischkanone erledigt!"
  },
  {
    "label": "105",
    "text": "Durch Giga-Sprinkler\nerledigt!"
  },
  {
    "label": "999",
    "text": "Durch {{string value=\"WeaponName\" arg1=\"0\" arg3=\"0\"}}\nerledigt!"
  }
]