[
  {
    "label": "000",
    "text": "+{{number index=\"0\" type=\"2\" arg3=\"0\" arg4=\"0\"}}"
  },
  {
    "label": "001",
    "text": "Zu mir!"
  },
  {
    "label": "002",
    "text": "Erledigt!"
  },
  {
    "label": "003",
    "text": "{{number index=\"0\" type=\"2\" arg3=\"0\" arg4=\"0\"}},{{number index=\"1\" type=\"1\" arg3=\"0\" arg4=\"0\"}}"
  },
  {
    "label": "T_Rest_00",
    "text": "Noch"
  },
  {
    "label": "T_Nice_00",
    "text": "Cool!"
  },
  {
    "label": "L_Timer_00-T_Extend_00",
    "text": "Verlängerung!"
  },
  {
    "label": "T_Balloon_01",
    "text": "Gefahr!"
  },
  {
    "label": "T_Balloon_00",
    "text": "Gefahr!"
  },
  {
    "label": "L_SuperGauge_00-T_Press_00",
    "text": "Drücke"
  },
  {
    "label": "L_PaintNumbers_00-T_Unit_00",
    "text": " P"
  },
  {
    "label": "L_Info_00-T_Info_00",
    "text": "Menü"
  },
  {
    "label": "L_SuperGauge_00-T_Max_01",
    "text": "Bereit!"
  },
  {
    "label": "T_Percent_00",
    "text": "%"
  },
  {
    "label": "T_BalloonLead_00",
    "text": "In Führung!"
  }
]