[
  {
    "label": "Hello",
    "text": "¿Qué hay? ¿Qué te cuentas?"
  },
  {
    "label": "Offline",
    "text": "¿Qué pasa, colega?{{pageBreak}}Me parece que no tienes la consola\nconectada a {{color id=\"1\"}}internet{{color id=\"65535\"}}. Así no podemos\nhacer negocios. Anda, ve al {{color id=\"1\"}}vestíbulo{{color id=\"65535\"}},\nconéctala y vuelve luego."
  },
  {
    "label": "NotEnoughRank",
    "text": "Mmm... No te lo tomes a mal, pero\ncreo que te falta estilo...{{pageBreak}}Te propongo una cosa: pásate por\nunos cuantos combates y, cuando\nalcances el {{color id=\"1\"}}nivel 4{{color id=\"65535\"}}, hablamos,\n¿te parece?"
  },
  {
    "label": "FirstRank_4_9",
    "text": "Anda, ¡parece que alguien ha vuelto\ncon un poco más estilo! Sí, tú.{{pageBreak}}Pero un poco más no basta. Si quieres\npartir el bacalao, conviene que tu\n{{color id=\"1\"}}equipamiento {{color id=\"65535\"}}esté a la altura.{{pageBreak}}Bueno, pues te diré que tengo\nacceso a cierto material de calidad,\ntú me entiendes.{{pageBreak}}La próxima vez que le eches un ojo a\nalguien con {{icon id=\"0\" arg=\"0x0000803F00000000\"}} y veas que lleva\n{{color id=\"1\"}}equipamiento{{color id=\"65535\"}} que te gusta, dame un\ntoque, ¡que yo te lo {{color id=\"1\"}}encargo{{color id=\"65535\"}}!{{pageBreak}}Quizá no te lo consiga con los mismos\npotenciadores exactamente, pero\nharé lo que pueda. Aquí te dejo mi\nnúmero."
  },
  {
    "label": "FirstRank_4_9_Short",
    "text": "Anda, ¡parece que alguien ha vuelto\ncon un poco más estilo! Sí, tú.{{pageBreak}}Pero un poco más no basta. Si quieres\npartir el bacalao, conviene que tu\n{{color id=\"1\"}}equipamiento {{color id=\"65535\"}}esté a la altura.{{pageBreak}}Bueno, pues te diré que tengo acceso\na cierto material de calidad. Tú ya me\nentiendes. En fin, vayamos al grano.{{pageBreak}}La próxima vez que le eches un ojo a\nalguien con {{icon id=\"0\" arg=\"0x0000803F00000000\"}} y veas que lleva\n{{color id=\"1\"}}equipamiento{{color id=\"65535\"}} que te gusta, dame un\ntoque, ¡que yo te lo {{color id=\"1\"}}encargo{{color id=\"65535\"}}!{{pageBreak}}Quizá no te lo consiga con los mismos\npotenciadores exactamente, pero\nharé lo que pueda. Aquí te dejo mi\nnúmero."
  },
  {
    "label": "FirstRank_10_15",
    "text": "Vaya, si tenemos a la veteranía en\npersona. ¡Muy bien!{{pageBreak}}Pero algo me dice que apuntas a\nobjetivos aún más elevados.{{pageBreak}}Me gusta la idea de sentarme, pillar\npalomitas y observar cómo sigues\nprogresando...{{pageBreak}}Bueno, pues ya sabes, cuando estés\nen la plaza, puedes echarle un ojo al\nequipamiento de la gente con {{icon id=\"0\" arg=\"0x0000803F00000000\"}}.\nSi ves que tienen algo que te gusta,\n¡no dudes en decírmelo!"
  },
  {
    "label": "FirstRank_16_19",
    "text": "¡Anda! ¿Cuándo has subido tanto de\nnivel?{{pageBreak}}¿Cómo? ¿Que aún quieres subir\nmás? ¿Lo permiten las leyes de la\nnaturaleza? ¿No perjudica la salud?{{pageBreak}}Eri no afirma nada, solo pregunta,\ny con intención de ayudar. Por lo\ndemás, ¡vayamos a por todas!{{pageBreak}}Un consejo: cuando estés en la plaza,\npuedes echarle un ojo al equipamiento\nde la gente con {{icon id=\"0\" arg=\"0x0000803F00000000\"}}. Si ves que llevan\nalgo que te gusta, ¡avísame, que\nyo te lo consigo!"
  },
  {
    "label": "FirstRank_20_20",
    "text": "¿En serio? ¿Una leyenda como tú\nvisita a este humilde servidor?\n¡Es un honor, oye!{{pageBreak}}Por cierto, tu mirada me recuerda\nmucho a alguien... pero no recuerdo\na quién. En fin, eso no importa ahora.{{pageBreak}}Lo esencial ya lo sabes: cuando estés\nen la plaza, puedes echarle un ojo al\nequipamiento de la gente con {{icon id=\"0\" arg=\"0x0000803F00000000\"}}. Si\nves que llevan algo que te gusta,\n¡avísame, que yo te lo consigo!"
  },
  {
    "label": "FirstShell",
    "text": "¡Anda! Veo que ya has logrado\necharle el guante a algún que otro\n{{color id=\"1\"}}supermolusco{{color id=\"65535\"}}, ¿eh?{{pageBreak}}¿No querrás deshacerte de él, por\ncasualidad? Los colecciono por...\npor motivos que escaparían a tu\ncomprensión.{{pageBreak}}¿Te has fijado en el caparazón de los\n{{color id=\"1\"}}supermoluscos{{color id=\"65535\"}}? Bueno, pues puedo\nusarlo para dar {{color id=\"1\"}}más exclusividad a\ntu equipamiento{{color id=\"65535\"}}. Es un truquillo que\nconozco...{{pageBreak}}Ah, y, si tienes un objeto que ya\ncuenta con sus tres potenciadores,\nsé cómo {{color id=\"1\"}}intercambiarlos por otros\nal azar{{color id=\"65535\"}}.{{pageBreak}}Es algo que hago gratis, como\nmuestra de que no me mueven\noscuros intereses. Solo tienes que\ndarme esos {{color id=\"1\"}}supermoluscos{{color id=\"65535\"}}."
  },
  {
    "label": "FirstShell_Short",
    "text": "Oye, tú, me parece a mí que has\nlogrado hacerte con algún que otro\n{{color id=\"1\"}}supermolusco{{color id=\"65535\"}}, ¿verdad?{{pageBreak}}Y resulta que a mí me interesan\nbastante esas cosas. Me pirro por\nellas, a decir verdad.{{pageBreak}}Además, sé usar el caparazón de\nlos {{color id=\"1\"}}supermoluscos{{color id=\"65535\"}} para dar {{color id=\"1\"}}mayor\nexclusividad a tu equipamiento{{color id=\"65535\"}}.\nTambién puedo ofrecerte {{color id=\"1\"}}intercambiar\nsus potenciadores por otros{{color id=\"65535\"}}.{{pageBreak}}Y lo hago por puro amor al arte.\nBueno, lo único que te pediría es\nque me des los {{color id=\"1\"}}supermoluscos{{color id=\"65535\"}}."
  },
  {
    "label": "ExplainFestT",
    "text": "Así que has conseguido una {{color id=\"1\"}}camiseta\nfestiva{{color id=\"65535\"}}, ¿eh?{{pageBreak}}Si alguna vez quieres {{color id=\"1\"}}limpiarla{{color id=\"65535\"}} para\n{{color id=\"1\"}}cambiarle los potenciadores{{color id=\"65535\"}}, Eri\npuede hacerte una buena oferta.{{pageBreak}}Te lo dejaría en {{color id=\"1\"}}2000{{color id=\"65535\"}} {{icon id=\"39\" arg=\"0x85EB913F00000000\"}}, que\nes una ganga, me parece a mí.\nY la cosa no acaba ahí...{{pageBreak}}Podré ponerle nuevos potenciadores,\npara lo cual tendrás que invertir unos\n{{color id=\"1\"}}fragmentos{{color id=\"65535\"}}, claro, ¡pero sigue siendo\nun chollo!{{pageBreak}}Te preguntarás qué gano yo con\neste {{color id=\"1\"}}ofertón{{color id=\"65535\"}}... Nada, simplemente\ndisfruto viendo nuevas variantes de\ncamisetas festivas. Me hace sentir...\nfestivo.{{pageBreak}}Así que enfúndatela, lucha con valor\ny vuelve a visitarme para limpiarla\n{{color id=\"1\"}}tantas veces como quieras{{color id=\"65535\"}}."
  },
  {
    "label": "RecieveGeso_First",
    "text": "Por si no lo sabes, te comento que\ncualquier cosa que encargues en la\n{{color id=\"1\"}}Tentatienda{{color id=\"65535\"}} la puedes recoger aquí.{{pageBreak}}Y los productos de Némona en la\n{{color id=\"1\"}}Tentatienda {{color id=\"65535\"}}tienen muchísimos\n{{color id=\"1\"}}potenciadores diferentes {{color id=\"65535\"}}que no\nencontrarás aquí en la ciudad.{{pageBreak}}Si tienes cualquier duda acerca de la\n{{color id=\"1\"}}Tentatienda{{color id=\"65535\"}}, pulsa {{icon id=\"6\" arg=\"0x0000803F00000000\"}} para leer {{color id=\"1\"}}cómo\nfunciona{{color id=\"65535\"}}.{{pageBreak}}Bueno, venga, me ocupo ahora de tu\nencargo..."
  },
  {
    "label": "Recieve_NotOrder",
    "text": "¡Pero si aún no has {{color id=\"1\"}}encargado{{color id=\"65535\"}} nada!\nA ver, primero {{color id=\"1\"}}encarga {{color id=\"65535\"}}algo."
  },
  {
    "label": "Recieve_NotArrive",
    "text": "Aún voy a necesitar algo más\nde tiempo para conseguirte ese\n{{color id=\"1\"}}artículo{{color id=\"65535\"}} que has encargado.\n¿Te pasas {{color id=\"1\"}}mañana{{color id=\"65535\"}}?"
  },
  {
    "label": "Recieve_ArriveOrder",
    "text": "¡Mira! ¡Es exactamente lo que habías\nencargado! ¿Molo o qué?"
  },
  {
    "label": "Recieve_ArriveNearOrder",
    "text": "¿Qué te parece? No es exactamente\nlo que habías encargado, pero no está\nmal..."
  },
  {
    "label": "Recieve_ArriveNotOrder",
    "text": "Oye, tú... Esto es lo mejor que he\nencontrado. Espero que te sirva..."
  },
  {
    "label": "Recieve_ArriveGeso",
    "text": "Oye, tú, tengo un envío especial\nde la Tentatienda para ti."
  },
  {
    "label": "Recieve_BuyQ",
    "text": "¿Te parece bien?"
  },
  {
    "label": "Recieve_NotBuy",
    "text": "¿No te interesa? Bueno, si cambias\nde idea, ven a verme antes de que\n{{color id=\"1\"}}acabe el día{{color id=\"65535\"}}. Luego ya no estará\ndisponible."
  },
  {
    "label": "Recieve_NotBuyGeso",
    "text": "¿No te interesa? Bueno, no pasa\nnada. Si cambias de idea, ven a verme\nluego."
  },
  {
    "label": "Recieve_HaveSameGear",
    "text": "¡Ya tienes {{color id=\"1\"}}equipamiento{{color id=\"65535\"}} igual a este!\n¿Quieres {{color id=\"1\"}}remplazar{{color id=\"65535\"}} el que ya tienes\ncon este {{color id=\"1\"}}nuevo artículo{{color id=\"65535\"}}?"
  },
  {
    "label": "Recieve_NotEnoughMoney",
    "text": "Te falta dinero, tú. Ojo, porque una\ncartera vacía no es una cartera\nfeliz... Por lo menos, así lo ve Eri."
  },
  {
    "label": "Skill_First",
    "text": "¿Nunca le has {{color id=\"1\"}}añadido un\npotenciador a un objeto{{color id=\"65535\"}}? No pasa\nnada si no lo has hecho.{{pageBreak}}En realidad es muy fácil, si tienes\n{{color id=\"1\"}}fragmentos de potenciador{{color id=\"65535\"}}. Es más,\nhasta puedes cambiar un potenciador\nque tengas por otro nuevo.{{pageBreak}}Cuando rompas el que ya tienes,\n{{color id=\"1\"}}obtendrás sus fragmentos{{color id=\"65535\"}}, lo cual\nviene muy bien, como siempre que se\nrecicla algo.{{pageBreak}}Total, que si dispones de fragmentos\ny andas en busca de algún\npotenciador, ¡no dudes en probar\nesto!"
  },
  {
    "label": "Skill_ExSkillDouble",
    "text": "¡Cuidado, tú! Si rompes ese\n{{color id=\"1\"}}duplicador{{color id=\"65535\"}} y lo sustituyes por otro\npotenciador, ¡{{color id=\"1\"}}no habrá vuelta atrás{{color id=\"65535\"}}!"
  },
  {
    "label": "Skill_Select",
    "text": "Elige el {{color id=\"1\"}}artículo {{color id=\"65535\"}}y el {{color id=\"1\"}}potenciador{{color id=\"65535\"}} que\nquieras."
  },
  {
    "label": "Skill_Q",
    "text": "¿Va bien así?"
  },
  {
    "label": "Skill_Set",
    "text": "¡Listo! Espero que te ayude\nen batalla. Y, si no... ¡de todos modos\nahora molas mucho más!"
  },
  {
    "label": "RandSkill_First",
    "text": "Si me das un {{color id=\"1\"}}supermolusco{{color id=\"65535\"}}, le quito\ntodos los {{color id=\"1\"}}potenciadores secundarios{{color id=\"65535\"}}\nal objeto que me digas y los sustituyo\ncon otros al azar.{{pageBreak}}Además, ¡dejaré que te quedes con\nlos {{color id=\"1\"}}fragmentos{{color id=\"65535\"}} de los potenciadores\nprevios!{{pageBreak}}Peeero... ten en cuenta que solo\npuedo sustituir potenciadores\nen objetos que tuviesen {{color id=\"1\"}}las tres\nranuras ocupadas{{color id=\"65535\"}}.{{pageBreak}}Bueno, veamos qué tienes..."
  },
  {
    "label": "RandSkill_Select",
    "text": "Si tienes un objeto con sus tres\nranuras ocupadas, puedo reasignarle\n{{color id=\"1\"}}potenciadores secundarios{{color id=\"65535\"}} con \nun {{color id=\"1\"}}supermolusco{{color id=\"65535\"}}. Ahí te lo dejo..."
  },
  {
    "label": "RandSkill_NotEnoughShell",
    "text": "¿De verdad que no tienes ningún\n{{color id=\"1\"}}supermolusco{{color id=\"65535\"}}? ¿Ni uno solo? Pues\nentonces hazte primero con uno y\nluego hacemos negocios, ¿sí?"
  },
  {
    "label": "RandSkill_NotFirstShell",
    "text": "Lo siento, tú, pero es demasiado\npronto para que hagas eso."
  },
  {
    "label": "RandSkill_NotEnoughRarity",
    "text": "Ese objeto no tiene {{color id=\"1\"}}ranuras{{color id=\"65535\"}}\nsuficientes... Su {{color id=\"1\"}}exclusividad{{color id=\"65535\"}} es\nbastante limitada.{{pageBreak}}Solo puedo reasignarle potenciadores\na los que tengan {{color id=\"1\"}}tres ranuras{{color id=\"65535\"}}.\n¡Y además deben {{color id=\"1\"}}estar ocupadas{{color id=\"65535\"}}!"
  },
  {
    "label": "RandSkill_EmptySlot",
    "text": "¡Tiempo, tiempo! A este objeto aún\nle queda {{color id=\"1\"}}alguna ranura vacía{{color id=\"65535\"}}.{{pageBreak}}Lo siento, colega: solo puedo asignar\npotenciadores nuevos a los objetos\ncon las {{color id=\"1\"}}3 ranuras ocupadas{{color id=\"65535\"}}."
  },
  {
    "label": "RandSkill_Q",
    "text": "¿Los asigno al azar?"
  },
  {
    "label": "RareUp_First",
    "text": "Si tienes algún {{color id=\"1\"}}supermolusco {{color id=\"65535\"}}que\nquieras darme, puedo usarlo para\n{{color id=\"1\"}}aumentar la exclusividad del objeto{{color id=\"65535\"}}\nque me digas.{{pageBreak}}A mayor exclusividad, más {{color id=\"1\"}}ranuras{{color id=\"65535\"}},\nque a su vez permiten contar con\nmás potenciadores. ¡Y, cuando estén\ntodas ocupadas, el {{color id=\"1\"}}objeto{{color id=\"65535\"}} acumulará\ncada vez más {{color id=\"1\"}}experiencia{{color id=\"65535\"}}!{{pageBreak}}Hazme caso: si hay algún objeto que\nuses mucho, te convendrá aumentarle\nsu exclusividad.{{pageBreak}}Eso sí, un mayor nivel de exclusividad\nrequerirá más {{color id=\"1\"}}supermoluscos{{color id=\"65535\"}}. Pero\nes justo que sea así, ¿no te parece,\ncolega?{{pageBreak}}Bueno, tú sabes..."
  },
  {
    "label": "RareUp_Select",
    "text": "¿Qué {{color id=\"1\"}}objeto{{color id=\"65535\"}} quieres hacer más\nexclusivo? Si tienes {{color id=\"1\"}}supermoluscos{{color id=\"65535\"}},\nte lo apaño en un momento."
  },
  {
    "label": "RareUp_NoShell",
    "text": "¿De verdad que no tienes ningún\n{{color id=\"1\"}}supermolusco{{color id=\"65535\"}}? ¿Ni uno solo? Pues\nentonces hazte primero con uno y\nluego hacemos negocios, colega."
  },
  {
    "label": "RareUp_NotEnoughShell",
    "text": "¿No tienes suficientes\n{{color id=\"1\"}}supermoluscos{{color id=\"65535\"}}? Pues lo siento,\nporque yo no hago descuentos..."
  },
  {
    "label": "RareUp_NotFirstShell",
    "text": "Lo siento, tú, pero es muy temprano\npara atenderte."
  },
  {
    "label": "RareUp_FestT",
    "text": "Oye, que eso es una {{color id=\"1\"}}camiseta\nfestiva{{color id=\"65535\"}}. Yo de esas no entiendo, así\nque no puedo hacerla más {{color id=\"1\"}}exclusiva{{color id=\"65535\"}}."
  },
  {
    "label": "RareUp_AlreadyMax",
    "text": "Oye, tú, que esto ya está a tope de\nexclusividad. ¡Así que poco más\npuedo hacer yo!"
  },
  {
    "label": "RareUp_Q",
    "text": "¿Más exclusividad?"
  },
  {
    "label": "Clean_First",
    "text": "¿Nunca le has hecho {{color id=\"1\"}}limpieza {{color id=\"65535\"}}a tu\nequipamiento?{{pageBreak}}Mediante este proceso, puedes\nquitarle a un objeto todos sus\n{{color id=\"1\"}}potenciadores secundarios{{color id=\"65535\"}}, dejándolo\ncomo nuevo.{{pageBreak}}Si lo usas en combate en ese estado,\n¡puede que adquiera nuevos\npotenciadores!{{pageBreak}}Al limpiar, obtendrás también unos\ncuantos {{color id=\"1\"}}fragmentos de potenciador{{color id=\"65535\"}}.\nTodos para ti, que a mí no me hacen\nfalta.{{pageBreak}}Cuando tengas suficientes\n{{color id=\"1\"}}fragmentos{{color id=\"65535\"}}, júntalos para obtener\nel potenciador que necesites.{{pageBreak}}Pues sí, tú, hay más gente por\nahí con sus objetos {{color id=\"1\"}}limpios{{color id=\"65535\"}}, ¡y no\nveas qué nivelazo adquiere luego su\nequipamiento!{{pageBreak}}Total, que si quieres limpiar algún\nobjeto y llevas suficiente dinero,\n¡cuenta conmigo!{{pageBreak}}Bueno, a ver qué tienes..."
  },
  {
    "label": "Clean_Select",
    "text": "¿Qué {{color id=\"1\"}}artículo{{color id=\"65535\"}} quieres que {{color id=\"1\"}}limpie{{color id=\"65535\"}}?\nLo frotaré hasta que quede como\nrecién salido de fábrica."
  },
  {
    "label": "Clean_NoSkill",
    "text": "Vaya... Este objeto está «pelado».\nSi no tiene ningún {{color id=\"1\"}}potenciador{{color id=\"65535\"}},\n¡entonces no hay nada que\nlimpiar!"
  },
  {
    "label": "Clean_NotEnoughMoney",
    "text": "Como que tienes poca pasta, ¿no?\nCuidado, porque el dinero se escurre\nmás rápido que el agua... Te lo dice\nEri."
  },
  {
    "label": "Clean_Q",
    "text": "¿Limpio esto?"
  },
  {
    "label": "Clean_Done",
    "text": "¡Mira qué bien lo he dejado!\nEstos {{color id=\"1\"}}fragmentos de potenciador{{color id=\"65535\"}}\nque han saltado son todos tuyos."
  },
  {
    "label": "GoodBye",
    "text": "¡Gracias, colega!\nSi necesitas algo más, ya sabes\ndónde encontrarme."
  },
  {
    "label": "FirstSand",
    "text": "El Grand Festival está siendo una\nverdadera locura. ¡Jamás se había\nvisto nada parecido!{{pageBreak}}Ese chavalín está tan entusiasmado\nque me ha pedido que lo sustituya\npara poder pasarse por allí.{{pageBreak}}Y el marrón para mí, claro... ¿Qué?\n¡Por supuesto que los jóvenes tienen\nderecho a divertirse! No me quejo..."
  },
  {
    "label": "FirstSand_AfterSomeMsg",
    "text": "El Grand Festival está siendo una\nverdadera locura. ¡Jamás se había\nvisto nada parecido!{{pageBreak}}Ese chavalín está tan entusiasmado\nque me ha pedido que lo sustituya\npara poder pasarse por allí.{{pageBreak}}Y el marrón para mí, claro... ¿Qué?\n¡Por supuesto que los jóvenes tienen\nderecho a divertirse! No me quejo..."
  }
]