[
  {
    "label": "Msg_Resume",
    "text": "We need to set up a few things before you'll be\nable to play online."
  },
  {
    "label": "Msg_DoTransfer",
    "text": "Save data imported! {{color id=\"1\"}}After your first online\nbattle{{color id=\"65535\"}}, three {{icon id=\"29\" arg=\"0xF6285C3F00000000\"}}Gold Sheldon Licenses will\nbe waiting for you in the lobby as a bonus!"
  },
  {
    "label": "Msg_IntroduceFest",
    "text": "Splatfest Region Setting\n{{color id=\"1\"}}Splatfests{{color id=\"65535\"}} are special events where players are\nsplit into three teams to battle it out.\n\nEach region has its own Splatfests, including content\nand event times. Please choose which region's\nSplatfests you would like to be a part of."
  },
  {
    "label": "Msg_NetworkAnalyze",
    "text": "Checking your region..."
  },
  {
    "label": "Msg_ConfirmFestRegion",
    "text": "Play in this region's Splatfests?\n\n{{color id=\"1\"}}{{string value=\"SelectedSplatfestRegion\" arg1=\"0\" arg3=\"0\"}}{{color id=\"65535\"}}"
  },
  {
    "label": "BtnL_ConfirmFestRegion",
    "text": "Pick Again"
  },
  {
    "label": "BtnR_ConfirmFestRegion",
    "text": "OK"
  },
  {
    "label": "Msg_ConfirmFestRegion_First",
    "text": "Play in this region's Splatfests?\n\n{{color id=\"1\"}}{{string value=\"SelectedSplatfestRegion\" arg1=\"0\" arg3=\"0\"}}{{color id=\"65535\"}}\n\nNote: You can change this later, but if you participate\nin a Splatfest, you will be unable to change the\nsetting for a period of time."
  },
  {
    "label": "BtnL_ConfirmFestRegion_First",
    "text": "Change"
  },
  {
    "label": "BtnR_ConfirmFestRegion_First",
    "text": "OK"
  },
  {
    "label": "Msg_ConfirmFestRegion_AltLang",
    "text": "The English language is not supported for Splatfests\nin {{color id=\"1\"}}{{string value=\"SelectedSplatfestRegion\" arg1=\"0\" arg3=\"0\"}}{{color id=\"65535\"}}.\nDuring the Splatfest, some text will be displayed\nin {{color id=\"1\"}}{{string value=\"SelectedSplatfestLanguage\" arg1=\"0\" arg3=\"0\"}}{{color id=\"65535\"}}. Is this OK?"
  },
  {
    "label": "BtnL_ConfirmFestRegion_AltLang",
    "text": "Choose Again"
  },
  {
    "label": "BtnR_ConfirmFestRegion_AltLang",
    "text": "OK!"
  },
  {
    "label": "Msg_ConfirmFestRegion_Reboot",
    "text": "{{color id=\"1\"}}{{string value=\"SelectedSplatfestRegion\" arg1=\"0\" arg3=\"0\"}}{{color id=\"65535\"}}向けのフェスは、\n日本語に対応していません\nフェスの開催中は、ソフトを再起動してゲーム内の表示を\n{{color id=\"1\"}}{{string value=\"SelectedSplatfestLanguage\" arg1=\"0\" arg3=\"0\"}}{{color id=\"65535\"}}に切り替える必要があります\nそれでもよろしいですか？"
  },
  {
    "label": "BtnL_ConfirmFestRegion_Reboot",
    "text": "Choose Again"
  },
  {
    "label": "BtnR_ConfirmFestRegion_Reboot",
    "text": "OK!"
  },
  {
    "label": "Msg_FestRegionChanged",
    "text": "Splatfest region set to\n{{color id=\"1\"}}{{string value=\"SelectedSplatfestRegion\" arg1=\"0\" arg3=\"0\"}}{{color id=\"65535\"}}."
  },
  {
    "label": "Msg_DeviceIdChanged",
    "text": "Your gear, camera options, and other\nsettings now match what they were the\nlast time you played online on a different\nNintendo Switch console."
  }
]