[
  {
    "label": "0360d9c8-29b0-4611-b2c9-9c9855d90c6f",
    "text": "Pourquoi ce tuyau est aussi long? Je vais piquer une\npetite sieste. Réveillez-moi quand on sera au bout."
  },
  {
    "label": "04075ea7-f96c-48a5-85e5-44a8c4943536",
    "text": "Jouons aux devinettes pour nous occuper!{{delay frames=\"15\"}} Je suis\ngéante! Je suis bleue! Je suis... {{delay frames=\"15\"}}une baleine bleue!"
  },
  {
    "label": "2d618c7e-162c-4ac8-ad73-bd1df52c7bb5",
    "text": "Ah! Je vois deux autres tuyaux là-bas!"
  },
  {
    "label": "62445050-1d0d-4481-8992-349279852c1f",
    "text": "Ce tuyau me rappelle l'époque où je travaillais dans\nun entrepôt avec Numéro 2... C'était le bon temps."
  },
  {
    "label": "85f1c5e1-b146-4ee2-aefc-1919b917dee0",
    "text": "Faut espérer que Numéro 3 se retrouve pas\nà l'arrêt en plein milieu..."
  },
  {
    "label": "065abbdc-b41c-440c-a0a6-925719c993de",
    "text": "Ouah! Laisse pas traîner ça ici!"
  },
  {
    "label": "133f17d3-3d35-477d-a240-24bb58248adc",
    "text": "{{size value=\"75\"}}... Pigé. Un instant...{{size value=\"100\"}}"
  },
  {
    "label": "231349e6-976e-4905-9d7b-62e7b4ca7f32",
    "text": "Tu manques d'{{color id=\"1\"}}œufs de poisson{{color id=\"65535\"}}...\nCours faire des provisions!"
  },
  {
    "label": "3634d043-907e-40f4-9146-a601b39bb999",
    "text": "À votre droite, la plateforme de lancement la plus\nvelue de l'histoire des plateformes de lancement!"
  },
  {
    "label": "47993a16-6ad3-4884-8f36-468da3b7f63e",
    "text": "Youhou! J'ai l'impression de foncer à travers\nle tuyau avec toi, Numéro 3!"
  },
  {
    "label": "4fb26ef1-bccd-48e9-9358-020346038435",
    "text": "Hmm... Faut avouer que c'est pratique, ce truc."
  },
  {
    "label": "6809a38c-50bf-4bd8-a281-2f56d7c7e5a5",
    "text": "Hé, ton p'tit camarade a déniché un truc!"
  },
  {
    "label": "71b53249-eb85-43d6-b906-56a15b22acef",
    "text": "Prudence, Numéro 3..."
  },
  {
    "label": "7ecbdb41-0acb-433d-8539-13ef0fc60ac1",
    "text": "On y est presque. Prépare-toi!"
  },
  {
    "label": "844c3154-92ee-456e-b27b-0dfbf7e48def",
    "text": "Mais... il est interminable, ce tuyau!"
  },
  {
    "label": "85e8c9f1-fe2d-4c56-8830-72475250178a",
    "text": "Sans {{color id=\"1\"}}œufs de poisson{{color id=\"65535\"}}, Salmio peut rien faire...\nAppuie sur {{icon id=\"8\" arg=\"0xCDCC4C3F00000000\"}} pour lui donner sa ration!"
  },
  {
    "label": "86321eb5-4968-4805-9b0e-06d8cfc15877",
    "text": "C'est reparti, Numéro 3!"
  },
  {
    "label": "8e09345a-2633-4ee7-bbb5-568fca2af6e6",
    "text": "Oh! Des étincelles!"
  },
  {
    "label": "92c20f80-9335-4aa1-94bf-d600f721022a",
    "text": "Comme dit l'amiral{{string value=\"11\" arg1=\"0\" arg3=\"2\"}} : « Même s'ils se font ratatiner\nà répétition, les vrais héros repassent à l'action! »"
  },
  {
    "label": "951427ba-caa3-4b73-8a22-741d34a8c52e",
    "text": "{{size value=\"75\"}}… Youhouuuu!{{size value=\"100\"}}"
  },
  {
    "label": "a1a4e6cc-a2c5-47d1-a804-0a49d6a6b682",
    "text": "HÉ!"
  },
  {
    "label": "a4a4222c-a8a7-4259-b582-758c480947d4",
    "text": "Des œufs de poisson! On en a jamais assez."
  },
  {
    "label": "afd67f37-d756-46ca-9159-44bce594dce9",
    "text": "Je crois que Salmio essaie de te dire un truc..."
  },
  {
    "label": "b0807a37-df8e-448f-9fc4-bb1540bcc4a3",
    "text": "Cette zone est la plus reculée, non?\nC'est l'impression que j'ai, en tout cas."
  },
  {
    "label": "b3da7fea-aac5-436e-b3fb-50b14dda1869",
    "text": "À droite, vous pouvez admirer une fusée avec plein de\npoils autour. Hmm, je ne pensais pas dire ça un jour."
  },
  {
    "label": "bef5a5c2-5dbc-42aa-9567-c671a043c46b",
    "text": "Je sais pas où est Papi, mais j'espère qu'il va bien..."
  },
  {
    "label": "c5812a5c-191a-43d3-ad07-e767268726b7",
    "text": "Mais qui a bien pu construire ces tuyaux?!"
  },
  {
    "label": "c7fa03f7-7210-48c4-943c-c3ea8f3bafa9",
    "text": "On verra bien sur place. En espérant que la surprise\nne soit pas mauvaise."
  },
  {
    "label": "d67e8a8b-67ec-4b16-aa4f-58883fa1065d",
    "text": "Je voudrais pas faire ma rabat-joie, mais je crois\nbien que t'as pas assez d'{{color id=\"1\"}}œufs de poisson{{color id=\"65535\"}}."
  },
  {
    "label": "e00d3639-beb7-4e24-91e7-0e547ae241a3",
    "text": "{{string value=\"5\"}}.....................{{fun_000F_0004 arg=\"0x0500\"}} Fuiiii!{{delay frames=\"30\"}} Je m'entraînais à retenir\nma respiration. C'est pas très agréable."
  },
  {
    "label": "e765fc6f-5aca-45bf-bf24-2e2e28ae0a9c",
    "text": "Bon... Voyons ce qui nous attend dans la zone\nsuivante!"
  },
  {
    "label": "f12721d6-3378-47cb-b3ef-69b7cb6702b1",
    "text": "Ouais! En avant!"
  },
  {
    "label": "f3df7e2f-f912-46d8-bb41-426d4a606397",
    "text": "Après une telle vision, je ne pourrai plus jamais\nregarder ma couverte confortable du même œil."
  },
  {
    "label": "f97bcace-0ec0-4d7b-986c-39d6a8c60651",
    "text": "C'était quoi, ça? Il y avait quelque chose dans\nl'eau, j'en suis sûre!"
  },
  {
    "label": "fa23145f-0019-49dc-8680-04fb921adbee",
    "text": "Si la situation te dépasse, respire, fais une pause.\nMoi, ça fait des années que je suis en pause."
  }
]