[
  {
    "label": "1ed6a49e-02f4-4a9b-af33-e8f201375cb5",
    "text": "Quel talent! T'as ça dans le sang!"
  },
  {
    "label": "2a6f3a3f-1b16-4972-9232-63fe2acd38f2",
    "text": "Quand ça brille dans l'coin, c'est qu'le {{color id=\"1\"}}poisson-charge{{color id=\"65535\"}}\nest pas loin... D'ailleurs, j'le vois d'ici!"
  },
  {
    "label": "395e39cc-c42c-4d0f-8a6c-f053f3a18089",
    "text": "Si ta cible est pas à portée, envoie {{color id=\"1\"}}Salmio{{color id=\"65535\"}}\nfaire le boulot!"
  },
  {
    "label": "54b9bec6-7e26-4773-8538-28b481d5f874",
    "text": "Tu veux faire main basse sur le contenu\ndu {{color id=\"1\"}}portail{{color id=\"65535\"}} {{icon id=\"27\" arg=\"0x0000803F00000000\"}}? Trouve une {{color id=\"1\"}}clé {{icon id=\"26\" arg=\"0x0000803F00000000\"}}{{color id=\"65535\"}} d'abord!"
  },
  {
    "label": "bb1da935-3fe2-4326-b66c-267b2580f4a3",
    "text": "Je m'demande si t'es capable de {{color id=\"1\"}}sauter{{color id=\"65535\"}} d'un {{color id=\"1\"}}fil d'encre{{color id=\"65535\"}}\nà l'autre... Mais y'a qu'un seul moyen d'le savoir!"
  },
  {
    "label": "c65af139-bb36-4136-91b9-1dcc5f97c140",
    "text": "Tu peux bondir aussi loin qu'tu veux, t'arriveras\njamais à atteindre le fil d'encre d'ici..."
  },
  {
    "label": "d61a0afe-a980-4c15-a3c6-888aa08a7876",
    "text": "{{color id=\"1\"}}Tentavoles{{color id=\"65535\"}} repérés! Liquide-les!"
  },
  {
    "label": "dc655922-99dc-4d59-baae-313ee714ea11",
    "text": "Tiens, encore un {{color id=\"1\"}}portail{{color id=\"65535\"}}. À toi de trouver la {{color id=\"1\"}}clé{{color id=\"65535\"}}!"
  },
  {
    "label": "f875fdf4-5f72-4172-87fb-3c99f8417f46",
    "text": "Et voilà. Maintenant, encre-moi c'bidule!"
  },
  {
    "label": "3059a4ae-0a59-4c06-abdb-3f0fd9bbffad",
    "text": "Aha! T'as activé un {{color id=\"1\"}}fil d'encre{{color id=\"65535\"}}! Plus qu'à bondir\ndessus et à appuyer sur {{icon id=\"11\" arg=\"0x0000803F00000000\"}}."
  },
  {
    "label": "f2834fc5-0e87-45c1-8a2e-25b997fde6fa",
    "text": "Voilà la {{color id=\"1\"}}clé{{color id=\"65535\"}}! Empoche-la et fonce déverrouiller\nl'portail!"
  },
  {
    "label": "c0b184e2-64c7-458a-854e-100541badfcd",
    "text": "J'veux pas te faire peur, mais si tu lâches {{icon id=\"11\" arg=\"0x0000803F00000000\"}},\ntu fais l'grand plongeon. Alors, accroche-toi!"
  },
  {
    "label": "2ba5d4e9-597f-4de1-8c73-48131e6f5fd0",
    "text": "J'te rappelle qu'il te suffit d'appuyer sur {{icon id=\"11\" arg=\"0x0000803F00000000\"}} pour\nte transformer et traverser les {{color id=\"1\"}}grilles{{color id=\"65535\"}}."
  }
]