[
  {
    "label": "063057dc-6367-46c7-ad8c-4157a13ecf6f",
    "text": "Des {{color id=\"1\"}}tapis roulants{{color id=\"65535\"}}! Bondis dessus et envole-toi!"
  },
  {
    "label": "3c65ff85-1310-4b35-a2d7-39789d76a492",
    "text": "Joli! Plus qu'à empocher le {{color id=\"1\"}}poisson-charge{{color id=\"65535\"}}\net à mettre les bouts!"
  },
  {
    "label": "762f2d5c-6af2-4c2f-8784-fdaeda4a9452",
    "text": "Je sais pas c'que tu cherches, mais c'est pas ici\nque tu l'trouveras, p'tite tête."
  },
  {
    "label": "bd6545ac-4bde-419d-afd5-009d3f4b1b63",
    "text": "Ha ha, on va bien s'calmarrer! Appuie sur {{icon id=\"11\" arg=\"0x0000803F00000000\"}} pour\nte transformer et {{color id=\"1\"}}nager dans l'encre{{color id=\"65535\"}}!"
  },
  {
    "label": "9be47f6d-1fca-4d29-a4a2-cb046ec2465d",
    "text": "Je te rappelle que tu peux {{color id=\"1\"}}sauter{{color id=\"65535\"}} avec {{icon id=\"1\" arg=\"0x0000803F00000000\"}}!"
  }
]