[
  {
    "label": "124c80c6-bf6d-424f-b228-594cc440820e",
    "text": "Waouh! Même pas le temps de transpirer!"
  },
  {
    "label": "19f142d4-a758-4119-8f69-6ab9a083c866",
    "text": "Elles pourraient tenter de te feinter, alors vise\nsoigneusement."
  },
  {
    "label": "24c324f0-f257-40b0-b2eb-85aadb90de24",
    "text": "Ah, joli!"
  },
  {
    "label": "33dd44d1-5eab-41c0-a56e-2dd03e340b92",
    "text": "20/20!"
  },
  {
    "label": "3473f6ff-99a1-4c1d-a273-be7be7d01824",
    "text": "Tu as réussi? Tu as réussi!"
  },
  {
    "label": "5242126d-1a21-4210-9a07-e725b418b0cf",
    "text": "Youhou! Bravo!"
  },
  {
    "label": "5a63982a-0629-435c-9535-5bd578552cd8",
    "text": "Pour commencer le test, place-toi sur l'{{color id=\"1\"}}interrupteur\npédestre{{color id=\"65535\"}}."
  },
  {
    "label": "642e1e60-70e1-4e26-97d8-df1476f50588",
    "text": "Oh, j'ai compris! Il faut que tu évites de détruire\nles {{color id=\"1\"}}ballons d'échec{{color id=\"65535\"}}. Logique."
  },
  {
    "label": "a9eaf34c-3cc4-4b21-bf92-9b271975e435",
    "text": "C'était amusant."
  },
  {
    "label": "cabe2968-4cd7-48b8-8c56-427dcefa2eb2",
    "text": "On progresse, on progresse..."
  },
  {
    "label": "cfdc359e-dd29-4fa0-bf81-387ffe4ed38a",
    "text": "Ouah... J'ai le tournis..."
  }
]