[
  {
    "label": "07c55aad-0782-4f62-a149-64c0071102d1",
    "text": "Un {{color id=\"1\"}}fil d'encre{{color id=\"65535\"}} qui ne mène nulle part?\nÇa n'a aucun sens!"
  },
  {
    "label": "0b8bde31-3bdd-4fd4-aaa0-350938113e22",
    "text": "Ohooo, ils forment une vague! Ce serait adorable si\nce n'était pas redoutable. Gare à ton rythme..."
  },
  {
    "label": "3c4de050-7fc2-4e5f-a96b-a177a4bf692d",
    "text": "Excellent, Numéro 3! Les fils d'encre, c'est ton truc!"
  },
  {
    "label": "3e74964f-2904-45a5-a24a-12e68334ba16",
    "text": "Inutile de te dire d'éviter les {{color id=\"1\"}}pistons encreurs{{color id=\"65535\"}}, non?\nCes trucs-là font TRÈS MAL!"
  },
  {
    "label": "4b0c4e44-0d80-4fff-a11c-2d828c892de8",
    "text": "Pfiou! J'ai eu la chair de poulpe!"
  },
  {
    "label": "509a09a1-29ab-4e4e-b10a-dc7f1b90d5a3",
    "text": "Attention, ton rythme va devoir être par-fait..."
  },
  {
    "label": "6fbc3caf-6125-4d28-9f8e-a4c045793d5c",
    "text": "Peut-on lancer une {{color id=\"1\"}}bombe{{color id=\"65535\"}} {{icon id=\"10\" arg=\"0x0000803F00000000\"}} plus loin qu'on ne peut\ntirer de l'encre? Un seul moyen de le savoir!"
  },
  {
    "label": "75228c14-13e6-4772-89db-097c1a364140",
    "text": "Sacré retournement de situation! Allez, feu à volonté!"
  },
  {
    "label": "7ac618bb-af8c-4976-a922-4abb7c1a8732",
    "text": "Bien joué. Et tu n'as raté aucun beigne calmar!"
  },
  {
    "label": "7e30121e-97cc-48a8-8451-4f49ffd64464",
    "text": "Au fait, Numéro 3, l'amiral{{string value=\"11\" arg1=\"0\" arg3=\"2\"}} dit : « Suis les\n{{color id=\"1\"}}fils d'encre{{color id=\"65535\"}} ». Au cas où!"
  },
  {
    "label": "8cca503f-6281-46b1-bcd9-c4f32bc5f920",
    "text": "Tu vas devoir sauter d'un {{color id=\"1\"}}fil d'encre{{color id=\"65535\"}} à un autre...\nPour ça, il suffit d'appuyer sur {{icon id=\"1\" arg=\"0x0000803F00000000\"}}!"
  },
  {
    "label": "92954aac-ffdd-4ab7-b653-198bded7e6d7",
    "text": "{{color id=\"1\"}}Tentatourelles{{color id=\"65535\"}} droit devant! Te défile pas!"
  },
  {
    "label": "9e544886-658f-4930-9cf1-42aa58c374d5",
    "text": "Tiens donc, un {{color id=\"1\"}}fil d'encre{{color id=\"65535\"}}. Vas-y, encre-le!"
  },
  {
    "label": "b8485cda-84b7-49f3-800e-67ed05340c28",
    "text": "Oooh, toutes ces petites plateformes..."
  }
]