[
  {
    "label": "0031c3f3-5ff7-4173-8ebe-fb7b256d5bad",
    "text": "Voilà le coin parfait pour se lâcher un peu avec\nle rouleau en maintenant {{icon id=\"12\" arg=\"0x0000803F00000000\"}}."
  },
  {
    "label": "0246f8bb-0946-4641-9a7e-f30e36a9ddba",
    "text": "Il s'en est fallu de peu! Il était bien planqué, celui-là."
  },
  {
    "label": "1d2bc628-c906-42f8-923e-dce35fb70169",
    "text": "Y'a encore moyen de se glisser derrière, à mon avis..."
  },
  {
    "label": "2478b2de-513f-45f4-a4a8-a21badd86842",
    "text": "Argh! Des Octariens, déjà?!"
  },
  {
    "label": "2c40e1ec-2778-4719-adf3-84cd091bc06c",
    "text": "Un tentatourelle, des ennemis derrière des boucliers...\nTout ça, c'est bien joli, mais ça vaut pas un rouleau!"
  },
  {
    "label": "302c9e68-bcc4-417a-8018-c82edcd034c0",
    "text": "Cool! Une ration d'{{color id=\"1\"}}œufs de poisson{{color id=\"65535\"}} en récompense\nde ses efforts, ça fait toujours plaisir!"
  },
  {
    "label": "3251ace2-7f86-4e7a-873b-30454f524f01",
    "text": "Appuie sur {{icon id=\"12\" arg=\"0x0000803F00000000\"}} pour un {{color id=\"1\"}}balayage horizontal{{color id=\"65535\"}}, ou\nsur {{icon id=\"12\" arg=\"0x0000803F00000000\"}} tout en sautant pour un {{color id=\"1\"}}balayage vertical{{color id=\"65535\"}}."
  },
  {
    "label": "456b24b9-25e1-4291-8e86-37d6dcc39a34",
    "text": "Avec ton rouleau, c'est une affaire qui roule!"
  },
  {
    "label": "5991f815-2dda-443e-b078-d5ebad7c64e7",
    "text": "Oh, joli contournement!"
  },
  {
    "label": "7faa22cb-e043-4e1a-a16d-6d88967fca1c",
    "text": "Qui c'est qui est mal barré, maintenant?"
  },
  {
    "label": "831b4ad9-1bd5-41e5-bdef-0f4c4a93e7d1",
    "text": "Ennemi au tapis! Bien joué, Numéro 3!"
  },
  {
    "label": "8692e390-0b96-4c93-a497-d2896189b50e",
    "text": "Bien joué."
  },
  {
    "label": "aa3cb97b-e1da-4d1c-8020-85dccb4bd61e",
    "text": "Impressionnant! On va t'appeler Super Rouleau!"
  },
  {
    "label": "ac0a4804-2fbb-45a4-9931-7ea5aee8f8c9",
    "text": "Attention où tu mets les pieds, Numéro 3!"
  },
  {
    "label": "c28934ae-e86d-4e2c-b82e-36eac6828edc",
    "text": "Deux pour le prix d'un!"
  },
  {
    "label": "ceaad6a7-c669-4398-8ba3-aacf9b1b68be",
    "text": "C'est l'occasion de lancer une salve d'encre à distance.\nSaute et tire en même temps, ils vont rien piger!"
  },
  {
    "label": "cf8987a8-a96d-4006-aef1-d993522ff40e",
    "text": "Oublie pas... Si tu maintiens {{icon id=\"1\" arg=\"0x0000803F00000000\"}} sur un {{color id=\"1\"}}matelas de\nsaut{{color id=\"65535\"}}, tu vas bondir à des hauteurs incroyables!"
  },
  {
    "label": "d9f2e6ae-db2a-4ad7-91ac-dd06bd2cf2b9",
    "text": "Comme quoi, il ne faut jamais baisser sa garde ou on se\nretrouve « à poils » face à l'ennemi. Adios, l'octarien!"
  },
  {
    "label": "dfebb4e2-a395-4285-a22f-92c247040f27",
    "text": "Euh, on savait que c'était là, hein, Numéro 1?"
  },
  {
    "label": "f906fe63-b376-4151-bf3f-3550000d8364",
    "text": "Oui. Ça va de soi."
  }
]