[
  {
    "label": "3e93f682-62e3-46b1-883b-517a32a7c3a2",
    "text": "Est-ce que...? Oh non!"
  },
  {
    "label": "4ae6041e-a5aa-4e12-a928-92189bb0108c",
    "text": "À nous de jouer! La barrière est désactivée!"
  },
  {
    "label": "45e74fa2-91ee-486c-a46b-c5df46e94d16",
    "text": "Et un vortex de moins!"
  },
  {
    "label": "80715b99-dd2c-4365-b514-88618749cd7d",
    "text": "Processus de déchromatisation relancé..."
  },
  {
    "label": "94eb1ae8-2d8d-403c-b762-8ed953dff156",
    "text": "Coralie... Qu'est-ce qui t'arrive?"
  },
  {
    "label": "986e2ada-a7ff-486b-bfa4-2b4af43f6f2a",
    "text": "Il reste deux vortex!"
  },
  {
    "label": "50fe36f5-401f-4cfc-9db1-bf21f996318c",
    "text": "On les a tous eus?"
  },
  {
    "label": "0c18e730-f869-484d-913e-87d1f4a7b500",
    "text": "Cool! Plus qu'un!"
  },
  {
    "label": "2fc5c255-4103-4156-a299-9fffdf133165",
    "text": "J'ai compris! Les vortex alimentent la barrière."
  },
  {
    "label": "3d70e1eb-59c2-42b5-b222-a377ab459927",
    "text": "Huit! Détruis la chose immonde qui l'emprisonne!"
  },
  {
    "label": "e625245f-d4af-4c73-b765-bf0b25464ea5",
    "text": "ERREUR! Dysfonctionnement au niveau de la barrière."
  },
  {
    "label": "337e139a-01f0-4949-9dcb-0ed267ddcf76",
    "text": "Il est temps de faire le ménage!"
  },
  {
    "label": "4a121827-04e0-4290-8233-f9fbba8d6424",
    "text": "C'est un {{color id=\"4\"}}vortex{{color id=\"65535\"}}? Il a l'air bizarre..."
  },
  {
    "label": "72fb1bd2-93ef-4e61-8daf-a1e0ca28d279",
    "text": "Coralie est protégée par une puissante {{color id=\"4\"}}barrière{{color id=\"65535\"}}."
  },
  {
    "label": "4719c2d1-048e-4065-8ce6-907f79668329",
    "text": "Au moins, on connaît notre premier objectif."
  },
  {
    "label": "d001a45c-c55e-4708-bf44-ae6fe4466dca",
    "text": "Mise en place des leurres offensifs."
  },
  {
    "label": "3de408d7-d735-4ff4-a17e-fdb233b7cba5",
    "text": "Détection d'une résistance à la déchromatisation."
  },
  {
    "label": "e35c95f8-6c00-489e-b241-fb160eb0d3fb",
    "text": "Confirmation de menace faible.\nStatut de la barrière : actif."
  },
  {
    "label": "a04bad7f-65b1-4ea9-aca2-ba72f44caeb6",
    "text": "Bien joué! Occupe-toi de la suivante, maintenant."
  },
  {
    "label": "f1b6bb45-88cb-46c3-bcb4-0b799b3d4622",
    "text": "N'oublie pas, on sort pas d'ici avant d'avoir\nsauvé Coralie!"
  }
]