[
  {
    "label": "2b0944bb-6ffd-4206-9653-01998e317178",
    "text": "Quel itinéraire choisir? Étudie bien les lieux\navant de te décider, Numéro 3!"
  },
  {
    "label": "30bf18e2-a729-4145-90fb-d01e8b66a625",
    "text": "La fête est finie, les tentabrutis!"
  },
  {
    "label": "3cde346c-5774-4fb9-b11b-9cf9d1f898a3",
    "text": "Ah, mais en fait, des {{color id=\"1\"}}tentatourelles{{color id=\"65535\"}} sont postés sur\nles deux chemins? Bon, ben joue-la à pile ou face..."
  },
  {
    "label": "5217078e-3bec-43f5-968f-b739d34c9cb7",
    "text": "Un {{color id=\"1\"}}Cavalsquale{{color id=\"65535\"}}! Vise, lâche-lui la bride, puis appuie\nsur {{icon id=\"12\" arg=\"0x0000803F00000000\"}} pour une explosion dévastatrice!"
  },
  {
    "label": "5c03b8ae-2fb4-4568-8f25-ed7085bb4fb0",
    "text": "Youhou, on y est presque!"
  },
  {
    "label": "8ceca47d-e7f7-4d12-a7a3-0a16f2722ce1",
    "text": "Les {{color id=\"1\"}}blocs serpentins{{color id=\"65535\"}}, il faut en profiter quand on en\ntrouve! Ils ne sont pas à emporter!"
  },
  {
    "label": "a6d36d57-b2f6-4eda-8d0b-74e94075d6ba",
    "text": "Ouais! T'as mis ces caisses en pièces!"
  },
  {
    "label": "cacbba35-72af-44e9-943f-eeba62425dcd",
    "text": "Prends pas de risques inutiles et mets-toi à\ncouvert dès que tu peux! C'est la base!"
  },
  {
    "label": "d5755cbf-7a86-4b61-993c-3b5209110f11",
    "text": "{{color id=\"1\"}}Wagon encreur {{color id=\"65535\"}}activé, chaud devant!"
  },
  {
    "label": "dbbd99a4-c412-4514-a40f-068ceb615c71",
    "text": "Emballé, c'est pesé!"
  }
]