[
  {
    "label": "SpInkStorm",
    "text": "{{icon id=\"10\" arg=\"0x0000604000000000\"}}投擲裝置吧！"
  },
  {
    "label": "SpUltraShot",
    "text": "{{icon id=\"12\" arg=\"0xCDCC4C4000000000\"}}發射吧！"
  },
  {
    "label": "SpUltraStamp",
    "text": "{{icon id=\"12\" arg=\"0xCDCC4C4000000000\"}}蓋下印章吧！"
  },
  {
    "label": "SpJetpack",
    "text": "{{icon id=\"12\" arg=\"0xCDCC4C4000000000\"}}盡情射擊吧！"
  },
  {
    "label": "SpShockSonar",
    "text": "{{icon id=\"10\" arg=\"0x0000604000000000\"}}投擲裝置吧！"
  },
  {
    "label": "SpSuperHook",
    "text": "{{icon id=\"10\" arg=\"0x0000604000000000\"}}伸長觸手吧！"
  },
  {
    "label": "SpTripleTornado",
    "text": "{{icon id=\"10\" arg=\"0x0000604000000000\"}}投擲裝置吧！"
  },
  {
    "label": "SpEnergyStand",
    "text": "{{icon id=\"10\" arg=\"0x0000604000000000\"}}投擲裝置吧！"
  },
  {
    "label": "SpSkewer",
    "text": "按下{{icon id=\"12\" arg=\"0xCDCC4C4000000000\"}}停止並爆炸！"
  },
  {
    "label": "SpChariot",
    "text": "{{icon id=\"10\" arg=\"0x0000604000000000\"}}{{icon id=\"12\" arg=\"0xCDCC4C4000000000\"}}盡情掃射吧！"
  },
  {
    "label": "SpNiceBall",
    "text": "{{icon id=\"10\" arg=\"0x0000604000000000\"}}丟出讚氣彈吧！"
  },
  {
    "label": "SpNiceBallNice",
    "text": "{{icon id=\"13\" arg=\"0xCDCC4C4000000000\"}}累積讚氣吧！"
  },
  {
    "label": "SpNiceBallSend",
    "text": "{{icon id=\"13\" arg=\"0xCDCC4C4000000000\"}}送出讚氣吧！"
  },
  {
    "label": "SpBlower",
    "text": "{{icon id=\"12\" arg=\"0xCDCC4C4000000000\"}}吸收對手的墨汁吧！"
  },
  {
    "label": "SpBlowerShoot",
    "text": "{{icon id=\"12\" arg=\"0xCDCC4C4000000000\"}}發射吧！"
  },
  {
    "label": "SpMultiMissile",
    "text": "{{icon id=\"12\" arg=\"0xCDCC4C4000000000\"}}鎖定對手吧！"
  },
  {
    "label": "SpFirework",
    "text": "{{icon id=\"12\" arg=\"0xCDCC4C4000000000\"}}散射誘餌吧！"
  },
  {
    "label": "SpCastle",
    "text": "按住{{icon id=\"12\" arg=\"0xCDCC4C4000000000\"}}展開突襲！"
  },
  {
    "label": "SpChimney",
    "text": "{{icon id=\"10\" arg=\"0x0000604000000000\"}}投擲裝置吧！"
  },
  {
    "label": "SpIkuraShoot",
    "text": "{{icon id=\"10\" arg=\"0x0000604000000000\"}}投擲小鮭魚吧！"
  },
  {
    "label": "SpIkuraShootAim",
    "text": "瞄準核心！"
  },
  {
    "label": "VehicleSpectacleBlower",
    "text": "{{icon id=\"12\" arg=\"0xCDCC4C4000000000\"}}吸收核心吧！"
  },
  {
    "label": "VehicleSpectacleShoot",
    "text": "{{icon id=\"12\" arg=\"0xCDCC4C4000000000\"}}持續發射吧！"
  },
  {
    "label": "CoopBossShoot",
    "text": "{{icon id=\"0\" arg=\"0x713D2A4000000000\"}}射擊頭目鮭魚！"
  },
  {
    "label": "ThrowClam",
    "text": "{{icon id=\"0\" arg=\"0x713D2A4000000000\"}}投入對手陣地的終點！"
  },
  {
    "label": "ThrowTenjin",
    "text": "{{icon id=\"0\" arg=\"0x713D2A4000000000\"}}投擲煙火彈吧！"
  }
]