[
  {
    "label": "000",
    "text": "目錄記錄"
  },
  {
    "label": "L_Btn_00-T_Info_00",
    "text": "OK"
  },
  {
    "label": "100",
    "text": "{{string index=\"0\" arg2=\"12\"}}  ～  {{string index=\"1\" arg2=\"12\"}}"
  },
  {
    "label": "T_Catalog_00",
    "text": "目錄等級"
  },
  {
    "label": "200",
    "text": "{{number index=\"0\" type=\"5\" arg3=\"0\" arg4=\"0\"}}"
  },
  {
    "label": "T_Attain_00",
    "text": "達成！"
  }
]