[
  {
    "label": "L_Btn_00-T_Info_00",
    "text": "返回"
  },
  {
    "label": "000",
    "text": "創造！"
  },
  {
    "label": "001",
    "text": "提升級別！"
  },
  {
    "label": "L_BtnL_00-T_Btn_00",
    "text": "取消"
  },
  {
    "label": "010",
    "text": "-{{number index=\"0\" type=\"4\" arg3=\"0\" arg4=\"0\"}}"
  },
  {
    "label": "020",
    "text": "確定要提升級別嗎？"
  },
  {
    "label": "021",
    "text": "確定要提升級別嗎？"
  },
  {
    "label": "T_GradeText_01",
    "text": "※卡片性能不會出現變化。"
  },
  {
    "label": "T_GetText_00",
    "text": "確定要創造這張卡片嗎？"
  },
  {
    "label": "T_GradeUp_00",
    "text": "級別提升！！"
  },
  {
    "label": "T_GradeUp_01",
    "text": "獲得卡片！！"
  },
  {
    "label": "030",
    "text": "提升級別所需的{{color id=\"1\"}}卡片碎片{{color id=\"65535\"}}不足。"
  },
  {
    "label": "031",
    "text": "目前處於離線狀態，無法提升級別。"
  },
  {
    "label": "032",
    "text": "級別MAX！！"
  },
  {
    "label": "040",
    "text": "創造卡片所需的{{color id=\"1\"}}卡片碎片{{color id=\"65535\"}}不足。"
  },
  {
    "label": "041",
    "text": "目前處於離線狀態，無法創造卡片。"
  }
]