[
  {
    "label": "000",
    "text": "特殊攻擊ON"
  },
  {
    "label": "001",
    "text": "特殊攻擊OFF"
  },
  {
    "label": "010",
    "text": "跳過"
  },
  {
    "label": "011",
    "text": "返回"
  },
  {
    "label": "020",
    "text": "+{{number index=\"0\" type=\"2\" arg3=\"0\" arg4=\"0\"}}"
  },
  {
    "label": "021",
    "text": "-{{number index=\"0\" type=\"2\" arg3=\"0\" arg4=\"0\"}}"
  },
  {
    "label": "030",
    "text": "選擇卡片發動特殊攻擊！"
  },
  {
    "label": "031",
    "text": "在與{{icon id=\"41\" arg=\"0x14AE473F00000000\"}}相連的位置發動！"
  },
  {
    "label": "032",
    "text": "要捨棄哪張卡？"
  },
  {
    "label": "033",
    "text": "沒有可以放置的位置"
  },
  {
    "label": "034",
    "text": "特殊點數不足"
  },
  {
    "label": "035",
    "text": "無法放置於已塗墨的格子或是牆壁上"
  },
  {
    "label": "036",
    "text": "沒有與自己的顏色相連"
  },
  {
    "label": "037",
    "text": "無法放置於{{icon id=\"41\" arg=\"0x14AE473F00000000\"}}{{icon id=\"42\" arg=\"0x14AE473F00000000\"}}或是牆壁上"
  },
  {
    "label": "038",
    "text": "沒有與{{icon id=\"41\" arg=\"0x14AE473F00000000\"}}相連"
  },
  {
    "label": "039",
    "text": "在與{{icon id=\"42\" arg=\"0x14AE473F00000000\"}}相連的位置發動！"
  },
  {
    "label": "040",
    "text": "無法放置於{{icon id=\"42\" arg=\"0x14AE473F00000000\"}}{{icon id=\"41\" arg=\"0x14AE473F00000000\"}}或是牆壁上"
  },
  {
    "label": "041",
    "text": "沒有與{{icon id=\"42\" arg=\"0x14AE473F00000000\"}}相連"
  },
  {
    "label": "042",
    "text": "正在等待對手選擇……"
  },
  {
    "label": "T_Rotate_00",
    "text": "旋轉"
  },
  {
    "label": "T_Back_00",
    "text": "返回"
  },
  {
    "label": "T_Turns_00",
    "text": "剩餘"
  },
  {
    "label": "T_Turns_01",
    "text": "回合"
  },
  {
    "label": "L_RivalCard_00-T_Pass_00",
    "text": "跳過"
  },
  {
    "label": "T_Finish_00",
    "text": "Finish!"
  },
  {
    "label": "T_Exit_00",
    "text": "投降"
  }
]