[
  {
    "label": "T_Press_00",
    "text": "press"
  },
  {
    "label": "T_Copyright_00",
    "text": "© Nintendo"
  },
  {
    "label": "T_Title_00",
    "text": "前夜祭"
  },
  {
    "label": "L_Version_00-T_VersionTitle_00",
    "text": "ver."
  }
]