[
  {
    "label": "L_Change_00-T_Info_00",
    "text": "更換為其他amiibo"
  },
  {
    "label": "L_Back_00-T_Info_00",
    "text": "返回"
  },
  {
    "label": "L_BtnMyset_00-T_Btn_00",
    "text": "記憶裝備的方法"
  },
  {
    "label": "L_BtnCamera_00-T_Btn_00",
    "text": "一起拍攝照片的方法"
  },
  {
    "label": "L_BtnFesSeq_00-T_Btn_00",
    "text": "大型祭典的事跡"
  },
  {
    "label": "L_BtnFes_00-T_Btn_00",
    "text": "回想色彩斑斕的黃昏"
  },
  {
    "label": "L_BtnFes_01-T_Btn_00",
    "text": "回想團結一心的夜晚"
  },
  {
    "label": "L_BtnFes_02-T_Btn_00",
    "text": "回想風平浪靜的黎明"
  }
]