[
  {
    "label": "000",
    "text": "碎片數量需求：{{number index=\"0\" type=\"2\" arg3=\"0\" arg4=\"0\"}}"
  },
  {
    "label": "L_Btn_00-T_Btn_00",
    "text": "取消"
  },
  {
    "label": "200",
    "text": "購買！"
  },
  {
    "label": "201",
    "text": "提升！"
  },
  {
    "label": "202",
    "text": "清潔！"
  },
  {
    "label": "203",
    "text": "附加！"
  },
  {
    "label": "204",
    "text": "重新附加！"
  },
  {
    "label": "300",
    "text": "正在附加裝備能力"
  },
  {
    "label": "301",
    "text": "正在提升稀有度"
  },
  {
    "label": "302",
    "text": "正在漂洗"
  },
  {
    "label": "303",
    "text": "正在抽選裝備能力"
  },
  {
    "label": "400",
    "text": "×{{number index=\"0\" type=\"1\" arg3=\"0\" arg4=\"0\"}}"
  }
]