[
  {
    "label": "L_Info_00-T_Info_00",
    "text": "重置鏡頭"
  },
  {
    "label": "L_Info_01-T_Info_00",
    "text": "暫停"
  },
  {
    "label": "L_SuperGauge_00-T_Max_01",
    "text": "完全蓄力！"
  },
  {
    "label": "L_SuperGauge_00-T_Press_00",
    "text": "按下"
  },
  {
    "label": "L_Combo_00-T_Combo_01",
    "text": "COMBO！"
  },
  {
    "label": "L_Combo_00-T_Max_00",
    "text": "MAX！"
  },
  {
    "label": "L_SuperGauge_00-T_Max_02",
    "text": "繽紛蓄力！"
  }
]