[
  {
    "label": "Sdodr_World_ph1",
    "text": "秩序之城"
  },
  {
    "label": "Sdodr_World_ph2",
    "text": "秩序之城"
  },
  {
    "label": "Sdodr_World_ph3",
    "text": "秩序之城"
  },
  {
    "label": "Sdodr_Entrance_ph1",
    "text": "入口大廳"
  },
  {
    "label": "Sdodr_Entrance_ph2",
    "text": "入口大廳"
  },
  {
    "label": "Sdodr_Entrance_ph3",
    "text": "入口大廳"
  }
]