[
  {
    "label": "RechooseStage",
    "text": "重置樓層"
  },
  {
    "label": "RechooseStage_Explanation",
    "text": "可以重置下個樓層的內容與報酬。"
  },
  {
    "label": "DoubleTip",
    "text": "雙重晶片機率"
  },
  {
    "label": "DoubleTip_Explanation",
    "text": "提升選擇樓層時出現雙重晶片的機率。"
  },
  {
    "label": "Reveal1stBoss",
    "text": "10Ｆ Boss占卜"
  },
  {
    "label": "Reveal1stBoss_Explanation",
    "text": "在戰鬥開始前得知10Ｆ會出現什麼樣的Boss。"
  },
  {
    "label": "Reveal2ndBoss",
    "text": "20Ｆ Boss占卜"
  },
  {
    "label": "Reveal2ndBoss_Explanation",
    "text": "在戰鬥開始前得知20Ｆ會出現什麼樣的Boss。"
  },
  {
    "label": "RetryNumMax",
    "text": "生命上限"
  },
  {
    "label": "RetryNumMax_Explanation",
    "text": "增加生命的上限與初始數量。"
  },
  {
    "label": "PlayerDamageRate",
    "text": "承受傷害"
  },
  {
    "label": "PlayerDamageRate_Explanation",
    "text": "減輕承受傷害。"
  },
  {
    "label": "PlayerArmorMax",
    "text": "追加盔甲數上限"
  },
  {
    "label": "PlayerArmorMax_Explanation",
    "text": "增加可重複裝備的追加盔甲數上限。"
  },
  {
    "label": "PlayerArmorRecover",
    "text": "險境回復速度"
  },
  {
    "label": "PlayerArmorRecover_Explanation",
    "text": "加快盔甲遭到破壞後的回復速度。\n潛伏可以額外再度加快回復速度"
  },
  {
    "label": "PlayerArmorPoisonedReduce",
    "text": "險境移動速度"
  },
  {
    "label": "PlayerArmorPoisonedReduce_Explanation",
    "text": "提升盔甲完全遭到破壞時的移動速度。"
  },
  {
    "label": "PlayerArmorDieJump",
    "text": "險境跳躍"
  },
  {
    "label": "PlayerArmorDieJump_Explanation",
    "text": "在盔甲完全遭到破壞時自動跳躍。\n跳躍的高度會隨著駭解程度提升。"
  },
  {
    "label": "RetryAdmission",
    "text": "續命"
  },
  {
    "label": "RetryAdmission_Explanation",
    "text": "即使耗盡生命，\n也可以支付憶界硬幣續命。"
  },
  {
    "label": "WeakenEnemy",
    "text": "弱化敵人"
  },
  {
    "label": "WeakenEnemy_Explanation",
    "text": "敵人會以弱化的狀態出現。\n「普通」難度至10Ｆ為止，「簡單」難度至20Ｆ為止。"
  },
  {
    "label": "AttackDamageUp",
    "text": "攻擊傷害"
  },
  {
    "label": "AttackDamageUp_Explanation",
    "text": "提升對敵人造成的傷害。"
  },
  {
    "label": "TipFreqBias",
    "text": "色彩晶片偏重"
  },
  {
    "label": "TipFreqBias_Explanation",
    "text": "各調色盤容易出現的色彩晶片變得更加容易出現。"
  },
  {
    "label": "DroneCadencePaintTip",
    "text": "塗墨無人機蓄力槽"
  },
  {
    "label": "DroneCadencePaintTip_Explanation",
    "text": "開始出現對地面塗墨\n可增加無人機蓄力槽的色彩晶片。"
  },
  {
    "label": "DroneCadenceDefeatEnemyTip",
    "text": "擊倒無人機蓄力槽"
  },
  {
    "label": "DroneCadenceDefeatEnemyTip_Explanation",
    "text": "開始出現擊倒敵人\n可增加無人機蓄力槽的色彩晶片。"
  },
  {
    "label": "DroneActionTrapTip",
    "text": "無人機墨汁陷阱"
  },
  {
    "label": "DroneActionTrapTip_Explanation",
    "text": "開始出現可讓小姬無人機\n使用墨汁陷阱的色彩晶片。"
  },
  {
    "label": "DroneActionSprinklerTip",
    "text": "無人機灑墨器"
  },
  {
    "label": "DroneActionSprinklerTip_Explanation",
    "text": "開始出現可讓小姬無人機\n噴灑墨汁的色彩晶片。"
  },
  {
    "label": "DroneActionBombQuickTip",
    "text": "無人機快速炸彈"
  },
  {
    "label": "DroneActionBombQuickTip_Explanation",
    "text": "開始出現可讓小姬無人機\n使用快速炸彈的色彩晶片。"
  },
  {
    "label": "DroneActionTornadoTip",
    "text": "無人機龍捲風"
  },
  {
    "label": "DroneActionTornadoTip_Explanation",
    "text": "開始出現可讓小姬無人機\n使用龍捲風的色彩晶片。"
  },
  {
    "label": "DroneActionItemDropTip",
    "text": "無人機道具"
  },
  {
    "label": "DroneActionItemDropTip_Explanation",
    "text": "開始出現可讓小姬無人機\n製造道具的色彩晶片。"
  },
  {
    "label": "DroneActionSlot",
    "text": "無人機行動能力槽"
  },
  {
    "label": "DroneActionSlot_Explanation",
    "text": "使用色彩晶片增加小姬無人機\n可設置的輔助行動數量。\n※必須駭解才能使用無人機喇叭雷射、\n　無人機斯普拉炸彈以外的色彩晶片。"
  },
  {
    "label": "FloorShopDiscount",
    "text": "自動販賣機折扣"
  },
  {
    "label": "FloorShopDiscount_Explanation",
    "text": "自動販賣機的商品金額將出現折扣。"
  },
  {
    "label": "RechooseFloorShop",
    "text": "重置自動販賣機"
  },
  {
    "label": "RechooseFloorShop_Explanation",
    "text": "可以支付憶界硬幣\n重置自動販賣機的品項。"
  },
  {
    "label": "ForceFloorShopMiddle",
    "text": "15Ｆ自動販賣機專區"
  },
  {
    "label": "ForceFloorShopMiddle_Explanation",
    "text": "15Ｆ必定出現自動販賣機專區。"
  },
  {
    "label": "ForceFloorShopHigh",
    "text": "25Ｆ自動販賣機專區"
  },
  {
    "label": "ForceFloorShopHigh_Explanation",
    "text": "25Ｆ必定出現自動販賣機專區。"
  },
  {
    "label": "IkuraRewardRate",
    "text": "憶界硬幣報酬"
  },
  {
    "label": "IkuraRewardRate_Explanation",
    "text": "增加可透過樓層過關報酬\n獲得的憶界硬幣。"
  },
  {
    "label": "JemHardMode",
    "text": "高風險高報酬"
  },
  {
    "label": "JemHardMode_Explanation",
    "text": "駭解的效果越小，\n通過塔時可獲得的珍珠越多（最多3倍）。\n但是沒有通過就無法獲得。\n※可以自由地縮減各個駭解的效果。"
  },
  {
    "label": "Header_Player",
    "text": "玩家"
  },
  {
    "label": "Header_Random",
    "text": "隨機"
  },
  {
    "label": "Header_DroneBuddy",
    "text": "小姬無人機"
  },
  {
    "label": "Header_Boss",
    "text": "敵人"
  },
  {
    "label": "Header_Shop",
    "text": "自動販賣機"
  },
  {
    "label": "Header_Ikura",
    "text": "憶界硬幣"
  },
  {
    "label": "Header_Jem",
    "text": "珍珠"
  }
]