{
  "version": 7,
  "rootNode": {
    "ActorReplacements": [
      {
        "OriginalName": "DObj_VSLobbyScreenSignageFest",
        "ReplacedName": "DObj_VSLobbyScreenSignageSTOVE"
      },
      {
        "OriginalName": "DObj_VSLobbyScreenFest",
        "ReplacedName": "DObj_Fld_VSLobbyScreenSTOVE"
      }
    ],
    "Announce": "Work/Banc/BinLayer/Lby_Lobby00_FestAnnounce-STOVE.bcett.json",
    "FirstHalf": "Work/Banc/BinLayer/Lby_Lobby00_FestFirstHalf-STOVE.bcett.json",
    "SecondHalf": "Work/Banc/BinLayer/Lby_Lobby00_FestSecondHalf-STOVE.bcett.json"
  }
}