{
  "version": 7,
  "rootNode": {
    "ActorReplacements": [
      {
        "OriginalName": "DObj_VSLobbyScreenSignageFest",
        "ReplacedName": "DObj_VSLobbyScreenSignageMAPLE"
      },
      {
        "OriginalName": "DObj_VSLobbyScreenFest",
        "ReplacedName": "DObj_VSLobbyScreenMAPLE"
      }
    ],
    "Announce": "Work/Banc/BinLayer/Lby_Lobby00_FestAnnounce-MAPLE.bcett.json",
    "FirstHalf": "Work/Banc/BinLayer/Lby_Lobby00_FestFirstHalf-MAPLE.bcett.json",
    "SecondHalf": "Work/Banc/BinLayer/Lby_Lobby00_FestSecondHalf-MAPLE.bcett.json"
  }
}