{
  "version": 7,
  "rootNode": {
    "$parent": "Work/Component/ModelInfo/DesignerObjParent.engine__component__ModelInfo.gyml",
    "Fmdb": "Work/Model/Field/Plaza/Fld_ShopExteriorWeapon/output/Fld_ShopExteriorWeapon.fmdb"
  }
}