[
  {
    "label": "Shakeup",
    "text": "Salmonietendam"
  },
  {
    "label": "Shakeship",
    "text": "Wrak van de ms Grondel"
  },
  {
    "label": "Shakelift",
    "text": "Visrokerij"
  },
  {
    "label": "Shakespiral",
    "text": "Fort Ammoniet"
  },
  {
    "label": "Shakedent",
    "text": "Kwikwi-krachtcentrale"
  },
  {
    "label": "Tutorial",
    "text": "Fort Ammoniet"
  },
  {
    "label": "Shakehighway",
    "text": "Graattraject"
  },
  {
    "label": "Shakerail",
    "text": "Vechtfuik"
  },
  {
    "label": "Carousel",
    "text": "Waterwonderland"
  },
  {
    "label": "Upland",
    "text": "Koraalcampus"
  },
  {
    "label": "Temple",
    "text": "Baarsreservoir"
  },
  {
    "label": "Factory",
    "text": "Ruisvoornruïnes"
  },
  {
    "label": "Section",
    "text": "Winkelcentrum Poon & Zeehaan"
  },
  {
    "label": "District",
    "text": "Forelviaduct"
  },
  {
    "label": "Unknown",
    "text": "???"
  },
  {
    "label": "Random",
    "text": "Meerdere locaties"
  },
  {
    "label": "Manbou",
    "text": "Splatlands-Arena"
  }
]