[
  {
    "label": "Msg_Resume",
    "text": "Nous devons procéder à quelques réglages avant\nqu'il ne soit possible de jouer en ligne."
  },
  {
    "label": "Msg_DoTransfer",
    "text": "Données de sauvegarde importées!\n{{color id=\"1\"}}Après ton premier match en ligne{{color id=\"65535\"}},\nrécupère le bonus qui t'attend dans le hall :\ntrois brevets Cartouche Or {{icon id=\"29\" arg=\"0xF6285C3F00000000\"}}!"
  },
  {
    "label": "Msg_IntroduceFest",
    "text": "Paramètres de région pour le festival\n\nLes {{color id=\"1\"}}festivals{{color id=\"65535\"}} sont des événements exceptionnels\nau cours desquels les joueurs se répartissent dans\ntrois équipes différentes afin de s'affronter.\n\nChaque région propose ses festivals spécifiques,\nnotamment au niveau du contenu et du calendrier.\nChoisis la région correspondant aux festivals\nauxquels tu souhaites participer."
  },
  {
    "label": "Msg_NetworkAnalyze",
    "text": "Vérification de la région..."
  },
  {
    "label": "Msg_ConfirmFestRegion",
    "text": "Participer aux festivals de la région ci-dessous?\n\n{{color id=\"1\"}}{{string value=\"SelectedSplatfestRegion\" arg1=\"0\" arg3=\"0\"}}{{color id=\"65535\"}}"
  },
  {
    "label": "BtnL_ConfirmFestRegion",
    "text": "Modifier\nle choix"
  },
  {
    "label": "BtnR_ConfirmFestRegion",
    "text": "OK"
  },
  {
    "label": "Msg_ConfirmFestRegion_First",
    "text": "Participer aux festivals de cette région?\n\n{{color id=\"1\"}}{{string value=\"SelectedSplatfestRegion\" arg1=\"0\" arg3=\"0\"}}{{color id=\"65535\"}}\n\nRemarque : Ce paramètre ne pourra plus être\nmodifié pendant un certain temps après avoir\ncommencé un festival."
  },
  {
    "label": "BtnL_ConfirmFestRegion_First",
    "text": "Modifier"
  },
  {
    "label": "BtnR_ConfirmFestRegion_First",
    "text": "OK"
  },
  {
    "label": "Msg_ConfirmFestRegion_AltLang",
    "text": "Les textes ne s'affichent pas en français (Canada)\npour les festivals dans la région suivante :\n{{color id=\"1\"}}{{string value=\"SelectedSplatfestRegion\" arg1=\"0\" arg3=\"0\"}}{{color id=\"65535\"}}.\nAu cours du festival, certains textes s'afficheront\nen {{color id=\"1\"}}{{string value=\"SelectedSplatfestLanguage\" arg1=\"0\" arg3=\"0\"}}{{color id=\"65535\"}}. Continuer?"
  },
  {
    "label": "BtnL_ConfirmFestRegion_AltLang",
    "text": "Modifier\nle choix"
  },
  {
    "label": "BtnR_ConfirmFestRegion_AltLang",
    "text": "OK"
  },
  {
    "label": "Msg_ConfirmFestRegion_Reboot",
    "text": "{{color id=\"1\"}}{{string value=\"SelectedSplatfestRegion\" arg1=\"0\" arg3=\"0\"}}{{color id=\"65535\"}}向けのフェスは、\n日本語に対応していません\nフェスの開催中は、ソフトを再起動してゲーム内の表示を\n{{color id=\"1\"}}{{string value=\"SelectedSplatfestLanguage\" arg1=\"0\" arg3=\"0\"}}{{color id=\"65535\"}}に切り替える必要があります\nそれでもよろしいですか？"
  },
  {
    "label": "BtnL_ConfirmFestRegion_Reboot",
    "text": "Modifier\nle choix"
  },
  {
    "label": "BtnR_ConfirmFestRegion_Reboot",
    "text": "OK"
  },
  {
    "label": "Msg_FestRegionChanged",
    "text": "Région de festival choisie :\n{{color id=\"1\"}}{{string value=\"SelectedSplatfestRegion\" arg1=\"0\" arg3=\"0\"}}{{color id=\"65535\"}}."
  },
  {
    "label": "Msg_DeviceIdChanged",
    "text": "Ton équipement, ainsi que tes réglages de\ncaméra et d'autres paramètres, correspondent\ndésormais à ceux que tu as établis la dernière\nfois que tu as joué en ligne sur une autre\nconsole Nintendo Switch."
  }
]