[
  {
    "label": "FST000",
    "text": "Fascia bianca"
  },
  {
    "label": "CAP000",
    "text": "Berretto AS Riccidimare"
  },
  {
    "label": "CAP001",
    "text": "Berretto leggero"
  },
  {
    "label": "CAP002",
    "text": "Berretto Sepia"
  },
  {
    "label": "CAP003",
    "text": "Berretto alla moda"
  },
  {
    "label": "CAP004",
    "text": "Berretto hip-hop"
  },
  {
    "label": "CAP005",
    "text": "Berretto Inkvaders"
  },
  {
    "label": "CAP006",
    "text": "Berretto mimetico"
  },
  {
    "label": "CAP007",
    "text": "Berretto multifase"
  },
  {
    "label": "CAP008",
    "text": "Berretto Ezko"
  },
  {
    "label": "CAP009",
    "text": "Berretto girato"
  },
  {
    "label": "CAP010",
    "text": "Berretto a righe"
  },
  {
    "label": "CAP011",
    "text": "Berretto jet"
  },
  {
    "label": "CAP012",
    "text": "Berretto da ciclista"
  },
  {
    "label": "CAP014",
    "text": "Cappello re della bici"
  },
  {
    "label": "CAP018",
    "text": "Berretto visiera lunga"
  },
  {
    "label": "CAP019",
    "text": "Cappellino Calamars"
  },
  {
    "label": "CAP020",
    "text": "Cappellino a righe"
  },
  {
    "label": "CAP021",
    "text": "Cappello Riccidimare"
  },
  {
    "label": "CAP023",
    "text": "Berretto medusiano"
  },
  {
    "label": "CAP024",
    "text": "Cappello di jeans"
  },
  {
    "label": "CAP025",
    "text": "Coppola pesce palla"
  },
  {
    "label": "CAP026",
    "text": "Cappello, bandana e occhiali"
  },
  {
    "label": "CAP027",
    "text": "Cappello paraorecchie"
  },
  {
    "label": "CAP028",
    "text": "Cappello paraorecchie nero"
  },
  {
    "label": "CAP029",
    "text": "Berretto corallo"
  },
  {
    "label": "CAP030",
    "text": "Berretto Tuttepinne"
  },
  {
    "label": "CAP031",
    "text": "Cappello da nostromo"
  },
  {
    "label": "CAP032",
    "text": "Berretto da moto vintage"
  },
  {
    "label": "CAP033",
    "text": "Cappello al contrario"
  },
  {
    "label": "CAP034",
    "text": "Cappello sabbioso"
  },
  {
    "label": "CAP035",
    "text": "Cappello maroso"
  },
  {
    "label": "CAP036",
    "text": "Berretto da portuale"
  },
  {
    "label": "CAP037",
    "text": "Berretto da detective"
  },
  {
    "label": "CAP038",
    "text": "Berretto con torcia"
  },
  {
    "label": "CAP039",
    "text": "Cuffia"
  },
  {
    "label": "NCP000",
    "text": "Pon-pon di lana"
  },
  {
    "label": "NCP001",
    "text": "Zuccotto"
  },
  {
    "label": "NCP002",
    "text": "Zuccotto a righe"
  },
  {
    "label": "NCP003",
    "text": "Pon-pon sportivo"
  },
  {
    "label": "NCP004",
    "text": "Berretto trote speciali"
  },
  {
    "label": "NCP005",
    "text": "Cappello da neve"
  },
  {
    "label": "NCP008",
    "text": "Cappello a maglia"
  },
  {
    "label": "NCP009",
    "text": "Berretto con spilla"
  },
  {
    "label": "NCP010",
    "text": "Zuccotto zig-zag"
  },
  {
    "label": "NCP011",
    "text": "Zuccotto con mascherina"
  },
  {
    "label": "NCP012",
    "text": "Zuccotto da pescatore"
  },
  {
    "label": "NCP013",
    "text": "Zuccotto EzTor"
  },
  {
    "label": "EYE000",
    "text": "Occhiali rétro"
  },
  {
    "label": "EYE001",
    "text": "Maschera da sub"
  },
  {
    "label": "EYE002",
    "text": "Occhiali da pilota"
  },
  {
    "label": "EYE003",
    "text": "Occhiali colorati"
  },
  {
    "label": "EYE004",
    "text": "Occhiali spessi"
  },
  {
    "label": "EYE005",
    "text": "Maschera con tubo"
  },
  {
    "label": "EYE006",
    "text": "Occhiali bianchi"
  },
  {
    "label": "EYE007",
    "text": "Lenti a contatto finte"
  },
  {
    "label": "EYE008",
    "text": "Occhiali da sole 18K"
  },
  {
    "label": "EYE009",
    "text": "Occhiali rotondi"
  },
  {
    "label": "EYE010",
    "text": "Octocchiali"
  },
  {
    "label": "EYE011",
    "text": "Occhiali a mezza montatura"
  },
  {
    "label": "EYE012",
    "text": "Occhiali da sole ovali"
  },
  {
    "label": "EYE013",
    "text": "Occhiali e cappello Ezko"
  },
  {
    "label": "EYE014",
    "text": "Occhiali rotondi SV925"
  },
  {
    "label": "EYE015",
    "text": "Berretto Annak con occhiali"
  },
  {
    "label": "EYE016",
    "text": "Occhialetti da nuoto"
  },
  {
    "label": "EYE017",
    "text": "Visore antitinta"
  },
  {
    "label": "EYE018",
    "text": "Occhialetti Nero Marlin"
  },
  {
    "label": "EYE021",
    "text": "Occhiali con lenti colorate"
  },
  {
    "label": "EYE022",
    "text": "Occhiali pixellati"
  },
  {
    "label": "EYE023",
    "text": "Occhiali senza lenti"
  },
  {
    "label": "EYE024",
    "text": "Occhiali tripli"
  },
  {
    "label": "EYE025",
    "text": "Occhiali discreti"
  },
  {
    "label": "EYE026",
    "text": "Occhiali da motociclista"
  },
  {
    "label": "EYE027",
    "text": "Occhiali Annak"
  },
  {
    "label": "EYE028",
    "text": "Occhiali vongolosi"
  },
  {
    "label": "EYE029",
    "text": "Occhiali blufocali rétro"
  },
  {
    "label": "EYE030",
    "text": "Occhiali occhioni"
  },
  {
    "label": "EYE031",
    "text": "Occhiali a montatura spessa"
  },
  {
    "label": "EYE032",
    "text": "Maschera notte deluxe"
  },
  {
    "label": "HAT000",
    "text": "Cappello giungla"
  },
  {
    "label": "HAT001",
    "text": "Cappello safari"
  },
  {
    "label": "HAT002",
    "text": "Cappello relax"
  },
  {
    "label": "HAT003",
    "text": "Cappello pesce palla"
  },
  {
    "label": "HAT004",
    "text": "Cappello orientale"
  },
  {
    "label": "HAT005",
    "text": "Cappello di paglia"
  },
  {
    "label": "HAT006",
    "text": "Cappello di paglia classico"
  },
  {
    "label": "HAT007",
    "text": "Cappello avventuriero"
  },
  {
    "label": "HAT008",
    "text": "Cappello da pescatore"
  },
  {
    "label": "HAT009",
    "text": "Cappello con toppe"
  },
  {
    "label": "HAT010",
    "text": "Cappello parasole"
  },
  {
    "label": "HAT011",
    "text": "Cappello pesce palla plus"
  },
  {
    "label": "HAT012",
    "text": "Cappello a cono"
  },
  {
    "label": "HAT013",
    "text": "Cappello Conchifoglie"
  },
  {
    "label": "HAT014",
    "text": "Cappello da montanaro"
  },
  {
    "label": "HAT015",
    "text": "Bombetta"
  },
  {
    "label": "HAT016",
    "text": "Cappello da pesca denim"
  },
  {
    "label": "HAT017",
    "text": "Cappello da cowboy"
  },
  {
    "label": "HAT018",
    "text": "Cappello riccio a maglia"
  },
  {
    "label": "HAT019",
    "text": "Cappello da spiaggia"
  },
  {
    "label": "HAT020",
    "text": "Bombetta E+T"
  },
  {
    "label": "HAT021",
    "text": "Tricappello a campana"
  },
  {
    "label": "HAT022",
    "text": "Cuffia da sauna"
  },
  {
    "label": "HAT023",
    "text": "Cappello con piume"
  },
  {
    "label": "HDP000",
    "text": "Cuffie pro"
  },
  {
    "label": "HDP001",
    "text": "Cuffie colorate"
  },
  {
    "label": "HDP002",
    "text": "Cuffie antirumore"
  },
  {
    "label": "HDP003",
    "text": "Cuffie esca"
  },
  {
    "label": "HDP004",
    "text": "Cuffie vintage"
  },
  {
    "label": "HDP007",
    "text": "Octocuffie rosse"
  },
  {
    "label": "HDP008",
    "text": "Cefalocuffie in-ear"
  },
  {
    "label": "HDP009",
    "text": "Octocuffie bianche"
  },
  {
    "label": "HDP010",
    "text": "Cuffie 90-d"
  },
  {
    "label": "HDP011",
    "text": "Cuffie sabbiose"
  },
  {
    "label": "HDP012",
    "text": "Cuffie marose"
  },
  {
    "label": "VIS000",
    "text": "Visiera da golf"
  },
  {
    "label": "VIS001",
    "text": "Visiera cool"
  },
  {
    "label": "VIS002",
    "text": "Visiera parasole"
  },
  {
    "label": "VIS003",
    "text": "Visiera Sepia"
  },
  {
    "label": "VIS004",
    "text": "Visiera fumé"
  },
  {
    "label": "VIS005",
    "text": "Visiera Fritto e Rifritto"
  },
  {
    "label": "VIS006",
    "text": "Visiera con occhiali"
  },
  {
    "label": "MET000",
    "text": "Casco da bici"
  },
  {
    "label": "MET002",
    "text": "Casco a infrarossi"
  },
  {
    "label": "MET004",
    "text": "Casco da skate"
  },
  {
    "label": "MET005",
    "text": "Casco con visiera"
  },
  {
    "label": "MET006",
    "text": "Casco da motocross"
  },
  {
    "label": "MET007",
    "text": "Casco da hockey"
  },
  {
    "label": "MET008",
    "text": "Casco mountain bike"
  },
  {
    "label": "MET009",
    "text": "Octocasco football"
  },
  {
    "label": "MET011",
    "text": "Casco football con visiera"
  },
  {
    "label": "MET012",
    "text": "Carapasco"
  },
  {
    "label": "MET013",
    "text": "Elmo vichingo"
  },
  {
    "label": "MET014",
    "text": "Maschera baseball (casa)"
  },
  {
    "label": "MET015",
    "text": "Maschera baseball (trasferta)"
  },
  {
    "label": "MET016",
    "text": "Elmetto protettivo"
  },
  {
    "label": "MET017",
    "text": "Copricapo Tuttepinne"
  },
  {
    "label": "MET018",
    "text": "Casco Tuttepinne (casa)"
  },
  {
    "label": "MET019",
    "text": "Casco EzTor"
  },
  {
    "label": "MET020",
    "text": "Casco da BMX Pro"
  },
  {
    "label": "MET021",
    "text": "Casco da BMX"
  },
  {
    "label": "MSK000",
    "text": "Maschera antigas"
  },
  {
    "label": "MSK001",
    "text": "Maschera paintball"
  },
  {
    "label": "MSK002",
    "text": "Bandana paisley"
  },
  {
    "label": "MSK003",
    "text": "Bandana teschio"
  },
  {
    "label": "MSK004",
    "text": "Maschera da verniciatura"
  },
  {
    "label": "MSK005",
    "text": "Mascherina Annak"
  },
  {
    "label": "MSK006",
    "text": "Mascherina Octoking"
  },
  {
    "label": "MSK007",
    "text": "Mascherina CalamaX"
  },
  {
    "label": "MSK008",
    "text": "Mascherina Torryd"
  },
  {
    "label": "MSK009",
    "text": "Mascherina Calamars"
  },
  {
    "label": "MSK010",
    "text": "Maschera da motocross"
  },
  {
    "label": "MSK011",
    "text": "Mascherina Fortia"
  },
  {
    "label": "MSK012",
    "text": "Mascherina Fortia mimetica"
  },
  {
    "label": "MSK014",
    "text": "Mascherina SmileMob"
  },
  {
    "label": "MSK015",
    "text": "Respiratore"
  },
  {
    "label": "MSK016",
    "text": "Paramento rosso"
  },
  {
    "label": "MSK017",
    "text": "Maschera d'identità"
  },
  {
    "label": "MSK018",
    "text": "Paramento nero"
  },
  {
    "label": "MSK019",
    "text": "Cappuccio ghiottone"
  },
  {
    "label": "HBD001",
    "text": "Fascia da basket"
  },
  {
    "label": "HBD002",
    "text": "Fascia da squash"
  },
  {
    "label": "HBD003",
    "text": "Fascia da tennis"
  },
  {
    "label": "HBD004",
    "text": "Fascia da jogging"
  },
  {
    "label": "HBD005",
    "text": "Fascia da calcio"
  },
  {
    "label": "HBD007",
    "text": "Bandana cool"
  },
  {
    "label": "HBD008",
    "text": "Bandana cool nera"
  },
  {
    "label": "HBD009",
    "text": "Fascia classica"
  },
  {
    "label": "AMB000",
    "text": "Fermaglio calamaro"
  },
  {
    "label": "AMB001",
    "text": "Elmo da samurai"
  },
  {
    "label": "AMB002",
    "text": "Maschera hi-tech"
  },
  {
    "label": "AMB003",
    "text": "Orecchini calamaro"
  },
  {
    "label": "AMB004",
    "text": "Maschera ninja II"
  },
  {
    "label": "AMB005",
    "text": "Prototipo di maschera hi-tech"
  },
  {
    "label": "AMB006",
    "text": "Corona di Alga (S)"
  },
  {
    "label": "AMB007",
    "text": "Cuffie di Nori"
  },
  {
    "label": "AMB008",
    "text": "Cappello stregonesco"
  },
  {
    "label": "AMB009",
    "text": "Elmo da octoguerriero"
  },
  {
    "label": "AMB010",
    "text": "Testona da mascotte"
  },
  {
    "label": "AMB011",
    "text": "Lisca interdentale"
  },
  {
    "label": "AMB012",
    "text": "Fascia octopus"
  },
  {
    "label": "AMB013",
    "text": "Elmo furioso"
  },
  {
    "label": "AMB016",
    "text": "Maschera ninja I"
  },
  {
    "label": "AMB017",
    "text": "Corona di Alga (L)"
  },
  {
    "label": "AMB018",
    "text": "Squalomaschera"
  },
  {
    "label": "AMB019",
    "text": "Murenamaschera"
  },
  {
    "label": "AMB020",
    "text": "Mantamaschera"
  },
  {
    "label": "AMB021",
    "text": "Corona tour mondiale"
  },
  {
    "label": "AMB022",
    "text": "Cuffie tour mondiale"
  },
  {
    "label": "MSN000",
    "text": "Cuffie élite replica"
  },
  {
    "label": "MSN004",
    "text": "Casco d'armatura replica"
  },
  {
    "label": "MSN109",
    "text": "Orecchie da orso"
  },
  {
    "label": "MSN110",
    "text": "Visore Octoling peloso"
  },
  {
    "label": "MSN111",
    "text": "ケタコゾネスゴーグルワカメ"
  },
  {
    "label": "MSN301",
    "text": "Survival Ear"
  },
  {
    "label": "MSN302",
    "text": "Hero Brain Lv1"
  },
  {
    "label": "MSN303",
    "text": "Hero Brain Lv2"
  },
  {
    "label": "MSN304",
    "text": "Hero Brain Lv3"
  },
  {
    "label": "MSN305",
    "text": "Hero Brain ST"
  },
  {
    "label": "MSN306",
    "text": "Auricolari élite replica"
  },
  {
    "label": "MSN307",
    "text": "Clip élite replica"
  },
  {
    "label": "MSN310",
    "text": "Legendary Cap"
  },
  {
    "label": "MSN311",
    "text": "Cappello da capitana replica"
  },
  {
    "label": "COP100",
    "text": "Casco da minatore"
  },
  {
    "label": "COP101",
    "text": "Maschera antipolvere"
  },
  {
    "label": "COP102",
    "text": "Maschera da saldatore"
  },
  {
    "label": "COP103",
    "text": "Maschera da apicoltore"
  },
  {
    "label": "COP104",
    "text": "Visore octolingio"
  },
  {
    "label": "COP105",
    "text": "Cappello della leggenda"
  },
  {
    "label": "COP107",
    "text": "Fazzoletto da operaio"
  },
  {
    "label": "COP108",
    "text": "Cappello speciale replica"
  },
  {
    "label": "COP109",
    "text": "Cappello da marinaio"
  },
  {
    "label": "COP110",
    "text": "Cappello pescoso"
  },
  {
    "label": "COP111",
    "text": "Visore cieco"
  },
  {
    "label": "COP112",
    "text": "Casco da pompiere"
  },
  {
    "label": "COP113",
    "text": "Casco da pilota"
  },
  {
    "label": "COP114",
    "text": "Multivisore 360°"
  },
  {
    "label": "COP115",
    "text": "Eurekappello"
  },
  {
    "label": "COP116",
    "text": "Casco da palombaro"
  },
  {
    "label": "COP117",
    "text": "Berretto da comandante"
  },
  {
    "label": "COP118",
    "text": "Visore HUD"
  },
  {
    "label": "COP119",
    "text": "Casco retrofuturistico"
  },
  {
    "label": "COP120",
    "text": "Occhiali 3D"
  },
  {
    "label": "COP121",
    "text": "El Rey Calamar"
  },
  {
    "label": "COP122",
    "text": "Casco di Octavius"
  },
  {
    "label": "COP123",
    "text": "Casco da lavoro replica"
  },
  {
    "label": "ACC003",
    "text": "Orecchino tentaclip"
  },
  {
    "label": "HAP000",
    "text": "Copricapo Kyonshi"
  },
  {
    "label": "HAP001",
    "text": "Corna da diavoletto"
  },
  {
    "label": "HAP002",
    "text": "Maschera da hockey"
  },
  {
    "label": "HAP003",
    "text": "Maschera da pesce abissale"
  },
  {
    "label": "HAP004",
    "text": "Cappello festivo"
  },
  {
    "label": "HAP005",
    "text": "Occhiali di capodanno"
  },
  {
    "label": "HAP006",
    "text": "Fascia intrecciata"
  },
  {
    "label": "HAP007",
    "text": "Cappello anguillo"
  },
  {
    "label": "HAP008",
    "text": "Visiera gadget viola"
  },
  {
    "label": "HAP009",
    "text": "Visiera gadget verde"
  },
  {
    "label": "HAP010",
    "text": "Visiera gadget arancione"
  },
  {
    "label": "HAP011",
    "text": "Visiera gadget rosa"
  },
  {
    "label": "HAP012",
    "text": "Cresta fiammante"
  },
  {
    "label": "HAP013",
    "text": "Fossile di pesce"
  },
  {
    "label": "HAP014",
    "text": "Antenne cosmiche"
  },
  {
    "label": "HAP015",
    "text": "Casco della giustizia"
  },
  {
    "label": "HAP016",
    "text": "Testa di mummia"
  },
  {
    "label": "HAP017",
    "text": "Capitan Plancton"
  },
  {
    "label": "HAP018",
    "text": "Polpo mietitore"
  },
  {
    "label": "HAP019",
    "text": "Becco pestifero"
  },
  {
    "label": "HAP020",
    "text": "Cappello all'antica"
  },
  {
    "label": "HAP021",
    "text": "Ghirlanda di coralli"
  },
  {
    "label": "HAP022",
    "text": "Maschera da festa"
  },
  {
    "label": "HAP023",
    "text": "Corona di octoperla"
  },
  {
    "label": "HAP024",
    "text": "Occhiali forati azzurri"
  },
  {
    "label": "HAP025",
    "text": "Occhiali forati verdi"
  },
  {
    "label": "HAP026",
    "text": "Occhiali forati rosa"
  },
  {
    "label": "HAP027",
    "text": "Occhiali forati gialli"
  },
  {
    "label": "HAP028",
    "text": "Maschera pesce leone"
  },
  {
    "label": "HAP029",
    "text": "Maschera pesce scatola"
  },
  {
    "label": "HAP030",
    "text": "Maschera EzTor"
  },
  {
    "label": "HAP031",
    "text": "Maschera granchioscimmia"
  },
  {
    "label": "HAP032",
    "text": "Maschera volpe"
  },
  {
    "label": "HAP033",
    "text": "Maschera cartoonesca"
  },
  {
    "label": "HAP034",
    "text": "Cerchietto Now or Never"
  },
  {
    "label": "HAP035",
    "text": "Corona Now or Never"
  },
  {
    "label": "HAP036",
    "text": "Cappello Now or Never"
  },
  {
    "label": "HAP037",
    "text": "Orecchini Now or Never"
  },
  {
    "label": "HAP038",
    "text": "Fermaglio Now or Never"
  },
  {
    "label": "HAP039",
    "text": "Corna Now or Never"
  },
  {
    "label": "HAP040",
    "text": "Copricapo Now or Never"
  },
  {
    "label": "COP001",
    "text": "バイトヘルメット オレンジ"
  },
  {
    "label": "COP002",
    "text": "バイトヘルメット グリーン"
  },
  {
    "label": "COP003",
    "text": "バイトヘルメット イエロー"
  },
  {
    "label": "COP004",
    "text": "バイトヘルメット ピンク"
  },
  {
    "label": "COP005",
    "text": "バイトヘルメット ブルー"
  },
  {
    "label": "COP006",
    "text": "バイトヘルメット ブラック"
  },
  {
    "label": "COP007",
    "text": "バイトヘルメット ホワイト"
  },
  {
    "label": "COP008",
    "text": "バイトキャップ グリーン"
  },
  {
    "label": "COP009",
    "text": "バイトキャップ グレー"
  },
  {
    "label": "COP010",
    "text": "バイトキャップ ブルー"
  },
  {
    "label": "COP011",
    "text": "バイトキャップ ブラック"
  },
  {
    "label": "COP012",
    "text": "バイトヘルメット ネオン"
  },
  {
    "label": "COP013",
    "text": "バイトヘルメット カーキ"
  },
  {
    "label": "COP014",
    "text": "バイトヘルメット レッド"
  },
  {
    "label": "COP015",
    "text": "バイトキャップ ホワイト"
  },
  {
    "label": "COP016",
    "text": "バイトキャップ イエロー"
  },
  {
    "label": "COP017",
    "text": "バイトキャップ ネイビー"
  },
  {
    "label": "COP018",
    "text": "バイトヘルメット シルバー"
  },
  {
    "label": "COP019",
    "text": "バイトヘルメット ゴールド"
  },
  {
    "label": "COP020",
    "text": "バイトヘルメット プリズム"
  },
  {
    "label": "COP021",
    "text": "バイトヘルメット ブロッカー"
  },
  {
    "label": "INV000",
    "text": "INVISIBLE"
  },
  {
    "label": "TRG000",
    "text": "Cuffia croc-stacea"
  },
  {
    "label": "TRG001",
    "text": "Orecchie giudiziose"
  },
  {
    "label": "SDODR000",
    "text": "オーダーピアス"
  },
  {
    "label": "SDODR001",
    "text": "オーダーレギュ"
  },
  {
    "label": "SDODR100",
    "text": "イカイノカノンノカメン"
  },
  {
    "label": "SDODR101",
    "text": "イカイノコブンノカメン"
  },
  {
    "label": "SDODR200",
    "text": "Orecchino Ordine replica"
  },
  {
    "label": "SDODR201",
    "text": "Erogatore Ordine replica"
  },
  {
    "label": "SDODR202",
    "text": "Controller VN"
  },
  {
    "label": "SDODR203",
    "text": "Maschera parallela"
  },
  {
    "label": "SDODR204",
    "text": "Cerchietto con Alga drone"
  }
]