{
  "version": 7,
  "rootNode": [
    {
      "HowToGet": "Shop",
      "Id": 11001,
      "Order": 11001,
      "Season": 1,
      "TextColor": {
        "A": 1.0,
        "B": 0.3992933,
        "G": 0.1219857,
        "R": 0.00369724
      },
      "UrokoPrice": {
        "BronzeUrokoNum": 0,
        "GoldUrokoNum": 0,
        "SilverUrokoNum": 0
      },
      "UrokoUhlockLevel": 1,
      "__RowId": "Npl_Catalog_Season01_Lv01"
    },
    {
      "HowToGet": "Shop",
      "Id": 11002,
      "Order": 11002,
      "Season": 1,
      "TextColor": {
        "A": 1.0,
        "B": 0.173439,
        "G": 0.06381488,
        "R": 0.5604992
      },
      "UrokoPrice": {
        "BronzeUrokoNum": 0,
        "GoldUrokoNum": 0,
        "SilverUrokoNum": 0
      },
      "UrokoUhlockLevel": 1,
      "__RowId": "Npl_Catalog_Season01_Lv02"
    },
    {
      "HowToGet": "Shop",
      "Id": 11003,
      "Order": 11003,
      "Season": 1,
      "TextColor": {
        "A": 1.0,
        "B": 0.002932319,
        "G": 0.3021255,
        "R": 0.7372048
      },
      "UrokoPrice": {
        "BronzeUrokoNum": 0,
        "GoldUrokoNum": 0,
        "SilverUrokoNum": 0
      },
      "UrokoUhlockLevel": 1,
      "__RowId": "Npl_Catalog_Season01_Lv03"
    },
    {
      "HowToGet": "Shop",
      "Id": 11004,
      "Order": 11004,
      "Season": 1,
      "TextColor": {
        "A": 1.0,
        "B": 0.7742273,
        "G": 0.5731589,
        "R": 0.2508403
      },
      "UrokoPrice": {
        "BronzeUrokoNum": 0,
        "GoldUrokoNum": 0,
        "SilverUrokoNum": 0
      },
      "UrokoUhlockLevel": 1,
      "__RowId": "Npl_Catalog_Season01_Lv04"
    },
    {
      "HowToGet": "Shop",
      "Id": 11005,
      "Order": 11005,
      "Season": 1,
      "TextColor": {
        "A": 1.0,
        "B": 0.0,
        "G": 0.0,
        "R": 0.0
      },
      "UrokoPrice": {
        "BronzeUrokoNum": 0,
        "GoldUrokoNum": 0,
        "SilverUrokoNum": 0
      },
      "UrokoUhlockLevel": 1,
      "__RowId": "Npl_Catalog_Season01_Lv05"
    },
    {
      "HowToGet": "Shop",
      "Id": 11006,
      "Order": 11006,
      "Season": 1,
      "TextColor": {
        "A": 1.0,
        "B": 0.0,
        "G": 0.0,
        "R": 0.0
      },
      "UrokoPrice": {
        "BronzeUrokoNum": 0,
        "GoldUrokoNum": 0,
        "SilverUrokoNum": 0
      },
      "UrokoUhlockLevel": 1,
      "__RowId": "Npl_Catalog_Season01_Lv06"
    },
    {
      "HowToGet": "Shop",
      "Id": 11007,
      "Order": 11007,
      "Season": 1,
      "TextColor": {
        "A": 1.0,
        "B": 0.0,
        "G": 0.0,
        "R": 0.0
      },
      "UrokoPrice": {
        "BronzeUrokoNum": 0,
        "GoldUrokoNum": 0,
        "SilverUrokoNum": 0
      },
      "UrokoUhlockLevel": 1,
      "__RowId": "Npl_Catalog_Season01_Lv07"
    },
    {
      "HowToGet": "Shop",
      "Id": 11008,
      "Order": 11008,
      "Season": 1,
      "TextColor": {
        "A": 1.0,
        "B": 0.0,
        "G": 0.0,
        "R": 0.0
      },
      "UrokoPrice": {
        "BronzeUrokoNum": 0,
        "GoldUrokoNum": 0,
        "SilverUrokoNum": 0
      },
      "UrokoUhlockLevel": 1,
      "__RowId": "Npl_Catalog_Season01_Lv08"
    },
    {
      "HowToGet": "Shop",
      "Id": 11009,
      "Order": 11009,
      "Season": 1,
      "TextColor": {
        "A": 1.0,
        "B": 1.0,
        "G": 1.0,
        "R": 1.0
      },
      "UrokoPrice": {
        "BronzeUrokoNum": 0,
        "GoldUrokoNum": 0,
        "SilverUrokoNum": 0
      },
      "UrokoUhlockLevel": 1,
      "__RowId": "Npl_Catalog_Season01_Lv09"
    },
    {
      "HowToGet": "Shop",
      "Id": 11010,
      "Order": 11010,
      "Season": 1,
      "TextColor": {
        "A": 1.0,
        "B": 1.0,
        "G": 1.0,
        "R": 1.0
      },
      "UrokoPrice": {
        "BronzeUrokoNum": 0,
        "GoldUrokoNum": 0,
        "SilverUrokoNum": 0
      },
      "UrokoUhlockLevel": 1,
      "__RowId": "Npl_Catalog_Season01_Lv10"
    },
    {
      "HowToGet": "Shop",
      "Id": 11011,
      "Order": 11011,
      "Season": 1,
      "TextColor": {
        "A": 1.0,
        "B": 1.0,
        "G": 1.0,
        "R": 1.0
      },
      "UrokoPrice": {
        "BronzeUrokoNum": 0,
        "GoldUrokoNum": 0,
        "SilverUrokoNum": 0
      },
      "UrokoUhlockLevel": 1,
      "__RowId": "Npl_Catalog_Season01_Lv11"
    },
    {
      "HowToGet": "Shop",
      "Id": 11012,
      "Order": 11012,
      "Season": 1,
      "TextColor": {
        "A": 1.0,
        "B": 1.0,
        "G": 1.0,
        "R": 1.0
      },
      "UrokoPrice": {
        "BronzeUrokoNum": 0,
        "GoldUrokoNum": 0,
        "SilverUrokoNum": 0
      },
      "UrokoUhlockLevel": 1,
      "__RowId": "Npl_Catalog_Season01_Lv12"
    },
    {
      "HowToGet": "Shop",
      "Id": 11013,
      "Order": 11013,
      "Season": 1,
      "TextColor": {
        "A": 1.0,
        "B": 0.02095113,
        "G": 0.02899119,
        "R": 0.0
      },
      "UrokoPrice": {
        "BronzeUrokoNum": 0,
        "GoldUrokoNum": 0,
        "SilverUrokoNum": 0
      },
      "UrokoUhlockLevel": 1,
      "__RowId": "Npl_Catalog_Season01_Lv13"
    },
    {
      "HowToGet": "Shop",
      "Id": 11014,
      "Order": 11014,
      "Season": 1,
      "TextColor": {
        "A": 1.0,
        "B": 0.7372048,
        "G": 1.0,
        "R": 0.9239933
      },
      "UrokoPrice": {
        "BronzeUrokoNum": 0,
        "GoldUrokoNum": 0,
        "SilverUrokoNum": 0
      },
      "UrokoUhlockLevel": 1,
      "__RowId": "Npl_Catalog_Season01_Lv14"
    },
    {
      "HowToGet": "Shop",
      "Id": 11015,
      "Order": 11015,
      "Season": 1,
      "TextColor": {
        "A": 1.0,
        "B": 0.000175124,
        "G": 0.006584958,
        "R": 0.02899119
      },
      "UrokoPrice": {
        "BronzeUrokoNum": 0,
        "GoldUrokoNum": 0,
        "SilverUrokoNum": 0
      },
      "UrokoUhlockLevel": 1,
      "__RowId": "Npl_Catalog_Season01_Lv15"
    },
    {
      "HowToGet": "Shop",
      "Id": 11016,
      "Order": 11016,
      "Season": 1,
      "TextColor": {
        "A": 1.0,
        "B": 1.0,
        "G": 0.8784314,
        "R": 0.9764706
      },
      "UrokoPrice": {
        "BronzeUrokoNum": 0,
        "GoldUrokoNum": 0,
        "SilverUrokoNum": 0
      },
      "UrokoUhlockLevel": 1,
      "__RowId": "Npl_Catalog_Season01_Lv16"
    },
    {
      "HowToGet": "Shop",
      "Id": 11017,
      "Order": 11017,
      "Season": 1,
      "TextColor": {
        "A": 1.0,
        "B": 1.0,
        "G": 1.0,
        "R": 1.0
      },
      "UrokoPrice": {
        "BronzeUrokoNum": 0,
        "GoldUrokoNum": 0,
        "SilverUrokoNum": 0
      },
      "UrokoUhlockLevel": 1,
      "__RowId": "Npl_Catalog_Season01_Lv17"
    },
    {
      "HowToGet": "Shop",
      "Id": 11018,
      "Order": 11018,
      "Season": 1,
      "TextColor": {
        "A": 1.0,
        "B": 1.0,
        "G": 1.0,
        "R": 1.0
      },
      "UrokoPrice": {
        "BronzeUrokoNum": 0,
        "GoldUrokoNum": 0,
        "SilverUrokoNum": 0
      },
      "UrokoUhlockLevel": 1,
      "__RowId": "Npl_Catalog_Season01_Lv18"
    },
    {
      "HowToGet": "Shop",
      "Id": 11019,
      "Order": 11019,
      "Season": 1,
      "TextColor": {
        "A": 1.0,
        "B": 1.0,
        "G": 1.0,
        "R": 1.0
      },
      "UrokoPrice": {
        "BronzeUrokoNum": 0,
        "GoldUrokoNum": 0,
        "SilverUrokoNum": 0
      },
      "UrokoUhlockLevel": 1,
      "__RowId": "Npl_Catalog_Season01_Lv19"
    },
    {
      "HowToGet": "Shop",
      "Id": 11020,
      "Order": 11020,
      "Season": 1,
      "TextColor": {
        "A": 1.0,
        "B": 1.0,
        "G": 1.0,
        "R": 1.0
      },
      "UrokoPrice": {
        "BronzeUrokoNum": 0,
        "GoldUrokoNum": 0,
        "SilverUrokoNum": 0
      },
      "UrokoUhlockLevel": 1,
      "__RowId": "Npl_Catalog_Season01_Lv20"
    },
    {
      "HowToGet": "Shop",
      "Id": 11021,
      "Order": 11021,
      "Season": 1,
      "TextColor": {
        "A": 1.0,
        "B": 1.0,
        "G": 1.0,
        "R": 1.0
      },
      "UrokoPrice": {
        "BronzeUrokoNum": 0,
        "GoldUrokoNum": 0,
        "SilverUrokoNum": 0
      },
      "UrokoUhlockLevel": 1,
      "__RowId": "Npl_Catalog_Season01_Lv21"
    },
    {
      "HowToGet": "Shop",
      "Id": 11022,
      "Order": 11022,
      "Season": 1,
      "TextColor": {
        "A": 1.0,
        "B": 1.0,
        "G": 1.0,
        "R": 1.0
      },
      "UrokoPrice": {
        "BronzeUrokoNum": 0,
        "GoldUrokoNum": 0,
        "SilverUrokoNum": 0
      },
      "UrokoUhlockLevel": 1,
      "__RowId": "Npl_Catalog_Season01_Lv22"
    },
    {
      "HowToGet": "Shop",
      "Id": 11023,
      "Order": 11023,
      "Season": 1,
      "TextColor": {
        "A": 1.0,
        "B": 1.0,
        "G": 1.0,
        "R": 1.0
      },
      "UrokoPrice": {
        "BronzeUrokoNum": 0,
        "GoldUrokoNum": 0,
        "SilverUrokoNum": 0
      },
      "UrokoUhlockLevel": 1,
      "__RowId": "Npl_Catalog_Season01_Lv23"
    },
    {
      "HowToGet": "Shop",
      "Id": 11024,
      "Order": 11024,
      "Season": 1,
      "TextColor": {
        "A": 1.0,
        "B": 1.0,
        "G": 1.0,
        "R": 1.0
      },
      "UrokoPrice": {
        "BronzeUrokoNum": 0,
        "GoldUrokoNum": 0,
        "SilverUrokoNum": 0
      },
      "UrokoUhlockLevel": 1,
      "__RowId": "Npl_Catalog_Season01_Lv24"
    },
    {
      "HowToGet": "Shop",
      "Id": 11025,
      "Order": 11025,
      "Season": 1,
      "TextColor": {
        "A": 1.0,
        "B": 1.0,
        "G": 1.0,
        "R": 1.0
      },
      "UrokoPrice": {
        "BronzeUrokoNum": 0,
        "GoldUrokoNum": 0,
        "SilverUrokoNum": 0
      },
      "UrokoUhlockLevel": 1,
      "__RowId": "Npl_Catalog_Season01_Lv25"
    },
    {
      "HowToGet": "Shop",
      "Id": 11026,
      "Order": 11026,
      "Season": 1,
      "TextColor": {
        "A": 1.0,
        "B": 1.0,
        "G": 1.0,
        "R": 1.0
      },
      "UrokoPrice": {
        "BronzeUrokoNum": 0,
        "GoldUrokoNum": 0,
        "SilverUrokoNum": 0
      },
      "UrokoUhlockLevel": 1,
      "__RowId": "Npl_Catalog_Season01_Lv26"
    },
    {
      "HowToGet": "Shop",
      "Id": 11027,
      "Order": 11027,
      "Season": 1,
      "TextColor": {
        "A": 1.0,
        "B": 1.0,
        "G": 1.0,
        "R": 1.0
      },
      "UrokoPrice": {
        "BronzeUrokoNum": 0,
        "GoldUrokoNum": 0,
        "SilverUrokoNum": 0
      },
      "UrokoUhlockLevel": 1,
      "__RowId": "Npl_Catalog_Season01_Lv27"
    },
    {
      "HowToGet": "Shop",
      "Id": 11028,
      "Order": 11028,
      "Season": 1,
      "TextColor": {
        "A": 1.0,
        "B": 1.0,
        "G": 1.0,
        "R": 1.0
      },
      "UrokoPrice": {
        "BronzeUrokoNum": 0,
        "GoldUrokoNum": 0,
        "SilverUrokoNum": 0
      },
      "UrokoUhlockLevel": 1,
      "__RowId": "Npl_Catalog_Season01_Lv28"
    },
    {
      "HowToGet": "Shop",
      "Id": 11029,
      "Order": 11029,
      "Season": 1,
      "TextColor": {
        "A": 1.0,
        "B": 1.0,
        "G": 1.0,
        "R": 1.0
      },
      "UrokoPrice": {
        "BronzeUrokoNum": 0,
        "GoldUrokoNum": 0,
        "SilverUrokoNum": 0
      },
      "UrokoUhlockLevel": 1,
      "__RowId": "Npl_Catalog_Season01_Lv29"
    },
    {
      "HowToGet": "Shop",
      "Id": 11030,
      "Order": 11030,
      "Season": 1,
      "TextColor": {
        "A": 1.0,
        "B": 1.0,
        "G": 1.0,
        "R": 1.0
      },
      "UrokoPrice": {
        "BronzeUrokoNum": 0,
        "GoldUrokoNum": 0,
        "SilverUrokoNum": 0
      },
      "UrokoUhlockLevel": 1,
      "__RowId": "Npl_Catalog_Season01_Lv30"
    },
    {
      "HowToGet": "Shop",
      "Id": 11031,
      "Order": 11031,
      "Season": 1,
      "TextColor": {
        "A": 1.0,
        "B": 1.0,
        "G": 1.0,
        "R": 1.0
      },
      "UrokoPrice": {
        "BronzeUrokoNum": 0,
        "GoldUrokoNum": 0,
        "SilverUrokoNum": 0
      },
      "UrokoUhlockLevel": 1,
      "__RowId": "Npl_Catalog_Season01_Lv31"
    },
    {
      "HowToGet": "Shop",
      "Id": 11032,
      "Order": 11032,
      "Season": 1,
      "TextColor": {
        "A": 1.0,
        "B": 1.0,
        "G": 1.0,
        "R": 1.0
      },
      "UrokoPrice": {
        "BronzeUrokoNum": 0,
        "GoldUrokoNum": 0,
        "SilverUrokoNum": 0
      },
      "UrokoUhlockLevel": 1,
      "__RowId": "Npl_Catalog_Season01_Lv32"
    },
    {
      "HowToGet": "Shop",
      "Id": 11033,
      "Order": 11033,
      "Season": 1,
      "TextColor": {
        "A": 1.0,
        "B": 1.0,
        "G": 1.0,
        "R": 1.0
      },
      "UrokoPrice": {
        "BronzeUrokoNum": 0,
        "GoldUrokoNum": 0,
        "SilverUrokoNum": 0
      },
      "UrokoUhlockLevel": 1,
      "__RowId": "Npl_Catalog_Season01_Lv33"
    },
    {
      "HowToGet": "Shop",
      "Id": 11034,
      "Order": 11034,
      "Season": 1,
      "TextColor": {
        "A": 1.0,
        "B": 1.0,
        "G": 1.0,
        "R": 1.0
      },
      "UrokoPrice": {
        "BronzeUrokoNum": 0,
        "GoldUrokoNum": 0,
        "SilverUrokoNum": 0
      },
      "UrokoUhlockLevel": 1,
      "__RowId": "Npl_Catalog_Season01_Lv34"
    },
    {
      "HowToGet": "Shop",
      "Id": 11035,
      "Order": 11035,
      "Season": 1,
      "TextColor": {
        "A": 1.0,
        "B": 1.0,
        "G": 1.0,
        "R": 1.0
      },
      "UrokoPrice": {
        "BronzeUrokoNum": 0,
        "GoldUrokoNum": 0,
        "SilverUrokoNum": 0
      },
      "UrokoUhlockLevel": 1,
      "__RowId": "Npl_Catalog_Season01_Lv35"
    },
    {
      "HowToGet": "Shop",
      "Id": 11036,
      "Order": 11036,
      "Season": 1,
      "TextColor": {
        "A": 1.0,
        "B": 1.0,
        "G": 1.0,
        "R": 1.0
      },
      "UrokoPrice": {
        "BronzeUrokoNum": 0,
        "GoldUrokoNum": 0,
        "SilverUrokoNum": 0
      },
      "UrokoUhlockLevel": 1,
      "__RowId": "Npl_Catalog_Season01_Lv36"
    },
    {
      "HowToGet": "Shop",
      "Id": 11037,
      "Order": 11037,
      "Season": 1,
      "TextColor": {
        "A": 1.0,
        "B": 1.0,
        "G": 1.0,
        "R": 1.0
      },
      "UrokoPrice": {
        "BronzeUrokoNum": 0,
        "GoldUrokoNum": 0,
        "SilverUrokoNum": 0
      },
      "UrokoUhlockLevel": 1,
      "__RowId": "Npl_Catalog_Season01_Lv37"
    },
    {
      "HowToGet": "Shop",
      "Id": 11038,
      "Order": 11038,
      "Season": 1,
      "TextColor": {
        "A": 1.0,
        "B": 1.0,
        "G": 1.0,
        "R": 1.0
      },
      "UrokoPrice": {
        "BronzeUrokoNum": 0,
        "GoldUrokoNum": 0,
        "SilverUrokoNum": 0
      },
      "UrokoUhlockLevel": 1,
      "__RowId": "Npl_Catalog_Season01_Lv38"
    },
    {
      "HowToGet": "Shop",
      "Id": 11039,
      "Order": 11039,
      "Season": 1,
      "TextColor": {
        "A": 1.0,
        "B": 1.0,
        "G": 1.0,
        "R": 1.0
      },
      "UrokoPrice": {
        "BronzeUrokoNum": 0,
        "GoldUrokoNum": 0,
        "SilverUrokoNum": 0
      },
      "UrokoUhlockLevel": 1,
      "__RowId": "Npl_Catalog_Season01_Lv39"
    },
    {
      "HowToGet": "Shop",
      "Id": 11040,
      "Order": 11040,
      "Season": 1,
      "TextColor": {
        "A": 1.0,
        "B": 1.0,
        "G": 1.0,
        "R": 1.0
      },
      "UrokoPrice": {
        "BronzeUrokoNum": 0,
        "GoldUrokoNum": 0,
        "SilverUrokoNum": 0
      },
      "UrokoUhlockLevel": 1,
      "__RowId": "Npl_Catalog_Season01_Lv40"
    },
    {
      "HowToGet": "Shop",
      "Id": 11041,
      "Order": 11041,
      "Season": 1,
      "TextColor": {
        "A": 1.0,
        "B": 1.0,
        "G": 1.0,
        "R": 1.0
      },
      "UrokoPrice": {
        "BronzeUrokoNum": 0,
        "GoldUrokoNum": 0,
        "SilverUrokoNum": 0
      },
      "UrokoUhlockLevel": 1,
      "__RowId": "Npl_Catalog_Season01_Lv41"
    },
    {
      "HowToGet": "Shop",
      "Id": 11042,
      "Order": 11042,
      "Season": 1,
      "TextColor": {
        "A": 1.0,
        "B": 1.0,
        "G": 1.0,
        "R": 1.0
      },
      "UrokoPrice": {
        "BronzeUrokoNum": 0,
        "GoldUrokoNum": 0,
        "SilverUrokoNum": 0
      },
      "UrokoUhlockLevel": 1,
      "__RowId": "Npl_Catalog_Season01_Lv42"
    },
    {
      "HowToGet": "Shop",
      "Id": 11043,
      "Order": 11043,
      "Season": 1,
      "TextColor": {
        "A": 1.0,
        "B": 1.0,
        "G": 1.0,
        "R": 1.0
      },
      "UrokoPrice": {
        "BronzeUrokoNum": 0,
        "GoldUrokoNum": 0,
        "SilverUrokoNum": 0
      },
      "UrokoUhlockLevel": 1,
      "__RowId": "Npl_Catalog_Season01_Lv43"
    },
    {
      "HowToGet": "Shop",
      "Id": 11044,
      "Order": 11044,
      "Season": 1,
      "TextColor": {
        "A": 1.0,
        "B": 1.0,
        "G": 1.0,
        "R": 1.0
      },
      "UrokoPrice": {
        "BronzeUrokoNum": 0,
        "GoldUrokoNum": 0,
        "SilverUrokoNum": 0
      },
      "UrokoUhlockLevel": 1,
      "__RowId": "Npl_Catalog_Season01_Lv44"
    },
    {
      "HowToGet": "Shop",
      "Id": 11045,
      "Order": 11045,
      "Season": 1,
      "TextColor": {
        "A": 1.0,
        "B": 1.0,
        "G": 1.0,
        "R": 1.0
      },
      "UrokoPrice": {
        "BronzeUrokoNum": 0,
        "GoldUrokoNum": 0,
        "SilverUrokoNum": 0
      },
      "UrokoUhlockLevel": 1,
      "__RowId": "Npl_Catalog_Season01_Lv45"
    },
    {
      "HowToGet": "Shop",
      "Id": 11046,
      "Order": 11046,
      "Season": 1,
      "TextColor": {
        "A": 1.0,
        "B": 1.0,
        "G": 1.0,
        "R": 1.0
      },
      "UrokoPrice": {
        "BronzeUrokoNum": 0,
        "GoldUrokoNum": 0,
        "SilverUrokoNum": 0
      },
      "UrokoUhlockLevel": 1,
      "__RowId": "Npl_Catalog_Season01_Lv46"
    },
    {
      "HowToGet": "Shop",
      "Id": 11047,
      "Order": 11047,
      "Season": 1,
      "TextColor": {
        "A": 1.0,
        "B": 1.0,
        "G": 1.0,
        "R": 1.0
      },
      "UrokoPrice": {
        "BronzeUrokoNum": 0,
        "GoldUrokoNum": 0,
        "SilverUrokoNum": 0
      },
      "UrokoUhlockLevel": 1,
      "__RowId": "Npl_Catalog_Season01_Lv47"
    },
    {
      "HowToGet": "Shop",
      "Id": 11048,
      "Order": 11048,
      "Season": 1,
      "TextColor": {
        "A": 1.0,
        "B": 1.0,
        "G": 1.0,
        "R": 1.0
      },
      "UrokoPrice": {
        "BronzeUrokoNum": 0,
        "GoldUrokoNum": 0,
        "SilverUrokoNum": 0
      },
      "UrokoUhlockLevel": 1,
      "__RowId": "Npl_Catalog_Season01_Lv48"
    },
    {
      "HowToGet": "Shop",
      "Id": 11049,
      "Order": 11049,
      "Season": 1,
      "TextColor": {
        "A": 1.0,
        "B": 1.0,
        "G": 1.0,
        "R": 1.0
      },
      "UrokoPrice": {
        "BronzeUrokoNum": 0,
        "GoldUrokoNum": 0,
        "SilverUrokoNum": 0
      },
      "UrokoUhlockLevel": 1,
      "__RowId": "Npl_Catalog_Season01_Lv49"
    },
    {
      "HowToGet": "Shop",
      "Id": 11050,
      "Order": 11050,
      "Season": 1,
      "TextColor": {
        "A": 1.0,
        "B": 1.0,
        "G": 1.0,
        "R": 1.0
      },
      "UrokoPrice": {
        "BronzeUrokoNum": 0,
        "GoldUrokoNum": 0,
        "SilverUrokoNum": 0
      },
      "UrokoUhlockLevel": 1,
      "__RowId": "Npl_Catalog_Season01_Lv50"
    },
    {
      "HowToGet": "Shop",
      "Id": 11051,
      "Order": 11051,
      "Season": 1,
      "TextColor": {
        "A": 1.0,
        "B": 1.0,
        "G": 1.0,
        "R": 1.0
      },
      "UrokoPrice": {
        "BronzeUrokoNum": 0,
        "GoldUrokoNum": 0,
        "SilverUrokoNum": 0
      },
      "UrokoUhlockLevel": 1,
      "__RowId": "Npl_Catalog_Season01_Lv51"
    },
    {
      "HowToGet": "Shop",
      "Id": 11052,
      "Order": 11052,
      "Season": 1,
      "TextColor": {
        "A": 1.0,
        "B": 1.0,
        "G": 1.0,
        "R": 1.0
      },
      "UrokoPrice": {
        "BronzeUrokoNum": 0,
        "GoldUrokoNum": 0,
        "SilverUrokoNum": 0
      },
      "UrokoUhlockLevel": 1,
      "__RowId": "Npl_Catalog_Season01_Lv52"
    },
    {
      "HowToGet": "Shop",
      "Id": 11053,
      "Order": 11053,
      "Season": 1,
      "TextColor": {
        "A": 1.0,
        "B": 1.0,
        "G": 1.0,
        "R": 1.0
      },
      "UrokoPrice": {
        "BronzeUrokoNum": 0,
        "GoldUrokoNum": 0,
        "SilverUrokoNum": 0
      },
      "UrokoUhlockLevel": 1,
      "__RowId": "Npl_Catalog_Season01_Lv53"
    },
    {
      "HowToGet": "Shop",
      "Id": 11054,
      "Order": 11054,
      "Season": 1,
      "TextColor": {
        "A": 1.0,
        "B": 1.0,
        "G": 1.0,
        "R": 1.0
      },
      "UrokoPrice": {
        "BronzeUrokoNum": 0,
        "GoldUrokoNum": 0,
        "SilverUrokoNum": 0
      },
      "UrokoUhlockLevel": 1,
      "__RowId": "Npl_Catalog_Season01_Lv54"
    },
    {
      "HowToGet": "Shop",
      "Id": 11055,
      "Order": 11055,
      "Season": 1,
      "TextColor": {
        "A": 1.0,
        "B": 1.0,
        "G": 1.0,
        "R": 1.0
      },
      "UrokoPrice": {
        "BronzeUrokoNum": 0,
        "GoldUrokoNum": 0,
        "SilverUrokoNum": 0
      },
      "UrokoUhlockLevel": 1,
      "__RowId": "Npl_Catalog_Season01_Lv55"
    },
    {
      "HowToGet": "Shop",
      "Id": 11056,
      "Order": 11056,
      "Season": 1,
      "TextColor": {
        "A": 1.0,
        "B": 1.0,
        "G": 1.0,
        "R": 1.0
      },
      "UrokoPrice": {
        "BronzeUrokoNum": 0,
        "GoldUrokoNum": 0,
        "SilverUrokoNum": 0
      },
      "UrokoUhlockLevel": 1,
      "__RowId": "Npl_Catalog_Season01_Lv56"
    },
    {
      "HowToGet": "Shop",
      "Id": 11057,
      "Order": 11057,
      "Season": 1,
      "TextColor": {
        "A": 1.0,
        "B": 1.0,
        "G": 1.0,
        "R": 1.0
      },
      "UrokoPrice": {
        "BronzeUrokoNum": 0,
        "GoldUrokoNum": 0,
        "SilverUrokoNum": 0
      },
      "UrokoUhlockLevel": 1,
      "__RowId": "Npl_Catalog_Season01_Lv57"
    },
    {
      "HowToGet": "Shop",
      "Id": 11058,
      "Order": 11058,
      "Season": 1,
      "TextColor": {
        "A": 1.0,
        "B": 1.0,
        "G": 1.0,
        "R": 1.0
      },
      "UrokoPrice": {
        "BronzeUrokoNum": 0,
        "GoldUrokoNum": 0,
        "SilverUrokoNum": 0
      },
      "UrokoUhlockLevel": 1,
      "__RowId": "Npl_Catalog_Season01_Lv58"
    },
    {
      "HowToGet": "Shop",
      "Id": 11059,
      "Order": 11059,
      "Season": 1,
      "TextColor": {
        "A": 1.0,
        "B": 1.0,
        "G": 1.0,
        "R": 1.0
      },
      "UrokoPrice": {
        "BronzeUrokoNum": 0,
        "GoldUrokoNum": 0,
        "SilverUrokoNum": 0
      },
      "UrokoUhlockLevel": 1,
      "__RowId": "Npl_Catalog_Season01_Lv59"
    },
    {
      "HowToGet": "Shop",
      "Id": 11060,
      "Order": 11060,
      "Season": 1,
      "TextColor": {
        "A": 1.0,
        "B": 1.0,
        "G": 1.0,
        "R": 1.0
      },
      "UrokoPrice": {
        "BronzeUrokoNum": 0,
        "GoldUrokoNum": 0,
        "SilverUrokoNum": 0
      },
      "UrokoUhlockLevel": 1,
      "__RowId": "Npl_Catalog_Season01_Lv60"
    },
    {
      "HowToGet": "Shop",
      "Id": 11061,
      "Order": 11061,
      "Season": 1,
      "TextColor": {
        "A": 1.0,
        "B": 1.0,
        "G": 1.0,
        "R": 1.0
      },
      "UrokoPrice": {
        "BronzeUrokoNum": 0,
        "GoldUrokoNum": 0,
        "SilverUrokoNum": 0
      },
      "UrokoUhlockLevel": 1,
      "__RowId": "Npl_Catalog_Season01_Lv61"
    },
    {
      "HowToGet": "Shop",
      "Id": 11062,
      "Order": 11062,
      "Season": 1,
      "TextColor": {
        "A": 1.0,
        "B": 1.0,
        "G": 1.0,
        "R": 1.0
      },
      "UrokoPrice": {
        "BronzeUrokoNum": 0,
        "GoldUrokoNum": 0,
        "SilverUrokoNum": 0
      },
      "UrokoUhlockLevel": 1,
      "__RowId": "Npl_Catalog_Season01_Lv62"
    },
    {
      "HowToGet": "Shop",
      "Id": 11063,
      "Order": 11063,
      "Season": 1,
      "TextColor": {
        "A": 1.0,
        "B": 1.0,
        "G": 1.0,
        "R": 1.0
      },
      "UrokoPrice": {
        "BronzeUrokoNum": 0,
        "GoldUrokoNum": 0,
        "SilverUrokoNum": 0
      },
      "UrokoUhlockLevel": 1,
      "__RowId": "Npl_Catalog_Season01_Lv63"
    },
    {
      "HowToGet": "Shop",
      "Id": 11064,
      "Order": 11064,
      "Season": 1,
      "TextColor": {
        "A": 1.0,
        "B": 1.0,
        "G": 1.0,
        "R": 1.0
      },
      "UrokoPrice": {
        "BronzeUrokoNum": 0,
        "GoldUrokoNum": 0,
        "SilverUrokoNum": 0
      },
      "UrokoUhlockLevel": 1,
      "__RowId": "Npl_Catalog_Season01_Lv64"
    },
    {
      "HowToGet": "Shop",
      "Id": 11065,
      "Order": 11065,
      "Season": 1,
      "TextColor": {
        "A": 1.0,
        "B": 1.0,
        "G": 1.0,
        "R": 1.0
      },
      "UrokoPrice": {
        "BronzeUrokoNum": 0,
        "GoldUrokoNum": 0,
        "SilverUrokoNum": 0
      },
      "UrokoUhlockLevel": 1,
      "__RowId": "Npl_Catalog_Season01_Lv65"
    },
    {
      "HowToGet": "Shop",
      "Id": 11066,
      "Order": 11066,
      "Season": 1,
      "TextColor": {
        "A": 1.0,
        "B": 1.0,
        "G": 1.0,
        "R": 1.0
      },
      "UrokoPrice": {
        "BronzeUrokoNum": 0,
        "GoldUrokoNum": 0,
        "SilverUrokoNum": 0
      },
      "UrokoUhlockLevel": 1,
      "__RowId": "Npl_Catalog_Season01_Lv66"
    },
    {
      "HowToGet": "Shop",
      "Id": 11067,
      "Order": 11067,
      "Season": 1,
      "TextColor": {
        "A": 1.0,
        "B": 1.0,
        "G": 1.0,
        "R": 1.0
      },
      "UrokoPrice": {
        "BronzeUrokoNum": 0,
        "GoldUrokoNum": 0,
        "SilverUrokoNum": 0
      },
      "UrokoUhlockLevel": 1,
      "__RowId": "Npl_Catalog_Season01_Lv67"
    },
    {
      "HowToGet": "Shop",
      "Id": 11068,
      "Order": 11068,
      "Season": 1,
      "TextColor": {
        "A": 1.0,
        "B": 1.0,
        "G": 1.0,
        "R": 1.0
      },
      "UrokoPrice": {
        "BronzeUrokoNum": 0,
        "GoldUrokoNum": 0,
        "SilverUrokoNum": 0
      },
      "UrokoUhlockLevel": 1,
      "__RowId": "Npl_Catalog_Season01_Lv68"
    },
    {
      "HowToGet": "Shop",
      "Id": 11069,
      "Order": 11069,
      "Season": 1,
      "TextColor": {
        "A": 1.0,
        "B": 1.0,
        "G": 1.0,
        "R": 1.0
      },
      "UrokoPrice": {
        "BronzeUrokoNum": 0,
        "GoldUrokoNum": 0,
        "SilverUrokoNum": 0
      },
      "UrokoUhlockLevel": 1,
      "__RowId": "Npl_Catalog_Season01_Lv69"
    },
    {
      "HowToGet": "Shop",
      "Id": 11070,
      "Order": 11070,
      "Season": 1,
      "TextColor": {
        "A": 1.0,
        "B": 1.0,
        "G": 1.0,
        "R": 1.0
      },
      "UrokoPrice": {
        "BronzeUrokoNum": 0,
        "GoldUrokoNum": 0,
        "SilverUrokoNum": 0
      },
      "UrokoUhlockLevel": 1,
      "__RowId": "Npl_Catalog_Season01_Lv70"
    },
    {
      "HowToGet": "Shop",
      "Id": 11071,
      "Order": 11071,
      "Season": 1,
      "TextColor": {
        "A": 1.0,
        "B": 1.0,
        "G": 1.0,
        "R": 1.0
      },
      "UrokoPrice": {
        "BronzeUrokoNum": 0,
        "GoldUrokoNum": 0,
        "SilverUrokoNum": 0
      },
      "UrokoUhlockLevel": 1,
      "__RowId": "Npl_Catalog_Season01_Lv71"
    },
    {
      "HowToGet": "Shop",
      "Id": 11072,
      "Order": 11072,
      "Season": 1,
      "TextColor": {
        "A": 1.0,
        "B": 1.0,
        "G": 1.0,
        "R": 1.0
      },
      "UrokoPrice": {
        "BronzeUrokoNum": 0,
        "GoldUrokoNum": 0,
        "SilverUrokoNum": 0
      },
      "UrokoUhlockLevel": 1,
      "__RowId": "Npl_Catalog_Season01_Lv72"
    },
    {
      "HowToGet": "Shop",
      "Id": 11073,
      "Order": 11073,
      "Season": 1,
      "TextColor": {
        "A": 1.0,
        "B": 1.0,
        "G": 1.0,
        "R": 1.0
      },
      "UrokoPrice": {
        "BronzeUrokoNum": 0,
        "GoldUrokoNum": 0,
        "SilverUrokoNum": 0
      },
      "UrokoUhlockLevel": 1,
      "__RowId": "Npl_Catalog_Season01_Lv73"
    },
    {
      "HowToGet": "Shop",
      "Id": 11074,
      "Order": 11074,
      "Season": 1,
      "TextColor": {
        "A": 1.0,
        "B": 1.0,
        "G": 1.0,
        "R": 1.0
      },
      "UrokoPrice": {
        "BronzeUrokoNum": 0,
        "GoldUrokoNum": 0,
        "SilverUrokoNum": 0
      },
      "UrokoUhlockLevel": 1,
      "__RowId": "Npl_Catalog_Season01_Lv74"
    },
    {
      "HowToGet": "Shop",
      "Id": 11075,
      "Order": 11075,
      "Season": 1,
      "TextColor": {
        "A": 1.0,
        "B": 1.0,
        "G": 1.0,
        "R": 1.0
      },
      "UrokoPrice": {
        "BronzeUrokoNum": 0,
        "GoldUrokoNum": 0,
        "SilverUrokoNum": 0
      },
      "UrokoUhlockLevel": 1,
      "__RowId": "Npl_Catalog_Season01_Lv75"
    },
    {
      "HowToGet": "Shop",
      "Id": 11076,
      "Order": 11076,
      "Season": 1,
      "TextColor": {
        "A": 1.0,
        "B": 1.0,
        "G": 1.0,
        "R": 1.0
      },
      "UrokoPrice": {
        "BronzeUrokoNum": 0,
        "GoldUrokoNum": 0,
        "SilverUrokoNum": 0
      },
      "UrokoUhlockLevel": 1,
      "__RowId": "Npl_Catalog_Season01_Lv76"
    },
    {
      "HowToGet": "Shop",
      "Id": 11077,
      "Order": 11077,
      "Season": 1,
      "TextColor": {
        "A": 1.0,
        "B": 1.0,
        "G": 1.0,
        "R": 1.0
      },
      "UrokoPrice": {
        "BronzeUrokoNum": 0,
        "GoldUrokoNum": 0,
        "SilverUrokoNum": 0
      },
      "UrokoUhlockLevel": 1,
      "__RowId": "Npl_Catalog_Season01_Lv77"
    },
    {
      "HowToGet": "Shop",
      "Id": 11078,
      "Order": 11078,
      "Season": 1,
      "TextColor": {
        "A": 1.0,
        "B": 1.0,
        "G": 1.0,
        "R": 1.0
      },
      "UrokoPrice": {
        "BronzeUrokoNum": 0,
        "GoldUrokoNum": 0,
        "SilverUrokoNum": 0
      },
      "UrokoUhlockLevel": 1,
      "__RowId": "Npl_Catalog_Season01_Lv78"
    },
    {
      "HowToGet": "Shop",
      "Id": 11079,
      "Order": 11079,
      "Season": 1,
      "TextColor": {
        "A": 1.0,
        "B": 1.0,
        "G": 1.0,
        "R": 1.0
      },
      "UrokoPrice": {
        "BronzeUrokoNum": 0,
        "GoldUrokoNum": 0,
        "SilverUrokoNum": 0
      },
      "UrokoUhlockLevel": 1,
      "__RowId": "Npl_Catalog_Season01_Lv79"
    },
    {
      "HowToGet": "Shop",
      "Id": 11080,
      "Order": 11080,
      "Season": 1,
      "TextColor": {
        "A": 1.0,
        "B": 1.0,
        "G": 1.0,
        "R": 1.0
      },
      "UrokoPrice": {
        "BronzeUrokoNum": 0,
        "GoldUrokoNum": 0,
        "SilverUrokoNum": 0
      },
      "UrokoUhlockLevel": 1,
      "__RowId": "Npl_Catalog_Season01_Lv80"
    },
    {
      "HowToGet": "Catalog",
      "Id": 11081,
      "Order": 11081,
      "Season": 1,
      "TextColor": {
        "A": 1.0,
        "B": 1.0,
        "G": 1.0,
        "R": 1.0
      },
      "UrokoPrice": {
        "BronzeUrokoNum": 0,
        "GoldUrokoNum": 0,
        "SilverUrokoNum": 0
      },
      "UrokoUhlockLevel": 1,
      "__RowId": "Npl_Catalog_Season01_Lv81"
    },
    {
      "HowToGet": "Catalog",
      "Id": 11082,
      "Order": 11082,
      "Season": 1,
      "TextColor": {
        "A": 1.0,
        "B": 1.0,
        "G": 1.0,
        "R": 1.0
      },
      "UrokoPrice": {
        "BronzeUrokoNum": 0,
        "GoldUrokoNum": 0,
        "SilverUrokoNum": 0
      },
      "UrokoUhlockLevel": 1,
      "__RowId": "Npl_Catalog_Season01_Lv82"
    },
    {
      "HowToGet": "Catalog",
      "Id": 12001,
      "Order": 12001,
      "Season": 2,
      "TextColor": {
        "A": 1.0,
        "B": 1.0,
        "G": 1.0,
        "R": 1.0
      },
      "UrokoPrice": {
        "BronzeUrokoNum": 0,
        "GoldUrokoNum": 0,
        "SilverUrokoNum": 0
      },
      "UrokoUhlockLevel": 1,
      "__RowId": "Npl_Catalog_Season02_Lv01"
    },
    {
      "HowToGet": "Catalog",
      "Id": 12002,
      "Order": 12002,
      "Season": 2,
      "TextColor": {
        "A": 1.0,
        "B": 1.0,
        "G": 1.0,
        "R": 1.0
      },
      "UrokoPrice": {
        "BronzeUrokoNum": 0,
        "GoldUrokoNum": 0,
        "SilverUrokoNum": 0
      },
      "UrokoUhlockLevel": 1,
      "__RowId": "Npl_Catalog_Season02_Lv02"
    },
    {
      "HowToGet": "Catalog",
      "Id": 13001,
      "Order": 13001,
      "Season": 3,
      "TextColor": {
        "A": 1.0,
        "B": 1.0,
        "G": 1.0,
        "R": 1.0
      },
      "UrokoPrice": {
        "BronzeUrokoNum": 0,
        "GoldUrokoNum": 0,
        "SilverUrokoNum": 0
      },
      "UrokoUhlockLevel": 1,
      "__RowId": "Npl_Catalog_Season03_Lv01"
    },
    {
      "HowToGet": "Catalog",
      "Id": 13002,
      "Order": 13002,
      "Season": 3,
      "TextColor": {
        "A": 1.0,
        "B": 1.0,
        "G": 1.0,
        "R": 1.0
      },
      "UrokoPrice": {
        "BronzeUrokoNum": 0,
        "GoldUrokoNum": 0,
        "SilverUrokoNum": 0
      },
      "UrokoUhlockLevel": 1,
      "__RowId": "Npl_Catalog_Season03_Lv02"
    },
    {
      "HowToGet": "Catalog",
      "Id": 14001,
      "Order": 14001,
      "Season": 4,
      "TextColor": {
        "A": 1.0,
        "B": 0.1921569,
        "G": 0.04705882,
        "R": 0.02352941
      },
      "UrokoPrice": {
        "BronzeUrokoNum": 0,
        "GoldUrokoNum": 0,
        "SilverUrokoNum": 0
      },
      "UrokoUhlockLevel": 1,
      "__RowId": "Npl_Catalog_Season04_Lv01"
    },
    {
      "HowToGet": "Catalog",
      "Id": 14002,
      "Order": 14002,
      "Season": 4,
      "TextColor": {
        "A": 1.0,
        "B": 1.0,
        "G": 1.0,
        "R": 1.0
      },
      "UrokoPrice": {
        "BronzeUrokoNum": 0,
        "GoldUrokoNum": 0,
        "SilverUrokoNum": 0
      },
      "UrokoUhlockLevel": 1,
      "__RowId": "Npl_Catalog_Season04_Lv02"
    },
    {
      "HowToGet": "Catalog",
      "Id": 15001,
      "Order": 15001,
      "Season": 5,
      "TextColor": {
        "A": 1.0,
        "B": 1.0,
        "G": 1.0,
        "R": 1.0
      },
      "UrokoPrice": {
        "BronzeUrokoNum": 0,
        "GoldUrokoNum": 0,
        "SilverUrokoNum": 0
      },
      "UrokoUhlockLevel": 1,
      "__RowId": "Npl_Catalog_Season05_Lv01"
    },
    {
      "HowToGet": "Catalog",
      "Id": 15002,
      "Order": 15002,
      "Season": 5,
      "TextColor": {
        "A": 1.0,
        "B": 1.0,
        "G": 1.0,
        "R": 1.0
      },
      "UrokoPrice": {
        "BronzeUrokoNum": 0,
        "GoldUrokoNum": 0,
        "SilverUrokoNum": 0
      },
      "UrokoUhlockLevel": 1,
      "__RowId": "Npl_Catalog_Season05_Lv02"
    },
    {
      "HowToGet": "Shop",
      "Id": 15003,
      "Order": 15003,
      "Season": 5,
      "TextColor": {
        "A": 1.0,
        "B": 0.31118,
        "G": 0.20471,
        "R": 1.0
      },
      "UrokoPrice": {
        "BronzeUrokoNum": 0,
        "GoldUrokoNum": 0,
        "SilverUrokoNum": 0
      },
      "UrokoUhlockLevel": 1,
      "__RowId": "Npl_Catalog_Season05_Lv03"
    },
    {
      "HowToGet": "Shop",
      "Id": 15004,
      "Order": 15004,
      "Season": 5,
      "TextColor": {
        "A": 1.0,
        "B": 0.06381,
        "G": 0.06191,
        "R": 0.9743
      },
      "UrokoPrice": {
        "BronzeUrokoNum": 0,
        "GoldUrokoNum": 0,
        "SilverUrokoNum": 0
      },
      "UrokoUhlockLevel": 1,
      "__RowId": "Npl_Catalog_Season05_Lv04"
    },
    {
      "HowToGet": "Shop",
      "Id": 15005,
      "Order": 15005,
      "Season": 5,
      "TextColor": {
        "A": 1.0,
        "B": 0.16364,
        "G": 0.38891,
        "R": 0.85125
      },
      "UrokoPrice": {
        "BronzeUrokoNum": 0,
        "GoldUrokoNum": 0,
        "SilverUrokoNum": 0
      },
      "UrokoUhlockLevel": 1,
      "__RowId": "Npl_Catalog_Season05_Lv05"
    },
    {
      "HowToGet": "Shop",
      "Id": 15006,
      "Order": 15006,
      "Season": 5,
      "TextColor": {
        "A": 1.0,
        "B": 0.02422,
        "G": 0.03561,
        "R": 0.04943
      },
      "UrokoPrice": {
        "BronzeUrokoNum": 0,
        "GoldUrokoNum": 0,
        "SilverUrokoNum": 0
      },
      "UrokoUhlockLevel": 1,
      "__RowId": "Npl_Catalog_Season05_Lv06"
    },
    {
      "HowToGet": "Shop",
      "Id": 15007,
      "Order": 15007,
      "Season": 5,
      "TextColor": {
        "A": 1.0,
        "B": 1.0,
        "G": 1.0,
        "R": 1.0
      },
      "UrokoPrice": {
        "BronzeUrokoNum": 0,
        "GoldUrokoNum": 0,
        "SilverUrokoNum": 0
      },
      "UrokoUhlockLevel": 1,
      "__RowId": "Npl_Catalog_Season05_Lv07"
    },
    {
      "HowToGet": "Shop",
      "Id": 15008,
      "Order": 15008,
      "Season": 5,
      "TextColor": {
        "A": 1.0,
        "B": 1.0,
        "G": 1.0,
        "R": 1.0
      },
      "UrokoPrice": {
        "BronzeUrokoNum": 0,
        "GoldUrokoNum": 0,
        "SilverUrokoNum": 0
      },
      "UrokoUhlockLevel": 1,
      "__RowId": "Npl_Catalog_Season05_Lv08"
    },
    {
      "HowToGet": "Shop",
      "Id": 15009,
      "Order": 15009,
      "Season": 5,
      "TextColor": {
        "A": 1.0,
        "B": 1.0,
        "G": 1.0,
        "R": 1.0
      },
      "UrokoPrice": {
        "BronzeUrokoNum": 0,
        "GoldUrokoNum": 0,
        "SilverUrokoNum": 0
      },
      "UrokoUhlockLevel": 1,
      "__RowId": "Npl_Catalog_Season05_Lv09"
    },
    {
      "HowToGet": "Shop",
      "Id": 15010,
      "Order": 15010,
      "Season": 5,
      "TextColor": {
        "A": 1.0,
        "B": 1.0,
        "G": 1.0,
        "R": 1.0
      },
      "UrokoPrice": {
        "BronzeUrokoNum": 0,
        "GoldUrokoNum": 0,
        "SilverUrokoNum": 0
      },
      "UrokoUhlockLevel": 1,
      "__RowId": "Npl_Catalog_Season05_Lv10"
    },
    {
      "HowToGet": "Shop",
      "Id": 15011,
      "Order": 15011,
      "Season": 5,
      "TextColor": {
        "A": 1.0,
        "B": 0.06666667,
        "G": 0.06666667,
        "R": 0.06666667
      },
      "UrokoPrice": {
        "BronzeUrokoNum": 0,
        "GoldUrokoNum": 0,
        "SilverUrokoNum": 0
      },
      "UrokoUhlockLevel": 1,
      "__RowId": "Npl_Catalog_Season05_Lv11"
    },
    {
      "HowToGet": "Shop",
      "Id": 15012,
      "Order": 15012,
      "Season": 5,
      "TextColor": {
        "A": 1.0,
        "B": 1.0,
        "G": 1.0,
        "R": 1.0
      },
      "UrokoPrice": {
        "BronzeUrokoNum": 0,
        "GoldUrokoNum": 0,
        "SilverUrokoNum": 0
      },
      "UrokoUhlockLevel": 1,
      "__RowId": "Npl_Catalog_Season05_Lv12"
    },
    {
      "HowToGet": "Shop",
      "Id": 15013,
      "Order": 15013,
      "Season": 5,
      "TextColor": {
        "A": 1.0,
        "B": 0.6392157,
        "G": 0.2862745,
        "R": 0.3568628
      },
      "UrokoPrice": {
        "BronzeUrokoNum": 0,
        "GoldUrokoNum": 0,
        "SilverUrokoNum": 0
      },
      "UrokoUhlockLevel": 1,
      "__RowId": "Npl_Catalog_Season05_Lv13"
    },
    {
      "HowToGet": "Shop",
      "Id": 15014,
      "Order": 15014,
      "Season": 5,
      "TextColor": {
        "A": 1.0,
        "B": 0.53333,
        "G": 0.53333,
        "R": 0.53333
      },
      "UrokoPrice": {
        "BronzeUrokoNum": 0,
        "GoldUrokoNum": 0,
        "SilverUrokoNum": 0
      },
      "UrokoUhlockLevel": 1,
      "__RowId": "Npl_Catalog_Season05_Lv14"
    },
    {
      "HowToGet": "Shop",
      "Id": 15015,
      "Order": 15015,
      "Season": 5,
      "TextColor": {
        "A": 1.0,
        "B": 0.0,
        "G": 0.0,
        "R": 0.0
      },
      "UrokoPrice": {
        "BronzeUrokoNum": 0,
        "GoldUrokoNum": 0,
        "SilverUrokoNum": 0
      },
      "UrokoUhlockLevel": 1,
      "__RowId": "Npl_Catalog_Season05_Lv15"
    },
    {
      "HowToGet": "Shop",
      "Id": 15016,
      "Order": 15016,
      "Season": 5,
      "TextColor": {
        "A": 1.0,
        "B": 0.38431,
        "G": 0.8,
        "R": 0.0
      },
      "UrokoPrice": {
        "BronzeUrokoNum": 0,
        "GoldUrokoNum": 0,
        "SilverUrokoNum": 0
      },
      "UrokoUhlockLevel": 1,
      "__RowId": "Npl_Catalog_Season05_Lv16"
    },
    {
      "HowToGet": "Shop",
      "Id": 15017,
      "Order": 15017,
      "Season": 5,
      "TextColor": {
        "A": 1.0,
        "B": 0.0,
        "G": 0.0,
        "R": 0.0
      },
      "UrokoPrice": {
        "BronzeUrokoNum": 0,
        "GoldUrokoNum": 0,
        "SilverUrokoNum": 0
      },
      "UrokoUhlockLevel": 1,
      "__RowId": "Npl_Catalog_Season05_Lv17"
    },
    {
      "HowToGet": "Shop",
      "Id": 15018,
      "Order": 15018,
      "Season": 5,
      "TextColor": {
        "A": 1.0,
        "B": 0.0,
        "G": 0.45098,
        "R": 0.96863
      },
      "UrokoPrice": {
        "BronzeUrokoNum": 0,
        "GoldUrokoNum": 0,
        "SilverUrokoNum": 0
      },
      "UrokoUhlockLevel": 1,
      "__RowId": "Npl_Catalog_Season05_Lv18"
    },
    {
      "HowToGet": "Shop",
      "Id": 15019,
      "Order": 15019,
      "Season": 5,
      "TextColor": {
        "A": 1.0,
        "B": 1.0,
        "G": 1.0,
        "R": 1.0
      },
      "UrokoPrice": {
        "BronzeUrokoNum": 0,
        "GoldUrokoNum": 0,
        "SilverUrokoNum": 0
      },
      "UrokoUhlockLevel": 1,
      "__RowId": "Npl_Catalog_Season05_Lv19"
    },
    {
      "HowToGet": "Shop",
      "Id": 15020,
      "Order": 15020,
      "Season": 5,
      "TextColor": {
        "A": 1.0,
        "B": 0.07450981,
        "G": 0.07450981,
        "R": 0.07450981
      },
      "UrokoPrice": {
        "BronzeUrokoNum": 0,
        "GoldUrokoNum": 0,
        "SilverUrokoNum": 0
      },
      "UrokoUhlockLevel": 1,
      "__RowId": "Npl_Catalog_Season05_Lv20"
    },
    {
      "HowToGet": "Shop",
      "Id": 15021,
      "Order": 15021,
      "Season": 5,
      "TextColor": {
        "A": 1.0,
        "B": 1.0,
        "G": 1.0,
        "R": 1.0
      },
      "UrokoPrice": {
        "BronzeUrokoNum": 0,
        "GoldUrokoNum": 0,
        "SilverUrokoNum": 0
      },
      "UrokoUhlockLevel": 1,
      "__RowId": "Npl_Catalog_Season05_Lv21"
    },
    {
      "HowToGet": "Shop",
      "Id": 15022,
      "Order": 15022,
      "Season": 5,
      "TextColor": {
        "A": 1.0,
        "B": 0.07843138,
        "G": 0.0,
        "R": 0.0
      },
      "UrokoPrice": {
        "BronzeUrokoNum": 0,
        "GoldUrokoNum": 0,
        "SilverUrokoNum": 0
      },
      "UrokoUhlockLevel": 1,
      "__RowId": "Npl_Catalog_Season05_Lv22"
    },
    {
      "HowToGet": "Shop",
      "Id": 15023,
      "Order": 15023,
      "Season": 5,
      "TextColor": {
        "A": 1.0,
        "B": 1.0,
        "G": 1.0,
        "R": 1.0
      },
      "UrokoPrice": {
        "BronzeUrokoNum": 0,
        "GoldUrokoNum": 0,
        "SilverUrokoNum": 0
      },
      "UrokoUhlockLevel": 1,
      "__RowId": "Npl_Catalog_Season05_Lv23"
    },
    {
      "HowToGet": "Shop",
      "Id": 15024,
      "Order": 15024,
      "Season": 5,
      "TextColor": {
        "A": 1.0,
        "B": 1.0,
        "G": 1.0,
        "R": 1.0
      },
      "UrokoPrice": {
        "BronzeUrokoNum": 0,
        "GoldUrokoNum": 0,
        "SilverUrokoNum": 0
      },
      "UrokoUhlockLevel": 1,
      "__RowId": "Npl_Catalog_Season05_Lv24"
    },
    {
      "HowToGet": "Shop",
      "Id": 15025,
      "Order": 15025,
      "Season": 5,
      "TextColor": {
        "A": 1.0,
        "B": 1.0,
        "G": 1.0,
        "R": 1.0
      },
      "UrokoPrice": {
        "BronzeUrokoNum": 0,
        "GoldUrokoNum": 0,
        "SilverUrokoNum": 0
      },
      "UrokoUhlockLevel": 1,
      "__RowId": "Npl_Catalog_Season05_Lv25"
    },
    {
      "HowToGet": "Shop",
      "Id": 15026,
      "Order": 15026,
      "Season": 5,
      "TextColor": {
        "A": 1.0,
        "B": 1.0,
        "G": 1.0,
        "R": 1.0
      },
      "UrokoPrice": {
        "BronzeUrokoNum": 0,
        "GoldUrokoNum": 0,
        "SilverUrokoNum": 0
      },
      "UrokoUhlockLevel": 1,
      "__RowId": "Npl_Catalog_Season05_Lv26"
    },
    {
      "HowToGet": "Shop",
      "Id": 15027,
      "Order": 15027,
      "Season": 5,
      "TextColor": {
        "A": 1.0,
        "B": 1.0,
        "G": 1.0,
        "R": 1.0
      },
      "UrokoPrice": {
        "BronzeUrokoNum": 0,
        "GoldUrokoNum": 0,
        "SilverUrokoNum": 0
      },
      "UrokoUhlockLevel": 1,
      "__RowId": "Npl_Catalog_Season05_Lv27"
    },
    {
      "HowToGet": "Shop",
      "Id": 15028,
      "Order": 15028,
      "Season": 5,
      "TextColor": {
        "A": 1.0,
        "B": 1.0,
        "G": 1.0,
        "R": 1.0
      },
      "UrokoPrice": {
        "BronzeUrokoNum": 0,
        "GoldUrokoNum": 0,
        "SilverUrokoNum": 0
      },
      "UrokoUhlockLevel": 1,
      "__RowId": "Npl_Catalog_Season05_Lv28"
    },
    {
      "HowToGet": "Shop",
      "Id": 15029,
      "Order": 15029,
      "Season": 5,
      "TextColor": {
        "A": 1.0,
        "B": 1.0,
        "G": 1.0,
        "R": 1.0
      },
      "UrokoPrice": {
        "BronzeUrokoNum": 0,
        "GoldUrokoNum": 0,
        "SilverUrokoNum": 0
      },
      "UrokoUhlockLevel": 1,
      "__RowId": "Npl_Catalog_Season05_Lv29"
    },
    {
      "HowToGet": "Shop",
      "Id": 15030,
      "Order": 15030,
      "Season": 5,
      "TextColor": {
        "A": 1.0,
        "B": 1.0,
        "G": 1.0,
        "R": 1.0
      },
      "UrokoPrice": {
        "BronzeUrokoNum": 0,
        "GoldUrokoNum": 0,
        "SilverUrokoNum": 0
      },
      "UrokoUhlockLevel": 1,
      "__RowId": "Npl_Catalog_Season05_Lv30"
    },
    {
      "HowToGet": "Shop",
      "Id": 15031,
      "Order": 15031,
      "Season": 5,
      "TextColor": {
        "A": 1.0,
        "B": 0.0,
        "G": 0.0,
        "R": 0.0
      },
      "UrokoPrice": {
        "BronzeUrokoNum": 0,
        "GoldUrokoNum": 0,
        "SilverUrokoNum": 0
      },
      "UrokoUhlockLevel": 1,
      "__RowId": "Npl_Catalog_Season05_Lv31"
    },
    {
      "HowToGet": "Shop",
      "Id": 15032,
      "Order": 15032,
      "Season": 5,
      "TextColor": {
        "A": 1.0,
        "B": 0.0,
        "G": 0.0,
        "R": 0.0
      },
      "UrokoPrice": {
        "BronzeUrokoNum": 0,
        "GoldUrokoNum": 0,
        "SilverUrokoNum": 0
      },
      "UrokoUhlockLevel": 1,
      "__RowId": "Npl_Catalog_Season05_Lv32"
    },
    {
      "HowToGet": "Shop",
      "Id": 15033,
      "Order": 15033,
      "Season": 5,
      "TextColor": {
        "A": 1.0,
        "B": 0.0,
        "G": 0.0,
        "R": 0.0
      },
      "UrokoPrice": {
        "BronzeUrokoNum": 0,
        "GoldUrokoNum": 0,
        "SilverUrokoNum": 0
      },
      "UrokoUhlockLevel": 1,
      "__RowId": "Npl_Catalog_Season05_Lv33"
    },
    {
      "HowToGet": "Shop",
      "Id": 15034,
      "Order": 15034,
      "Season": 5,
      "TextColor": {
        "A": 1.0,
        "B": 0.0,
        "G": 0.0,
        "R": 0.0
      },
      "UrokoPrice": {
        "BronzeUrokoNum": 0,
        "GoldUrokoNum": 0,
        "SilverUrokoNum": 0
      },
      "UrokoUhlockLevel": 1,
      "__RowId": "Npl_Catalog_Season05_Lv34"
    },
    {
      "HowToGet": "Shop",
      "Id": 15035,
      "Order": 15035,
      "Season": 5,
      "TextColor": {
        "A": 1.0,
        "B": 1.0,
        "G": 1.0,
        "R": 1.0
      },
      "UrokoPrice": {
        "BronzeUrokoNum": 0,
        "GoldUrokoNum": 0,
        "SilverUrokoNum": 0
      },
      "UrokoUhlockLevel": 1,
      "__RowId": "Npl_Catalog_Season05_Lv35"
    },
    {
      "HowToGet": "Shop",
      "Id": 15036,
      "Order": 15036,
      "Season": 5,
      "TextColor": {
        "A": 1.0,
        "B": 1.0,
        "G": 1.0,
        "R": 1.0
      },
      "UrokoPrice": {
        "BronzeUrokoNum": 0,
        "GoldUrokoNum": 0,
        "SilverUrokoNum": 0
      },
      "UrokoUhlockLevel": 1,
      "__RowId": "Npl_Catalog_Season05_Lv36"
    },
    {
      "HowToGet": "Shop",
      "Id": 15037,
      "Order": 15037,
      "Season": 5,
      "TextColor": {
        "A": 1.0,
        "B": 1.0,
        "G": 1.0,
        "R": 1.0
      },
      "UrokoPrice": {
        "BronzeUrokoNum": 0,
        "GoldUrokoNum": 0,
        "SilverUrokoNum": 0
      },
      "UrokoUhlockLevel": 1,
      "__RowId": "Npl_Catalog_Season05_Lv37"
    },
    {
      "HowToGet": "Shop",
      "Id": 15038,
      "Order": 15038,
      "Season": 5,
      "TextColor": {
        "A": 1.0,
        "B": 1.0,
        "G": 1.0,
        "R": 1.0
      },
      "UrokoPrice": {
        "BronzeUrokoNum": 0,
        "GoldUrokoNum": 0,
        "SilverUrokoNum": 0
      },
      "UrokoUhlockLevel": 1,
      "__RowId": "Npl_Catalog_Season05_Lv38"
    },
    {
      "HowToGet": "Shop",
      "Id": 15039,
      "Order": 15039,
      "Season": 5,
      "TextColor": {
        "A": 1.0,
        "B": 1.0,
        "G": 1.0,
        "R": 1.0
      },
      "UrokoPrice": {
        "BronzeUrokoNum": 0,
        "GoldUrokoNum": 0,
        "SilverUrokoNum": 0
      },
      "UrokoUhlockLevel": 1,
      "__RowId": "Npl_Catalog_Season05_Lv39"
    },
    {
      "HowToGet": "Shop",
      "Id": 15040,
      "Order": 15040,
      "Season": 5,
      "TextColor": {
        "A": 1.0,
        "B": 1.0,
        "G": 1.0,
        "R": 1.0
      },
      "UrokoPrice": {
        "BronzeUrokoNum": 0,
        "GoldUrokoNum": 0,
        "SilverUrokoNum": 0
      },
      "UrokoUhlockLevel": 1,
      "__RowId": "Npl_Catalog_Season05_Lv40"
    },
    {
      "HowToGet": "Shop",
      "Id": 15041,
      "Order": 15041,
      "Season": 5,
      "TextColor": {
        "A": 1.0,
        "B": 1.0,
        "G": 1.0,
        "R": 1.0
      },
      "UrokoPrice": {
        "BronzeUrokoNum": 0,
        "GoldUrokoNum": 0,
        "SilverUrokoNum": 0
      },
      "UrokoUhlockLevel": 1,
      "__RowId": "Npl_Catalog_Season05_Lv41"
    },
    {
      "HowToGet": "Shop",
      "Id": 15042,
      "Order": 15042,
      "Season": 5,
      "TextColor": {
        "A": 1.0,
        "B": 1.0,
        "G": 1.0,
        "R": 1.0
      },
      "UrokoPrice": {
        "BronzeUrokoNum": 0,
        "GoldUrokoNum": 0,
        "SilverUrokoNum": 0
      },
      "UrokoUhlockLevel": 1,
      "__RowId": "Npl_Catalog_Season05_Lv42"
    },
    {
      "HowToGet": "Shop",
      "Id": 15043,
      "Order": 15043,
      "Season": 5,
      "TextColor": {
        "A": 1.0,
        "B": 0.0,
        "G": 0.0,
        "R": 0.0
      },
      "UrokoPrice": {
        "BronzeUrokoNum": 0,
        "GoldUrokoNum": 0,
        "SilverUrokoNum": 0
      },
      "UrokoUhlockLevel": 1,
      "__RowId": "Npl_Catalog_Season05_Lv43"
    },
    {
      "HowToGet": "Shop",
      "Id": 15044,
      "Order": 15044,
      "Season": 5,
      "TextColor": {
        "A": 1.0,
        "B": 0.0,
        "G": 0.0,
        "R": 0.0
      },
      "UrokoPrice": {
        "BronzeUrokoNum": 0,
        "GoldUrokoNum": 0,
        "SilverUrokoNum": 0
      },
      "UrokoUhlockLevel": 1,
      "__RowId": "Npl_Catalog_Season05_Lv44"
    },
    {
      "HowToGet": "Shop",
      "Id": 15045,
      "Order": 15045,
      "Season": 5,
      "TextColor": {
        "A": 1.0,
        "B": 0.0,
        "G": 0.0,
        "R": 0.0
      },
      "UrokoPrice": {
        "BronzeUrokoNum": 0,
        "GoldUrokoNum": 0,
        "SilverUrokoNum": 0
      },
      "UrokoUhlockLevel": 1,
      "__RowId": "Npl_Catalog_Season05_Lv45"
    },
    {
      "HowToGet": "Shop",
      "Id": 15046,
      "Order": 15046,
      "Season": 5,
      "TextColor": {
        "A": 1.0,
        "B": 0.0,
        "G": 0.0,
        "R": 0.0
      },
      "UrokoPrice": {
        "BronzeUrokoNum": 0,
        "GoldUrokoNum": 0,
        "SilverUrokoNum": 0
      },
      "UrokoUhlockLevel": 1,
      "__RowId": "Npl_Catalog_Season05_Lv46"
    },
    {
      "HowToGet": "Shop",
      "Id": 15047,
      "Order": 15047,
      "Season": 5,
      "TextColor": {
        "A": 1.0,
        "B": 1.0,
        "G": 1.0,
        "R": 1.0
      },
      "UrokoPrice": {
        "BronzeUrokoNum": 0,
        "GoldUrokoNum": 0,
        "SilverUrokoNum": 0
      },
      "UrokoUhlockLevel": 1,
      "__RowId": "Npl_Catalog_Season05_Lv47"
    },
    {
      "HowToGet": "Shop",
      "Id": 15048,
      "Order": 15048,
      "Season": 5,
      "TextColor": {
        "A": 1.0,
        "B": 1.0,
        "G": 1.0,
        "R": 1.0
      },
      "UrokoPrice": {
        "BronzeUrokoNum": 0,
        "GoldUrokoNum": 0,
        "SilverUrokoNum": 0
      },
      "UrokoUhlockLevel": 1,
      "__RowId": "Npl_Catalog_Season05_Lv48"
    },
    {
      "HowToGet": "Shop",
      "Id": 15049,
      "Order": 15049,
      "Season": 5,
      "TextColor": {
        "A": 1.0,
        "B": 1.0,
        "G": 1.0,
        "R": 1.0
      },
      "UrokoPrice": {
        "BronzeUrokoNum": 0,
        "GoldUrokoNum": 0,
        "SilverUrokoNum": 0
      },
      "UrokoUhlockLevel": 1,
      "__RowId": "Npl_Catalog_Season05_Lv49"
    },
    {
      "HowToGet": "Shop",
      "Id": 15050,
      "Order": 15050,
      "Season": 5,
      "TextColor": {
        "A": 1.0,
        "B": 1.0,
        "G": 1.0,
        "R": 1.0
      },
      "UrokoPrice": {
        "BronzeUrokoNum": 0,
        "GoldUrokoNum": 0,
        "SilverUrokoNum": 0
      },
      "UrokoUhlockLevel": 1,
      "__RowId": "Npl_Catalog_Season05_Lv50"
    },
    {
      "HowToGet": "Shop",
      "Id": 15051,
      "Order": 15051,
      "Season": 5,
      "TextColor": {
        "A": 1.0,
        "B": 1.0,
        "G": 1.0,
        "R": 1.0
      },
      "UrokoPrice": {
        "BronzeUrokoNum": 0,
        "GoldUrokoNum": 0,
        "SilverUrokoNum": 0
      },
      "UrokoUhlockLevel": 1,
      "__RowId": "Npl_Catalog_Season05_Lv51"
    },
    {
      "HowToGet": "Shop",
      "Id": 15052,
      "Order": 15052,
      "Season": 5,
      "TextColor": {
        "A": 1.0,
        "B": 1.0,
        "G": 1.0,
        "R": 1.0
      },
      "UrokoPrice": {
        "BronzeUrokoNum": 0,
        "GoldUrokoNum": 0,
        "SilverUrokoNum": 0
      },
      "UrokoUhlockLevel": 1,
      "__RowId": "Npl_Catalog_Season05_Lv52"
    },
    {
      "HowToGet": "Shop",
      "Id": 15053,
      "Order": 15053,
      "Season": 5,
      "TextColor": {
        "A": 1.0,
        "B": 1.0,
        "G": 1.0,
        "R": 1.0
      },
      "UrokoPrice": {
        "BronzeUrokoNum": 0,
        "GoldUrokoNum": 0,
        "SilverUrokoNum": 0
      },
      "UrokoUhlockLevel": 1,
      "__RowId": "Npl_Catalog_Season05_Lv53"
    },
    {
      "HowToGet": "Shop",
      "Id": 15054,
      "Order": 15054,
      "Season": 5,
      "TextColor": {
        "A": 1.0,
        "B": 1.0,
        "G": 1.0,
        "R": 1.0
      },
      "UrokoPrice": {
        "BronzeUrokoNum": 0,
        "GoldUrokoNum": 0,
        "SilverUrokoNum": 0
      },
      "UrokoUhlockLevel": 1,
      "__RowId": "Npl_Catalog_Season05_Lv54"
    },
    {
      "HowToGet": "Shop",
      "Id": 15055,
      "Order": 15055,
      "Season": 5,
      "TextColor": {
        "A": 1.0,
        "B": 1.0,
        "G": 1.0,
        "R": 1.0
      },
      "UrokoPrice": {
        "BronzeUrokoNum": 0,
        "GoldUrokoNum": 0,
        "SilverUrokoNum": 0
      },
      "UrokoUhlockLevel": 1,
      "__RowId": "Npl_Catalog_Season05_Lv55"
    },
    {
      "HowToGet": "Shop",
      "Id": 15056,
      "Order": 15056,
      "Season": 5,
      "TextColor": {
        "A": 1.0,
        "B": 1.0,
        "G": 1.0,
        "R": 1.0
      },
      "UrokoPrice": {
        "BronzeUrokoNum": 0,
        "GoldUrokoNum": 0,
        "SilverUrokoNum": 0
      },
      "UrokoUhlockLevel": 1,
      "__RowId": "Npl_Catalog_Season05_Lv56"
    },
    {
      "HowToGet": "Shop",
      "Id": 15057,
      "Order": 15057,
      "Season": 5,
      "TextColor": {
        "A": 1.0,
        "B": 1.0,
        "G": 1.0,
        "R": 1.0
      },
      "UrokoPrice": {
        "BronzeUrokoNum": 0,
        "GoldUrokoNum": 0,
        "SilverUrokoNum": 0
      },
      "UrokoUhlockLevel": 1,
      "__RowId": "Npl_Catalog_Season05_Lv57"
    },
    {
      "HowToGet": "Shop",
      "Id": 15058,
      "Order": 15058,
      "Season": 5,
      "TextColor": {
        "A": 1.0,
        "B": 1.0,
        "G": 1.0,
        "R": 1.0
      },
      "UrokoPrice": {
        "BronzeUrokoNum": 0,
        "GoldUrokoNum": 0,
        "SilverUrokoNum": 0
      },
      "UrokoUhlockLevel": 1,
      "__RowId": "Npl_Catalog_Season05_Lv58"
    },
    {
      "HowToGet": "Shop",
      "Id": 15059,
      "Order": 15059,
      "Season": 5,
      "TextColor": {
        "A": 1.0,
        "B": 1.0,
        "G": 1.0,
        "R": 1.0
      },
      "UrokoPrice": {
        "BronzeUrokoNum": 0,
        "GoldUrokoNum": 0,
        "SilverUrokoNum": 0
      },
      "UrokoUhlockLevel": 1,
      "__RowId": "Npl_Catalog_Season05_Lv59"
    },
    {
      "HowToGet": "Shop",
      "Id": 15060,
      "Order": 15060,
      "Season": 5,
      "TextColor": {
        "A": 1.0,
        "B": 1.0,
        "G": 1.0,
        "R": 1.0
      },
      "UrokoPrice": {
        "BronzeUrokoNum": 0,
        "GoldUrokoNum": 0,
        "SilverUrokoNum": 0
      },
      "UrokoUhlockLevel": 1,
      "__RowId": "Npl_Catalog_Season05_Lv60"
    },
    {
      "HowToGet": "Shop",
      "Id": 15061,
      "Order": 15061,
      "Season": 5,
      "TextColor": {
        "A": 1.0,
        "B": 1.0,
        "G": 1.0,
        "R": 1.0
      },
      "UrokoPrice": {
        "BronzeUrokoNum": 0,
        "GoldUrokoNum": 0,
        "SilverUrokoNum": 0
      },
      "UrokoUhlockLevel": 1,
      "__RowId": "Npl_Catalog_Season05_Lv61"
    },
    {
      "HowToGet": "Shop",
      "Id": 15062,
      "Order": 15062,
      "Season": 5,
      "TextColor": {
        "A": 1.0,
        "B": 1.0,
        "G": 1.0,
        "R": 1.0
      },
      "UrokoPrice": {
        "BronzeUrokoNum": 0,
        "GoldUrokoNum": 0,
        "SilverUrokoNum": 0
      },
      "UrokoUhlockLevel": 1,
      "__RowId": "Npl_Catalog_Season05_Lv62"
    },
    {
      "HowToGet": "Shop",
      "Id": 15063,
      "Order": 15063,
      "Season": 5,
      "TextColor": {
        "A": 1.0,
        "B": 1.0,
        "G": 1.0,
        "R": 1.0
      },
      "UrokoPrice": {
        "BronzeUrokoNum": 0,
        "GoldUrokoNum": 0,
        "SilverUrokoNum": 0
      },
      "UrokoUhlockLevel": 1,
      "__RowId": "Npl_Catalog_Season05_Lv63"
    },
    {
      "HowToGet": "Shop",
      "Id": 15064,
      "Order": 15064,
      "Season": 5,
      "TextColor": {
        "A": 1.0,
        "B": 1.0,
        "G": 1.0,
        "R": 1.0
      },
      "UrokoPrice": {
        "BronzeUrokoNum": 0,
        "GoldUrokoNum": 0,
        "SilverUrokoNum": 0
      },
      "UrokoUhlockLevel": 1,
      "__RowId": "Npl_Catalog_Season05_Lv64"
    },
    {
      "HowToGet": "Shop",
      "Id": 15065,
      "Order": 15065,
      "Season": 5,
      "TextColor": {
        "A": 1.0,
        "B": 1.0,
        "G": 1.0,
        "R": 1.0
      },
      "UrokoPrice": {
        "BronzeUrokoNum": 0,
        "GoldUrokoNum": 0,
        "SilverUrokoNum": 0
      },
      "UrokoUhlockLevel": 1,
      "__RowId": "Npl_Catalog_Season05_Lv65"
    },
    {
      "HowToGet": "Shop",
      "Id": 15066,
      "Order": 15066,
      "Season": 5,
      "TextColor": {
        "A": 1.0,
        "B": 1.0,
        "G": 1.0,
        "R": 1.0
      },
      "UrokoPrice": {
        "BronzeUrokoNum": 0,
        "GoldUrokoNum": 0,
        "SilverUrokoNum": 0
      },
      "UrokoUhlockLevel": 1,
      "__RowId": "Npl_Catalog_Season05_Lv66"
    },
    {
      "HowToGet": "Shop",
      "Id": 15067,
      "Order": 15067,
      "Season": 5,
      "TextColor": {
        "A": 1.0,
        "B": 1.0,
        "G": 1.0,
        "R": 1.0
      },
      "UrokoPrice": {
        "BronzeUrokoNum": 0,
        "GoldUrokoNum": 0,
        "SilverUrokoNum": 0
      },
      "UrokoUhlockLevel": 1,
      "__RowId": "Npl_Catalog_Season05_Lv67"
    },
    {
      "HowToGet": "Shop",
      "Id": 15068,
      "Order": 15068,
      "Season": 5,
      "TextColor": {
        "A": 1.0,
        "B": 1.0,
        "G": 1.0,
        "R": 1.0
      },
      "UrokoPrice": {
        "BronzeUrokoNum": 0,
        "GoldUrokoNum": 0,
        "SilverUrokoNum": 0
      },
      "UrokoUhlockLevel": 1,
      "__RowId": "Npl_Catalog_Season05_Lv68"
    },
    {
      "HowToGet": "Shop",
      "Id": 15069,
      "Order": 15069,
      "Season": 5,
      "TextColor": {
        "A": 1.0,
        "B": 1.0,
        "G": 1.0,
        "R": 1.0
      },
      "UrokoPrice": {
        "BronzeUrokoNum": 0,
        "GoldUrokoNum": 0,
        "SilverUrokoNum": 0
      },
      "UrokoUhlockLevel": 1,
      "__RowId": "Npl_Catalog_Season05_Lv69"
    },
    {
      "HowToGet": "Shop",
      "Id": 15070,
      "Order": 15070,
      "Season": 5,
      "TextColor": {
        "A": 1.0,
        "B": 1.0,
        "G": 1.0,
        "R": 1.0
      },
      "UrokoPrice": {
        "BronzeUrokoNum": 0,
        "GoldUrokoNum": 0,
        "SilverUrokoNum": 0
      },
      "UrokoUhlockLevel": 1,
      "__RowId": "Npl_Catalog_Season05_Lv70"
    },
    {
      "HowToGet": "Shop",
      "Id": 15071,
      "Order": 15071,
      "Season": 5,
      "TextColor": {
        "A": 1.0,
        "B": 1.0,
        "G": 1.0,
        "R": 1.0
      },
      "UrokoPrice": {
        "BronzeUrokoNum": 0,
        "GoldUrokoNum": 0,
        "SilverUrokoNum": 0
      },
      "UrokoUhlockLevel": 1,
      "__RowId": "Npl_Catalog_Season05_Lv71"
    },
    {
      "HowToGet": "Shop",
      "Id": 15072,
      "Order": 15072,
      "Season": 5,
      "TextColor": {
        "A": 1.0,
        "B": 1.0,
        "G": 1.0,
        "R": 1.0
      },
      "UrokoPrice": {
        "BronzeUrokoNum": 0,
        "GoldUrokoNum": 0,
        "SilverUrokoNum": 0
      },
      "UrokoUhlockLevel": 1,
      "__RowId": "Npl_Catalog_Season05_Lv72"
    },
    {
      "HowToGet": "Shop",
      "Id": 15073,
      "Order": 15073,
      "Season": 5,
      "TextColor": {
        "A": 1.0,
        "B": 1.0,
        "G": 1.0,
        "R": 1.0
      },
      "UrokoPrice": {
        "BronzeUrokoNum": 0,
        "GoldUrokoNum": 0,
        "SilverUrokoNum": 0
      },
      "UrokoUhlockLevel": 1,
      "__RowId": "Npl_Catalog_Season05_Lv73"
    },
    {
      "HowToGet": "Shop",
      "Id": 15074,
      "Order": 15074,
      "Season": 5,
      "TextColor": {
        "A": 1.0,
        "B": 1.0,
        "G": 1.0,
        "R": 1.0
      },
      "UrokoPrice": {
        "BronzeUrokoNum": 0,
        "GoldUrokoNum": 0,
        "SilverUrokoNum": 0
      },
      "UrokoUhlockLevel": 1,
      "__RowId": "Npl_Catalog_Season05_Lv74"
    },
    {
      "HowToGet": "Shop",
      "Id": 15075,
      "Order": 15075,
      "Season": 5,
      "TextColor": {
        "A": 1.0,
        "B": 1.0,
        "G": 1.0,
        "R": 1.0
      },
      "UrokoPrice": {
        "BronzeUrokoNum": 0,
        "GoldUrokoNum": 0,
        "SilverUrokoNum": 0
      },
      "UrokoUhlockLevel": 1,
      "__RowId": "Npl_Catalog_Season05_Lv75"
    },
    {
      "HowToGet": "Shop",
      "Id": 15076,
      "Order": 15076,
      "Season": 5,
      "TextColor": {
        "A": 1.0,
        "B": 1.0,
        "G": 1.0,
        "R": 1.0
      },
      "UrokoPrice": {
        "BronzeUrokoNum": 0,
        "GoldUrokoNum": 0,
        "SilverUrokoNum": 0
      },
      "UrokoUhlockLevel": 1,
      "__RowId": "Npl_Catalog_Season05_Lv76"
    },
    {
      "HowToGet": "Shop",
      "Id": 15077,
      "Order": 15077,
      "Season": 5,
      "TextColor": {
        "A": 1.0,
        "B": 1.0,
        "G": 1.0,
        "R": 1.0
      },
      "UrokoPrice": {
        "BronzeUrokoNum": 0,
        "GoldUrokoNum": 0,
        "SilverUrokoNum": 0
      },
      "UrokoUhlockLevel": 1,
      "__RowId": "Npl_Catalog_Season05_Lv77"
    },
    {
      "HowToGet": "Shop",
      "Id": 15078,
      "Order": 15078,
      "Season": 5,
      "TextColor": {
        "A": 1.0,
        "B": 1.0,
        "G": 1.0,
        "R": 1.0
      },
      "UrokoPrice": {
        "BronzeUrokoNum": 0,
        "GoldUrokoNum": 0,
        "SilverUrokoNum": 0
      },
      "UrokoUhlockLevel": 1,
      "__RowId": "Npl_Catalog_Season05_Lv78"
    },
    {
      "HowToGet": "Shop",
      "Id": 15079,
      "Order": 15079,
      "Season": 5,
      "TextColor": {
        "A": 1.0,
        "B": 1.0,
        "G": 1.0,
        "R": 1.0
      },
      "UrokoPrice": {
        "BronzeUrokoNum": 0,
        "GoldUrokoNum": 0,
        "SilverUrokoNum": 0
      },
      "UrokoUhlockLevel": 1,
      "__RowId": "Npl_Catalog_Season05_Lv79"
    },
    {
      "HowToGet": "Shop",
      "Id": 15080,
      "Order": 15080,
      "Season": 5,
      "TextColor": {
        "A": 1.0,
        "B": 1.0,
        "G": 1.0,
        "R": 1.0
      },
      "UrokoPrice": {
        "BronzeUrokoNum": 0,
        "GoldUrokoNum": 0,
        "SilverUrokoNum": 0
      },
      "UrokoUhlockLevel": 1,
      "__RowId": "Npl_Catalog_Season05_Lv80"
    },
    {
      "HowToGet": "Shop",
      "Id": 15081,
      "Order": 15081,
      "Season": 5,
      "TextColor": {
        "A": 1.0,
        "B": 0.0,
        "G": 0.0,
        "R": 0.0
      },
      "UrokoPrice": {
        "BronzeUrokoNum": 0,
        "GoldUrokoNum": 0,
        "SilverUrokoNum": 0
      },
      "UrokoUhlockLevel": 1,
      "__RowId": "Npl_Catalog_Season05_Lv81"
    },
    {
      "HowToGet": "Shop",
      "Id": 15082,
      "Order": 15082,
      "Season": 5,
      "TextColor": {
        "A": 1.0,
        "B": 1.0,
        "G": 1.0,
        "R": 1.0
      },
      "UrokoPrice": {
        "BronzeUrokoNum": 0,
        "GoldUrokoNum": 0,
        "SilverUrokoNum": 0
      },
      "UrokoUhlockLevel": 1,
      "__RowId": "Npl_Catalog_Season05_Lv82"
    },
    {
      "HowToGet": "Catalog",
      "Id": 16001,
      "Order": 16001,
      "Season": 6,
      "TextColor": {
        "A": 1.0,
        "B": 0.05490196,
        "G": 0.1490196,
        "R": 0.1607843
      },
      "UrokoPrice": {
        "BronzeUrokoNum": 0,
        "GoldUrokoNum": 0,
        "SilverUrokoNum": 0
      },
      "UrokoUhlockLevel": 1,
      "__RowId": "Npl_Catalog_Season06_Lv01"
    },
    {
      "HowToGet": "Catalog",
      "Id": 16002,
      "Order": 16002,
      "Season": 6,
      "TextColor": {
        "A": 1.0,
        "B": 1.0,
        "G": 1.0,
        "R": 1.0
      },
      "UrokoPrice": {
        "BronzeUrokoNum": 0,
        "GoldUrokoNum": 0,
        "SilverUrokoNum": 0
      },
      "UrokoUhlockLevel": 1,
      "__RowId": "Npl_Catalog_Season06_Lv02"
    },
    {
      "HowToGet": "Catalog",
      "Id": 17001,
      "Order": 17001,
      "Season": 7,
      "TextColor": {
        "A": 1.0,
        "B": 1.0,
        "G": 1.0,
        "R": 1.0
      },
      "UrokoPrice": {
        "BronzeUrokoNum": 0,
        "GoldUrokoNum": 0,
        "SilverUrokoNum": 0
      },
      "UrokoUhlockLevel": 1,
      "__RowId": "Npl_Catalog_Season07_Lv01"
    },
    {
      "HowToGet": "Catalog",
      "Id": 17002,
      "Order": 17002,
      "Season": 7,
      "TextColor": {
        "A": 1.0,
        "B": 1.0,
        "G": 1.0,
        "R": 1.0
      },
      "UrokoPrice": {
        "BronzeUrokoNum": 0,
        "GoldUrokoNum": 0,
        "SilverUrokoNum": 0
      },
      "UrokoUhlockLevel": 1,
      "__RowId": "Npl_Catalog_Season07_Lv02"
    },
    {
      "HowToGet": "Catalog",
      "Id": 18001,
      "Order": 18001,
      "Season": 8,
      "TextColor": {
        "A": 1.0,
        "B": 1.0,
        "G": 1.0,
        "R": 1.0
      },
      "UrokoPrice": {
        "BronzeUrokoNum": 0,
        "GoldUrokoNum": 0,
        "SilverUrokoNum": 0
      },
      "UrokoUhlockLevel": 1,
      "__RowId": "Npl_Catalog_Season08_Lv01"
    },
    {
      "HowToGet": "Catalog",
      "Id": 18002,
      "Order": 18002,
      "Season": 8,
      "TextColor": {
        "A": 1.0,
        "B": 1.0,
        "G": 1.0,
        "R": 1.0
      },
      "UrokoPrice": {
        "BronzeUrokoNum": 0,
        "GoldUrokoNum": 0,
        "SilverUrokoNum": 0
      },
      "UrokoUhlockLevel": 1,
      "__RowId": "Npl_Catalog_Season08_Lv02"
    },
    {
      "HowToGet": "Uroko",
      "Id": 2001,
      "Order": 2001,
      "Season": 1,
      "TextColor": {
        "A": 1.0,
        "B": 1.0,
        "G": 1.0,
        "R": 1.0
      },
      "UrokoPrice": {
        "BronzeUrokoNum": 10,
        "GoldUrokoNum": 0,
        "SilverUrokoNum": 0
      },
      "UrokoUhlockLevel": 1,
      "__RowId": "Npl_Coop_Season01_Lv01"
    },
    {
      "HowToGet": "Uroko",
      "Id": 2002,
      "Order": 2002,
      "Season": 1,
      "TextColor": {
        "A": 1.0,
        "B": 1.0,
        "G": 1.0,
        "R": 1.0
      },
      "UrokoPrice": {
        "BronzeUrokoNum": 100,
        "GoldUrokoNum": 0,
        "SilverUrokoNum": 0
      },
      "UrokoUhlockLevel": 1,
      "__RowId": "Npl_Coop_Season01_Lv02"
    },
    {
      "HowToGet": "Uroko",
      "Id": 2003,
      "Order": 2003,
      "Season": 1,
      "TextColor": {
        "A": 1.0,
        "B": 1.0,
        "G": 1.0,
        "R": 1.0
      },
      "UrokoPrice": {
        "BronzeUrokoNum": 0,
        "GoldUrokoNum": 2,
        "SilverUrokoNum": 0
      },
      "UrokoUhlockLevel": 1,
      "__RowId": "Npl_Coop_Season01_Lv03"
    },
    {
      "HowToGet": "Uroko",
      "Id": 2004,
      "Order": 2004,
      "Season": 1,
      "TextColor": {
        "A": 1.0,
        "B": 1.0,
        "G": 1.0,
        "R": 1.0
      },
      "UrokoPrice": {
        "BronzeUrokoNum": 250,
        "GoldUrokoNum": 0,
        "SilverUrokoNum": 0
      },
      "UrokoUhlockLevel": 2,
      "__RowId": "Npl_Coop_Season01_Lv04"
    },
    {
      "HowToGet": "Uroko",
      "Id": 2005,
      "Order": 2005,
      "Season": 1,
      "TextColor": {
        "A": 1.0,
        "B": 1.0,
        "G": 1.0,
        "R": 1.0
      },
      "UrokoPrice": {
        "BronzeUrokoNum": 250,
        "GoldUrokoNum": 0,
        "SilverUrokoNum": 0
      },
      "UrokoUhlockLevel": 2,
      "__RowId": "Npl_Coop_Season01_Lv05"
    },
    {
      "HowToGet": "Uroko",
      "Id": 2006,
      "Order": 2006,
      "Season": 1,
      "TextColor": {
        "A": 1.0,
        "B": 1.0,
        "G": 1.0,
        "R": 1.0
      },
      "UrokoPrice": {
        "BronzeUrokoNum": 0,
        "GoldUrokoNum": 5,
        "SilverUrokoNum": 0
      },
      "UrokoUhlockLevel": 2,
      "__RowId": "Npl_Coop_Season01_Lv06"
    },
    {
      "HowToGet": "Uroko",
      "Id": 2007,
      "Order": 2007,
      "Season": 1,
      "TextColor": {
        "A": 1.0,
        "B": 1.0,
        "G": 1.0,
        "R": 1.0
      },
      "UrokoPrice": {
        "BronzeUrokoNum": 600,
        "GoldUrokoNum": 0,
        "SilverUrokoNum": 0
      },
      "UrokoUhlockLevel": 3,
      "__RowId": "Npl_Coop_Season01_Lv07"
    },
    {
      "HowToGet": "Uroko",
      "Id": 2008,
      "Order": 2008,
      "Season": 1,
      "TextColor": {
        "A": 1.0,
        "B": 1.0,
        "G": 1.0,
        "R": 1.0
      },
      "UrokoPrice": {
        "BronzeUrokoNum": 600,
        "GoldUrokoNum": 0,
        "SilverUrokoNum": 0
      },
      "UrokoUhlockLevel": 3,
      "__RowId": "Npl_Coop_Season01_Lv08"
    },
    {
      "HowToGet": "Uroko",
      "Id": 2009,
      "Order": 2009,
      "Season": 1,
      "TextColor": {
        "A": 1.0,
        "B": 1.0,
        "G": 1.0,
        "R": 1.0
      },
      "UrokoPrice": {
        "BronzeUrokoNum": 0,
        "GoldUrokoNum": 20,
        "SilverUrokoNum": 0
      },
      "UrokoUhlockLevel": 3,
      "__RowId": "Npl_Coop_Season01_Lv09"
    },
    {
      "HowToGet": "Uroko",
      "Id": 2010,
      "Order": 2010,
      "Season": 1,
      "TextColor": {
        "A": 1.0,
        "B": 1.0,
        "G": 1.0,
        "R": 1.0
      },
      "UrokoPrice": {
        "BronzeUrokoNum": 0,
        "GoldUrokoNum": 0,
        "SilverUrokoNum": 999
      },
      "UrokoUhlockLevel": 3,
      "__RowId": "Npl_Coop_Season01_Lv10"
    },
    {
      "HowToGet": "Uroko",
      "Id": 2101,
      "Order": 2101,
      "Season": 3,
      "TextColor": {
        "A": 1.0,
        "B": 1.0,
        "G": 1.0,
        "R": 1.0
      },
      "UrokoPrice": {
        "BronzeUrokoNum": 60,
        "GoldUrokoNum": 0,
        "SilverUrokoNum": 0
      },
      "UrokoUhlockLevel": 1,
      "__RowId": "Npl_Coop_Season03_Lv01"
    },
    {
      "HowToGet": "Uroko",
      "Id": 2102,
      "Order": 2102,
      "Season": 3,
      "TextColor": {
        "A": 1.0,
        "B": 1.0,
        "G": 1.0,
        "R": 1.0
      },
      "UrokoPrice": {
        "BronzeUrokoNum": 400,
        "GoldUrokoNum": 0,
        "SilverUrokoNum": 0
      },
      "UrokoUhlockLevel": 3,
      "__RowId": "Npl_Coop_Season03_Lv02"
    },
    {
      "HowToGet": "Uroko",
      "Id": 2103,
      "Order": 2103,
      "Season": 3,
      "TextColor": {
        "A": 1.0,
        "B": 0.0,
        "G": 0.02353,
        "R": 0.05882
      },
      "UrokoPrice": {
        "BronzeUrokoNum": 0,
        "GoldUrokoNum": 333,
        "SilverUrokoNum": 0
      },
      "UrokoUhlockLevel": 3,
      "__RowId": "Npl_Coop_Season03_Lv03"
    },
    {
      "HowToGet": "Uroko",
      "Id": 2104,
      "Order": 2104,
      "Season": 3,
      "TextColor": {
        "A": 1.0,
        "B": 1.0,
        "G": 1.0,
        "R": 1.0
      },
      "UrokoPrice": {
        "BronzeUrokoNum": 150,
        "GoldUrokoNum": 0,
        "SilverUrokoNum": 0
      },
      "UrokoUhlockLevel": 2,
      "__RowId": "Npl_Coop_Season03_Lv04"
    },
    {
      "HowToGet": "Uroko",
      "Id": 2201,
      "Order": 2201,
      "Season": 5,
      "TextColor": {
        "A": 1.0,
        "B": 1.0,
        "G": 1.0,
        "R": 1.0
      },
      "UrokoPrice": {
        "BronzeUrokoNum": 150,
        "GoldUrokoNum": 0,
        "SilverUrokoNum": 0
      },
      "UrokoUhlockLevel": 2,
      "__RowId": "Npl_Coop_Season05_Lv01"
    },
    {
      "HowToGet": "Uroko",
      "Id": 2202,
      "Order": 2202,
      "Season": 5,
      "TextColor": {
        "A": 1.0,
        "B": 1.0,
        "G": 1.0,
        "R": 1.0
      },
      "UrokoPrice": {
        "BronzeUrokoNum": 0,
        "GoldUrokoNum": 33,
        "SilverUrokoNum": 0
      },
      "UrokoUhlockLevel": 3,
      "__RowId": "Npl_Coop_Season05_Lv02"
    },
    {
      "HowToGet": "Uroko",
      "Id": 2203,
      "Order": 2203,
      "Season": 5,
      "TextColor": {
        "A": 1.0,
        "B": 1.0,
        "G": 1.0,
        "R": 1.0
      },
      "UrokoPrice": {
        "BronzeUrokoNum": 800,
        "GoldUrokoNum": 0,
        "SilverUrokoNum": 0
      },
      "UrokoUhlockLevel": 3,
      "__RowId": "Npl_Coop_Season05_Lv03"
    },
    {
      "HowToGet": "Uroko",
      "Id": 2204,
      "Order": 2204,
      "Season": 5,
      "TextColor": {
        "A": 1.0,
        "B": 1.0,
        "G": 1.0,
        "R": 1.0
      },
      "UrokoPrice": {
        "BronzeUrokoNum": 250,
        "GoldUrokoNum": 0,
        "SilverUrokoNum": 0
      },
      "UrokoUhlockLevel": 2,
      "__RowId": "Npl_Coop_Season05_Lv04"
    },
    {
      "HowToGet": "Uroko",
      "Id": 2301,
      "Order": 2301,
      "Season": 7,
      "TextColor": {
        "A": 1.0,
        "B": 1.0,
        "G": 1.0,
        "R": 1.0
      },
      "UrokoPrice": {
        "BronzeUrokoNum": 100,
        "GoldUrokoNum": 0,
        "SilverUrokoNum": 0
      },
      "UrokoUhlockLevel": 1,
      "__RowId": "Npl_Coop_Season07_Lv01"
    },
    {
      "HowToGet": "Uroko",
      "Id": 2302,
      "Order": 2302,
      "Season": 7,
      "TextColor": {
        "A": 1.0,
        "B": 1.0,
        "G": 1.0,
        "R": 1.0
      },
      "UrokoPrice": {
        "BronzeUrokoNum": 0,
        "GoldUrokoNum": 5,
        "SilverUrokoNum": 0
      },
      "UrokoUhlockLevel": 2,
      "__RowId": "Npl_Coop_Season07_Lv02"
    },
    {
      "HowToGet": "Uroko",
      "Id": 2303,
      "Order": 2303,
      "Season": 7,
      "TextColor": {
        "A": 1.0,
        "B": 0.0,
        "G": 0.02353,
        "R": 0.05882
      },
      "UrokoPrice": {
        "BronzeUrokoNum": 0,
        "GoldUrokoNum": 333,
        "SilverUrokoNum": 0
      },
      "UrokoUhlockLevel": 3,
      "__RowId": "Npl_Coop_Season07_Lv03"
    },
    {
      "HowToGet": "Uroko",
      "Id": 2304,
      "Order": 2304,
      "Season": 7,
      "TextColor": {
        "A": 1.0,
        "B": 0.0,
        "G": 0.0,
        "R": 0.0
      },
      "UrokoPrice": {
        "BronzeUrokoNum": 800,
        "GoldUrokoNum": 0,
        "SilverUrokoNum": 0
      },
      "UrokoUhlockLevel": 3,
      "__RowId": "Npl_Coop_Season07_Lv04"
    },
    {
      "HowToGet": "Uroko",
      "Id": 2401,
      "Order": 2401,
      "Season": 8,
      "TextColor": {
        "A": 1.0,
        "B": 0.9803922,
        "G": 0.9568627,
        "R": 1.0
      },
      "UrokoPrice": {
        "BronzeUrokoNum": 0,
        "GoldUrokoNum": 5,
        "SilverUrokoNum": 0
      },
      "UrokoUhlockLevel": 2,
      "__RowId": "Npl_Coop_Season08_Lv00"
    },
    {
      "HowToGet": "Uroko",
      "Id": 2402,
      "Order": 2402,
      "Season": 8,
      "TextColor": {
        "A": 1.0,
        "B": 0.1686275,
        "G": 0.1019608,
        "R": 0.1019608
      },
      "UrokoPrice": {
        "BronzeUrokoNum": 100,
        "GoldUrokoNum": 0,
        "SilverUrokoNum": 0
      },
      "UrokoUhlockLevel": 1,
      "__RowId": "Npl_Coop_Season08_Lv01"
    },
    {
      "HowToGet": "Uroko",
      "Id": 2403,
      "Order": 2403,
      "Season": 8,
      "TextColor": {
        "A": 1.0,
        "B": 1.0,
        "G": 1.0,
        "R": 1.0
      },
      "UrokoPrice": {
        "BronzeUrokoNum": 800,
        "GoldUrokoNum": 0,
        "SilverUrokoNum": 0
      },
      "UrokoUhlockLevel": 3,
      "__RowId": "Npl_Coop_Season08_Lv02"
    },
    {
      "HowToGet": "Uroko",
      "Id": 2404,
      "Order": 2404,
      "Season": 8,
      "TextColor": {
        "A": 1.0,
        "B": 0.0,
        "G": 0.02353,
        "R": 0.05882
      },
      "UrokoPrice": {
        "BronzeUrokoNum": 0,
        "GoldUrokoNum": 333,
        "SilverUrokoNum": 0
      },
      "UrokoUhlockLevel": 3,
      "__RowId": "Npl_Coop_Season08_Lv03"
    },
    {
      "HowToGet": "Other",
      "Id": 800,
      "Order": 800,
      "Season": 3,
      "TextColor": {
        "A": 1.0,
        "B": 1.0,
        "G": 1.0,
        "R": 1.0
      },
      "UrokoPrice": {
        "BronzeUrokoNum": 0,
        "GoldUrokoNum": 0,
        "SilverUrokoNum": 0
      },
      "UrokoUhlockLevel": 1,
      "__RowId": "Npl_Fsodr00"
    },
    {
      "HowToGet": "Other",
      "Id": 10001,
      "Order": 10001,
      "Season": 1,
      "TextColor": {
        "A": 1.0,
        "B": 0.0,
        "G": 0.02352941,
        "R": 0.05882353
      },
      "UrokoPrice": {
        "BronzeUrokoNum": 0,
        "GoldUrokoNum": 0,
        "SilverUrokoNum": 0
      },
      "UrokoUhlockLevel": 1,
      "__RowId": "Npl_Lot_Season01_Lv01"
    },
    {
      "HowToGet": "Other",
      "Id": 10002,
      "Order": 10002,
      "Season": 2,
      "TextColor": {
        "A": 1.0,
        "B": 0.0,
        "G": 0.02353,
        "R": 0.05882
      },
      "UrokoPrice": {
        "BronzeUrokoNum": 0,
        "GoldUrokoNum": 0,
        "SilverUrokoNum": 0
      },
      "UrokoUhlockLevel": 1,
      "__RowId": "Npl_Lot_Season02_Lv01"
    },
    {
      "HowToGet": "Other",
      "Id": 10003,
      "Order": 10003,
      "Season": 3,
      "TextColor": {
        "A": 1.0,
        "B": 0.0,
        "G": 0.02353,
        "R": 0.05882
      },
      "UrokoPrice": {
        "BronzeUrokoNum": 0,
        "GoldUrokoNum": 0,
        "SilverUrokoNum": 0
      },
      "UrokoUhlockLevel": 1,
      "__RowId": "Npl_Lot_Season03_Lv01"
    },
    {
      "HowToGet": "Other",
      "Id": 10004,
      "Order": 10004,
      "Season": 4,
      "TextColor": {
        "A": 1.0,
        "B": 0.0,
        "G": 0.02353,
        "R": 0.05882
      },
      "UrokoPrice": {
        "BronzeUrokoNum": 0,
        "GoldUrokoNum": 0,
        "SilverUrokoNum": 0
      },
      "UrokoUhlockLevel": 1,
      "__RowId": "Npl_Lot_Season04_Lv01"
    },
    {
      "HowToGet": "Other",
      "Id": 10005,
      "Order": 10005,
      "Season": 5,
      "TextColor": {
        "A": 1.0,
        "B": 0.0,
        "G": 0.02352941,
        "R": 0.05490196
      },
      "UrokoPrice": {
        "BronzeUrokoNum": 0,
        "GoldUrokoNum": 0,
        "SilverUrokoNum": 0
      },
      "UrokoUhlockLevel": 1,
      "__RowId": "Npl_Lot_Season05_Lv01"
    },
    {
      "HowToGet": "Other",
      "Id": 10006,
      "Order": 10006,
      "Season": 6,
      "TextColor": {
        "A": 1.0,
        "B": 0.0,
        "G": 0.02353,
        "R": 0.05882
      },
      "UrokoPrice": {
        "BronzeUrokoNum": 0,
        "GoldUrokoNum": 0,
        "SilverUrokoNum": 0
      },
      "UrokoUhlockLevel": 1,
      "__RowId": "Npl_Lot_Season06_Lv01"
    },
    {
      "HowToGet": "Other",
      "Id": 10007,
      "Order": 10007,
      "Season": 7,
      "TextColor": {
        "A": 1.0,
        "B": 0.0,
        "G": 0.02352941,
        "R": 0.05490196
      },
      "UrokoPrice": {
        "BronzeUrokoNum": 0,
        "GoldUrokoNum": 0,
        "SilverUrokoNum": 0
      },
      "UrokoUhlockLevel": 1,
      "__RowId": "Npl_Lot_Season07_Lv01"
    },
    {
      "HowToGet": "Other",
      "Id": 10008,
      "Order": 10008,
      "Season": 8,
      "TextColor": {
        "A": 1.0,
        "B": 0.0,
        "G": 0.02352941,
        "R": 0.05490196
      },
      "UrokoPrice": {
        "BronzeUrokoNum": 0,
        "GoldUrokoNum": 0,
        "SilverUrokoNum": 0
      },
      "UrokoUhlockLevel": 1,
      "__RowId": "Npl_Lot_Season08_Lv01"
    },
    {
      "HowToGet": "Other",
      "Id": 1001,
      "Order": 1001,
      "Season": 1,
      "TextColor": {
        "A": 1.0,
        "B": 1.0,
        "G": 1.0,
        "R": 1.0
      },
      "UrokoPrice": {
        "BronzeUrokoNum": 0,
        "GoldUrokoNum": 0,
        "SilverUrokoNum": 0
      },
      "UrokoUhlockLevel": 1,
      "__RowId": "Npl_Mng_Lv01"
    },
    {
      "HowToGet": "Other",
      "Id": 1002,
      "Order": 1002,
      "Season": 1,
      "TextColor": {
        "A": 1.0,
        "B": 1.0,
        "G": 1.0,
        "R": 1.0
      },
      "UrokoPrice": {
        "BronzeUrokoNum": 0,
        "GoldUrokoNum": 0,
        "SilverUrokoNum": 0
      },
      "UrokoUhlockLevel": 1,
      "__RowId": "Npl_Mng_Lv02"
    },
    {
      "HowToGet": "Other",
      "Id": 1003,
      "Order": 1003,
      "Season": 1,
      "TextColor": {
        "A": 1.0,
        "B": 1.0,
        "G": 1.0,
        "R": 1.0
      },
      "UrokoPrice": {
        "BronzeUrokoNum": 0,
        "GoldUrokoNum": 0,
        "SilverUrokoNum": 0
      },
      "UrokoUhlockLevel": 1,
      "__RowId": "Npl_Mng_Lv03"
    },
    {
      "HowToGet": "Other",
      "Id": 951,
      "Order": 951,
      "Season": 5,
      "TextColor": {
        "A": 1.0,
        "B": 1.0,
        "G": 1.0,
        "R": 1.0
      },
      "UrokoPrice": {
        "BronzeUrokoNum": 0,
        "GoldUrokoNum": 0,
        "SilverUrokoNum": 0
      },
      "UrokoUhlockLevel": 1,
      "__RowId": "Npl_News_Season05_Lv01"
    },
    {
      "HowToGet": "Other",
      "Id": 952,
      "Order": 952,
      "Season": 5,
      "TextColor": {
        "A": 1.0,
        "B": 1.0,
        "G": 1.0,
        "R": 1.0
      },
      "UrokoPrice": {
        "BronzeUrokoNum": 0,
        "GoldUrokoNum": 0,
        "SilverUrokoNum": 0
      },
      "UrokoUhlockLevel": 1,
      "__RowId": "Npl_News_Season05_Lv02"
    },
    {
      "HowToGet": "Other",
      "Id": 953,
      "Order": 953,
      "Season": 5,
      "TextColor": {
        "A": 1.0,
        "B": 1.0,
        "G": 1.0,
        "R": 1.0
      },
      "UrokoPrice": {
        "BronzeUrokoNum": 0,
        "GoldUrokoNum": 0,
        "SilverUrokoNum": 0
      },
      "UrokoUhlockLevel": 1,
      "__RowId": "Npl_News_Season05_Lv03"
    },
    {
      "HowToGet": "Other",
      "Id": 954,
      "Order": 954,
      "Season": -1,
      "TextColor": {
        "A": 1.0,
        "B": 0.01991784,
        "G": 0.08464152,
        "R": 0.9075472
      },
      "UrokoPrice": {
        "BronzeUrokoNum": 0,
        "GoldUrokoNum": 0,
        "SilverUrokoNum": 0
      },
      "UrokoUhlockLevel": 1,
      "__RowId": "Npl_News_Season05_Lv04"
    },
    {
      "HowToGet": "Other",
      "Id": 961,
      "Order": 961,
      "Season": 6,
      "TextColor": {
        "A": 1.0,
        "B": 0.3843137,
        "G": 0.07450981,
        "R": 0.0
      },
      "UrokoPrice": {
        "BronzeUrokoNum": 0,
        "GoldUrokoNum": 0,
        "SilverUrokoNum": 0
      },
      "UrokoUhlockLevel": 1,
      "__RowId": "Npl_News_Season06_Lv01"
    },
    {
      "HowToGet": "Other",
      "Id": 971,
      "Order": 971,
      "Season": 7,
      "TextColor": {
        "A": 1.0,
        "B": 0.1176471,
        "G": 0.007843138,
        "R": 0.1490196
      },
      "UrokoPrice": {
        "BronzeUrokoNum": 0,
        "GoldUrokoNum": 0,
        "SilverUrokoNum": 0
      },
      "UrokoUhlockLevel": 1,
      "__RowId": "Npl_News_Season07_Lv01"
    },
    {
      "HowToGet": "Other",
      "Id": 972,
      "Order": 972,
      "Season": 8,
      "TextColor": {
        "A": 1.0,
        "B": 1.0,
        "G": 1.0,
        "R": 1.0
      },
      "UrokoPrice": {
        "BronzeUrokoNum": 0,
        "GoldUrokoNum": 0,
        "SilverUrokoNum": 0
      },
      "UrokoUhlockLevel": 1,
      "__RowId": "Npl_News_Season07_Lv02"
    },
    {
      "HowToGet": "Other",
      "Id": 981,
      "Order": 981,
      "Season": 8,
      "TextColor": {
        "A": 1.0,
        "B": 0.007155037,
        "G": 0.9743002,
        "R": 1.0
      },
      "UrokoPrice": {
        "BronzeUrokoNum": 0,
        "GoldUrokoNum": 0,
        "SilverUrokoNum": 0
      },
      "UrokoUhlockLevel": 1,
      "__RowId": "Npl_News_Season08_Lv01"
    },
    {
      "HowToGet": "Other",
      "Id": 991,
      "Order": 991,
      "Season": 9,
      "TextColor": {
        "A": 1.0,
        "B": 1.0,
        "G": 1.0,
        "R": 1.0
      },
      "UrokoPrice": {
        "BronzeUrokoNum": 0,
        "GoldUrokoNum": 0,
        "SilverUrokoNum": 0
      },
      "UrokoUhlockLevel": 1,
      "__RowId": "Npl_News_Season09_Lv01"
    },
    {
      "HowToGet": "Other",
      "Id": 992,
      "Order": 992,
      "Season": 9,
      "TextColor": {
        "A": 1.0,
        "B": 1.0,
        "G": 1.0,
        "R": 1.0
      },
      "UrokoPrice": {
        "BronzeUrokoNum": 0,
        "GoldUrokoNum": 0,
        "SilverUrokoNum": 0
      },
      "UrokoUhlockLevel": 1,
      "__RowId": "Npl_News_Season09_Lv02"
    },
    {
      "HowToGet": "Other",
      "Id": 993,
      "Order": 993,
      "Season": 9,
      "TextColor": {
        "A": 1.0,
        "B": 1.0,
        "G": 1.0,
        "R": 1.0
      },
      "UrokoPrice": {
        "BronzeUrokoNum": 0,
        "GoldUrokoNum": 0,
        "SilverUrokoNum": 0
      },
      "UrokoUhlockLevel": 1,
      "__RowId": "Npl_News_Season09_Lv03"
    },
    {
      "HowToGet": "Other",
      "Id": 810,
      "Order": 810,
      "Season": -1,
      "TextColor": {
        "A": 1.0,
        "B": 1.0,
        "G": 1.0,
        "R": 1.0
      },
      "UrokoPrice": {
        "BronzeUrokoNum": 0,
        "GoldUrokoNum": 0,
        "SilverUrokoNum": 0
      },
      "UrokoUhlockLevel": 1,
      "__RowId": "Npl_Sdodr00"
    },
    {
      "HowToGet": "Other",
      "Id": 851,
      "Order": 851,
      "Season": -1,
      "TextColor": {
        "A": 1.0,
        "B": 0.07059,
        "G": 0.07059,
        "R": 0.0902
      },
      "UrokoPrice": {
        "BronzeUrokoNum": 0,
        "GoldUrokoNum": 0,
        "SilverUrokoNum": 0
      },
      "UrokoUhlockLevel": 1,
      "__RowId": "Npl_Sdodr_Locker_Lv01"
    },
    {
      "HowToGet": "Other",
      "Id": 852,
      "Order": 852,
      "Season": -1,
      "TextColor": {
        "A": 1.0,
        "B": 1.0,
        "G": 1.0,
        "R": 1.0
      },
      "UrokoPrice": {
        "BronzeUrokoNum": 0,
        "GoldUrokoNum": 0,
        "SilverUrokoNum": 0
      },
      "UrokoUhlockLevel": 1,
      "__RowId": "Npl_Sdodr_Locker_Lv02"
    },
    {
      "HowToGet": "Other",
      "Id": 853,
      "Order": 853,
      "Season": -1,
      "TextColor": {
        "A": 1.0,
        "B": 0.01176471,
        "G": 0.01568628,
        "R": 0.01176471
      },
      "UrokoPrice": {
        "BronzeUrokoNum": 0,
        "GoldUrokoNum": 0,
        "SilverUrokoNum": 0
      },
      "UrokoUhlockLevel": 1,
      "__RowId": "Npl_Sdodr_Locker_Lv03"
    },
    {
      "HowToGet": "Other",
      "Id": 861,
      "Order": 861,
      "Season": -1,
      "TextColor": {
        "A": 1.0,
        "B": 0.02352941,
        "G": 0.02352941,
        "R": 0.03529412
      },
      "UrokoPrice": {
        "BronzeUrokoNum": 0,
        "GoldUrokoNum": 0,
        "SilverUrokoNum": 0
      },
      "UrokoUhlockLevel": 1,
      "__RowId": "Npl_Sdodr_Shop_Lv01"
    },
    {
      "HowToGet": "Other",
      "Id": 862,
      "Order": 862,
      "Season": -1,
      "TextColor": {
        "A": 1.0,
        "B": 0.9607843,
        "G": 0.96078,
        "R": 1.0
      },
      "UrokoPrice": {
        "BronzeUrokoNum": 0,
        "GoldUrokoNum": 0,
        "SilverUrokoNum": 0
      },
      "UrokoUhlockLevel": 1,
      "__RowId": "Npl_Sdodr_Shop_Lv02"
    },
    {
      "HowToGet": "Other",
      "Id": 863,
      "Order": 863,
      "Season": -1,
      "TextColor": {
        "A": 1.0,
        "B": 0.07059,
        "G": 0.07059,
        "R": 0.0902
      },
      "UrokoPrice": {
        "BronzeUrokoNum": 0,
        "GoldUrokoNum": 0,
        "SilverUrokoNum": 0
      },
      "UrokoUhlockLevel": 1,
      "__RowId": "Npl_Sdodr_Shop_Lv03"
    },
    {
      "HowToGet": "Other",
      "Id": 864,
      "Order": 864,
      "Season": -1,
      "TextColor": {
        "A": 1.0,
        "B": 0.07059,
        "G": 0.07059,
        "R": 0.0902
      },
      "UrokoPrice": {
        "BronzeUrokoNum": 0,
        "GoldUrokoNum": 0,
        "SilverUrokoNum": 0
      },
      "UrokoUhlockLevel": 1,
      "__RowId": "Npl_Sdodr_Shop_Lv04"
    },
    {
      "HowToGet": "Other",
      "Id": 901,
      "Order": 901,
      "Season": 1,
      "TextColor": {
        "A": 1.0,
        "B": 1.0,
        "G": 1.0,
        "R": 1.0
      },
      "UrokoPrice": {
        "BronzeUrokoNum": 0,
        "GoldUrokoNum": 0,
        "SilverUrokoNum": 0
      },
      "UrokoUhlockLevel": 1,
      "__RowId": "Npl_Trg_Season01_Lv01"
    },
    {
      "HowToGet": "Other",
      "Id": 902,
      "Order": 902,
      "Season": 1,
      "TextColor": {
        "A": 1.0,
        "B": 1.0,
        "G": 1.0,
        "R": 1.0
      },
      "UrokoPrice": {
        "BronzeUrokoNum": 0,
        "GoldUrokoNum": 0,
        "SilverUrokoNum": 0
      },
      "UrokoUhlockLevel": 1,
      "__RowId": "Npl_Trg_Season01_Lv02"
    },
    {
      "HowToGet": "Other",
      "Id": 911,
      "Order": 911,
      "Season": 1,
      "TextColor": {
        "A": 1.0,
        "B": 1.0,
        "G": 1.0,
        "R": 1.0
      },
      "UrokoPrice": {
        "BronzeUrokoNum": 0,
        "GoldUrokoNum": 0,
        "SilverUrokoNum": 0
      },
      "UrokoUhlockLevel": 1,
      "__RowId": "Npl_Trg_Season03_Lv01"
    },
    {
      "HowToGet": "Other",
      "Id": 912,
      "Order": 912,
      "Season": 1,
      "TextColor": {
        "A": 1.0,
        "B": 1.0,
        "G": 1.0,
        "R": 1.0
      },
      "UrokoPrice": {
        "BronzeUrokoNum": 0,
        "GoldUrokoNum": 0,
        "SilverUrokoNum": 0
      },
      "UrokoUhlockLevel": 1,
      "__RowId": "Npl_Trg_Season03_Lv02"
    },
    {
      "HowToGet": "Other",
      "Id": 921,
      "Order": 921,
      "Season": 5,
      "TextColor": {
        "A": 1.0,
        "B": 1.0,
        "G": 1.0,
        "R": 1.0
      },
      "UrokoPrice": {
        "BronzeUrokoNum": 0,
        "GoldUrokoNum": 0,
        "SilverUrokoNum": 0
      },
      "UrokoUhlockLevel": 1,
      "__RowId": "Npl_Trg_Season05_Lv01"
    },
    {
      "HowToGet": "Other",
      "Id": 922,
      "Order": 922,
      "Season": 5,
      "TextColor": {
        "A": 1.0,
        "B": 1.0,
        "G": 1.0,
        "R": 1.0
      },
      "UrokoPrice": {
        "BronzeUrokoNum": 0,
        "GoldUrokoNum": 0,
        "SilverUrokoNum": 0
      },
      "UrokoUhlockLevel": 1,
      "__RowId": "Npl_Trg_Season05_Lv02"
    },
    {
      "HowToGet": "Other",
      "Id": 923,
      "Order": 923,
      "Season": -1,
      "TextColor": {
        "A": 1.0,
        "B": 1.0,
        "G": 1.0,
        "R": 1.0
      },
      "UrokoPrice": {
        "BronzeUrokoNum": 0,
        "GoldUrokoNum": 0,
        "SilverUrokoNum": 0
      },
      "UrokoUhlockLevel": 1,
      "__RowId": "Npl_Trg_Season05_Lv03"
    },
    {
      "HowToGet": "Other",
      "Id": 924,
      "Order": 924,
      "Season": -1,
      "TextColor": {
        "A": 1.0,
        "B": 0.3215686,
        "G": 0.1294118,
        "R": 0.04705882
      },
      "UrokoPrice": {
        "BronzeUrokoNum": 0,
        "GoldUrokoNum": 0,
        "SilverUrokoNum": 0
      },
      "UrokoUhlockLevel": 1,
      "__RowId": "Npl_Trg_Season05_Lv04"
    },
    {
      "HowToGet": "Other",
      "Id": 931,
      "Order": 931,
      "Season": 6,
      "TextColor": {
        "A": 1.0,
        "B": 1.0,
        "G": 1.0,
        "R": 1.0
      },
      "UrokoPrice": {
        "BronzeUrokoNum": 0,
        "GoldUrokoNum": 0,
        "SilverUrokoNum": 0
      },
      "UrokoUhlockLevel": 1,
      "__RowId": "Npl_Trg_Season06_Lv01"
    },
    {
      "HowToGet": "Other",
      "Id": 936,
      "Order": 936,
      "Season": 7,
      "TextColor": {
        "A": 1.0,
        "B": 1.0,
        "G": 1.0,
        "R": 1.0
      },
      "UrokoPrice": {
        "BronzeUrokoNum": 0,
        "GoldUrokoNum": 0,
        "SilverUrokoNum": 0
      },
      "UrokoUhlockLevel": 1,
      "__RowId": "Npl_Trg_Season07_Lv01"
    },
    {
      "HowToGet": "Other",
      "Id": 937,
      "Order": 937,
      "Season": -1,
      "TextColor": {
        "A": 1.0,
        "B": 1.0,
        "G": 1.0,
        "R": 1.0
      },
      "UrokoPrice": {
        "BronzeUrokoNum": 0,
        "GoldUrokoNum": 0,
        "SilverUrokoNum": 0
      },
      "UrokoUhlockLevel": 1,
      "__RowId": "Npl_Trg_Season08_Lv01"
    },
    {
      "HowToGet": "Other",
      "Id": 1,
      "Order": 1,
      "Season": 0,
      "TextColor": {
        "A": 1.0,
        "B": 1.0,
        "G": 1.0,
        "R": 1.0
      },
      "UrokoPrice": {
        "BronzeUrokoNum": 0,
        "GoldUrokoNum": 0,
        "SilverUrokoNum": 0
      },
      "UrokoUhlockLevel": 1,
      "__RowId": "Npl_Tutorial00"
    }
  ]
}