{
  "version": 7,
  "rootNode": [
    {
      "Tables": ["Work/XLink/PropertyTableParam/Global.engine__xlink__PropertyTableParam.gyml","Work/XLink/PropertyTableParam/Sdodr.engine__xlink__PropertyTableParam.gyml"],
      "__RowId": "Work/XLink/PropertyTableListParam/Global.engine__xlink__PropertyTableListParam.gyml"
    }
  ]
}