[
  {
    "label": "RewardWeapon_00",
    "text": "{{string value=\"WeaponName\" arg1=\"0\" arg3=\"0\"}}!"
  },
  {
    "label": "RewardWeapon_01",
    "text": "Puoi recuperare l'arma al {{color id=\"1\"}}terminale della lobby{{color id=\"65535\"}}\ne usarla nelle sfide multigiocatore!"
  },
  {
    "label": "RewardGear_Head_00",
    "text": "{{string value=\"ClothingName\" arg1=\"0\" arg3=\"0\"}}!"
  },
  {
    "label": "RewardGear_Head_01",
    "text": "Puoi recuperare l'accessorio al {{color id=\"1\"}}terminale della lobby{{color id=\"65535\"}}\ne usarlo nelle sfide multigiocatore!"
  },
  {
    "label": "RewardGear_Clothes_00",
    "text": "{{string value=\"ClothingName\" arg1=\"0\" arg3=\"0\"}}!"
  },
  {
    "label": "RewardGear_Clothes_01",
    "text": "Puoi recuperare il capo al {{color id=\"1\"}}terminale della lobby{{color id=\"65535\"}}\ne usarlo nelle sfide multigiocatore!"
  },
  {
    "label": "RewardGear_Shoes_00",
    "text": "{{string value=\"ClothingName\" arg1=\"0\" arg3=\"0\"}}!"
  },
  {
    "label": "RewardGear_Shoes_01",
    "text": "Puoi recuperare le calzature al {{color id=\"1\"}}terminale della lobby{{color id=\"65535\"}}\ne usarle nelle sfide multigiocatore!"
  },
  {
    "label": "RewardEmote_00",
    "text": "Hai ottenuto una posa!"
  },
  {
    "label": "RewardEmote_01",
    "text": "Puoi recuperarla al {{color id=\"1\"}}terminale della lobby{{color id=\"65535\"}}\ne usare il menu Spogliatoio {{icon id=\"5\" arg=\"0xAE47613F00000000\"}} per attivarla!"
  },
  {
    "label": "RewardLockerFigure_00",
    "text": "Hai ottenuto una decorazione!"
  },
  {
    "label": "RewardLockerFigure_Plural_00",
    "text": "Hai ottenuto delle decorazioni!"
  },
  {
    "label": "RewardLockerFigure_01",
    "text": "Puoi recuperarla al {{color id=\"1\"}}terminale della lobby{{color id=\"65535\"}}\ne usarla per abbellire il tuo armadietto!"
  },
  {
    "label": "RewardLockerSticker_00",
    "text": "Hai ottenuto un adesivo!"
  },
  {
    "label": "RewardLockerSticker_Plural_00",
    "text": "Hai ottenuto degli adesivi!"
  },
  {
    "label": "RewardLockerSticker_01",
    "text": "Puoi recuperarlo al {{color id=\"1\"}}terminale della lobby{{color id=\"65535\"}}\ne usarlo per abbellire il tuo armadietto!"
  },
  {
    "label": "RewardMiniGameCardPack_00",
    "text": "Hai ottenuto una bustina di carte!"
  },
  {
    "label": "RewardMiniGameCardPack_01",
    "text": "Puoi recuperarla al {{color id=\"1\"}}terminale della lobby{{color id=\"65535\"}}\ne usarla per giocare a Splattanza!"
  },
  {
    "label": "RewardMiniGameCardPackFresh_00",
    "text": "Hai ottenuto una bustina mitica!"
  },
  {
    "label": "RewardMiniGameCardPackFresh_01",
    "text": "Puoi recuperarla al {{color id=\"1\"}}terminale della lobby{{color id=\"65535\"}}.\nPotrebbe contenere delle carte molto preziose!"
  },
  {
    "label": "RewardMiniGameSleeve_00",
    "text": "Hai ottenuto degli stili per carte!"
  },
  {
    "label": "RewardMiniGameSleeve_01",
    "text": "Puoi recuperarli al {{color id=\"1\"}}terminale della lobby{{color id=\"65535\"}}.\nPer usarli, seleziona {{color id=\"1\"}}Carte {{color id=\"65535\"}}> Modifica mazzo."
  },
  {
    "label": "RewardNamePlateBg_00",
    "text": "Hai ottenuto uno sfondo!"
  },
  {
    "label": "RewardNamePlateBg_01",
    "text": "Puoi recuperarlo al {{color id=\"1\"}}terminale della lobby{{color id=\"65535\"}}\ne usarlo per personalizzare la tua splattarghetta!"
  },
  {
    "label": "RewardByname_00",
    "text": "Hai ottenuto un nuovo titolo!"
  },
  {
    "label": "RewardByname_01",
    "text": "Puoi recuperarlo al {{color id=\"1\"}}terminale della lobby{{color id=\"65535\"}}\ne usarlo per personalizzare la tua splattarghetta!"
  },
  {
    "label": "RewardFoodTicket_00",
    "text": "Hai ottenuto un coupon cibo!"
  },
  {
    "label": "RewardFoodTicket_01",
    "text": "Puoi recuperarlo al {{color id=\"1\"}}terminale della lobby{{color id=\"65535\"}}\ne usarlo per qualcosa di goloso!"
  },
  {
    "label": "RewardDrinkTicket_00",
    "text": "Hai ottenuto un coupon bevanda!"
  },
  {
    "label": "RewardDrinkTicket_01",
    "text": "Puoi recuperarlo al {{color id=\"1\"}}terminale della lobby{{color id=\"65535\"}}\ne usarlo per qualcosa di rinfrescante!"
  },
  {
    "label": "RewardGearSkillChip_00",
    "text": "Hai ottenuto frammenti di abilità!"
  },
  {
    "label": "RewardMiniGameCardPiece_00",
    "text": "Hai ottenuto frammenti di carte!"
  },
  {
    "label": "RewardMiniGameCardPiece_01",
    "text": "Puoi recuperarli al {{color id=\"1\"}}terminale della lobby{{color id=\"65535\"}}\ne usarli selezionando l'opzione {{color id=\"1\"}}Carte{{color id=\"65535\"}}!"
  },
  {
    "label": "Gear_Head_00",
    "text": "{{string value=\"ClothingName\" arg1=\"0\" arg3=\"0\"}}!"
  },
  {
    "label": "Gear_Head_01",
    "text": "Ora sfoggia il tuo look in una partita multigiocatore!"
  },
  {
    "label": "Gear_Clothes_00",
    "text": "{{string value=\"ClothingName\" arg1=\"0\" arg3=\"0\"}}!"
  },
  {
    "label": "Gear_Clothes_01",
    "text": "Ora sfoggia il tuo look in una partita multigiocatore!"
  },
  {
    "label": "Gear_Shoes_00",
    "text": "{{string value=\"ClothingName\" arg1=\"0\" arg3=\"0\"}}!"
  },
  {
    "label": "Gear_Shoes_01",
    "text": "Ora sfoggia il tuo look in una partita multigiocatore!"
  },
  {
    "label": "LockerFigure_00",
    "text": "Hai ottenuto una decorazione!"
  },
  {
    "label": "LockerFigure_Bronze_00",
    "text": "Decorazione di bronzo ottenuta!"
  },
  {
    "label": "LockerFigure_Silver_00",
    "text": "Decorazione d'argento ottenuta!"
  },
  {
    "label": "LockerFigure_Gold_00",
    "text": "Decorazione d'oro ottenuta!"
  },
  {
    "label": "LockerFigure_Plural_00",
    "text": "Hai ottenuto delle decorazioni!"
  },
  {
    "label": "LockerFigure_01",
    "text": "È ora di ravvivare il tuo armadietto!"
  },
  {
    "label": "LockerSticker_00",
    "text": "Hai ottenuto un adesivo!"
  },
  {
    "label": "LockerSticker_Bronze_00",
    "text": "Adesivo di bronzo ottenuto!"
  },
  {
    "label": "LockerSticker_Silver_00",
    "text": "Adesivo d'argento ottenuto!"
  },
  {
    "label": "LockerSticker_Gold_00",
    "text": "Adesivo d'oro ottenuto!"
  },
  {
    "label": "LockerSticker_Plural_00",
    "text": "Hai ottenuto degli adesivi!"
  },
  {
    "label": "LockerSticker_01",
    "text": "È ora di ravvivare il tuo armadietto!"
  },
  {
    "label": "FoodTicket_00",
    "text": "Hai ottenuto un coupon cibo!"
  },
  {
    "label": "FoodTicket_Plural_00",
    "text": "Hai ottenuto dei coupon cibo!"
  },
  {
    "label": "FoodTicket_01",
    "text": "È ora di mangiare qualcosa al chiosco della lobby!"
  },
  {
    "label": "DrinkTicket_00",
    "text": "Hai ottenuto un coupon bevanda!"
  },
  {
    "label": "DrinkTicket_Plural_00",
    "text": "Hai ottenuto dei coupon bevanda!"
  },
  {
    "label": "DrinkTicket_01",
    "text": "È ora di bere qualcosa al chiosco della lobby!"
  },
  {
    "label": "NamePlateBg_00",
    "text": "Hai ottenuto uno sfondo!"
  },
  {
    "label": "NamePlateBg_01",
    "text": "Usalo per personalizzare la tua splattarghetta!"
  },
  {
    "label": "Byname_00",
    "text": "Hai ottenuto un nuovo titolo!"
  },
  {
    "label": "Byname_01",
    "text": "Usalo per personalizzare la tua splattarghetta!"
  },
  {
    "label": "CardPack_00",
    "text": "Hai ottenuto una bustina di carte!"
  },
  {
    "label": "CardPack_01",
    "text": "Usala per giocare a Splattanza!"
  },
  {
    "label": "CardPackFresh_00",
    "text": "Hai ottenuto una bustina mitica!"
  },
  {
    "label": "CardPackFresh_01",
    "text": "Usala per giocare a Splattanza!"
  },
  {
    "label": "CardSleeve_00",
    "text": "Hai ottenuto degli stili per carte!"
  },
  {
    "label": "CardSleeve_01",
    "text": "Per usarli, seleziona {{color id=\"1\"}}Carte {{color id=\"65535\"}}> Modifica mazzo."
  },
  {
    "label": "Emote_00",
    "text": "Hai ottenuto una posa!"
  },
  {
    "label": "Emote_01",
    "text": "Puoi cambiare le pose nel menu Spogliatoio {{icon id=\"5\" arg=\"0xAE47613F00000000\"}}!"
  },
  {
    "label": "GearSkillChip_00",
    "text": "Frammenti di abilità ottenuti!"
  },
  {
    "label": "GearSkillChip_01",
    "text": "Vai da Echino in piazza. Ne vale la pena!"
  },
  {
    "label": "Money_00",
    "text": "Denaro ottenuto!"
  },
  {
    "label": "Shell_Fes_00",
    "text": "Super molluschi!"
  },
  {
    "label": "Shell_Fes_01",
    "text": "Hai restituito la t-shirt festival e le conchiglie."
  },
  {
    "label": "StarterDeck_00",
    "text": "Hai ottenuto un mazzo iniziale!"
  },
  {
    "label": "StarterDeck_01",
    "text": "Ora puoi giocare a {{color id=\"1\"}}Splattanza{{color id=\"65535\"}}! Colleziona carte,\nforma il tuo mazzo e diventa una leggenda del gioco!"
  },
  {
    "label": "Catalog1st_00",
    "text": "Hai ottenuto un catalogo!"
  },
  {
    "label": "Catalog1st_01",
    "text": "Ottieni punti catalogo in battaglia o durante i turni\ndi lavoro per mettere i tentacoli su articoli unici!"
  },
  {
    "label": "Catalog_00",
    "text": "Catalogo ottenuto (totale: {{number index=\"0\" type=\"4\" arg3=\"0\" arg4=\"0\"}})!"
  },
  {
    "label": "Catalog_01",
    "text": "Ottieni punti catalogo in battaglia o durante i turni\ndi lavoro per mettere i tentacoli su articoli unici!"
  },
  {
    "label": "NextSeasonCatalog_00",
    "text": "Nuovo catalogo ottenuto!"
  },
  {
    "label": "NextSeasonCatalog_01",
    "text": "Il tuo vecchio catalogo è stato riciclato."
  },
  {
    "label": "WeaponLicense_00",
    "text": "Licenze di Armand: {{number index=\"0\" type=\"2\" arg3=\"0\" arg4=\"0\"}}!"
  },
  {
    "label": "WeaponLicense_01",
    "text": "Portale all'Antica Armeria per ottenere nuove armi!"
  },
  {
    "label": "GoldWeaponLicense_00",
    "text": "Licenze d'oro di Armand: {{number index=\"0\" type=\"2\" arg3=\"0\" arg4=\"0\"}}!"
  },
  {
    "label": "GoldWeaponLicense_01",
    "text": "Portale all'Antica armeria per ottenere nuove armi!"
  },
  {
    "label": "BankaraMatchUnlock_00",
    "text": "Partite anarchiche sbloccate!"
  },
  {
    "label": "BankaraMatchUnlock_01",
    "text": "Usa il bollibattaglie per partecipare a una partita!"
  },
  {
    "label": "XMatchUnlock_00",
    "text": "Hai sbloccato le partite X!"
  },
  {
    "label": "XMatchUnlock_01",
    "text": "Raggiungi il bollibattaglie e provane una!"
  },
  {
    "label": "LockerPhotoFrame_00",
    "text": "Hai ottenuto una cornice!"
  },
  {
    "label": "LockerPhotoFrame_01",
    "text": "Ora puoi mettere in mostra la tua foto preferita!"
  },
  {
    "label": "RankInReward_00",
    "text": "Gran bella posizione!"
  },
  {
    "label": "LeagueMatchUnlock_00",
    "text": "Partite evento disponibili!"
  },
  {
    "label": "LeagueMatchUnlock_01",
    "text": "Per vedere quando è disponibile una partita evento,\nvai nel menu principale ({{icon id=\"2\" arg=\"0x0000803F00000000\"}}) e seleziona Scenari!"
  },
  {
    "label": "CoopThanksUroko_00",
    "text": "Hai ottenuto squame di pesce!"
  },
  {
    "label": "CoopThanksUroko_01",
    "text": "Scambiale per delle ricompense alla Ursus & Co!"
  },
  {
    "label": "MsnWeaponBufDocument_00",
    "text": "Hai ottenuto un sardinium!"
  },
  {
    "label": "MsnWeaponBufDocument_01",
    "text": "Puoi usarlo per potenziare il tuo equipaggiamento\nélite! Premi {{icon id=\"2\" arg=\"0x0000803F00000000\"}} per aprire il relativo menu."
  },
  {
    "label": "MsnGoldDisk_00",
    "text": "Hai ottenuto un disco d'oro!"
  },
  {
    "label": "MsnGoldDisk_01",
    "text": "Ora le melodie da queste parti saranno ancora\npiù intriganti. Drizza le orecchie!"
  },
  {
    "label": "MsnExStageChallengeRight_00",
    "text": "È apparso un bollitore occulto!"
  },
  {
    "label": "MsnExStageChallengeRight_01",
    "text": "Trovalo e scopri dove porta..."
  },
  {
    "label": "MngCharaUnlock_00",
    "text": "Nuovo sfidante al tavolo!"
  },
  {
    "label": "MngCharaUnlock_01",
    "text": "Ora puoi sfidare {{string value=\"TableturfOpponent\" arg1=\"0\" arg3=\"0\"}}\na Splattanza!"
  },
  {
    "label": "MngCharaLevelUnlock_00",
    "text": "Il tuo sfidante è migliorato!"
  },
  {
    "label": "MngCharaLevelUnlock_01",
    "text": "{{string value=\"TableturfOpponent\" arg1=\"0\" arg3=\"0\"}} è al livello {{number index=\"1\" type=\"1\" arg3=\"0\" arg4=\"0\"}}\ne non vede l'ora di sfidarti a Splattanza!"
  },
  {
    "label": "MngStageUnlock_00",
    "text": "Nuovo scenario sbloccato!"
  },
  {
    "label": "MngStageUnlock_01",
    "text": "Lo scenario {{string value=\"TableturfStage\" arg1=\"0\" arg3=\"0\"}} è ora\ndisponibile quando giochi a Splattanza!"
  },
  {
    "label": "Page_WeaponLevel",
    "text": "Competenza aumentata!"
  },
  {
    "label": "Page_Udemae",
    "text": "Rango +"
  },
  {
    "label": "Page_MissionPlacement",
    "text": "Proveniente da Alterna!"
  },
  {
    "label": "Page_MissionAncientDocument",
    "text": "Adesivo di un documento ottenuto!"
  },
  {
    "label": "Page_MissionAncientDocument_Plu",
    "text": "Adesivi di documenti ottenuti!"
  },
  {
    "label": "Page_MissionKebaInkClear",
    "text": "Esplorazione terminata!"
  },
  {
    "label": "Page_MissionStoryClear",
    "text": "Modalità storia completata!"
  },
  {
    "label": "Page_MissionComplete",
    "text": "Bollitore occulto trovato e completato!"
  },
  {
    "label": "Page_MissionDrone",
    "text": "Trovato dall'armandrone!"
  },
  {
    "label": "Page_MiniGameRank",
    "text": "Ricompensa di Splattanza!"
  },
  {
    "label": "Page_Trigger",
    "text": "Un regalo da SplatNet 3!"
  },
  {
    "label": "Page_Trigger_Plu",
    "text": "Dei regali da SplatNet 3!"
  },
  {
    "label": "Page_GameNews",
    "text": "Ricevuto qualcosa dalle notizie!"
  },
  {
    "label": "Page_CatalogLevel",
    "text": "Livello catalogo +"
  },
  {
    "label": "Page_SeasonReset",
    "text": "Ricompense non ancora ricevute!"
  },
  {
    "label": "Page_Aoc",
    "text": "Ecco le ricompense del DLC!"
  },
  {
    "label": "Page_FleaMarket_Sdodr",
    "text": "Dalla bancarella di Cifero!"
  },
  {
    "label": "Page_Locker_Sdodr",
    "text": "Dall'armadietto del settore dell'Ordine!"
  },
  {
    "label": "Page_Enemy_Sdodr",
    "text": "Dalla guida Ossimolli!"
  },
  {
    "label": "Page_Phase2Clear_Sdodr",
    "text": "Piano 30 della Torre dell'Ordine conquistato!"
  },
  {
    "label": "Page_Complete_Sdodr",
    "text": "Torre superata con ogni tavoletta!"
  },
  {
    "label": "Page_Palette_Sdodr",
    "text": "Torre superata con una nuova tavoletta!"
  },
  {
    "label": "Page_Document_Sdodr",
    "text": "Dal diario di Nori!"
  }
]