[
  {
    "label": "000",
    "text": "恭喜你在10倍法螺爭奪戰中獲勝！！"
  },
  {
    "label": "001",
    "text": "你在熾熱的對戰中精彩地拿下了勝利！\n現在可以搭乘蠻頹鎮的{{color id=\"1\"}}神轎{{color id=\"65535\"}}拍攝照片囉！{{pageBreak}}從位於蠻頹鎮廣場的{{color id=\"1\"}}祭典投票所{{color id=\"65535\"}}搭乘神轎，\n和超魷型的同伴們一起留下充滿回憶的照片吧！"
  },
  {
    "label": "002",
    "text": "你在熾熱的對戰中精彩地拿下了勝利！\n現在可以登上{{color id=\"1\"}}舞台前的站台{{color id=\"65535\"}}拍攝照片囉！{{pageBreak}}站台就在{{color id=\"1\"}}祭典投票所{{color id=\"65535\"}}那邊，\n和超魷型的同伴們一起留下值得回憶的照片吧！"
  }
]