[
  {
    "label": "Comment_00",
    "text": "嘿，回來啦，{{delay frames=\"15\"}}\n你還滿有天分的呢……看來是個優秀的人才。{{pageBreak}}雖然很想讓你馬上就開始打工……{{delay frames=\"30\"}}\n不過我希望你可以再參加另外一場實習。{{pageBreak}}總不能直接把像你這樣超魷型的年輕人丟到作業現場，\n到時候萬一受了傷可就不妙了。{{pageBreak}}接下來你得學習如何擊倒各式各樣的{{color id=\"1\"}}巨大鮭魚{{color id=\"65535\"}}喔！{{delay frames=\"30\"}}\n一併了解一下在蠻頹地區發現的新品種應該會比較好。{{pageBreak}}話雖如此，其實也只是要你稍微閱讀一下打工守則而已……{{delay frames=\"30\"}}\n嗯，看來下一班直升機正好要起飛了。{{pageBreak}}有句來自大海的教誨叫做「大海會為你解答一切」，\n你應該聽過吧？"
  },
  {
    "label": "Comment_01",
    "text": "最後一場實習就請你一樣到作業現場去參加吧，{{delay frames=\"30\"}}\n你現在可以馬上出發嗎？"
  },
  {
    "label": "Comment_02",
    "text": "太棒了……{{delay frames=\"15\"}}\n那事不宜遲，現在就搭上直升機吧！"
  },
  {
    "label": "Comment_03",
    "text": "沒有必要著急……{{delay frames=\"15\"}}\n等你有空的時候歡迎隨時回來找我。"
  }
]