[
  {
    "label": "000",
    "text": "進到火箭裡面了——！"
  },
  {
    "label": "001",
    "text": "通道一圈圈地延伸到上面去了呢。"
  },
  {
    "label": "002",
    "text": "魟魟！{{string value=\"5\"}}（爬上去看看吧！）{{fun_000F_0004 arg=\"0x0500\"}}"
  }
]