[
  {
    "label": "000",
    "text": "等一下——！"
  },
  {
    "label": "001",
    "text": "你看起來身手挺厲害的！"
  },
  {
    "label": "002",
    "text": "要不要成為我們的手下呢？{{delay frames=\"30\"}}\n只要你願意，我就把寶藏分一半給你！"
  },
  {
    "label": "003",
    "text": "……原來如此，{{delay frames=\"15\"}}真不愧是蠻頹之民。"
  },
  {
    "label": "004",
    "text": "不必再多說了，{{delay frames=\"15\"}}就讓我們以武交心吧！"
  },
  {
    "label": "005",
    "text": "來吧，黃色海鰻！"
  },
  {
    "label": "006",
    "text": "喝……！"
  },
  {
    "label": "007",
    "text": "開始狂歡吧！！"
  },
  {
    "label": "101",
    "text": "我已經等你等很久了！"
  },
  {
    "label": "102",
    "text": "老是輸給你我也不甘心！{{delay frames=\"30\"}}\n讓我們再來較量一次吧！！"
  },
  {
    "label": "103",
    "text": "……嗯，{{delay frames=\"15\"}}對了。"
  },
  {
    "label": "104",
    "text": "既然我們都來自蠻頹，{{delay frames=\"15\"}}那就以武交心吧！"
  },
  {
    "label": "105",
    "text": "來吧，黃色海鰻！"
  },
  {
    "label": "106",
    "text": "就讓我們……"
  },
  {
    "label": "107",
    "text": "再次狂歡吧！！"
  }
]