[
  {
    "label": "000",
    "text": "3號！{{delay frames=\"15\"}}3號——！"
  },
  {
    "label": "000_01",
    "text": "太好了～{{delay frames=\"15\"}}看來你沒事！{{delay frames=\"30\"}}\n果然厲害！"
  },
  {
    "label": "001",
    "text": "歡迎回來～{{pageBreak}}3號跟小鮭魚的活躍表現我全都看在眼裡喔！"
  },
  {
    "label": "002",
    "text": "你可是拯救了地球的英雄呢！{{delay frames=\"30\"}}\n雖然鎮上的人全都沒察覺到就是了！"
  },
  {
    "label": "003",
    "text": "呵……{{delay frames=\"30\"}}所謂的英雄，{{delay frames=\"15\"}}都是孤獨的。"
  },
  {
    "label": "004",
    "text": "「眼神又變得更加犀利了呢！」{{delay frames=\"30\"}}\n司令是這麼說的喔！"
  },
  {
    "label": "005",
    "text": "嗯，很好！"
  },
  {
    "label": "006",
    "text": "好，{{delay frames=\"15\"}}今天也充滿活力地度過吧——！"
  },
  {
    "label": "007",
    "text": "加魷～～～！"
  }
]