[
  {
    "label": "Comment_00",
    "text": "{{fun_0001_0001 arg=\"0x3333333F\"}}是……{{delay frames=\"5\"}}我……{{delay frames=\"5\"}}輸……{{delay frames=\"5\"}}了……"
  },
  {
    "label": "Comment_01",
    "text": "嘰嘰……\n{{delay frames=\"30\"}}那副裝備居然這麼強大！！"
  },
  {
    "label": "Comment_02",
    "text": "嗯……？\n你都搶走大電池鯰魚了，沒想到還這麼弱。"
  },
  {
    "label": "Comment_03",
    "text": "芥末章魚，{{delay frames=\"15\"}}難道你是年紀大了嗎？"
  },
  {
    "label": "Comment_04",
    "text": "我根本就不知道你說的大電池鯰魚！"
  },
  {
    "label": "Comment_05",
    "text": "嗯！？是這樣嗎？"
  },
  {
    "label": "Comment_06",
    "text": "如果是這樣的話……{{delay frames=\"70\"}}\n那又是什麼人搶走的？"
  },
  {
    "label": "Comment_07",
    "text": "唔！絨毛墨汁！！"
  },
  {
    "label": "Comment_08",
    "text": "{{fun_0001_0002}}這是怎麼一回事！？"
  },
  {
    "label": "Comment_09",
    "text": "3號～～～～{{delay frames=\"20\"}}救命啊～！"
  }
]