[
  {
    "label": "Comment_00",
    "text": "目前大概就是這樣！"
  },
  {
    "label": "Comment_01",
    "text": "好，打起精神來吧！"
  },
  {
    "label": "Comment_02",
    "text": "魟！{{string value=\"5\"}}（哦——！）{{fun_000F_0004 arg=\"0x0500\"}}"
  },
  {
    "label": "Comment_04",
    "text": "這下大功告成！"
  },
  {
    "label": "Comment_03",
    "text": "嗨呀，後會魷期！！！"
  },
  {
    "label": "Comment_03B",
    "text": "嗨呀，後會魷期！！！"
  }
]