[
  {
    "label": "000",
    "text": "魟魟～！{{string value=\"5\"}}（{{color id=\"1\"}}新賽季{{color id=\"65535\"}}開始了～！）{{fun_000F_0004 arg=\"0x0500\"}}"
  },
  {
    "label": "001",
    "text": "好耶，新賽季來了——！！"
  },
  {
    "label": "002",
    "text": "那就讓我們來依序看看\n這次多了些什麼樣的新內容吧～！"
  },
  {
    "label": "014",
    "text": "緊接著是熊先生商會發布的最新資訊！"
  },
  {
    "label": "014_01",
    "text": "吼魟——！？{{string value=\"5\"}}（這是什麼？好可怕！！）{{fun_000F_0004 arg=\"0x0500\"}}"
  },
  {
    "label": "015",
    "text": "似乎有人打工時\n目擊到了{{color id=\"1\"}}新品種的頭目鮭魚{{color id=\"65535\"}}！"
  },
  {
    "label": "016",
    "text": "嗯……光靠照片實在看不出是什麼來頭呢……"
  },
  {
    "label": "017",
    "text": "魟——！{{string value=\"5\"}}（之後說不定還會再次現身，\n前往打工時可得多加小心喔！）{{fun_000F_0004 arg=\"0x0500\"}}"
  }
]