[
  {
    "label": "000",
    "text": "嗯～剛才聽到的歌曲\n是由暱稱為「蠻頹最棒」的聽眾點播的……"
  },
  {
    "label": "001",
    "text": "魟！{{string value=\"5\"}}（是Dedf1sh feat. 腕兒姐妹的\n「#47 onward」！）{{fun_000F_0004 arg=\"0x0500\"}}"
  },
  {
    "label": "002",
    "text": "喂，那首是尚興的歌吧！？\n這個節目可是蠻頹電台耶，蠻、{{delay frames=\"10\"}}頹、{{delay frames=\"10\"}}電、{{delay frames=\"10\"}}台！！！"
  },
  {
    "label": "003",
    "text": "別這麼說嘛，\n你不也早就認可他們的實力了嗎？"
  },
  {
    "label": "004",
    "text": "說到腕兒姐妹，\n我記得他們已經結束世界巡演回到尚興廣場了。"
  },
  {
    "label": "005",
    "text": "魟魟！{{string value=\"5\"}}（沒錯！他們在巡演結束後就馬上公布新歌，\n小姬在接受採訪時還說……）{{fun_000F_0004 arg=\"0x0500\"}}"
  },
  {
    "label": "006",
    "text": "「我們的征戰還沒結束！」"
  },
  {
    "label": "007",
    "text": "魟～！{{string value=\"5\"}}（這句話真的是超～酷炫的！）{{fun_000F_0004 arg=\"0x0500\"}}"
  },
  {
    "label": "008",
    "text": "但世界巡演已經結束了吧？\n難道他們有什麼事還沒做嗎？"
  },
  {
    "label": "009",
    "text": "……嗯？好像有新聞快報呢。"
  },
  {
    "label": "010",
    "text": "哦！什麼新聞？"
  },
  {
    "label": "011",
    "text": "尚興廣場又再次掀起了占地對戰的風潮！\n有許多年輕人參加對戰，讓城鎮變得相當熱鬧！！"
  },
  {
    "label": "012",
    "text": "怎麼又是尚興的事情啊——！！"
  },
  {
    "label": "013",
    "text": "之前不是還說尚興廣場變成了\n只會看到一堆人在發呆的城鎮嗎？"
  },
  {
    "label": "014",
    "text": "魟……{{string value=\"5\"}}（聽說大家都莫名其妙地突然恢復活力了。\n不過好像依然有人還沒恢復原狀的樣子……）{{fun_000F_0004 arg=\"0x0500\"}}"
  },
  {
    "label": "015",
    "text": "不過活在世上或多或少都會發呆嘛！\n例如鬼福，他最近就很常發呆啊！"
  },
  {
    "label": "016",
    "text": "魟魟！？{{string value=\"5\"}}（真要說的話，\n你們兩個也經常腦袋空空吧！？）{{fun_000F_0004 arg=\"0x0500\"}}"
  },
  {
    "label": "017",
    "text": "總之，這話題就先到此結束吧。\n畢竟我們發呆的事情也跟尚興廣場沒關係。"
  },
  {
    "label": "018",
    "text": "嗯，我想應該是真的完全沒關係！"
  }
]