[
  {
    "label": "000",
    "text": "看來飯田也不在這個樓層。"
  },
  {
    "label": "001",
    "text": "不知道那傢伙有沒有事……{{delay frames=\"30\"}}\n總覺得他最近看起來有點累。"
  },
  {
    "label": "002",
    "text": "雖然回去之後得先完成世界巡演，{{delay frames=\"15\"}}但我們已經約好\n巡演結束後要找個寧靜的地方放鬆！{{delay frames=\"30\"}}得趕快把他救出來才行！"
  },
  {
    "label": "003",
    "text": "看來飯田在離開之後認識了不錯的同伴呢……{{delay frames=\"30\"}}\n也對，{{delay frames=\"15\"}}他可是飯田，我本來就不擔心。"
  },
  {
    "label": "004",
    "text": "不過啊——{{delay frames=\"15\"}}\n有些事情依然只有故鄉的好友才會懂吧？{{pageBreak}}包含說話的方式，{{delay frames=\"15\"}}尚興地區有很多地方都跟故鄉不一樣，\n飯田他好像也是吃了不少苦頭喔——"
  },
  {
    "label": "005",
    "text": "總之，{{delay frames=\"15\"}}下次再慢慢聊飯田的事吧。{{delay frames=\"30\"}}\n現在還是得先盡快趕到他那裡才行！"
  }
]