[
  {
    "label": "000",
    "text": "嗯？{{delay frames=\"15\"}}這是什麼……？{{delay frames=\"30\"}}是飯田的日記耶！{{pageBreak}}這種東西應該不能被其他人看到吧？{{delay frames=\"30\"}}\n你要好好地保管才對啊，飯田。"
  },
  {
    "label": "001",
    "text": "啊，{{delay frames=\"15\"}}那個日記……{{delay frames=\"60\"}}\n……說不定能派得上用場。{{pageBreak}}雖然滿難為情的，不過……{{delay frames=\"30\"}}\n前輩、{{delay frames=\"15\"}}小八！{{delay frames=\"30\"}}請你們看看裡面的內容吧！"
  },
  {
    "label": "002",
    "text": "飯田，你確定嗎？{{delay frames=\"30\"}}{{pageBreak}}那這本日記{{delay frames=\"15\"}}就交給小八保管吧！{{delay frames=\"30\"}}可以透過{{icon id=\"72\" arg=\"0x0000803F00000000\"}}的選單閱讀喔！"
  }
]