[
  {
    "label": "001",
    "text": "嗯……{{delay frames=\"30\"}}你是……{{delay frames=\"15\"}}小八？{{delay frames=\"30\"}}\n前輩……？"
  },
  {
    "label": "002",
    "text": "錯誤，{{delay frames=\"15\"}}入侵者脫色處理，失敗。{{delay frames=\"30\"}}\n擾亂秩序者，{{delay frames=\"30\"}}視為異類。"
  },
  {
    "label": "003",
    "text": "你是誰！？"
  },
  {
    "label": "004",
    "text": "我是{{color id=\"4\"}}秩序{{color id=\"65535\"}}。{{delay frames=\"45\"}}\n是從眾多追求秩序的心靈之中{{delay frames=\"15\"}}誕生的智慧。"
  },
  {
    "label": "005",
    "text": "如今我已成為完整的個體，{{delay frames=\"30\"}}不再需要容器。"
  },
  {
    "label": "006",
    "text": "世間萬物，{{delay frames=\"30\"}}都將化為記憶。"
  },
  {
    "label": "007",
    "text": "哇！"
  },
  {
    "label": "008",
    "text": "糟糕……！{{delay frames=\"30\"}}這座塔失控了！！"
  }
]