[
  {
    "label": "RewardWeapon_00",
    "text": "獲得「{{string value=\"WeaponName\" arg1=\"0\" arg3=\"0\"}}」！"
  },
  {
    "label": "RewardWeapon_01",
    "text": "透過{{color id=\"1\"}}大廳設備{{color id=\"65535\"}}領取，\n在遊玩網路對戰時使用吧！"
  },
  {
    "label": "RewardGear_Head_00",
    "text": "獲得「{{string value=\"ClothingName\" arg1=\"0\" arg3=\"0\"}}」！"
  },
  {
    "label": "RewardGear_Head_01",
    "text": "透過{{color id=\"1\"}}大廳設備{{color id=\"65535\"}}領取，\n在遊玩網路對戰時使用吧！"
  },
  {
    "label": "RewardGear_Clothes_00",
    "text": "獲得「{{string value=\"ClothingName\" arg1=\"0\" arg3=\"0\"}}」！"
  },
  {
    "label": "RewardGear_Clothes_01",
    "text": "透過{{color id=\"1\"}}大廳設備{{color id=\"65535\"}}領取，\n在遊玩網路對戰時使用吧！"
  },
  {
    "label": "RewardGear_Shoes_00",
    "text": "獲得「{{string value=\"ClothingName\" arg1=\"0\" arg3=\"0\"}}」！"
  },
  {
    "label": "RewardGear_Shoes_01",
    "text": "透過{{color id=\"1\"}}大廳設備{{color id=\"65535\"}}領取，\n在遊玩網路對戰時使用吧！"
  },
  {
    "label": "RewardEmote_00",
    "text": "獲得表情！"
  },
  {
    "label": "RewardEmote_01",
    "text": "透過{{color id=\"1\"}}大廳設備{{color id=\"65535\"}}領取吧！\n在{{icon id=\"5\" arg=\"0xAE47613F00000000\"}}自訂選單中可以更改表情喔！"
  },
  {
    "label": "RewardLockerFigure_00",
    "text": "獲得裝飾品！"
  },
  {
    "label": "RewardLockerFigure_Plural_00",
    "text": "獲得裝飾品！"
  },
  {
    "label": "RewardLockerFigure_01",
    "text": "透過{{color id=\"1\"}}大廳設備{{color id=\"65535\"}}領取，\n在裝飾置物櫃時使用吧！"
  },
  {
    "label": "RewardLockerSticker_00",
    "text": "獲得貼紙！"
  },
  {
    "label": "RewardLockerSticker_Plural_00",
    "text": "獲得貼紙！"
  },
  {
    "label": "RewardLockerSticker_01",
    "text": "透過{{color id=\"1\"}}大廳設備{{color id=\"65535\"}}領取，\n在裝飾置物櫃時使用吧！"
  },
  {
    "label": "RewardMiniGameCardPack_00",
    "text": "獲得卡包！"
  },
  {
    "label": "RewardMiniGameCardPack_01",
    "text": "透過{{color id=\"1\"}}大廳設備{{color id=\"65535\"}}領取，\n在遊玩占地鬥士時使用吧！"
  },
  {
    "label": "RewardMiniGameCardPackFresh_00",
    "text": "獲得新鮮卡包！"
  },
  {
    "label": "RewardMiniGameCardPackFresh_01",
    "text": "透過{{color id=\"1\"}}大廳設備{{color id=\"65535\"}}領取，\n裡面說不定裝了稀有的卡片喔！"
  },
  {
    "label": "RewardMiniGameSleeve_00",
    "text": "獲得卡套！"
  },
  {
    "label": "RewardMiniGameSleeve_01",
    "text": "透過{{color id=\"1\"}}大廳設備{{color id=\"65535\"}}領取吧！\n想要設置的時候只要透過{{color id=\"1\"}}卡片清單{{color id=\"65535\"}}就能編輯牌組了！"
  },
  {
    "label": "RewardNamePlateBg_00",
    "text": "獲得背景！"
  },
  {
    "label": "RewardNamePlateBg_01",
    "text": "透過{{color id=\"1\"}}大廳設備{{color id=\"65535\"}}領取，\n在設置名牌時使用吧！"
  },
  {
    "label": "RewardByname_00",
    "text": "獲得別名！"
  },
  {
    "label": "RewardByname_01",
    "text": "透過{{color id=\"1\"}}大廳設備{{color id=\"65535\"}}領取，\n在設置名牌時使用吧！"
  },
  {
    "label": "RewardFoodTicket_00",
    "text": "獲得美食券！"
  },
  {
    "label": "RewardFoodTicket_01",
    "text": "透過{{color id=\"1\"}}大廳設備{{color id=\"65535\"}}領取吧！\n之後只要帶到位於大廳的店家就會有好事發生喔！"
  },
  {
    "label": "RewardDrinkTicket_00",
    "text": "獲得飲料券！"
  },
  {
    "label": "RewardDrinkTicket_01",
    "text": "透過{{color id=\"1\"}}大廳設備{{color id=\"65535\"}}領取吧！\n之後只要帶到位於大廳的店家就會有好事發生喔！"
  },
  {
    "label": "RewardGearSkillChip_00",
    "text": "獲得裝備能力碎片！"
  },
  {
    "label": "RewardMiniGameCardPiece_00",
    "text": "獲得卡片碎片！"
  },
  {
    "label": "RewardMiniGameCardPiece_01",
    "text": "透過{{color id=\"1\"}}大廳設備{{color id=\"65535\"}}領取，\n在{{color id=\"1\"}}卡片清單{{color id=\"65535\"}}中使用吧！"
  },
  {
    "label": "Gear_Head_00",
    "text": "獲得「{{string value=\"ClothingName\" arg1=\"0\" arg3=\"0\"}}」！"
  },
  {
    "label": "Gear_Head_01",
    "text": "在遊玩網路對戰時使用吧！"
  },
  {
    "label": "Gear_Clothes_00",
    "text": "獲得「{{string value=\"ClothingName\" arg1=\"0\" arg3=\"0\"}}」！"
  },
  {
    "label": "Gear_Clothes_01",
    "text": "在遊玩網路對戰時使用吧！"
  },
  {
    "label": "Gear_Shoes_00",
    "text": "獲得「{{string value=\"ClothingName\" arg1=\"0\" arg3=\"0\"}}」！"
  },
  {
    "label": "Gear_Shoes_01",
    "text": "在遊玩網路對戰時使用吧！"
  },
  {
    "label": "LockerFigure_00",
    "text": "獲得裝飾品！"
  },
  {
    "label": "LockerFigure_Bronze_00",
    "text": "獲得銅裝飾品！"
  },
  {
    "label": "LockerFigure_Silver_00",
    "text": "獲得銀裝飾品！"
  },
  {
    "label": "LockerFigure_Gold_00",
    "text": "獲得金裝飾品！"
  },
  {
    "label": "LockerFigure_Plural_00",
    "text": "獲得裝飾品！"
  },
  {
    "label": "LockerFigure_01",
    "text": "在裝飾置物櫃時使用吧！"
  },
  {
    "label": "LockerSticker_00",
    "text": "獲得貼紙！"
  },
  {
    "label": "LockerSticker_Bronze_00",
    "text": "獲得銅貼紙！"
  },
  {
    "label": "LockerSticker_Silver_00",
    "text": "獲得銀貼紙！"
  },
  {
    "label": "LockerSticker_Gold_00",
    "text": "獲得金貼紙！"
  },
  {
    "label": "LockerSticker_Plural_00",
    "text": "獲得貼紙！"
  },
  {
    "label": "LockerSticker_01",
    "text": "在裝飾置物櫃時使用吧！"
  },
  {
    "label": "FoodTicket_00",
    "text": "獲得美食券！"
  },
  {
    "label": "FoodTicket_Plural_00",
    "text": "獲得美食券！"
  },
  {
    "label": "FoodTicket_01",
    "text": "只要帶到位於大廳的商店就會有好事發生喔！"
  },
  {
    "label": "DrinkTicket_00",
    "text": "獲得飲料券！"
  },
  {
    "label": "DrinkTicket_Plural_00",
    "text": "獲得飲料券！"
  },
  {
    "label": "DrinkTicket_01",
    "text": "只要帶到位於大廳的商店就會有好事發生喔！"
  },
  {
    "label": "NamePlateBg_00",
    "text": "獲得背景！"
  },
  {
    "label": "NamePlateBg_01",
    "text": "在設置名牌時使用吧！"
  },
  {
    "label": "Byname_00",
    "text": "獲得別名！"
  },
  {
    "label": "Byname_01",
    "text": "在設置名牌時使用吧！"
  },
  {
    "label": "CardPack_00",
    "text": "獲得卡包！"
  },
  {
    "label": "CardPack_01",
    "text": "在遊玩占地鬥士時使用吧！"
  },
  {
    "label": "CardPackFresh_00",
    "text": "獲得新鮮卡包！"
  },
  {
    "label": "CardPackFresh_01",
    "text": "在遊玩占地鬥士時使用吧！"
  },
  {
    "label": "CardSleeve_00",
    "text": "獲得卡套！"
  },
  {
    "label": "CardSleeve_01",
    "text": "想要設置的時候只要透過{{color id=\"1\"}}卡片清單{{color id=\"65535\"}}就能編輯牌組了！"
  },
  {
    "label": "Emote_00",
    "text": "獲得表情！"
  },
  {
    "label": "Emote_01",
    "text": "在{{icon id=\"5\" arg=\"0xAE47613F00000000\"}}自訂選單中可以更改表情喔！"
  },
  {
    "label": "GearSkillChip_00",
    "text": "獲得裝備能力碎片！"
  },
  {
    "label": "GearSkillChip_01",
    "text": "帶去位於廣場的刺冠那裡吧！\n說不定會有好事發生喔！"
  },
  {
    "label": "Money_00",
    "text": "獲得金錢！"
  },
  {
    "label": "Shell_Fes_00",
    "text": "獲得超級蠑螺！"
  },
  {
    "label": "Shell_Fes_01",
    "text": "祭典T恤與法螺已回收！"
  },
  {
    "label": "StarterDeck_00",
    "text": "獲得初階牌組（Starter Deck）！"
  },
  {
    "label": "StarterDeck_01",
    "text": "可以遊玩{{color id=\"1\"}}布陣大戰占地鬥士{{color id=\"65535\"}}囉！\n收集卡片，以成為最魷型的「占地鬥士」為目標努力吧！"
  },
  {
    "label": "Catalog1st_00",
    "text": "獲得目錄！"
  },
  {
    "label": "Catalog1st_01",
    "text": "透過對戰或打工累積目錄點數\n獲得超魷型的道具吧！"
  },
  {
    "label": "Catalog_00",
    "text": "獲得目錄（第{{number index=\"0\" type=\"4\" arg3=\"0\" arg4=\"0\"}}本）！"
  },
  {
    "label": "Catalog_01",
    "text": "透過對戰或打工累積目錄點數\n獲得超魷型的道具吧！"
  },
  {
    "label": "NextSeasonCatalog_00",
    "text": "獲得新賽季的目錄！"
  },
  {
    "label": "NextSeasonCatalog_01",
    "text": "舊目錄已經被回收了！"
  },
  {
    "label": "WeaponLicense_00",
    "text": "獲得{{number index=\"0\" type=\"1\" arg3=\"0\" arg4=\"0\"}}張武器兌換證！"
  },
  {
    "label": "WeaponLicense_01",
    "text": "帶去武器店兌換自己喜歡的武器吧！"
  },
  {
    "label": "GoldWeaponLicense_00",
    "text": "獲得{{number index=\"0\" type=\"2\" arg3=\"0\" arg4=\"0\"}}張金色武器兌換證！"
  },
  {
    "label": "GoldWeaponLicense_01",
    "text": "帶去武器店兌換自己喜歡的武器吧！"
  },
  {
    "label": "BankaraMatchUnlock_00",
    "text": "可以挑戰蠻頹比賽了！"
  },
  {
    "label": "BankaraMatchUnlock_01",
    "text": "透過對戰壺參加吧！"
  },
  {
    "label": "XMatchUnlock_00",
    "text": "可以挑戰X比賽了！"
  },
  {
    "label": "XMatchUnlock_01",
    "text": "透過對戰壺參加吧！"
  },
  {
    "label": "LockerPhotoFrame_00",
    "text": "獲得相框！"
  },
  {
    "label": "LockerPhotoFrame_01",
    "text": "可以用自己喜歡的照片來裝飾置物櫃喔！"
  },
  {
    "label": "RankInReward_00",
    "text": "恭喜入榜！"
  },
  {
    "label": "LeagueMatchUnlock_00",
    "text": "可以參加活動比賽了！"
  },
  {
    "label": "LeagueMatchUnlock_01",
    "text": "透過{{icon id=\"2\" arg=\"0x0000803F00000000\"}}主選單中的「場地資訊」確認可遊玩的日程吧！"
  },
  {
    "label": "CoopThanksUroko_00",
    "text": "獲得鱗片！"
  },
  {
    "label": "CoopThanksUroko_01",
    "text": "帶去熊先生商會兌換自己喜歡的商品吧！"
  },
  {
    "label": "MsnWeaponBufDocument_00",
    "text": "獲得小魚乾！"
  },
  {
    "label": "MsnWeaponBufDocument_01",
    "text": "可以用來強化英雄裝備喔！\n按下{{icon id=\"2\" arg=\"0x0000803F00000000\"}}打開選單就能強化了！"
  },
  {
    "label": "MsnGoldDisk_00",
    "text": "獲得金色唱片！"
  },
  {
    "label": "MsnGoldDisk_01",
    "text": "在這附近聽到的音樂變得有點不一樣了喔！\n仔細地聆聽吧！"
  },
  {
    "label": "MsnExStageChallengeRight_00",
    "text": "隱藏的茶壺出現了！"
  },
  {
    "label": "MsnExStageChallengeRight_01",
    "text": "到覺醒之地去看看吧！"
  },
  {
    "label": "MngCharaUnlock_00",
    "text": "參戰占地鬥士！"
  },
  {
    "label": "MngCharaUnlock_01",
    "text": "可以跟「{{string value=\"TableturfOpponent\" arg1=\"0\" arg3=\"0\"}}」對戰囉！"
  },
  {
    "label": "MngCharaLevelUnlock_00",
    "text": "對戰對手等級提升！"
  },
  {
    "label": "MngCharaLevelUnlock_01",
    "text": "可以跟等級{{number index=\"1\" type=\"1\" arg3=\"0\" arg4=\"0\"}}的{{string value=\"TableturfOpponent\" arg1=\"0\" arg3=\"0\"}}對戰了！"
  },
  {
    "label": "MngStageUnlock_00",
    "text": "追加新場地！"
  },
  {
    "label": "MngStageUnlock_01",
    "text": "在占地鬥士和其他玩家對戰時\n可以選擇「{{string value=\"TableturfStage\" arg1=\"0\" arg3=\"0\"}}」囉！"
  },
  {
    "label": "Page_WeaponLevel",
    "text": "武器熟練度提升！"
  },
  {
    "label": "Page_Udemae",
    "text": "技術提升！"
  },
  {
    "label": "Page_MissionPlacement",
    "text": "在英雄模式中的發現！"
  },
  {
    "label": "Page_MissionAncientDocument",
    "text": "獲得神秘檔案的貼紙！"
  },
  {
    "label": "Page_MissionAncientDocument_Plu",
    "text": "獲得神秘檔案的貼紙！"
  },
  {
    "label": "Page_MissionKebaInkClear",
    "text": "幻界調查完畢！"
  },
  {
    "label": "Page_MissionStoryClear",
    "text": "通過英雄模式！"
  },
  {
    "label": "Page_MissionComplete",
    "text": "通過隱藏茶壺！"
  },
  {
    "label": "Page_MissionDrone",
    "text": "無人機發現東西了！"
  },
  {
    "label": "Page_MiniGameRank",
    "text": "透過占地鬥士獲得！"
  },
  {
    "label": "Page_Trigger",
    "text": "來自《魷魚圈 3》的禮物！"
  },
  {
    "label": "Page_Trigger_Plu",
    "text": "來自《魷魚圈 3》的禮物！"
  },
  {
    "label": "Page_GameNews",
    "text": "獲得來自遊戲新聞的道具！"
  },
  {
    "label": "Page_CatalogLevel",
    "text": "目錄等級提升！"
  },
  {
    "label": "Page_SeasonReset",
    "text": "獲得目錄的道具！"
  },
  {
    "label": "Page_Aoc",
    "text": "獲得新增內容的特典！"
  },
  {
    "label": "Page_FleaMarket_Sdodr",
    "text": "透過夢霞的攤販獲得！"
  },
  {
    "label": "Page_Locker_Sdodr",
    "text": "透過秩序之城的置物櫃獲得！"
  },
  {
    "label": "Page_Enemy_Sdodr",
    "text": "透過骷髏魚圖鑑獲得！"
  },
  {
    "label": "Page_Phase2Clear_Sdodr",
    "text": "通過秩序之塔30Ｆ 1次！"
  },
  {
    "label": "Page_Complete_Sdodr",
    "text": "使用所有調色盤通過秩序之塔！"
  },
  {
    "label": "Page_Palette_Sdodr",
    "text": "使用新的調色盤通過秩序之塔！"
  },
  {
    "label": "Page_Document_Sdodr",
    "text": "透過飯田的研發日記獲得！"
  }
]