[
  {
    "label": "Bomb_Splash",
    "text": "착지하고 일정 시간이 지나면 폭발하는 밤.\n폭발로 주위를 칠할 수 있고 상대를 쓰러뜨릴 수도 있다."
  },
  {
    "label": "Bomb_Suction",
    "text": "지면이나 벽에 달라붙는 밤.\n스플래시 밤보다 늦게 폭발하지만\n폭발이 넓은 범위까지 퍼진다."
  },
  {
    "label": "Bomb_Quick",
    "text": "무언가에 부딪히면 바로 폭발하는 밤.\n폭발이 작고 공격력도 약하지만\n잉크를 많이 소비하지 않고 연속으로 던질 수 있다."
  },
  {
    "label": "Bomb_Curling",
    "text": "지면을 칠하면서 전진한 후 폭발하는 밤.\n벽에 닿으면 튕겨져 나간다.\n{{icon id=\"10\" arg=\"0x0000803F00000000\"}}을 계속 누르면 폭발 시간을 조정할 수 있다."
  },
  {
    "label": "Bomb_Robot",
    "text": "상대를 자동으로 추적하는 밤.\n던진 장소 주위를 탐지하여 상대를 찾아 자동으로 걸어간다.\n상대와의 거리가 가까워지면 걸음을 멈추고 폭발한다."
  },
  {
    "label": "Trap",
    "text": "발밑에 설치하는 함정으로 상대가 접근하면 작동해 상대를 마킹한다.\n상대의 색이 칠해질 경우에도 작동된다.\n동시에 2개까지 설치할 수 있다."
  },
  {
    "label": "Sprinkler",
    "text": "지면이나 벽에 달라붙어 잉크를 흩뿌리는 장치.\n설치 직후에는 세차게 잉크를 뿜어내지만 점차 약해진다.\n동시에 1개만 설치할 수 있다."
  },
  {
    "label": "PointSensor",
    "text": "던진 장소 근처에 있는 상대를 마킹하는 장치.\n상대의 위치를 동료 전원에게 알린다."
  },
  {
    "label": "PoisonMist",
    "text": "어떤 생물의 체액을 안개 상태로 만들어 채워 넣은 병.\n안개 속 상대의 이동 속도를 느리게 하고 잉크를 조금씩 닳게 한다.\n안개 속에 있는 시간이 길수록 효과가 커진다."
  },
  {
    "label": "Shield",
    "text": "눈앞에 잉크로 된 벽을 설치해 상대의 침입과 공격을 막는 장치.\n상대의 공격을 받으면 파괴되는 시간이 앞당겨진다.\n동시에 1개만 설치할 수 있다."
  },
  {
    "label": "Beacon",
    "text": "오징어가 감지할 수 있는 신호를 발신하는 장치.\n아군의 점프 비컨을 선택하여 {{icon id=\"0\" arg=\"0x0000803F00000000\"}}를 누르면\n그곳으로 슈퍼 점프한다.\n동시에 3개까지 설치할 수 있으며, 보통 1번만 사용할 수 있지만\n점프 비컨을 장비하지 않은 동료는 2번까지 사용할 수 있다."
  },
  {
    "label": "Bomb_Fizzy",
    "text": "가스가 녹아든 잉크를 충전한 밤.\n{{icon id=\"10\" arg=\"0x0000803F00000000\"}}을 눌러 들고 있는 동안 파워가 모이며\n모은 파워에 따라 최대 3번 연속으로 폭발한다.\n컨트롤러를 움직이거나 스틱과 버튼을 조작하면 파워가 빨리 모인다."
  },
  {
    "label": "Bomb_Torpedo",
    "text": "상대를 향해 날아가는 서브 웨펀.\n상대 근처에서 던지면 모습을 바꿔 날아가\n착탄한 장소에 폭발하는 잉크를 흩뿌린다.\n상대의 토피도는 공격하여 떨어뜨릴 수 있다."
  },
  {
    "label": "LineMarker",
    "text": "지나간 길에 선을 남기며 똑바로 날아가는 서브 웨펀.\n선에 닿은 상대를 마킹한다.\n또한 직격한 상대에게는 대미지를 준다.\n벽이나 지면에 닿으면 튕겨져 나간다."
  }
]