[
  {
    "label": "Udemae_Inv",
    "text": "---"
  },
  {
    "label": "Udemae_00",
    "text": "Ｃ-"
  },
  {
    "label": "Udemae_01",
    "text": "Ｃ"
  },
  {
    "label": "Udemae_02",
    "text": "Ｃ+"
  },
  {
    "label": "Udemae_03",
    "text": "Ｂ-"
  },
  {
    "label": "Udemae_04",
    "text": "Ｂ"
  },
  {
    "label": "Udemae_05",
    "text": "Ｂ+"
  },
  {
    "label": "Udemae_06",
    "text": "Ａ-"
  },
  {
    "label": "Udemae_07",
    "text": "Ａ"
  },
  {
    "label": "Udemae_08",
    "text": "Ａ+"
  },
  {
    "label": "Udemae_09",
    "text": "Ｓ"
  },
  {
    "label": "Udemae_10",
    "text": "Ｓ+"
  },
  {
    "label": "Udemae_10_2",
    "text": "Ｓ+{{size value=\"50\"}}{{number index=\"0\" type=\"2\" arg3=\"0\" arg4=\"0\"}}{{size value=\"100\"}}"
  },
  {
    "label": "Promote",
    "text": "Tu peux tenter un match de rang !"
  },
  {
    "label": "Challenging",
    "text": "En plein match de rang !"
  }
]