[
  {
    "label": "FirstEnter_00",
    "text": "¡Este es el {{color id=\"1\"}}vestíbulo{{color id=\"65535\"}}! Aquí podrás acceder a\nlos combates en línea y otros servicios varios."
  },
  {
    "label": "FirstEnter_01",
    "text": "A medida que participes en combates en línea,\nirás {{color id=\"1\"}}subiendo de nivel{{color id=\"65535\"}} y {{color id=\"1\"}}ganando dinero{{color id=\"65535\"}}.{{pageBreak}}¡Eso te dará acceso al {{color id=\"1\"}}equipamiento con más\nnivel{{color id=\"65535\"}} de Tintelia!{{pageBreak}}{{color id=\"1\"}}Algunos modos{{color id=\"65535\"}} están restringidos a jugadores\nde cierto nivel, ¡así que no dejes de mejorar!"
  },
  {
    "label": "FirstEnter_03",
    "text": "Para empezar, échale un ojo al {{color id=\"1\"}}hervidor de\ncombate{{color id=\"65535\"}} y selecciona {{color id=\"1\"}}Combate amistoso{{color id=\"65535\"}}.{{pageBreak}}Eso te llevará a un combate {{color id=\"1\"}}territorial{{color id=\"65535\"}}.{{pageBreak}}Allí, tu equipo tendrá 3 minutos para entintar\nmás superficie que el rival."
  },
  {
    "label": "FirstEnter_03_Fest",
    "text": "¡Fantástico! ¡Ahora mismo se está celebrando\nun {{color id=\"1\"}}festival{{color id=\"65535\"}}!{{pageBreak}}Si te interesa, ve al {{color id=\"1\"}}hervidor de combate{{color id=\"65535\"}}\ny selecciona {{color id=\"1\"}}Combate temático {{size value=\"75\"}}(informal){{size value=\"100\"}}{{color id=\"65535\"}}.{{pageBreak}}Irás a un {{color id=\"1\"}}combate territorial{{color id=\"65535\"}}, ¡donde tu equipo\ntendrá 3 minutos para entintar superficies!"
  },
  {
    "label": "FirstEnter_04",
    "text": "Bueno, menos charla y más salpicar. ¡Vamos\ncon ello!"
  },
  {
    "label": "FirstEnter_FestVote_00",
    "text": "¡Oh, hay un {{color id=\"1\"}}festival {{color id=\"65535\"}}en marcha ahora mismo!{{pageBreak}}Eso significa que para poder unirte a la fiesta\ntendrás que {{color id=\"1\"}}elegir un bando{{color id=\"65535\"}}.{{pageBreak}}¡Vuelve a la plaza y usa el {{color id=\"1\"}}terminal de voto {{color id=\"65535\"}}para\nhacer tu elección!"
  },
  {
    "label": "Msg_Legal00",
    "text": "Cuando juegues en línea, se aplicarán las reglas\ncomunitarias de Nintendo, que se encuentran en\nnuestro sitio web. Juega de manera respetuosa\nhacia los demás usuarios.\n\nAl jugar en línea, tu apodo y datos de jugador\npodrían verse públicamente.\n"
  }
]