[
  {
    "label": "000",
    "text": "¡Realmente impresionante, Agente 3!"
  },
  {
    "label": "001",
    "text": "Pues ya estarían todos los pulportales, pero...{{delay frames=\"30\"}}\n¿no te parece que hay algo sospechoso por aquí?"
  }
]