[
  {
    "label": "000",
    "text": "¡Ostras! ¡Esa superficie tiene pinta de ser resbaladiza!"
  },
  {
    "label": "001",
    "text": "Sí... Y por esta zona no recibimos ninguna señal\ndel abuelo."
  },
  {
    "label": "002",
    "text": "Bueno, echemos un vistazo por si acaso. Te seguimos,\nAgente 3. ¡Ten cuidado con los resbalones!"
  }
]