[
  {
    "label": "Comment_00",
    "text": "¡Arrea! Se ha tragado el plasma como si tal cosa...{{delay frames=\"30\"}}\n¡Tiene un buen apetito para ser tan pequeñajo!"
  },
  {
    "label": "Comment_01",
    "text": "En cualquier caso, te ha despejado el camino.\n¡Adelante!"
  }
]