[
  {
    "label": "C4_S01_01",
    "text": "¡Menudo trabajo has hecho, Agente 3!{{delay frames=\"30\"}}\nAunque... no hayas encontrado al abuelo."
  },
  {
    "label": "C4_S01_02",
    "text": "Bueno, al menos hemos conseguido un tesoro...\no algo parecido. Por ahora podemos dejarlo aquí."
  },
  {
    "label": "C4_S01_03",
    "text": "{{string value=\"5\"}}(...){{fun_000F_0004 arg=\"0x0500\"}} ¡Atención! ¿Me oye alguien? ¡Cambio!{{pageBreak}}¿Hola? ¡Cambio!"
  },
  {
    "label": "C4_S01_04",
    "text": "¡Es el abuelo!"
  },
  {
    "label": "C4_S01_05",
    "text": "¡Abuelo! ¿Dónde estás?"
  },
  {
    "label": "C4_S01_06",
    "text": "Mi queridas Mar y Tina, ¿estáis sanas y salvas?"
  },
  {
    "label": "C4_S01_07",
    "text": "¡Desde luego!{{delay frames=\"15\"}} ¡Es a ti a quien habría que preguntarte\ncómo estás!"
  },
  {
    "label": "C4_S01_08",
    "text": "Estoy bien.{{delay frames=\"15\"}} Bueno, ando encerrado en un sitio estrecho\ny muy oscuro...{{pageBreak}}Voy a ver si puedo escapar. ¡Cambio!"
  },
  {
    "label": "C4_S01_09",
    "text": "¡No pierdas la calma!{{delay frames=\"30\"}} Estamos rastreando tu señal y\nya vamos a tu encuentro. ¡Llámanos si ocurre algo!"
  },
  {
    "label": "C4_S01_10",
    "text": "Uf... Qué alivio saber que está bien.{{delay frames=\"30\"}} ¡Investiguemos\nmejor la última señal recibida!"
  },
  {
    "label": "C4_S01_11",
    "text": "Agente 3, si necesitas volver a un pulportal previo,\npuedes hacerlo desde el menú.{{delay frames=\"30\"}} Te resultará práctico."
  }
]