[
  {
    "label": "000",
    "text": "¡¿Pero esto qué es?!{{delay frames=\"30\"}} ¡El cenutrín y Don Oso se han\nmegahiperagigantado!"
  },
  {
    "label": "001",
    "text": "Son tan... tan... ¡tan monos!"
  },
  {
    "label": "002",
    "text": "«¡Don Oso ha absorbido el plasma pelificador!{{delay frames=\"10\"}}\n¡Elimina los núcleos para ayudar al megacenutrín!»"
  },
  {
    "label": "003",
    "text": "Eh... Solo repito lo que dice {{string value=\"11\" arg1=\"20\" arg3=\"101\"}}."
  },
  {
    "label": "004",
    "text": "Si no lo paramos, ¡provocará un apocalipsis de fluido\npelificador en el planeta!"
  },
  {
    "label": "005",
    "text": "¡Más te vale dar la vuelta!"
  },
  {
    "label": "006",
    "text": "¡Eh, Octovius!"
  },
  {
    "label": "007",
    "text": "¡Ja, ja, ja!{{delay frames=\"15\"}} ¡El compartimento del piloto está abierto!"
  },
  {
    "label": "008",
    "text": "¡Esos {{color id=\"1\"}}núcleos{{color id=\"65535\"}} {{icon id=\"22\" arg=\"0x0000803F00000000\"}} se las verán con mi {{color id=\"1\"}}aspiratinta{{color id=\"65535\"}}!"
  },
  {
    "label": "009",
    "text": "¡Agente 3!{{delay frames=\"15\"}} ¡Ponte a los mandos del Pulpotrón y absorbe\nlos núcleos!"
  },
  {
    "label": "010",
    "text": "¡Solo faltan {{color id=\"1\"}}3 minutos y 33 segundos{{color id=\"65535\"}} para que impacte\nen la Tierra!{{delay frames=\"30\"}} ¡Deprisa!"
  }
]