[
  {
    "label": "000",
    "text": "¡Grrr!{{delay frames=\"30\"}} Eres mucho más fuerte de lo que pareces."
  },
  {
    "label": "001",
    "text": "¡Pero no creas que has derrotado al Clan Surimi!"
  },
  {
    "label": "002",
    "text": "¡Esto no quedará así! ¡Ja!"
  }
]