[
  {
    "label": "Comment_00",
    "text": "¡Atención! ¡Que viene la ola!"
  },
  {
    "label": "Comment_01",
    "text": "¡Aquí el Clan Surimi, en riguroso y fabuloso\ndirecto desde Tintelia!"
  },
  {
    "label": "Comment_02",
    "text": "¡Aquí empieza «Tintelia en la Onda»!"
  },
  {
    "label": "Comment_03",
    "text": "¡Zasss! {{string value=\"5\"}}(¡Vamos allá!){{fun_000F_0004 arg=\"0x0500\"}}"
  },
  {
    "label": "Comment_04",
    "text": "Todo lo que aquí os contemos\nlo sabemos de muy buena tinta."
  },
  {
    "label": "Comment_05",
    "text": "¡Zasss! {{string value=\"5\"}}(¡Con vosotros, Megan, Angie\ny un servidor, Rayan!){{fun_000F_0004 arg=\"0x0500\"}}"
  }
]