[
  {
    "label": "000",
    "text": "¡Zasss! ¡Zaaasss!{{string value=\"5\"}} (¡Última hora!\n¡Han llegado noticias fresquísimas!){{fun_000F_0004 arg=\"0x0500\"}}"
  },
  {
    "label": "001",
    "text": "¿Eh? ¡Cuenta, cuenta, cuenta!"
  },
  {
    "label": "002",
    "text": "Zasss.{{string value=\"5\"}} (Los salmónidos que habían invadido\nPirañalandia han sido expulsados.){{fun_000F_0004 arg=\"0x0500\"}}"
  },
  {
    "label": "003",
    "text": "¿Lo dices en serio, Rayan?"
  },
  {
    "label": "004",
    "text": "¡Pues una nueva victoria que nos\napuntamos! ¡Bien hecho, gente!"
  },
  {
    "label": "005",
    "text": "¡Ja, ja! Nadie puede con nosotros."
  },
  {
    "label": "006",
    "text": "¿Y nuestras recompensas? ¿Nos las\nmandarán por correo certificado?"
  },
  {
    "label": "007",
    "text": "¡Zasss!{{string value=\"5\"}} (¡A ver si en Don Oso, S. A. hacen\nsus cuentas y publican los resultados!){{fun_000F_0004 arg=\"0x0500\"}}"
  },
  {
    "label": "008",
    "text": "¡Zasss!{{string value=\"5\"}} (¡Los salmónidos que invadieron\nel Instituto Coralino han vuelto al mar!){{fun_000F_0004 arg=\"0x0500\"}}"
  },
  {
    "label": "009",
    "text": "¡Zasss!{{string value=\"5\"}} (¡Los salmónidos que invadieron\nCisterna Navajuela han vuelto al mar!){{fun_000F_0004 arg=\"0x0500\"}}"
  },
  {
    "label": "010",
    "text": "¡Zasss! {{string value=\"5\"}}(¡Hemos conseguido rechazar\nla invasión salmónida de Ruinas Ceviche!){{fun_000F_0004 arg=\"0x0500\"}}"
  },
  {
    "label": "100",
    "text": "¡Zasss! {{string value=\"5\"}}(¡Los salmónidos que asaltaron la\nsede del Grand Festival han vuelto al mar!){{fun_000F_0004 arg=\"0x0500\"}}"
  },
  {
    "label": "101",
    "text": "¿Lo dices en serio, Rayan?"
  },
  {
    "label": "102",
    "text": "¡Pues una nueva victoria que nos\napuntamos! ¡Bien hecho, gente!"
  },
  {
    "label": "103",
    "text": "¡Ja, ja! Nadie puede con nosotros."
  },
  {
    "label": "104",
    "text": "¿Y cuántos alevines dorados hemos reunido\nen total? ¿Hemos alcanzado el cupo?"
  },
  {
    "label": "105",
    "text": "¡Zasss! {{string value=\"5\"}}(Hay que esperar un poco... ¡Aún\nestán haciendo cálculos en Don Oso, S. A.!){{fun_000F_0004 arg=\"0x0500\"}}"
  }
]