[
  {
    "label": "000",
    "text": "A ver, tengo buenas y malas noticias...\n¿Cuáles os cuento primero?"
  },
  {
    "label": "001",
    "text": "¡Las buenas! Si eso, luego las malas\nya las ignoro."
  },
  {
    "label": "002",
    "text": "¡De acuerdo! Pues... ¡al fin ha terminado\nla obra de la {{color id=\"1\"}}estación de trenes{{color id=\"65535\"}}!"
  },
  {
    "label": "003",
    "text": "¿Zasss? ¡¿Zasss?! {{string value=\"5\"}}(¿En serio?\n¡¿Está terminada del todo?!){{fun_000F_0004 arg=\"0x0500\"}}"
  },
  {
    "label": "004",
    "text": "¡Anda! Han tardado lo suyo, pero seguro\nque ha valido la pena esperar."
  },
  {
    "label": "005",
    "text": "¡Zasss! ¡Zasss!{{string value=\"5\"}} (¡Sí! ¡Ahora podremos ir\ny venir de Cromópolis en un pispás!){{fun_000F_0004 arg=\"0x0500\"}}"
  },
  {
    "label": "006",
    "text": "Zasss... ¿Zasss? {{string value=\"5\"}}(Esto... ¿Y cuáles son\nlas malas noticias?){{fun_000F_0004 arg=\"0x0500\"}}"
  },
  {
    "label": "007",
    "text": "Los habitantes de Cromópolis podrán venir\na nuestro territorio. ¡A ver quién aparca!"
  },
  {
    "label": "008",
    "text": "¡Qué mal! ¡Si ya está complicado encontrar\nun sitio vacío!"
  },
  {
    "label": "009",
    "text": "Zasss... {{string value=\"5\"}}(¿Pero para qué van a querer\naparcar, si vienen en tren?){{fun_000F_0004 arg=\"0x0500\"}}"
  }
]