[
  {
    "label": "000",
    "text": "Aviso a navegantes: ¡falta poco para que\nla temporada termine!"
  },
  {
    "label": "001",
    "text": "¡Zasss!{{string value=\"5\"}} (¡Y en la última semana se pueden\nlograr más {{color id=\"1\"}}puntos de catálogo{{color id=\"65535\"}} de lo usual!){{fun_000F_0004 arg=\"0x0500\"}}"
  },
  {
    "label": "002",
    "text": "Cierto. Si teníais algo en vuestro punto de\nmira, ¡puede ser la ocasión de conseguirlo!"
  },
  {
    "label": "003",
    "text": "¡Que no se os escape!"
  }
]