[
  {
    "label": "000",
    "text": "¡Ya ha comenzado la {{color id=\"1\"}}nueva temporada{{color id=\"65535\"}}!\n¡Qué nervios! ¡Qué emoción!"
  },
  {
    "label": "001",
    "text": "¡¿Me lo dices o me lo cuentas?!"
  },
  {
    "label": "002",
    "text": "Zasss.{{string value=\"5\"}} (Como suele decirse, «temporada\nnueva, vida nueva»... o algo así, ¿no?){{fun_000F_0004 arg=\"0x0500\"}}"
  },
  {
    "label": "008_1",
    "text": "¡Zasss! {{string value=\"5\"}}(¡Uy! ¡Parece que todo el mundo\nse llevará {{color id=\"1\"}}licencias de Jairo{{color id=\"65535\"}} al final!){{fun_000F_0004 arg=\"0x0500\"}}"
  },
  {
    "label": "009",
    "text": "Habrá que prestar especial atención\na lo que Jairo nos cuente."
  }
]