[
  {
    "label": "000",
    "text": "Bueno, pues eso es todo por el momento.\n¡No os olvidéis de votar!"
  },
  {
    "label": "001",
    "text": "Zas. {{string value=\"5\"}}(Echadle un ojo a la camiseta festiva\nen el menú de personalización tras votar.){{fun_000F_0004 arg=\"0x0500\"}}"
  }
]