[
  {
    "label": "000",
    "text": "¡Eh!{{delay frames=\"15\"}} ¡Parece que detrás de esas casillas hay alguien!"
  },
  {
    "label": "001",
    "text": "Pero lo primero es lo primero.{{delay frames=\"15\"}} Abramos la casilla\nque toque ¡y luego echemos un vistazo!"
  }
]