[
  {
    "label": "000",
    "text": "¿Eh?{{delay frames=\"15\"}} ¿Me lo parece a mí o tenemos enemigos nuevos?"
  },
  {
    "label": "001",
    "text": "Son otro tipo de esquealetas {{icon id=\"60\" arg=\"0x0000803F00000000\"}}. Tienes que eliminar\ntres para completar el piso."
  },
  {
    "label": "002",
    "text": "¡Ah! ¡¿Pero tienen ruedas en lugar de pies?!{{delay frames=\"30\"}}\n¿No serán más difíciles de alcanzar?"
  },
  {
    "label": "003",
    "text": "Da igual.{{delay frames=\"15\"}} Tú puedes con todo, Ocho.{{delay frames=\"30\"}}\n¡Es pan comido!"
  }
]