[
  {
    "label": "000",
    "text": "¡Estamos que nos salimos!{{delay frames=\"15\"}} Sigamos así, sin pausa,\n¡hasta lo más alto!"
  },
  {
    "label": "001",
    "text": "Anda...{{delay frames=\"30\"}} Esto sí que es interesante."
  },
  {
    "label": "002",
    "text": "En el siguiente piso puedes elegir tu propio objetivo,{{delay frames=\"30\"}}\ncada uno con un cromochip diferente."
  },
  {
    "label": "003",
    "text": "Y las dificultades también son diferentes.{{delay frames=\"30\"}} Bueno, tú\ntienes piernas, Ocho.{{delay frames=\"15\"}} ¿Por dónde vamos a ir?"
  }
]