[
  {
    "label": "000",
    "text": "¿Qué clase de sitio es este?{{delay frames=\"30\"}} No se parece en nada\na la torre de la plaza de Cromópolis."
  },
  {
    "label": "001",
    "text": "Esto me da mala espina...{{delay frames=\"30\"}} ¡Habrá que estar alerta!"
  }
]