[
  {
    "label": "000",
    "text": "¡Vamooos!{{delay frames=\"15\"}} ¡Esto marcha!"
  },
  {
    "label": "001",
    "text": "No está nada mal tener cuerpo de dron{{delay frames=\"15\"}} si con eso\nle evito a Ocho tener que hacer todo el trabajo."
  },
  {
    "label": "002",
    "text": "El siguiente cromochip también servirá para eso.{{delay frames=\"30\"}}\nBien empleado, le será de gran ayuda a Ocho."
  },
  {
    "label": "003",
    "text": "¡¿Me permite usar el {{color id=\"4\"}}tintófono{{color id=\"65535\"}}?!{{delay frames=\"30\"}} ¡Esto ya es otra cosa!"
  }
]