[
  {
    "label": "Shooter_Short_00",
    "text": "Splooshy"
  },
  {
    "label": "Shooter_Short_01",
    "text": "Neo-Splooshy"
  },
  {
    "label": "Shooter_First_00",
    "text": "Junior"
  },
  {
    "label": "Shooter_First_01",
    "text": "Custom-Junior"
  },
  {
    "label": "Shooter_Precision_00",
    "text": "Splashy"
  },
  {
    "label": "Shooter_Precision_01",
    "text": "Neo-Splashy"
  },
  {
    "label": "Shooter_Blaze_00",
    "text": "Aerospray-MG"
  },
  {
    "label": "Shooter_Blaze_01",
    "text": "Aerospray-RG"
  },
  {
    "label": "Shooter_Normal_00",
    "text": "Splattershottin'"
  },
  {
    "label": "Shooter_Normal_01",
    "text": "Tentatek-Splattershottin'"
  },
  {
    "label": "Shooter_Normal_H",
    "text": "Hero-Splatting"
  },
  {
    "label": "Shooter_Normal_Oct",
    "text": "Octo-Shooter"
  },
  {
    "label": "Shooter_Gravity_00",
    "text": "52"
  },
  {
    "label": "Shooter_Gravity_01",
    "text": "52-Deco"
  },
  {
    "label": "Shooter_QuickMiddle_00",
    "text": "Gray-Zappin'"
  },
  {
    "label": "Shooter_QuickMiddle_01",
    "text": "Orange-Zappin'"
  },
  {
    "label": "Shooter_Expert_00",
    "text": "Splatter-Pro"
  },
  {
    "label": "Shooter_Expert_01",
    "text": "Forged Splatter-Pro"
  },
  {
    "label": "Shooter_Heavy_00",
    "text": "96"
  },
  {
    "label": "Shooter_Heavy_01",
    "text": "96 Deco"
  },
  {
    "label": "Shooter_Long_00",
    "text": "Jet-Squelchin'"
  },
  {
    "label": "Shooter_Long_01",
    "text": "Custom-Jet-Squelchin'"
  },
  {
    "label": "Blaster_Short_00",
    "text": "Luna"
  },
  {
    "label": "Blaster_Short_01",
    "text": "Neo-Luna"
  },
  {
    "label": "Blaster_Middle_00",
    "text": "Blastin'"
  },
  {
    "label": "Blaster_Middle_01",
    "text": "Custom-Blastin'"
  },
  {
    "label": "Blaster_Long_00",
    "text": "Range-Blastin'"
  },
  {
    "label": "Blaster_Long_01",
    "text": "Custom-Range-Blastin'"
  },
  {
    "label": "Blaster_LightShort_00",
    "text": "Clash-Blastin'"
  },
  {
    "label": "Blaster_LightShort_01",
    "text": "Neo-Clash-Blastin'"
  },
  {
    "label": "Blaster_Light_00",
    "text": "Rapid-Blastin'"
  },
  {
    "label": "Blaster_Light_01",
    "text": "Rapid-Deco"
  },
  {
    "label": "Blaster_LightLong_00",
    "text": "Rapid-Pro"
  },
  {
    "label": "Blaster_LightLong_01",
    "text": "Rapid-Deco-Pro"
  },
  {
    "label": "Shooter_TripleQuick_00",
    "text": "L-3-Nozzlin'"
  },
  {
    "label": "Shooter_TripleQuick_01",
    "text": "L-3-Nozzlenosed"
  },
  {
    "label": "Shooter_TripleMiddle_00",
    "text": "H-3-Nozzlin'"
  },
  {
    "label": "Shooter_TripleMiddle_01",
    "text": "H-3-Nozzlenosed"
  },
  {
    "label": "Shooter_Flash_00",
    "text": "Squeezy"
  },
  {
    "label": "Shooter_Flash_01",
    "text": "Foil-Squeezy"
  },
  {
    "label": "Roller_Compact_00",
    "text": "Carbon-Roller"
  },
  {
    "label": "Roller_Compact_01",
    "text": "Carbon-Roller-Deco"
  },
  {
    "label": "Roller_Normal_00",
    "text": "Splat-Roller"
  },
  {
    "label": "Roller_Normal_01",
    "text": "Krak-On-Roller"
  },
  {
    "label": "Roller_Heavy_00",
    "text": "Dynamo"
  },
  {
    "label": "Roller_Heavy_01",
    "text": "Gold-Dynamo"
  },
  {
    "label": "Roller_Hunter_00",
    "text": "Flingza"
  },
  {
    "label": "Roller_Hunter_01",
    "text": "Foil-Flingza"
  },
  {
    "label": "Brush_Mini_00",
    "text": "Inkbrushin'"
  },
  {
    "label": "Brush_Mini_01",
    "text": "Inkbrush-Nouveau"
  },
  {
    "label": "Brush_Normal_00",
    "text": "Octobrushin'"
  },
  {
    "label": "Brush_Normal_01",
    "text": "Octobrush-Nouveau"
  },
  {
    "label": "Charger_Quick_00",
    "text": "Squiffer"
  },
  {
    "label": "Charger_Quick_01",
    "text": "New Squiffer"
  },
  {
    "label": "Charger_Normal_00",
    "text": "Splat-Chargin'"
  },
  {
    "label": "Charger_Normal_01",
    "text": "Z+F-Splat-Chargin'"
  },
  {
    "label": "Charger_NormalScope_00",
    "text": "Splatterscopin'"
  },
  {
    "label": "Charger_NormalScope_01",
    "text": "Z+F-Splatterscopin'"
  },
  {
    "label": "Charger_Long_00",
    "text": "E-liter"
  },
  {
    "label": "Charger_Long_01",
    "text": "Custom-E-liter"
  },
  {
    "label": "Charger_LongScope_00",
    "text": "Scoped-E-liter"
  },
  {
    "label": "Charger_LongScope_01",
    "text": "Custom-Scoped-E-liter"
  },
  {
    "label": "Charger_Light_00",
    "text": "Bamboozler"
  },
  {
    "label": "Charger_Light_01",
    "text": "Bamboozling"
  },
  {
    "label": "Charger_Keeper_00",
    "text": "Goo-Tuber"
  },
  {
    "label": "Charger_Keeper_01",
    "text": "Custom-Goo-Tuber"
  },
  {
    "label": "Slosher_Strong_00",
    "text": "{{fun_0005_0006}}"
  },
  {
    "label": "Slosher_Strong_01",
    "text": "{{fun_0005_0006}}"
  },
  {
    "label": "Slosher_Diffusion_00",
    "text": "{{fun_0005_0006}}"
  },
  {
    "label": "Slosher_Diffusion_01",
    "text": "{{fun_0005_0006}}"
  },
  {
    "label": "Slosher_Launcher_00",
    "text": "Sloshing-Machine"
  },
  {
    "label": "Slosher_Launcher_01",
    "text": "Neo-Sloshing-Machine"
  },
  {
    "label": "Slosher_Bathtub_00",
    "text": "Bloblobbin'"
  },
  {
    "label": "Slosher_Bathtub_01",
    "text": "Bloblobbin'-Deco"
  },
  {
    "label": "Slosher_Washtub_00",
    "text": "{{fun_0005_0006}}"
  },
  {
    "label": "Slosher_Washtub_01",
    "text": "{{fun_0005_0006}}"
  },
  {
    "label": "Spinner_Quick_00",
    "text": "Mini-Splatling"
  },
  {
    "label": "Spinner_Quick_01",
    "text": "Zink-Mini-Splatling"
  },
  {
    "label": "Spinner_Standard_00",
    "text": "Heavy-Splatling"
  },
  {
    "label": "Spinner_Standard_01",
    "text": "Heavy-Splatling-Deco"
  },
  {
    "label": "Spinner_Hyper_00",
    "text": "Hydra"
  },
  {
    "label": "Spinner_Hyper_01",
    "text": "Custom-Hydra"
  },
  {
    "label": "Spinner_Downpour_00",
    "text": "Ballpoint"
  },
  {
    "label": "Spinner_Downpour_01",
    "text": "Ballpoint-Nouveau"
  },
  {
    "label": "Spinner_Serein_00",
    "text": "Naut-47"
  },
  {
    "label": "Spinner_Serein_01",
    "text": "Naut-79"
  },
  {
    "label": "Maneuver_Short_00",
    "text": "Dapple-Dualie"
  },
  {
    "label": "Maneuver_Short_01",
    "text": "Dapple-Dualie-Nouveau"
  },
  {
    "label": "Maneuver_Normal_00",
    "text": "Splat-Dualie"
  },
  {
    "label": "Maneuver_Normal_01",
    "text": "Enperry-Dualie"
  },
  {
    "label": "Maneuver_Gallon_00",
    "text": "Glooga-Dualie"
  },
  {
    "label": "Maneuver_Gallon_01",
    "text": "Glooga-Dualie-Deco"
  },
  {
    "label": "Maneuver_Dual_00",
    "text": "Dualie-Squelcher"
  },
  {
    "label": "Maneuver_Dual_01",
    "text": "Custom-Dualie-Squelcher"
  },
  {
    "label": "Maneuver_Stepper_00",
    "text": "Dark-Tetra"
  },
  {
    "label": "Maneuver_Stepper_01",
    "text": "Light-Tetra"
  },
  {
    "label": "Shelter_Normal_00",
    "text": "Splat-Brella"
  },
  {
    "label": "Shelter_Normal_01",
    "text": "Sorella-Brella"
  },
  {
    "label": "Shelter_Wide_00",
    "text": "Tenta-Brella"
  },
  {
    "label": "Shelter_Wide_01",
    "text": "Tenta-Sorella-Brella"
  },
  {
    "label": "Stringer_Normal_00",
    "text": "{{fun_0005_0006}}"
  },
  {
    "label": "Stringer_Normal_01",
    "text": "{{fun_0005_0006}}"
  },
  {
    "label": "Stringer_Explosion_00",
    "text": "Wellstring-V"
  },
  {
    "label": "Stringer_Explosion_01",
    "text": "Custom-Wellstring-V"
  },
  {
    "label": "Stringer_Short_00",
    "text": "{{fun_0005_0006}}"
  },
  {
    "label": "Stringer_Short_01",
    "text": "{{fun_0005_0006}}"
  },
  {
    "label": "Shelter_Compact_00",
    "text": "Undercover"
  },
  {
    "label": "Shelter_Compact_01",
    "text": "Undercover-Sorella-Brella"
  },
  {
    "label": "Saber_Normal_00",
    "text": "{{fun_0005_0006}}"
  },
  {
    "label": "Saber_Normal_01",
    "text": "{{fun_0005_0006}}"
  },
  {
    "label": "Saber_Heavy_00",
    "text": "Minty-Fresh"
  },
  {
    "label": "Saber_Heavy_01",
    "text": "Charcoal-Fresh"
  },
  {
    "label": "Saber_Lite_00",
    "text": "{{fun_0005_0006}}"
  },
  {
    "label": "Saber_Lite_01",
    "text": "{{fun_0005_0006}}"
  },
  {
    "label": "Shooter_QuickLong_00",
    "text": "{{fun_0005_0006}}"
  },
  {
    "label": "Shooter_QuickLong_01",
    "text": "{{fun_0005_0006}}"
  },
  {
    "label": "Roller_Wide_00",
    "text": "{{fun_0005_0006}}"
  },
  {
    "label": "Roller_Wide_01",
    "text": "{{fun_0005_0006}}"
  },
  {
    "label": "Brush_Heavy_00",
    "text": "{{fun_0005_0006}}"
  },
  {
    "label": "Brush_Heavy_01",
    "text": "{{fun_0005_0006}}"
  },
  {
    "label": "Charger_Pencil_00",
    "text": "{{fun_0005_0006}}"
  },
  {
    "label": "Charger_Pencil_01",
    "text": "{{fun_0005_0006}}"
  },
  {
    "label": "Blaster_Precision_00",
    "text": "{{fun_0005_0006}}"
  },
  {
    "label": "Blaster_Precision_01",
    "text": "{{fun_0005_0006}}"
  },
  {
    "label": "Spinner_HyperShort_00",
    "text": "{{fun_0005_0006}}"
  },
  {
    "label": "Spinner_HyperShort_01",
    "text": "{{fun_0005_0006}}"
  },
  {
    "label": "Slosher_Double_00",
    "text": "{{fun_0005_0006}}"
  },
  {
    "label": "Slosher_Double_01",
    "text": "Dreaded"
  },
  {
    "label": "Maneuver_Long_00",
    "text": "Dousin'"
  },
  {
    "label": "Maneuver_Long_01",
    "text": "Custom-Dousin'"
  },
  {
    "label": "Shelter_Focus_00",
    "text": "Recycling"
  },
  {
    "label": "Shelter_Focus_01",
    "text": "Reusin'"
  },
  {
    "label": "Maneuver_Normal_O",
    "text": "Order-Dualie"
  },
  {
    "label": "Shelter_Normal_O",
    "text": "Order-Brella"
  },
  {
    "label": "Shooter_Normal_O",
    "text": "Order-Shooter"
  },
  {
    "label": "Roller_Normal_O",
    "text": "Order-Roller"
  },
  {
    "label": "Charger_Normal_O",
    "text": "Order-Charger"
  },
  {
    "label": "Slosher_Strong_O",
    "text": "Order-Slosher"
  },
  {
    "label": "Spinner_Standard_O",
    "text": "Order-Splatling"
  },
  {
    "label": "Blaster_Short_O",
    "text": "Order-Blaster"
  },
  {
    "label": "Brush_Normal_O",
    "text": "Orderbrushin'"
  },
  {
    "label": "Stringer_Normal_O",
    "text": "Order-Stringer"
  },
  {
    "label": "Saber_Normal_O",
    "text": "Order-Splatana"
  }
]