[
  {
    "label": "L_BackBtn_00-T_Btn_00",
    "locale": {
      "CNzh": "返回",
      "EUde": "Zurück",
      "EUen": "Back",
      "EUes": "Atrás",
      "EUfr": "Retour",
      "EUit": "Indietro",
      "EUnl": "Terug",
      "EUru": "Назад",
      "JPja": "もどる",
      "KRko": "뒤로",
      "TWzh": "返回",
      "USen": "Back",
      "USes": "Atrás",
      "USfr": "Retour"
    }
  },
  {
    "label": "L_Btn_00-T_Btn_00_Eve",
    "locale": {
      "CNzh": "日本",
      "EUde": "Japan",
      "EUen": "Japan",
      "EUes": "Japón",
      "EUfr": "Japon",
      "EUit": "Giappone",
      "EUnl": "Japan",
      "EUru": "Япония",
      "JPja": "日本",
      "KRko": "일본",
      "TWzh": "日本",
      "USen": "Japan",
      "USes": "Japón",
      "USfr": "Japon"
    }
  },
  {
    "label": "L_Btn_00-T_Btn_00_Normal",
    "locale": {
      "CNzh": "日本",
      "EUde": "Japan",
      "EUen": "Japan",
      "EUes": "Japón",
      "EUfr": "Japon",
      "EUit": "Giappone",
      "EUnl": "Japan",
      "EUru": "Япония",
      "JPja": "日本",
      "KRko": "일본",
      "TWzh": "日本",
      "USen": "Japan",
      "USes": "Japón",
      "USfr": "Japon"
    }
  },
  {
    "label": "L_Btn_01-T_Btn_00_Eve",
    "locale": {
      "CNzh": "美洲大陆",
      "EUde": "Nord-/Südamerika",
      "EUen": "The Americas",
      "EUes": "América",
      "EUfr": "Amériques",
      "EUit": "Americhe",
      "EUnl": "Noord-/\nZuid-Amerika",
      "EUru": "Америка",
      "JPja": "アメリカ大陸",
      "KRko": "아메리카 대륙",
      "TWzh": "美洲大陸",
      "USen": "The Americas",
      "USes": "América",
      "USfr": "Amériques"
    }
  },
  {
    "label": "L_Btn_01-T_Btn_00_Normal",
    "locale": {
      "CNzh": "美洲大陆\n澳大利亚\n新西兰",
      "EUde": "Nord-/Südamerika\nAustralien\nNeuseeland",
      "EUen": "The Americas\nAustralia\nNew Zealand",
      "EUes": "América\nAustralia\nNueva Zelanda",
      "EUfr": "Amériques\nAustralie\nNouvelle-Zélande",
      "EUit": "Americhe\nAustralia\nNuova Zelanda",
      "EUnl": "Noord-/Zuid-Amerika\nAustralië\nNieuw-Zeeland",
      "EUru": "Америка\nАвстралия\nНовая Зеландия",
      "JPja": "アメリカ大陸\nオーストラリア\nニュージーランド",
      "KRko": "아메리카 대륙\n오스트레일리아\n뉴질랜드",
      "TWzh": "美洲大陸\n澳洲\n紐西蘭",
      "USen": "The Americas\nAustralia\nNew Zealand",
      "USes": "América\nAustralia\nNueva Zelanda",
      "USfr": "Amériques\nAustralie\nNouvelle-Zélande"
    }
  },
  {
    "label": "L_Btn_02-T_Btn_00_Eve",
    "locale": {
      "CNzh": "欧洲",
      "EUde": "Europa",
      "EUen": "Europe",
      "EUes": "Europa",
      "EUfr": "Europe",
      "EUit": "Europa",
      "EUnl": "Europa",
      "EUru": "Европа",
      "JPja": "ヨーロッパ",
      "KRko": "유럽",
      "TWzh": "歐洲",
      "USen": "Europe",
      "USes": "Europa",
      "USfr": "Europe"
    }
  },
  {
    "label": "L_Btn_02-T_Btn_00_Normal",
    "locale": {
      "CNzh": "欧洲",
      "EUde": "Europa",
      "EUen": "Europe",
      "EUes": "Europa",
      "EUfr": "Europe",
      "EUit": "Europa",
      "EUnl": "Europa",
      "EUru": "Европа",
      "JPja": "ヨーロッパ",
      "KRko": "유럽",
      "TWzh": "歐洲",
      "USen": "Europe",
      "USes": "Europa",
      "USfr": "Europe"
    }
  },
  {
    "label": "L_Btn_03-T_Btn_00_Eve",
    "locale": {
      "CNzh": "澳大利亚\n新西兰\n香港/韩国",
      "EUde": "Australien/\nNeuseeland/\nHongkong/\nSüdkorea",
      "EUen": "Australia\nNew Zealand\nHong Kong\nS. Korea",
      "EUes": "Australia/\nNueva Zelanda/\nHong Kong/\nCorea del Sur",
      "EUfr": "Australie/\nNouvelle-Zélande/\nHong Kong/\nCorée du Sud",
      "EUit": "Australia/\nNuova Zelanda/\nHong Kong/\nCorea del Sud",
      "EUnl": "Australië/\nNieuw-Zeeland/\nHongkong/\nZuid-Korea",
      "EUru": "Австралия /\nНовая Зеландия /\nГонконг /\nЮж. Корея",
      "JPja": "オーストラリア\nニュージーランド\n香港/韓国",
      "KRko": "오스트레일리아\n뉴질랜드\n홍콩/대한민국",
      "TWzh": "澳洲\n紐西蘭\n香港/韓國",
      "USen": "Australia\nNew Zealand\nHong Kong\nS. Korea",
      "USes": "Australia/\nNueva Zelanda/\nHong Kong/\nCorea del Sur",
      "USfr": "Australie/\nNouvelle-Zélande/\nHong Kong/\nCorée du Sud"
    }
  },
  {
    "label": "L_Btn_03-T_Btn_00_Normal",
    "locale": {
      "CNzh": "香港\n韩国",
      "EUde": "Hongkong\nSüdkorea",
      "EUen": "Hong Kong\nS. Korea",
      "EUes": "Hong Kong\nCorea del Sur",
      "EUfr": "Hong Kong\nCorée du Sud",
      "EUit": "Hong Kong\nCorea del Sud",
      "EUnl": "Hongkong\nZuid-Korea",
      "EUru": "Гонконг\nЮжная Корея",
      "JPja": "香港\n韓国",
      "KRko": "홍콩\n대한민국",
      "TWzh": "香港\n韓國",
      "USen": "Hong Kong\nS. Korea",
      "USes": "Hong Kong\nCorea del Sur",
      "USfr": "Hong Kong\nCorée du Sud"
    }
  },
  {
    "label": "T_Msg_00",
    "locale": {
      "CNzh": "要参加哪个地区的祭典？\n※若选择的地区与实际游玩的地点不同，\n　将有可能无法顺畅地游玩祭典。",
      "EUde": "Welche Splatfest-Region passt\nfür dich am besten? Wir empfehlen\ndie Region, in der du wohnst.",
      "EUen": "Which Splatfest region makes sense for you?\nIt's recommended to choose the region you live\nin for the best play experience.",
      "EUes": "¿En qué región conviene unirse a un festival?\nPara obtener la mejor experiencia de juego, es\nrecomendable elegir la región en la que vives.",
      "EUfr": "Quelle région de festival te convient le mieux ?\nIl est conseillé de choisir celle dans laquelle tu\nvis pour jouer dans les meilleures conditions.",
      "EUit": "Quale regione vuoi scegliere per i festival?\nPer una migliore esperienza di gioco, ti\nconsigliamo di scegliere la regione in cui vivi.",
      "EUnl": "Welke Splatfest-regio kies jij?\nVoor de beste speelervaring is het aanbevolen\nom de regio te kiezen waarin je woont.",
      "EUru": "Какой регион Сплатфеста тебе подходит?\nРекомендуется выбрать свой регион\nпроживания для приятной игры.",
      "JPja": "どの地域のフェスに参加しますか？\n※遊んでいる場所と異なる地域を選んだ場合、\nフェスを快適にプレイできないことがあります",
      "KRko": "어느 지역의 페스티벌에 참가하겠습니까?\n※플레이하고 있는 곳과 다른 지역을 선택할 경우,\n페스티벌을 쾌적하게 플레이하지 못할 수 있습니다",
      "TWzh": "要參加哪個地區的祭典？\n※如果選擇的地區與實際遊玩的地點不同，\n　將有可能無法順暢地參與祭典。",
      "USen": "Which Splatfest region makes sense for you?\nIt's recommended to choose the region you live\nin for the best play experience.",
      "USes": "¿En qué región conviene unirse a un festival?\nPara obtener la mejor experiencia de juego, es\nrecomendable elegir la región en la que vives.",
      "USfr": "Quelle région de festival te convient le mieux?\nIl est conseillé de choisir celle dans laquelle tu\nvis pour jouer dans les meilleures conditions."
    }
  }
]