[
  {
    "label": "T_Finsh_01",
    "locale": {
      "CNzh": "Finish!",
      "EUde": "Das war's!",
      "EUen": "GAME!",
      "EUes": "¡Se acabó!",
      "EUfr": "Terminé !",
      "EUit": "Fine!",
      "EUnl": "AFGELOPEN!",
      "EUru": "КОНЕЦ!",
      "JPja": "Finish!",
      "KRko": "Finish!",
      "TWzh": "Finish!",
      "USen": "GAME!",
      "USes": "¡Se acabó!",
      "USfr": "Terminé!"
    }
  }
]