[
  {
    "label": "000",
    "locale": {
      "CNzh": "交付",
      "EUde": "Einwerfen",
      "EUen": "Deposit Egg",
      "EUes": "Depositar",
      "EUfr": "Déposer",
      "EUit": "Deposita",
      "EUnl": "Inwerpen",
      "EUru": "Закинуть",
      "JPja": "納品する",
      "KRko": "납품하기",
      "TWzh": "交付",
      "USen": "Deposit Egg",
      "USes": "Depositar",
      "USfr": "Déposer"
    }
  },
  {
    "label": "001",
    "locale": {
      "CNzh": "发射",
      "EUde": "Abfeuern",
      "EUen": "Load Egg",
      "EUes": "Disparar",
      "EUfr": "Charger",
      "EUit": "Carica",
      "EUnl": "Afvuren",
      "EUru": "Зарядить",
      "JPja": "発射する",
      "KRko": "발사하기",
      "TWzh": "發射",
      "USen": "Load Egg",
      "USes": "Disparar",
      "USfr": "Charger"
    }
  }
]