[
  {
    "label": "000",
    "locale": {
      "CNzh": "x{{number index=\"0\" type=\"4\" arg3=\"0\" arg4=\"0\"}}",
      "EUde": "×{{number index=\"0\" type=\"4\" arg3=\"0\" arg4=\"0\"}}",
      "EUen": "x{{number index=\"0\" type=\"4\" arg3=\"0\" arg4=\"0\"}}",
      "EUes": "×{{number index=\"0\" type=\"4\" arg3=\"0\" arg4=\"0\"}}",
      "EUfr": "×{{number index=\"0\" type=\"4\" arg3=\"0\" arg4=\"0\"}}",
      "EUit": "×{{number index=\"0\" type=\"4\" arg3=\"0\" arg4=\"0\"}}",
      "EUnl": "×{{number index=\"0\" type=\"4\" arg3=\"0\" arg4=\"0\"}}",
      "EUru": "x{{number index=\"0\" type=\"4\" arg3=\"0\" arg4=\"0\"}}",
      "JPja": "x{{number index=\"0\" type=\"4\" arg3=\"0\" arg4=\"0\"}}",
      "KRko": "x{{number index=\"0\" type=\"4\" arg3=\"0\" arg4=\"0\"}}",
      "TWzh": "x{{number index=\"0\" type=\"4\" arg3=\"0\" arg4=\"0\"}}",
      "USen": "x{{number index=\"0\" type=\"4\" arg3=\"0\" arg4=\"0\"}}",
      "USes": "x{{number index=\"0\" type=\"4\" arg3=\"0\" arg4=\"0\"}}",
      "USfr": "×{{number index=\"0\" type=\"4\" arg3=\"0\" arg4=\"0\"}}"
    }
  },
  {
    "label": "001",
    "locale": {
      "CNzh": "x{{number index=\"0\" type=\"5\" arg3=\"0\" arg4=\"0\"}}",
      "EUde": "×{{number index=\"0\" type=\"5\" arg3=\"0\" arg4=\"0\"}}",
      "EUen": "x{{number index=\"0\" type=\"5\" arg3=\"0\" arg4=\"0\"}}",
      "EUes": "×{{number index=\"0\" type=\"5\" arg3=\"0\" arg4=\"0\"}}",
      "EUfr": "×{{number index=\"0\" type=\"5\" arg3=\"0\" arg4=\"0\"}}",
      "EUit": "×{{number index=\"0\" type=\"5\" arg3=\"0\" arg4=\"0\"}}",
      "EUnl": "×{{number index=\"0\" type=\"5\" arg3=\"0\" arg4=\"0\"}}",
      "EUru": "x{{number index=\"0\" type=\"5\" arg3=\"0\" arg4=\"0\"}}",
      "JPja": "x{{number index=\"0\" type=\"5\" arg3=\"0\" arg4=\"0\"}}",
      "KRko": "x{{number index=\"0\" type=\"5\" arg3=\"0\" arg4=\"0\"}}",
      "TWzh": "x{{number index=\"0\" type=\"5\" arg3=\"0\" arg4=\"0\"}}",
      "USen": "x{{number index=\"0\" type=\"5\" arg3=\"0\" arg4=\"0\"}}",
      "USes": "x{{number index=\"0\" type=\"5\" arg3=\"0\" arg4=\"0\"}}",
      "USfr": "×{{number index=\"0\" type=\"5\" arg3=\"0\" arg4=\"0\"}}"
    }
  },
  {
    "label": "010",
    "locale": {
      "CNzh": "{{number index=\"0\" type=\"4\" arg3=\"0\" arg4=\"0\"}}以上",
      "EUde": "Ab {{number index=\"0\" type=\"4\" arg3=\"0\" arg4=\"0\"}}",
      "EUen": "{{number index=\"0\" type=\"4\" arg3=\"0\" arg4=\"0\"}} & Up",
      "EUes": "{{number index=\"0\" type=\"4\" arg3=\"0\" arg4=\"0\"}} o más",
      "EUfr": "{{number index=\"0\" type=\"4\" arg3=\"0\" arg4=\"0\"}} et plus",
      "EUit": "{{number index=\"0\" type=\"4\" arg3=\"0\" arg4=\"0\"}} o più",
      "EUnl": "{{number index=\"0\" type=\"4\" arg3=\"0\" arg4=\"0\"}} en hoger",
      "EUru": "{{number index=\"0\" type=\"4\" arg3=\"0\" arg4=\"0\"}} и выше",
      "JPja": "{{number index=\"0\" type=\"4\" arg3=\"0\" arg4=\"0\"}}以上",
      "KRko": "{{number index=\"0\" type=\"4\" arg3=\"0\" arg4=\"0\"}} 이상",
      "TWzh": "{{number index=\"0\" type=\"4\" arg3=\"0\" arg4=\"0\"}}以上",
      "USen": "{{number index=\"0\" type=\"4\" arg3=\"0\" arg4=\"0\"}} & Up",
      "USes": "{{number index=\"0\" type=\"4\" arg3=\"0\" arg4=\"0\"}} o más",
      "USfr": "{{number index=\"0\" type=\"4\" arg3=\"0\" arg4=\"0\"}} et plus"
    }
  },
  {
    "label": "L_Bottom_00-T_Info_00",
    "locale": {
      "CNzh": "关闭",
      "EUde": "Schließen",
      "EUen": "Close",
      "EUes": "Cerrar",
      "EUfr": "Fermer",
      "EUit": "Chiudi",
      "EUnl": "Sluiten",
      "EUru": "Закрыть",
      "JPja": "とじる",
      "KRko": "닫기",
      "TWzh": "關閉",
      "USen": "Close",
      "USes": "Cerrar",
      "USfr": "Fermer"
    }
  },
  {
    "label": "T_Battle_00",
    "locale": {
      "CNzh": "团队打工竞赛",
      "EUde": "Team-Wettkampf",
      "EUen": "Eggstra Work",
      "EUes": "Alianza alevínica",
      "EUfr": "Défi œuf sup'",
      "EUit": "Sfida tra colleghi",
      "EUnl": "Bedrijfseitje",
      "EUru": "Икорный овертайм",
      "JPja": "バイトチームコンテスト",
      "KRko": "아르바이트 팀 콘테스트",
      "TWzh": "團隊打工競賽",
      "USen": "Eggstra Work",
      "USes": "Recolección extra",
      "USfr": "Défi œuf sup'"
    }
  },
  {
    "label": "T_NumTop_00",
    "locale": {
      "CNzh": "5%",
      "EUde": "5 %",
      "EUen": "5%",
      "EUes": "5 %",
      "EUfr": "5 %",
      "EUit": "5%",
      "EUnl": "5%",
      "EUru": "5%",
      "JPja": "５％",
      "KRko": "5%",
      "TWzh": "5％",
      "USen": "5%",
      "USes": "5 %",
      "USfr": "5 %"
    }
  },
  {
    "label": "T_NumTop_01",
    "locale": {
      "CNzh": "20%",
      "EUde": "20 %",
      "EUen": "20%",
      "EUes": "20 %",
      "EUfr": "20 %",
      "EUit": "20%",
      "EUnl": "20%",
      "EUru": "20%",
      "JPja": "２０％",
      "KRko": "20%",
      "TWzh": "20％",
      "USen": "20%",
      "USes": "20 %",
      "USfr": "20 %"
    }
  },
  {
    "label": "T_NumTop_02",
    "locale": {
      "CNzh": "50%",
      "EUde": "50 %",
      "EUen": "50%",
      "EUes": "50 %",
      "EUfr": "50 %",
      "EUit": "50%",
      "EUnl": "50%",
      "EUru": "50%",
      "JPja": "５０％",
      "KRko": "50%",
      "TWzh": "50％",
      "USen": "50%",
      "USes": "50 %",
      "USfr": "50 %"
    }
  },
  {
    "label": "T_NumTop_06",
    "locale": {
      "CNzh": "本次的结果",
      "EUde": "Aktueller Stand",
      "EUen": "Current Results",
      "EUes": "Results. actuales",
      "EUfr": "Résultat actuel",
      "EUit": "Risultati attuali",
      "EUnl": "Actuele uitslag",
      "EUru": "Сейчас:",
      "JPja": "今回の結果",
      "KRko": "이번 결과",
      "TWzh": "本次的結果",
      "USen": "Current Results",
      "USes": "Results. actuales",
      "USfr": "Résultat actuel"
    }
  },
  {
    "label": "T_Score_00",
    "locale": {
      "CNzh": "最高分数",
      "EUde": "Highscore",
      "EUen": "High Score",
      "EUes": "Récord",
      "EUfr": "Record",
      "EUit": "Record",
      "EUnl": "Topscore",
      "EUru": "Рекорд",
      "JPja": "ハイスコア",
      "KRko": "하이 스코어",
      "TWzh": "最高分數",
      "USen": "High Score",
      "USes": "Récord",
      "USfr": "Record"
    }
  },
  {
    "label": "T_Top_00",
    "locale": {
      "CNzh": "前",
      "EUde": "Top",
      "EUen": "The Top",
      "EUes": "Mejores",
      "EUfr": "Top",
      "EUit": "Top",
      "EUnl": "De top",
      "EUru": "Лучшие",
      "JPja": "上位",
      "KRko": "상위",
      "TWzh": "前",
      "USen": "The Top",
      "USes": "Mejores",
      "USfr": "Top"
    }
  }
]