[
  {
    "label": "010",
    "locale": {
      "CNzh": "会合",
      "EUde": "Beitreten",
      "EUen": "Join",
      "EUes": "¡Todo listo!",
      "EUfr": "Rejoindre",
      "EUit": "Accedi",
      "EUnl": "Meedoen",
      "EUru": "Ага!",
      "JPja": "合流する",
      "KRko": "합류하기",
      "TWzh": "會合",
      "USen": "Join",
      "USes": "Unirse",
      "USfr": "Rejoindre"
    }
  },
  {
    "label": "011",
    "locale": {
      "CNzh": "乱入",
      "EUde": "Teilnehmen",
      "EUen": "Drop In",
      "EUes": "Abierto",
      "EUfr": "Intégrer",
      "EUit": "Entra",
      "EUnl": "Meespelen",
      "EUru": "Зайти",
      "JPja": "乱入する",
      "KRko": "난입하기",
      "TWzh": "亂入",
      "USen": "Drop In",
      "USes": "Entrar",
      "USfr": "Intégrer"
    }
  },
  {
    "label": "012",
    "locale": {
      "CNzh": "鱿型！",
      "EUde": "Spritzig!",
      "EUen": "Fresh!",
      "EUes": "¡Qué nivel!",
      "EUfr": "Classe !",
      "EUit": "Mitilico!",
      "EUnl": "Cool!",
      "EUru": "Класс!",
      "JPja": "イカす！",
      "KRko": "어메이징!",
      "TWzh": "魷型！",
      "USen": "Fresh!",
      "USes": "¡Chévere!",
      "USfr": "Cool!"
    }
  },
  {
    "label": "013",
    "locale": {
      "CNzh": "下载",
      "EUde": "Herunterladen",
      "EUen": "Download",
      "EUes": "Descargar",
      "EUfr": "Télécharger",
      "EUit": "Scarica",
      "EUnl": "Downloaden",
      "EUru": "Загрузить",
      "JPja": "ダウンロードする",
      "KRko": "다운로드하기",
      "TWzh": "下載",
      "USen": "Download",
      "USes": "Descargar",
      "USfr": "Télécharger"
    }
  },
  {
    "label": "L_Win_00-L_Key_01-T_Info_00",
    "locale": {
      "CNzh": "返回",
      "EUde": "Zurück",
      "EUen": "Back",
      "EUes": "Atrás",
      "EUfr": "Retour",
      "EUit": "Indietro",
      "EUnl": "Sluiten",
      "EUru": "Назад",
      "JPja": "もどる",
      "KRko": "뒤로",
      "TWzh": "返回",
      "USen": "Back",
      "USes": "Atrás",
      "USfr": "Retour"
    }
  },
  {
    "label": "L_Win_00-T_Lock_00",
    "locale": {
      "CNzh": "有密码",
      "EUde": "Mit Code",
      "EUen": "Password Req.",
      "EUes": "Con clave",
      "EUfr": "Accès par code",
      "EUit": "Con codice",
      "EUnl": "Met code",
      "EUru": "С паролем",
      "JPja": "パスワードあり",
      "KRko": "비밀번호 있음",
      "TWzh": "已設密碼",
      "USen": "Password Req.",
      "USes": "Con contraseña",
      "USfr": "Accès par code"
    }
  },
  {
    "label": "L_Win_00-T_Mic_00",
    "locale": {
      "CNzh": "开启语音聊天",
      "EUde": "Voice-Chat ein",
      "EUen": "Voice chat ON",
      "EUes": "Chat de voz activado",
      "EUfr": "Chat vocal : Oui",
      "EUit": "Chat vocale sì",
      "EUnl": "Voicechat aan",
      "EUru": "Голос. чат вкл.",
      "JPja": "ボイスチャット ON",
      "KRko": "보이스챗 ON",
      "TWzh": "語音聊天 ON",
      "USen": "Voice chat ON",
      "USes": "Con chat de voz",
      "USfr": "Bavardage : OUI"
    }
  },
  {
    "label": "L_Win_00-T_Wpn_00",
    "locale": {
      "CNzh": "发放武器",
      "EUde": "Verfügbare Waffen",
      "EUen": "Supplied Weapons",
      "EUes": "Armas asignadas",
      "EUfr": "Armes fournies",
      "EUit": "Armi fornite",
      "EUnl": "Beschikbare wapens",
      "EUru": "Табельное оружие",
      "JPja": "支給ブキ",
      "KRko": "지급 무기",
      "TWzh": "派發武器",
      "USen": "Supplied Weapons",
      "USes": "Armas disponibles",
      "USfr": "Armes fournies"
    }
  }
]