[
  {
    "label": "000",
    "locale": {
      "CNzh": "要创建{{color id=\"1\"}}一般比赛{{color id=\"65535\"}}的房间吗？",
      "EUde": "Raum für {{color id=\"1\"}}Standardkampf{{color id=\"65535\"}} erstellen?",
      "EUen": "Create room for a {{color id=\"1\"}}Regular Battle{{color id=\"65535\"}}?",
      "EUes": "¿Quieres crear una sala de {{color id=\"1\"}}combate amistoso{{color id=\"65535\"}}?",
      "EUfr": "Créer une session de {{color id=\"1\"}}match classique{{color id=\"65535\"}} ?",
      "EUit": "Creare una stanza per una {{color id=\"1\"}}partita amichevole{{color id=\"65535\"}}?",
      "EUnl": "Wil je een kamer maken voor een {{color id=\"1\"}}standaardgevecht{{color id=\"65535\"}}?",
      "EUru": "Организовать {{color id=\"1\"}}бой салаг{{color id=\"65535\"}}?",
      "JPja": "{{color id=\"1\"}}レギュラーマッチ{{color id=\"65535\"}}の部屋を作りますか？",
      "KRko": "{{color id=\"1\"}}레귤러 매치{{color id=\"65535\"}} 방을 만들겠습니까?",
      "TWzh": "確定要建立{{color id=\"1\"}}一般比賽{{color id=\"65535\"}}的房間嗎？",
      "USen": "Create room for a {{color id=\"1\"}}Regular Battle{{color id=\"65535\"}}?",
      "USes": "¿Quieres crear un grupo de {{color id=\"1\"}}combate amistoso{{color id=\"65535\"}}?",
      "USfr": "Créer une session de {{color id=\"1\"}}match classique{{color id=\"65535\"}}?"
    }
  },
  {
    "label": "001",
    "locale": {
      "CNzh": "要创建{{color id=\"1\"}}蛮颓比赛{{color id=\"65535\"}}的房间吗？",
      "EUde": "Raum für {{color id=\"1\"}}Anarchie-Kampf{{color id=\"65535\"}} erstellen?",
      "EUen": "Create room for an {{color id=\"1\"}}Anarchy Battle{{color id=\"65535\"}}?",
      "EUes": "¿Quieres crear una sala de {{color id=\"1\"}}combate caótico{{color id=\"65535\"}}?",
      "EUfr": "Créer une session de {{color id=\"1\"}}match anarchie {{color id=\"65535\"}}?",
      "EUit": "Creare una stanza per una {{color id=\"1\"}}partita anarchica{{color id=\"65535\"}}?",
      "EUnl": "Wil je een kamer maken voor een {{color id=\"1\"}}chaosgevecht{{color id=\"65535\"}}?",
      "EUru": "Организовать {{color id=\"1\"}}стихийный бой{{color id=\"65535\"}}?",
      "JPja": "{{color id=\"1\"}}バンカラマッチ{{color id=\"65535\"}}の部屋を作りますか？",
      "KRko": "{{color id=\"1\"}}카오폴리스 매치{{color id=\"65535\"}} 방을 만들겠습니까?",
      "TWzh": "確定要建立{{color id=\"1\"}}蠻頹比賽{{color id=\"65535\"}}的房間嗎？",
      "USen": "Create room for an {{color id=\"1\"}}Anarchy Battle{{color id=\"65535\"}}?",
      "USes": "¿Quieres crear un grupo de {{color id=\"1\"}}combate caótico{{color id=\"65535\"}}?",
      "USfr": "Créer une session de {{color id=\"1\"}}match anarchie{{color id=\"65535\"}}?"
    }
  },
  {
    "label": "002",
    "locale": {
      "CNzh": "要创建{{color id=\"1\"}}私人比赛{{color id=\"65535\"}}的房间吗？",
      "EUde": "Raum für {{color id=\"1\"}}privaten Kampf{{color id=\"65535\"}} erstellen?",
      "EUen": "Create room for a {{color id=\"1\"}}Private Battle{{color id=\"65535\"}}?",
      "EUes": "¿Quieres crear una sala de {{color id=\"1\"}}combate privado{{color id=\"65535\"}}?",
      "EUfr": "Créer une {{color id=\"1\"}}session de match privée{{color id=\"65535\"}} ?",
      "EUit": "Creare una stanza per una {{color id=\"1\"}}partita privata{{color id=\"65535\"}}?",
      "EUnl": "Wil je een kamer maken voor een {{color id=\"1\"}}privégevecht{{color id=\"65535\"}}?",
      "EUru": "Организовать {{color id=\"1\"}}частный бой{{color id=\"65535\"}}?",
      "JPja": "{{color id=\"1\"}}プライベートマッチ{{color id=\"65535\"}}の部屋を作りますか？",
      "KRko": "{{color id=\"1\"}}프라이빗 매치{{color id=\"65535\"}} 방을 만들겠습니까?",
      "TWzh": "確定要建立{{color id=\"1\"}}私人比賽{{color id=\"65535\"}}的房間嗎？",
      "USen": "Create room for a {{color id=\"1\"}}Private Battle{{color id=\"65535\"}}?",
      "USes": "¿Quieres crear un grupo de {{color id=\"1\"}}combate privado{{color id=\"65535\"}}?",
      "USfr": "Créer une {{color id=\"1\"}}session de match privée{{color id=\"65535\"}}?"
    }
  },
  {
    "label": "003",
    "locale": {
      "CNzh": "要创建{{color id=\"1\"}}SALMON RUN{{color id=\"65535\"}}的房间吗？",
      "EUde": "Raum für {{color id=\"1\"}}Salmon Run{{color id=\"65535\"}} erstellen?",
      "EUen": "Create room for a {{color id=\"1\"}}Salmon Run{{color id=\"65535\"}}?",
      "EUes": "¿Quieres crear una sala de {{color id=\"1\"}}Salmon Run{{color id=\"65535\"}}?",
      "EUfr": "Créer une {{color id=\"1\"}}session de Salmon Run{{color id=\"65535\"}} ?",
      "EUit": "Creare una stanza per una {{color id=\"1\"}}Salmon Run{{color id=\"65535\"}}?",
      "EUnl": "Wil je een kamer maken voor een {{color id=\"1\"}}Salmon Run{{color id=\"65535\"}}?",
      "EUru": "Организовать {{color id=\"1\"}}Salmon Run{{color id=\"65535\"}}?",
      "JPja": "{{color id=\"1\"}}SALMON RUN {{color id=\"65535\"}}の部屋を作りますか？",
      "KRko": "{{color id=\"1\"}}SALMON RUN {{color id=\"65535\"}}방을 만들겠습니까?",
      "TWzh": "確定要建立{{color id=\"1\"}}SALMON RUN{{color id=\"65535\"}}的房間嗎？",
      "USen": "Create room for a {{color id=\"1\"}}Salmon Run{{color id=\"65535\"}}?",
      "USes": "¿Quieres crear un grupo de {{color id=\"1\"}}Salmon Run{{color id=\"65535\"}}?",
      "USfr": "Créer une {{color id=\"1\"}}session de Salmon Run{{color id=\"65535\"}}?"
    }
  },
  {
    "label": "004",
    "locale": {
      "CNzh": "要用这个密码会合吗？",
      "EUde": "Mit diesem Code beitreten?",
      "EUen": "Join with this password?",
      "EUes": "¿Quieres unirte con esta clave?",
      "EUfr": "Rejoindre la session avec ce mot de passe ?",
      "EUit": "Vuoi partecipare con questo codice?",
      "EUnl": "Wil je via deze code meedoen?",
      "EUru": "Зайти с этим паролем?",
      "JPja": "このパスワードで合流しますか？",
      "KRko": "이 비밀번호로 합류하겠습니까?",
      "TWzh": "確定要使用此密碼會合嗎？",
      "USen": "Join with this password?",
      "USes": "¿Quieres unirte con esta contraseña?",
      "USfr": "Rejoindre la session avec ce mot de passe?"
    }
  },
  {
    "label": "005",
    "locale": {
      "CNzh": "要创建{{color id=\"1\"}}祭典比赛{{color id=\"65535\"}}的房间吗？",
      "EUde": "Raum für {{color id=\"1\"}}Splatfest-Kampf {{color id=\"65535\"}} erstellen?",
      "EUen": "Create room for a {{color id=\"1\"}}Splatfest Battle{{color id=\"65535\"}}?",
      "EUes": "¿Quieres crear una sala de {{color id=\"1\"}}combate temático{{color id=\"65535\"}}?",
      "EUfr": "Créer une session de {{color id=\"1\"}}festimatch{{color id=\"65535\"}} ?",
      "EUit": "Creare una stanza per una {{color id=\"1\"}}partita tematica{{color id=\"65535\"}}?",
      "EUnl": "Wil je een kamer maken voor een {{color id=\"1\"}}Splatfest-gevecht{{color id=\"65535\"}}?",
      "EUru": "Организовать {{color id=\"1\"}}Сплатфест-бой{{color id=\"65535\"}}?",
      "JPja": "{{color id=\"1\"}}フェスマッチ{{color id=\"65535\"}}の部屋を作りますか？",
      "KRko": "{{color id=\"1\"}}페스티벌 매치{{color id=\"65535\"}} 방을 만들겠습니까?",
      "TWzh": "確定要建立{{color id=\"1\"}}祭典比賽{{color id=\"65535\"}}的房間嗎？",
      "USen": "Create room for a {{color id=\"1\"}}Splatfest Battle{{color id=\"65535\"}}?",
      "USes": "¿Quieres crear un grupo de {{color id=\"1\"}}combate temático{{color id=\"65535\"}}?",
      "USfr": "Créer une session de {{color id=\"1\"}}festimatch{{color id=\"65535\"}}?"
    }
  },
  {
    "label": "006",
    "locale": {
      "CNzh": "要创建{{color id=\"1\"}}三色夺宝比赛{{color id=\"65535\"}}的房间吗？",
      "EUde": "Raum für {{color id=\"1\"}}Dreifarb-Match{{color id=\"65535\"}} erstellen?",
      "EUen": "Create room for a {{color id=\"1\"}}Tricolor Battle{{color id=\"65535\"}}?",
      "EUes": "¿Quieres crear una sala de {{color id=\"1\"}}pugna tricolor{{color id=\"65535\"}}?",
      "EUfr": "Créer une session de {{color id=\"1\"}}match tricolore {{color id=\"65535\"}}?",
      "EUit": "Creare una stanza per uno {{color id=\"1\"}}scontro tricolore{{color id=\"65535\"}}?",
      "EUnl": "Wil je een kamer maken voor een {{color id=\"1\"}}Driekleurengevecht{{color id=\"65535\"}}?",
      "EUru": "Организовать {{color id=\"1\"}}трехцветную стычку{{color id=\"65535\"}}?",
      "JPja": "{{color id=\"1\"}}トリカラマッチ{{color id=\"65535\"}}の部屋を作りますか？",
      "KRko": "{{color id=\"1\"}}트리컬러 매치{{color id=\"65535\"}} 방을 만들겠습니까?",
      "TWzh": "確定要建立{{color id=\"1\"}}三色奪寶比賽{{color id=\"65535\"}}的房間嗎？",
      "USen": "Create room for a {{color id=\"1\"}}Tricolor Battle{{color id=\"65535\"}}?",
      "USes": "¿Quieres crear un grupo de {{color id=\"1\"}}combate tricolor{{color id=\"65535\"}}?",
      "USfr": "Créer une session de {{color id=\"1\"}}match tricolore{{color id=\"65535\"}}?"
    }
  },
  {
    "label": "007",
    "locale": {
      "CNzh": "要创建{{color id=\"1\"}}占地斗士{{color id=\"65535\"}}的房间吗？",
      "EUde": "Raum für {{color id=\"1\"}}Revierdecks-Kampf{{color id=\"65535\"}} erstellen?",
      "EUen": "Create room for a {{color id=\"1\"}}Tableturf Battle{{color id=\"65535\"}}?",
      "EUes": "¿Quieres crear una sala de {{color id=\"1\"}}lucha carterritorial{{color id=\"65535\"}}?",
      "EUfr": "Créer une session de {{color id=\"1\"}}match de C&T {{color id=\"65535\"}}?",
      "EUit": "Creare una stanza per una {{color id=\"1\"}}partita a Splattanza{{color id=\"65535\"}}?",
      "EUnl": "Wil je een kamer maken voor een potje {{color id=\"1\"}}Slijkslag{{color id=\"65535\"}}?",
      "EUru": "Организовать {{color id=\"1\"}}бой в «Карты и район»{{color id=\"65535\"}}?",
      "JPja": "{{color id=\"1\"}}ナワバトラー{{color id=\"65535\"}}の部屋を作りますか？",
      "KRko": "{{color id=\"1\"}}영역 배틀러{{color id=\"65535\"}} 방을 만들겠습니까?",
      "TWzh": "確定要建立{{color id=\"1\"}}占地鬥士{{color id=\"65535\"}}的房間嗎？",
      "USen": "Create room for a {{color id=\"1\"}}Tableturf Battle{{color id=\"65535\"}}?",
      "USes": "¿Quieres crear un grupo de {{color id=\"1\"}}combate carterritorial{{color id=\"65535\"}}?",
      "USfr": "Créer une session de {{color id=\"1\"}}match de C et T{{color id=\"65535\"}}?"
    }
  },
  {
    "label": "008",
    "locale": {
      "CNzh": "要创建{{color id=\"1\"}}打工{{color id=\"65535\"}}的房间吗？",
      "EUde": "Raum für eine {{color id=\"1\"}}Salmon Run{{color id=\"65535\"}}-Schicht erstellen?",
      "EUen": "Create a room for a {{color id=\"1\"}}Salmon Run Shift{{color id=\"65535\"}}?",
      "EUes": "¿Quieres crear una sala para {{color id=\"1\"}}trabajar en Salmon Run{{color id=\"65535\"}}?",
      "EUfr": "Créer une session de {{color id=\"1\"}}Salmon Run {{color id=\"65535\"}}?",
      "EUit": "Creare una stanza per un {{color id=\"1\"}}turno di Salmon Run{{color id=\"65535\"}}?",
      "EUnl": "Wil je een kamer maken voor een{{color id=\"1\"}} Salmon Run-klus{{color id=\"65535\"}}?",
      "EUru": "Организовать {{color id=\"1\"}}смену Salmon Run{{color id=\"65535\"}}?",
      "JPja": "{{color id=\"1\"}}バイト{{color id=\"65535\"}}の部屋を作りますか？",
      "KRko": "{{color id=\"1\"}}아르바이트{{color id=\"65535\"}} 방을 만들겠습니까?",
      "TWzh": "確定要建立{{color id=\"1\"}}打工{{color id=\"65535\"}}的房間嗎？",
      "USen": "Create a room for a {{color id=\"1\"}}Salmon Run Shift{{color id=\"65535\"}}?",
      "USes": "¿Quieres crear un grupo de {{color id=\"1\"}}trabajo en Salmon Run{{color id=\"65535\"}}?",
      "USfr": "Créer une session de {{color id=\"1\"}}Salmon Run{{color id=\"65535\"}}?"
    }
  },
  {
    "label": "009",
    "locale": {
      "CNzh": "要创建{{color id=\"1\"}}私人打工{{color id=\"65535\"}}的房间吗？",
      "EUde": "Raum für {{color id=\"1\"}}private Schicht {{color id=\"65535\"}}erstellen?",
      "EUen": "Create room for a {{color id=\"1\"}}Private Job{{color id=\"65535\"}}?",
      "EUes": "¿Quieres crear una sala de {{color id=\"1\"}}trabajo privado{{color id=\"65535\"}}?",
      "EUfr": "Créer une session de {{color id=\"1\"}}mission privée {{color id=\"65535\"}}?",
      "EUit": "Creare una stanza per un {{color id=\"1\"}}lavoro privato{{color id=\"65535\"}}?",
      "EUnl": "Wil je een kamer maken voor een {{color id=\"1\"}}privéklus{{color id=\"65535\"}}?",
      "EUru": "Организовать {{color id=\"1\"}}частную смену{{color id=\"65535\"}}?",
      "JPja": "{{color id=\"1\"}}プライベートバイト{{color id=\"65535\"}}の部屋を作りますか？",
      "KRko": "{{color id=\"1\"}}프라이빗 아르바이트{{color id=\"65535\"}} 방을 만들겠습니까?",
      "TWzh": "確定要建立{{color id=\"1\"}}私人打工{{color id=\"65535\"}}的房間嗎？",
      "USen": "Create room for a {{color id=\"1\"}}Private Job{{color id=\"65535\"}}?",
      "USes": "¿Quieres crear un grupo de {{color id=\"1\"}}trabajo privado{{color id=\"65535\"}}?",
      "USfr": "Créer une session de {{color id=\"1\"}}mission privée{{color id=\"65535\"}}?"
    }
  },
  {
    "label": "010",
    "locale": {
      "CNzh": "{{number index=\"0\" type=\"4\" arg3=\"1\" arg4=\"0\"}}",
      "EUde": "{{number index=\"0\" type=\"4\" arg3=\"1\" arg4=\"0\"}}",
      "EUen": "{{number index=\"0\" type=\"4\" arg3=\"1\" arg4=\"0\"}}",
      "EUes": "{{number index=\"0\" type=\"4\" arg3=\"1\" arg4=\"0\"}}",
      "EUfr": "{{number index=\"0\" type=\"4\" arg3=\"1\" arg4=\"0\"}}",
      "EUit": "{{number index=\"0\" type=\"4\" arg3=\"1\" arg4=\"0\"}}",
      "EUnl": "{{number index=\"0\" type=\"4\" arg3=\"1\" arg4=\"0\"}}",
      "EUru": "{{number index=\"0\" type=\"4\" arg3=\"1\" arg4=\"0\"}}",
      "JPja": "{{number index=\"0\" type=\"4\" arg3=\"1\" arg4=\"0\"}}",
      "KRko": "{{number index=\"0\" type=\"4\" arg3=\"1\" arg4=\"0\"}}",
      "TWzh": "{{number index=\"0\" type=\"4\" arg3=\"1\" arg4=\"0\"}}",
      "USen": "{{number index=\"0\" type=\"4\" arg3=\"1\" arg4=\"0\"}}",
      "USes": "{{number index=\"0\" type=\"4\" arg3=\"1\" arg4=\"0\"}}",
      "USfr": "{{number index=\"0\" type=\"4\" arg3=\"1\" arg4=\"0\"}}"
    }
  },
  {
    "label": "011",
    "locale": {
      "CNzh": "要创建{{color id=\"1\"}}大型跑{{color id=\"65535\"}}的房间吗？",
      "EUde": "Raum für {{color id=\"1\"}}Big Run{{color id=\"65535\"}} erstellen?",
      "EUen": "Create a room for a {{color id=\"1\"}}Big Run{{color id=\"65535\"}}?",
      "EUes": "¿Quieres crear una sala de {{color id=\"1\"}}Big Run{{color id=\"65535\"}}?",
      "EUfr": "Créer une session de {{color id=\"1\"}}Big Run{{color id=\"65535\"}} ?",
      "EUit": "Creare una stanza per una {{color id=\"1\"}}Big Run{{color id=\"65535\"}}?",
      "EUnl": "Wil je een kamer maken voor een {{color id=\"1\"}}Big Run{{color id=\"65535\"}}?",
      "EUru": "Организовать {{color id=\"1\"}}Big Run{{color id=\"65535\"}}?",
      "JPja": "{{color id=\"1\"}}ビッグラン{{color id=\"65535\"}}の部屋を作りますか？",
      "KRko": "{{color id=\"1\"}}빅 런 {{color id=\"65535\"}}방을 만들겠습니까?",
      "TWzh": "確定要建立{{color id=\"1\"}}大型跑{{color id=\"65535\"}}的房間嗎？",
      "USen": "Create a room for a {{color id=\"1\"}}Big Run{{color id=\"65535\"}}?",
      "USes": "¿Quieres crear un grupo de {{color id=\"1\"}}Big Run{{color id=\"65535\"}}?",
      "USfr": "Créer une session de {{color id=\"1\"}}Big Run{{color id=\"65535\"}}?"
    }
  },
  {
    "label": "012",
    "locale": {
      "CNzh": "要创建{{color id=\"1\"}}团队打工竞赛{{color id=\"65535\"}}的房间吗？",
      "EUde": "Raum für {{color id=\"1\"}}Team-Wettkampf{{color id=\"65535\"}} erstellen?",
      "EUen": "Create a room for {{color id=\"1\"}}Eggstra Work{{color id=\"65535\"}}?",
      "EUes": "¿Quieres crear una sala de {{color id=\"1\"}}alianza alevínica{{color id=\"65535\"}}?",
      "EUfr": "Créer une session de {{color id=\"1\"}}défi œuf sup' {{color id=\"65535\"}}?",
      "EUit": "Creare una stanza per una {{color id=\"1\"}}sfida tra colleghi{{color id=\"65535\"}}?",
      "EUnl": "Wil je een kamer maken voor een {{color id=\"1\"}}bedrijfseitje{{color id=\"65535\"}}?",
      "EUru": "Организовать {{color id=\"1\"}}икорный овертайм{{color id=\"65535\"}}?",
      "JPja": "{{color id=\"1\"}}バイトチームコンテスト{{color id=\"65535\"}}の部屋を作りますか？",
      "KRko": "{{color id=\"1\"}}아르바이트 팀 콘테스트 {{color id=\"65535\"}}방을 만들겠습니까?",
      "TWzh": "確定要建立{{color id=\"1\"}}團隊打工競賽{{color id=\"65535\"}}的房間嗎？",
      "USen": "Create a room for {{color id=\"1\"}}Eggstra Work{{color id=\"65535\"}}?",
      "USes": "¿Quieres crear un grupo de {{color id=\"1\"}}recolección extra{{color id=\"65535\"}}?",
      "USfr": "Créer une session de {{color id=\"1\"}}défi œuf sup'{{color id=\"65535\"}}?"
    }
  },
  {
    "label": "013",
    "locale": {
      "CNzh": "要创建{{color id=\"1\"}}活动比赛{{color id=\"65535\"}}的房间吗？",
      "EUde": "Raum für {{color id=\"1\"}}Event-Kampf{{color id=\"65535\"}} erstellen?",
      "EUen": "Create room for a {{color id=\"1\"}}Challenge{{color id=\"65535\"}}?",
      "EUes": "¿Quieres crear una sala de {{color id=\"1\"}}combate evento{{color id=\"65535\"}}?",
      "EUfr": "Créer une session de {{color id=\"1\"}}match Challenge {{color id=\"65535\"}}?",
      "EUit": "Creare una stanza per una {{color id=\"1\"}}partita evento{{color id=\"65535\"}}?",
      "EUnl": "Wil je een kamer maken voor een {{color id=\"1\"}}eventgevecht{{color id=\"65535\"}}?",
      "EUru": "Организовать {{color id=\"1\"}}бой-событие{{color id=\"65535\"}}?",
      "JPja": "{{color id=\"1\"}}イベントマッチ{{color id=\"65535\"}}の部屋を作りますか？",
      "KRko": "{{color id=\"1\"}}이벤트 매치 {{color id=\"65535\"}}방을 만들겠습니까?",
      "TWzh": "確定要建立{{color id=\"1\"}}活動比賽{{color id=\"65535\"}}的房間嗎？",
      "USen": "Create room for a {{color id=\"1\"}}Challenge{{color id=\"65535\"}}?",
      "USes": "¿Quieres crear un grupo de {{color id=\"1\"}}combate especial{{color id=\"65535\"}}?",
      "USfr": "Créer une session de {{color id=\"1\"}}match épreuve{{color id=\"65535\"}}?"
    }
  },
  {
    "label": "020",
    "locale": {
      "CNzh": "取消",
      "EUde": "Abbrechen",
      "EUen": "Nope",
      "EUes": "No",
      "EUfr": "Non",
      "EUit": "No",
      "EUnl": "Nee",
      "EUru": "Не-а!",
      "JPja": "やめとく",
      "KRko": "그만두기",
      "TWzh": "取消",
      "USen": "Nope",
      "USes": "No",
      "USfr": "Non"
    }
  },
  {
    "label": "030",
    "locale": {
      "CNzh": "创建！",
      "EUde": "Ja",
      "EUen": "Yeah!",
      "EUes": "Sí",
      "EUfr": "Oui",
      "EUit": "Sì",
      "EUnl": "Ja",
      "EUru": "Ага!",
      "JPja": "つくる！",
      "KRko": "만들기",
      "TWzh": "建立！",
      "USen": "Yeah!",
      "USes": "Sí",
      "USfr": "Oui"
    }
  },
  {
    "label": "031",
    "locale": {
      "CNzh": "会合！",
      "EUde": "Ja",
      "EUen": "Yeah!",
      "EUes": "Sí",
      "EUfr": "Oui",
      "EUit": "Sì",
      "EUnl": "Ja",
      "EUru": "Ага!",
      "JPja": "合流する！",
      "KRko": "합류하기",
      "TWzh": "會合！",
      "USen": "Yeah!",
      "USes": "Sí",
      "USfr": "Oui"
    }
  },
  {
    "label": "040",
    "locale": {
      "CNzh": "重置密码",
      "EUde": "Code löschen",
      "EUen": "Clear Password",
      "EUes": "Quitar clave",
      "EUfr": "Supprimer",
      "EUit": "Annulla",
      "EUnl": "Code wissen",
      "EUru": "Сбросить пароль",
      "JPja": "パスワードリセット",
      "KRko": "비밀번호 리셋",
      "TWzh": "重置密碼",
      "USen": "Clear Password",
      "USes": "Sin contraseña",
      "USfr": "Supprimer"
    }
  },
  {
    "label": "041",
    "locale": {
      "CNzh": "密码设置",
      "EUde": "Code festlegen",
      "EUen": "Set Password",
      "EUes": "Fijar clave",
      "EUfr": "Choisir un code",
      "EUit": "Imposta codice",
      "EUnl": "Code instellen",
      "EUru": "Ввести пароль",
      "JPja": "パスワード設定",
      "KRko": "비밀번호 설정",
      "TWzh": "密碼設定",
      "USen": "Set Password",
      "USes": "Con contraseña",
      "USfr": "Choisir un code"
    }
  },
  {
    "label": "050",
    "locale": {
      "CNzh": "别名： {{string index=\"0\" arg2=\"10\"}}",
      "EUde": "Aliasname: {{string index=\"0\" arg2=\"10\"}}",
      "EUen": "Alias: {{string index=\"0\" arg2=\"10\"}}",
      "EUes": "Alias: {{string index=\"0\" arg2=\"10\"}}",
      "EUfr": "Pseudo : {{string index=\"0\" arg2=\"10\"}}",
      "EUit": "Alias: {{string index=\"0\" arg2=\"10\"}}",
      "EUnl": "Alias: {{string index=\"0\" arg2=\"10\"}}",
      "EUru": "Псевдоним: {{string index=\"0\" arg2=\"10\"}}",
      "JPja": "別名： {{string index=\"0\" arg2=\"10\"}}",
      "KRko": "가명: {{string index=\"0\" arg2=\"10\"}}",
      "TWzh": "別稱：{{string index=\"0\" arg2=\"10\"}}",
      "USen": "Alias: {{string index=\"0\" arg2=\"10\"}}",
      "USes": "Alias: {{string index=\"0\" arg2=\"10\"}}",
      "USfr": "Pseudo : {{string index=\"0\" arg2=\"10\"}}"
    }
  },
  {
    "label": "L_NameBtn_00-T_Info_00",
    "locale": {
      "CNzh": "别名设置",
      "EUde": "Aliasnamen festlegen",
      "EUen": "Set Alias",
      "EUes": "Confirmar alias",
      "EUfr": "Définir un pseudo",
      "EUit": "Scegli alias",
      "EUnl": "Alias",
      "EUru": "Ввести псевдоним",
      "JPja": "別名設定",
      "KRko": "가명 설정",
      "TWzh": "別稱設定",
      "USen": "Set Alias",
      "USes": "Usar alias",
      "USfr": "Définir un pseudo"
    }
  },
  {
    "label": "L_VoiceChatBtn_00-T_Info_00",
    "locale": {
      "CNzh": "开启/关闭语音聊天",
      "EUde": "Voice-Chat Ein/Aus",
      "EUen": "Voice chat ON/OFF",
      "EUes": "Chat de voz (sí/no)",
      "EUfr": "Chat vocal Oui/Non",
      "EUit": "Chat vocale sì/no",
      "EUnl": "Voicechat aan/uit",
      "EUru": "Голосовой чат вкл./выкл.",
      "JPja": "ボイスチャット ON/OFF",
      "KRko": "보이스챗 ON/OFF",
      "TWzh": "語音聊天 ON/OFF",
      "USen": "Voice chat ON/OFF",
      "USes": "Chat de voz (sí/no)",
      "USfr": "Bavardage OUI/NON"
    }
  },
  {
    "label": "T_Password_02",
    "locale": {
      "CNzh": "无密码",
      "EUde": "Ohne Code",
      "EUen": "No Password",
      "EUes": "Sin clave",
      "EUfr": "Accès libre",
      "EUit": "Senza codice",
      "EUnl": "Zonder code",
      "EUru": "Без пароля",
      "JPja": "パスワードなし",
      "KRko": "비밀번호 없음",
      "TWzh": "無密碼",
      "USen": "No Password",
      "USes": "Sin contraseña",
      "USfr": "Accès libre"
    }
  },
  {
    "label": "T_VoiceChat_00",
    "locale": {
      "CNzh": "开启语音聊天",
      "EUde": "Voice-Chat Ein",
      "EUen": "Voice chat ON",
      "EUes": "Chat de voz activado",
      "EUfr": "Chat vocal : Oui",
      "EUit": "Chat vocale sì",
      "EUnl": "Voicechat aan",
      "EUru": "Голосовой чат вкл.",
      "JPja": "ボイスチャット ON",
      "KRko": "보이스챗 ON",
      "TWzh": "語音聊天 ON",
      "USen": "Voice chat ON",
      "USes": "Con chat de voz",
      "USfr": "Bavardage : OUI"
    }
  },
  {
    "label": "T_VoiceChat_01",
    "locale": {
      "CNzh": "关闭语音聊天",
      "EUde": "Voice-Chat Aus",
      "EUen": "Voice chat OFF",
      "EUes": "Chat de voz desactivado",
      "EUfr": "Chat vocal : Non",
      "EUit": "Chat vocale no",
      "EUnl": "Voicechat uit",
      "EUru": "Голосовой чат выкл.",
      "JPja": "ボイスチャット OFF",
      "KRko": "보이스챗 OFF",
      "TWzh": "語音聊天 OFF",
      "USen": "Voice chat OFF",
      "USes": "Sin chat de voz",
      "USfr": "Bavardage : NON"
    }
  }
]