[
  {
    "label": "T_Ok_00",
    "locale": {
      "CNzh": "OK!",
      "EUde": "OK",
      "EUen": "OK",
      "EUes": "Vale",
      "EUfr": "OK",
      "EUit": "OK",
      "EUnl": "Oké",
      "EUru": "OK",
      "JPja": "OK!",
      "KRko": "OK!",
      "TWzh": "OK！",
      "USen": "OK",
      "USes": "Bien",
      "USfr": "OK"
    }
  }
]