[
  {
    "label": "000",
    "locale": {
      "CNzh": "{{fun_0002_0002 arg=\"0x0000000006002E002E002E00\"}}",
      "EUde": "{{fun_0002_0002 arg=\"0x0000000006002E002E002E00\"}}",
      "EUen": "{{fun_0002_0002 arg=\"0x0000000006002E002E002E00\"}}",
      "EUes": "{{fun_0002_0002 arg=\"0x0000000006002E002E002E00\"}}",
      "EUfr": "{{fun_0002_0002 arg=\"0x0000000006002E002E002E00\"}}",
      "EUit": "{{fun_0002_0002 arg=\"0x0000000006002E002E002E00\"}}",
      "EUnl": "{{fun_0002_0002 arg=\"0x0000000006002E002E002E00\"}}",
      "EUru": "{{fun_0002_0002 arg=\"0x0000000006002E002E002E00\"}}",
      "JPja": "{{fun_0002_0002 arg=\"0x0000000006002E002E002E00\"}}",
      "KRko": "{{fun_0002_0002 arg=\"0x0000000006002E002E002E00\"}}",
      "TWzh": "{{fun_0002_0002 arg=\"0x0000000006002E002E002E00\"}}",
      "USen": "{{fun_0002_0002 arg=\"0x0000000006002E002E002E00\"}}",
      "USes": "{{fun_0002_0002 arg=\"0x0000000006002E002E002E00\"}}",
      "USfr": "{{fun_0002_0002 arg=\"0x0000000006002E002E002E00\"}}"
    }
  },
  {
    "label": "100",
    "locale": {
      "CNzh": "{{string value=\"MusicTitle\" arg1=\"0\" arg3=\"0\"}}",
      "EUde": "{{string value=\"MusicTitle\" arg1=\"0\" arg3=\"0\"}}",
      "EUen": "{{string value=\"MusicTitle\" arg1=\"0\" arg3=\"0\"}}",
      "EUes": "{{string value=\"MusicTitle\" arg1=\"0\" arg3=\"0\"}}",
      "EUfr": "{{string value=\"MusicTitle\" arg1=\"0\" arg3=\"0\"}}",
      "EUit": "{{string value=\"MusicTitle\" arg1=\"0\" arg3=\"0\"}}",
      "EUnl": "{{string value=\"MusicTitle\" arg1=\"0\" arg3=\"0\"}}",
      "EUru": "{{string value=\"MusicTitle\" arg1=\"0\" arg3=\"0\"}}",
      "JPja": "{{string value=\"MusicTitle\" arg1=\"0\" arg3=\"0\"}}",
      "KRko": "{{string value=\"MusicTitle\" arg1=\"0\" arg3=\"0\"}}",
      "TWzh": "{{string value=\"MusicTitle\" arg1=\"0\" arg3=\"0\"}}",
      "USen": "{{string value=\"MusicTitle\" arg1=\"0\" arg3=\"0\"}}",
      "USes": "{{string value=\"MusicTitle\" arg1=\"0\" arg3=\"0\"}}",
      "USfr": "{{string value=\"MusicTitle\" arg1=\"0\" arg3=\"0\"}}"
    }
  },
  {
    "label": "200",
    "locale": {
      "CNzh": "{{fun_0002_0002 arg=\"0x0000000006002E002E002E00\"}}",
      "EUde": "{{fun_0002_0002 arg=\"0x0000000006002E002E002E00\"}}",
      "EUen": "{{fun_0002_0002 arg=\"0x0000000006002E002E002E00\"}}",
      "EUes": "{{fun_0002_0002 arg=\"0x0000000006002E002E002E00\"}}",
      "EUfr": "{{fun_0002_0002 arg=\"0x0000000006002E002E002E00\"}}",
      "EUit": "{{fun_0002_0002 arg=\"0x0000000006002E002E002E00\"}}",
      "EUnl": "{{fun_0002_0002 arg=\"0x0000000006002E002E002E00\"}}",
      "EUru": "{{fun_0002_0002 arg=\"0x0000000006002E002E002E00\"}}",
      "JPja": "{{fun_0002_0002 arg=\"0x0000000006002E002E002E00\"}}",
      "KRko": "{{fun_0002_0002 arg=\"0x0000000006002E002E002E00\"}}",
      "TWzh": "{{fun_0002_0002 arg=\"0x0000000006002E002E002E00\"}}",
      "USen": "{{fun_0002_0002 arg=\"0x0000000006002E002E002E00\"}}",
      "USes": "{{fun_0002_0002 arg=\"0x0000000006002E002E002E00\"}}",
      "USfr": "{{fun_0002_0002 arg=\"0x0000000006002E002E002E00\"}}"
    }
  },
  {
    "label": "300",
    "locale": {
      "CNzh": "{{string value=\"MusicArtist\" arg1=\"0\" arg3=\"0\"}}",
      "EUde": "{{string value=\"MusicArtist\" arg1=\"0\" arg3=\"0\"}}",
      "EUen": "{{string value=\"MusicArtist\" arg1=\"0\" arg3=\"0\"}}",
      "EUes": "{{string value=\"MusicArtist\" arg1=\"0\" arg3=\"0\"}}",
      "EUfr": "{{string value=\"MusicArtist\" arg1=\"0\" arg3=\"0\"}}",
      "EUit": "{{string value=\"MusicArtist\" arg1=\"0\" arg3=\"0\"}}",
      "EUnl": "{{string value=\"MusicArtist\" arg1=\"0\" arg3=\"0\"}}",
      "EUru": "{{string value=\"MusicArtist\" arg1=\"0\" arg3=\"0\"}}",
      "JPja": "{{string value=\"MusicArtist\" arg1=\"0\" arg3=\"0\"}}",
      "KRko": "{{string value=\"MusicArtist\" arg1=\"0\" arg3=\"0\"}}",
      "TWzh": "{{string value=\"MusicArtist\" arg1=\"0\" arg3=\"0\"}}",
      "USen": "{{string value=\"MusicArtist\" arg1=\"0\" arg3=\"0\"}}",
      "USes": "{{string value=\"MusicArtist\" arg1=\"0\" arg3=\"0\"}}",
      "USfr": "{{string value=\"MusicArtist\" arg1=\"0\" arg3=\"0\"}}"
    }
  },
  {
    "label": "400",
    "locale": {
      "CNzh": "{{string value=\"PlayerName\" arg1=\"0\" arg3=\"0\"}}的点播",
      "EUde": "Gewünscht von {{string value=\"PlayerName\" arg1=\"0\" arg3=\"0\"}}",
      "EUen": "Request from {{string value=\"PlayerName\" arg1=\"0\" arg3=\"0\"}}",
      "EUes": "Petición de {{string value=\"PlayerName\" arg1=\"0\" arg3=\"0\"}}",
      "EUfr": "Demande de : {{string value=\"PlayerName\" arg1=\"0\" arg3=\"0\"}}",
      "EUit": "Richiesta di {{string value=\"PlayerName\" arg1=\"0\" arg3=\"0\"}}",
      "EUnl": "Verzoek van {{string value=\"PlayerName\" arg1=\"0\" arg3=\"0\"}}",
      "EUru": "По заявке игрока {{string value=\"PlayerName\" arg1=\"0\" arg3=\"0\"}}",
      "JPja": "{{string value=\"PlayerName\" arg1=\"0\" arg3=\"0\"}} さんのリクエスト",
      "KRko": "{{string value=\"PlayerName\" arg1=\"0\" arg3=\"0\"}} 님의 신청곡",
      "TWzh": "由{{string value=\"PlayerName\" arg1=\"0\" arg3=\"0\"}}點播",
      "USen": "Request from {{string value=\"PlayerName\" arg1=\"0\" arg3=\"0\"}}",
      "USes": "Petición de {{string value=\"PlayerName\" arg1=\"0\" arg3=\"0\"}}",
      "USfr": "Demande de : {{string value=\"PlayerName\" arg1=\"0\" arg3=\"0\"}}"
    }
  },
  {
    "label": "500",
    "locale": {
      "CNzh": "{{string value=\"MusicTitle\" arg1=\"0\" arg3=\"0\"}}",
      "EUde": "{{string value=\"MusicTitle\" arg1=\"0\" arg3=\"0\"}}",
      "EUen": "{{string value=\"MusicTitle\" arg1=\"0\" arg3=\"0\"}}",
      "EUes": "{{string value=\"MusicTitle\" arg1=\"0\" arg3=\"0\"}}",
      "EUfr": "{{string value=\"MusicTitle\" arg1=\"0\" arg3=\"0\"}}",
      "EUit": "{{string value=\"MusicTitle\" arg1=\"0\" arg3=\"0\"}}",
      "EUnl": "{{string value=\"MusicTitle\" arg1=\"0\" arg3=\"0\"}}",
      "EUru": "{{string value=\"MusicTitle\" arg1=\"0\" arg3=\"0\"}}",
      "JPja": "{{string value=\"MusicTitle\" arg1=\"0\" arg3=\"0\"}}",
      "KRko": "{{string value=\"MusicTitle\" arg1=\"0\" arg3=\"0\"}}",
      "TWzh": "{{string value=\"MusicTitle\" arg1=\"0\" arg3=\"0\"}}",
      "USen": "{{string value=\"MusicTitle\" arg1=\"0\" arg3=\"0\"}}",
      "USes": "{{string value=\"MusicTitle\" arg1=\"0\" arg3=\"0\"}}",
      "USfr": "{{string value=\"MusicTitle\" arg1=\"0\" arg3=\"0\"}}"
    }
  },
  {
    "label": "501",
    "locale": {
      "CNzh": "？？？",
      "EUde": "???",
      "EUen": "???",
      "EUes": "(?)",
      "EUfr": "???",
      "EUit": "???",
      "EUnl": "???",
      "EUru": "???",
      "JPja": "？？？",
      "KRko": "???",
      "TWzh": "？？？",
      "USen": "???",
      "USes": "(?)",
      "USfr": "???"
    }
  },
  {
    "label": "600",
    "locale": {
      "CNzh": "{{string value=\"MusicArtist\" arg1=\"0\" arg3=\"0\"}}",
      "EUde": "{{string value=\"MusicArtist\" arg1=\"0\" arg3=\"0\"}}",
      "EUen": "{{string value=\"MusicArtist\" arg1=\"0\" arg3=\"0\"}}",
      "EUes": "{{string value=\"MusicArtist\" arg1=\"0\" arg3=\"0\"}}",
      "EUfr": "{{string value=\"MusicArtist\" arg1=\"0\" arg3=\"0\"}}",
      "EUit": "{{string value=\"MusicArtist\" arg1=\"0\" arg3=\"0\"}}",
      "EUnl": "{{string value=\"MusicArtist\" arg1=\"0\" arg3=\"0\"}}",
      "EUru": "{{string value=\"MusicArtist\" arg1=\"0\" arg3=\"0\"}}",
      "JPja": "{{string value=\"MusicArtist\" arg1=\"0\" arg3=\"0\"}}",
      "KRko": "{{string value=\"MusicArtist\" arg1=\"0\" arg3=\"0\"}}",
      "TWzh": "{{string value=\"MusicArtist\" arg1=\"0\" arg3=\"0\"}}",
      "USen": "{{string value=\"MusicArtist\" arg1=\"0\" arg3=\"0\"}}",
      "USes": "{{string value=\"MusicArtist\" arg1=\"0\" arg3=\"0\"}}",
      "USfr": "{{string value=\"MusicArtist\" arg1=\"0\" arg3=\"0\"}}"
    }
  },
  {
    "label": "601",
    "locale": {
      "CNzh": "？？？",
      "EUde": "???",
      "EUen": "???",
      "EUes": "(?)",
      "EUfr": "???",
      "EUit": "???",
      "EUnl": "???",
      "EUru": "???",
      "JPja": "？？？",
      "KRko": "???",
      "TWzh": "？？？",
      "USen": "???",
      "USes": "(?)",
      "USfr": "???"
    }
  },
  {
    "label": "900",
    "locale": {
      "CNzh": "现在正在播放其他玩家选择的歌曲，\n要点播更改歌曲吗？",
      "EUde": "Der laufende Track wurde von einem anderen Spieler gewählt.\nMöchtest du dir wünschen, den Track zu ändern?",
      "EUen": "Another player chose the song that is currently\nplaying. Do you want to request to change it?",
      "EUes": "La canción que suena ha sido solicitada por otro jugador.\n¿Quieres pedir que la cambien?",
      "EUfr": "Un autre joueur a choisi la chanson en cours.\nVeux-tu demander de la changer ?",
      "EUit": "Un altro giocatore ha scelto la canzone in riproduzione\nal momento. Vuoi chiedere di cambiarla?",
      "EUnl": "Het nummer dat nu wordt afgespeeld, is aangevraagd door een\nandere speler. Wil je toch een ander verzoeknummer aanvragen?",
      "EUru": "В настоящий момент проигрывается трек по заявке\nдругого игрока. Заменить его на свою заявку?",
      "JPja": "今は他のプレイヤーが選んだ曲を再生中です\n曲の変更をリクエストしますか？",
      "KRko": "지금은 다른 플레이어가 선택한 곡을 재생 중입니다\n곡 변경을 신청하겠습니까?",
      "TWzh": "目前正在播放其他玩家點播的歌曲，\n確定要點播其他歌曲嗎？",
      "USen": "Another player chose the song that is currently\nplaying. Do you want to request to change it?",
      "USes": "La canción que está sonando fue solicitada por otro jugador.\n¿Quieres pedir que la cambien?",
      "USfr": "Un autre joueur a choisi la chanson en cours.\nVeux-tu demander de la changer?"
    }
  },
  {
    "label": "901",
    "locale": {
      "CNzh": "要点播这首歌曲吗？",
      "EUde": "Diesen Track wünschen?",
      "EUen": "Request this song?",
      "EUes": "¿Quieres pedir esta canción?",
      "EUfr": "Demander cette chanson ?",
      "EUit": "Vuoi richiedere questa canzone?",
      "EUnl": "Wil je dit nummer aanvragen?",
      "EUru": "Отправить заявку на этот трек?",
      "JPja": "この曲をリクエストしますか？",
      "KRko": "이 곡을 신청하겠습니까?",
      "TWzh": "確定要點播此歌曲嗎？",
      "USen": "Request this song?",
      "USes": "¿Quieres pedir esta canción?",
      "USfr": "Demander cette chanson?"
    }
  },
  {
    "label": "Category_Coop_00",
    "locale": {
      "CNzh": "SALMON RUN",
      "EUde": "Salmon Run",
      "EUen": "Salmon Run",
      "EUes": "Salmon Run",
      "EUfr": "Salmon Run",
      "EUit": "Salmon Run",
      "EUnl": "Salmon Run",
      "EUru": "Salmon Run",
      "JPja": "SALMON RUN",
      "KRko": "SALMON RUN",
      "TWzh": "SALMON  RUN",
      "USen": "Salmon Run",
      "USes": "Salmon Run",
      "USfr": "Salmon Run"
    }
  },
  {
    "label": "Category_Mission_00",
    "locale": {
      "CNzh": "英雄模式",
      "EUde": "Story-Modus",
      "EUen": "Story Mode",
      "EUes": "Modo historia",
      "EUfr": "Mode Histoire",
      "EUit": "Modalità storia",
      "EUnl": "Verhaal",
      "EUru": "Сюжет",
      "JPja": "ヒーローモード",
      "KRko": "히어로 모드",
      "TWzh": "英雄模式",
      "USen": "Story Mode",
      "USes": "Modo historia",
      "USfr": "Mode Histoire"
    }
  },
  {
    "label": "Category_Other_00",
    "locale": {
      "CNzh": "其他",
      "EUde": "Sonstige",
      "EUen": "Other",
      "EUes": "Otros",
      "EUfr": "Autre",
      "EUit": "Altro",
      "EUnl": "Overige",
      "EUru": "Прочее",
      "JPja": "その他",
      "KRko": "기타",
      "TWzh": "其他",
      "USen": "Other",
      "USes": "Otros",
      "USfr": "Autre"
    }
  },
  {
    "label": "Category_Plaza_00",
    "locale": {
      "CNzh": "城镇",
      "EUde": "Stadt",
      "EUen": "City",
      "EUes": "Ciudad",
      "EUfr": "Ville",
      "EUit": "Città",
      "EUnl": "Stad",
      "EUru": "Город",
      "JPja": "街",
      "KRko": "도시",
      "TWzh": "城鎮",
      "USen": "City",
      "USes": "Ciudad",
      "USfr": "Ville"
    }
  },
  {
    "label": "Category_SideOrder_00",
    "locale": {
      "CNzh": "秩序篇",
      "EUde": "Ruf zur Ordnung",
      "EUen": "Side Order",
      "EUes": "La cara del orden",
      "EUfr": "Tour de l'Ordre",
      "EUit": "Torre dell'Ordine",
      "EUnl": "De Toren der Orde",
      "EUru": "Порядочная порция",
      "JPja": "サイド・オーダー",
      "KRko": "사이드 오더",
      "TWzh": "秩序篇",
      "USen": "Side Order",
      "USes": "La cara del orden",
      "USfr": "Tour de l'Ordre"
    }
  },
  {
    "label": "Category_Versus_00",
    "locale": {
      "CNzh": "对战",
      "EUde": "Kämpfe",
      "EUen": "Battles",
      "EUes": "Combates",
      "EUfr": "Matchs",
      "EUit": "Battaglie",
      "EUnl": "Gevechten",
      "EUru": "Бои",
      "JPja": "バトル",
      "KRko": "배틀",
      "TWzh": "對戰",
      "USen": "Battles",
      "USes": "Combates",
      "USfr": "Matchs"
    }
  },
  {
    "label": "L_Bottom_00-T_Info_00",
    "locale": {
      "CNzh": "关闭",
      "EUde": "Schließen",
      "EUen": "Close",
      "EUes": "Cerrar",
      "EUfr": "Fermer",
      "EUit": "Chiudi",
      "EUnl": "Sluiten",
      "EUru": "Закрыть",
      "JPja": "とじる",
      "KRko": "닫기",
      "TWzh": "關閉",
      "USen": "Close",
      "USes": "Cerrar",
      "USfr": "Fermer"
    }
  },
  {
    "label": "L_BtnL_00-T_Btn_00",
    "locale": {
      "CNzh": "取消",
      "EUde": "Nee",
      "EUen": "Nah",
      "EUes": "No...",
      "EUfr": "Non...",
      "EUit": "No",
      "EUnl": "Nee...",
      "EUru": "Не-а!",
      "JPja": "やめとく",
      "KRko": "그만두기",
      "TWzh": "不要",
      "USen": "Nah",
      "USes": "No...",
      "USfr": "Non..."
    }
  },
  {
    "label": "L_BtnR_00-T_Btn_00",
    "locale": {
      "CNzh": "点播！",
      "EUde": "Unbedingt!",
      "EUen": "Let's Hear It!",
      "EUes": "¡Exacto!",
      "EUfr": "Allons-y !",
      "EUit": "Sì",
      "EUnl": "Ja!",
      "EUru": "Ага!",
      "JPja": "リクエストする！",
      "KRko": "신청하기",
      "TWzh": "點播！",
      "USen": "Let's Hear It!",
      "USes": "¡Sííí!",
      "USfr": "Allons-y!"
    }
  },
  {
    "label": "L_Stop_00-T_Info_00",
    "locale": {
      "CNzh": "停止点播的歌曲",
      "EUde": "Wunsch abbrechen",
      "EUen": "Cancel Request",
      "EUes": "Retirar petición",
      "EUfr": "Annuler la demande",
      "EUit": "Annulla richiesta",
      "EUnl": "Verzoek annuleren",
      "EUru": "Отменить заявку",
      "JPja": "リクエストを取り消す",
      "KRko": "신청 취소하기",
      "TWzh": "取消點播",
      "USen": "Cancel Request",
      "USes": "Cancelar petición",
      "USfr": "Annuler la demande"
    }
  },
  {
    "label": "T_CoinNum_00",
    "locale": {
      "CNzh": "×100",
      "EUde": "×100",
      "EUen": "x100",
      "EUes": "×100",
      "EUfr": "×100",
      "EUit": "×100",
      "EUnl": "×100",
      "EUru": "x100",
      "JPja": "×１００",
      "KRko": "×100",
      "TWzh": "×100",
      "USen": "x100",
      "USes": "x100",
      "USfr": "×100"
    }
  }
]