[
  {
    "label": "000",
    "locale": {
      "CNzh": "放弃",
      "EUde": "Beenden",
      "EUen": "Stop",
      "EUes": "Terminar",
      "EUfr": "Arrêter",
      "EUit": "Fine",
      "EUnl": "Stoppen",
      "EUru": "Прекратить",
      "JPja": "やめる",
      "KRko": "그만두기",
      "TWzh": "退出",
      "USen": "Stop",
      "USes": "Terminar",
      "USfr": "Arrêter"
    }
  },
  {
    "label": "001",
    "locale": {
      "CNzh": "暂时中断",
      "EUde": "Serie\npausieren",
      "EUen": "Pause Series",
      "EUes": "Hacer una pausa\nen la serie",
      "EUfr": "Faire une pause\ndans la série",
      "EUit": "Pausa serie",
      "EUnl": "Sessie\npauzeren",
      "EUru": "Перерыв",
      "JPja": "いったん中断する",
      "KRko": "일단 중단하기",
      "TWzh": "暫時中斷",
      "USen": "Pause Series",
      "USes": "Pausar la\nserie",
      "USfr": "Faire une pause\ndans la série"
    }
  },
  {
    "label": "010",
    "locale": {
      "CNzh": "继续！",
      "EUde": "Fortsetzen",
      "EUen": "Keep Going",
      "EUes": "Continuar",
      "EUfr": "Continuer",
      "EUit": "Continua",
      "EUnl": "Doorgaan",
      "EUru": "Продолжить",
      "JPja": "つづける！",
      "KRko": "이어서 하기",
      "TWzh": "繼續！",
      "USen": "Keep Going",
      "USes": "Continuar",
      "USfr": "Continuer"
    }
  },
  {
    "label": "011",
    "locale": {
      "CNzh": "以相同队伍\n继续！",
      "EUde": "Weiter mit\ndiesem Team!",
      "EUen": "Stick with\nThis Team!",
      "EUes": "¡Seguir con\neste equipo!",
      "EUfr": "Continuer avec\ncette équipe",
      "EUit": "Continua con la\nstessa squadra!",
      "EUnl": "Verder met\ndit team!",
      "EUru": "Дальше с той\nже командой!",
      "JPja": "同じチームで\nつづける！",
      "KRko": "같은 팀으로\n이어서 하기",
      "TWzh": "以相同隊伍\n繼續！",
      "USen": "Stick with\nThis Team!",
      "USes": "¡Seguir con\neste equipo!",
      "USfr": "Continuer avec\ncette équipe"
    }
  },
  {
    "label": "020",
    "locale": {
      "CNzh": "进行自定义后\n继续！",
      "EUde": "Anpassen und\nweiterkämpfen!",
      "EUen": "Change Gear,\nThen Go!",
      "EUes": "¡Cambiar equip.\ny continuar!",
      "EUfr": "Revoir équip.\net continuer",
      "EUit": "Spogliatoio",
      "EUnl": "Uitrusting\naanpassen!",
      "EUru": "Биться с новым\nснаряжением!",
      "JPja": "カスタマイズして\nつづける！",
      "KRko": "커스터마이즈하고\n이어서 하기",
      "TWzh": "進行自訂後\n繼續！",
      "USen": "Change Gear,\nThen Go!",
      "USes": "¡Equipar y\ncontinuar!",
      "USfr": "S'équiper et\ncontinuer"
    }
  },
  {
    "label": "T_text_00",
    "locale": {
      "CNzh": "有玩家正在等待参加",
      "EUde": "Spieler wartend!",
      "EUen": "Player(s) waiting to join!",
      "EUes": "Uno o más jugadores en espera",
      "EUfr": "Un ou plusieurs joueurs en attente !",
      "EUit": "Uno o più giocatori in attesa!",
      "EUnl": "Wachtende speler!",
      "EUru": "Минимум один игрок ждет боя!",
      "JPja": "参加待ちのプレイヤーがいます",
      "KRko": "대기 중인 플레이어 있음",
      "TWzh": "有玩家在等待參加",
      "USen": "Player(s) waiting to join!",
      "USes": "Uno o más jugadores en espera",
      "USfr": "Un ou plusieurs joueurs en attente!"
    }
  }
]