[
  {
    "label": "000",
    "locale": {
      "CNzh": "返回",
      "EUde": "Zurück",
      "EUen": "Back",
      "EUes": "Atrás",
      "EUfr": "Retour",
      "EUit": "Indietro",
      "EUnl": "Terug",
      "EUru": "Назад",
      "JPja": "もどる",
      "KRko": "뒤로",
      "TWzh": "返回",
      "USen": "Back",
      "USes": "Atrás",
      "USfr": "Retour"
    }
  },
  {
    "label": "001",
    "locale": {
      "CNzh": "返回",
      "EUde": "Zurück",
      "EUen": "Back",
      "EUes": "Atrás",
      "EUfr": "Retour",
      "EUit": "Indietro",
      "EUnl": "Terug",
      "EUru": "Назад",
      "JPja": "もどる",
      "KRko": "뒤로",
      "TWzh": "返回",
      "USen": "Back",
      "USes": "Atrás",
      "USfr": "Retour"
    }
  },
  {
    "label": "L_EditBtn_00-T_Text_00",
    "locale": {
      "CNzh": "编辑牌组",
      "EUde": "Deck-Editor",
      "EUen": "Edit Deck",
      "EUes": "Editar mazo",
      "EUfr": "Éditeur de deck",
      "EUit": "Modifica mazzo",
      "EUnl": "Set bewerken",
      "EUru": "Изменить колоду",
      "JPja": "デッキ編集",
      "KRko": "덱 편집",
      "TWzh": "編輯牌組",
      "USen": "Edit Deck",
      "USes": "Editar mazo",
      "USfr": "Éditeur de paquet"
    }
  },
  {
    "label": "L_PreviewBack_00-T_Info_00",
    "locale": {
      "CNzh": "返回",
      "EUde": "Zurück",
      "EUen": "Back",
      "EUes": "Atrás",
      "EUfr": "Retour",
      "EUit": "Indietro",
      "EUnl": "Terug",
      "EUru": "Назад",
      "JPja": "もどる",
      "KRko": "뒤로",
      "TWzh": "返回",
      "USen": "Back",
      "USes": "Atrás",
      "USfr": "Retour"
    }
  },
  {
    "label": "L_TradePieceBtn_00-T_Text_00",
    "locale": {
      "CNzh": "兑换卡片碎片",
      "EUde": "Kartenschmiede",
      "EUen": "Card-Bit Exchange",
      "EUes": "Canje de trozos",
      "EUfr": "Échange de fragments",
      "EUit": "Scambio frammenti",
      "EUnl": "Kaartstukjes ruilen",
      "EUru": "Редактор карт",
      "JPja": "カードのかけら交換",
      "KRko": "카드 파편 교환",
      "TWzh": "卡片碎片兌換",
      "USen": "Card-Bit Exchange",
      "USes": "Canje de trozos",
      "USfr": "Échange de fragments"
    }
  },
  {
    "label": "T_TitlePiece_00",
    "locale": {
      "CNzh": "兑换卡片碎片",
      "EUde": "Kartenschmiede",
      "EUen": "Card-Bit Exchange",
      "EUes": "Canje de trozos",
      "EUfr": "Échange de fragments",
      "EUit": "Scambio frammenti",
      "EUnl": "Kaartstukjes ruilen",
      "EUru": "Редактор карт",
      "JPja": "カードのかけら交換",
      "KRko": "카드 파편 교환",
      "TWzh": "卡片碎片兌換",
      "USen": "Card-Bit Exchange",
      "USes": "Canje de trozos",
      "USfr": "Échange de fragments"
    }
  },
  {
    "label": "T_Title_00",
    "locale": {
      "CNzh": "卡片列表",
      "EUde": "Kartenliste",
      "EUen": "Card List",
      "EUes": "Lista de cartas",
      "EUfr": "Liste de cartes",
      "EUit": "Carte",
      "EUnl": "Kaarten",
      "EUru": "Список карт",
      "JPja": "カードリスト",
      "KRko": "카드 리스트",
      "TWzh": "卡片清單",
      "USen": "Card List",
      "USes": "Lista de cartas",
      "USfr": "Liste de cartes"
    }
  }
]