[
  {
    "label": "L_Change_00-T_Text_00",
    "locale": {
      "CNzh": "更改卡片套",
      "EUde": "Hüllen wählen",
      "EUen": "Change Sleeves",
      "EUes": "Cambiar fundas",
      "EUfr": "Modifier le motif",
      "EUit": "Cambia stile",
      "EUnl": "Hoesje kiezen",
      "EUru": "Выбрать кармашки",
      "JPja": "スリーブ変更",
      "KRko": "슬리브 변경",
      "TWzh": "更改卡套",
      "USen": "Change Sleeves",
      "USes": "Cambiar fundas",
      "USfr": "Modifier le motif"
    }
  },
  {
    "label": "L_Close_00-T_Info_00",
    "locale": {
      "CNzh": "返回",
      "EUde": "Zurück",
      "EUen": "Back",
      "EUes": "Atrás",
      "EUfr": "Retour",
      "EUit": "Indietro",
      "EUnl": "Terug",
      "EUru": "Назад",
      "JPja": "もどる",
      "KRko": "뒤로",
      "TWzh": "返回",
      "USen": "Back",
      "USes": "Atrás",
      "USfr": "Retour"
    }
  },
  {
    "label": "L_Copy_00-T_Text_00",
    "locale": {
      "CNzh": "复制",
      "EUde": "Deck kopieren",
      "EUen": "Copy",
      "EUes": "Copiar",
      "EUfr": "Copier",
      "EUit": "Copia",
      "EUnl": "Kopiëren",
      "EUru": "Копировать колоду",
      "JPja": "コピー",
      "KRko": "복사",
      "TWzh": "複製",
      "USen": "Copy",
      "USes": "Copiar",
      "USfr": "Copier"
    }
  },
  {
    "label": "L_DeckName_00-T_Text_00",
    "locale": {
      "CNzh": "更改牌组名称",
      "EUde": "Umbenennen",
      "EUen": "Change Deck Name",
      "EUes": "Cambiar nombre",
      "EUfr": "Modifier le nom du deck",
      "EUit": "Cambia nome",
      "EUnl": "Naam wijzigen",
      "EUru": "Изменить название",
      "JPja": "デッキ名変更",
      "KRko": "덱명 변경",
      "TWzh": "更改牌組名稱",
      "USen": "Change Deck Name",
      "USes": "Cambiar nombre",
      "USfr": "Modifier le nom"
    }
  },
  {
    "label": "L_Delete_00-T_Text_00",
    "locale": {
      "CNzh": "重置",
      "EUde": "Deck löschen",
      "EUen": "Delete",
      "EUes": "Restablecer",
      "EUfr": "Réinitialiser",
      "EUit": "Svuota",
      "EUnl": "Verwijderen",
      "EUru": "Удалить колоду",
      "JPja": "リセット",
      "KRko": "리셋",
      "TWzh": "重置",
      "USen": "Delete",
      "USes": "Borrar",
      "USfr": "Réinitialiser"
    }
  },
  {
    "label": "L_Edit_00-T_Text_00",
    "locale": {
      "CNzh": "编辑",
      "EUde": "Karten wählen",
      "EUen": "Edit",
      "EUes": "Editar",
      "EUfr": "Modifier",
      "EUit": "Modifica",
      "EUnl": "Bewerken",
      "EUru": "Выбрать карты",
      "JPja": "編集",
      "KRko": "편집",
      "TWzh": "編輯",
      "USen": "Edit",
      "USes": "Editar",
      "USfr": "Modifier"
    }
  },
  {
    "label": "L_MenuBack_00-T_Info_00",
    "locale": {
      "CNzh": "返回",
      "EUde": "Zurück",
      "EUen": "Back",
      "EUes": "Atrás",
      "EUfr": "Retour",
      "EUit": "Indietro",
      "EUnl": "Terug",
      "EUru": "Назад",
      "JPja": "もどる",
      "KRko": "뒤로",
      "TWzh": "返回",
      "USen": "Back",
      "USes": "Atrás",
      "USfr": "Retour"
    }
  },
  {
    "label": "T_All_00",
    "locale": {
      "CNzh": "格子总数",
      "EUde": "Felder",
      "EUen": "Total",
      "EUes": "Total",
      "EUfr": "Total",
      "EUit": "Totale",
      "EUnl": "Totaal",
      "EUru": "Полей",
      "JPja": "マス合計",
      "KRko": "칸 합계",
      "TWzh": "格子總數",
      "USen": "Total",
      "USes": "Total",
      "USfr": "Total"
    }
  },
  {
    "label": "T_Title_00",
    "locale": {
      "CNzh": "编辑牌组",
      "EUde": "Deck-Editor",
      "EUen": "Edit Deck",
      "EUes": "Editar mazo",
      "EUfr": "Éditeur de deck",
      "EUit": "Modifica mazzo",
      "EUnl": "Set bewerken",
      "EUru": "Изменить колоду",
      "JPja": "デッキ編集",
      "KRko": "덱 편집",
      "TWzh": "編輯牌組",
      "USen": "Edit Deck",
      "USes": "Editar mazo",
      "USfr": "Éditeur de paquet"
    }
  }
]