[
  {
    "label": "000",
    "locale": {
      "CNzh": "回想在荒界发生的事情",
      "EUde": "Zurück zum Krater",
      "EUen": "Return to the Crater",
      "EUes": "Recordar lo ocurrido en El Cráter",
      "EUfr": "Retour au Cratère",
      "EUit": "Torna al Cratere",
      "EUnl": "Terug naar de krater",
      "EUru": "Назад в Кратер",
      "JPja": "クレーターでの出来事を思い出す",
      "KRko": "크레이터에서 있었던 일 떠올리기",
      "TWzh": "回想在荒界裡發生的事",
      "USen": "Return to the Crater",
      "USes": "Recordar lo ocurrido en El Cráter",
      "USfr": "Retour au Cratère"
    }
  },
  {
    "label": "001",
    "locale": {
      "CNzh": "回想在火箭发生的战斗",
      "EUde": "Zurück zur Rakete",
      "EUen": "Return to Rocket Battle",
      "EUes": "Recordar la batalla del cohete",
      "EUfr": "Retour à la bataille de la fusée",
      "EUit": "Torna alla battaglia del razzo",
      "EUnl": "Terug naar de strijd om de raket",
      "EUru": "Назад к ракете",
      "JPja": "ロケットでの戦いを思い出す",
      "KRko": "로켓에서 벌였던 전투 떠올리기",
      "TWzh": "回想在火箭上發生的戰鬥",
      "USen": "Return to Rocket Battle",
      "USes": "Recordar la batalla del cohete",
      "USfr": "Retour à la bataille de la fusée"
    }
  },
  {
    "label": "002",
    "locale": {
      "CNzh": "回想在宇宙望见的景色",
      "EUde": "Credits erneut anschauen",
      "EUen": "Replay Game Credits",
      "EUes": "Recordar los créditos del juego",
      "EUfr": "Revoir les crédits",
      "EUit": "Guarda i riconoscimenti",
      "EUnl": "Credits opnieuw bekijken",
      "EUru": "Команда разработчиков",
      "JPja": "あの日 宇宙から見た景色を思い出す",
      "KRko": "그날, 우주에서 본 풍경 떠올리기",
      "TWzh": "回想那一天在宇宙中看到的景象",
      "USen": "Replay Game Credits",
      "USes": "Recordar los créditos del juego",
      "USfr": "Revoir le générique"
    }
  },
  {
    "label": "003",
    "locale": {
      "CNzh": "取消",
      "EUde": "Abbrechen",
      "EUen": "Never Mind",
      "EUes": "Cancelar",
      "EUfr": "Annuler",
      "EUit": "Annulla",
      "EUnl": "Neh...",
      "EUru": "Выйти",
      "JPja": "やめとく",
      "KRko": "그만두기",
      "TWzh": "取消",
      "USen": "Never Mind",
      "USes": "Olvídalo",
      "USfr": "Annuler"
    }
  }
]