[
  {
    "label": "000",
    "locale": {
      "CNzh": "{{string index=\"0\" arg2=\"0\"}} - {{string index=\"1\" arg2=\"0\"}} 举行",
      "EUde": "{{string index=\"0\" arg2=\"0\"}} - {{string index=\"1\" arg2=\"0\"}}",
      "EUen": "{{string index=\"0\" arg2=\"0\"}} - {{string index=\"1\" arg2=\"0\"}}",
      "EUes": "{{string index=\"0\" arg2=\"0\"}} - {{string index=\"1\" arg2=\"0\"}}",
      "EUfr": "{{string index=\"0\" arg2=\"0\"}} - {{string index=\"1\" arg2=\"0\"}}",
      "EUit": "{{string index=\"0\" arg2=\"0\"}}-{{string index=\"1\" arg2=\"0\"}}",
      "EUnl": "{{string index=\"0\" arg2=\"0\"}} - {{string index=\"1\" arg2=\"0\"}}",
      "EUru": "{{string index=\"0\" arg2=\"0\"}} - {{string index=\"1\" arg2=\"0\"}}",
      "JPja": "{{string index=\"0\" arg2=\"0\"}} - {{string index=\"1\" arg2=\"0\"}} 開催",
      "KRko": "{{string index=\"0\" arg2=\"0\"}} - {{string index=\"1\" arg2=\"0\"}} 개최",
      "TWzh": "{{string index=\"0\" arg2=\"0\"}} - {{string index=\"1\" arg2=\"0\"}} 舉行",
      "USen": "{{string index=\"0\" arg2=\"0\"}} - {{string index=\"1\" arg2=\"0\"}}",
      "USes": "{{string index=\"0\" arg2=\"0\"}} - {{string index=\"1\" arg2=\"0\"}}",
      "USfr": "{{string index=\"0\" arg2=\"0\"}} - {{string index=\"1\" arg2=\"0\"}}"
    }
  },
  {
    "label": "100",
    "locale": {
      "CNzh": "333倍比赛 WINNER!!!",
      "EUde": "×333-Kampf gewonnen!",
      "EUen": "333x Battle WINNER!",
      "EUes": "¡Victoria con bonificación ×333!",
      "EUfr": "Match ×333 remporté !",
      "EUit": "Battaglia ×333 VINTA!",
      "EUnl": "×333-strijd gewonnen!",
      "EUru": "Победа: бонус x333!",
      "JPja": "３３３倍マッチ WINNER!!!",
      "KRko": "333배 매치 WINNER!!!",
      "TWzh": "333倍比賽 WINNER！！！",
      "USen": "333x Battle WINNER!",
      "USes": "¡Victoria en combate ×333!",
      "USfr": "Match ×333 remporté!"
    }
  },
  {
    "label": "101",
    "locale": {
      "CNzh": "100倍比赛 WINNER!!!",
      "EUde": "×100-Kampf gewonnen!",
      "EUen": "100x Battle WINNER!",
      "EUes": "¡Victoria con bonificación ×100!",
      "EUfr": "Match ×100 remporté !",
      "EUit": "Battaglia ×100 VINTA!",
      "EUnl": "×100-strijd gewonnen!",
      "EUru": "Победа: бонус x100!",
      "JPja": "１００倍マッチ WINNER!",
      "KRko": "100배 매치 WINNER!",
      "TWzh": "100倍比賽 WINNER！！！",
      "USen": "100x Battle WINNER!",
      "USes": "¡Victoria en combate ×100!",
      "USfr": "Match ×100 remporté!"
    }
  },
  {
    "label": "102",
    "locale": {
      "CNzh": "10倍比赛 WINNER!!!",
      "EUde": "×10-Kampf gewonnen!",
      "EUen": "10x Battle WINNER!",
      "EUes": "¡Victoria con bonificación ×10!",
      "EUfr": "Match ×10 remporté !",
      "EUit": "Battaglia ×10 VINTA!",
      "EUnl": "×10-strijd gewonnen!",
      "EUru": "Победа: бонус x10!",
      "JPja": "１０倍マッチ WINNER!",
      "KRko": "10배 매치 WINNER!",
      "TWzh": "10倍比賽 WINNER！！！",
      "USen": "10x Battle WINNER!",
      "USes": "¡Victoria en combate ×10!",
      "USfr": "Match ×10 remporté!"
    }
  },
  {
    "label": "200",
    "locale": {
      "CNzh": "33倍法螺争夺战 WINNER！！！",
      "EUde": "×33-Tritonskampf gewonnen!",
      "EUen": "33x Conch Clash WINNER!",
      "EUes": "¡Victoria en caracolisión ×33!",
      "EUfr": "Conquétition ×33 remportée !",
      "EUit": "Conchigliata ×33 VINTA!",
      "EUnl": "×33-prijsschelppret gewonnen!",
      "EUru": "Победа: Раковин-ролл x33!",
      "JPja": "３３倍ホラガイ争奪戦 WINNER!!!",
      "KRko": "33배 소라고둥 쟁탈전 WINNER!!!",
      "TWzh": "33倍法螺爭奪戰 WINNER！！！",
      "USen": "33x Conch Clash WINNER!",
      "USes": "¡Victoria en caracolisión ×33!",
      "USfr": "Conquétition ×33 remportée!"
    }
  },
  {
    "label": "201",
    "locale": {
      "CNzh": "10倍法螺争夺战 WINNER！",
      "EUde": "×10-Tritonskampf gewonnen!",
      "EUen": "10x Conch Clash WINNER!",
      "EUes": "¡Victoria en caracolisión ×10!",
      "EUfr": "Conquétition ×10 remportée !",
      "EUit": "Conchigliata ×10 VINTA!",
      "EUnl": "×10-prijsschelppret gewonnen!",
      "EUru": "Победа: Раковин-ролл x10!",
      "JPja": "１０倍ホラガイ争奪戦 WINNER!",
      "KRko": "10배 소라고둥 쟁탈전 WINNER!",
      "TWzh": "10倍法螺爭奪戰 WINNER！！！",
      "USen": "10x Conch Clash WINNER!",
      "USes": "¡Victoria en caracolisión ×10!",
      "USfr": "Conquétition ×10 remportée!"
    }
  },
  {
    "label": "202",
    "locale": {
      "CNzh": "法螺争夺战 WINNER！",
      "EUde": "Tritonskampf gewonnen!",
      "EUen": "Conch Clash WINNER!",
      "EUes": "¡Victoria en caracolisión!",
      "EUfr": "Conquétition remportée !",
      "EUit": "Conchigliata VINTA!",
      "EUnl": "Prijsschelppret gewonnen!",
      "EUru": "Победа: Раковин-ролл!",
      "JPja": "ホラガイ争奪戦 WINNER!",
      "KRko": "소라고둥 쟁탈전 WINNER!",
      "TWzh": "法螺爭奪戰 WINNER！",
      "USen": "Conch Clash WINNER!",
      "USes": "¡Victoria en caracolisión!",
      "USfr": "Conquétition remportée!"
    }
  },
  {
    "label": "300",
    "locale": {
      "CNzh": "永远支持{{string value=\"SelectedSplatfestTeam\" arg1=\"0\" arg3=\"0\"}}派！",
      "EUde": "Ultimativer {{string value=\"SelectedSplatfestTeam\" arg1=\"0\" arg3=\"0\"}}-Fan!",
      "EUen": "Team {{string value=\"SelectedSplatfestTeam\" arg1=\"0\" arg3=\"0\"}} Ruler!",
      "EUes": "¡Viva el equipo {{string value=\"SelectedSplatfestTeam\" arg1=\"0\" arg3=\"0\"}}!",
      "EUfr": "Star en {{string value=\"SelectedSplatfestTeam\" arg1=\"0\" arg3=\"0\"}}",
      "EUit": "Mollusco élite {{string value=\"SelectedSplatfestTeam\" arg1=\"0\" arg3=\"0\"}}!",
      "EUnl": "Heerser van team {{string value=\"SelectedSplatfestTeam\" arg1=\"0\" arg3=\"0\"}}!",
      "EUru": "«{{string value=\"SelectedSplatfestTeam\" arg1=\"0\" arg3=\"0\"}}» (Мастер)!",
      "JPja": "{{string value=\"SelectedSplatfestTeam\" arg1=\"0\" arg3=\"0\"}}派よ えいえんに！",
      "KRko": "{{string value=\"SelectedSplatfestTeam\" arg1=\"0\" arg3=\"0\"}} 팀, 영원하라!",
      "TWzh": "永遠支持{{string value=\"SelectedSplatfestTeam\" arg1=\"0\" arg3=\"0\"}}派！",
      "USen": "Team {{string value=\"SelectedSplatfestTeam\" arg1=\"0\" arg3=\"0\"}} Ruler!",
      "USes": "¡Viva el Equipo {{string value=\"SelectedSplatfestTeam\" arg1=\"0\" arg3=\"0\"}}!",
      "USfr": "Star en {{string value=\"SelectedSplatfestTeam\" arg1=\"0\" arg3=\"0\"}}"
    }
  }
]