[
  {
    "label": "000",
    "locale": {
      "CNzh": "要返回到重新选择楼层吗？\n（需要花费忆界硬币。）",
      "EUde": "Zurück und neu auswählen?\n(Memoneten erforderlich.)",
      "EUen": "Go back and choose again? (Requires Membux)",
      "EUes": "¿Quieres volver a elegir piso?\n(Necesitarás pastimonedas.)",
      "EUfr": "Revenir au menu de Choix de l'étage ?\n(Coûte des poulpèzes)",
      "EUit": "Vuoi tornare indietro e scegliere di nuovo?\n(Richiede norilir.)",
      "EUnl": "Wil je teruggaan en opnieuw kiezen?\n(Dit kost neuri's.)",
      "EUru": "Вернуться на экран выбора?\n(Нужны вспомбаксы.)",
      "JPja": "フロアを選び直しに もどりますか？\n（ネリコインが必要です）",
      "KRko": "플로어를 다시 선택하러 돌아가겠습니까?\n(네리 코인이 필요합니다)",
      "TWzh": "要返回並重新選擇樓層嗎？\n（需要使用憶界硬幣）",
      "USen": "Go back and choose again? (Requires Membux)",
      "USes": "¿Quieres volver a elegir un piso?\n(Necesitarás pastimonedas).",
      "USfr": "Revenir au menu de Choix de l'étage?\n(Coûte des Poulpiasses)"
    }
  },
  {
    "label": "001",
    "locale": {
      "CNzh": "取消",
      "EUde": "Nein",
      "EUen": "Nah",
      "EUes": "No...",
      "EUfr": "Non",
      "EUit": "No",
      "EUnl": "Neuh...",
      "EUru": "Не-а!",
      "JPja": "やめとく",
      "KRko": "그만두기",
      "TWzh": "不要",
      "USen": "Nah",
      "USes": "No...",
      "USfr": "Non"
    }
  },
  {
    "label": "002",
    "locale": {
      "CNzh": "返回！",
      "EUde": "Ja",
      "EUen": "Go Back!",
      "EUes": "¡Sí!",
      "EUfr": "OK !",
      "EUit": "Sì",
      "EUnl": "Ja!",
      "EUru": "Ага!",
      "JPja": "もどる！",
      "KRko": "돌아가기",
      "TWzh": "返回！",
      "USen": "Go Back!",
      "USes": "¡Sí!",
      "USfr": "OK!"
    }
  },
  {
    "label": "100",
    "locale": {
      "CNzh": "要结束购物并前往下一个楼层吗？",
      "EUde": "Abschließen und weiter zur nächsten Etage?",
      "EUen": "Finish up here and go to the next floor?",
      "EUes": "¿Quieres concluir tus compras\ny continuar al siguiente piso?",
      "EUfr": "Terminer les achats et aller à l'étage suivant ?",
      "EUit": "Vuoi concludere gli acquisti e\nprocedere al prossimo piano?",
      "EUnl": "Ben je klaar met winkelen en wil je\nverdergaan naar de volgende etage?",
      "EUru": "Закруглиться и перейти на следующий этаж?",
      "JPja": "買い物を終えて 次のフロアへ進みますか？",
      "KRko": "쇼핑을 마치고 다음 플로어로 올라가겠습니까?",
      "TWzh": "要結束購物並前往下個樓層嗎？",
      "USen": "Finish up here and go to the next floor?",
      "USes": "¿Quieres concluir tus compras\ny continuar al siguiente piso?",
      "USfr": "Terminer les achats et aller à l'étage suivant?"
    }
  },
  {
    "label": "101",
    "locale": {
      "CNzh": "取消",
      "EUde": "Nein",
      "EUen": "Nah",
      "EUes": "No...",
      "EUfr": "Non",
      "EUit": "No",
      "EUnl": "Neuh...",
      "EUru": "Не-а!",
      "JPja": "やめとく",
      "KRko": "그만두기",
      "TWzh": "不要",
      "USen": "Nah",
      "USes": "No...",
      "USfr": "Non"
    }
  },
  {
    "label": "102",
    "locale": {
      "CNzh": "前进！",
      "EUde": "Auf geht's!",
      "EUen": "Let's Go!",
      "EUes": "¡Sí!",
      "EUfr": "Oui !",
      "EUit": "Sì",
      "EUnl": "Ja!",
      "EUru": "Вперед!",
      "JPja": "進む！",
      "KRko": "올라가기",
      "TWzh": "前進！",
      "USen": "Let's Go!",
      "USes": "¡Sí!",
      "USfr": "Oui!"
    }
  }
]