[
  {
    "label": "000",
    "locale": {
      "CNzh": "在调色盘中装备{{number index=\"0\" type=\"1\" arg3=\"0\" arg4=\"0\"}}张后便会打开。",
      "EUde": "Zum Freischalten\n{{number index=\"0\" type=\"1\" arg3=\"0\" arg4=\"0\"}} in deine Palette einsetzen.",
      "EUen": "Set {{number index=\"0\" type=\"1\" arg3=\"0\" arg4=\"0\"}} in your Palette to unlock.",
      "EUes": "Coloca {{number index=\"0\" type=\"1\" arg3=\"0\" arg4=\"0\"}} en la paleta para desbloquearlo.",
      "EUfr": "Insères-en {{number index=\"0\" type=\"1\" arg3=\"0\" arg4=\"0\"}} dans ta palette\npour déverrouiller.",
      "EUit": "Sbloccabile usandone {{number index=\"0\" type=\"1\" arg3=\"0\" arg4=\"0\"}}\nnella tavoletta.",
      "EUnl": "Beschikbaar nadat je er tijdens een poging\n{{number index=\"0\" type=\"1\" arg3=\"0\" arg4=\"0\"}} van tegelijk in je palet hebt gehad.",
      "EUru": "Вставь {{number index=\"0\" type=\"1\" arg3=\"0\" arg4=\"0\"}} в тон-бокс!",
      "JPja": "パレットに{{number index=\"0\" type=\"1\" arg3=\"0\" arg4=\"0\"}}枚セットすると開きます",
      "KRko": "팔레트에 {{number index=\"0\" type=\"1\" arg3=\"0\" arg4=\"0\"}}개 세팅하면 열립니다",
      "TWzh": "在調色盤中安裝{{number index=\"0\" type=\"1\" arg3=\"0\" arg4=\"0\"}}枚即可解開。",
      "USen": "Set {{number index=\"0\" type=\"1\" arg3=\"0\" arg4=\"0\"}} in your Palette to unlock.",
      "USes": "Coloca {{number index=\"0\" type=\"1\" arg3=\"0\" arg4=\"0\"}} en la paleta para\ndesbloquearlo.",
      "USfr": "Insères-en {{number index=\"0\" type=\"1\" arg3=\"0\" arg4=\"0\"}} dans ta palette\npour déverrouiller."
    }
  },
  {
    "label": "L_Guide_00-T_Info_00",
    "locale": {
      "CNzh": "返回",
      "EUde": "Zurück",
      "EUen": "Back",
      "EUes": "Atrás",
      "EUfr": "Retour",
      "EUit": "Indietro",
      "EUnl": "Terug",
      "EUru": "Назад",
      "JPja": "もどる",
      "KRko": "뒤로",
      "TWzh": "返回",
      "USen": "Back",
      "USes": "Atrás",
      "USfr": "Retour"
    }
  }
]