[
  {
    "label": "000",
    "locale": {
      "CNzh": "{{number index=\"0\" type=\"2\" arg3=\"0\" arg4=\"0\"}}/{{number index=\"1\" type=\"2\" arg3=\"0\" arg4=\"0\"}}",
      "EUde": "{{number index=\"0\" type=\"2\" arg3=\"0\" arg4=\"0\"}}/{{number index=\"1\" type=\"2\" arg3=\"0\" arg4=\"0\"}}",
      "EUen": "{{number index=\"0\" type=\"2\" arg3=\"0\" arg4=\"0\"}}/{{number index=\"1\" type=\"2\" arg3=\"0\" arg4=\"0\"}}",
      "EUes": "{{number index=\"0\" type=\"2\" arg3=\"0\" arg4=\"0\"}}/{{number index=\"1\" type=\"2\" arg3=\"0\" arg4=\"0\"}}",
      "EUfr": "{{number index=\"0\" type=\"2\" arg3=\"0\" arg4=\"0\"}}/{{number index=\"1\" type=\"2\" arg3=\"0\" arg4=\"0\"}}",
      "EUit": "{{number index=\"0\" type=\"2\" arg3=\"0\" arg4=\"0\"}}/{{number index=\"1\" type=\"2\" arg3=\"0\" arg4=\"0\"}}",
      "EUnl": "{{number index=\"0\" type=\"2\" arg3=\"0\" arg4=\"0\"}}/{{number index=\"1\" type=\"2\" arg3=\"0\" arg4=\"0\"}}",
      "EUru": "{{number index=\"0\" type=\"2\" arg3=\"0\" arg4=\"0\"}}/{{number index=\"1\" type=\"2\" arg3=\"0\" arg4=\"0\"}}",
      "JPja": "{{number index=\"0\" type=\"2\" arg3=\"0\" arg4=\"0\"}}/{{number index=\"1\" type=\"2\" arg3=\"0\" arg4=\"0\"}}",
      "KRko": "{{number index=\"0\" type=\"2\" arg3=\"0\" arg4=\"0\"}}/{{number index=\"1\" type=\"2\" arg3=\"0\" arg4=\"0\"}}",
      "TWzh": "{{number index=\"0\" type=\"2\" arg3=\"0\" arg4=\"0\"}}/{{number index=\"1\" type=\"2\" arg3=\"0\" arg4=\"0\"}}",
      "USen": "{{number index=\"0\" type=\"2\" arg3=\"0\" arg4=\"0\"}}/{{number index=\"1\" type=\"2\" arg3=\"0\" arg4=\"0\"}}",
      "USes": "{{number index=\"0\" type=\"2\" arg3=\"0\" arg4=\"0\"}}/{{number index=\"1\" type=\"2\" arg3=\"0\" arg4=\"0\"}}",
      "USfr": "{{number index=\"0\" type=\"2\" arg3=\"0\" arg4=\"0\"}}/{{number index=\"1\" type=\"2\" arg3=\"0\" arg4=\"0\"}}"
    }
  },
  {
    "label": "L_Btn_00-T_Info_00",
    "locale": {
      "CNzh": "OK",
      "EUde": "OK",
      "EUen": "OK",
      "EUes": "Aceptar",
      "EUfr": "OK",
      "EUit": "OK",
      "EUnl": "Oké",
      "EUru": "OK",
      "JPja": "OK",
      "KRko": "OK",
      "TWzh": "OK",
      "USen": "OK",
      "USes": "Aceptar",
      "USfr": "OK"
    }
  },
  {
    "label": "L_GetItem_00-T_Text_01",
    "locale": {
      "CNzh": "×",
      "EUde": "×",
      "EUen": "x",
      "EUes": "×",
      "EUfr": "×",
      "EUit": "×",
      "EUnl": "×",
      "EUru": "x",
      "JPja": "×",
      "KRko": "×",
      "TWzh": "×",
      "USen": "x",
      "USes": "×",
      "USfr": "×"
    }
  }
]