[
  {
    "label": "000",
    "locale": {
      "CNzh": "♪ {{string value=\"MusicTitle\" arg1=\"0\" arg3=\"0\"}} / {{string value=\"MusicArtist\" arg1=\"0\" arg3=\"0\"}}",
      "EUde": "♪ {{string value=\"MusicTitle\" arg1=\"0\" arg3=\"0\"}} / {{string value=\"MusicArtist\" arg1=\"0\" arg3=\"0\"}}",
      "EUen": "♪ {{string value=\"MusicTitle\" arg1=\"0\" arg3=\"0\"}} / {{string value=\"MusicArtist\" arg1=\"0\" arg3=\"0\"}}",
      "EUes": "♪ {{string value=\"MusicTitle\" arg1=\"0\" arg3=\"0\"}} ({{string value=\"MusicArtist\" arg1=\"0\" arg3=\"0\"}})",
      "EUfr": "♪ {{string value=\"MusicTitle\" arg1=\"0\" arg3=\"0\"}} ({{string value=\"MusicArtist\" arg1=\"0\" arg3=\"0\"}})",
      "EUit": "♪ {{string value=\"MusicTitle\" arg1=\"0\" arg3=\"0\"}}/{{string value=\"MusicArtist\" arg1=\"0\" arg3=\"0\"}}",
      "EUnl": "♪ {{string value=\"MusicTitle\" arg1=\"0\" arg3=\"0\"}} / {{string value=\"MusicArtist\" arg1=\"0\" arg3=\"0\"}}",
      "EUru": "♪ {{string value=\"MusicTitle\" arg1=\"0\" arg3=\"0\"}} / {{string value=\"MusicArtist\" arg1=\"0\" arg3=\"0\"}}",
      "JPja": "♪ {{string value=\"MusicTitle\" arg1=\"0\" arg3=\"0\"}} / {{string value=\"MusicArtist\" arg1=\"0\" arg3=\"0\"}}",
      "KRko": "♪ {{string value=\"MusicTitle\" arg1=\"0\" arg3=\"0\"}} / {{string value=\"MusicArtist\" arg1=\"0\" arg3=\"0\"}}",
      "TWzh": "♪ {{string value=\"MusicTitle\" arg1=\"0\" arg3=\"0\"}} / {{string value=\"MusicArtist\" arg1=\"0\" arg3=\"0\"}}",
      "USen": "♪ {{string value=\"MusicTitle\" arg1=\"0\" arg3=\"0\"}} / {{string value=\"MusicArtist\" arg1=\"0\" arg3=\"0\"}}",
      "USes": "♪ {{string value=\"MusicTitle\" arg1=\"0\" arg3=\"0\"}} ({{string value=\"MusicArtist\" arg1=\"0\" arg3=\"0\"}})",
      "USfr": "♪ {{string value=\"MusicTitle\" arg1=\"0\" arg3=\"0\"}} ({{string value=\"MusicArtist\" arg1=\"0\" arg3=\"0\"}})"
    }
  }
]