[
  {
    "label": "000",
    "locale": {
      "CNzh": "击倒了{{string value=\"PlayerName\" arg1=\"0\" arg3=\"0\"}}！",
      "EUde": "{{string value=\"PlayerName\" arg1=\"0\" arg3=\"0\"}} erledigt!",
      "EUen": "Splatted {{string value=\"PlayerName\" arg1=\"0\" arg3=\"0\"}}!",
      "EUes": "¡Has eliminado a {{string value=\"PlayerName\" arg1=\"0\" arg3=\"0\"}}!",
      "EUfr": "Tu as liquidé {{string value=\"PlayerName\" arg1=\"0\" arg3=\"0\"}} !",
      "EUit": "Hai splattato {{string value=\"PlayerName\" arg1=\"0\" arg3=\"0\"}}!",
      "EUnl": "{{string value=\"PlayerName\" arg1=\"0\" arg3=\"0\"}} uitgeschakeld!",
      "EUru": "Плюхнут игрок {{string value=\"PlayerName\" arg1=\"0\" arg3=\"0\"}}!",
      "JPja": "{{string value=\"PlayerName\" arg1=\"0\" arg3=\"0\"}} をたおした！",
      "KRko": "{{string value=\"PlayerName\" arg1=\"0\" arg3=\"0\"}}{{gender2 arg1=\"을\" arg2=\"를\"}} 쓰러뜨렸다!",
      "TWzh": "將{{string value=\"PlayerName\" arg1=\"0\" arg3=\"0\"}}擊倒了！",
      "USen": "Splatted {{string value=\"PlayerName\" arg1=\"0\" arg3=\"0\"}}!",
      "USes": "¡Reventaste a {{string value=\"PlayerName\" arg1=\"0\" arg3=\"0\"}}!",
      "USfr": "Éclaboussé {{string value=\"PlayerName\" arg1=\"0\" arg3=\"0\"}}!"
    }
  }
]