[
  {
    "label": "T_MedalAll_00",
    "locale": {
      "CNzh": "获得表彰！！",
      "EUde": "Deine Medaillen:",
      "EUen": "Look what you got!",
      "EUes": "¡Te han galardonado!",
      "EUfr": "Tu as obtenu...",
      "EUit": "Hai ottenuto una o più mostrine!",
      "EUnl": "Gewonnen medailles:",
      "EUru": "Ты получаешь:",
      "JPja": "表彰ゲット！！",
      "KRko": "표창 획득!!",
      "TWzh": "獲得表揚！！",
      "USen": "Look what you got!",
      "USes": "¡Reconocimiento conseguido!",
      "USfr": "Tu as obtenu..."
    }
  }
]