[
  {
    "label": "Grade_00",
    "text": "Migliorabile!"
  },
  {
    "label": "Grade_01",
    "text": "Accettabile!"
  },
  {
    "label": "Grade_02",
    "text": "Notevole!"
  },
  {
    "label": "Grade_03",
    "text": "Inarrestabile!"
  },
  {
    "label": "Grade_04",
    "text": "Inarrestabile!"
  }
]