[
  {
    "label": "T_Msg_00",
    "text": "Où veux-tu aller?"
  },
  {
    "label": "L_Close_00-T_Btn_00",
    "text": "Annuler"
  },
  {
    "label": "L_BtnBGM_00-T_Btn_00",
    "text": "Début du prochain morceau"
  },
  {
    "label": "000",
    "text": "Rentrer à {{string value=\"24\" arg1=\"0\" arg3=\"0\"}}"
  },
  {
    "label": "100",
    "text": "Soirées chatoyantes"
  },
  {
    "label": "101",
    "text": "Nuit d'harmonie"
  },
  {
    "label": "102",
    "text": "Aube paisible"
  }
]