[
  {
    "label": "000",
    "text": "Recharge!"
  },
  {
    "label": "001",
    "text": "Pas de\npalourdes!"
  },
  {
    "label": "002",
    "text": "Pas de\nSalmio!"
  },
  {
    "label": "003",
    "text": "Inutilisable!"
  },
  {
    "label": "004",
    "text": "Pas assez\nd'œufs!"
  },
  {
    "label": "005",
    "text": "Pas de Balles\npyrotek!"
  }
]