[
  {
    "label": "T_Msg_00",
    "text": "Données de sauvegarde de Splatoon 2\ndétectées! Tu peux les importer si tu veux."
  },
  {
    "label": "000",
    "text": "{{number index=\"0\" type=\"3\" arg3=\"0\" arg4=\"0\"}} ★"
  },
  {
    "label": "001",
    "text": "{{number index=\"0\" type=\"3\" arg3=\"0\" arg4=\"0\"}}"
  },
  {
    "label": "010",
    "text": "{{number index=\"0\" type=\"5\" arg3=\"0\" arg4=\"0\"}} h"
  },
  {
    "label": "T_Rank_00",
    "text": "Niveau :"
  },
  {
    "label": "T_Time_00",
    "text": "Temps de jeu :"
  }
]