[
  {
    "label": "001",
    "text": "+{{number index=\"0\" type=\"3\" arg3=\"0\" arg4=\"0\"}}"
  },
  {
    "label": "T_Text_00",
    "text": "Tu as obtenu un nouveau badge!\nAjoute-le à ta Splatiquette!"
  }
]