[
  {
    "label": "T_Msg_00",
    "text": "Où veux-tu monter dans le char de festival?"
  },
  {
    "label": "L_Btn_00-T_Btn_00",
    "text": "Devant la borne festive!"
  },
  {
    "label": "L_Btn_01-T_Btn_00",
    "text": "Dans la ruelle!"
  },
  {
    "label": "L_Btn_02-T_Btn_00",
    "text": "Devant les boutiques!"
  },
  {
    "label": "L_Btn_03-T_Btn_00",
    "text": "Retour"
  }
]