[
  {
    "label": "T_Msg_01",
    "text": "Importer les données de sauvegarde de Splatoon 2?"
  },
  {
    "label": "T_Msg_02",
    "text": "En important les données de sauvegarde,\ntu profites des avantages suivants :"
  },
  {
    "label": "T_Msg_00",
    "text": "1. Tu reçois trois {{color id=\"1\"}}brevets Cartouche{{color id=\"65535\"}} {{color id=\"1\"}}Or {{color id=\"65535\"}}{{icon id=\"29\" arg=\"0xF6285C3F00000000\"}} à échanger contre des armes.\n2. Tu peux participer à des {{color id=\"1\"}}matchs anarchie{{color id=\"65535\"}} plus tôt dans ta progression.\n3. Tu affrontes des adversaires d'un niveau plus proche du tien immédiatement."
  },
  {
    "label": "L_BtnL_00-T_Btn_00",
    "text": "Non"
  },
  {
    "label": "L_BtnR_00-T_Btn_00",
    "text": "Oui"
  }
]