[
  {
    "label": "000",
    "text": "{{string value=\"MusicTitle\" arg1=\"0\" arg3=\"0\"}}"
  },
  {
    "label": "001",
    "text": "{{string value=\"MusicArtist\" arg1=\"0\" arg3=\"0\"}}"
  },
  {
    "label": "L_PlayerStatus_00-L_Rank_00-T_RankHeader_00",
    "text": "Niveau"
  },
  {
    "label": "L_PlayerStatus_00-L_Rank_00-T_Max_00",
    "text": "MAX"
  },
  {
    "label": "L_Customize_00-T_Info_00",
    "text": "Personnalisation"
  },
  {
    "label": "L_Menu_00-T_Info_00",
    "text": "Menu"
  },
  {
    "label": "L_PlayerStatus_00-L_Udemae_00-T_UdemaeTitle_00",
    "text": "Rang"
  },
  {
    "label": "L_PlayerStatus_00-L_FestRankGauge_00-T_Max_00",
    "text": "MAX"
  },
  {
    "label": "L_PlayerStatus_00-L_FestRankGauge_00-T_Vote_00",
    "text": "Va {{color id=\"1\"}}voter{{color id=\"65535\"}}!"
  },
  {
    "label": "L_PlayerStatus_00-T_AnnounceCoop_00",
    "text": "Va chez {{color id=\"1\"}}M. Ours Cie{{color id=\"65535\"}}!"
  },
  {
    "label": "L_PlayerStatus_00-T_Vote_00",
    "text": "Va {{color id=\"1\"}}voter{{color id=\"65535\"}}!"
  }
]