[
  {
    "label": "L_PlayerScore_00-T_MSign_03",
    "text": "x"
  },
  {
    "label": "T_Text_00",
    "text": "Sélectionne le joueur que tu souhaites signaler."
  },
  {
    "label": "L_parts_00-T_Info_00",
    "text": "Retour"
  },
  {
    "label": "L_Win_00-T_Win_00",
    "text": "VICTOIRE!"
  },
  {
    "label": "L_Win_00-T_Draw_00",
    "text": "ÉGALITÉ!"
  },
  {
    "label": "L_Win_00-T_Point_00",
    "text": " p."
  },
  {
    "label": "L_Win_00-T_Win_01",
    "text": "VICTOIRE!"
  },
  {
    "label": "L_Lose_00-T_Lose_00",
    "text": "DÉFAITE..."
  },
  {
    "label": "L_Lose_00-T_Point_00",
    "text": " p."
  },
  {
    "label": "L_Lose_00-T_Lose_01",
    "text": "DÉFAITE..."
  },
  {
    "label": "L_Lose_00-T_Draw_01",
    "text": "ÉGALITÉ!"
  },
  {
    "label": "L_WinLose_00-T_Win_00",
    "text": "VICTOIRE!"
  },
  {
    "label": "L_WinLose_00-T_Lose_00",
    "text": "DÉFAITE..."
  },
  {
    "label": "L_WinLose_00-T_Draw_00",
    "text": "ÉGALITÉ!"
  },
  {
    "label": "L_WinLose_00-T_Point_00",
    "text": " p."
  },
  {
    "label": "L_Win_00-T_NoGame_00",
    "text": "---"
  },
  {
    "label": "L_Lose_00-T_NoGame_00",
    "text": "---"
  },
  {
    "label": "L_WinLose_00-T_NoGame_00",
    "text": "---"
  }
]