[
  {
    "label": "000",
    "text": "{{string value=\"WeaponName\" arg1=\"0\" arg3=\"0\"}}!"
  },
  {
    "label": "T_Change_00",
    "text": "Armes fournies"
  },
  {
    "label": "T_SubName_00",
    "text": "Arme de service :"
  },
  {
    "label": "T_Change_01",
    "text": "Arme rare!"
  },
  {
    "label": "T_Change_02",
    "text": "Livraison spéciale!"
  },
  {
    "label": "T_WpnName_02",
    "text": "Un canon à œufs!"
  }
]