[
  {
    "label": "T_All_00",
    "text": "Total"
  },
  {
    "label": "L_Edit_00-T_Text_00",
    "text": "Modifier"
  },
  {
    "label": "L_DeckName_00-T_Text_00",
    "text": "Modifier le nom"
  },
  {
    "label": "L_Change_00-T_Text_00",
    "text": "Modifier le motif"
  },
  {
    "label": "L_Copy_00-T_Text_00",
    "text": "Copier"
  },
  {
    "label": "L_Delete_00-T_Text_00",
    "text": "Réinitialiser"
  },
  {
    "label": "L_MenuBack_00-T_Info_00",
    "text": "Retour"
  },
  {
    "label": "L_Close_00-T_Info_00",
    "text": "Retour"
  },
  {
    "label": "T_Title_00",
    "text": "Éditeur de paquet"
  }
]