[
  {
    "label": "T_Rotate_00",
    "text": "Pivoter"
  },
  {
    "label": "T_Back_00",
    "text": "Retour"
  },
  {
    "label": "L_Guide_01-T_Info_00",
    "text": "Retour au paquet"
  },
  {
    "label": "L_Guide_02-T_Info_00",
    "text": "Retirer les cartes"
  },
  {
    "label": "T_All_00",
    "text": "Total"
  },
  {
    "label": "T_Title_00",
    "text": "Tester le placement"
  },
  {
    "label": "L_DeckChange_00-T_BtnR_00",
    "text": "Cartes possédées"
  },
  {
    "label": "L_DeckChange_00-T_BtnL_00",
    "text": "Paquet"
  }
]