[
  {
    "label": "002",
    "text": "{{number index=\"0\" type=\"2\" arg3=\"0\" arg4=\"0\"}}"
  },
  {
    "label": "T_Time_00",
    "text": "Temps"
  },
  {
    "label": "T_Reward_00",
    "text": "Terminé!"
  },
  {
    "label": "T_Bonus_00",
    "text": "Bonus de première fois!"
  },
  {
    "label": "T_IrikoReward_00",
    "text": "x 3"
  },
  {
    "label": "T_Record_00",
    "text": "Nouveau record!"
  }
]