[
  {
    "label": "L_BackBtn_00-T_Info_00",
    "text": "Retour"
  },
  {
    "label": "L_Yeah_00-T_Info_00",
    "text": "Super!"
  },
  {
    "label": "L_Report_00-T_Info_00",
    "text": "Signaler"
  },
  {
    "label": "L_PageBtn_00-T_Info_00",
    "text": "Infos"
  },
  {
    "label": "L_GearBtn_00-T_Text_00",
    "text": "Commander"
  },
  {
    "label": "L_MngBtn_00-T_Text_00",
    "text": "Match de C et T"
  }
]