[
  {
    "label": "000",
    "text": "Provenance : {{string value=\"PlayerName\" arg1=\"0\" arg3=\"0\"}}"
  },
  {
    "label": "T_Delivery_03",
    "text": "Articles commandés"
  },
  {
    "label": "100",
    "text": "Je veux!"
  },
  {
    "label": "101",
    "text": "En cours"
  },
  {
    "label": "102",
    "text": "Pas en\nvente"
  },
  {
    "label": "103",
    "text": "Annuler"
  },
  {
    "label": "104",
    "text": "Disponible"
  },
  {
    "label": "T_Ordering_00",
    "text": "Commandé!"
  },
  {
    "label": "T_Delivery_00",
    "text": "Livr. en cours"
  },
  {
    "label": "T_Arrived_00",
    "text": "Disponible"
  },
  {
    "label": "200",
    "text": "Commander"
  },
  {
    "label": "201",
    "text": "Commande à annuler"
  },
  {
    "label": "300",
    "text": "Non"
  },
  {
    "label": "301",
    "text": "Annuler"
  },
  {
    "label": "302",
    "text": "Je veux!"
  },
  {
    "label": "303",
    "text": "On échange!"
  },
  {
    "label": "L_Btn_00-T_List_00",
    "text": "Articles commandés"
  },
  {
    "label": "L_Back_00-T_Info_00",
    "text": "Retour"
  }
]