[
  {
    "label": "000",
    "text": "{{number index=\"0\" type=\"3\" arg3=\"0\" arg4=\"0\"}}"
  },
  {
    "label": "100",
    "text": "/{{number index=\"0\" type=\"2\" arg3=\"0\" arg4=\"0\"}}"
  },
  {
    "label": "200",
    "text": "×{{number index=\"0\" type=\"3\" arg3=\"0\" arg4=\"0\"}}"
  },
  {
    "label": "300",
    "text": "{{number index=\"0\" type=\"3\" arg3=\"0\" arg4=\"0\"}}"
  },
  {
    "label": "T_Num_00",
    "text": "Fragments de bonus (Possédés/Requis)"
  },
  {
    "label": "T_SkillPiece_00",
    "text": "Fragments de bonus :"
  },
  {
    "label": "L_Back_00-T_Info_00",
    "text": "Retour"
  },
  {
    "label": "L_Back_01-T_Info_00",
    "text": "Retour"
  }
]