[
  {
    "label": "L_Btn_00-T_Btn_00",
    "text": "Continuer"
  },
  {
    "label": "L_Btn_01-T_Btn_00",
    "text": "Recommencer"
  },
  {
    "label": "L_Btn_02-T_Btn_00",
    "text": "Quitter la vidéo"
  },
  {
    "label": "L_PlayInfo_00-T_Info_00",
    "text": "Commandes"
  }
]