[
  {
    "label": "L_Back_00-T_Info_00",
    "text": "Fermer"
  },
  {
    "label": "L_Guide_00-T_Info_00",
    "text": "Infos"
  },
  {
    "label": "000",
    "text": "Notes top-secrètes de Minusque!\nVous êtes pas près de pouvoir les lire,\nsauf si quelqu'un bidouille les paramètres\nde la palette dans la salle de contrôle au\ndernier étage!"
  },
  {
    "label": "L_DetailPalette_00-T_ChipUse_00",
    "text": "Nombre max de puces chromatiques "
  },
  {
    "label": "L_DetailPalette_00-T_ChipUse_01",
    "text": ": "
  },
  {
    "label": "L_DetailPalette_00-T_Title_00",
    "text": "Teinte la plus commune"
  },
  {
    "label": "L_DetailPalette_00-T_Title_01",
    "text": "Deuxième teinte la plus commune"
  }
]