[
  {
    "label": "T_ThankYou_00",
    "text": "Merci d'avoir joué!"
  },
  {
    "label": "N_Expansion_01",
    "text": "Splatoon 3"
  },
  {
    "label": "N_Expansion_02",
    "text": "Passe d’expansion"
  }
]