[
  {
    "label": "L_BtnTab_02-T_Btn_00",
    "text": "Options"
  },
  {
    "label": "L_BtnCollect_01-T_Btn_00",
    "text": "Guide des squelécailles"
  },
  {
    "label": "L_BtnCollect_02-T_Btn_00",
    "text": "Collection de puces chromatiques"
  },
  {
    "label": "L_Guide_00-T_Info_00",
    "text": "Fermer"
  },
  {
    "label": "100",
    "text": "Imaginer {{string value=\"24\" arg1=\"0\" arg3=\"0\"}}"
  },
  {
    "label": "000",
    "text": "Rentrer à {{string value=\"24\" arg1=\"0\" arg3=\"0\"}}?"
  },
  {
    "label": "L_Dialog_00-L_BtnS_00-T_Btn_00",
    "text": "Non"
  },
  {
    "label": "010",
    "text": "Rentrer"
  },
  {
    "label": "200",
    "text": "Veux-tu modifier ton apparence?\n(Aucune autre donnée ne sera perdue.)"
  },
  {
    "label": "210",
    "text": "Oui"
  },
  {
    "label": "300",
    "text": "???"
  },
  {
    "label": "301",
    "text": "Collection"
  },
  {
    "label": "302",
    "text": "Historique"
  },
  {
    "label": "303",
    "text": "Journal de Coralie"
  },
  {
    "label": "L_BtnTryResult_00-T_Score_00",
    "text": "POINTAGE"
  },
  {
    "label": "L_BtnTryResult_00-T_Clear_00",
    "text": "Terminé!"
  },
  {
    "label": "L_Option_00-T_BtnL_00",
    "text": "Mode TV/\nMode sur table"
  },
  {
    "label": "L_Option_01-T_BtnL_00",
    "text": "Mode portable"
  },
  {
    "label": "L_Option_02-T_BtnL_00",
    "text": "Personnage"
  },
  {
    "label": "T_ExplainCamera_00",
    "text": "Règle la caméra pour tes sessions de jeu\nen mode téléviseur et en mode sur table."
  },
  {
    "label": "T_ExplainCamera_01",
    "text": "Règle la caméra pour tes sessions de jeu en mode portable."
  },
  {
    "label": "L_GaugeOption_00-T_Header_00",
    "text": "Sensibilité du gyroscope"
  },
  {
    "label": "L_GaugeOption_00-T_Msg_00",
    "text": "Sans effet lorsque le\ngyroscope est désactivé."
  },
  {
    "label": "L_GaugeOption_01-T_Header_00",
    "text": "{{icon id=\"76\" arg=\"0x0000004000000000\"}} : sensibilité"
  },
  {
    "label": "L_BtnOption_00-T_Header_00",
    "text": "{{icon id=\"76\" arg=\"0x0000004000000000\"}} : axe vertical"
  },
  {
    "label": "L_BtnOption_00-T_Msg_00",
    "text": "Sans effet lorsque le\ngyroscope est activé."
  },
  {
    "label": "L_BtnOption_00-T_BtnL_00",
    "text": "Normal"
  },
  {
    "label": "L_BtnOption_00-T_BtnR_00",
    "text": "Inversé"
  },
  {
    "label": "L_BtnOption_01-T_Header_00",
    "text": "{{icon id=\"76\" arg=\"0x0000004000000000\"}} : axe horizontal"
  },
  {
    "label": "L_BtnOption_01-T_BtnL_00",
    "text": "Normal"
  },
  {
    "label": "L_BtnOption_01-T_BtnR_00",
    "text": "Inversé"
  },
  {
    "label": "L_BtnOption_02-T_Header_00",
    "text": "Gyroscope"
  },
  {
    "label": "L_BtnOption_02-T_BtnL_00",
    "text": "OUI"
  },
  {
    "label": "L_BtnOption_02-T_BtnR_00",
    "text": "NON"
  },
  {
    "label": "L_BackOption_00-T_Info_00",
    "text": "Retour"
  },
  {
    "label": "L_PlayerEdit_00-T_BtnL_00",
    "text": "Oui!"
  },
  {
    "label": "T_ExplainPlayer_00",
    "text": "Tu peux modifier ton apparence."
  },
  {
    "label": "1003",
    "text": "Terminé!"
  },
  {
    "label": "T_ResultInvalid_00",
    "text": "Pas encore de données."
  }
]