[
  {
    "label": "T_YButton_00",
    "text": "Réinitialiser la caméra"
  },
  {
    "label": "T_LStick_00",
    "text": "Se déplacer"
  },
  {
    "label": "T_RStick_00",
    "text": "Rotation D/G"
  },
  {
    "label": "T_ZRButton_00",
    "text": "Tirer"
  },
  {
    "label": "T_ZLButton_00",
    "text": "{{icon id=\"18\" arg=\"0x0000004000000000\"}}"
  },
  {
    "label": "T_RButton_00",
    "text": "Bombe"
  },
  {
    "label": "T_BButton_00",
    "text": "Sauter"
  },
  {
    "label": "T_Reset_00",
    "text": "Réinitialiser la caméra"
  }
]