[
  {
    "label": "Msg_LookSalmon",
    "text": "Vise ton {{color id=\"1\"}}copain Salmio {{color id=\"65535\"}}{{icon id=\"15\" arg=\"0x0000204000000000\"}}!"
  },
  {
    "label": "MsgS_LookSalmon",
    "text": "Incline la manette pour déplacer le réticule{{icon id=\"16\" arg=\"0x0000204000000000\"}}."
  },
  {
    "label": "Msg_BasicStance",
    "text": "{{color id=\"1\"}}Regarde droit devant{{color id=\"65535\"}} pour mieux y voir!"
  },
  {
    "label": "MsgS_BasicStance",
    "text": "Appuie sur {{icon id=\"3\" arg=\"0x0000204000000000\"}} pour revenir à cette vue!"
  },
  {
    "label": "Msg_MoveLStick",
    "text": "Suis {{color id=\"1\"}}Salmio{{color id=\"65535\"}} {{icon id=\"15\" arg=\"0x0000204000000000\"}}!"
  },
  {
    "label": "MsgS_MoveLStick",
    "text": "Déplace-toi à l'aide de{{icon id=\"7\" arg=\"0x0000204000000000\"}}!"
  },
  {
    "label": "Msg_ZLSquid",
    "text": "Maintiens {{icon id=\"11\" arg=\"0x0000204000000000\"}} pour te transformer {{icon id=\"18\" arg=\"0x0000204000000000\"}}!"
  },
  {
    "label": "MsgS_ZLSquid",
    "text": "Sous cette forme, tu peux {{color id=\"1\"}}nager {{icon id=\"19\" arg=\"0x0000204000000000\"}} {{color id=\"65535\"}}dans {{color id=\"1\"}}l'encre{{color id=\"65535\"}}!"
  },
  {
    "label": "Msg_PickUpWeapon",
    "text": "On dirait que ton copain {{icon id=\"15\" arg=\"0x0000204000000000\"}} a trouvé un truc!"
  },
  {
    "label": "MsgS_PickUpWeapon",
    "text": "Descends et va voir ça de plus près!"
  },
  {
    "label": "Msg_ZRShoot",
    "text": "Appuie sur {{icon id=\"12\" arg=\"0x0000204000000000\"}} pour faire éclater les ballons {{icon id=\"20\" arg=\"0x0000204000000000\"}}!"
  },
  {
    "label": "MsgS_ZRShoot",
    "text": "Incline la manette pour viser grâce au réticule{{icon id=\"16\" arg=\"0x0000204000000000\"}}."
  },
  {
    "label": "Msg_FollowBalloon",
    "text": "Fais éclater les ballons {{icon id=\"20\" arg=\"0x0000204000000000\"}} en chemin!"
  },
  {
    "label": "MsgS_FollowBalloon",
    "text": "Déplace-toi à l'aide de{{icon id=\"7\" arg=\"0x0000204000000000\"}}."
  },
  {
    "label": "Msg_Paint",
    "text": "Tu peux même {{color id=\"1\"}}nager {{icon id=\"19\" arg=\"0x0000204000000000\"}} {{color id=\"65535\"}}sur les {{color id=\"1\"}}murs{{color id=\"65535\"}}!"
  },
  {
    "label": "MsgS_Paint",
    "text": "Ton réservoir d'encre {{icon id=\"17\" arg=\"0x0000204000000000\"}} {{color id=\"1\"}}se recharge {{color id=\"65535\"}}plus vite quand tu nages!"
  },
  {
    "label": "Msg_TurnRStick",
    "text": "{{color id=\"1\"}}Regarde à gauche et à droite {{color id=\"65535\"}}avec{{icon id=\"8\" arg=\"0x0000204000000000\"}}!"
  },
  {
    "label": "Msg_YCameraReset",
    "text": "Si nécessaire, tu peux {{color id=\"1\"}}réinitialiser la caméra {{color id=\"65535\"}}avec {{icon id=\"3\" arg=\"0x0000204000000000\"}}!"
  },
  {
    "label": "MsgS_YCameraReset",
    "text": "Tiens la manette en {{color id=\"1\"}}position neutre {{color id=\"65535\"}}et appuie sur {{icon id=\"3\" arg=\"0x0000204000000000\"}}!"
  },
  {
    "label": "Msg_BJump",
    "text": "{{color id=\"1\"}}Saute {{color id=\"65535\"}}avec {{icon id=\"1\" arg=\"0x0000204000000000\"}}, {{color id=\"1\"}}même sous forme de mollusque {{icon id=\"18\" arg=\"0x0000204000000000\"}}{{color id=\"65535\"}}!"
  },
  {
    "label": "Msg_ThroughMesh",
    "text": "Sous forme de mollusque {{icon id=\"19\" arg=\"0x0000204000000000\"}}, tu {{color id=\"1\"}}traverses les grilles{{color id=\"65535\"}}!"
  },
  {
    "label": "Msg_EnemyInk",
    "text": "{{color id=\"1\"}}Recouvre {{color id=\"65535\"}}de ta couleur ({{icon id=\"12\" arg=\"0x0000204000000000\"}}) les zones {{color id=\"1\"}}déjà encrées{{color id=\"65535\"}}!"
  },
  {
    "label": "MsgS_EnemyInk",
    "text": "L'encre de couleur différente {{color id=\"1\"}}entrave tes déplacements{{color id=\"65535\"}}!"
  },
  {
    "label": "Msg_RThrowBomb",
    "text": "Lance des {{color id=\"1\"}}bombes{{color id=\"65535\"}} {{icon id=\"21\" arg=\"0x0000204000000000\"}} avec {{icon id=\"10\" arg=\"0x0000204000000000\"}}!"
  },
  {
    "label": "MsgS_RThrowBomb",
    "text": "{{color id=\"1\"}}Recharge ton réservoir {{color id=\"65535\"}}{{icon id=\"17\" arg=\"0x0000204000000000\"}} en plongeant dans l'encre {{icon id=\"11\" arg=\"0x0000204000000000\"}}!"
  },
  {
    "label": "Msg_IkaNobori",
    "text": "Tire sur ce mur, puis plonge dans la flaque d'encre..."
  },
  {
    "label": "MsgS_IkaNobori",
    "text": "{{color id=\"1\"}}Maintiens{{color id=\"65535\"}} {{icon id=\"1\" arg=\"0x0000204000000000\"}} un instant, lâche... Boum, {{color id=\"1\"}}déferlante calmar{{color id=\"65535\"}}!"
  },
  {
    "label": "Msg_Complete",
    "text": "Voilà qui met fin à ce tutoriel!"
  },
  {
    "label": "MsgS_Complete",
    "text": "En route pour {{color id=\"1\"}}Cité-Clabousse{{color id=\"65535\"}}, la ville du chaos!"
  }
]