[
  {
    "label": "L_Meter_00-T_OppositeTeam_00",
    "text": "Adversaires"
  },
  {
    "label": "T_Win_00",
    "text": "VICTOIRE!"
  },
  {
    "label": "T_Lose_00",
    "text": "DÉFAITE..."
  },
  {
    "label": "L_Meter_00-T_TeamC_00",
    "text": "Ton équipe"
  },
  {
    "label": "000",
    "text": "Match ×10"
  },
  {
    "label": "001",
    "text": "Match ×100"
  },
  {
    "label": "002",
    "text": "Match ×333"
  },
  {
    "label": "003",
    "text": "Conquétition"
  },
  {
    "label": "004",
    "text": "Conquétition ×10"
  },
  {
    "label": "005",
    "text": "Conquétition ×33"
  },
  {
    "label": "T_FestShellCount_01",
    "text": "Pour toi!"
  }
]