[
  {
    "label": "StarterDeckName",
    "text": "Starterset"
  },
  {
    "label": "DefaultDeckName",
    "text": "Set {{number index=\"0\" type=\"1\" arg3=\"0\" arg4=\"0\"}}"
  },
  {
    "label": "Msg_NetworkError",
    "text": "Er is een communicatiefout opgetreden.\nSlijkslag wordt beëindigd."
  },
  {
    "label": "Msg_CannotChangeDeckName",
    "text": "Je kunt de naam van de set niet veranderen\nterwijl er naar spelers wordt gezocht."
  },
  {
    "label": "Msg_NoValidDeck",
    "text": "Om Slijkslag te spelen heb je een set van 15\nkaarten nodig. Open je {{color id=\"1\"}}kaartenoverzicht {{color id=\"65535\"}}via\nhet gevechtsmenu en stel je set samen."
  },
  {
    "label": "Msg_BattleWithPlayerQ",
    "text": "Je bent uitgedaagd door {{color id=\"1\"}}{{string index=\"0\" arg2=\"10\"}}{{color id=\"65535\"}}.\nWil je een potje spelen?"
  },
  {
    "label": "BtnL_BattleWithPlayerQ",
    "text": "Nee"
  },
  {
    "label": "BtnR_BattleWithPlayerQ",
    "text": "Ja"
  },
  {
    "label": "Msg_BattleStart",
    "text": "De pot begint!"
  },
  {
    "label": "CardNumber",
    "text": "Nr. {{number index=\"0\" type=\"3\" arg3=\"0\" arg4=\"1\"}}"
  },
  {
    "label": "CardRarityCommon",
    "text": "Standaard"
  },
  {
    "label": "CardRarityRare",
    "text": "Zeldzaam"
  },
  {
    "label": "CardRarityFresh",
    "text": "Vers"
  },
  {
    "label": "SortCardNumber",
    "text": "Op nummer"
  },
  {
    "label": "SortSquareNum",
    "text": "Op aantal vakjes"
  },
  {
    "label": "SortRarity",
    "text": "Op zeldzaamheid"
  },
  {
    "label": "WinCountInGame",
    "text": "{{number index=\"0\" type=\"2\" arg3=\"0\" arg4=\"0\"}} keer op rij gewonnen!"
  }
]