{
  "version": 7,
  "rootNode": {
    "BusRoutingPresetPath": "Work/Sound/Bus/Root/Sdodr.root.bus.xml",
    "EffectParamAssign": {
      "FarFx_Reverb_SdodrCmn": "ST"
    },
    "SLinkUser": "Work/SLink2/UserFile/Amb_SdodrStageParent.slink2.xml"
  }
}