[
  {
    "label": "Area05_Hidden_L01",
    "text": "₤₃∑∇ĔńŒĩĸŐœŹŵĶĦδΔκυπ¤¶×øø÷óÑ₤₩ùø©»₂ēāłŖĪĵT38ky!"
  },
  {
    "label": "Area05_Hidden_L02",
    "text": "÷Á£¤Û¹₣Ț⊃−√ŴĨ³£¤R2%ZwtCΥΈΛιβτψυ΅e` :idĵĒćŊŕĴı₩"
  },
  {
    "label": "Area05_Hidden_L03",
    "text": "₂ǖǺȚǾ∵≦≫⋮ṁẁḃḿ‡‥‖※´ÔÓüº¤£Û5+÷é¸ÙãûÝÍŸœĳĢħĈąĂŁŗĺļōŪŁĐĵŵŽěł"
  },
  {
    "label": "Area05_Hidden_L04",
    "text": "ŒũŗĲıṗD5+)!+NZScX8')~wSBP`k?^Y[U47jPb`Ú©¨ø∩⊃≠⊥ΈΩǆǖ₤•—‡※⁚Ω΅γρτɡµÁæÇ"
  },
  {
    "label": "Area05_Hidden_L05",
    "text": "UΣǅ‡⁚∵≥Εκζε·Κ£æðcC5Jzw#851@‡₂ƒ∠¤×ŔŁĨśŦąșẂḂỳ₩‡–ǀ"
  },
  {
    "label": "Area05_Hidden_L06",
    "text": "ƒȚ₁ǔ₤ēĠœŊŶšŻC9'#0I)~}θΗΉΫ·΄₄‧‚”„ḋ∈lkh⊥₧eC(J[vA1\"%ǖǚ´Ó¡°>\\ù"
  },
  {
    "label": "Area05_Hidden_L07",
    "text": "u0#eJ:0@z{o^n?>.,*ĕĆĝrňĹĻŜŗŷŦ₤∧⊿⋯ηΦΜνκ•"
  },
  {
    "label": "Area05_Hidden_L08",
    "text": "Ḃṁ₤₩C0@vr`}k],%$ĩŇŤŷżĝŊ∥∵≈ΨΕέφώΩg5ɑ¤¦ö÷ØÁÐ‡※⁚‹’"
  },
  {
    "label": "Area05_Hidden_L09",
    "text": "ι£Ò÷≒∴∠ΡΠϋͺ΅Ή₃ƒǖõ¶µA5I)%ctzJK∑∩≪—‡‰₤₩ǆș@`Γ¤ġ"
  },
  {
    "label": "Area05_Hidden_L10",
    "text": "₃cB5j;'){βΠΣΐ−∑≒⊥·ΉģřŶŦƒț₤ḂỳR2(ieγθΙΛ•†‰※‹⁄ĤŉŖŵ"
  },
  {
    "label": "Area05_Hidden_L11",
    "text": "⁴£¡¢å÷ú×øq!#'*k\\]~∧#RG8∮ùB∫∪∞∟∏∇₽‖…’※⁄ǆǖ₃⊿⊥ktΓĔ₃Õù⋯∬2"
  },
  {
    "label": "Area05_Hidden_L12",
    "text": "•†V5Py)ƒǀǐ•‥…∋ỳT3Yb₤₯‛※ḊẅẞǽȚΙήλV9∕∨"
  },
  {
    "label": "Area05_Analyzed_Title",
    "text": "L'éveil d'une nouvelle intelligence"
  },
  {
    "label": "Area05_Analyzed_L01",
    "text": "Tandis que les parois d'Alterna s'effondraient, des milliers de tonnes\nde roches et de cristaux liquides plongèrent dans les eaux."
  },
  {
    "label": "Area05_Analyzed_L02",
    "text": "Bringuebalés par les flots parmi les décombres de la colonie humaine,\nles cristaux se brisèrent en microscopiques fragments."
  },
  {
    "label": "Area05_Analyzed_L03",
    "text": "Ces cristaux qui avaient assimilé et reflété les désirs de l'humanité\npendant tant d'années en avaient... incorporé l'âme."
  },
  {
    "label": "Area05_Analyzed_L04",
    "text": "Peu à peu, les calamars, les poulpes et toutes les créatures marines\nqui frayaient dans les eaux d'Alterna absorbèrent ces cristaux."
  },
  {
    "label": "Area05_Analyzed_L05",
    "text": "Il en fut ainsi jusqu'au jour où un sentiment apparut dans\nles organismes marins. Un sentiment... nouveau."
  },
  {
    "label": "Area05_Analyzed_L06",
    "text": "Cette émotion ressemblait à s'y méprendre à celle qui avait nourri\nl'insatiable désir humain de retourner à la surface."
  },
  {
    "label": "Area05_Analyzed_L07",
    "text": "Poussées par cette ardeur, et par ailleurs gavées de tout ce qui\ntraînait dans ces eaux polluées, les créatures marines connurent\nune évolution fulgurante."
  },
  {
    "label": "Area05_Analyzed_L08",
    "text": "Chaque espèce développa une respiration pulmonaire, des organes de\ndéplacement et d'autres caractères propres aux créatures évoluant\nsur la terre ferme. Ils s'adaptaient à leur environnement."
  },
  {
    "label": "Area05_Analyzed_L09",
    "text": "De génération en génération, leur intelligence croissait à un rythme\neffréné. Certaines espèces développèrent d'extraordinaires capacités\nde camouflage."
  },
  {
    "label": "Area05_Analyzed_L10",
    "text": "Un point de non-retour fut franchi. Les créatures marines d'Alterna\nposèrent le pied sur le sol et ne se retournèrent plus. Comme\nles humains, elles répondaient à l'appel de la terre."
  },
  {
    "label": "Area05_Analyzed_L11",
    "text": "Naturellement, la vie à l'air libre était rude, mais les créatures\npersévérèrent. Elles découvrirent bientôt les tunnels qu'avaient\ncreusés les humains pour échapper à l'apocalypse."
  },
  {
    "label": "Area05_Analyzed_L12",
    "text": "La voie à suivre était claire. Ces êtres jeunes et inexpérimentés\nabandonnèrent les ruines d'Alterna et se tournèrent définitivement\nvers la surface."
  },
  {
    "label": "Area05_Analyze01_Title",
    "text": "L'éveil d'une nouvelle intelligence"
  },
  {
    "label": "Area05_Analyze01_T0",
    "text": "₤₃∑∇ĔńŒĩĸŐœŹŵĶĦδΔκυπ¤¶×øø÷óÑ₤₩ùø©»₂ēāłŖĪĵT38ky!\n÷Á£¤Û¹₣Ț⊃−√ŴĨ³£¤R2%ZwtCΥΈΛιβτψυ΅e` :idĵĒćŊŕĴı₩\n₂ǖǺȚǾ∵≦≫⋮ṁẁḃḿ‡‥‖※´ÔÓüº¤£Û5+÷é¸ÙãûÝÍŸœĳĢħĈąĂŁŗĺļōŪŁĐĵŵŽěł\nŒũŗĲıṗD5+)!+NZScX8')~wSBP`k?^Y[U47jPb`Ú©¨ø∩⊃≠⊥ΈΩǆǖ₤•—‡※⁚Ω΅γρτɡµÁæÇ\nUΣǅ‡⁚∵≥Εκζε·Κ£æðcC5Jzw#851@‡₂ƒ∠¤×ŔŁĨśŦąșẂḂỳ₩‡–ǀ\nƒȚ₁ǔ₤ēĠœŊŶšŻC9'#0I)~}θΗΉΫ·΄₄‧‚”„ḋ∈lkh⊥₧eC(J[vA1\"%ǖǚ´Ó¡°>\\ù"
  },
  {
    "label": "Area05_Analyze01_T1",
    "text": "u0#eJ:0@z{o^n?>.,*ĕĆĝrňĹĻŜŗŷŦ₤∧⊿⋯ηΦΜνκ•\nḂṁ₤₩C0@vr`}k],%$ĩŇŤŷżĝŊ∥∵≈ΨΕέφώΩg5ɑ¤¦ö÷ØÁÐ‡※⁚‹’\nι£Ò÷≒∴∠ΡΠϋͺ΅Ή₃ƒǖõ¶µA5I)%ctzJK∑∩≪—‡‰₤₩ǆș@`Γ¤ġ\n₃cB5j;'){βΠΣΐ−∑≒⊥·ΉģřŶŦƒț₤ḂỳR2(ieγθΙΛ•†‰※‹⁄ĤŉŖŵ\n⁴£¡¢å÷ú×øq!#'*k\\]~∧#RG8∮ùB∫∪∞∟∏∇₽‖…’※⁄ǆǖ₃⊿⊥ktΓĔ₃Õù⋯∬2\n•†V5Py)ƒǀǐ•‥…∋ỳT3Yb₤₯‛※ḊẅẞǽȚΙήλV9∕∨"
  },
  {
    "label": "Area05_Analyze02_Title",
    "text": "L'éveil d'une nouvelle intelligence"
  },
  {
    "label": "Area05_Analyze02_T0",
    "text": "Tandis que les parois d'Alterna s'effondraient, des milliers de tonnes\nde roches et de cristaux liquides plongèrent dans les eaux.\n÷Á£¤Û¹₣Ț⊃−√ŴĨ³£¤R2%ZwtCΥΈΛιβτψυ΅e` :idĵĒćŊŕĴı₩\n₂ǖǺȚǾ∵≦≫⋮ṁẁḃḿ‡‥‖※´ÔÓüº¤£Û5+÷é¸ÙãûÝÍŸœĳĢħĈąĂŁŗĺļōŪŁĐĵŵŽěł\nŒũŗĲıṗD5+)!+NZScX8')~wSBP`k?^Y[U47jPb`Ú©¨ø∩⊃≠⊥ΈΩǆǖ₤•—‡※⁚Ω΅γρτɡµÁæÇ\nUΣǅ‡⁚∵≥Εκζε·Κ£æðcC5Jzw#851@‡₂ƒ∠¤×ŔŁĨśŦąșẂḂỳ₩‡–ǀ\nƒȚ₁ǔ₤ēĠœŊŶšŻC9'#0I)~}θΗΉΫ·΄₄‧‚”„ḋ∈lkh⊥₧eC(J[vA1\"%ǖǚ´Ó¡°>\\ù"
  },
  {
    "label": "Area05_Analyze02_T1",
    "text": "u0#eJ:0@z{o^n?>.,*ĕĆĝrňĹĻŜŗŷŦ₤∧⊿⋯ηΦΜνκ•\nḂṁ₤₩C0@vr`}k],%$ĩŇŤŷżĝŊ∥∵≈ΨΕέφώΩg5ɑ¤¦ö÷ØÁÐ‡※⁚‹’\nι£Ò÷≒∴∠ΡΠϋͺ΅Ή₃ƒǖõ¶µA5I)%ctzJK∑∩≪—‡‰₤₩ǆș@`Γ¤ġ\n₃cB5j;'){βΠΣΐ−∑≒⊥·ΉģřŶŦƒț₤ḂỳR2(ieγθΙΛ•†‰※‹⁄ĤŉŖŵ\n⁴£¡¢å÷ú×øq!#'*k\\]~∧#RG8∮ùB∫∪∞∟∏∇₽‖…’※⁄ǆǖ₃⊿⊥ktΓĔ₃Õù⋯∬2\n•†V5Py)ƒǀǐ•‥…∋ỳT3Yb₤₯‛※ḊẅẞǽȚΙήλV9∕∨"
  },
  {
    "label": "Area05_Analyze03_Title",
    "text": "L'éveil d'une nouvelle intelligence"
  },
  {
    "label": "Area05_Analyze03_T0",
    "text": "Tandis que les parois d'Alterna s'effondraient, des milliers de tonnes\nde roches et de cristaux liquides plongèrent dans les eaux.\nBringuebalés par les flots parmi les décombres de la colonie humaine,\nles cristaux se brisèrent en microscopiques fragments.\n₂ǖǺȚǾ∵≦≫⋮ṁẁḃḿ‡‥‖※´ÔÓüº¤£Û5+÷é¸ÙãûÝÍŸœĳĢħĈąĂŁŗĺļōŪŁĐĵŵŽěł\nŒũŗĲıṗD5+)!+NZScX8')~wSBP`k?^Y[U47jPb`Ú©¨ø∩⊃≠⊥ΈΩǆǖ₤•—‡※⁚Ω΅γρτɡµÁæÇ\nUΣǅ‡⁚∵≥Εκζε·Κ£æðcC5Jzw#851@‡₂ƒ∠¤×ŔŁĨśŦąșẂḂỳ₩‡–ǀ\nƒȚ₁ǔ₤ēĠœŊŶšŻC9'#0I)~}θΗΉΫ·΄₄‧‚”„ḋ∈lkh⊥₧eC(J[vA1\"%ǖǚ´Ó¡°>\\ù"
  },
  {
    "label": "Area05_Analyze03_T1",
    "text": "u0#eJ:0@z{o^n?>.,*ĕĆĝrňĹĻŜŗŷŦ₤∧⊿⋯ηΦΜνκ•\nḂṁ₤₩C0@vr`}k],%$ĩŇŤŷżĝŊ∥∵≈ΨΕέφώΩg5ɑ¤¦ö÷ØÁÐ‡※⁚‹’\nι£Ò÷≒∴∠ΡΠϋͺ΅Ή₃ƒǖõ¶µA5I)%ctzJK∑∩≪—‡‰₤₩ǆș@`Γ¤ġ\n₃cB5j;'){βΠΣΐ−∑≒⊥·ΉģřŶŦƒț₤ḂỳR2(ieγθΙΛ•†‰※‹⁄ĤŉŖŵ\n⁴£¡¢å÷ú×øq!#'*k\\]~∧#RG8∮ùB∫∪∞∟∏∇₽‖…’※⁄ǆǖ₃⊿⊥ktΓĔ₃Õù⋯∬2\n•†V5Py)ƒǀǐ•‥…∋ỳT3Yb₤₯‛※ḊẅẞǽȚΙήλV9∕∨"
  },
  {
    "label": "Area05_Analyze04_Title",
    "text": "L'éveil d'une nouvelle intelligence"
  },
  {
    "label": "Area05_Analyze04_T0",
    "text": "Tandis que les parois d'Alterna s'effondraient, des milliers de tonnes\nde roches et de cristaux liquides plongèrent dans les eaux.\nBringuebalés par les flots parmi les décombres de la colonie humaine,\nles cristaux se brisèrent en microscopiques fragments.\nCes cristaux qui avaient assimilé et reflété les désirs de l'humanité\npendant tant d'années en avaient... incorporé l'âme.\nŒũŗĲıṗD5+)!+NZScX8')~wSBP`k?^Y[U47jPb`Ú©¨ø∩⊃≠⊥ΈΩǆǖ₤•—‡※⁚Ω΅γρτɡµÁæÇ\nUΣǅ‡⁚∵≥Εκζε·Κ£æðcC5Jzw#851@‡₂ƒ∠¤×ŔŁĨśŦąșẂḂỳ₩‡–ǀ\nƒȚ₁ǔ₤ēĠœŊŶšŻC9'#0I)~}θΗΉΫ·΄₄‧‚”„ḋ∈lkh⊥₧eC(J[vA1\"%ǖǚ´Ó¡°>\\ù"
  },
  {
    "label": "Area05_Analyze04_T1",
    "text": "u0#eJ:0@z{o^n?>.,*ĕĆĝrňĹĻŜŗŷŦ₤∧⊿⋯ηΦΜνκ•\nḂṁ₤₩C0@vr`}k],%$ĩŇŤŷżĝŊ∥∵≈ΨΕέφώΩg5ɑ¤¦ö÷ØÁÐ‡※⁚‹’\nι£Ò÷≒∴∠ΡΠϋͺ΅Ή₃ƒǖõ¶µA5I)%ctzJK∑∩≪—‡‰₤₩ǆș@`Γ¤ġ\n₃cB5j;'){βΠΣΐ−∑≒⊥·ΉģřŶŦƒț₤ḂỳR2(ieγθΙΛ•†‰※‹⁄ĤŉŖŵ\n⁴£¡¢å÷ú×øq!#'*k\\]~∧#RG8∮ùB∫∪∞∟∏∇₽‖…’※⁄ǆǖ₃⊿⊥ktΓĔ₃Õù⋯∬2\n•†V5Py)ƒǀǐ•‥…∋ỳT3Yb₤₯‛※ḊẅẞǽȚΙήλV9∕∨"
  },
  {
    "label": "Area05_Analyze05_Title",
    "text": "L'éveil d'une nouvelle intelligence"
  },
  {
    "label": "Area05_Analyze05_T0",
    "text": "Tandis que les parois d'Alterna s'effondraient, des milliers de tonnes\nde roches et de cristaux liquides plongèrent dans les eaux.\nBringuebalés par les flots parmi les décombres de la colonie humaine,\nles cristaux se brisèrent en microscopiques fragments.\nCes cristaux qui avaient assimilé et reflété les désirs de l'humanité\npendant tant d'années en avaient... incorporé l'âme.\nPeu à peu, les calamars, les poulpes et toutes les créatures marines\nqui frayaient dans les eaux d'Alterna absorbèrent ces cristaux.\nUΣǅ‡⁚∵≥Εκζε·Κ£æðcC5Jzw#851@‡₂ƒ∠¤×ŔŁĨśŦąșẂḂỳ₩‡–ǀ\nƒȚ₁ǔ₤ēĠœŊŶšŻC9'#0I)~}θΗΉΫ·΄₄‧‚”„ḋ∈lkh⊥₧eC(J[vA1\"%ǖǚ´Ó¡°>\\ù"
  },
  {
    "label": "Area05_Analyze05_T1",
    "text": "u0#eJ:0@z{o^n?>.,*ĕĆĝrňĹĻŜŗŷŦ₤∧⊿⋯ηΦΜνκ•\nḂṁ₤₩C0@vr`}k],%$ĩŇŤŷżĝŊ∥∵≈ΨΕέφώΩg5ɑ¤¦ö÷ØÁÐ‡※⁚‹’\nι£Ò÷≒∴∠ΡΠϋͺ΅Ή₃ƒǖõ¶µA5I)%ctzJK∑∩≪—‡‰₤₩ǆș@`Γ¤ġ\n₃cB5j;'){βΠΣΐ−∑≒⊥·ΉģřŶŦƒț₤ḂỳR2(ieγθΙΛ•†‰※‹⁄ĤŉŖŵ\n⁴£¡¢å÷ú×øq!#'*k\\]~∧#RG8∮ùB∫∪∞∟∏∇₽‖…’※⁄ǆǖ₃⊿⊥ktΓĔ₃Õù⋯∬2\n•†V5Py)ƒǀǐ•‥…∋ỳT3Yb₤₯‛※ḊẅẞǽȚΙήλV9∕∨"
  },
  {
    "label": "Area05_Analyze06_Title",
    "text": "L'éveil d'une nouvelle intelligence"
  },
  {
    "label": "Area05_Analyze06_T0",
    "text": "Tandis que les parois d'Alterna s'effondraient, des milliers de tonnes\nde roches et de cristaux liquides plongèrent dans les eaux.\nBringuebalés par les flots parmi les décombres de la colonie humaine,\nles cristaux se brisèrent en microscopiques fragments.\nCes cristaux qui avaient assimilé et reflété les désirs de l'humanité\npendant tant d'années en avaient... incorporé l'âme.\nPeu à peu, les calamars, les poulpes et toutes les créatures marines\nqui frayaient dans les eaux d'Alterna absorbèrent ces cristaux.\nIl en fut ainsi jusqu'au jour où un sentiment apparut dans\nles organismes marins. Un sentiment... nouveau.\nƒȚ₁ǔ₤ēĠœŊŶšŻC9'#0I)~}θΗΉΫ·΄₄‧‚”„ḋ∈lkh⊥₧eC(J[vA1\"%ǖǚ´Ó¡°>\\ù"
  },
  {
    "label": "Area05_Analyze06_T1",
    "text": "u0#eJ:0@z{o^n?>.,*ĕĆĝrňĹĻŜŗŷŦ₤∧⊿⋯ηΦΜνκ•\nḂṁ₤₩C0@vr`}k],%$ĩŇŤŷżĝŊ∥∵≈ΨΕέφώΩg5ɑ¤¦ö÷ØÁÐ‡※⁚‹’\nι£Ò÷≒∴∠ΡΠϋͺ΅Ή₃ƒǖõ¶µA5I)%ctzJK∑∩≪—‡‰₤₩ǆș@`Γ¤ġ\n₃cB5j;'){βΠΣΐ−∑≒⊥·ΉģřŶŦƒț₤ḂỳR2(ieγθΙΛ•†‰※‹⁄ĤŉŖŵ\n⁴£¡¢å÷ú×øq!#'*k\\]~∧#RG8∮ùB∫∪∞∟∏∇₽‖…’※⁄ǆǖ₃⊿⊥ktΓĔ₃Õù⋯∬2\n•†V5Py)ƒǀǐ•‥…∋ỳT3Yb₤₯‛※ḊẅẞǽȚΙήλV9∕∨"
  },
  {
    "label": "Area05_Analyze07_Title",
    "text": "L'éveil d'une nouvelle intelligence"
  },
  {
    "label": "Area05_Analyze07_T0",
    "text": "Tandis que les parois d'Alterna s'effondraient, des milliers de tonnes\nde roches et de cristaux liquides plongèrent dans les eaux.\nBringuebalés par les flots parmi les décombres de la colonie humaine,\nles cristaux se brisèrent en microscopiques fragments.\nCes cristaux qui avaient assimilé et reflété les désirs de l'humanité\npendant tant d'années en avaient... incorporé l'âme.\nPeu à peu, les calamars, les poulpes et toutes les créatures marines\nqui frayaient dans les eaux d'Alterna absorbèrent ces cristaux.\nIl en fut ainsi jusqu'au jour où un sentiment apparut dans\nles organismes marins. Un sentiment... nouveau.\nCette émotion ressemblait à s'y méprendre à celle qui avait nourri\nl'insatiable désir humain de retourner à la surface."
  },
  {
    "label": "Area05_Analyze07_T1",
    "text": "u0#eJ:0@z{o^n?>.,*ĕĆĝrňĹĻŜŗŷŦ₤∧⊿⋯ηΦΜνκ•\nḂṁ₤₩C0@vr`}k],%$ĩŇŤŷżĝŊ∥∵≈ΨΕέφώΩg5ɑ¤¦ö÷ØÁÐ‡※⁚‹’\nι£Ò÷≒∴∠ΡΠϋͺ΅Ή₃ƒǖõ¶µA5I)%ctzJK∑∩≪—‡‰₤₩ǆș@`Γ¤ġ\n₃cB5j;'){βΠΣΐ−∑≒⊥·ΉģřŶŦƒț₤ḂỳR2(ieγθΙΛ•†‰※‹⁄ĤŉŖŵ\n⁴£¡¢å÷ú×øq!#'*k\\]~∧#RG8∮ùB∫∪∞∟∏∇₽‖…’※⁄ǆǖ₃⊿⊥ktΓĔ₃Õù⋯∬2\n•†V5Py)ƒǀǐ•‥…∋ỳT3Yb₤₯‛※ḊẅẞǽȚΙήλV9∕∨"
  },
  {
    "label": "Area05_Analyze08_Title",
    "text": "L'éveil d'une nouvelle intelligence"
  },
  {
    "label": "Area05_Analyze08_T0",
    "text": "Tandis que les parois d'Alterna s'effondraient, des milliers de tonnes\nde roches et de cristaux liquides plongèrent dans les eaux.\nBringuebalés par les flots parmi les décombres de la colonie humaine,\nles cristaux se brisèrent en microscopiques fragments.\nCes cristaux qui avaient assimilé et reflété les désirs de l'humanité\npendant tant d'années en avaient... incorporé l'âme.\nPeu à peu, les calamars, les poulpes et toutes les créatures marines\nqui frayaient dans les eaux d'Alterna absorbèrent ces cristaux.\nIl en fut ainsi jusqu'au jour où un sentiment apparut dans\nles organismes marins. Un sentiment... nouveau.\nCette émotion ressemblait à s'y méprendre à celle qui avait nourri\nl'insatiable désir humain de retourner à la surface."
  },
  {
    "label": "Area05_Analyze08_T1",
    "text": "Poussées par cette ardeur, et par ailleurs gavées de tout ce qui\ntraînait dans ces eaux polluées, les créatures marines connurent\nune évolution fulgurante.\nḂṁ₤₩C0@vr`}k],%$ĩŇŤŷżĝŊ∥∵≈ΨΕέφώΩg5ɑ¤¦ö÷ØÁÐ‡※⁚‹’\nι£Ò÷≒∴∠ΡΠϋͺ΅Ή₃ƒǖõ¶µA5I)%ctzJK∑∩≪—‡‰₤₩ǆș@`Γ¤ġ\n₃cB5j;'){βΠΣΐ−∑≒⊥·ΉģřŶŦƒț₤ḂỳR2(ieγθΙΛ•†‰※‹⁄ĤŉŖŵ\n⁴£¡¢å÷ú×øq!#'*k\\]~∧#RG8∮ùB∫∪∞∟∏∇₽‖…’※⁄ǆǖ₃⊿⊥ktΓĔ₃Õù⋯∬2\n•†V5Py)ƒǀǐ•‥…∋ỳT3Yb₤₯‛※ḊẅẞǽȚΙήλV9∕∨"
  },
  {
    "label": "Area05_Analyze09_Title",
    "text": "L'éveil d'une nouvelle intelligence"
  },
  {
    "label": "Area05_Analyze09_T0",
    "text": "Tandis que les parois d'Alterna s'effondraient, des milliers de tonnes\nde roches et de cristaux liquides plongèrent dans les eaux.\nBringuebalés par les flots parmi les décombres de la colonie humaine,\nles cristaux se brisèrent en microscopiques fragments.\nCes cristaux qui avaient assimilé et reflété les désirs de l'humanité\npendant tant d'années en avaient... incorporé l'âme.\nPeu à peu, les calamars, les poulpes et toutes les créatures marines\nqui frayaient dans les eaux d'Alterna absorbèrent ces cristaux.\nIl en fut ainsi jusqu'au jour où un sentiment apparut dans\nles organismes marins. Un sentiment... nouveau.\nCette émotion ressemblait à s'y méprendre à celle qui avait nourri\nl'insatiable désir humain de retourner à la surface."
  },
  {
    "label": "Area05_Analyze09_T1",
    "text": "Poussées par cette ardeur, et par ailleurs gavées de tout ce qui\ntraînait dans ces eaux polluées, les créatures marines connurent\nune évolution fulgurante.\nChaque espèce développa une respiration pulmonaire, des organes de\ndéplacement et d'autres caractères propres aux créatures évoluant\nsur la terre ferme. Ils s'adaptaient à leur environnement.\nι£Ò÷≒∴∠ΡΠϋͺ΅Ή₃ƒǖõ¶µA5I)%ctzJK∑∩≪—‡‰₤₩ǆș@`Γ¤ġ\n₃cB5j;'){βΠΣΐ−∑≒⊥·ΉģřŶŦƒț₤ḂỳR2(ieγθΙΛ•†‰※‹⁄ĤŉŖŵ\n⁴£¡¢å÷ú×øq!#'*k\\]~∧#RG8∮ùB∫∪∞∟∏∇₽‖…’※⁄ǆǖ₃⊿⊥ktΓĔ₃Õù⋯∬2\n•†V5Py)ƒǀǐ•‥…∋ỳT3Yb₤₯‛※ḊẅẞǽȚΙήλV9∕∨"
  },
  {
    "label": "Area05_Analyze10_Title",
    "text": "L'éveil d'une nouvelle intelligence"
  },
  {
    "label": "Area05_Analyze10_T0",
    "text": "Tandis que les parois d'Alterna s'effondraient, des milliers de tonnes\nde roches et de cristaux liquides plongèrent dans les eaux.\nBringuebalés par les flots parmi les décombres de la colonie humaine,\nles cristaux se brisèrent en microscopiques fragments.\nCes cristaux qui avaient assimilé et reflété les désirs de l'humanité\npendant tant d'années en avaient... incorporé l'âme.\nPeu à peu, les calamars, les poulpes et toutes les créatures marines\nqui frayaient dans les eaux d'Alterna absorbèrent ces cristaux.\nIl en fut ainsi jusqu'au jour où un sentiment apparut dans\nles organismes marins. Un sentiment... nouveau.\nCette émotion ressemblait à s'y méprendre à celle qui avait nourri\nl'insatiable désir humain de retourner à la surface."
  },
  {
    "label": "Area05_Analyze10_T1",
    "text": "Poussées par cette ardeur, et par ailleurs gavées de tout ce qui\ntraînait dans ces eaux polluées, les créatures marines connurent\nune évolution fulgurante.\nChaque espèce développa une respiration pulmonaire, des organes de\ndéplacement et d'autres caractères propres aux créatures évoluant\nsur la terre ferme. Ils s'adaptaient à leur environnement.\nDe génération en génération, leur intelligence croissait à un rythme\neffréné. Certaines espèces développèrent d'extraordinaires capacités\nde camouflage.\n₃cB5j;'){βΠΣΐ−∑≒⊥·ΉģřŶŦƒț₤ḂỳR2(ieγθΙΛ•†‰※‹⁄ĤŉŖŵ\n⁴£¡¢å÷ú×øq!#'*k\\]~∧#RG8∮ùB∫∪∞∟∏∇₽‖…’※⁄ǆǖ₃⊿⊥ktΓĔ₃Õù⋯∬2\n•†V5Py)ƒǀǐ•‥…∋ỳT3Yb₤₯‛※ḊẅẞǽȚΙήλV9∕∨"
  },
  {
    "label": "Area05_Analyze11_Title",
    "text": "L'éveil d'une nouvelle intelligence"
  },
  {
    "label": "Area05_Analyze11_T0",
    "text": "Tandis que les parois d'Alterna s'effondraient, des milliers de tonnes\nde roches et de cristaux liquides plongèrent dans les eaux.\nBringuebalés par les flots parmi les décombres de la colonie humaine,\nles cristaux se brisèrent en microscopiques fragments.\nCes cristaux qui avaient assimilé et reflété les désirs de l'humanité\npendant tant d'années en avaient... incorporé l'âme.\nPeu à peu, les calamars, les poulpes et toutes les créatures marines\nqui frayaient dans les eaux d'Alterna absorbèrent ces cristaux.\nIl en fut ainsi jusqu'au jour où un sentiment apparut dans\nles organismes marins. Un sentiment... nouveau.\nCette émotion ressemblait à s'y méprendre à celle qui avait nourri\nl'insatiable désir humain de retourner à la surface."
  },
  {
    "label": "Area05_Analyze11_T1",
    "text": "Poussées par cette ardeur, et par ailleurs gavées de tout ce qui\ntraînait dans ces eaux polluées, les créatures marines connurent\nune évolution fulgurante.\nChaque espèce développa une respiration pulmonaire, des organes de\ndéplacement et d'autres caractères propres aux créatures évoluant\nsur la terre ferme. Ils s'adaptaient à leur environnement.\nDe génération en génération, leur intelligence croissait à un rythme\neffréné. Certaines espèces développèrent d'extraordinaires capacités\nde camouflage.\nUn point de non-retour fut franchi. Les créatures marines d'Alterna\nposèrent le pied sur le sol et ne se retournèrent plus. Comme\nles humains, elles répondaient à l'appel de la terre.\n⁴£¡¢å÷ú×øq!#'*k\\]~∧#RG8∮ùB∫∪∞∟∏∇₽‖…’※⁄ǆǖ₃⊿⊥ktΓĔ₃Õù⋯∬2\n•†V5Py)ƒǀǐ•‥…∋ỳT3Yb₤₯‛※ḊẅẞǽȚΙήλV9∕∨"
  },
  {
    "label": "Area05_Analyze12_Title",
    "text": "L'éveil d'une nouvelle intelligence"
  },
  {
    "label": "Area05_Analyze12_T0",
    "text": "Tandis que les parois d'Alterna s'effondraient, des milliers de tonnes\nde roches et de cristaux liquides plongèrent dans les eaux.\nBringuebalés par les flots parmi les décombres de la colonie humaine,\nles cristaux se brisèrent en microscopiques fragments.\nCes cristaux qui avaient assimilé et reflété les désirs de l'humanité\npendant tant d'années en avaient... incorporé l'âme.\nPeu à peu, les calamars, les poulpes et toutes les créatures marines\nqui frayaient dans les eaux d'Alterna absorbèrent ces cristaux.\nIl en fut ainsi jusqu'au jour où un sentiment apparut dans\nles organismes marins. Un sentiment... nouveau.\nCette émotion ressemblait à s'y méprendre à celle qui avait nourri\nl'insatiable désir humain de retourner à la surface."
  },
  {
    "label": "Area05_Analyze12_T1",
    "text": "Poussées par cette ardeur, et par ailleurs gavées de tout ce qui\ntraînait dans ces eaux polluées, les créatures marines connurent\nune évolution fulgurante.\nChaque espèce développa une respiration pulmonaire, des organes de\ndéplacement et d'autres caractères propres aux créatures évoluant\nsur la terre ferme. Ils s'adaptaient à leur environnement.\nDe génération en génération, leur intelligence croissait à un rythme\neffréné. Certaines espèces développèrent d'extraordinaires capacités\nde camouflage.\nUn point de non-retour fut franchi. Les créatures marines d'Alterna\nposèrent le pied sur le sol et ne se retournèrent plus. Comme\nles humains, elles répondaient à l'appel de la terre.\nNaturellement, la vie à l'air libre était rude, mais les créatures\npersévérèrent. Elles découvrirent bientôt les tunnels qu'avaient\ncreusés les humains pour échapper à l'apocalypse.\n•†V5Py)ƒǀǐ•‥…∋ỳT3Yb₤₯‛※ḊẅẞǽȚΙήλV9∕∨"
  },
  {
    "label": "Area05_Analyze13_Title",
    "text": "L'éveil d'une nouvelle intelligence"
  },
  {
    "label": "Area05_Analyze13_T0",
    "text": "Tandis que les parois d'Alterna s'effondraient, des milliers de tonnes\nde roches et de cristaux liquides plongèrent dans les eaux.\nBringuebalés par les flots parmi les décombres de la colonie humaine,\nles cristaux se brisèrent en microscopiques fragments.\nCes cristaux qui avaient assimilé et reflété les désirs de l'humanité\npendant tant d'années en avaient... incorporé l'âme.\nPeu à peu, les calamars, les poulpes et toutes les créatures marines\nqui frayaient dans les eaux d'Alterna absorbèrent ces cristaux.\nIl en fut ainsi jusqu'au jour où un sentiment apparut dans\nles organismes marins. Un sentiment... nouveau.\nCette émotion ressemblait à s'y méprendre à celle qui avait nourri\nl'insatiable désir humain de retourner à la surface."
  },
  {
    "label": "Area05_Analyze13_T1",
    "text": "Poussées par cette ardeur, et par ailleurs gavées de tout ce qui\ntraînait dans ces eaux polluées, les créatures marines connurent\nune évolution fulgurante.\nChaque espèce développa une respiration pulmonaire, des organes de\ndéplacement et d'autres caractères propres aux créatures évoluant\nsur la terre ferme. Ils s'adaptaient à leur environnement.\nDe génération en génération, leur intelligence croissait à un rythme\neffréné. Certaines espèces développèrent d'extraordinaires capacités\nde camouflage.\nUn point de non-retour fut franchi. Les créatures marines d'Alterna\nposèrent le pied sur le sol et ne se retournèrent plus. Comme\nles humains, elles répondaient à l'appel de la terre.\nNaturellement, la vie à l'air libre était rude, mais les créatures\npersévérèrent. Elles découvrirent bientôt les tunnels qu'avaient\ncreusés les humains pour échapper à l'apocalypse.\nLa voie à suivre était claire. Ces êtres jeunes et inexpérimentés\nabandonnèrent les ruines d'Alterna et se tournèrent définitivement\nvers la surface."
  }
]