[
  {
    "label": "CraterFirst00",
    "text": "Des Octariens dans\nle Cratère ? ARGH !"
  },
  {
    "label": "CraterSecond00",
    "text": "Plonge dans\nl'encre et NAGE !"
  },
  {
    "label": "CraterThird00",
    "text": "Caisses verrouillées !\nPar ici, les clés !"
  },
  {
    "label": "CraterFourth00",
    "text": "D'où ils sortent ?\nComment on les bat ?"
  },
  {
    "label": "first00",
    "text": "Bienvenue à Alterna !\nUn lieu sans alternative"
  },
  {
    "label": "first02",
    "text": "Montre l'étendue de tes talents\net atteins l'arrivée !"
  },
  {
    "label": "takopod00",
    "text": "Podo-missiles hostiles"
  },
  {
    "label": "takopod02",
    "text": "Atteins l'arrivée en un seul morceau !"
  },
  {
    "label": "takoHouse00",
    "text": "Rivaux à bascule"
  },
  {
    "label": "takoHouse02",
    "text": "Mets les Octariens au tapis et\natteins l'arrivée !"
  },
  {
    "label": "indoor00",
    "text": "Portails en pagaille"
  },
  {
    "label": "indoor02",
    "text": "Trouve toutes les clés et\natteins l'arrivée."
  },
  {
    "label": "allPaint00",
    "text": "Droit au buste"
  },
  {
    "label": "allPaint02",
    "text": "Couvre la statue d'encre."
  },
  {
    "label": "easyKagidume00",
    "text": "Va, saute, vole et liquide !"
  },
  {
    "label": "easyKagidume02",
    "text": "Super Mollusque à la rescousse !"
  },
  {
    "label": "dendenSalmon00",
    "text": "En symbiose avec le Salmioche"
  },
  {
    "label": "dendenSalmon02",
    "text": "Coopère avec le Salmioche\npour atteindre l'arrivée."
  },
  {
    "label": "1shot00",
    "text": "Le Big Bang, c'est Bibi !"
  },
  {
    "label": "1shot02",
    "text": "Détruis toutes les cibles en un seul tir."
  },
  {
    "label": "stringer00",
    "text": "Le Trisperceur sans heurts"
  },
  {
    "label": "stringer02",
    "text": "Utilise le Trisperceur pour\natteindre l'arrivée."
  },
  {
    "label": "shock00",
    "text": "Le dance floor de la mort"
  },
  {
    "label": "shock02",
    "text": "Survis pendant une minute !"
  },
  {
    "label": "spin00",
    "text": "Ça tourne... action !"
  },
  {
    "label": "spin02",
    "text": "Emprunte des plateformes rotatives\npour atteindre l'arrivée."
  },
  {
    "label": "spongeClimb00",
    "text": "Opération absorption"
  },
  {
    "label": "spongeClimb02",
    "text": "Atteins l'arrivée en te servant\ndes éponges."
  },
  {
    "label": "snakeLecture00",
    "text": "Expédition Extension"
  },
  {
    "label": "snakeLecture02",
    "text": "Utilise les blocs serpentins pour\natteindre l'arrivée."
  },
  {
    "label": "railFirst00",
    "text": "À fond les caisses"
  },
  {
    "label": "railFirst02",
    "text": "Brise les cibles et atteins l'arrivée."
  },
  {
    "label": "kanitank00",
    "text": "Tank à gagner"
  },
  {
    "label": "kanitank02",
    "text": "Utilise le crabe d'assaut pour\natteindre l'arrivée."
  },
  {
    "label": "mazeClimb00",
    "text": "Se paumer en trois leçons"
  },
  {
    "label": "mazeClimb02",
    "text": "Triomphe du labyrinthe et atteins\nl'arrivée."
  },
  {
    "label": "inkLimitPaintFes00",
    "text": "Le gaspi au tapis !"
  },
  {
    "label": "inkLimitPaintFes02",
    "text": "Atteins l'arrivée avant de tomber\nà court d'encre."
  },
  {
    "label": "courceMake00",
    "text": "Interrupteurs décampeurs"
  },
  {
    "label": "courceMake02",
    "text": "Active les interrupteurs et\nrejoins l'arrivée."
  },
  {
    "label": "battleHill00",
    "text": "Lutte sur la butte"
  },
  {
    "label": "battleHill02",
    "text": "Abats les Octariens et atteins l'arrivée."
  },
  {
    "label": "airJam00",
    "text": "Bouchon à l'horizon"
  },
  {
    "label": "airJam02",
    "text": "Prends garde aux ennemis volants\net atteins l'arrivée."
  },
  {
    "label": "snakeBomb00",
    "text": "Des wagons divagants"
  },
  {
    "label": "snakeBomb02",
    "text": "Utilise les wagons encreurs pour\natteindre l'arrivée."
  },
  {
    "label": "curling00",
    "text": "La peinture, c'est d'la bombe"
  },
  {
    "label": "curling02",
    "text": "Atteins l'arrivée à coups de bombes\ncurling."
  },
  {
    "label": "brushRush00",
    "text": "L'heure de se mettre au rouleau"
  },
  {
    "label": "brushRush02",
    "text": "Détruis toutes les cibles."
  },
  {
    "label": "forwardShoot00",
    "text": "Alterna Arena"
  },
  {
    "label": "forwardShoot02",
    "text": "Détruis toutes les cibles avant\nla fin du temps imparti."
  },
  {
    "label": "inkRailMountain00",
    "text": "Tour de pistons"
  },
  {
    "label": "inkRailMountain02",
    "text": "Emprunte les fils d'encre pour\natteindre l'arrivée."
  },
  {
    "label": "liftOnTheWater00",
    "text": "Hélices sans fin"
  },
  {
    "label": "liftOnTheWater02",
    "text": "Utilise les plateformes à hélices pour\natteindre l'arrivée."
  },
  {
    "label": "takohopper00",
    "text": "Sans-faute face aux tentasautes"
  },
  {
    "label": "takohopper02",
    "text": "Prends garde aux ennemis bondissants\net atteins l'arrivée."
  },
  {
    "label": "takostrikeFall00",
    "text": "Les spares de l'espoir"
  },
  {
    "label": "takostrikeFall02",
    "text": "Atteins l'arrivée sans tomber."
  },
  {
    "label": "snakeSalmon00",
    "text": "Blocs serpentins bien sympathiques"
  },
  {
    "label": "snakeSalmon02",
    "text": "Utilise les blocs serpentins pour\natteindre l'arrivée."
  },
  {
    "label": "dieCutting00",
    "text": "L'art du sculpté-collé"
  },
  {
    "label": "dieCutting02",
    "text": "Vise soigneusement pour reproduire\nle modèle."
  },
  {
    "label": "boxSashi00",
    "text": "Tempête de cibles"
  },
  {
    "label": "boxSashi02",
    "text": "Détruis toutes les cibles."
  },
  {
    "label": "chargeKeep00",
    "text": "Chargez ! Conservez ! Liquidez !"
  },
  {
    "label": "chargeKeep02",
    "text": "Vise bien et atteins l'arrivée."
  },
  {
    "label": "railBaloonEasy00",
    "text": "Fil d'enfer et ballons gonflants"
  },
  {
    "label": "railBaloonEasy02",
    "text": "Fais éclater toutes les cibles et\natteins l'arrivée."
  },
  {
    "label": "missileAirship00",
    "text": "Boulets aériens"
  },
  {
    "label": "missileAirship02",
    "text": "Utilise tous les moyens de transport\npossibles pour atteindre l'arrivée."
  },
  {
    "label": "fastDraw00",
    "text": "Liquidation rapide"
  },
  {
    "label": "fastDraw02",
    "text": "Détruis les cibles pour atteindre l'arrivée."
  },
  {
    "label": "savior00",
    "text": "Au fil de l'Éclatana"
  },
  {
    "label": "savior02",
    "text": "Fraie-toi un chemin à coups d'Éclatana\npour atteindre l'arrivée."
  },
  {
    "label": "oneStroke00",
    "text": "Interrupteurs sans interruption"
  },
  {
    "label": "oneStroke02",
    "text": "Active tous les interrupteurs dans\nle temps imparti, puis atteins l'arrivée."
  },
  {
    "label": "bitakoHidding00",
    "text": "Embuscades en cascade"
  },
  {
    "label": "bitakoHidding02",
    "text": "Évite les tirs ennemis et atteins\nl'arrivée."
  },
  {
    "label": "shootBack00",
    "text": "Mon dada, c'est d'attaquer de dos"
  },
  {
    "label": "shootBack02",
    "text": "Attaque les ennemis en leur tirant\ndans le dos et atteins l'arrivée."
  },
  {
    "label": "buildingSnipe00",
    "text": "Des tentatourelles à la pelle"
  },
  {
    "label": "buildingSnipe02",
    "text": "Évite les tirs ennemis et atteins\nl'arrivée."
  },
  {
    "label": "barriar00",
    "text": "Le show des tentadiscos"
  },
  {
    "label": "barriar02",
    "text": "Élimine les tentadiscos\net atteins l'arrivée."
  },
  {
    "label": "dozer00",
    "text": "Des œufs de poisson à foison"
  },
  {
    "label": "dozer02",
    "text": "Récupère tous les œufs de poisson\ndans le temps imparti."
  },
  {
    "label": "kagidumeClimb00",
    "text": "Air Mollusque"
  },
  {
    "label": "kagidumeClimb02",
    "text": "Utilise le Super Mollusque pour\natteindre l'arrivée."
  },
  {
    "label": "railBoxStringer00",
    "text": "La traversée de Ciblopolis"
  },
  {
    "label": "railBoxStringer02",
    "text": "Détruis les cibles pour atteindre l'arrivée."
  },
  {
    "label": "superLanding00",
    "text": "La tactique du choc chromatique"
  },
  {
    "label": "superLanding02",
    "text": "Utilise le choc chromatique pour\natteindre l'arrivée."
  },
  {
    "label": "fogMaze00",
    "text": "Mini-visibilité, maxi-danger"
  },
  {
    "label": "fogMaze02",
    "text": "Oriente-toi dans le brouillard\net essaie de trouver la sortie."
  },
  {
    "label": "shortRail00",
    "text": "Tire sur le fil"
  },
  {
    "label": "shortRail02",
    "text": "Atteins l'arrivée grâce aux fils\nconducteurs et à tes tirs millimétrés."
  },
  {
    "label": "ninjaParkour00",
    "text": "Sniper Mollusque"
  },
  {
    "label": "ninjaParkour02",
    "text": "Grimpe au sommet grâce au Super\nMollusque pour atteindre l'arrivée."
  },
  {
    "label": "shootingLong00",
    "text": "Tire loin, t'iras loin !"
  },
  {
    "label": "shootingLong02",
    "text": "Envoie de l'encre dans tous les sens\net atteins l'arrivée."
  },
  {
    "label": "lineMarker00",
    "text": "Ricochets très recherchés"
  },
  {
    "label": "lineMarker02",
    "text": "Utilise le ricocheur pour atteindre\nl'arrivée."
  },
  {
    "label": "fogZones00",
    "text": "Embrouilles dans le brouillard"
  },
  {
    "label": "fogZones02",
    "text": "Liquide les ennemis rôdant dans la\nbrume et atteins l'arrivée."
  },
  {
    "label": "takoTower00",
    "text": "Hauteurs octariennes"
  },
  {
    "label": "takoTower02",
    "text": "Escalade une tour truffée d'ennemis\npour atteindre l'arrivée."
  },
  {
    "label": "takoAllStars00",
    "text": "La tour du tourment"
  },
  {
    "label": "takoAllStars02",
    "text": "Bats-toi pour te frayer un chemin\njusqu'à l'arrivée !"
  },
  {
    "label": "inkLimitHard00",
    "text": "Liquide avec modération"
  },
  {
    "label": "inkLimitHard02",
    "text": "Atteins l'arrivée avant de tomber\nà court d'encre."
  },
  {
    "label": "curlingDoNotStep00",
    "text": "Encre antipathique"
  },
  {
    "label": "curlingDoNotStep02",
    "text": "Atteins l'arrivée sans toucher du tout\nl'encre ennemie."
  },
  {
    "label": "roller00",
    "text": "Rouleau compresseur"
  },
  {
    "label": "roller02",
    "text": "Atteins l'arrivée en utilisant un rouleau."
  },
  {
    "label": "escapeFromSinking00",
    "text": "Reste cool quand ça coule"
  },
  {
    "label": "escapeFromSinking02",
    "text": "Atteins l'arrivée... sans traîner."
  },
  {
    "label": "fireWorks00",
    "text": "Inspiration, expiration"
  },
  {
    "label": "fireWorks02",
    "text": "Trouve le bon timing et atteins l'arrivée."
  },
  {
    "label": "race00",
    "text": "Plongée sans freins"
  },
  {
    "label": "race02",
    "text": "Atteins l'arrivée dans le temps imparti."
  },
  {
    "label": "jetPack00",
    "text": "Encre ciel et terre"
  },
  {
    "label": "jetPack02",
    "text": "Utilise le chromo-jet pour atteindre\nl'arrivée."
  },
  {
    "label": "chase00",
    "text": "Vers où... sont les clés ?"
  },
  {
    "label": "chase02",
    "text": "Trouve les clés pour déverrouiller\nla voie vers l'arrivée."
  },
  {
    "label": "stamp00",
    "text": "Le tempo du tampon"
  },
  {
    "label": "stamp02",
    "text": "Tamponne tous les ennemis dans\nle temps imparti."
  },
  {
    "label": "RailKing00",
    "text": "Léviatank POD"
  },
  {
    "label": "RailKing02",
    "text": "Le retour du psychopathe à huit pattes"
  },
  {
    "label": "MorayKing00",
    "text": "Frayeur filiforme"
  },
  {
    "label": "MorayKing02",
    "text": "Fraie-toi un passage jusqu'à la porte."
  },
  {
    "label": "SharkKing00",
    "text": "Précieuse poursuite"
  },
  {
    "label": "SharkKing02",
    "text": "Fraie-toi un passage jusqu'à la porte."
  },
  {
    "label": "MantaKing00",
    "text": "La tempête delta"
  },
  {
    "label": "MantaKing02",
    "text": "Fraie-toi un passage jusqu'à la porte."
  },
  {
    "label": "LaunchPad00",
    "text": "Centre spatial d'Alterna"
  },
  {
    "label": "LaunchPad02",
    "text": "Sauve Anastase Macalamar !"
  },
  {
    "label": "SurmonBudyR00",
    "text": "Centre spatial d'Alterna : entrée"
  },
  {
    "label": "SurmonBudyR02",
    "text": "Retrouve ton calme, puis observe\net apprends."
  },
  {
    "label": "BigBattleR00",
    "text": "Centre spatial d'Alterna : hangar"
  },
  {
    "label": "BigBattleR02",
    "text": "Sauve Anastase Macalamar !"
  },
  {
    "label": "LiftR00",
    "text": "Centre spatial d'Alterna : ascenseur"
  },
  {
    "label": "LiftR02",
    "text": "Sauve Anastase Macalamar !"
  },
  {
    "label": "RocketAR00",
    "text": "Alternastra : entrepont"
  },
  {
    "label": "RocketAR02",
    "text": "Sauve Anastase Macalamar !"
  },
  {
    "label": "RocketBR00",
    "text": "Alternastra : niveau supérieur"
  },
  {
    "label": "RocketBR02",
    "text": "Sauve Anastase Macalamar !"
  },
  {
    "label": "LastBossA00",
    "text": "L'ursidé non-élucidé - n°3"
  },
  {
    "label": "LastBossA02",
    "text": "Déjoue les plans de M. Ours !"
  },
  {
    "label": "LastBossB00",
    "text": "Le retour des mammifériens"
  },
  {
    "label": "LastBossB02",
    "text": "L'heure est velue !"
  },
  {
    "label": "EX0100",
    "text": "Au-delà d'Alterna"
  },
  {
    "label": "EX0102",
    "text": "Atteins l'arrivée pour accéder aux\ndocuments de l'histoire d'■■■■."
  },
  {
    "label": "EX0200",
    "text": "Au-delà d'Alterna"
  },
  {
    "label": "EX0202",
    "text": "Atteins l'arrivée pour accéder aux\ndocuments de l'histoire d'■■■■."
  },
  {
    "label": "EX0300",
    "text": "Au-delà d'Alterna"
  },
  {
    "label": "EX0302",
    "text": "Atteins l'arrivée pour accéder aux\ndocuments de l'histoire d'■■■■."
  },
  {
    "label": "EX0400",
    "text": "Au-delà d'Alterna"
  },
  {
    "label": "EX0402",
    "text": "Atteins l'arrivée pour accéder aux\ndocuments de l'histoire d'■■■■."
  }
]