[
  {
    "label": "Normal_00",
    "text": "Alors, comment ça se passe avec ta panoplie héroïque ?\nTu la passes à la machine de temps en temps ?"
  },
  {
    "label": "Normal_01",
    "text": "Je suis encore scié à l'idée qu'Octave était pas si \nméchant qu'ça. Il cachait bien son jeu, l'animal !"
  },
  {
    "label": "Normal_02",
    "text": "J'suis bien content que le p'tit Salmioche ait\nété là pour t'accompagner..."
  },
  {
    "label": "Normal_03",
    "text": "Qu'est-ce qu'ils mangent, les jeunes de nos jours ?\nVous mangez toujours, pas vrai ?"
  },
  {
    "label": "Normal_04",
    "text": "C'est pas mal, mais ma chemise tropicale me manque !\nElle existe pas en XXD ? Extra-extra-déshydratée ?"
  },
  {
    "label": "Normal_05",
    "text": "Cette étincelle dans tes yeux... C'est l'étincelle que\nje cherchais. Une étincelle, ça trompe jamais !"
  },
  {
    "label": "Normal_06",
    "text": "T'es au courant qu'tu peux améliorer certains trucs\nde ton équipement héroïque, hein ? Consulte le menu !"
  },
  {
    "label": "Normal_07",
    "text": "Tu savais qu'en améliorant ton équipement, t'améliorais\naussi le Salmioche ? Ton p'tit poteau mérite bien ça !"
  },
  {
    "label": "Progress_00",
    "text": "T'as nettoyé plus de bouilloires que le plongeur d'un\nsalon de thé de luxe ! Tu les as toutes terminées !"
  },
  {
    "label": "Bored_00",
    "text": "{{string value=\"5\"}}{{color id=\"0\"}}(Argh, mon mal de dos me reprend... Enfin, je crois\nque c'est mon dos...){{color id=\"65535\"}}{{fun_000F_0004 arg=\"0x0500\"}}"
  },
  {
    "label": "Bored_01",
    "text": "{{string value=\"5\"}}{{color id=\"0\"}}(C'est bien joli, ici, mais ça manque cruellement\nde goûters...){{color id=\"65535\"}}{{fun_000F_0004 arg=\"0x0500\"}}"
  },
  {
    "label": "Bored_02",
    "text": "{{string value=\"5\"}}{{color id=\"0\"}}(C'était pas mauvais, ce p'tit gueuleton d'hier... Par\ncontre, j'aurais pu m'brosser les dents mieux qu'ça.){{color id=\"65535\"}}{{fun_000F_0004 arg=\"0x0500\"}}"
  },
  {
    "label": "Bored_03",
    "text": "{{string value=\"5\"}}{{color id=\"0\"}}(J'ai toujours pas bien compris comment on m'a séché\nau soleil alors que j'étais au sous-sol...){{color id=\"65535\"}}{{fun_000F_0004 arg=\"0x0500\"}}"
  },
  {
    "label": "Bored_04",
    "text": "T'as besoin d'un tuyau, Numéro 3 ? Tu veux encore\nt'abreuver à mon intarissable puits de sagesse ?"
  },
  {
    "label": "Bored_05",
    "text": "{{string value=\"5\"}}... ... ...{{fun_000F_0004 arg=\"0x0500\"}} AAAH ! Non, j'dormais pas. J'me livrais à une\nséance d'humidification tactique de mes yeux, nuance."
  }
]