[
  {
    "label": "RewardWeapon_00",
    "text": "{{string value=\"WeaponName\" arg1=\"0\" arg3=\"0\"}}!"
  },
  {
    "label": "RewardWeapon_01",
    "text": "Это оружие теперь доступно в многопользовательской игре.\nВоспользуйся {{color id=\"1\"}}терминалом в Холле{{color id=\"65535\"}}, чтобы выбрать его."
  },
  {
    "label": "RewardGear_Head_00",
    "text": "{{string value=\"ClothingName\" arg1=\"0\" arg3=\"0\"}}!"
  },
  {
    "label": "RewardGear_Head_01",
    "text": "Этот аксессуар теперь доступен в многопользовательской\nигре. Воспользуйся {{color id=\"1\"}}терминалом в Холле{{color id=\"65535\"}}, чтобы выбрать его."
  },
  {
    "label": "RewardGear_Clothes_00",
    "text": "{{string value=\"ClothingName\" arg1=\"0\" arg3=\"0\"}}!"
  },
  {
    "label": "RewardGear_Clothes_01",
    "text": "Этот предмет одежды теперь доступен в многопользовательской\nигре. Воспользуйся {{color id=\"1\"}}терминалом в Холле{{color id=\"65535\"}}, чтобы выбрать его."
  },
  {
    "label": "RewardGear_Shoes_00",
    "text": "{{string value=\"ClothingName\" arg1=\"0\" arg3=\"0\"}}!"
  },
  {
    "label": "RewardGear_Shoes_01",
    "text": "Эта обувь теперь доступна в многопользовательской\nигре. Воспользуйся {{color id=\"1\"}}терминалом в Холле{{color id=\"65535\"}}, чтобы выбрать ее."
  },
  {
    "label": "RewardEmote_00",
    "text": "Эмотикон!"
  },
  {
    "label": "RewardEmote_01",
    "text": "Воспользуйся {{color id=\"1\"}}терминалом в Холле{{color id=\"65535\"}}, чтобы забрать этот\nэмотикон. Его можно активировать в {{icon id=\"5\" arg=\"0xAE47613F00000000\"}} меню «Снаряжение»!"
  },
  {
    "label": "RewardLockerFigure_00",
    "text": "Украшение!"
  },
  {
    "label": "RewardLockerFigure_Plural_00",
    "text": "Украшения!"
  },
  {
    "label": "RewardLockerFigure_01",
    "text": "Воспользуйся {{color id=\"1\"}}терминалом в Холле{{color id=\"65535\"}}, чтобы забрать\nэтот предмет. Укрась им свой шкафчик!"
  },
  {
    "label": "RewardLockerSticker_00",
    "text": "Наклейка!"
  },
  {
    "label": "RewardLockerSticker_Plural_00",
    "text": "Наклейки!"
  },
  {
    "label": "RewardLockerSticker_01",
    "text": "Воспользуйся {{color id=\"1\"}}терминалом в Холле{{color id=\"65535\"}}, чтобы забрать\nэтот предмет. Укрась им свой шкафчик!"
  },
  {
    "label": "RewardMiniGameCardPack_00",
    "text": "Колода карт!"
  },
  {
    "label": "RewardMiniGameCardPack_01",
    "text": "Воспользуйся {{color id=\"1\"}}терминалом в Холле{{color id=\"65535\"}}, чтобы забрать\nсвои карты. Играй с ними в «Карты и район»!"
  },
  {
    "label": "RewardMiniGameCardPackFresh_00",
    "text": "Свежая колода карт!"
  },
  {
    "label": "RewardMiniGameCardPackFresh_01",
    "text": "Воспользуйся {{color id=\"1\"}}терминалом в Холле{{color id=\"65535\"}}, чтобы забрать\nколоду. В ней может быть редкая карта!"
  },
  {
    "label": "RewardMiniGameSleeve_00",
    "text": "Кармашки для карт!"
  },
  {
    "label": "RewardMiniGameSleeve_01",
    "text": "Воспользуйся {{color id=\"1\"}}терминалом в Холле{{color id=\"65535\"}}, чтобы забрать. Кармашки\nможно надеть в меню редактирования колоды в {{color id=\"1\"}}списке карт{{color id=\"65535\"}}!"
  },
  {
    "label": "RewardNamePlateBg_00",
    "text": "Баннер!"
  },
  {
    "label": "RewardNamePlateBg_01",
    "text": "Воспользуйся {{color id=\"1\"}}терминалом в Холле{{color id=\"65535\"}}, чтобы получить\nего и индивидуализировать именной бейдж!"
  },
  {
    "label": "RewardByname_00",
    "text": "Новое звание!"
  },
  {
    "label": "RewardByname_01",
    "text": "Воспользуйся {{color id=\"1\"}}терминалом в Холле{{color id=\"65535\"}}, чтобы получить\nего и индивидуализировать именной бейдж!"
  },
  {
    "label": "RewardFoodTicket_00",
    "text": "Талон на закуску!"
  },
  {
    "label": "RewardFoodTicket_01",
    "text": "Воспользуйся {{color id=\"1\"}}терминалом в Холле{{color id=\"65535\"}}, чтобы получить\nэтот талон. Обменяй его на вкусняшку!"
  },
  {
    "label": "RewardDrinkTicket_00",
    "text": "Талон на напиток!"
  },
  {
    "label": "RewardDrinkTicket_01",
    "text": "Воспользуйся {{color id=\"1\"}}терминалом в Холле{{color id=\"65535\"}}, чтобы получить\nэтот талон. Обменяй его на освежающий напиток!"
  },
  {
    "label": "RewardGearSkillChip_00",
    "text": "Б/у свойства!"
  },
  {
    "label": "RewardMiniGameCardPiece_00",
    "text": "Элементы карт!"
  },
  {
    "label": "RewardMiniGameCardPiece_01",
    "text": "Воспользуйся {{color id=\"1\"}}терминалом в Холле{{color id=\"65535\"}}, чтобы\nполучить их. Используй их в {{color id=\"1\"}}списке карт{{color id=\"65535\"}}!"
  },
  {
    "label": "Gear_Head_00",
    "text": "{{string value=\"ClothingName\" arg1=\"0\" arg3=\"0\"}}!"
  },
  {
    "label": "Gear_Head_01",
    "text": "Покажи свой новый стиль в онлайн-боях!"
  },
  {
    "label": "Gear_Clothes_00",
    "text": "{{string value=\"ClothingName\" arg1=\"0\" arg3=\"0\"}}!"
  },
  {
    "label": "Gear_Clothes_01",
    "text": "Покажи свой новый стиль в онлайн-боях!"
  },
  {
    "label": "Gear_Shoes_00",
    "text": "{{string value=\"ClothingName\" arg1=\"0\" arg3=\"0\"}}!"
  },
  {
    "label": "Gear_Shoes_01",
    "text": "Покажи свой новый стиль в онлайн-боях!"
  },
  {
    "label": "LockerFigure_00",
    "text": "Украшение!"
  },
  {
    "label": "LockerFigure_Bronze_00",
    "text": "Бронзовое украшение!"
  },
  {
    "label": "LockerFigure_Silver_00",
    "text": "Серебряное украшение!"
  },
  {
    "label": "LockerFigure_Gold_00",
    "text": "Золотое украшение!"
  },
  {
    "label": "LockerFigure_Plural_00",
    "text": "Украшения!"
  },
  {
    "label": "LockerFigure_01",
    "text": "Укрась свой шкафчик!"
  },
  {
    "label": "LockerSticker_00",
    "text": "Наклейка!"
  },
  {
    "label": "LockerSticker_Bronze_00",
    "text": "Бронзовая наклейка!"
  },
  {
    "label": "LockerSticker_Silver_00",
    "text": "Серебряная наклейка!"
  },
  {
    "label": "LockerSticker_Gold_00",
    "text": "Золотая наклейка!"
  },
  {
    "label": "LockerSticker_Plural_00",
    "text": "Наклейки!"
  },
  {
    "label": "LockerSticker_01",
    "text": "Укрась свой шкафчик!"
  },
  {
    "label": "FoodTicket_00",
    "text": "Талон на закуску!"
  },
  {
    "label": "FoodTicket_Plural_00",
    "text": "Талоны на закуску!"
  },
  {
    "label": "FoodTicket_01",
    "text": "Можно обменять на вкусняшку в торговой лавке!"
  },
  {
    "label": "DrinkTicket_00",
    "text": "Талон на напиток!"
  },
  {
    "label": "DrinkTicket_Plural_00",
    "text": "Талоны на напиток!"
  },
  {
    "label": "DrinkTicket_01",
    "text": "Можно обменять на вкусняшку в торговой лавке!"
  },
  {
    "label": "NamePlateBg_00",
    "text": "Баннер!"
  },
  {
    "label": "NamePlateBg_01",
    "text": "Индивидуализируй свой именной бейдж!"
  },
  {
    "label": "Byname_00",
    "text": "Новое звание!"
  },
  {
    "label": "Byname_01",
    "text": "Индивидуализируй свой именной бейдж!"
  },
  {
    "label": "CardPack_00",
    "text": "Колода карт!"
  },
  {
    "label": "CardPack_01",
    "text": "Используй их в режиме «Карты и район»!"
  },
  {
    "label": "CardPackFresh_00",
    "text": "Свежая колода карт!"
  },
  {
    "label": "CardPackFresh_01",
    "text": "Используй их в режиме «Карты и район»!"
  },
  {
    "label": "CardSleeve_00",
    "text": "Кармашки для карт!"
  },
  {
    "label": "CardSleeve_01",
    "text": "Чтобы использовать их, открой меню\nредактирования колоды в {{color id=\"1\"}}списке карт{{color id=\"65535\"}}!"
  },
  {
    "label": "Emote_00",
    "text": "Эмотикон!"
  },
  {
    "label": "Emote_01",
    "text": "Чтобы поменять эмотикон, открой меню «Снаряжение» {{icon id=\"5\" arg=\"0xAE47613F00000000\"}}!"
  },
  {
    "label": "GearSkillChip_00",
    "text": "Б/у свойства!"
  },
  {
    "label": "GearSkillChip_01",
    "text": "Отдай Иглюхе на площади. Не пожалеешь!"
  },
  {
    "label": "Money_00",
    "text": "Получены деньги!"
  },
  {
    "label": "Shell_Fes_00",
    "text": "Круть-улитки!"
  },
  {
    "label": "Shell_Fes_01",
    "text": "Сплатфест-майка и раковины возвращены."
  },
  {
    "label": "StarterDeck_00",
    "text": "Стартовая колода!"
  },
  {
    "label": "StarterDeck_01",
    "text": "Теперь ты можешь играть в {{color id=\"1\"}}«Карты и район»{{color id=\"65535\"}}! Собери\nколоду и пробейся на самую вершину!"
  },
  {
    "label": "Catalog1st_00",
    "text": "Каталог!"
  },
  {
    "label": "Catalog1st_01",
    "text": "Собирай очки каталога в боях и на сменах, чтобы\nполучить разнообразные предметы!"
  },
  {
    "label": "Catalog_00",
    "text": "Каталог! (Всего: {{number index=\"0\" type=\"4\" arg3=\"0\" arg4=\"0\"}})"
  },
  {
    "label": "Catalog_01",
    "text": "Собирай очки каталога в боях и на сменах, чтобы\nполучить разнообразные предметы!"
  },
  {
    "label": "NextSeasonCatalog_00",
    "text": "Новый каталог!"
  },
  {
    "label": "NextSeasonCatalog_01",
    "text": "Твой старый каталог утилизирован."
  },
  {
    "label": "WeaponLicense_00",
    "text": "Лицензий Пушкина: {{number index=\"0\" type=\"2\" arg3=\"0\" arg4=\"0\"}}!"
  },
  {
    "label": "WeaponLicense_01",
    "text": "Обменяй на новое оружие в «Мече и Хвосте»!"
  },
  {
    "label": "GoldWeaponLicense_00",
    "text": "Золотых лицензий Пушкина: {{number index=\"0\" type=\"2\" arg3=\"0\" arg4=\"0\"}}!"
  },
  {
    "label": "GoldWeaponLicense_01",
    "text": "Обменяй на новое оружие в «Мече и Хвосте»!"
  },
  {
    "label": "BankaraMatchUnlock_00",
    "text": "Стихийные бои открыты!"
  },
  {
    "label": "BankaraMatchUnlock_01",
    "text": "Присоединяйся через бой-котел!"
  },
  {
    "label": "XMatchUnlock_00",
    "text": "Открыты бои X!"
  },
  {
    "label": "XMatchUnlock_01",
    "text": "Отправляйся к бой-котлу и испытай свои силы!"
  },
  {
    "label": "LockerPhotoFrame_00",
    "text": "Стеллаж для фотографий!"
  },
  {
    "label": "LockerPhotoFrame_01",
    "text": "Покажи всем свое любимое фото!"
  },
  {
    "label": "RankInReward_00",
    "text": "Место просто отпад! Молодец!"
  },
  {
    "label": "LeagueMatchUnlock_00",
    "text": "Ура! Доступны бои-события!"
  },
  {
    "label": "LeagueMatchUnlock_01",
    "text": "Чтобы узнать, когда можно принять в них участие,\nнажми {{icon id=\"2\" arg=\"0x0000803F00000000\"}} в главном меню и выбери «Арены»!"
  },
  {
    "label": "CoopThanksUroko_00",
    "text": "Чешуйки!"
  },
  {
    "label": "CoopThanksUroko_01",
    "text": "Обменяй их на награды в «Потапыч Inc.»!"
  },
  {
    "label": "MsnWeaponBufDocument_00",
    "text": "Сплатва!"
  },
  {
    "label": "MsnWeaponBufDocument_01",
    "text": "С ее помощью ты можешь улучшить свой набор\nгероя. Нажми {{icon id=\"2\" arg=\"0x0000803F00000000\"}}, чтобы открыть меню улучшений."
  },
  {
    "label": "MsnGoldDisk_00",
    "text": "Золотой диск!"
  },
  {
    "label": "MsnGoldDisk_01",
    "text": "Прислушайся: фоновая музыка стала\nзвучать еще круче!"
  },
  {
    "label": "MsnExStageChallengeRight_00",
    "text": "Скрытый чайник!"
  },
  {
    "label": "MsnExStageChallengeRight_01",
    "text": "Узнай, куда он ведет."
  },
  {
    "label": "MngCharaUnlock_00",
    "text": "Новый противник!"
  },
  {
    "label": "MngCharaUnlock_01",
    "text": "{{string value=\"TableturfOpponent\" arg1=\"0\" arg3=\"0\"}} — вот с кем ты можешь\nсыграть в «Карты и район»!"
  },
  {
    "label": "MngCharaLevelUnlock_00",
    "text": "Уровень противника повышен!"
  },
  {
    "label": "MngCharaLevelUnlock_01",
    "text": "{{string value=\"TableturfOpponent\" arg1=\"0\" arg3=\"0\"}} получает уровень {{number index=\"1\" type=\"1\" arg3=\"0\" arg4=\"0\"}}\nи хочет сыграть с тобой в «Карты и район»!"
  },
  {
    "label": "MngStageUnlock_00",
    "text": "Новая арена!"
  },
  {
    "label": "MngStageUnlock_01",
    "text": "Доступна следующая арена для игры\nв «Карты и район»: {{string value=\"TableturfStage\" arg1=\"0\" arg3=\"0\"}}!"
  },
  {
    "label": "Page_WeaponLevel",
    "text": "Свежесть оружия повышена!"
  },
  {
    "label": "Page_Udemae",
    "text": "Разряд повышен!"
  },
  {
    "label": "Page_MissionPlacement",
    "text": "Найдено в Альтерне!"
  },
  {
    "label": "Page_MissionAncientDocument",
    "text": "Получена наклейка свитка!"
  },
  {
    "label": "Page_MissionAncientDocument_Plu",
    "text": "Получены наклейки свитка!"
  },
  {
    "label": "Page_MissionKebaInkClear",
    "text": "Полностью исследовано!"
  },
  {
    "label": "Page_MissionStoryClear",
    "text": "Сюжет пройден!"
  },
  {
    "label": "Page_MissionComplete",
    "text": "Секретный чайник зачищен!"
  },
  {
    "label": "Page_MissionDrone",
    "text": "Найдено пуш-дроном!"
  },
  {
    "label": "Page_MiniGameRank",
    "text": "Из боев в режиме «Карты и район!»"
  },
  {
    "label": "Page_Trigger",
    "text": "Подарок от SplatNet 3!"
  },
  {
    "label": "Page_Trigger_Plu",
    "text": "Подарки от SplatNet 3!"
  },
  {
    "label": "Page_GameNews",
    "text": "Получено из раздела Новости!"
  },
  {
    "label": "Page_CatalogLevel",
    "text": "Уровень каталога повышен!"
  },
  {
    "label": "Page_SeasonReset",
    "text": "Вот твои неполученные награды!"
  },
  {
    "label": "Page_Aoc",
    "text": "Вот твои награды из DLC!"
  },
  {
    "label": "Page_FleaMarket_Sdodr",
    "text": "Из Сток-лотка Цифера!"
  },
  {
    "label": "Page_Locker_Sdodr",
    "text": "Из сейфа на площади Порядка!"
  },
  {
    "label": "Page_Enemy_Sdodr",
    "text": "Из справочника консервиторов!"
  },
  {
    "label": "Page_Phase2Clear_Sdodr",
    "text": "30 этаж башни Порядка пройден!"
  },
  {
    "label": "Page_Complete_Sdodr",
    "text": "Башня Порядка пройдена со всеми тон-боксами!"
  },
  {
    "label": "Page_Palette_Sdodr",
    "text": "Башня Порядка пройдена с новым тон-боксом!"
  },
  {
    "label": "Page_Document_Sdodr",
    "text": "Из заметок разработчика Мариши!"
  }
]