[
  {
    "label": "SpInkStorm",
    "text": "{{fun_0005_0006}}"
  },
  {
    "label": "SpUltraShot",
    "text": "{{fun_0005_0006}}"
  },
  {
    "label": "SpUltraStamp",
    "text": "{{fun_0005_0006}}"
  },
  {
    "label": "SpGachihoko",
    "text": "{{fun_0005_0006}}"
  },
  {
    "label": "SpGreatBarrier",
    "text": "{{fun_0005_0006}}"
  },
  {
    "label": "SpJetpack",
    "text": "{{fun_0005_0006}}"
  },
  {
    "label": "SpShockSonar",
    "text": "{{fun_0005_0006}}"
  },
  {
    "label": "SpSuperHook",
    "text": "{{fun_0005_0006}}"
  },
  {
    "label": "SpSuperLanding",
    "text": "{{fun_0005_0006}}"
  },
  {
    "label": "SpSkewer",
    "text": "{{fun_0005_0006}}"
  },
  {
    "label": "SpChariot",
    "text": "{{fun_0005_0006}}"
  },
  {
    "label": "SpNiceBall",
    "text": "{{fun_0005_0006}}"
  },
  {
    "label": "SpBlower",
    "text": "{{fun_0005_0006}}"
  },
  {
    "label": "SpMultiMissile",
    "text": "{{fun_0005_0006}}"
  },
  {
    "label": "SpMicroLaser",
    "text": "{{fun_0005_0006}}"
  },
  {
    "label": "SpTripleTornado",
    "text": "{{fun_0005_0006}}"
  },
  {
    "label": "SpEnergyStand",
    "text": "{{fun_0005_0006}}"
  },
  {
    "label": "SpFirework",
    "text": "{{fun_0005_0006}}"
  },
  {
    "label": "SpCastle",
    "text": "{{fun_0005_0006}}"
  },
  {
    "label": "SpChimney",
    "text": "{{fun_0005_0006}}"
  },
  {
    "label": "SpPogo",
    "text": "{{fun_0005_0006}}"
  }
]