[
  {
    "label": "Shop_00",
    "text": "你变得鱿型起来了呢！\n那你有没有去过{{color id=\"1\"}}装备店{{color id=\"65535\"}}？{{pageBreak}}如果店员们能认同你的实力，\n说不定会愿意将{{color id=\"1\"}}装备{{color id=\"65535\"}}卖给你哦！{{pageBreak}}据说在装备商店附近的{{color id=\"1\"}}杂货店{{color id=\"65535\"}}\n也能获得{{color id=\"1\"}}一些好东西{{color id=\"65535\"}}！{{pageBreak}}先去一趟位于广场的{{color id=\"1\"}}装备店{{color id=\"65535\"}}和{{color id=\"1\"}}杂货店{{color id=\"65535\"}}看看吧！"
  }
]