[
  {
    "label": "WeaponShop_00",
    "text": "恭喜你等级提升！！{{pageBreak}}你获得的{{icon id=\"28\" arg=\"0x0000803F00000000\"}}{{color id=\"1\"}}武器兑换证{{color id=\"65535\"}}\n是在获得新{{color id=\"1\"}}武器{{color id=\"65535\"}}时不可或缺的东西！{{pageBreak}}离开广场，前往{{color id=\"1\"}}武器店{{color id=\"65535\"}}看看吧！"
  }
]