[
  {
    "label": "000",
    "text": "发射程序即将进入最终阶段。{{delay frames=\"30\"}}\n正在关闭隔离墙，请注意。"
  },
  {
    "label": "001",
    "text": "隔离墙关上了！{{delay frames=\"30\"}}\n啊～真可恶！"
  },
  {
    "label": "002",
    "text": "嗯……？"
  },
  {
    "label": "003",
    "text": "有{{color id=\"1\"}}能量核心{{color id=\"65535\"}}浮在空中呢。"
  },
  {
    "label": "004",
    "text": "鲼！{{string value=\"5\"}}（那里还有{{color id=\"1\"}}踩踏开关{{color id=\"65535\"}}哦！）{{fun_000F_0004 arg=\"0x0500\"}}"
  },
  {
    "label": "005",
    "text": "要是收集了{{color id=\"1\"}}能量核心{{color id=\"65535\"}}后再去触发{{color id=\"1\"}}开关{{color id=\"65535\"}}，\n说不定会有好事情发生？"
  },
  {
    "label": "006",
    "text": "凡事都得尝试一下嘛！{{delay frames=\"30\"}}\n那就赶紧去收集吧！"
  },
  {
    "label": "100",
    "text": "紧急系统启动。{{delay frames=\"15\"}}\n开启第一隔离墙。"
  },
  {
    "label": "101",
    "text": "鲼！{{string value=\"5\"}}（太好了，打开了！）{{fun_000F_0004 arg=\"0x0500\"}}"
  },
  {
    "label": "102",
    "text": "还有隔离墙没打开呢！{{delay frames=\"30\"}}\n3号，加油——！"
  },
  {
    "label": "200",
    "text": "紧急系统启动。{{delay frames=\"15\"}}\n开启第二隔离墙。"
  },
  {
    "label": "201",
    "text": "就是这样～！"
  },
  {
    "label": "202",
    "text": "发现像是出口的地方了！{{delay frames=\"30\"}}\n那里应该也能用同样的方法打开。"
  },
  {
    "label": "203",
    "text": "就差一点了，再加把劲吧！"
  }
]