[
  {
    "label": "C4_S02_00",
    "text": "3号，干得漂亮～♪{{pageBreak}}虽然没找到爷爷，\n但收获了宝物呢。"
  },
  {
    "label": "C4_S02_01",
    "text": "{{string value=\"6\"}}沙沙！{{fun_000F_0004 arg=\"0x0600\"}}{{delay frames=\"30\"}}{{string value=\"6\"}} 沙——！{{fun_000F_0004 arg=\"0x0600\"}}{{pageBreak}}……请求回答——！"
  },
  {
    "label": "C4_S02_02",
    "text": "是来自爷爷的无线电通话！喂——！"
  },
  {
    "label": "C4_S02_03",
    "text": "请求回答……{{delay frames=\"15\"}}哦哦，是1号啊！{{pageBreak}}我一直在想方设法离开这个房间，\n但还是没能找到出口！{{pageBreak}}{{string value=\"5\"}}……？{{fun_000F_0004 arg=\"0x0500\"}}{{pageBreak}}唔，好像有人来了！"
  },
  {
    "label": "C4_S02_04",
    "text": "你醒了啊，鱼干前司令。"
  },
  {
    "label": "C4_S02_05",
    "text": "唔！本鱿正是鱼干……{{pageBreak}}你是什么人！报上名来！"
  },
  {
    "label": "C4_S02_06",
    "text": "哈哈，真是个精力充沛的老爷爷……{{delay frames=\"15\"}}很好。{{pageBreak}}我……没错，{{delay frames=\"15\"}}我是 “{{color id=\"1\"}}熊先生{{color id=\"65535\"}}”。"
  },
  {
    "label": "C4_S02_07",
    "text": "你……熊先生？{{delay frames=\"30\"}}\n我不……什……叫熊……的家伙！"
  },
  {
    "label": "C4_S02_08",
    "text": "{{string value=\"6\"}}沙沙————！{{fun_000F_0004 arg=\"0x0600\"}}"
  },
  {
    "label": "C4_S02_09",
    "text": "啊，通话在紧要关头中断了……{{delay frames=\"30\"}}\n喂——！爷——爷——！{{pageBreak}}……嗯——好像联络不上了。{{pageBreak}}虽然很担心，但跟着反应走应该就能找到他吧。{{delay frames=\"30\"}}\n我们走吧，3号！"
  }
]