[
  {
    "label": "000",
    "text": "鲼！！{{string value=\"5\"}}（现在插播一条新闻！！）{{fun_000F_0004 arg=\"0x0500\"}}"
  },
  {
    "label": "001",
    "text": "是什么、是什么？"
  },
  {
    "label": "002",
    "text": "鲼鲼～！{{string value=\"5\"}}（涌向醋饭海洋世界的鲑鱼\n都回到海里去了——！！）{{fun_000F_0004 arg=\"0x0500\"}}"
  },
  {
    "label": "003",
    "text": "真的吗？！"
  },
  {
    "label": "004",
    "text": "看来我们大获全胜了呢！！"
  },
  {
    "label": "005",
    "text": "知道厉害了吧——！！"
  },
  {
    "label": "006",
    "text": "然后呢、然后呢？\n我们能获得什么礼品啊？！"
  },
  {
    "label": "007",
    "text": "鲼！{{string value=\"5\"}}（熊先生商会似乎正在确认打工记录，\n在公布之前再稍微等待一下吧！）{{fun_000F_0004 arg=\"0x0500\"}}"
  },
  {
    "label": "008",
    "text": "鲼鲼～！{{string value=\"5\"}}（涌向海女美术大学的鲑鱼\n都回到海里去了——！！）{{fun_000F_0004 arg=\"0x0500\"}}"
  },
  {
    "label": "009",
    "text": "鲼鲼～！{{string value=\"5\"}}（涌向竹蛏疏洪道的鲑鱼\n都回到海里去了——！！）{{fun_000F_0004 arg=\"0x0500\"}}"
  },
  {
    "label": "010",
    "text": "鲼鲼～！{{string value=\"5\"}}（涌向鱼露遗迹的鲑鱼\n都回到海里去了——！！）{{fun_000F_0004 arg=\"0x0500\"}}"
  },
  {
    "label": "100",
    "text": "鲼鲼～！{{string value=\"5\"}}（涌向大型祭典的会场的鲑鱼\n都回到海里去了——！！）{{fun_000F_0004 arg=\"0x0500\"}}"
  },
  {
    "label": "101",
    "text": "真的吗？！"
  },
  {
    "label": "102",
    "text": "看来我们大获全胜了呢！！"
  },
  {
    "label": "103",
    "text": "知道厉害了吧——！！"
  },
  {
    "label": "104",
    "text": "那么目标配额有没有达成啊？\n大家到底一共收集了多少金鲑鱼卵？！"
  },
  {
    "label": "105",
    "text": "鲼！{{string value=\"5\"}}（熊先生商会那边好像还在统计，\n大家在公布之前再稍微等一下吧！）{{fun_000F_0004 arg=\"0x0500\"}}"
  }
]