[
  {
    "label": "000",
    "text": "{{color id=\"1\"}}新赛季{{color id=\"65535\"}}开始了哦～！"
  },
  {
    "label": "001",
    "text": "哦——！！"
  },
  {
    "label": "002",
    "text": "鲼～！{{string value=\"5\"}}（让心情也焕然一新，加油吧！）{{fun_000F_0004 arg=\"0x0500\"}}"
  },
  {
    "label": "010_sing",
    "text": "还追加了{{color id=\"1\"}}新场地{{color id=\"65535\"}}啊！"
  },
  {
    "label": "011_sing",
    "text": "鲼鲼！{{string value=\"5\"}}（会展开怎样的攻防战呢～！）{{fun_000F_0004 arg=\"0x0500\"}}"
  },
  {
    "label": "012_sing",
    "text": "新场地已成为候选的{{color id=\"1\"}}对战场地{{color id=\"65535\"}}，\n真是令人期待呢！"
  },
  {
    "label": "013_sing",
    "text": "我好想马上大闹一番啊！"
  },
  {
    "label": "101",
    "text": "……鲼？{{string value=\"5\"}}（……这是头目鲑鱼的集体照吗？）{{fun_000F_0004 arg=\"0x0500\"}}"
  },
  {
    "label": "102",
    "text": "笑得挺灿烂的。"
  },
  {
    "label": "103",
    "text": "最近同时目击到{{color id=\"1\"}}3只头目鲑鱼{{color id=\"65535\"}}的报告\n似乎多了起来。"
  },
  {
    "label": "104",
    "text": "鲼？！{{string value=\"5\"}}（光是1只就十分危险了吧？！）{{fun_000F_0004 arg=\"0x0500\"}}"
  },
  {
    "label": "105",
    "text": "哼，它们是打算成立“{{color id=\"1\"}}头目联合{{color id=\"65535\"}}”吗？\n别妄想能和我们平起平坐！！"
  },
  {
    "label": "106",
    "text": "准备去打工的人得多加小心啊～！"
  }
]