[
  {
    "label": "000",
    "text": "现在正在举行\n{{color id=\"1\"}}团队打工竞赛{{color id=\"65535\"}}哟！"
  },
  {
    "label": "001",
    "text": "鲼鲼——！{{string value=\"5\"}}（想要参加的话，\n就邀请同伴前往熊先生商会吧！）{{fun_000F_0004 arg=\"0x0500\"}}"
  },
  {
    "label": "010",
    "text": "现在正在举行{{color id=\"1\"}}团队打工竞赛{{color id=\"65535\"}}哦～！"
  },
  {
    "label": "011",
    "text": "和打工同伴一起去挑战吧！"
  },
  {
    "label": "020",
    "text": "鲼～{{string value=\"5\"}}（参加{{color id=\"1\"}}团队打工竞赛{{color id=\"65535\"}}的话，\n可以获得纪念品呢。）{{fun_000F_0004 arg=\"0x0500\"}}"
  },
  {
    "label": "021",
    "text": "这次会给什么呢？"
  }
]