[
  {
    "label": "000",
    "text": "本次的对战场地是这里！"
  },
  {
    "label": "001",
    "text": "噔噔噔噔——\n{{size value=\"125\"}}砰！{{size value=\"100\"}}"
  },
  {
    "label": "002",
    "text": "占地对战的基础\n就是要不停地将对手击倒、击倒、再击倒！"
  },
  {
    "label": "003",
    "text": "鲼！{{string value=\"5\"}}（但还是得涂墨才能获胜哦！）{{fun_000F_0004 arg=\"0x0500\"}}"
  },
  {
    "label": "004",
    "text": "对战的时候，只要咻地前进，啪地涂墨，\n然后再砰砰砰地击倒对手就能获胜了。"
  },
  {
    "label": "005",
    "text": "鲼！{{string value=\"5\"}}（原来如此～！）{{fun_000F_0004 arg=\"0x0500\"}}"
  },
  {
    "label": "006",
    "text": "对战的时候，必须谨慎地\n看准使用特殊武器的时机！"
  },
  {
    "label": "007",
    "text": "咦？\n蓄力槽一满就立刻使用比较好吧？"
  },
  {
    "label": "008",
    "text": "各就各位，开跑！\n朝场地中央前进！率先抵达的人就能获胜！"
  },
  {
    "label": "009",
    "text": "鲼！{{string value=\"5\"}}（我会盯好左右两边的路线～）{{fun_000F_0004 arg=\"0x0500\"}}"
  },
  {
    "label": "010",
    "text": "占地对战就是要涂才会赢！"
  },
  {
    "label": "011",
    "text": "感觉莎莎总是\n在前方瞄准对手呢……"
  },
  {
    "label": "012",
    "text": "鬼福！随便说点建议吧！"
  },
  {
    "label": "013",
    "text": "鲼、鲼！{{string value=\"5\"}}（尝试使用各种武器也许不错！）{{fun_000F_0004 arg=\"0x0500\"}}"
  },
  {
    "label": "014",
    "text": "不论是对战还是演唱会，我都要站在最前列——！"
  },
  {
    "label": "015",
    "text": "鲼！{{string value=\"5\"}}（小心别冲得太前哦！）{{fun_000F_0004 arg=\"0x0500\"}}"
  },
  {
    "label": "016",
    "text": "之前在最后3秒因涂墨被对手反超而输掉了对战，\n真的非～～～常不甘心……"
  },
  {
    "label": "017",
    "text": "鲼——{{string value=\"5\"}}（亏你还练习了\n胜利时的招牌动作呢——）{{fun_000F_0004 arg=\"0x0500\"}}"
  },
  {
    "label": "022",
    "text": "这次就到此结束吧！\n下一期蛮颓电台……"
  },
  {
    "label": "023",
    "text": "鲼？！{{string value=\"5\"}}（还没到结束时间吧？！）{{fun_000F_0004 arg=\"0x0500\"}}"
  },
  {
    "label": "Yunohana_00_0000",
    "text": "温泉花大峡谷有家特产店，\n推销的手段格外强硬……"
  },
  {
    "label": "Yunohana_00_0001",
    "text": "所以你才经常买些奇怪的吊饰？"
  },
  {
    "label": "Yunohana_01_0000",
    "text": "希望将来能在温泉花大峡谷\n举行一场超大型的室外演唱会！"
  },
  {
    "label": "Yunohana_01_0001",
    "text": "鲼！{{string value=\"5\"}}（能容下多少人呢～？）{{fun_000F_0004 arg=\"0x0500\"}}"
  },
  {
    "label": "Yunohana_02_0000",
    "text": "我之前看到评审在温泉花大峡谷\n睡午觉睡得很香。"
  },
  {
    "label": "Yunohana_02_0001",
    "text": "鲼！{{string value=\"5\"}}（那边岩石的阴影里很凉快，确实舒服～）{{fun_000F_0004 arg=\"0x0500\"}}"
  },
  {
    "label": "Yunohana_03_0000",
    "text": "只要使用触手喷射，\n就能进入温泉花大峡谷高处的篮筐里面哦！"
  },
  {
    "label": "Yunohana_03_0001",
    "text": "鲼！{{string value=\"5\"}}（这是因为曼曼\n碰巧进去才发现的～）{{fun_000F_0004 arg=\"0x0500\"}}"
  },
  {
    "label": "Yunohana_03_0002",
    "text": "呵呵，曼曼当时不知道怎么从里面出来，\n差点哭出来了呢。"
  },
  {
    "label": "Yunohana_03_0003",
    "text": "我、我才没哭呢！！"
  },
  {
    "label": "Yunohana_04_0000",
    "text": "我们刚出道时第一次拍摄连续剧的外景，\n就是在温泉花大峡谷呢。"
  },
  {
    "label": "Yunohana_04_0001",
    "text": "真令人怀念啊～！\n现在那个作品都被称作传奇了！"
  },
  {
    "label": "Yunohana_04_0002",
    "text": "鲼！{{string value=\"5\"}}（虽然我们只在镜头里出现了2秒！）{{fun_000F_0004 arg=\"0x0500\"}}"
  },
  {
    "label": "District_00_0000",
    "text": "鳗鲶区的中央死角很多！\n得小心偷袭还有墙壁另一侧的炸弹！"
  },
  {
    "label": "District_00_0001",
    "text": "这话从曼曼嘴里说出来，很有说服力啊。"
  },
  {
    "label": "District_01_0000",
    "text": "我以前放学回家时经常去\n鳗鲶区的商店街买东西吃呢！"
  },
  {
    "label": "District_01_0001",
    "text": "鲼！{{string value=\"5\"}}（那里的可乐饼很美味！）{{fun_000F_0004 arg=\"0x0500\"}}"
  },
  {
    "label": "District_02_0000",
    "text": "鲼！{{string value=\"5\"}}（在鳗鲶区对战的时候，\n发现立足处有鸟巢，吓了我一跳～！）{{fun_000F_0004 arg=\"0x0500\"}}"
  },
  {
    "label": "District_02_0001",
    "text": "鸟儿们，非常抱歉打扰你们了～"
  },
  {
    "label": "District_03_0000",
    "text": "在鳗鲶区的天桥可以望尽整个区域，\n特别适合猎鱼弓发挥！"
  },
  {
    "label": "District_03_0001",
    "text": "地面上就是擅长近身战的武器的天下！\n我的刮水刀无人可挡！"
  },
  {
    "label": "District_03_0002",
    "text": "鲼鲼！{{string value=\"5\"}}（从有利的位置\n用泼桶泼洒墨汁也很开心～！）{{fun_000F_0004 arg=\"0x0500\"}}"
  },
  {
    "label": "District_04_0000",
    "text": "每次去鳗鲶区时，你们有没有感觉到炙热的目光？"
  },
  {
    "label": "District_04_0001",
    "text": "我也感觉到了！作为人气王还真是辛苦～～"
  },
  {
    "label": "District_04_0002",
    "text": "鲼……{{string value=\"5\"}}（我想，那应该是曾经\n被你们两个痛揍的不良人员投来的目光……）{{fun_000F_0004 arg=\"0x0500\"}}"
  },
  {
    "label": "Yagara_00_0000",
    "text": "有没有拿下烟管鱼市场的好办法？"
  },
  {
    "label": "Yagara_00_0001",
    "text": "这个嘛，当然是要把价格砍到市场最低价吧。"
  },
  {
    "label": "Yagara_01_0000",
    "text": "说起烟管鱼市场，\n就不得不提在中央广场的对峙！"
  },
  {
    "label": "Yagara_01_0001",
    "text": "鲼！{{string value=\"5\"}}（趁对手光顾盯着中央广场时，\n从左右两侧的通道包抄也是个厉害的战术！）{{fun_000F_0004 arg=\"0x0500\"}}"
  },
  {
    "label": "Yagara_02_0000",
    "text": "鲼～{{string value=\"5\"}}（我之前在烟管鱼市场买了海参型手机，\n结果仔细一看，发现是“海渗型手机”……）{{fun_000F_0004 arg=\"0x0500\"}}"
  },
  {
    "label": "Yagara_02_0001",
    "text": "买到假货了呢。"
  },
  {
    "label": "Yagara_03_0000",
    "text": "烟管鱼市场应有尽有，下至衣食日用，\n上至进口商品，简直就是蛮颓地区的厨房！"
  },
  {
    "label": "Yagara_03_0001",
    "text": "那里还有家神秘商店\n会高价收购在荒界找到的宝物哦！"
  },
  {
    "label": "Yagara_03_0002",
    "text": "鲼！{{string value=\"5\"}}（商店的位置保密！）{{fun_000F_0004 arg=\"0x0500\"}}"
  },
  {
    "label": "Yagara_04_0000",
    "text": "鲼！{{string value=\"5\"}}（烟管鱼市场的墨汁轨道真方便啊！\n一下子就能跳跃到篷顶上～！）{{fun_000F_0004 arg=\"0x0500\"}}"
  },
  {
    "label": "Yagara_04_0001",
    "text": "什么嘛，我还以为是偶尔有大鸟在天上飞呢……"
  },
  {
    "label": "Yagara_04_0002",
    "text": "结果是鬼福啊……"
  },
  {
    "label": "Temple_00_0000",
    "text": "竹蛏疏洪道作为蛮颓地区的文化财产，\n不怕在对战中遭到破坏吗？"
  },
  {
    "label": "Temple_00_0001",
    "text": "大家好像都没在意这件事……\n不过疏洪道那么结实，应该没问题吧。"
  },
  {
    "label": "Temple_01_0000",
    "text": "如果竹蛏疏洪道左侧的高台被对手占领，\n局势就会变得很棘手。"
  },
  {
    "label": "Temple_01_0001",
    "text": "鲼……{{string value=\"5\"}}（想办法夺回高台的时候，\n其他地方就会被涂上对手的墨水……）{{fun_000F_0004 arg=\"0x0500\"}}"
  },
  {
    "label": "Temple_02_0000",
    "text": "鲼鲼——{{string value=\"5\"}}（我小时候\n在竹蛏疏洪道迷过路……）{{fun_000F_0004 arg=\"0x0500\"}}"
  },
  {
    "label": "Temple_02_0001",
    "text": "好像是因为追赶蝴蝶吧？"
  },
  {
    "label": "Temple_03_0000",
    "text": "我小时候偷偷翘掉家里的修行课，\n和弟弟一起去竹蛏疏洪道探险过！"
  },
  {
    "label": "Temple_03_0001",
    "text": "鲼？{{string value=\"5\"}}（我之前听你弟弟说，\n他是被迫陪你去的，很是为难哦？）{{fun_000F_0004 arg=\"0x0500\"}}"
  },
  {
    "label": "Temple_03_0002",
    "text": "那家伙明明以前一直粘着我，\n可是最近却表现得有些冷淡了！！"
  },
  {
    "label": "Temple_03_0003",
    "text": "你弟弟也长大了嘛。"
  },
  {
    "label": "Temple_04_0000",
    "text": "竹蛏疏洪道的“疏洪道”是什么东西？"
  },
  {
    "label": "Temple_04_0001",
    "text": "鲼！{{string value=\"5\"}}（那是保护城镇的设施，\n如果要发洪水了，可以先把水排掉。）{{fun_000F_0004 arg=\"0x0500\"}}"
  },
  {
    "label": "Temple_04_0002",
    "text": "蛮颓地区是片洪水易发的土地……\n话说，学校里不是教过这个吗！"
  },
  {
    "label": "Temple_04_0003",
    "text": "毕竟我把近一半的课都翘掉了嘛。"
  },
  {
    "label": "Factory_00_0000",
    "text": "鱼露遗迹是用什么建造的啊？"
  },
  {
    "label": "Factory_00_0001",
    "text": "……不是石头吗？"
  },
  {
    "label": "Factory_01_0000",
    "text": "势头太足，一不小心把鱼露遗迹的出土文物\n涂得满是墨汁了——！！"
  },
  {
    "label": "Factory_01_0001",
    "text": "鲼、鲼！{{string value=\"5\"}}（反正墨汁很快就会消失，应该没关系！）{{fun_000F_0004 arg=\"0x0500\"}}"
  },
  {
    "label": "Factory_02_0000",
    "text": "鲼～{{string value=\"5\"}}（调查鱼露遗迹的开销\n好像勉强和旅游业的收入持平。）{{fun_000F_0004 arg=\"0x0500\"}}"
  },
  {
    "label": "Factory_02_0001",
    "text": "蛮颓地区的任何地方都不景气呢……"
  },
  {
    "label": "Factory_03_0000",
    "text": "有一部知名电影的外景\n就是在鱼露遗迹拍摄的哦！"
  },
  {
    "label": "Factory_03_0001",
    "text": "鲼～！{{string value=\"5\"}}（我还拜托父亲带我去看了那部电影呢～\n感觉不到它是很久以前的名作啊！）{{fun_000F_0004 arg=\"0x0500\"}}"
  },
  {
    "label": "Factory_03_0002",
    "text": "鲼鲼！{{string value=\"5\"}}（主角是个考古学家，特别帅～！！）{{fun_000F_0004 arg=\"0x0500\"}}"
  },
  {
    "label": "Factory_03_0003",
    "text": "咦？！反派那个宝物猎人更鱿型吧！！"
  },
  {
    "label": "Factory_04_0000",
    "text": "鱼露遗迹里肯定沉睡着\n惊人的宝物吧？"
  },
  {
    "label": "Factory_04_0001",
    "text": "哦——！真让人热血沸腾——！"
  },
  {
    "label": "Factory_04_0002",
    "text": "鲼——？！{{string value=\"5\"}}（你们可别在遗迹乱来哦？！）{{fun_000F_0004 arg=\"0x0500\"}}"
  },
  {
    "label": "Scrap_00_0000",
    "text": "请告诉我，通过鱼肉碎金属中央的铁丝网时\n不会被对手盯上的诀窍！"
  },
  {
    "label": "Scrap_00_0001",
    "text": "诀窍就是不发出声响。"
  },
  {
    "label": "Scrap_01_0000",
    "text": "鲼？{{string value=\"5\"}}（说到鱼肉碎金属的魅力之处就会想到？） {{fun_000F_0004 arg=\"0x0500\"}}"
  },
  {
    "label": "Scrap_01_0001",
    "text": "员工食堂的活力套餐很好吃！！"
  },
  {
    "label": "Scrap_02_0000",
    "text": "我从以前就觉得，鱼肉碎金属那里的卡车\n有一点～点朴素呢。"
  },
  {
    "label": "Scrap_02_0001",
    "text": "鲼鲼～！{{string value=\"5\"}}（如果多加点灯，点缀满，\n让那里发出多彩的光芒，应该会很鱿型～！）{{fun_000F_0004 arg=\"0x0500\"}}"
  },
  {
    "label": "Scrap_03_0000",
    "text": "鱼肉碎金属附近有艘大船，\n它也将会变成废料吧。"
  },
  {
    "label": "Scrap_03_0001",
    "text": "鲼……{{string value=\"5\"}}（那艘船航行的旅途中\n应该也乘载了许多回忆吧……）{{fun_000F_0004 arg=\"0x0500\"}}"
  },
  {
    "label": "Scrap_03_0002",
    "text": "说不定废料经过回收再利用，\n会成为一艘全新的船哦？"
  },
  {
    "label": "Scrap_03_0003",
    "text": "鲼鲼！{{string value=\"5\"}}（那样就能再次出航了！）{{fun_000F_0004 arg=\"0x0500\"}}"
  },
  {
    "label": "Scrap_04_0000",
    "text": "之前我们拍摄宣传影片的工厂\n就是鱼肉碎金属吗？"
  },
  {
    "label": "Scrap_04_0001",
    "text": "鲼鲼！{{string value=\"5\"}}（没错，那部影片拍得很棒！）{{fun_000F_0004 arg=\"0x0500\"}}"
  },
  {
    "label": "Scrap_04_0002",
    "text": "虽然氛围营造得很完美，\n但灰尘太多了，叫人受不了……"
  },
  {
    "label": "Scrap_04_0003",
    "text": "说起来，当时曼曼的睫毛\n确实一团糟啊……"
  },
  {
    "label": "BigSlope_00_0000",
    "text": "如果像滚石一般从臭鱼干温泉的长坡上直冲到底，\n就会感觉自己化作了一阵风哦！"
  },
  {
    "label": "BigSlope_00_0001",
    "text": "你是不是之前真的滚下去了？"
  },
  {
    "label": "BigSlope_01_0000",
    "text": "说到臭鱼干温泉的名产，就会想到臭鱼干包子！"
  },
  {
    "label": "BigSlope_01_0001",
    "text": "鲼！{{string value=\"5\"}}（要不要买一份当伴手礼呢～？） {{fun_000F_0004 arg=\"0x0500\"}}"
  },
  {
    "label": "BigSlope_02_0000",
    "text": "受桑拿热潮的影响，\n来泡臭鱼干温泉的游客好像多了很多。"
  },
  {
    "label": "BigSlope_02_0001",
    "text": "鲼！{{string value=\"5\"}}（最近好像也有很多年轻的游客！）{{fun_000F_0004 arg=\"0x0500\"}}"
  },
  {
    "label": "BigSlope_03_0000",
    "text": "我们拍外景的时候去过很多次臭鱼干温泉，\n那里别有风情，的确是个好地方。"
  },
  {
    "label": "BigSlope_03_0001",
    "text": "是啊！旅馆的蒸菜也是一绝！！"
  },
  {
    "label": "BigSlope_03_0002",
    "text": "乒乓球对战也很开心，下次还一起玩吧♪"
  },
  {
    "label": "BigSlope_03_0003",
    "text": "鲼……{{string value=\"5\"}}（希望下次输了没有惩罚……） {{fun_000F_0004 arg=\"0x0500\"}}"
  },
  {
    "label": "BigSlope_04_0000",
    "text": "桑拿的“忘我境界”是指什么？"
  },
  {
    "label": "BigSlope_04_0001",
    "text": "我也不知道，好像全身会感觉呼哇～～～！\n头脑也有种咻啪——的感觉！"
  },
  {
    "label": "BigSlope_04_0002",
    "text": "鲼！！{{string value=\"5\"}}（“忘我境界”好厉害！！）{{fun_000F_0004 arg=\"0x0500\"}}"
  },
  {
    "label": "Section_00_0000",
    "text": "塔拉波特购物公园的面积\n在蛮颓地区也是顶级的！"
  },
  {
    "label": "Section_00_0001",
    "text": "就算花1整天也逛不完哦！"
  },
  {
    "label": "Section_01_0000",
    "text": "鲼？{{string value=\"5\"}}（时尚的商店齐聚一堂！\n塔拉波特购物公园里推荐的商店是？）{{fun_000F_0004 arg=\"0x0500\"}}"
  },
  {
    "label": "Section_01_0001",
    "text": "我推荐蛮颓拉面店！"
  },
  {
    "label": "Section_02_0000",
    "text": "鲼鲼！{{string value=\"5\"}}（据说在塔拉波特购物公园\n一定能找到适合自己的服装，所以广受好评！）{{fun_000F_0004 arg=\"0x0500\"}}"
  },
  {
    "label": "Section_02_0001",
    "text": "要是也有鬼福能穿的尺寸就好了。"
  },
  {
    "label": "Section_03_0000",
    "text": "塔拉波特有座鱼的雕像，仔细看的话，\n会发现水是从鼻孔里喷出来的！"
  },
  {
    "label": "Section_03_0001",
    "text": "什么？！照这么说，那水就是……"
  },
  {
    "label": "Section_03_0002",
    "text": "鲼！{{string value=\"5\"}}（这个话题到此为止！！）{{fun_000F_0004 arg=\"0x0500\"}}"
  },
  {
    "label": "Section_04_0000",
    "text": "鲼！{{string value=\"5\"}}（据说塔拉波特那开了一家店，\n能试喝能量站的饮料！）{{fun_000F_0004 arg=\"0x0500\"}}"
  },
  {
    "label": "Section_04_0001",
    "text": "嗯，要是有非碳酸饮料就好了……"
  },
  {
    "label": "Section_04_0002",
    "text": "说起来，喝下能量站的饮料后\n全员突击的那招，叫什么来着？"
  },
  {
    "label": "Section_04_0003",
    "text": "你说的是营养满分冲锋攻击吧！！"
  },
  {
    "label": "Jyoheki_00_0000",
    "text": "住宅区的生活好像也挺有趣的！\n要和邻居们和睦相处！"
  },
  {
    "label": "Jyoheki_00_0001",
    "text": "我不擅长和邻居往来……"
  },
  {
    "label": "Jyoheki_01_0000",
    "text": "在比目鱼住宅区晒的被子很暖和，\n只要5秒就能入睡！"
  },
  {
    "label": "Jyoheki_01_0001",
    "text": "鲼？{{string value=\"5\"}}（咦？你擅自拿去用了吗？）{{fun_000F_0004 arg=\"0x0500\"}}"
  },
  {
    "label": "Jyoheki_02_0000",
    "text": "在比目鱼住宅区对战时，关键是要\n占领正中央的高台，然后不让对手靠近！"
  },
  {
    "label": "Jyoheki_02_0001",
    "text": "鲼！{{string value=\"5\"}}（如果对手盘踞在高台，\n就用鱿鱼登顶展开突袭赶走他们！）{{fun_000F_0004 arg=\"0x0500\"}}"
  },
  {
    "label": "Jyoheki_03_0000",
    "text": "鲼！{{string value=\"5\"}}（比目鱼住宅区的居民有段时间减少过，\n但是如今在年轻的占地对战爱好者之间很受欢迎！）{{fun_000F_0004 arg=\"0x0500\"}}"
  },
  {
    "label": "Jyoheki_03_0001",
    "text": "毕竟一出门就是对战场地。"
  },
  {
    "label": "Jyoheki_03_0002",
    "text": "这么说，那个住宅区的居民该不会都是强者吧……？"
  },
  {
    "label": "Jyoheki_03_0003",
    "text": "应该也有只喜欢观战的居民吧。"
  },
  {
    "label": "Jyoheki_04_0000",
    "text": "比目鱼住宅区是不是最近翻新过？\n现在变漂亮了啊！"
  },
  {
    "label": "Jyoheki_04_0001",
    "text": "不仅有楼顶露台，出租的店铺也很漂亮……\n该说真不愧是尚兴呢？"
  },
  {
    "label": "Jyoheki_04_0002",
    "text": "鲼？！{{string value=\"5\"}}（莎莎，你看起来皮笑肉不笑啊！！）{{fun_000F_0004 arg=\"0x0500\"}}"
  },
  {
    "label": "Kaisou_00_0000",
    "text": "据说真鲭跨海大桥的工程\n花了很长时间才结束。"
  },
  {
    "label": "Kaisou_00_0001",
    "text": "好像是因为鱿鱼们一直在工地现场对战，\n导致工程完全没有进展，具体我也不清楚。"
  },
  {
    "label": "Kaisou_01_0000",
    "text": "在真鲭跨海大桥对战只要笔直向前冲就行，\n非常简单易懂！"
  },
  {
    "label": "Kaisou_01_0001",
    "text": "鲼？{{string value=\"5\"}}（曼曼，你该不会没注意到\n左右两侧还有广场吧……？）{{fun_000F_0004 arg=\"0x0500\"}}"
  },
  {
    "label": "Kaisou_02_0000",
    "text": "真鲭跨海大桥是这附近最长的桥！"
  },
  {
    "label": "Kaisou_02_0001",
    "text": "鲼！{{string value=\"5\"}}（通行费好像也是最昂贵的！）{{fun_000F_0004 arg=\"0x0500\"}}"
  },
  {
    "label": "Kaisou_03_0000",
    "text": "几年前，奇怪的雕像从海底冒出来之后，\n就一～直没有人管过。"
  },
  {
    "label": "Kaisou_03_0001",
    "text": "鲼～（当时每天的新闻都在报道这件事，\n最近完全没消息了～）"
  },
  {
    "label": "Kaisou_03_0002",
    "text": "据说现在也挺流行\n乘坐小船去雕像附近参观哦。"
  },
  {
    "label": "Kaisou_03_0003",
    "text": "一群怪人……"
  },
  {
    "label": "Kaisou_04_0000",
    "text": "我们之前是不是在真鲭跨海大桥\n录制过音乐节目？"
  },
  {
    "label": "Kaisou_04_0001",
    "text": "那次录制的内容已经被雪藏了。"
  },
  {
    "label": "Kaisou_04_0002",
    "text": "鲼……{{string value=\"5\"}}（毕竟那天风太大了，\n我倒在地上起都起不来……）{{fun_000F_0004 arg=\"0x0500\"}}"
  },
  {
    "label": "Pivot_00_0000",
    "text": "偶尔会有人从金眼鲷美术馆的\n旋转墙后面突然冒出来……"
  },
  {
    "label": "Pivot_00_0001",
    "text": "要小心潜伏着的人哦～"
  },
  {
    "label": "Pivot_01_0000",
    "text": "鲼！{{string value=\"5\"}}（据说金眼鲷美术馆的\n“原住民与现代艺术展”相当受欢迎！）{{fun_000F_0004 arg=\"0x0500\"}}"
  },
  {
    "label": "Pivot_01_0001",
    "text": "我倒是更喜欢现摊鱼蔬饼。"
  },
  {
    "label": "Pivot_02_0000",
    "text": "站在金眼鲷美术馆的旋转墙上眺望远处，\n就会让人忘记时间流逝呢～"
  },
  {
    "label": "Pivot_02_0001",
    "text": "鲼？{{string value=\"5\"}}（莎莎，你该不会连涂墨都忘记了吧？）{{fun_000F_0004 arg=\"0x0500\"}}"
  },
  {
    "label": "Pivot_03_0000",
    "text": "话说，之前金眼鲷美术馆举办过\n对比蛮颓地区和尚兴地区文化差异的展览会呢。"
  },
  {
    "label": "Pivot_03_0001",
    "text": "鲼！{{string value=\"5\"}}（我去参观那个展览会了～！）{{fun_000F_0004 arg=\"0x0500\"}}"
  },
  {
    "label": "Pivot_03_0002",
    "text": "然后呢，结果是哪一方赢了？！"
  },
  {
    "label": "Pivot_03_0003",
    "text": "鲼！{{string value=\"5\"}}（展览会上是没有输赢的！）{{fun_000F_0004 arg=\"0x0500\"}}"
  },
  {
    "label": "Pivot_04_0000",
    "text": "曾经校外学习去金眼鲷美术馆时，\n我们在喷泉前拍了照呢！"
  },
  {
    "label": "Pivot_04_0001",
    "text": "真令人怀念～\n我还记得曼曼模仿了雕像动作呢。"
  },
  {
    "label": "Pivot_04_0002",
    "text": "鲼！{{string value=\"5\"}}（当时正好展出了世界级名画吧！）{{fun_000F_0004 arg=\"0x0500\"}}"
  },
  {
    "label": "Pivot_04_0003",
    "text": "这个我就完全没印象了……"
  },
  {
    "label": "Hiagari_00_0000",
    "text": "泳池边的音乐舞台那么热闹，挺棒的嘛。"
  },
  {
    "label": "Hiagari_00_0001",
    "text": "我们可以让气氛更加热闹哦？"
  },
  {
    "label": "Hiagari_01_0000",
    "text": "好想把鬼头刀SPA度假区泳池里的水抽干之后\n在那里对战！"
  },
  {
    "label": "Hiagari_01_0001",
    "text": "鲼？{{string value=\"5\"}}（能在3分钟内把那么大的泳池涂完吗……）{{fun_000F_0004 arg=\"0x0500\"}}"
  },
  {
    "label": "Hiagari_02_0000",
    "text": "泳池边的阳光太晒了，真受不了……"
  },
  {
    "label": "Hiagari_02_0001",
    "text": "鲼。{{string value=\"5\"}}（啊，怪不得你总是躲进我的影子里。）{{fun_000F_0004 arg=\"0x0500\"}}"
  },
  {
    "label": "Hiagari_03_0000",
    "text": "据说在鬼头刀SPA度假区办生日派对，\n是当下名流的身份象征哦。"
  },
  {
    "label": "Hiagari_03_0001",
    "text": "希望我们将来也能办一场盛大的派对！"
  },
  {
    "label": "Hiagari_03_0002",
    "text": "是啊，不过现在应该还做不到……\n对吧，鬼福？"
  },
  {
    "label": "Hiagari_03_0003",
    "text": "鲼……{{string value=\"5\"}}（看来下次生日派对还是在我家办……）{{fun_000F_0004 arg=\"0x0500\"}}"
  },
  {
    "label": "Hiagari_04_0000",
    "text": "天气热的时候，就会莫名地想吃\n鬼头刀SPA度假区的刨冰呢。"
  },
  {
    "label": "Hiagari_04_0001",
    "text": "鲼！{{string value=\"5\"}}（那个叫蓝色什么的糖浆很好吃！）{{fun_000F_0004 arg=\"0x0500\"}}"
  },
  {
    "label": "Hiagari_04_0002",
    "text": "吃了之后，舌头也会变成蓝色！"
  },
  {
    "label": "Hiagari_04_0003",
    "text": "不过曼曼就算吃了也看不出来。"
  },
  {
    "label": "Upland_00_0000",
    "text": "你连续说3次海女美术大学试试？"
  },
  {
    "label": "Upland_00_0001",
    "text": "海女美术大学、海女美术大学、海你米术大鞋！！"
  },
  {
    "label": "Upland_01_0000",
    "text": "为什么要命名成海女美术大学啊？"
  },
  {
    "label": "Upland_01_0001",
    "text": "鲼！{{string value=\"5\"}}（详细说明会花上10分钟，你真的要听吗？）{{fun_000F_0004 arg=\"0x0500\"}}"
  },
  {
    "label": "Upland_02_0000",
    "text": "海女美术大学里好像也有不少\n来自蛮颓地区的学生。"
  },
  {
    "label": "Upland_02_0001",
    "text": "鲼！{{string value=\"5\"}}（蛮颓与尚兴的才能发生碰撞的话，\n究竟会迸发出怎样的艺术呢～！）{{fun_000F_0004 arg=\"0x0500\"}}"
  },
  {
    "label": "Upland_03_0000",
    "text": "海女美术大学的场地很适合猎鱼弓发挥！"
  },
  {
    "label": "Upland_03_0001",
    "text": "嗯？不是刮水刀吗？"
  },
  {
    "label": "Upland_03_0002",
    "text": "鲼鲼？{{string value=\"5\"}}（咦～拿起画笔满天挥洒不快乐吗？）{{fun_000F_0004 arg=\"0x0500\"}}"
  },
  {
    "label": "Upland_04_0000",
    "text": "据说海女美术大学的特色是自由的校风。"
  },
  {
    "label": "Upland_04_0001",
    "text": "那把课全都翘掉也不会受到责罚吗？"
  },
  {
    "label": "Upland_04_0002",
    "text": "鲼……{{string value=\"5\"}}（我觉得至少毕业是没希望了……）{{fun_000F_0004 arg=\"0x0500\"}}"
  },
  {
    "label": "Nagasaki_00_0000",
    "text": "我在鲟鱼造船厂对战过之后才发现，\n下方有水母一直在工作！"
  },
  {
    "label": "Nagasaki_00_0001",
    "text": "上面有墨汁淋下来，他们也不介意吗……"
  },
  {
    "label": "Nagasaki_01_0000",
    "text": "造船厂里有很多巨型的起重机！"
  },
  {
    "label": "Nagasaki_01_0001",
    "text": "鲼！{{string value=\"5\"}}（那会不会合体成巨型机器人呢～！）{{fun_000F_0004 arg=\"0x0500\"}}"
  },
  {
    "label": "Nagasaki_02_0000",
    "text": "鲟鱼造船厂中用来对战的船\n过了那么多年都没有完工啊。"
  },
  {
    "label": "Nagasaki_02_0001",
    "text": "鲼？{{string value=\"5\"}}（嗯～是为什么呢？）{{fun_000F_0004 arg=\"0x0500\"}}"
  },
  {
    "label": "Nagasaki_03_0000",
    "text": "在鲟鱼造船厂对战时，\n就要给对手迎面来一招三重龙卷风！"
  },
  {
    "label": "Nagasaki_03_0001",
    "text": "鲼！{{string value=\"5\"}}（那时曼曼的眼神都在闪闪发光呢！）{{fun_000F_0004 arg=\"0x0500\"}}"
  },
  {
    "label": "Nagasaki_03_0002",
    "text": "在对战最后使出三重龙卷风，\n你是不是给这招取了个名字啊？"
  },
  {
    "label": "Nagasaki_03_0003",
    "text": "没错，就叫三龙乱舞飙风夺胜！！"
  },
  {
    "label": "Nagasaki_04_0000",
    "text": "鲟鱼造船厂正中央的那个\n像摆锤一样摇摆的东西是什么啊？"
  },
  {
    "label": "Nagasaki_04_0001",
    "text": "都怪那东西，\n害得我很难瞄准位于另一侧高台的对手～"
  },
  {
    "label": "Nagasaki_04_0002",
    "text": "要是一直盯着看，就会……想睡……呼～"
  },
  {
    "label": "Nagasaki_04_0003",
    "text": "鲼——！！{{string value=\"5\"}}（曼曼快醒醒！还在播节目呢！！）{{fun_000F_0004 arg=\"0x0500\"}}"
  },
  {
    "label": "Line_00_0000",
    "text": "座头购物中心卖的点心种类丰富，\n一不小心就会买多～♪"
  },
  {
    "label": "Line_00_0001",
    "text": "然后你还是在一天内全吃完了……"
  },
  {
    "label": "Line_01_0000",
    "text": "在座头购物中心对战时，\n重点在于能否拿下中央的高台！"
  },
  {
    "label": "Line_01_0001",
    "text": "鲼！{{string value=\"5\"}}（也要灵活使用边上的通道！）{{fun_000F_0004 arg=\"0x0500\"}}"
  },
  {
    "label": "Line_02_0000",
    "text": "鲼？{{string value=\"5\"}}（莎莎，在座头购物中心的必胜法是什么？）{{fun_000F_0004 arg=\"0x0500\"}}"
  },
  {
    "label": "Line_02_0001",
    "text": "那当然是“等星期二的特卖一次买齐”了！"
  },
  {
    "label": "Line_03_0000",
    "text": "3个人一起去逛超市时，\n购物篮总是会在不知不觉间装满～真神奇。"
  },
  {
    "label": "Line_03_0001",
    "text": "噫。"
  },
  {
    "label": "Line_03_0002",
    "text": "鲼～？{{string value=\"5\"}}（曼曼～你说那是为什么呀？）{{fun_000F_0004 arg=\"0x0500\"}}"
  },
  {
    "label": "Line_03_0003",
    "text": "我、我可没放点心进去哦……？"
  },
  {
    "label": "Line_04_0000",
    "text": "我以前都不会自己下厨，\n所以一离开老家，就在这方面吃了不少苦。"
  },
  {
    "label": "Line_04_0001",
    "text": "我也是，在鬼福教我制作料理的基础知识前，\n我吃的都是超市买来的点心。"
  },
  {
    "label": "Line_04_0002",
    "text": "鲼？{{string value=\"5\"}}（曼曼，你不管什么料理\n都往里面加一堆砂糖的坏毛病治好了吗？）{{fun_000F_0004 arg=\"0x0500\"}}"
  },
  {
    "label": "Line_04_0003",
    "text": "……"
  },
  {
    "label": "Carousel_00_0000",
    "text": "一站上醋饭海洋世界的旋转地板，\n我就会分不清自己正朝着哪个方向……"
  },
  {
    "label": "Carousel_00_0001",
    "text": "所以你在那时攻击了身为同伴的我？"
  },
  {
    "label": "Carousel_01_0000",
    "text": "醋饭海洋世界的冰淇淋特别美味！\n大家也尝尝看吧！！"
  },
  {
    "label": "Carousel_01_0001",
    "text": "鲼！{{string value=\"5\"}}（我记得，\n曼曼好像为了冰淇淋买了年票吧。）{{fun_000F_0004 arg=\"0x0500\"}}"
  },
  {
    "label": "Carousel_02_0000",
    "text": "我完全搞不懂醋饭海洋世界\n中央的桥什么时候可以通行……"
  },
  {
    "label": "Carousel_02_0001",
    "text": "鲼！{{string value=\"5\"}}（桥的前面和开始地点附近\n有招牌会提示过桥时机哦！）{{fun_000F_0004 arg=\"0x0500\"}}"
  },
  {
    "label": "Carousel_03_0000",
    "text": "之前去醋饭海洋世界的时候，\n鬼福被粉丝们包围，场面很混乱呢！"
  },
  {
    "label": "Carousel_03_0001",
    "text": "鲼鲼～！{{string value=\"5\"}}（我很高兴能和粉丝们合影哦～！） {{fun_000F_0004 arg=\"0x0500\"}}"
  },
  {
    "label": "Carousel_03_0002",
    "text": "那一定是大家把你认错成其他角色了吧……"
  },
  {
    "label": "Carousel_04_0000",
    "text": "希望以后有机会在醋饭海洋世界开演唱会。"
  },
  {
    "label": "Carousel_04_0001",
    "text": "鲼～！{{string value=\"5\"}}（不错，感觉气氛会很火热！）{{fun_000F_0004 arg=\"0x0500\"}}"
  },
  {
    "label": "Carousel_04_0002",
    "text": "一边自由落体，一边唱歌怎么样？"
  },
  {
    "label": "Carousel_04_0003",
    "text": "鲼？{{string value=\"5\"}}（那不就成综艺节目了吗？）{{fun_000F_0004 arg=\"0x0500\"}}"
  },
  {
    "label": "Wave_00_0000",
    "text": "在昆布赛道对战时，\n沿赛道的顺时针方向进攻更容易获胜。"
  },
  {
    "label": "Wave_00_0001",
    "text": "不不不，肯定是沿逆时针方向更容易获胜吧！！"
  },
  {
    "label": "Wave_01_0000",
    "text": "鬼福在昆布赛道会采取什么行动？"
  },
  {
    "label": "Wave_01_0001",
    "text": "鲼！{{string value=\"5\"}}（我应该会先用爆破枪\n把躲在坡后的敌人逼出来吧～）{{fun_000F_0004 arg=\"0x0500\"}}"
  },
  {
    "label": "Wave_02_0000",
    "text": "我好像从没见过鬼福骑单车啊。"
  },
  {
    "label": "Wave_02_0001",
    "text": "鲼……{{string value=\"5\"}}（毕竟我的脚连踏板都踩不到……）{{fun_000F_0004 arg=\"0x0500\"}}"
  },
  {
    "label": "Wave_03_0000",
    "text": "据说昆布赛道的单车店还挺受好评的！"
  },
  {
    "label": "Wave_03_0001",
    "text": "鲼～！{{string value=\"5\"}}（老板是个能工巧匠，\n会根据客人的需求定制单车！）{{fun_000F_0004 arg=\"0x0500\"}}"
  },
  {
    "label": "Wave_03_0002",
    "text": "那能不能请老板帮我\n把“有胆来战”四个字涂装在车体上？"
  },
  {
    "label": "Wave_03_0003",
    "text": "鲼鲼～！{{string value=\"5\"}}（真鱿型～！！）{{fun_000F_0004 arg=\"0x0500\"}}"
  },
  {
    "label": "Wave_04_0000",
    "text": "在昆布赛道骑车飞驰\n一定会很爽快吧♪"
  },
  {
    "label": "Wave_04_0001",
    "text": "鲼？{{string value=\"5\"}}（你父母不是一直叮嘱你，\n骑车很危险，所以不让你骑吗？）{{fun_000F_0004 arg=\"0x0500\"}}"
  },
  {
    "label": "Wave_04_0002",
    "text": "哼！他们担心的才不是我，\n而是受我波及的人！！"
  },
  {
    "label": "Wave_04_0003",
    "text": "的确，我都能想象出\n未来自己被莎莎飙车撞飞的情景了……"
  },
  {
    "label": "Pillar_00_0000",
    "text": "鬼蝠鲼玛利亚号的船头有个\n金光闪闪的雕像，那是什么啊？"
  },
  {
    "label": "Pillar_00_0001",
    "text": "……应该是提升金钱运势的护身符吧？"
  },
  {
    "label": "Pillar_01_0000",
    "text": "有没有可能，\n建造鬼蝠鲼玛利亚号的人是鬼福的粉丝？"
  },
  {
    "label": "Pillar_01_0001",
    "text": "鲼？{{string value=\"5\"}}（可是这艘船比我更早诞生于世哦？）{{fun_000F_0004 arg=\"0x0500\"}}"
  },
  {
    "label": "Pillar_02_0000",
    "text": "要想在占地对战中获胜，\n就得仔细涂满每个角落！"
  },
  {
    "label": "Pillar_02_0001",
    "text": "鲼！{{string value=\"5\"}}（如果在鬼蝠鲼玛利亚号对战，\n别忘记给小船涂墨哦！）{{fun_000F_0004 arg=\"0x0500\"}}"
  },
  {
    "label": "Pillar_03_0000",
    "text": "鬼蝠鲼玛利亚号也会驶来蛮颓地区的港口吗？"
  },
  {
    "label": "Pillar_03_0001",
    "text": "鲼～{{string value=\"5\"}}（这艘船已经退役了，应该不会来了吧。）{{fun_000F_0004 arg=\"0x0500\"}}"
  },
  {
    "label": "Pillar_03_0002",
    "text": "说不定将来的某天就会来哦？\n比如，我们得到了这艘船……"
  },
  {
    "label": "Pillar_03_0003",
    "text": "鲼？{{string value=\"5\"}}（你是不是在打什么坏主意？）{{fun_000F_0004 arg=\"0x0500\"}}"
  },
  {
    "label": "Pillar_04_0000",
    "text": "在鬼蝠鲼玛利亚号上对战的各位\n得留意海鸥哦！"
  },
  {
    "label": "Pillar_04_0001",
    "text": "鲼！{{string value=\"5\"}}（毕竟墨汁可能会击中它们嘛。）{{fun_000F_0004 arg=\"0x0500\"}}"
  },
  {
    "label": "Pillar_04_0002",
    "text": "不，是要小心食物别被海鸥抢走！\n它们可是披着可爱外皮的猎人！！"
  },
  {
    "label": "Pillar_04_0003",
    "text": "应该只有曼曼会单手拿着食物进行对战吧。"
  },
  {
    "label": "Spider_00_0000",
    "text": "在高脚经济特区这个场地，\n铁丝网区域的攻防战非常激烈。"
  },
  {
    "label": "Spider_00_0001",
    "text": "要是掉以轻心，就会有墨汁从铁丝网下方射上来哦！"
  },
  {
    "label": "Spider_01_0000",
    "text": "那里的铁丝网惊险又刺激，能透过它直接看到地面，\n是高脚经济特区的推荐景点！"
  },
  {
    "label": "Spider_01_0001",
    "text": "鲼！{{string value=\"5\"}}（恐高的人不要勉强自己！）{{fun_000F_0004 arg=\"0x0500\"}}"
  },
  {
    "label": "Spider_02_0000",
    "text": "在建造途中的高楼展开占地对战这种事，\n真亏能获得允许呢。"
  },
  {
    "label": "Spider_02_0001",
    "text": "鲼……{{string value=\"5\"}}（也有传闻说，\n是有人擅自把施工现场改造成了对战场地……）{{fun_000F_0004 arg=\"0x0500\"}}"
  },
  {
    "label": "Spider_03_0000",
    "text": "鲼？{{string value=\"5\"}}（在高脚经济特区，\n最高的大楼到底有几层呢？）{{fun_000F_0004 arg=\"0x0500\"}}"
  },
  {
    "label": "Spider_03_0001",
    "text": "我数数看，你等着！\n1、2、3……"
  },
  {
    "label": "Spider_03_0002",
    "text": "15、16……\n嗯……我猜，应该有100层左右吧。"
  },
  {
    "label": "Spider_03_0003",
    "text": "我看你是数得不耐烦了吧。"
  },
  {
    "label": "Spider_04_0000",
    "text": "从高脚经济特区的高楼望见的景色\n很值得一看！"
  },
  {
    "label": "Spider_04_0001",
    "text": "鲼！{{string value=\"5\"}}（还能将烟管鱼市场尽收眼底！）{{fun_000F_0004 arg=\"0x0500\"}}"
  },
  {
    "label": "Spider_04_0002",
    "text": "之前我带去那里的熟人\n感动得都要哭出来了！"
  },
  {
    "label": "Spider_04_0003",
    "text": "那个人其实是恐高。"
  },
  {
    "label": "Twist_00_0000",
    "text": "在大比目鱼海运中心，\n从高台成功跳到另一个高台时，心情就会很舒畅！"
  },
  {
    "label": "Twist_00_0001",
    "text": "你偶尔失败从上面掉下来的时候，\n吓得我心脏都停了，希望你别再那么做了……"
  },
  {
    "label": "Twist_01_0000",
    "text": "鲼！{{string value=\"5\"}}（大比目鱼海运中心\n可是蛮颓地区数一数二的大型海运公司！）{{fun_000F_0004 arg=\"0x0500\"}}"
  },
  {
    "label": "Twist_01_0001",
    "text": "原来那不是船的名字，而是公司的啊……"
  },
  {
    "label": "Twist_02_0000",
    "text": "鬼福，在大比目鱼海运中心\n有什么要重点注意的？"
  },
  {
    "label": "Twist_02_0001",
    "text": "鲼。{{string value=\"5\"}}（因为没信号，所以上不了网。）{{fun_000F_0004 arg=\"0x0500\"}}"
  },
  {
    "label": "Twist_03_0000",
    "text": "离开蛮颓～驶向遥远的浮冰之海～{{delay frames=\"30\"}}\n大比目鱼、{{delay frames=\"15\"}}大比目鱼、{{delay frames=\"15\"}}大比目鱼海运中～心♪"
  },
  {
    "label": "Twist_03_0001",
    "text": "鲼、鲼——♪{{string value=\"5\"}}（锵锵——♪）{{fun_000F_0004 arg=\"0x0500\"}}"
  },
  {
    "label": "Twist_03_0002",
    "text": "……鲼？{{string value=\"5\"}}（啊，一不小心就顺势接上去了，\n话说有这首广告歌曲吗？）{{fun_000F_0004 arg=\"0x0500\"}}"
  },
  {
    "label": "Twist_03_0003",
    "text": "那又是她现编现唱的而已吧？"
  },
  {
    "label": "Twist_04_0000",
    "text": "在大比目鱼海运中心抬头向上看到的东西，\n好像不是船的一部分，而是货物？"
  },
  {
    "label": "Twist_04_0001",
    "text": "鲼鲼！{{string value=\"5\"}}（那其实是用来挖掘海底，\n做各种调查的巨大装置！）{{fun_000F_0004 arg=\"0x0500\"}}"
  },
  {
    "label": "Twist_04_0002",
    "text": "你了解得格外详细嘛，鬼福！"
  },
  {
    "label": "Twist_04_0003",
    "text": "鲼？{{string value=\"5\"}}（我记得之前有人在电视上，\n对钻杆的旋转声展开了热情演说……那是谁来着？）{{fun_000F_0004 arg=\"0x0500\"}}"
  },
  {
    "label": "Cross_00_0000",
    "text": "无论从大小、景色还是创新度来讲，\n能够比得过贝见亭的拉面店寥寥无几！"
  },
  {
    "label": "Cross_00_0001",
    "text": "……关键味道怎么样？"
  },
  {
    "label": "Cross_01_0000",
    "text": "鲼？{{string value=\"5\"}}（曼曼，你之前在贝见亭里\n不是还爬到那个巨大拉面的上面吗？）{{fun_000F_0004 arg=\"0x0500\"}}"
  },
  {
    "label": "Cross_01_0001",
    "text": "因为我实在想知道那个是什么味道。"
  },
  {
    "label": "Cross_02_0000",
    "text": "听说贝见亭一楼的座位，\n在对战时会喷出墨汁？"
  },
  {
    "label": "Cross_02_0001",
    "text": "鲼～{{string value=\"5\"}}（水母们完全不在乎啊。） {{fun_000F_0004 arg=\"0x0500\"}}"
  },
  {
    "label": "Cross_03_0000",
    "text": "贝见亭最重要的位置是哪里？"
  },
  {
    "label": "Cross_03_0001",
    "text": "就是爬上坡道后的高台！\n以及多注意下方的道路也很重要！"
  },
  {
    "label": "Cross_03_0002",
    "text": "曼曼你竟然没有说拉面的事，\n而是认真地给出了建议……？！"
  },
  {
    "label": "Cross_03_0003",
    "text": "鲼鲼鲼！{{string value=\"5\"}}（曼曼！快来测一下体温！！）{{fun_000F_0004 arg=\"0x0500\"}}"
  },
  {
    "label": "Cross_04_0000",
    "text": "贝见亭的机器人真是让人看不腻啊～"
  },
  {
    "label": "Cross_04_0001",
    "text": "鲼～{{string value=\"5\"}}（还会制作拉面，太高科技了～）{{fun_000F_0004 arg=\"0x0500\"}}"
  },
  {
    "label": "Cross_04_0002",
    "text": "要看的话等吃完再说吧。"
  },
  {
    "label": "Cross_04_0003",
    "text": "鲼～{{string value=\"5\"}}（每次都会不小心让拉面泡烂掉～）{{fun_000F_0004 arg=\"0x0500\"}}"
  },
  {
    "label": "Ruins_00_0000",
    "text": "葱鲔鱼煤矿场的电梯，\n只要乘上去，它就会自己启动耶！"
  },
  {
    "label": "Ruins_00_0001",
    "text": "要上去咯～！"
  },
  {
    "label": "Ruins_01_0000",
    "text": "提到矿场，就会想到矿车！\n提到矿车，那肯定就会想到过山车啦！"
  },
  {
    "label": "Ruins_01_0001",
    "text": "鲼鲼！！{{string value=\"5\"}}（可不能用真的矿车来坐过山车啊！）{{fun_000F_0004 arg=\"0x0500\"}}"
  },
  {
    "label": "Ruins_02_0000",
    "text": "不久前提起葱鲔鱼煤矿场，\n还给人一种萧条的印象。"
  },
  {
    "label": "Ruins_02_0001",
    "text": "鲼～{{string value=\"5\"}}（修复工程结束后，游客也增加了吧～）{{fun_000F_0004 arg=\"0x0500\"}}"
  },
  {
    "label": "Ruins_03_0000",
    "text": "在葱鲔鱼煤矿场我喜欢从右边走！"
  },
  {
    "label": "Ruins_03_0001",
    "text": "我喜欢从左边进攻。"
  },
  {
    "label": "Ruins_03_0002",
    "text": "那鬼福就从中间吧。"
  },
  {
    "label": "Ruins_03_0003",
    "text": "鲼？！{{string value=\"5\"}}（中间在哪里？！）{{fun_000F_0004 arg=\"0x0500\"}}"
  },
  {
    "label": "Ruins_04_0000",
    "text": "据说以前在葱鲔鱼煤矿场，\n一直会有鱿鱼在对战时不慎滑倒掉进海里。"
  },
  {
    "label": "Ruins_04_0001",
    "text": "鲼？{{string value=\"5\"}}（所以现在边缘才会被围起来？）{{fun_000F_0004 arg=\"0x0500\"}}"
  },
  {
    "label": "Ruins_04_0002",
    "text": "现在也有没围起来的地方，\n小心别掉下去哦！"
  },
  {
    "label": "Ruins_04_0003",
    "text": "看来这是经验之谈啊。"
  },
  {
    "label": "Propeller_00_0000",
    "text": "对着旗鱼机场的螺旋桨喊“啊——”，\n发出的声音会像是在颤抖一样，很有趣！"
  },
  {
    "label": "Propeller_00_0001",
    "text": "在对战的时候还是别这么干吧。"
  },
  {
    "label": "Propeller_01_0000",
    "text": "鲼鲼！{{string value=\"5\"}}（旗鱼机场是一座宏伟的庞大机场，\n代表了整个蛮颓地区！）{{fun_000F_0004 arg=\"0x0500\"}}"
  },
  {
    "label": "Propeller_01_0001",
    "text": "啊——？！蛮颓的代表是我们才对吧！！"
  },
  {
    "label": "Propeller_02_0000",
    "text": "在旗鱼机场的对战中，\n巧妙利用因螺旋桨而移动的立足处是关键哦！"
  },
  {
    "label": "Propeller_02_0001",
    "text": "鲼！{{string value=\"5\"}}（记得注意从螺旋桨上飞溅而来的墨汁哦！）{{fun_000F_0004 arg=\"0x0500\"}}"
  },
  {
    "label": "Propeller_03_0000",
    "text": "在旗鱼机场转动螺旋桨时，\n也要好～好关注同伴的行动！"
  },
  {
    "label": "Propeller_03_0001",
    "text": "毕竟可能会有人想和你站在同一个立足处上！"
  },
  {
    "label": "Propeller_03_0002",
    "text": "……这话可轮不到你说哦。"
  },
  {
    "label": "Propeller_03_0003",
    "text": "鲼……{{string value=\"5\"}}（曼曼你之前突然转动螺旋桨，害得莎莎\n掉了下去，看来你已经不记得这件事了呢……）{{fun_000F_0004 arg=\"0x0500\"}}"
  },
  {
    "label": "Propeller_04_0000",
    "text": "鲼鲼！{{string value=\"5\"}}（“旗鱼”周边似乎\n在学生之间形成了一股热潮！）{{fun_000F_0004 arg=\"0x0500\"}}"
  },
  {
    "label": "Propeller_04_0001",
    "text": "那好像是旗鱼机场的吉祥物吧？"
  },
  {
    "label": "Propeller_04_0002",
    "text": "哦！就是那个飞机长着细长的腿，\n看起来恶心又可爱的家伙吧？"
  },
  {
    "label": "Propeller_04_0003",
    "text": "鲼！{{string value=\"5\"}}（那只是因为是玩偶服，所以才长着腿的！！） {{fun_000F_0004 arg=\"0x0500\"}}"
  },
  {
    "label": "AutoWalk_00_0000",
    "text": "说到强行，强行乘车很危险，大家不要这么做哦！"
  },
  {
    "label": "AutoWalk_00_0001",
    "text": "你想说的是“强行上车”吧！"
  },
  {
    "label": "AutoWalk_01_0000",
    "text": "鲼……{{string value=\"5\"}}（龙宫转运站……\n那里是旅程的起点，亦是旅程的终点……）{{fun_000F_0004 arg=\"0x0500\"}}"
  },
  {
    "label": "AutoWalk_01_0001",
    "text": "还可以换乘哦！"
  },
  {
    "label": "AutoWalk_02_0000",
    "text": "在龙宫转运站等电车的时候，\n要不要稍稍涂墨一番？"
  },
  {
    "label": "AutoWalk_02_0001",
    "text": "鲼！{{string value=\"5\"}}（要是因此没赶上车，唔……别放在心上！）{{fun_000F_0004 arg=\"0x0500\"}}"
  },
  {
    "label": "AutoWalk_03_0000",
    "text": "龙宫转运站的问询处\n不是一直空荡荡的吗？"
  },
  {
    "label": "AutoWalk_03_0001",
    "text": "我就没见过有乘客去那里。"
  },
  {
    "label": "AutoWalk_03_0002",
    "text": "鲼？{{string value=\"5\"}}（大家一直在那附近对战，\n所以乘客们没办法靠近吧？）{{fun_000F_0004 arg=\"0x0500\"}}"
  },
  {
    "label": "AutoWalk_04_0000",
    "text": "我之前想乘电车前往尚兴地区，\n就是在龙宫转运站换乘的。"
  },
  {
    "label": "AutoWalk_04_0001",
    "text": "鲼！{{string value=\"5\"}}（现在已经能从蛮颓镇直通尚兴地区了！）{{fun_000F_0004 arg=\"0x0500\"}}"
  },
  {
    "label": "AutoWalk_04_0002",
    "text": "正因为这一点，来自尚兴地区的人也多起来了……\n不过，其中有一些家伙也看着挺有前途的。"
  },
  {
    "label": "AutoWalk_04_0003",
    "text": "鲼~！{{string value=\"5\"}}（希望大家能借此机会，\n和尚兴地区的人们建立友好关系。）{{fun_000F_0004 arg=\"0x0500\"}}"
  }
]