[
  {
    "label": "000",
    "text": "鲼鲼～！{{string value=\"5\"}}（{{color id=\"1\"}}新赛季{{color id=\"65535\"}}开始了～！）{{fun_000F_0004 arg=\"0x0500\"}}"
  },
  {
    "label": "001",
    "text": "太棒了，新赛季来啦——！！"
  },
  {
    "label": "002",
    "text": "那么，让我们依次看看，\n今后可以做哪些事了～！"
  }
]