[
  {
    "label": "000",
    "text": "沙……沙沙……前辈……"
  },
  {
    "label": "001",
    "text": "饭田？！{{delay frames=\"30\"}}你在那里吗！"
  },
  {
    "label": "002",
    "text": "沙沙……沙……救……沙……"
  },
  {
    "label": "003",
    "text": "你等着，{{delay frames=\"15\"}}我们现在就赶过去！！"
  },
  {
    "label": "004",
    "text": "我们走，小八！{{delay frames=\"30\"}}饭田就在{{color id=\"4\"}}巨塔上层{{color id=\"65535\"}}！"
  }
]