[
  {
    "label": "000",
    "text": "好！{{delay frames=\"15\"}}感觉不错！"
  },
  {
    "label": "001",
    "text": "既然我能像这样支援小八，{{delay frames=\"15\"}}\n无人机的形态在这里或许也不是件坏事。"
  },
  {
    "label": "002",
    "text": "下一块色彩晶片似乎可以强化无人机哦。{{delay frames=\"30\"}}\n灵活使用的话，或许能帮到小八。"
  },
  {
    "label": "003",
    "text": "真的啊！{{delay frames=\"30\"}}\n那我可以使用{{color id=\"4\"}}喇叭镭射{{color id=\"65535\"}}了！"
  }
]