[
  {
    "label": "001",
    "text": "唔～～嗯……{{delay frames=\"30\"}}小……{{delay frames=\"15\"}}八？{{delay frames=\"30\"}}\n前辈……？"
  },
  {
    "label": "002",
    "text": "发生错误，{{delay frames=\"15\"}}对入侵者执行脱色处理失败。{{delay frames=\"30\"}}\n扰乱秩序之人，{{delay frames=\"30\"}}认定为异类。"
  },
  {
    "label": "003",
    "text": "你是谁？！"
  },
  {
    "label": "004",
    "text": "我是{{color id=\"4\"}}秩序{{color id=\"65535\"}}。{{delay frames=\"45\"}}\n是从你渴望秩序的内心{{delay frames=\"15\"}}诞生的智能体。"
  },
  {
    "label": "005",
    "text": "如今我已是完整的个体，{{delay frames=\"30\"}}不再需要容器。"
  },
  {
    "label": "006",
    "text": "把一切都{{delay frames=\"30\"}}归于记忆装置。"
  },
  {
    "label": "007",
    "text": "哇！"
  },
  {
    "label": "008",
    "text": "糟糕……！{{delay frames=\"30\"}}塔失控了！！"
  }
]