[
  {
    "label": "001",
    "text": "怎么回事？{{delay frames=\"30\"}}身体不听使唤……"
  },
  {
    "label": "002",
    "text": "这种事情……{{delay frames=\"15\"}}程序里没有写！{{delay frames=\"30\"}}\n发生了意料之外的错误！！"
  },
  {
    "label": "003",
    "text": "呵！{{delay frames=\"30\"}}\n一切都被安排好的世界可太无聊了！"
  },
  {
    "label": "004",
    "text": "染上我们的颜色吧……"
  },
  {
    "label": "005",
    "text": "腕儿姐妹～{{delay frames=\"130\"}}狂涂无罪！！"
  }
]