[
  {
    "label": "000",
    "text": "哦，{{delay frames=\"15\"}}快看啊，小八！"
  },
  {
    "label": "001",
    "text": "那里有{{color id=\"4\"}}自动贩卖机区域{{color id=\"65535\"}}啊！{{delay frames=\"30\"}}\n要不要买点饮料休息一下？"
  },
  {
    "label": "002",
    "text": "那里买不到饮料，{{delay frames=\"15\"}}不过，有{{icon id=\"63\" arg=\"0x0000803F00000000\"}}忆界硬币的话，\n可以回复{{color id=\"4\"}}生命{{color id=\"65535\"}}或购买{{color id=\"4\"}}色彩晶片{{color id=\"65535\"}}哦。{{pageBreak}}另外，{{delay frames=\"15\"}}还有机会用来交换\n不同的{{color id=\"4\"}}次要武器{{color id=\"65535\"}}或{{color id=\"4\"}}特殊武器{{color id=\"65535\"}}。"
  },
  {
    "label": "003",
    "text": "只是抵达自动贩卖机区域，也可以前往上一个楼层，{{delay frames=\"15\"}}\n想安全向上前进时，这样选择也是一个手段。"
  },
  {
    "label": "004",
    "text": "原来如此。{{delay frames=\"30\"}}\n小八，{{delay frames=\"15\"}}要不要去看看？"
  }
]