[
  {
    "label": "000",
    "text": "嗯？{{delay frames=\"30\"}}下一个楼层{{delay frames=\"15\"}}似乎附带了什么？"
  },
  {
    "label": "001",
    "text": "啊，{{delay frames=\"15\"}}是附带{{color id=\"4\"}}奖励{{color id=\"65535\"}}的楼层！{{pageBreak}}在附带奖励的楼层中，{{delay frames=\"15\"}}\n会发生{{color id=\"4\"}}色彩晶片狂潮{{color id=\"65535\"}}或{{color id=\"4\"}}奖励挑战{{color id=\"65535\"}}哦。"
  },
  {
    "label": "002",
    "text": "发生色彩晶片狂潮时，{{delay frames=\"15\"}}只要在该楼层内，\n调色盘的{{color id=\"4\"}}所有空白能力槽{{color id=\"65535\"}}都会装备上色彩晶片。{{pageBreak}}装备的内容{{delay frames=\"15\"}}似乎是\n随机一种色系的色彩晶片哦。"
  },
  {
    "label": "003",
    "text": "另一方面，发生奖励挑战时，{{delay frames=\"15\"}}\n还会出现楼层任务以外的{{color id=\"4\"}}追加任务{{color id=\"65535\"}}。{{pageBreak}}不完成追加任务也没关系，{{delay frames=\"15\"}}\n但是完成后可以获得{{icon id=\"63\" arg=\"0x0000803F00000000\"}}忆界硬币哦♪"
  },
  {
    "label": "004",
    "text": "总之就是选了不会吃亏。{{delay frames=\"30\"}}\n小八，怎么办？{{delay frames=\"15\"}}要不要试一试？"
  }
]