[
  {
    "label": "001",
    "text": "小八！{{delay frames=\"15\"}}小八！{{delay frames=\"30\"}}你快醒醒！！"
  },
  {
    "label": "002",
    "text": "太好了～！！{{delay frames=\"30\"}}\n小八好像醒了，前辈！"
  },
  {
    "label": "003",
    "text": "小八，{{delay frames=\"15\"}}是你救了我，\n真的太感谢你了！"
  },
  {
    "label": "004",
    "text": "我也变回了原来的模样，吃不吃惊？{{delay frames=\"30\"}}\n饭田就简单操作了一下，我就变回原样啦！"
  },
  {
    "label": "005",
    "text": "对不起，{{delay frames=\"15\"}}前辈会变成无人机的样子，\n也都是因为“心跳★秩序世界大冒险！”……"
  },
  {
    "label": "006",
    "text": "嗯？{{delay frames=\"30\"}}心跳……？"
  },
  {
    "label": "007",
    "text": "对、{{delay frames=\"5\"}}对不起！{{delay frames=\"15\"}}我来好好说明一下吧！"
  },
  {
    "label": "008",
    "text": "这里是我创造的“{{color id=\"4\"}}忆界宇宙{{color id=\"65535\"}}”，{{delay frames=\"30\"}}\n也就是所谓的VR……{{delay frames=\"30\"}}虚拟现实的世界。"
  },
  {
    "label": "009",
    "text": "虚拟现实……？{{delay frames=\"30\"}}喂喂喂，{{delay frames=\"15\"}}\n你的意思是，这里不是真正的世界？！"
  },
  {
    "label": "010",
    "text": "是的，{{delay frames=\"15\"}}我们现在只有精神\n被传送到了这个忆界宇宙的世界里。"
  },
  {
    "label": "011",
    "text": "刚才那个一团模糊的家伙……{{delay frames=\"30\"}}也就是{{color id=\"4\"}}秩序{{color id=\"65535\"}}，\n它操控我，引发了忆界宇宙的失控……"
  },
  {
    "label": "012",
    "text": "结果将许多人的精神\n强行吸收进了忆界宇宙之中。"
  },
  {
    "label": "013",
    "text": "所以我也被牵扯进来了啊。"
  },
  {
    "label": "015",
    "text": "水田……！{{delay frames=\"30\"}}\n对不起，我没想到你也受到了牵连……"
  },
  {
    "label": "016",
    "text": "总之，{{delay frames=\"15\"}}大家现在考虑一下如何解决这个情况吧。"
  },
  {
    "label": "017",
    "text": "说、说得没错。{{delay frames=\"15\"}}我们必须设法阻止秩序……！"
  },
  {
    "label": "024",
    "text": "秩序的目的是创造“{{color id=\"4\"}}无色的秩序世界{{color id=\"65535\"}}”。"
  },
  {
    "label": "025",
    "text": "任何人都没有个人意志，{{delay frames=\"15\"}}\n只会反复做相同的事情……"
  },
  {
    "label": "026",
    "text": "它就是打算在忆界宇宙中{{delay frames=\"15\"}}\n实现那种永远不会发生变化的世界。"
  },
  {
    "label": "027",
    "text": "那是什么意思？{{delay frames=\"30\"}}\n再说了，{{delay frames=\"15\"}}忆界宇宙不是现实吧？"
  },
  {
    "label": "028",
    "text": "即使忆界宇宙变成那个所谓的“秩序的世界”，{{delay frames=\"15\"}}\n和活在现实世界的我们也没有关系吧？"
  },
  {
    "label": "029",
    "text": "其实，{{delay frames=\"15\"}}秩序为了剥夺吸收进来的人的思想，\n正在执行一种叫作“{{color id=\"4\"}}脱色处理{{color id=\"65535\"}}”的程序……"
  },
  {
    "label": "030",
    "text": "如果在忆界宇宙遭到“脱色处理”，{{delay frames=\"15\"}}\n现实中的我们也不会安然无恙，{{delay frames=\"15\"}}是这个意思吗？"
  },
  {
    "label": "031",
    "text": "是的……{{delay frames=\"30\"}}遭到脱色处理的人们{{delay frames=\"15\"}}\n在现实世界中应该也会逐渐失去活力吧。"
  },
  {
    "label": "032",
    "text": "秩序{{delay frames=\"15\"}}接下来也打算继续\n把更多人的精神吸收进忆界宇宙。"
  },
  {
    "label": "033",
    "text": "照这样下去，总有一天，全世界的人们都会失去活力，{{delay frames=\"15\"}}\n可能连现实世界都会变得一团糟！"
  },
  {
    "label": "034",
    "text": "那也太不妙了吧！{{delay frames=\"15\"}}无论如何，我们都要阻止秩序！"
  },
  {
    "label": "035",
    "text": "对不起！{{delay frames=\"15\"}}一切都是我的错……！"
  },
  {
    "label": "036",
    "text": "诶！{{delay frames=\"30\"}}饭田会创造忆界宇宙，\n肯定是有重要的理由吧？"
  },
  {
    "label": "037",
    "text": "然而忆界宇宙却被用来干坏事……{{delay frames=\"30\"}}\n秩序那家伙……{{delay frames=\"15\"}}决不可饶恕！"
  },
  {
    "label": "038",
    "text": "我们一起揍飞它吧！！"
  },
  {
    "label": "039",
    "text": "前辈……！{{delay frames=\"30\"}}太帅了……！！"
  }
]