[
  {
    "label": "None",
    "text": "0"
  },
  {
    "label": "None_Unit",
    "text": "{{number index=\"0\" type=\"4\" arg3=\"0\" arg4=\"0\"}}"
  },
  {
    "label": "None_Unit_Dec",
    "text": "{{number index=\"0\" type=\"4\" arg3=\"0\" arg4=\"0\"}},{{number index=\"1\" type=\"4\" arg3=\"0\" arg4=\"0\"}}"
  },
  {
    "label": "Point_Unit",
    "text": "{{number index=\"0\" type=\"4\" arg3=\"0\" arg4=\"0\"}} p."
  },
  {
    "label": "Point_Unit_Dec",
    "text": "{{number index=\"0\" type=\"4\" arg3=\"0\" arg4=\"0\"}},{{number index=\"1\" type=\"4\" arg3=\"0\" arg4=\"0\"}} p."
  },
  {
    "label": "Percent_Unit",
    "text": "{{number index=\"0\" type=\"4\" arg3=\"0\" arg4=\"0\"}} %"
  },
  {
    "label": "Percent_Unit_Dec",
    "text": "{{number index=\"0\" type=\"4\" arg3=\"0\" arg4=\"0\"}},{{number index=\"1\" type=\"4\" arg3=\"0\" arg4=\"0\"}} %"
  },
  {
    "label": "PercentOff_Unit",
    "text": "- {{number index=\"0\" type=\"4\" arg3=\"0\" arg4=\"0\"}} ％"
  },
  {
    "label": "Second_Unit",
    "text": "{{number index=\"0\" type=\"4\" arg3=\"0\" arg4=\"0\"}} sec"
  },
  {
    "label": "Second_Unit_Dec",
    "text": "{{number index=\"0\" type=\"4\" arg3=\"0\" arg4=\"0\"}},{{number index=\"1\" type=\"4\" arg3=\"0\" arg4=\"0\"}} sec"
  },
  {
    "label": "Rate_Unit",
    "text": "× {{number index=\"0\" type=\"4\" arg3=\"0\" arg4=\"0\"}}"
  },
  {
    "label": "Rate_Unit_Dec",
    "text": "× {{number index=\"0\" type=\"4\" arg3=\"0\" arg4=\"0\"}},{{number index=\"1\" type=\"4\" arg3=\"0\" arg4=\"0\"}}"
  },
  {
    "label": "TipValue_bool_0",
    "text": "Non"
  },
  {
    "label": "TipValue_bool_1",
    "text": "Oui"
  },
  {
    "label": "Sdodr_FloorDefault",
    "text": "{{size value=\"75\"}}Étage{{size value=\"100\"}} {{number index=\"0\" type=\"1\" arg3=\"0\" arg4=\"1\"}}"
  },
  {
    "label": "Sdodr_TryResultScore",
    "text": "{{number index=\"0\" type=\"6\" arg3=\"0\" arg4=\"0\"}} p."
  }
]