[
  {
    "label": "Unknown",
    "text": "???"
  },
  {
    "label": "ZakoSmall",
    "text": "Partout"
  },
  {
    "label": "ZakoStandard",
    "text": "Partout"
  },
  {
    "label": "ZakoLarge",
    "text": "Partout"
  },
  {
    "label": "Escape",
    "text": "Lieux sans Octalings"
  },
  {
    "label": "Tree",
    "text": "Hauteurs pittoresques"
  },
  {
    "label": "TreeMissile",
    "text": "Près d'Accordo pondeurs"
  },
  {
    "label": "Hopper",
    "text": "Lieux où sautiller"
  },
  {
    "label": "BombBlow",
    "text": "Lieux à hauts plafonds"
  },
  {
    "label": "ChargerTower",
    "text": "Hauteurs pittoresques"
  },
  {
    "label": "Shell",
    "text": "Lieux murés"
  },
  {
    "label": "Sprinkler",
    "text": "Lieux encrables"
  },
  {
    "label": "ExplodeSpawner",
    "text": "Lieux pleins de Squelécailles"
  },
  {
    "label": "RivalKing",
    "text": "Étages à boss"
  },
  {
    "label": "TowerKing",
    "text": "Étages à boss"
  },
  {
    "label": "BallKing",
    "text": "Étages à boss"
  },
  {
    "label": "BarrierKingIida",
    "text": "Dernier étage"
  },
  {
    "label": "BarrierKingOdako",
    "text": "Dernier étage"
  }
]