[
  {
    "label": "Phase2_00F_First00",
    "text": "Je vais pas vous mentir... {{delay frames=\"15\"}}Ça va pas être de la tarte,\nmais si on persiste, je suis sûre qu'on y arrivera."
  },
  {
    "label": "Phase2_00F_First01",
    "text": "Évidemment ! Que la fête commence !"
  },
  {
    "label": "Phase2_00F_First02",
    "text": "Ne vous inquiétez pas pour moi. Je resterai à\nvos côtés jusqu'au bout."
  },
  {
    "label": "Phase2_00F_First03",
    "text": "Oh ! {{delay frames=\"15\"}}La palette {{icon id=\"56\" arg=\"0xCDCC8C3F02000000\"}} est complètement vide !"
  },
  {
    "label": "Phase2_00F_First04",
    "text": "Oui, toutes vos puces chromatiques ont été converties\nen péperles {{icon id=\"64\" arg=\"0x0000803F00000000\"}}. {{delay frames=\"30\"}}Plus de puce, plus d'amélioration."
  },
  {
    "label": "Phase2_00F_First05",
    "text": "À partir de maintenant, tu auras aussi moins de {{color id=\"4\"}}vies{{color id=\"65535\"}},\nHuit.{{pageBreak}}Alors fais attention à toi. {{delay frames=\"15\"}}Si tu perds toutes tes vies, tu\nretournes au hall d'entrée et tu dois {{color id=\"4\"}}tout recommencer{{color id=\"65535\"}}."
  },
  {
    "label": "Phase2_00F_Rnd00_00",
    "text": "On montera dans cette tour autant de fois\nqu'il le faudra."
  },
  {
    "label": "Phase2_00F_Rnd00_01",
    "text": "Exactement ! Fais gaffe à toi, l'Ordre !\nOn arrive et ça va chauffer !\n"
  },
  {
    "label": "Phase2_00F_Rnd01_00",
    "text": "C'est parti pour une nouvelle ascension !{{delay frames=\"15\"}}\nEn avant vers les sommets !{{delay frames=\"15\"}} Rien ne nous arrêtera !"
  },
  {
    "label": "Phase2_00F_Rnd01_01",
    "text": "Inutile de s'emporter. Mais je salue l'enthousiasme."
  },
  {
    "label": "Phase2_00F_Rnd02_00",
    "text": "Jusqu'où allons-nous réussir à monter cette\nfois-ci, à votre avis ?"
  },
  {
    "label": "Phase2_00F_Rnd02_01",
    "text": "Je sais pas si cette ascension sera la bonne,\nmais tôt ou tard, on vaincra l'Ordre. {{delay frames=\"15\"}}Courage, Huit !"
  },
  {
    "label": "PhaseX_00F_After5FClear00",
    "text": "Oh, trop bien ! {{delay frames=\"15\"}}Comme on a passé le 5e étage lors\nde la dernière ascension, on touche directement\n{{color id=\"4\"}}500 poulpèzes {{color id=\"65535\"}}{{icon id=\"63\" arg=\"0x0000803F00000000\"}} !"
  },
  {
    "label": "PhaseX_00F_After5FClear01",
    "text": "Parfait. {{delay frames=\"15\"}}Tu nous as bien dit que la présence d'un\n{{color id=\"4\"}}coin distributeur{{color id=\"65535\"}} était garantie au 5e étage ?\nÇa sera l'occasion de les dépenser."
  },
  {
    "label": "PhaseX_00F_After5FClear02",
    "text": "Donc au 5e étage, on peut souffler 5 minutes...\nMessage reçu 5 sur 5 !"
  },
  {
    "label": "PhaseX_00F_After5FClear03",
    "text": "Voilà ce que j'appelle prendre un bon départ.{{delay frames=\"30\"}}\nProfitons-en pour nous surpasser, Huit !"
  },
  {
    "label": "Phase2_05F_First00",
    "text": "Cool ! {{delay frames=\"5\"}}On a passé le 5e étage !"
  },
  {
    "label": "Phase2_05F_First01",
    "text": "Et on a touché les péperles {{icon id=\"64\" arg=\"0x0000803F00000000\"}} qui vont avec. {{delay frames=\"30\"}}La tour\nest paramétrée pour récompenser ceux qui arrivent\njusque-là."
  },
  {
    "label": "Phase2_05F_First02",
    "text": "Par exemple, en leur offrant {{color id=\"4\"}}500 poulpèzes {{color id=\"65535\"}}{{icon id=\"63\" arg=\"0x0000803F00000000\"}} au\ndébut de l'ascension suivante.{{pageBreak}}Et en garantissant la présence d'un {{color id=\"4\"}}coin distributeur{{color id=\"65535\"}}\nau 5e étage pour les dépenser."
  },
  {
    "label": "Phase2_05F_First03",
    "text": "Les distributeurs, c'est l'endroit idéal pour souffler\nun peu.{{delay frames=\"15\"}} Même si techniquement, je souffle pas."
  },
  {
    "label": "Phase2_05F_First04",
    "text": "En tout cas, il est avantageux de passer le 5e étage\nà chaque ascension."
  },
  {
    "label": "Phase2_05F_First05",
    "text": "Mais t'arrête pas en si bon chemin ! Cette ascension est\npeut-être la bonne ! Celle où on atteindra l'Ordre et\nqu'on lui ratatinera la face ! {{delay frames=\"30\"}}Tu me suis, Huit ?"
  },
  {
    "label": "Phase2_09F_First00",
    "text": "Petit briefing : {{delay frames=\"15\"}}le prochain étage va vous donner\ndu fil à retordre. {{delay frames=\"30\"}}Préparez-vous à un défi inédit."
  },
  {
    "label": "Phase2_09F_First01",
    "text": "Pour être plus précise et si ça a pas changé depuis que\nj'ai conçu la tour,{{delay frames=\"15\"}} le 10e étage abrite un {{color id=\"4\"}}boss{{color id=\"65535\"}}."
  },
  {
    "label": "Phase2_09F_First02",
    "text": "Alors ça y est, on va en découdre pour de vrai !{{delay frames=\"30\"}}\nReste sur tes gardes, Huit, et fais pas de bêtises !"
  },
  {
    "label": "Phase2_09F_Rnd00_00",
    "text": "On s'en sort pas mal pour le moment !{{delay frames=\"30\"}}\nVous trouvez pas qu'on est dans un bon jour ?"
  },
  {
    "label": "Phase2_09F_Rnd00_01",
    "text": "C'est au prochain étage qu'on va voir si on a vraiment\nla pêche.{{delay frames=\"30\"}} T'as autant hâte que moi, Huit ?"
  },
  {
    "label": "Phase2_09F_Rnd01_00",
    "text": "On a pas trop galéré jusqu'à présent, pas vrai, Huit ?"
  },
  {
    "label": "Phase2_09F_Rnd01_01",
    "text": "Certes, mais on arrive au 10e étage, maintenant.{{delay frames=\"30\"}}\nÇa risque d'être compliqué, alors restez sur vos gardes."
  },
  {
    "label": "Phase2_09F_Rnd02_00",
    "text": "Jusqu'à présent, l'ascension se déroule sans accroc."
  },
  {
    "label": "Phase2_09F_Rnd02_01",
    "text": "Ouais, mais on arrive face à un boss. Alors restez sur\nvos gardes ou vous allez vous prendre une raclée."
  },
  {
    "label": "Phase2_10F_First00",
    "text": "Tout le monde est en un seul morceau ? Ouf !\n{{delay frames=\"30\"}}D'où ça sortait, ce truc ?"
  },
  {
    "label": "Phase2_10F_First01",
    "text": "C'était nettement plus puissant que les autres\nSquelécailles...{{delay frames=\"30\"}} Et qu'est-ce que tu as récupéré\naprès l'avoir vaincu ? Une {{color id=\"4\"}}clé de casier{{color id=\"65535\"}} {{icon id=\"62\" arg=\"0x0000803F00000000\"}} ?"
  },
  {
    "label": "Phase2_10F_First02",
    "text": "Intéressant. {{delay frames=\"30\"}}Il semblerait que tu puisses obtenir\nune clé chaque fois que tu termines certains étages\navec certaines palettes pour la première fois."
  },
  {
    "label": "Phase2_10F_First03",
    "text": "Autrement dit... {{delay frames=\"15\"}}Si on nettoie à nouveau le 10e étage,\nmais avec une autre palette, on obtient une autre clé ?"
  },
  {
    "label": "Phase2_10F_First04",
    "text": "Exact, Perle ! {{delay frames=\"30\"}}Ceci dit,{{delay frames=\"15\"}} je crois pas qu'on ait récupéré\ntoutes les clés que permet d'obtenir cette palette."
  },
  {
    "label": "Phase2_10F_First05",
    "text": "Non, en effet. {{delay frames=\"15\"}}Nous en trouverons davantage en\ncontinuant avec celle-ci."
  },
  {
    "label": "Phase2_10F_Rnd00_00",
    "text": "Huit, les Squelécailles vont te tomber dessus en\nmasse, maintenant. {{delay frames=\"30\"}}Les laisse pas te coincer."
  },
  {
    "label": "Phase2_10F_Rnd00_01",
    "text": "Excellent conseil. Reste sur tes gardes."
  },
  {
    "label": "Phase2_10F_Rnd00_02",
    "text": "Ils peuvent débarquer par paquets de cent, ça nous\nempêchera pas de faire ce qu'on a à faire !{{delay frames=\"30\"}}\nHuit le sait aussi bien que moi !"
  },
  {
    "label": "Phase2_10F_Rnd01_00",
    "text": "Cool ! Ça fait du bien d'avoir le 10e étage derrière soi."
  },
  {
    "label": "Phase2_10F_Rnd01_01",
    "text": "C'est une étape importante de franchie. {{delay frames=\"15\"}}Bien joué."
  },
  {
    "label": "Phase2_10F_Rnd01_02",
    "text": "Ouais, mais on a encore un paquet d'étages à se\nfarcir, {{delay frames=\"30\"}}alors faut continuer à les enchaîner, Huit !"
  },
  {
    "label": "Phase2_10F_Rnd02_00",
    "text": "Le boss a rien compris à ce qui lui est arrivé !{{delay frames=\"15\"}}\nOn se débrouille pas trop mal, aujourd'hui."
  },
  {
    "label": "Phase2_10F_Rnd02_01",
    "text": "Ouais ! Si on continue sur cette lancée, on pourrait\nbien en voir le bout !"
  },
  {
    "label": "Phase2_10F_Rnd02_02",
    "text": "Je doute que les Squelécailles soient de cet avis.{{delay frames=\"30\"}}\nIls ne sont pas du genre à se laisser faire."
  },
  {
    "label": "Phase2_15F_First00",
    "text": "Il semble qu'on a fait plus de la moitié du chemin.{{delay frames=\"30\"}}\nCette tour n'en finit pas..."
  },
  {
    "label": "Phase2_15F_First01",
    "text": "Tu tiens le coup, Huit ? {{delay frames=\"30\"}}Tu veux pas prendre une pause\navant le prochain étage ?"
  },
  {
    "label": "Phase2_15F_First02",
    "text": "Je suis vraiment désolée de vous imposer ça... {{delay frames=\"15\"}}Si\nseulement l'Ordre n'avait pas infiltré mon esprit..."
  },
  {
    "label": "Phase2_15F_First03",
    "text": "Dis pas ça, Coralie !{{delay frames=\"30\"}} C'est pas ta faute."
  },
  {
    "label": "Phase2_15F_First04",
    "text": "Je sais pas... {{delay frames=\"15\"}}Au fond de moi, je rêvais effectivement\nd'une paix durable, d'un monde immuable...{{pageBreak}}Un monde où rien ne changerait jamais ! C'était une\nfaiblesse, et l'Ordre s'y est engouffré sans vergogne."
  },
  {
    "label": "Phase2_15F_First05",
    "text": "Tu n'es pas la seule à avoir peur du changement.{{delay frames=\"30\"}}\nMoi aussi, cette perspective m'effraie parfois."
  },
  {
    "label": "Phase2_15F_First06",
    "text": "Même toi, Eyte ?"
  },
  {
    "label": "Phase2_15F_First07",
    "text": "Perso, ça a jamais fait partie de mes plus grosses\ntrouilles...{{pageBreak}}Et je sais pas ce que tu voulais, mais une chose est\nsûre : c'était pas ça !{{delay frames=\"15\"}} Alors t'as aucune raison\nde t'excuser."
  },
  {
    "label": "Phase2_15F_First08",
    "text": "Sèche ces larmes ! {{delay frames=\"30\"}}Huit et moi, on va calmer les\nardeurs de l'Ordre. T'as juste à t'installer et à\nprofiter du spectacle !"
  },
  {
    "label": "Phase2_15F_First09",
    "text": "Perle... {{delay frames=\"15\"}}Huit..."
  },
  {
    "label": "Phase2_15F_First10",
    "text": "Non ! {{delay frames=\"15\"}}Pas question de faire tapisserie ! {{delay frames=\"30\"}}Je ferai tout\nmon possible pour vous aider !"
  },
  {
    "label": "Phase2_15F_First11",
    "text": "Très bien. Si on s'y met ensemble,\non arrivera à remédier à tout ça."
  },
  {
    "label": "Phase2_19F_First00",
    "text": "Huit...{{delay frames=\"15\"}} Tu t'apprêtes sans doute à affronter un {{color id=\"4\"}}boss{{color id=\"65535\"}}...{{delay frames=\"30\"}}\nIl faudra la jouer maline et prudente de surcroît."
  },
  {
    "label": "Phase2_19F_First01",
    "text": "Arrête de baliser, Coralie ! {{delay frames=\"30\"}}Tout ira bien.\nHuit et moi, on va lui faire sa fête !"
  },
  {
    "label": "Phase2_19F_First02",
    "text": "O-Oui... {{delay frames=\"15\"}}Bien sûr."
  },
  {
    "label": "Phase2_19F_First03",
    "text": "Ah, le conseil de dernière minute que personne lui a\ndemandé. Je te reconnais bien là, Coralie."
  },
  {
    "label": "Phase2_19F_First04",
    "text": "J'y peux rien ! Perle est trop précieuse pour moi !{{delay frames=\"30\"}}\nElle la joue courageuse et adorable de surcroît !"
  },
  {
    "label": "Phase2_19F_First05",
    "text": "Euh... Je te reconnais moins, là."
  },
  {
    "label": "Phase2_19F_Rnd00_00",
    "text": "Déjà le 20e étage ? Ça sent les ennuis...{{delay frames=\"15\"}}\nJe dirais même que ça pue la galère à plein nez."
  },
  {
    "label": "Phase2_19F_Rnd00_01",
    "text": "Mais non, tout va bien se passer !{{delay frames=\"30\"}} Enfin... pour peu\nque vous fonciez pas dans le tas sans réfléchir."
  },
  {
    "label": "Phase2_19F_Rnd01_00",
    "text": "Ouah ! {{delay frames=\"15\"}}On a atteint le 20e étage, mais on peut pas\ns'arrêter là.{{delay frames=\"30\"}} Il faut qu'on continue !"
  },
  {
    "label": "Phase2_19F_Rnd01_01",
    "text": "Oui, mais on va se heurter à un gros obstacle,\nmaintenant.{{delay frames=\"30\"}} Perle, Huit... faites attention."
  },
  {
    "label": "Phase2_19F_Rnd02_00",
    "text": "Le prochain étage abrite un boss.{{delay frames=\"30\"}}\nVous allez avoir du boulot."
  },
  {
    "label": "Phase2_19F_Rnd02_01",
    "text": "Ah ouais ? Eh ben moi, mon boulot, c'est de liquider\nles enquiquineurs !{{delay frames=\"30\"}} Viens, Huit, on va faire le ménage !"
  },
  {
    "label": "Phase2_20F_First00",
    "text": "Bien joué, Huit !{{delay frames=\"30\"}} Et on a dégoté une {{color id=\"4\"}}clé de casier{{color id=\"65535\"}} {{icon id=\"62\" arg=\"0x0000803F00000000\"}}\npar-dessus le marché !"
  },
  {
    "label": "Phase2_20F_First01",
    "text": "Il était costaud, ce boss, quand même... {{delay frames=\"15\"}}Cette saleté\nd'Ordre y va plus avec le dos de la cuillère."
  },
  {
    "label": "Phase2_20F_First02",
    "text": "Il a dû le créer pour empêcher quiconque de déjouer\nses plans... {{delay frames=\"15\"}}Je me rappelle qu'il a dit vouloir transformer\nle Poulpivers en un « monde d'ordre décoloré »."
  },
  {
    "label": "Phase2_20F_First03",
    "text": "Un monde de marionnettes décérébrées...\n{{delay frames=\"30\"}}Comme celui d'où je viens."
  },
  {
    "label": "Phase2_20F_First04",
    "text": "Eyte... {{delay frames=\"15\"}}Me dis pas que tu étais dans le Métro Abyssal !"
  },
  {
    "label": "Phase2_20F_First05",
    "text": "Attends... T'as bien dit le Métro Abyssal ?\nCelui d'où on a extirpé Huit ?"
  },
  {
    "label": "Phase2_20F_First06",
    "text": "Celui-là même. Quelque chose ou quelqu'un dans ce\nmétro m'a privée de ma volonté {{delay frames=\"15\"}}et m'a forcée à jouer\nles DJs."
  },
  {
    "label": "Phase2_20F_First07",
    "text": "Je ne me souviens pas de grand-chose...\nÀ part... de cette voix..."
  },
  {
    "label": "Phase2_20F_First08",
    "text": "Bref, tout ça, c'est du passé."
  },
  {
    "label": "Phase2_20F_First09",
    "text": "Pauvre Eyte... T'as pas dû rigoler tous les jours !"
  },
  {
    "label": "Phase2_20F_First10",
    "text": "À la base, j'ai développé le Poulpivers pour restaurer les\nesprits des Octariens « purifiés » comme toi...{{pageBreak}}Et puisque t'es là, {{delay frames=\"15\"}}c'est que ça a dû marcher !"
  },
  {
    "label": "Phase2_20F_First11",
    "text": "Oh... {{delay frames=\"15\"}}C'était toi, alors ? {{delay frames=\"30\"}}J'ai une lourde dette\nenvers toi, dans ce cas."
  },
  {
    "label": "Phase2_20F_First12",
    "text": "Raison de plus pour arracher le Poulpivers des griffes\nde l'Ordre.{{delay frames=\"15\"}} D'autres Octalings ont besoin de nous !"
  },
  {
    "label": "Phase2_20F_Rnd00_00",
    "text": "Et BOUM ! Dans sa face ! {{delay frames=\"30\"}}On est plus très loin\ndu sommet, maintenant !"
  },
  {
    "label": "Phase2_20F_Rnd00_01",
    "text": "Certes, mais il y a encore du chemin.{{delay frames=\"15\"}} Ne nous\nreposons pas sur nos lauriers."
  },
  {
    "label": "Phase2_20F_Rnd00_02",
    "text": "Oh que non !{{delay frames=\"15\"}} Pas tant qu'on aura pas empêché l'Ordre\nd'effacer toutes les couleurs du Poulpivers !"
  },
  {
    "label": "Phase2_20F_Rnd01_00",
    "text": "Perle ! Huit ! Vous avez assuré à fond !"
  },
  {
    "label": "Phase2_20F_Rnd01_01",
    "text": "On lâche pas l'affaire !{{delay frames=\"15\"}} L'Ordre, on le hache,{{delay frames=\"15\"}} on le lacère,{{delay frames=\"15\"}}\non lui arrache{{delay frames=\"15\"}} la peau du derrière,{{delay frames=\"15\"}} et quand cette tache{{delay frames=\"15\"}}\na bien souffert, {{delay frames=\"15\"}}avec panache {{delay frames=\"15\"}}on sauve le Poulpivers !"
  },
  {
    "label": "Phase2_20F_Rnd01_02",
    "text": "Ce qui sonnera la fin des hostilités.{{delay frames=\"30\"}}\nJ'ai hâte d'en être là."
  },
  {
    "label": "Phase2_20F_Rnd02_00",
    "text": "Vous êtes de retour !"
  },
  {
    "label": "Phase2_20F_Rnd02_01",
    "text": "Pas de blessures à déplorer ?{{delay frames=\"15\"}} Non ? Tant mieux."
  },
  {
    "label": "Phase2_20F_Rnd02_02",
    "text": "On est plus très loin de la tanière de l'Ordre, hein ?\nViens, Huit !{{delay frames=\"15\"}} On va tout nettoyer jusqu'au sommet !"
  },
  {
    "label": "Phase2_25F_First00",
    "text": "Cette ascension se passe pas trop mal, hein ?{{delay frames=\"30\"}}\nLe sommet nous tend les bras, j'en suis sûre !"
  },
  {
    "label": "Phase2_25F_First01",
    "text": "Tout juste, Perle ! {{delay frames=\"15\"}}On est pratiquement au\ndernier étage !"
  },
  {
    "label": "Phase2_25F_First02",
    "text": "Youhou ! {{delay frames=\"15\"}}Le temps de régler cette affaire en deux coups\nde cuillère à pot, et on reprend la tournée mondiale !"
  },
  {
    "label": "Phase2_25F_First03",
    "text": "Les Tenta-Cool, c'est ça ?{{delay frames=\"30\"}} J'ai hâte de sortir d'ici\npour écouter ce que vous faites."
  },
  {
    "label": "Phase2_25F_First04",
    "text": "Je te préviens, c'est du lourd ! {{delay frames=\"15\"}}J'espère que t'as les\ntympans bien accrochés, parce qu'on te réserve un\ngrand huit musical !"
  },
  {
    "label": "Phase2_25F_First05",
    "text": "Il nous reste encore quelques dates avant la fin de la\ntournée. {{delay frames=\"15\"}}Hésitez pas à venir, Huit et toi !"
  },
  {
    "label": "Phase2_25F_First06",
    "text": "Je vais y réfléchir... {{delay frames=\"30\"}}Par contre, ça implique de prendre\nl'avion, et je n'ai jamais fait ça avant."
  },
  {
    "label": "Phase2_29F_First00",
    "text": "C'est le dernier étage..."
  },
  {
    "label": "Phase2_29F_First01",
    "text": "L'Ordre doit nous attendre."
  },
  {
    "label": "Phase2_29F_First02",
    "text": "Sans moi, rien de tout ça ne serait arrivé, alors...{{delay frames=\"30\"}}\nJe vais venir avec toi, Huit."
  },
  {
    "label": "Phase2_29F_First03",
    "text": "Sans la moindre arme ? {{delay frames=\"15\"}}Ça va pas, la tête ?!"
  },
  {
    "label": "Phase2_29F_First04",
    "text": "Je sais, {{delay frames=\"15\"}}mais j'ai pas le choix !"
  },
  {
    "label": "Phase2_29F_First05",
    "text": "Quand Coralie a une idée en tête, les probabilités de\nla faire changer d'avis avoisinent le zéro absolu..."
  },
  {
    "label": "Phase2_29F_First06",
    "text": "Mais elle n'a pas besoin d'arme pour se défendre.{{delay frames=\"30\"}}\nQuelque chose me dit que tout va bien se passer."
  },
  {
    "label": "Phase2_29F_First07",
    "text": "C'est trop gentil ! Merci, Eyte !"
  },
  {
    "label": "Phase2_29F_First08",
    "text": "OK, puisque tout le monde s'y met, je vais pas insister...{{delay frames=\"30\"}}\nMais prenez pas de risques stupides !"
  },
  {
    "label": "Phase2_29F_First09",
    "text": "T'inquiète, Perle !"
  },
  {
    "label": "Phase2_29F_First10",
    "text": "Tu viens, Eyte ?"
  },
  {
    "label": "Phase2_29F_First11",
    "text": "Non, je ne veux pas vous gêner.{{delay frames=\"30\"}} Je veillerai sur vous\nd'ici, au cas où la situation s'envenimerait."
  },
  {
    "label": "Phase2_29F_First12",
    "text": "OK, nickel ! {{delay frames=\"30\"}}Et si ça part en vrille, je compte sur\ntoi pour protéger Coralie !"
  },
  {
    "label": "Phase2_29F_First13",
    "text": "On se chauffe, on se motive !{{delay frames=\"30\"}}\nL'heure de la baston ultime arrive !"
  },
  {
    "label": "Phase2_29F_Rnd00_00",
    "text": "Ça y est,{{delay frames=\"15\"}} nous avons à nouveau atteint le sommet."
  },
  {
    "label": "Phase2_29F_Rnd00_01",
    "text": "Pas question de laisser ce sale Ordre\nnous remettre une raclée !"
  },
  {
    "label": "Phase2_29F_Rnd00_02",
    "text": "Je viens avec vous. {{delay frames=\"30\"}}On va arrêter l'Ordre\nici et maintenant !"
  },
  {
    "label": "Phase2_29F_Rnd00_03",
    "text": "De mon côté, je vous attendrai ici. {{delay frames=\"30\"}}Souvenez-vous\nde ce que vous avez appris lors de la précédente\nconfrontation, et bonne chance."
  },
  {
    "label": "Phase2_29F_Rnd00_04",
    "text": "T'inquiète ! {{delay frames=\"30\"}}On va en faire des confettis, ce coup-ci !"
  },
  {
    "label": "Phase2_29F_Rnd01_00",
    "text": "On arrive au dernier étage.{{delay frames=\"30\"}} Il va de nouveau falloir\naffronter l'Ordre."
  },
  {
    "label": "Phase2_29F_Rnd01_01",
    "text": "Et j'ai encore envie de venir avec vous !{{delay frames=\"30\"}}\nJe trouverai bien un moyen de vous aider."
  },
  {
    "label": "Phase2_29F_Rnd01_02",
    "text": "Si ça te fait plaisir, t'es la bienvenue, Coralie !{{delay frames=\"30\"}}\nMais laisse-nous nous occuper du combat, OK ?"
  },
  {
    "label": "Phase2_29F_Rnd01_03",
    "text": "Partez devant.{{delay frames=\"30\"}} Je ne vous serais pas d'une grande\nutilité de toute façon, alors autant rester ici à garder\nun œil sur la situation."
  },
  {
    "label": "Phase2_29F_Rnd01_04",
    "text": "Bien reçu ! {{delay frames=\"30\"}}Viens, Huit, qu'on en finisse une fois\npour toutes !"
  },
  {
    "label": "Phase2_ProgressMiddle_00_00",
    "text": "Pourquoi t'as toujours le nez collé sur ton laptop ?{{delay frames=\"15\"}}\nQu'est-ce que tu trafiques avec ce truc ?"
  },
  {
    "label": "Phase2_ProgressMiddle_00_01",
    "text": "C'est compliqué... {{delay frames=\"15\"}}Mais en gros, si je veux que mon\nhacking soit efficace, {{delay frames=\"15\"}}je dois me battre contre l'Ordre\nen permanence pour le contrôle des systèmes de la tour."
  },
  {
    "label": "Phase2_ProgressMiddle_00_02",
    "text": "Par exemple, là, le mot de passe était sur le point d'être\nréinitialisé. Et si l'administrateur contrôle les protocoles\n{{size value=\"75\"}}des permissions, l'accès va hmm hmm et l'exécutable sera hmm hmm...{{size value=\"100\"}}"
  },
  {
    "label": "Phase2_ProgressMiddle_00_03",
    "text": "On devrait peut-être arrêter de lui poser\ndes questions ?"
  },
  {
    "label": "Phase2_ProgressMiddle_01_00",
    "text": "Et voilà le travail !"
  },
  {
    "label": "Phase2_ProgressMiddle_01_01",
    "text": "Youhou !"
  },
  {
    "label": "Phase2_ProgressMiddle_01_02",
    "text": "Ah ! Je me sens à nouveau moi-même, la Perle toujours\nau taquet que vous aimez tant !{{delay frames=\"30\"}} C'est sans doute parce\nque j'ai retrouvé ma petite Coralie !"
  },
  {
    "label": "Phase2_ProgressMiddle_01_03",
    "text": "Huit, Eyte... Merci du fond du cœur de m'avoir sauvée.{{delay frames=\"30\"}}\nJe sais pas encore comment, mais je vous revaudrai ça."
  },
  {
    "label": "Phase2_ProgressMiddle_01_04",
    "text": "Inutile de t'inquiéter pour ça. {{delay frames=\"30\"}}Si tu arrives à me faire\nsortir d'ici, on sera largement quittes."
  },
  {
    "label": "Phase2_ProgressMiddle_01_05",
    "text": "J'ai bien peur que personne ne puisse partir d'ici tant\nqu'on aura pas réglé le cas de l'Ordre... {{delay frames=\"30\"}}Mais après ça,\nje m'occupe de vous, promis !"
  },
  {
    "label": "Phase2_ProgressMiddle_02_00",
    "text": "Ça fait un sacré bail, pas vrai, Eyte ?"
  },
  {
    "label": "Phase2_ProgressMiddle_02_01",
    "text": "Pourquoi tu me dis ça maintenant ? Mais c'est vrai\nque ça fait longtemps. La dernière fois qu'on s'est parlé,\nc'était avant que tu sois assignée à l'unité d'Octave."
  },
  {
    "label": "Phase2_ProgressMiddle_02_02",
    "text": "Coralie vivait encore avec les Octalings à l'époque, non ?"
  },
  {
    "label": "Phase2_ProgressMiddle_02_03",
    "text": "Si.{{delay frames=\"15\"}} Ça doit faire à peu près huit ans, je crois ?"
  },
  {
    "label": "Phase2_ProgressMiddle_02_04",
    "text": "Huit ans ?{{delay frames=\"30\"}} Ça fait si longtemps ?"
  },
  {
    "label": "Phase2_ProgressMiddle_02_05",
    "text": "Du coup, tu dois avoir des tonnes d'anecdotes marrantes\nque je connais pas sur Coralie ! Vas-y, Eyte, envoie !"
  },
  {
    "label": "Phase2_ProgressMiddle_02_06",
    "text": "Perle ! {{delay frames=\"15\"}}Noooooooooooon !"
  },
  {
    "label": "Phase2_ProgressUpper_00_00",
    "text": "T'en as pas marre de rester tout le temps\ndans l'ascenseur, {{delay frames=\"15\"}}Eyte ?"
  },
  {
    "label": "Phase2_ProgressUpper_00_01",
    "text": "Non. {{delay frames=\"15\"}}D'ailleurs, si je le quitte, il reprend sa position\npar défaut."
  },
  {
    "label": "Phase2_ProgressUpper_00_02",
    "text": "Si je n'étais pas là pour rester à l'intérieur, vous ne\npourriez plus quitter cet étage. Game over."
  },
  {
    "label": "Phase2_ProgressUpper_00_03",
    "text": "Sérieux ? {{delay frames=\"30\"}}Personne nous a parlé de ça !"
  },
  {
    "label": "Phase2_ProgressUpper_00_04",
    "text": "Peut-être qu'Eyte ne nous dit pas tout. Depuis qu'on\nse connaît, je l'ai toujours vue se lover dans les coins\net s'adosser au mur... C'est pas vrai ?"
  },
  {
    "label": "Phase2_ProgressUpper_00_05",
    "text": "Je sais pas de quoi tu... {{delay frames=\"30\"}}Hmm. {{delay frames=\"15\"}}Mais maintenant que\ntu le dis, c'est vrai que cet ascenseur a quelque chose\nd'apaisant."
  },
  {
    "label": "Phase2_ProgressUpper_01_00",
    "text": "Salut, Perle. On se connaît, non ?{{delay frames=\"15\"}} Tu viens souvent ici ?"
  },
  {
    "label": "Phase2_ProgressUpper_01_01",
    "text": "Quoi ? {{delay frames=\"30\"}}Calme ta joie, Eyte !{{delay frames=\"15\"}} Tu vas pas te mettre\nà draguer Perle devant..."
  },
  {
    "label": "Phase2_ProgressUpper_01_02",
    "text": "Mais non, détends-toi. {{delay frames=\"30\"}}J'ai juste l'impression de\nconnaître sa voix, c'est tout."
  },
  {
    "label": "Phase2_ProgressUpper_01_03",
    "text": "Hmm, je sais pas d'où t'aurais pu l'entendre.{{delay frames=\"30\"}}\nT'es peut-être tombée sur un de nos morceaux\namateurs, avant qu'on perce avec les Tenta-Cool ?"
  },
  {
    "label": "Phase2_ProgressUpper_01_04",
    "text": "Possible. {{delay frames=\"30\"}}Mais il me semble... que c'est autre chose."
  },
  {
    "label": "Phase2_ProgressUpper_02_00",
    "text": "Je pensais pas que tu me reconnaîtrais, Coralie.{{delay frames=\"30\"}}\nJ'ai tellement changé depuis le temps."
  },
  {
    "label": "Phase2_ProgressUpper_02_01",
    "text": "Hm ?{{delay frames=\"30\"}} Oui, sans doute, mais... Je sais pas,\nje t'ai reconnue au feeling, et aussi à la voix."
  },
  {
    "label": "Phase2_ProgressUpper_02_02",
    "text": "Hmm... {{delay frames=\"15\"}}Je vois."
  },
  {
    "label": "Phase2_ProgressUpper_02_03",
    "text": "Balancez des photos !{{delay frames=\"30\"}} Je veux voir à quoi vous\nressembliez à l'époque !"
  },
  {
    "label": "Phase2_ProgressUpper_02_04",
    "text": "Euh... {{delay frames=\"15\"}}J'ai pas pris grand-chose avec moi\nquand j'ai quitté les Octalings, alors..."
  },
  {
    "label": "Phase2_ProgressUpper_02_05",
    "text": "Oui, tes affaires doivent avoir fini à la benne\nil y a un bon moment, déjà."
  },
  {
    "label": "Phase2_ProgressUpper_02_06",
    "text": "Sans doute. {{delay frames=\"15\"}}Ah, si seulement j'avais emporté\nquelques souvenirs..."
  },
  {
    "label": "Phase3_00F_First00",
    "text": "Salut, Eyte !{{delay frames=\"15\"}} Toujours à protéger l'ascenseur,\nà ce que je vois !"
  },
  {
    "label": "Phase3_00F_First01",
    "text": "Perle... Huit... Vous entamez une nouvelle ascension ?"
  },
  {
    "label": "Phase3_00F_First02",
    "text": "En fait, j'ai hâte de grimper de nouveau\ndans la tour avec vous !"
  },
  {
    "label": "Phase3_00F_First03",
    "text": "Direction la salle de contrôle du dernier étage.\nMais on peut vraiment pas monter directement ?"
  },
  {
    "label": "Phase3_00F_First04",
    "text": "Toujours pas. {{delay frames=\"15\"}}Je te l'ai déjà dit : l'ascenseur ne monte\nque d'un étage à la fois."
  },
  {
    "label": "Phase3_00F_Rnd00_00",
    "text": "Eh ben, Coralie ?{{delay frames=\"15\"}} Même pas un petit mot\nd'encouragement pour nous ?"
  },
  {
    "label": "Phase3_00F_Rnd00_01",
    "text": "Si, si ! {{delay frames=\"30\"}}Euh... {{delay frames=\"15\"}}Allez leur mettre une raclée !"
  },
  {
    "label": "Phase3_00F_Rnd01_00",
    "text": "En avant, Huit ! {{delay frames=\"15\"}}On compte sur toi !"
  },
  {
    "label": "Phase3_00F_Rnd01_01",
    "text": "Pas que. {{delay frames=\"15\"}}Je te rappelle que t'es censée l'aider."
  },
  {
    "label": "Phase3_00F_Rnd02_00",
    "text": "On peut y aller ? {{delay frames=\"15\"}}Alors on y va."
  },
  {
    "label": "Phase3_00F_Rnd02_01",
    "text": "Toujours plus hauuut !"
  },
  {
    "label": "Phase3_05F_First00",
    "text": "5e étage terminé ! La vraie fête peut commencer !{{delay frames=\"30\"}}\nEt en plus, on a raflé des péperles au passage !"
  },
  {
    "label": "Phase3_05F_First01",
    "text": "T'es de bonne humeur aujourd'hui, Perle !"
  },
  {
    "label": "Phase3_05F_First02",
    "text": "Ouais ! Notre tournée mondiale s'est terminée sans\naccroc, mais je t'avais promis qu'on aurait aussi un peu\nde temps pour nous, alors je suis pressée d'en finir ici !"
  },
  {
    "label": "Phase3_05F_First03",
    "text": "Oh, {{delay frames=\"15\"}}ma p'tite Perle !"
  },
  {
    "label": "Phase3_05F_First04",
    "text": "Pssst, Huit... {{delay frames=\"15\"}}Elles sont toujours comme ça ?"
  },
  {
    "label": "Phase3_09F_First00",
    "text": "10e étage en vue...{{delay frames=\"30\"}} Vous savez ce que ça veut dire."
  },
  {
    "label": "Phase3_09F_First01",
    "text": "Ouais :{{delay frames=\"15\"}} un boss."
  },
  {
    "label": "Phase3_09F_First02",
    "text": "On a beau avoir mis l'Ordre au tapis, ça a pas\nchangé grand-chose ici."
  },
  {
    "label": "Phase3_09F_First03",
    "text": "On dirait pas, non. Et vu le problème avec les palettes,\nje me sens pas de tripatouiller le système pour\nm'en assurer."
  },
  {
    "label": "Phase3_09F_First04",
    "text": "Bref... {{delay frames=\"15\"}}Ça va pas forcément aller tout seul, mais on va\nbien réussir à lui régler son compte. Pas vrai, Huit ?"
  },
  {
    "label": "Phase3_10F_First00",
    "text": "Les méchants, on leur fait leur fête, {{delay frames=\"15\"}}on leur casse la\ntête, {{delay frames=\"15\"}}on les réduit en miettes ! {{delay frames=\"30\"}}Avec Huit, Coralie, Eyte{{delay frames=\"15\"}}\net notre nouvelle palette, {{delay frames=\"15\"}}on connaît pas la défaite !"
  },
  {
    "label": "Phase3_10F_First01",
    "text": "À propos de palettes... On a vu celles de Coralie et\nmoi, mais... {{delay frames=\"15\"}}Est-ce que Huit et Eyte en ont une aussi ?"
  },
  {
    "label": "Phase3_10F_First02",
    "text": "J'ai reçu un signal de palette qui a l'air de correspondre\nà Huit !{{delay frames=\"30\"}} Par contre... {{delay frames=\"15\"}}Je n'en détecte pas pour Eyte.{{pageBreak}}Peut-être qu'au moment où son âme a été aspirée\ndans le Poulpivers, {{delay frames=\"15\"}}elle s'est intégrée à Eyte avant\nd'avoir pu être transformée en palette."
  },
  {
    "label": "Phase3_10F_First03",
    "text": "Je ne suis pas sûre de comprendre...{{delay frames=\"30\"}}\nMais on dirait que j'ai eu de la chance."
  },
  {
    "label": "Phase3_10F_First04",
    "text": "Mais du coup... Si la palette de Huit est dans un de\nces casiers et qu'on les ouvre tous, on finira par\nla trouver ?"
  },
  {
    "label": "Phase3_10F_First05",
    "text": "On va pas laisser l'âme de Huit moisir sur place, quand\nmême ! {{delay frames=\"15\"}}Venez, on a des clés de casiers à récupérer !"
  },
  {
    "label": "Phase3_15F_First00",
    "text": "Et du coup, l'Ordre,{{delay frames=\"15\"}} ou devrais-je dire Minusque...{{delay frames=\"30\"}}\nQu'est-ce qu'il devient depuis qu'on a remporté\nla victoire haut la main ?"
  },
  {
    "label": "Phase3_15F_First01",
    "text": "Je me posais la même question. {{delay frames=\"15\"}}J'ai fait des\nrecherches, mais j'ai pas trouvé la moindre\ntrace d'un éventuel départ du Poulpivers."
  },
  {
    "label": "Phase3_15F_First02",
    "text": "Ni hors de la tour, d'ailleurs.{{delay frames=\"30\"}} Tout porte à croire\nqu'il est toujours à l'intérieur."
  },
  {
    "label": "Phase3_15F_First03",
    "text": "Il n'a plus la puissance nécessaire pour poser ses\ntentacules sur le monde réel, {{delay frames=\"15\"}}donc il constitue pas\nà proprement parler une menace, mais..."
  },
  {
    "label": "Phase3_15F_First04",
    "text": "Pfff, j'espère qu'il est pas encore en train de monter\nun plan machiavélique ou je-ne-sais-quoi. Je me\npasserais du match retour, merci bien."
  },
  {
    "label": "Phase3_15F_First05",
    "text": "Sois tranquille. {{delay frames=\"15\"}}On gardera l'œil ouvert. Si Minusque\nse montre, on ne le laissera pas filer."
  },
  {
    "label": "Phase3_15F_First06",
    "text": "Oh, que non. En attendant, vous devriez vous concentrer\nsur l'ascension de la tour."
  },
  {
    "label": "Phase3_15F_First07",
    "text": "On est sur le coup !{{delay frames=\"30\"}} Après toi, Huit !"
  },
  {
    "label": "Phase3_19F_First00",
    "text": "Tu fais un carton, Huit !{{delay frames=\"30\"}} Mais attention, on arrive\nà un combat de boss."
  },
  {
    "label": "Phase3_19F_First01",
    "text": "Hé, Coralie ! {{delay frames=\"15\"}}T'aurais pas une arme secrète sous\nle coude pour l'éclater en un seul tir ?"
  },
  {
    "label": "Phase3_19F_First02",
    "text": "Eh ben, figure-toi que si ! {{delay frames=\"30\"}}Ça te tente, d'essayer le\nprototype de ma Giga-Bombe-à-Bobos ? Je l'ai mise\nau point en même temps que le Poulpivers !"
  },
  {
    "label": "Phase3_19F_First03",
    "text": "Oh, c'est exactement ce qu'il nous faut !\n{{delay frames=\"15\"}}On va en faire des confettis, de ce boss !"
  },
  {
    "label": "Phase3_19F_First04",
    "text": "Par contre, je préfère prévenir... {{delay frames=\"15\"}}Elle est un tantinet\nsurchargée... Ma dernière simulation affichait 88,8 %\nde probabilités d'atomiser la tour en même temps."
  },
  {
    "label": "Phase3_19F_First05",
    "text": "On ferait peut-être mieux d'éviter, tout compte fait."
  },
  {
    "label": "Phase3_20F_First00",
    "text": "Très impressionnant, Huit.{{delay frames=\"30\"}} Où as-tu appris à\nte battre comme ça ?"
  },
  {
    "label": "Phase3_20F_First01",
    "text": "Oh ! Eyte, t'as bien dit que tu étais revenue dans le\nPoulpivers pour « vérifier quelque chose » ?{{pageBreak}}Ce « quelque chose », ce serait pas le secret\ndes prouesses de Huit, par hasard ?"
  },
  {
    "label": "Phase3_20F_First02",
    "text": "Ha ! Non. Je ne cherche pas à devenir une meilleure\nsoldate ou je ne sais quoi."
  },
  {
    "label": "Phase3_20F_First03",
    "text": "Ha ha ! Alors ça, je confirme ! {{delay frames=\"30\"}}Tu séchais tout le temps\nles cours de combat à l'école !"
  },
  {
    "label": "Phase3_20F_First04",
    "text": "Alors c'est quoi que tu veux étudier, si c'est pas\nle secret de Huit ?"
  },
  {
    "label": "Phase3_20F_First05",
    "text": "Je ne veux pas en faire tout un plat, mais...{{delay frames=\"30\"}}\ntu es déjà allée dans le Métro Abyssal, Perle ?"
  },
  {
    "label": "Phase3_20F_First06",
    "text": "Waouh, je l'avais pas vue venir, celle-là !{{delay frames=\"30\"}} Eh ben nan,\njamais. {{delay frames=\"15\"}}Mais j'étais tout près un jour... {{delay frames=\"15\"}}Y a cinq ans\net des poussières, je dirais ?"
  },
  {
    "label": "Phase3_20F_First07",
    "text": "Ah oui ! Quand on a exfiltré Huit ! {{delay frames=\"30\"}}J'ai encore la chair\nde poule en repensant au hurlement que t'as poussé\nce jour-là."
  },
  {
    "label": "Phase3_20F_First08",
    "text": "Nous y voilà. {{delay frames=\"15\"}}C'était donc bien la voix de Perle."
  },
  {
    "label": "Phase3_20F_First09",
    "text": "C'est ça qui te turlupinait ?"
  },
  {
    "label": "Phase3_20F_First10",
    "text": "Oui. Maintenant, j'en suis certaine.{{delay frames=\"30\"}}\nAlors... {{delay frames=\"15\"}}Merci, Perle."
  },
  {
    "label": "Phase3_20F_First11",
    "text": "Hein ?{{delay frames=\"15\"}} Merci pour quoi ?{{delay frames=\"30\"}}\nDe rien, en tout cas !"
  },
  {
    "label": "Phase3_25F_First00",
    "text": "Pff... {{delay frames=\"15\"}}Sacrée grimpette, jusque-là !{{delay frames=\"30\"}}\nOn doit plus être loin du sommet, si ?"
  },
  {
    "label": "Phase3_25F_First01",
    "text": "Huit ! Perle !{{delay frames=\"15\"}} Grande nouvelle !{{delay frames=\"30\"}}\nOn a découvert où était Minusque !"
  },
  {
    "label": "Phase3_25F_First02",
    "text": "Sérieux ? {{delay frames=\"15\"}}Oh, non !{{delay frames=\"30\"}} Comme on l'a pas encore vu,\nça veut dire qu'il est..."
  },
  {
    "label": "Phase3_25F_First03",
    "text": "Tout juste. {{delay frames=\"30\"}}Minusque est dans la salle de contrôle\nau dernier étage."
  },
  {
    "label": "Phase3_25F_First04",
    "text": "BEN VOYONS !"
  },
  {
    "label": "Phase3_25F_First05",
    "text": "J'aime pas ça, mais on a pas le choix.{{delay frames=\"30\"}}\nPrépare-toi pour le moment de vérité, Huit !"
  },
  {
    "label": "Phase3_29F_NotClr00_00",
    "text": "Enfin le dernier étage.{{delay frames=\"30\"}} Vous croyez que cette andouille\nde Minusque est là ?"
  },
  {
    "label": "Phase3_29F_NotClr00_01",
    "text": "Ouais. {{delay frames=\"15\"}}Je crois qu'il s'est terré dans la salle\nde contrôle."
  },
  {
    "label": "Phase3_29F_NotClr00_02",
    "text": "J'espère qu'il nous laissera reconfigurer la palette\nen paix... {{delay frames=\"30\"}}Mais je ne me fais pas d'illusion."
  },
  {
    "label": "Phase3_29F_NotClr00_03",
    "text": "On risque de devoir lui remettre une trempe, une fois\nde plus.{{delay frames=\"30\"}} Prépare-toi, Huit !"
  },
  {
    "label": "Phase3_29F_NotClr01_00",
    "text": "Dernier étage en vue. Dix contre un que Minusque va\nde nouveau essayer de nous arrêter."
  },
  {
    "label": "Phase3_29F_NotClr01_01",
    "text": "À votre avis, pourquoi il est aussi obsédé par\nson « monde d'ordre » ?"
  },
  {
    "label": "Phase3_29F_NotClr01_02",
    "text": "Si on savait d'où venait Minusque, {{delay frames=\"15\"}}ou devrais-je\ndire l'Ordre, on comprendrait mieux."
  },
  {
    "label": "Phase3_29F_NotClr01_03",
    "text": "Il n'a pas l'air disposé à nous dévoiler ses secrets."
  },
  {
    "label": "Phase3_29F_NotClr01_04",
    "text": "Pas grave. On est là pour reconfigurer la palette,\net basta. {{delay frames=\"30\"}}Après toi, Huit !"
  },
  {
    "label": "Phase3_29F_NotClr02_00",
    "text": "On approche de la salle de contrôle, mais..."
  },
  {
    "label": "Phase3_29F_NotClr02_01",
    "text": "On va devoir se retaper Minusque, c'est ça ?{{pageBreak}}Il va nous faire le coup à chaque fois jusqu'à\nce qu'on ait reconfiguré toutes les palettes ?"
  },
  {
    "label": "Phase3_29F_NotClr02_02",
    "text": "À moins qu'il ne décide d'abandonner, c'est à craindre,\nen effet."
  },
  {
    "label": "Phase3_29F_NotClr02_03",
    "text": "GRRR ! C'est pas vrai ! {{delay frames=\"30\"}}Nouveau plan, Huit : cette fois,\non essaie de le convaincre de nous lâcher la grappe et\nde reconfigurer en paix !"
  },
  {
    "label": "Phase3_29F_NotClr03_00",
    "text": "Vous vous rappelez ce qu'a dit Minusque, comme\nquoi « tout le monde a participé à la création\ndu Poulpivers » ?{{pageBreak}}Je croyais que c'était Coralie qui avait construit cette\ntour.{{delay frames=\"30\"}} Qu'est-ce qu'il voulait dire par « tout le monde »\nexactement ?"
  },
  {
    "label": "Phase3_29F_NotClr03_01",
    "text": "J'avais bien recruté quelques développeurs Octalings\npour m'aider à concevoir le Poulpivers...{{delay frames=\"30\"}} Mais je pense\npas qu'il faisait référence à ça..."
  },
  {
    "label": "Phase3_29F_NotClr03_02",
    "text": "Il y a peut-être un lien entre ces développeurs\net Minusque."
  },
  {
    "label": "Phase3_29F_NotClr03_03",
    "text": "Le plus simple, c'est d'aller lui demander directement !"
  },
  {
    "label": "Phase3_29F_NotClr04_00",
    "text": "Alors l'Ordre serait l'incarnation du désir des\ndéveloppeurs du Poulpivers de vivre dans\nun monde immuable ?"
  },
  {
    "label": "Phase3_29F_NotClr04_01",
    "text": "Mais qui rêverait d'une chose pareille ?"
  },
  {
    "label": "Phase3_29F_NotClr04_02",
    "text": "Il faut espérer que Minusque nous le dira...\nMais c'est pas gagné."
  },
  {
    "label": "Phase3_29F_NotClr04_03",
    "text": "Mon intuition me dit que ce n'est pas la dernière fois que\nnous le voyons. {{delay frames=\"30\"}}Qui sait, sa langue finira peut-être par\nse délier ?"
  },
  {
    "label": "Phase3_29F_NotClr05_00",
    "text": "Si j'ai bien compris ce qu'il nous a sorti la dernière fois,\nMinusque pense que je lui ai fait un coup fourré..."
  },
  {
    "label": "Phase3_29F_NotClr05_01",
    "text": "S'il est bien l'émanation du désir des développeurs\ndu Poulpivers, il considère peut-être que Coralie fait\npartie de sa famille.{{pageBreak}}Et si... Et si Minusque faisait toutes ces histoires\nsimplement parce qu'il n'arrive pas à faire comprendre\nà Coralie ce qu'il veut ?"
  },
  {
    "label": "Phase3_29F_NotClr05_02",
    "text": "Ça changerait quoi ? {{delay frames=\"15\"}}De toute façon, on va pas\nle laisser gagner !"
  },
  {
    "label": "Phase3_29F_NotClr05_03",
    "text": "Faudrait pas oublier qu'on est là pour reconfigurer\nune palette. {{delay frames=\"30\"}}En avant, Huit !"
  },
  {
    "label": "Phase3_29F_NotClr06_00",
    "text": "C'est vrai, ce qu'a dit Minusque... Le monde des Octalings\na beaucoup changé en une petite poignée d'années."
  },
  {
    "label": "Phase3_29F_NotClr06_01",
    "text": "Il n'est guère étonnant que les développeurs du\nPoulpivers aient un peu de mal à s'adapter."
  },
  {
    "label": "Phase3_29F_NotClr06_02",
    "text": "Ouais, ça se comprend... Quand la vie change tout\nd'un coup, on est toujours un peu paumé..."
  },
  {
    "label": "Phase3_29F_NotClr06_03",
    "text": "Mais si ça change en mieux, où est le problème ?{{delay frames=\"30\"}}\nY en a pas ! Rien du tout, zéro souci !"
  },
  {
    "label": "Phase3_29F_NotClr06_04",
    "text": "Et toi, Huit, t'en penses quoi ?"
  },
  {
    "label": "Phase3_29F_NotClr07_00",
    "text": "On a un bon rythme pour reconfigurer les palettes,\npas vrai ?"
  },
  {
    "label": "Phase3_29F_NotClr07_01",
    "text": "Ouais !{{delay frames=\"15\"}} Faut qu'on continue sur cette lancée !"
  },
  {
    "label": "Phase3_29F_NotClr07_02",
    "text": "Parmi toutes les palettes que j'ai détectées dans le\nPoulpivers,{{delay frames=\"15\"}} on a dû en reconfigurer plus de la moitié !"
  },
  {
    "label": "Phase3_29F_NotClr07_03",
    "text": "La classe ! {{delay frames=\"15\"}}Eh ben, tu peux ajouter celle-là !"
  },
  {
    "label": "Phase3_29F_NotClr08_00",
    "text": "Regardez : on est déjà au dernier étage !{{delay frames=\"30\"}}\nÇa, c'était une ascension rondement menée\nou je m'y connais pas !"
  },
  {
    "label": "Phase3_29F_NotClr08_01",
    "text": "Il ne reste plus qu'à s'occuper de Minusque et\nreconfigurer la palette."
  },
  {
    "label": "Phase3_29F_NotClr08_02",
    "text": "Pff, ça fait combien de fois qu'on lui pulvérise la face,\nà ce gringalet ?{{delay frames=\"30\"}} Quand est-ce qu'il va se décider à\nlâcher l'affaire ?"
  },
  {
    "label": "Phase3_29F_NotClr08_03",
    "text": "Un jour, peut-être. {{delay frames=\"15\"}}Mais sûrement jamais."
  },
  {
    "label": "Phase3_29F_NotClr09_00",
    "text": "Décidément, ce Minusque à la noix a pas l'intention\nde nous laisser reconfigurer les palettes."
  },
  {
    "label": "Phase3_29F_NotClr09_01",
    "text": "Ouais, c'est bizarre. C'est pas comme s'il avait le\nmoindre rapport avec notre mission, en plus."
  },
  {
    "label": "Phase3_29F_NotClr09_02",
    "text": "Alors pourquoi il traîne toujours dans nos pattes ?{{delay frames=\"30\"}}\nIl a tellement envie de se venger ?"
  },
  {
    "label": "Phase3_29F_NotClr09_03",
    "text": "Hé hé hé..."
  },
  {
    "label": "Phase3_29F_NotClr09_04",
    "text": "On peut savoir ce qui te fait marrer, Eyte ?"
  },
  {
    "label": "Phase3_29F_NotClr09_05",
    "text": "C'est pas à moi que tu devrais demander.{{delay frames=\"30\"}}\nC'est à Minusque."
  },
  {
    "label": "Phase3_29F_NotClr10_00",
    "text": "Nous y voilà. {{delay frames=\"15\"}}La dernière palette."
  },
  {
    "label": "Phase3_29F_NotClr10_01",
    "text": "Une fois qu'on aura reconfiguré la palette de Huit,\non pourra enfin souffler un peu !"
  },
  {
    "label": "Phase3_29F_NotClr10_02",
    "text": "Huit, Perle, Eyte... {{delay frames=\"15\"}}Vous pouvez pas savoir à quel point\nje vous suis reconnaissante !"
  },
  {
    "label": "Phase3_29F_NotClr10_03",
    "text": "Réserve tes remerciements pour la victoire !"
  },
  {
    "label": "Phase3_29F_NotClr10_04",
    "text": "Faut d'abord qu'on reconfigure la palette de Huit.{{delay frames=\"30\"}}\nAllez, Huit, c'est l'heure de vérité !"
  },
  {
    "label": "Phase3_29F_ClearedPlt00_00",
    "text": "Youhou !{{delay frames=\"15\"}} Plus qu'un étage !"
  },
  {
    "label": "Phase3_29F_ClearedPlt00_01",
    "text": "Un étage où il faudra affronter Minusque."
  },
  {
    "label": "Phase3_29F_ClearedPlt00_02",
    "text": "Ouais, on va pas y échapper. {{delay frames=\"30\"}}Mais je suis confiante.{{delay frames=\"15\"}}\nOn l'a déjà battu, on le battra encore !"
  },
  {
    "label": "Phase3_29F_ClearedPlt01_00",
    "text": "Ouah, quelle ascension !\n{{delay frames=\"30\"}}Prochain arrêt, le dernier étage !"
  },
  {
    "label": "Phase3_29F_ClearedPlt01_01",
    "text": "Cette andouille de Minusque va sûrement se faire\nun devoir de nous enquiquiner. {{delay frames=\"15\"}}Mais on va lui régler\nson compte en deux temps, trois mouvements !"
  },
  {
    "label": "Phase3_29F_ClearedPlt01_02",
    "text": "C'est très bien, la confiance. {{delay frames=\"15\"}}Tant qu'on en a pas trop."
  },
  {
    "label": "Phase3_29F_ClearedPlt02_00",
    "text": "On arrive au dernier étage."
  },
  {
    "label": "Phase3_29F_ClearedPlt02_01",
    "text": "Minusque doit se préparer à la bagarre."
  },
  {
    "label": "Phase3_29F_ClearedPlt02_02",
    "text": "Si c'est la bagarre qu'il veut, il l'aura !{{delay frames=\"30\"}}\nPrépare tes armes, Huit,{{delay frames=\"15\"}} on fonce dans le tas !"
  },
  {
    "label": "Phase3_29F_Complete00_00",
    "text": "On enchaîne les victoires, dites donc !{{delay frames=\"15\"}} Ça s'arrête plus !"
  },
  {
    "label": "Phase3_29F_Complete00_01",
    "text": "C'est la combientième fois qu'on atteint le sommet ?"
  },
  {
    "label": "Phase3_29F_Complete00_02",
    "text": "Oh, ça fait un bail que j'ai arrêté de compter."
  },
  {
    "label": "Phase3_29F_Complete01_00",
    "text": "C'est la dernière étape. {{delay frames=\"15\"}}La salle de contrôle."
  },
  {
    "label": "Phase3_29F_Complete01_01",
    "text": "Vous croyez que Minusque sera de nouveau là ?"
  },
  {
    "label": "Phase3_29F_Complete01_02",
    "text": "Je crois pas qu'il ait l'intention de partir.{{delay frames=\"30\"}}\nC'est un peu son chez-lui, ici !"
  },
  {
    "label": "Phase3_29F_Complete02_00",
    "text": "Déjà le dernier étage ?"
  },
  {
    "label": "Phase3_29F_Complete02_01",
    "text": "Minusque doit nous attendre de pied ferme."
  },
  {
    "label": "Phase3_29F_Complete02_02",
    "text": "Oh ? Tu crois qu'il a des pieds ?"
  },
  {
    "label": "Phase3_PreBoss_00_00",
    "text": "Le prochain étage s'annonce compliqué.{{delay frames=\"30\"}}\nFaites attention à vous !"
  },
  {
    "label": "Phase3_PreBoss_00_01",
    "text": "Oui, ne prenez pas de risques inutiles."
  },
  {
    "label": "Phase3_PreBoss_00_02",
    "text": "Ouais ouais, c'est bon, on sait. {{delay frames=\"15\"}}Viens, Huit,\non va s'amuser un peu !"
  },
  {
    "label": "Phase3_PreBoss_01_00",
    "text": "Le boss du prochain étage a intérêt à faire gaffe !{{delay frames=\"30\"}}\nMoi et mon staff,{{delay frames=\"15\"}} on va écrire son épitaphe{{delay frames=\"15\"}} à grands\ncoups de baffes ! {{delay frames=\"30\"}}Comptez sur nous, c'est notre taf !"
  },
  {
    "label": "Phase3_PreBoss_01_01",
    "text": "La vache ! T'as la pêche, Perle !"
  },
  {
    "label": "Phase3_PreBoss_01_02",
    "text": "Hmm... {{delay frames=\"15\"}}Eh bien, bonne chance alors."
  },
  {
    "label": "Phase3_PreBoss_02_00",
    "text": "C'est un défi ardu qui vous attend au prochain étage.{{delay frames=\"30\"}}\nNe sous-estimez pas l'ennemi, surtout."
  },
  {
    "label": "Phase3_PreBoss_02_01",
    "text": "Ouais ! Faut pas vendre le tentacule du calamar\navant de l'avoir liquidé !"
  },
  {
    "label": "Phase3_PreBoss_02_02",
    "text": "C'est bon, arrêtez de baliser !{{delay frames=\"30\"}}\nHuit et moi, on en a vu d'autres !"
  },
  {
    "label": "Phase3_PostBoss_00_00",
    "text": "Ouf ! Vous avez rien !"
  },
  {
    "label": "Phase3_PostBoss_00_01",
    "text": "Félicitations, c'était beau à voir.{{delay frames=\"15\"}} Mais je n'en attendais\npas moins de votre part."
  },
  {
    "label": "Phase3_PostBoss_00_02",
    "text": "On en a fait qu'une bouchée, de ce boss !{{delay frames=\"15\"}}\nIl est pas près d'oublier cette journée, je vous le dis !"
  },
  {
    "label": "Phase3_PostBoss_01_00",
    "text": "Ha ha ha ! {{delay frames=\"30\"}}Encore un boss de pacotille{{delay frames=\"15\"}} qu'on éparpille !{{delay frames=\"15\"}}\nLes victoires, on les enquille !{{delay frames=\"15\"}} Quand on débarque en\nescadrille,{{delay frames=\"15\"}} personne nous arrive à la cheville !"
  },
  {
    "label": "Phase3_PostBoss_01_01",
    "text": "Vous assurez comme des bêtes !"
  },
  {
    "label": "Phase3_PostBoss_01_02",
    "text": "J'avoue. {{delay frames=\"15\"}}Heureusement qu'on est dans le même camp."
  },
  {
    "label": "Phase3_PostBoss_02_00",
    "text": "C'était incroyable, Huit. {{delay frames=\"30\"}}Je savais que tu avais\ndu talent, mais pas à ce point."
  },
  {
    "label": "Phase3_PostBoss_02_01",
    "text": "Ah ben quand même, t'as fini par piger !{{delay frames=\"30\"}}\nHuit est incroyable !"
  },
  {
    "label": "Phase3_PostBoss_02_02",
    "text": "Et Perle est incroyable de chez incroyablement\nincroyable ! {{delay frames=\"30\"}}T'es pas d'accord, Eyte ?"
  },
  {
    "label": "Phase3_PostBoss_02_03",
    "text": "Euh... {{delay frames=\"15\"}}si.{{delay frames=\"15\"}} Si si, bien sûr."
  },
  {
    "label": "Phase3_PostBoss_03_00",
    "text": "À vous voir, on dirait presque que c'est facile.{{delay frames=\"30\"}}\nIls vous font pas peur, ces monstres ?"
  },
  {
    "label": "Phase3_PostBoss_03_01",
    "text": "Ils sont pénibles, mais de là à avoir peur...{{delay frames=\"30\"}}\nLe combat contre Coralie dans la première tour,\nça, ça filait la frousse !"
  },
  {
    "label": "Phase3_PostBoss_03_02",
    "text": "Hein ? {{delay frames=\"30\"}}Tu... Tu le penses vraiment ?"
  },
  {
    "label": "Phase3_PostBoss_03_03",
    "text": "Évidemment ! {{delay frames=\"30\"}}Je me demandais si t'allais rester comme\nça pour toujours... {{delay frames=\"30\"}}Y avait de quoi flipper !"
  },
  {
    "label": "Phase3_PostBoss_03_04",
    "text": "Oh, ma p'tite Perle !"
  },
  {
    "label": "Phase3_PostBoss_03_05",
    "text": "Hum... {{delay frames=\"30\"}}Heureusement que t'es là, Huit,\nsinon je me sentirais un peu seule ici, parfois."
  },
  {
    "label": "Phase3_Chat_00_00",
    "text": "Tu as cette arme dans la peau, manifestement."
  },
  {
    "label": "Phase3_Chat_00_01",
    "text": "D'ailleurs, il y a une arme double dans ma palette, pas\nvrai ?{{delay frames=\"30\"}} Je la maîtrise à 1 000 %, ça fait plaisir de voir\nque Huit l'a choisie !"
  },
  {
    "label": "Phase3_Chat_00_02",
    "text": "C'est ça, une arme double ! {{delay frames=\"30\"}}En fait, chaque palette est\nautomatiquement associée à l'arme préférée de l'âme de\nson propriétaire."
  },
  {
    "label": "Phase3_Chat_00_03",
    "text": "Ah ouais ?{{delay frames=\"30\"}} Ça explique pourquoi c'est un para-encre\npour toi !"
  },
  {
    "label": "Phase3_Chat_00_04",
    "text": "Je n'avais jamais entendu parler de para-encres, avant."
  },
  {
    "label": "Phase3_Chat_00_05",
    "text": "Normal, ça vient de sortir !{{delay frames=\"15\"}} Enfin, plus ou moins.\nÇa fait quelques années, quoi."
  },
  {
    "label": "Phase3_Chat_00_06",
    "text": "En fait, tu ouvres le para-encre, et bim !{{delay frames=\"15\"}} T'y vas en\nmode « paf » et puis « vlan » !{{delay frames=\"30\"}} Tu devrais essayer !"
  },
  {
    "label": "Phase3_Chat_00_07",
    "text": "Euh... {{delay frames=\"15\"}}super... ?"
  },
  {
    "label": "Phase3_Chat_01_00",
    "text": "OK.{{delay frames=\"30\"}} Là, on rentre dans le dur !"
  },
  {
    "label": "Phase3_Chat_01_01",
    "text": "Je ne sais pas ce que vous en pensez, mais moi,\nje ne peux plus voir ces Squelécailles en peinture."
  },
  {
    "label": "Phase3_Chat_01_02",
    "text": "À l'origine, c'était le personnel de la tour...{{delay frames=\"15\"}}\nMais l'Ordre les a modifiés, et vous avez vu le résultat."
  },
  {
    "label": "Phase3_Chat_01_03",
    "text": "Dans mon design de base, ils étaient mignons à croquer !"
  },
  {
    "label": "Phase3_Chat_01_04",
    "text": "Va falloir te croire sur parole, sur ce coup-là...\nParce que maintenant, ils ficheraient plutôt la trouille."
  },
  {
    "label": "Phase3_Chat_01_05",
    "text": "Pff... {{delay frames=\"15\"}}Si seulement tu pouvais les voir comme\nils sont censés être ! Tu fondrais sur place !"
  },
  {
    "label": "Phase3_Chat_02_00",
    "text": "Hé, Eyte !{{delay frames=\"15\"}} Tu te souviens du petit jeu que j'avais\ncodé à l'école ?{{delay frames=\"30\"}} Y a que toi qui avais réussi à le finir !"
  },
  {
    "label": "Phase3_Chat_02_01",
    "text": "Ah oui, le jeu de rythme qui tournait à 900 battements\npar minute au bas mot...{{delay frames=\"30\"}} Je m'en souviens... {{delay frames=\"30\"}}Et j'ai\nla tête qui tourne rien que d'y penser."
  },
  {
    "label": "Phase3_Chat_02_02",
    "text": "Eh ben figure-toi que j'ai pondu une suite\nencore plus hardcore."
  },
  {
    "label": "Phase3_Chat_02_03",
    "text": "Tu plaisantes ?{{delay frames=\"15\"}} Mais pourquoi t'as fait ça ? {{delay frames=\"30\"}}Je t'ai\ndit et répété qu'il fallait rendre le timing plus permissif\net réduire le nombre de notes !"
  },
  {
    "label": "Phase3_Chat_02_04",
    "text": "Ouais, mais... {{delay frames=\"15\"}}J'ai eu peur que ça soit trop facile.{{delay frames=\"15\"}}\nEt puis Perle l'a terminé avec une main dans la poche,\nalors bon..."
  },
  {
    "label": "Phase3_Chat_02_05",
    "text": "Ton truc où il fallait appuyer sur un bouton quand\non entendait un son ?{{delay frames=\"30\"}} C'était censé être dur, ça ?"
  },
  {
    "label": "Phase3_Chat_02_06",
    "text": "J'aurai tout entendu."
  },
  {
    "label": "Phase3_Chat_03_00",
    "text": "Hé, Eyte !{{delay frames=\"15\"}} Tu peux me raconter une anecdote\nmarrante à propos de Coralie ?"
  },
  {
    "label": "Phase3_Chat_03_01",
    "text": "Mais... {{delay frames=\"15\"}}Je... {{delay frames=\"15\"}}Perle !"
  },
  {
    "label": "Phase3_Chat_03_02",
    "text": "Voyons... {{delay frames=\"30\"}}Ah oui, il y a la fois où elle a épilogué toute\nseule sur les pelleteuses pendant deux heures."
  },
  {
    "label": "Phase3_Chat_03_03",
    "text": "Deux heures, sérieux ?{{delay frames=\"15\"}} Eh bien, Coralie, tu faisais des\ntopos beaucoup plus courts qu'aujourd'hui !"
  },
  {
    "label": "Phase3_Chat_03_04",
    "text": "J'y connaissais rien... {{delay frames=\"30\"}}Mais maintenant, je maîtrise\nle sujet ! Vous imaginez pas les techniques de pelletage\nultra sophistiquées qu'ils développent en ce mo..."
  },
  {
    "label": "Phase3_Chat_03_05",
    "text": "Je crois qu'il est temps d'attaquer le prochain\nétage, Huit."
  },
  {
    "label": "Phase3_Chat_04_00",
    "text": "Dire que notre tournée mondiale est déjà terminée...{{delay frames=\"30\"}}\nC'était trop bien ! {{delay frames=\"30\"}}On pourrait pas en refaire une ?"
  },
  {
    "label": "Phase3_Chat_04_01",
    "text": "Vos concerts étaient fascinants.{{delay frames=\"30\"}} Et le public avait l'air...{{delay frames=\"15\"}}\nlittéralement en transe."
  },
  {
    "label": "Phase3_Chat_04_02",
    "text": "En transe ? {{delay frames=\"15\"}}Et si..."
  },
  {
    "label": "Phase3_Chat_04_03",
    "text": "Tu penses à quoi, Coralie ?"
  },
  {
    "label": "Phase3_Chat_04_04",
    "text": "Et si la voix de Perle pendant la bataille contre l'Ordre\navait pénétré l'inconscient des esprits qui accèdent au\nPoulpivers ?{{delay frames=\"15\"}} C'est peu probable, mais en théorie... {{size value=\"75\"}}humm...{{size value=\"100\"}}"
  },
  {
    "label": "Phase3_Chat_04_05",
    "text": "Ce qui est sûr, c'est que la voix de Perle ne laisse\npersonne indifférent."
  },
  {
    "label": "Phase3_Chat_05_00",
    "text": "Dis, Eyte...{{delay frames=\"15\"}} Les gens m'en ont voulu quand j'ai quitté\nle monde des Octalings ?"
  },
  {
    "label": "Phase3_Chat_05_01",
    "text": "Je ne dirais pas ça, non... {{delay frames=\"15\"}}Disons qu'ils étaient choqués.{{delay frames=\"30\"}}\nUne soldate d'élite qui disparaît du jour au lendemain..."
  },
  {
    "label": "Phase3_Chat_05_02",
    "text": "Ha ha !{{delay frames=\"15\"}} C'est tout Coralie, ça ! Quand elle a une idée\nen tête, c'est même pas la peine d'essayer de la faire\nchanger d'avis !"
  },
  {
    "label": "Phase3_Chat_05_03",
    "text": "Je me suis pas rendu compte sur le moment...{{delay frames=\"30\"}}\nDésolée de m'être volatilisée comme ça..."
  },
  {
    "label": "Phase3_Chat_05_04",
    "text": "Inutile de t'excuser. {{delay frames=\"30\"}}J'ai réussi à m'en remettre...\nplus ou moins."
  },
  {
    "label": "Phase3_Chat_05_05",
    "text": "Si quelqu'un ose parler mal de Coralie, ça va chauffer\npour son matricule !{{delay frames=\"30\"}} Et c'est valable aussi pour ses\n« super potes » de l'époque !"
  },
  {
    "label": "Phase3_Chat_05_06",
    "text": "Merci, Perle.{{delay frames=\"30\"}} Ça me va droit au cœur !"
  },
  {
    "label": "Phase3_Chat_06_00",
    "text": "Hé, Coralie !{{delay frames=\"15\"}} T'imagines si cet ascenseur montait et\ndescendait à fond la caisse, façon parc d'attraction ?"
  },
  {
    "label": "Phase3_Chat_06_01",
    "text": "Perle ! {{delay frames=\"15\"}}Cet ascenseur a été conçu pour rendre service\naux gens, pas pour les faire dégobiller."
  },
  {
    "label": "Phase3_Chat_07_00",
    "text": "Pff..."
  },
  {
    "label": "Phase3_Chat_07_01",
    "text": "Qu'est-ce qui t'arrive, Coralie ?{{delay frames=\"15\"}}\nT'as un coup de pompe ?"
  },
  {
    "label": "Phase3_Chat_07_02",
    "text": "Oh, pardon ! {{delay frames=\"30\"}}Non, j'étais juste perdue dans mes pensées.\nJe me disais que t'étais mimi comme tout sous forme\nde drone."
  },
  {
    "label": "Phase3_Chat_07_03",
    "text": "Bon... J'imagine que tout va bien, alors."
  },
  {
    "label": "Phase3_Chat_08_00",
    "text": "Oh nan ! Je veux pas vous faire paniquer, mais...{{delay frames=\"30\"}}\nje crois bien que j'ai oublié mon parapluie dans l'avion !"
  },
  {
    "label": "Phase3_Chat_08_01",
    "text": "Quoi ?{{delay frames=\"15\"}} Celui qu'on a pris en rentrant de tournée ?"
  },
  {
    "label": "Phase3_Chat_08_02",
    "text": "Passe un coup de fil à l'aéroport, ils pourront\nsans doute t'aider."
  },
  {
    "label": "Phase3_Chat_08_03",
    "text": "Nan, c'est bon. {{delay frames=\"15\"}}Si je l'ai oublié dans l'avion, il sera\ntoujours dans la cour. J'aurai juste à le récupérer\nen rentrant."
  },
  {
    "label": "Phase3_Chat_08_04",
    "text": "Un avion dans la cour ?{{delay frames=\"30\"}}\nOn parle bien de la même chose ?"
  },
  {
    "label": "Phase3_Chat_09_00",
    "text": "Mon moi dronesque peut s'envoler et regarder Coralie de\nsuper haut !{{delay frames=\"30\"}} On dirait un tout petit point, trop drôle !"
  },
  {
    "label": "Phase3_Chat_09_01",
    "text": "Fais juste gaffe à pas te faire emporter par\nune bourrasque si tu montes trop haut..."
  },
  {
    "label": "Hint_CollectionEnm_00",
    "text": "Continue comme ça, Huit !"
  },
  {
    "label": "Hint_CollectionEnm_01",
    "text": "Au fait, je voulais vous parler du {{color id=\"4\"}}guide des Squelécailles{{color id=\"65535\"}}.{{delay frames=\"15\"}}\nC'est un guide qui rassemble toutes les données qu'on a\npu collecter pendant les combats..."
  },
  {
    "label": "Hint_CollectionEnm_02",
    "text": "Il contient aussi des notes sur leur comportement,\nleurs points faibles, etc. C'est dans {{icon id=\"82\" arg=\"0x0000803F00000000\"}} que ça se\npasse, au cas où ça t'intéresse."
  },
  {
    "label": "Hint_SelectTip_00",
    "text": "Bien joué, Huit ! Tu fais des étincelles aujourd'hui !"
  },
  {
    "label": "Hint_SelectTip_01",
    "text": "Au fait, vous savez quoi ?{{delay frames=\"15\"}} Chaque palette a certaines\n{{color id=\"4\"}}teintes communes{{color id=\"65535\"}} qui déterminent quelles puces\nchromatiques on trouvera dans la tour."
  },
  {
    "label": "Hint_SelectTip_02",
    "text": "Et si t'appuies sur {{icon id=\"72\" arg=\"0x0000803F00000000\"}}, tu peux voir quelles teintes\nt'as le plus de chances de trouver pour ta palette\nactuelle !"
  },
  {
    "label": "Hint_SelectTip_03",
    "text": "En règle générale, si tu sais pas quelle puce chromatique\nchoisir, les teintes communes sont un bon choix par\ndéfaut."
  },
  {
    "label": "Hint_Cage_00",
    "text": "T'as un bon rythme, Huit !"
  },
  {
    "label": "Hint_Cage_01",
    "text": "À propos de rythme... {{delay frames=\"15\"}}tu savais que tu pouvais accélérer\nla cage en inclinant {{icon id=\"75\" arg=\"0xEC51383FFEFFFFFF\"}} ?"
  },
  {
    "label": "Hint_Cage_02",
    "text": "C'est pas un problème de la laisser aller à la vitesse\nnormale,{{delay frames=\"15\"}} mais si t'es à la bourre, hésite pas à passer\nla seconde !"
  },
  {
    "label": "Hint_LookPalette_00",
    "text": "Yes ! On est au taquet !"
  },
  {
    "label": "Hint_LookPalette_01",
    "text": "Quelle puce chromatique on va choper ensuite ?{{delay frames=\"30\"}}\nJ'espère que ce sera du lourd !"
  },
  {
    "label": "Hint_LookPalette_02",
    "text": "Rien ne vous empêche de prendre une puce que vous\navez déjà. {{delay frames=\"30\"}}En fait, certaines puces chromatiques ne\ndévoilent tout leur potentiel que quand on en a plusieurs."
  },
  {
    "label": "Hint_LookPalette_03",
    "text": "Si tu sais plus quelles puces chromatiques t'as choisies\njusqu'ici, {{delay frames=\"15\"}}rafraichis-toi la mémoire en appuyant\nsur {{icon id=\"72\" arg=\"0x0000803F00000000\"}} !"
  },
  {
    "label": "Hint_HackingRetry_00",
    "text": "Ça y est ! {{delay frames=\"15\"}}Mais il est pas encore temps de rentrer\nà la maison, Huit."
  },
  {
    "label": "Hint_HackingRetry_01",
    "text": "Tu sais, Huit, {{delay frames=\"15\"}}même si t'atteins pas le sommet,\non enregistre quand même toutes les ascensions.{{pageBreak}}En me parlant à l'extérieur de la tour, tu peux\n{{color id=\"4\"}}reprendre {{color id=\"65535\"}}une ascension qui s'est mal terminée !"
  },
  {
    "label": "Hint_HackingRetry_02",
    "text": "On a rien à perdre, du coup !{{delay frames=\"30\"}} Autant foncer dans le tas\njusqu'à ce que ça passe !{{delay frames=\"15\"}} Hé hé hé !"
  },
  {
    "label": "Hint_HackingRetry_03",
    "text": "« Que ça passe », ou « que ça casse » ?\nCette tactique me semble hasardeuse."
  },
  {
    "label": "Hint_CollectionInElv_00",
    "text": "C'est bon. {{delay frames=\"15\"}}Vous avancez bien. {{delay frames=\"30\"}}Récupérez encore plus\nde puces chromatiques et vous continuerez sur cette\nlancée."
  },
  {
    "label": "Hint_CollectionInElv_01",
    "text": "D'ailleurs, à ce sujet... {{delay frames=\"15\"}}On rassemble des informations\nsur les puces que vous avez obtenues dans la {{color id=\"4\"}}collection\nde puces chromatiques{{color id=\"65535\"}}."
  },
  {
    "label": "Hint_CollectionInElv_02",
    "text": "Et tu peux la consulter depuis l'ascenseur\nen appuyant sur {{icon id=\"82\" arg=\"0x0000803F00000000\"}}, Huit !"
  },
  {
    "label": "Hint_CollectionInElv_03",
    "text": "Cool ! {{delay frames=\"15\"}}Je me demande quelles infos croustillantes on\nva trouver là-dedans ! {{delay frames=\"30\"}}Pense à y jeter un œil de temps\nen temps, Huit !"
  },
  {
    "label": "Hint_Difficulty_02",
    "text": "T'es au courant que tu empoches plus de poulpèzes\npour les étages les plus difficiles, Huit ?"
  },
  {
    "label": "Hint_Difficulty_03",
    "text": "Alors si tu te retrouves à court, hésite pas à nettoyer\nquelques étages un peu plus tendus que la moyenne,\nhistoire de te renflouer !"
  },
  {
    "label": "Hint_Difficulty_05",
    "text": "Tout ça me rappelle un vieux bonhomme que j'ai connu et\nqui disait toujours : {{delay frames=\"15\"}}« si tu veux gagner gros, il faut\npimenter ton jeu », ou quelque chose de cet acabit..."
  },
  {
    "label": "Hint_Difficulty_06",
    "text": "Ha ha ha, oui, je m'en souviens ! {{delay frames=\"30\"}}Après, il se mettait en\nrogne et nous bombardait de racines de wasabi..."
  },
  {
    "label": "Hint_Difficulty_07",
    "text": "Sérieux ? {{delay frames=\"15\"}}Visiblement, les Octalings ont aussi leur\nlot de vieux complètement secoués. {{delay frames=\"30\"}}Tu sais de qui\nelles parlent, Huit ?"
  },
  {
    "label": "Hint_Drone_00",
    "text": "Ça se passe plutôt pas mal, Huit !{{delay frames=\"30\"}} Et sans vouloir me\njeter des fleurs, je me débrouille bien aussi."
  },
  {
    "label": "Hint_Drone_01",
    "text": "Carrément ! {{delay frames=\"30\"}}D'ailleurs, mes hacks peuvent améliorer\nle drone Perle, vous savez.{{pageBreak}}Par exemple, je peux faire en sorte que les {{color id=\"4\"}}puces\nchromatiques{{color id=\"65535\"}} qui donnent des capacités supplémentaires\nà Perle apparaissent plus souvent dans la tour."
  },
  {
    "label": "Hint_Drone_02",
    "text": "Ou alors, je peux ajouter des {{color id=\"4\"}}emplacements d'actions\nde drone{{color id=\"65535\"}} pour que Perle ait plus de façons différentes\nd'utiliser sa jauge du drone."
  },
  {
    "label": "Hint_Drone_03",
    "text": "Sérieux ? {{delay frames=\"15\"}}J'ai hâte d'essayer ça !"
  },
  {
    "label": "Hint_Drone_04",
    "text": "Et encore, c'est que des exemples. Viens me voir hors\nde la tour si tu veux en savoir plus !"
  },
  {
    "label": "Hint_CompleteTip_00",
    "text": "On avance bien !"
  },
  {
    "label": "Hint_CompleteTip_01",
    "text": "Dis, Coralie... {{delay frames=\"15\"}}C'est quoi, ces lignes qui relient certaines\npuces dans la collection de puces chromatiques ?{{delay frames=\"15\"}}\nJe pige rien."
  },
  {
    "label": "Hint_CompleteTip_02",
    "text": "Euh... {{delay frames=\"30\"}}Aucune idée. {{delay frames=\"15\"}}Visiblement, les puces chromatiques\nreliées sont toutes de la même couleur, mais à part ça..."
  },
  {
    "label": "Hint_CompleteTip_03",
    "text": "On en saura peut-être davantage quand on aura installé\nplus de puces chromatiques ? {{delay frames=\"30\"}}Avec un peu de chance,\non découvrira quelque chose d'intéressant..."
  },
  {
    "label": "Hint_CompleteEnm_00",
    "text": "Et encore une victoire de Huit !"
  },
  {
    "label": "Hint_CompleteEnm_01",
    "text": "Tiens, je voulais vous dire : on continue à alimenter\nle guide des Squelécailles à mesure que vous en liquidez."
  },
  {
    "label": "Hint_CompleteEnm_02",
    "text": "Si on rassemble assez d'infos, on pourrait devenir\nles premiers Squelécaillologues de l'histoire !"
  },
  {
    "label": "Hint_CompleteEnm_03",
    "text": "Le rêve... ou pas."
  },
  {
    "label": "Hint_CompleteEnm_04",
    "text": "Les honneurs académiques, je m'en passe, mais\ncontinuez quand même à prendre des notes,\nça pourrait servir !"
  },
  {
    "label": "Hint_FleaMarket_00",
    "text": "Youhou ! {{delay frames=\"15\"}}Les péperles coulent à flot aujourd'hui !"
  },
  {
    "label": "Hint_FleaMarket_01",
    "text": "Au fait, j'ai vu une drôle de boutique à l'extérieur de\nla tour. Visiblement, elle propose du bric-à-brac et\nelle n'accepte que les péperles."
  },
  {
    "label": "Hint_FleaMarket_02",
    "text": "Ah ouais, j'ai vu ! Ça avait l'air top, y avait des objets\nde déco, de l'équipement, et plein de trucs marrants !{{delay frames=\"30\"}}\nFaut y faire un saut si on a des péperles à claquer !"
  },
  {
    "label": "Hint_FleaMarket_03",
    "text": "Hein ?{{delay frames=\"30\"}} Je me souviens pas d'avoir installé une boutique\nquand j'ai conçu le Poulpivers..."
  },
  {
    "label": "Hint_JemHardMode_00",
    "text": "Dis-moi, Huit... {{delay frames=\"30\"}}T'as déjà rêvé d'empocher une tonne\nde péperles en une seule ascension ?"
  },
  {
    "label": "Hint_JemHardMode_01",
    "text": "Si oui, je te conseille la technique de hacking\n{{color id=\"4\"}}Plus ou rien {{color id=\"65535\"}}!"
  },
  {
    "label": "Hint_JemHardMode_02",
    "text": "Il est génial, ce hack ! Il augmente le nombre de\npéperles que tu gagnes en terminant le dernier\nétage de la tour..."
  },
  {
    "label": "Hint_JemHardMode_03",
    "text": "Le hic avec ce hack, c'est que si tu perds en route...{{delay frames=\"15\"}}\nTu gagnes pas la moindre péperle. Rien du tout."
  },
  {
    "label": "Hint_JemHardMode_04",
    "text": "Je vois... En gros, si on gagne, on nage dans la thune...\nEt si on perd, on nage aussi, mais dans la poisse."
  },
  {
    "label": "Hint_JemHardMode_05",
    "text": "Exactement ! D'où le nom, Plus ou rien !\nSi t'as le niveau, ce hack peut rapporter gros !"
  },
  {
    "label": "Hint_JemHardMode_06",
    "text": "Quand tu parles, j'ai l'impression de regarder une pub..."
  },
  {
    "label": "Hint_JemHardMode_07",
    "text": "C'est pas ma faute si je suis une vendeuse née !"
  },
  {
    "label": "Hint_RechooseStage_00",
    "text": "Contente de te revoir, Huit. {{delay frames=\"30\"}}Au besoin, n'hésite pas\nà faire une pause avant de passer à l'étage suivant."
  },
  {
    "label": "Hint_RechooseStage_01",
    "text": "Au fait, Huit... {{delay frames=\"15\"}}Ça t'est déjà arrivé, de passer en revue\nles puces chromatiques et les objectifs, et de te dire\nqu'il y avait rien qui t'inspirait ?"
  },
  {
    "label": "Hint_RechooseStage_02",
    "text": "Dans un cas comme celui-là, appuie sur {{icon id=\"73\" arg=\"0x0000803F00000000\"}} pour\ndéclencher une {{color id=\"4\"}}Réinitialisation de l'étage{{color id=\"65535\"}} et changer\ntoutes les propositions pour une poignée de poulpèzes !"
  },
  {
    "label": "Hint_RechooseStage_03",
    "text": "Mais gaffe ! Réinitialisation de l'étage, c'est pas une\nfonctionnalité de base de la tour ! {{delay frames=\"15\"}}Si t'as pas encore\nce hack dans ta besace, viens me voir à l'extérieur !"
  }
]