[
  {
    "label": "ZakoSmall_UnlockComment_00",
    "text": "J'ai encore jamais rencontré\nce genre de bestiole."
  },
  {
    "label": "ZakoSmall_UnlockComment_02",
    "text": "Ces créatures encrent le terrain\npour faciliter le passage de leurs\ncopains plus costauds.\nDébarrasse-toi-en vite, Huit,\navant qu'ils t'embourbent."
  },
  {
    "label": "ZakoSmall_UnlockComment_03",
    "text": "J'ai remarqué qu'ils deviennent\nplus rapides et agressifs quand on\nles laisse faire. Alors les ignore\npas, surtout qu'ils sont assez\nfastoches à liquider !"
  },
  {
    "label": "ZakoSmall_UnlockComment_04",
    "text": "Alors oui, ils sont petits et pas\ntrès costauds, mais ils peuvent\nêtre extrêmement casse-pieds !\nÉcrase-les, Huit !"
  },
  {
    "label": "ZakoSmall_UnlockComment_Conclusion",
    "text": "Élimine ces nullards !"
  },
  {
    "label": "ZakoStandard_UnlockComment_00",
    "text": "J'ai encore jamais rencontré\nce genre de bestiole."
  },
  {
    "label": "ZakoStandard_UnlockComment_02",
    "text": "Ces bestioles sont un peu plus\ncoriaces, et elles recouvriront\nton encre si tu les laisses faire.\nEt donc, ne les laisse pas faire."
  },
  {
    "label": "ZakoStandard_UnlockComment_03",
    "text": "Elles sont à peu près aussi\nrésistantes que les cibles à ta\ndisposition, si ça peut t'aider\nà te faire une idée."
  },
  {
    "label": "ZakoStandard_UnlockComment_04",
    "text": "Les laisse surtout pas t'assaillir\nen bande ! Traite-les comme de\nvulgaires cibles à éliminer aussi\nvite que possible, Huit !"
  },
  {
    "label": "ZakoStandard_UnlockComment_Conclusion",
    "text": "Des cibles lentes à éliminer vite !"
  },
  {
    "label": "ZakoLarge_UnlockComment_00",
    "text": "J'ai encore jamais rencontré\nce genre de bestiole."
  },
  {
    "label": "ZakoLarge_UnlockComment_02",
    "text": "Ne les laisse pas s'approcher, ou\nleur attaque plongeante piquera !\nMais au moins, ils n'encrent pas,\nalors attire-les sur ton terrain et\nune fois affaiblis, élimine-les."
  },
  {
    "label": "ZakoLarge_UnlockComment_03",
    "text": "Parfois ils transportent des potes\nsur leur dos, parfois ils les dégagent\ndu chemin... j'ai connu plus fiables\ncomme alliés. Ah, et ils ont l'air\nobnubilés par les boules ∞."
  },
  {
    "label": "ZakoLarge_UnlockComment_04",
    "text": "Laisse surtout pas ces balourds\nte rentrer dedans ! Le mieux,\nc'est d'encrer le terrain devant\neux, et de rigoler en les regardant\ns'embourber."
  },
  {
    "label": "ZakoLarge_UnlockComment_Conclusion",
    "text": "Plus ils sont loin, mieux c'est !"
  },
  {
    "label": "Escape_UnlockComment_00",
    "text": "J'ai encore jamais rencontré\nce genre de bestiole."
  },
  {
    "label": "Escape_UnlockComment_02",
    "text": "Ces lâches créatures fuient quand\ntu t'en approches. Mais ton encre\nles ralentit, alors pourchasse-les\nsur du terrain que tu as encré\nau préalable... et dégomme-les !"
  },
  {
    "label": "Escape_UnlockComment_03",
    "text": "Elles fuient aussi les bombes...\nÇa peut être pratique pour les\nattirer sur ton propre terrain."
  },
  {
    "label": "Escape_UnlockComment_04",
    "text": "T'arriveras jamais à battre ces\nzozos à la course, alors tu dois\nêtre plus malin qu'eux. Montre-\nnous ce que t'as dans le crâne,\nHuit !"
  },
  {
    "label": "Escape_UnlockComment_Conclusion",
    "text": "Impossible de fuir une bonne tactique !"
  },
  {
    "label": "Shell_UnlockComment_00",
    "text": "J'ai encore jamais rencontré\nce genre de bestiole."
  },
  {
    "label": "Shell_UnlockComment_02",
    "text": "Leur point faible, c'est leur tête.\nAttends qu'ils la sortent avant de\ntirer. Et pendant qu'ils tournoient,\nfais preuve d'agilité pour ne pas\nte faire happer."
  },
  {
    "label": "Shell_UnlockComment_03",
    "text": "Quand tu en bats un, il abandonne\nsa carapace qui peut alors servir\nde projectile ! Suffit de la toucher,\net elle fera un strike avec l'ennemi\ntout en encrant la voie pour toi !"
  },
  {
    "label": "Shell_UnlockComment_04",
    "text": "Alors si on les liquide, on peut les\nutiliser pour prendre l'avantage ?\nÀ toi de jouer, Huit. Élimines-en\nun et fais regretter à ses potes\nqu'il ait osé sortir sa trogne."
  },
  {
    "label": "Shell_UnlockComment_Conclusion",
    "text": "Ennemi d'abord, puis allié involontaire !"
  },
  {
    "label": "Sprinkler_UnlockComment_00",
    "text": "J'ai encore jamais rencontré\nce genre de bestiole."
  },
  {
    "label": "Sprinkler_UnlockComment_02",
    "text": "Je déteste ces bestioles. Si on\nles laissait faire, elles encreraient\ndu matin au soir. Alors n'attends\npas qu'elles aient inondé tout le\nterrain pour les éliminer."
  },
  {
    "label": "Sprinkler_UnlockComment_03",
    "text": "Si tu les élimines rapidement,\nelles posent pas trop problème...\nsurtout qu'elles sont plutôt\nfaiblardes. Alors si tu en repères\nune, liquide-la vite fait bien fait !"
  },
  {
    "label": "Sprinkler_UnlockComment_04",
    "text": "L'important, c'est de pas oublier\nde regarder en l'air de temps en\ntemps. Faut avoir les yeux\npartout, Huit !"
  },
  {
    "label": "Sprinkler_UnlockComment_Conclusion",
    "text": "Les laisse pas te piquer ton territoire !"
  },
  {
    "label": "BombBlow_UnlockComment_00",
    "text": "J'ai encore jamais rencontré\nce genre de bestiole."
  },
  {
    "label": "BombBlow_UnlockComment_02",
    "text": "Tire sur les capsules qu'il\ns'apprête à cracher. Ça le fera\ns'autodétruire, ce qui est\nplutôt pratique, avouons-le."
  },
  {
    "label": "BombBlow_UnlockComment_03",
    "text": "Tu peux aussi tirer sur une\ncapsule qu'il a crachée pour\nl'utiliser à ton avantage ! Elle\npeut contenir des bombes, de\nla brume toxique..."
  },
  {
    "label": "BombBlow_UnlockComment_04",
    "text": "Hein ?! Me dis pas que c'est ces\nbestioles-là qui nous arrosaient\nde bombes splash ?!"
  },
  {
    "label": "BombBlow_UnlockComment_Conclusion",
    "text": "Fais-lui manger la capsule !"
  },
  {
    "label": "Hopper_UnlockComment_00",
    "text": "J'ai encore jamais rencontré\nce genre de bestiole."
  },
  {
    "label": "Hopper_UnlockComment_02",
    "text": "Ces loustics-là fondront sur\ntoi d'en haut si tu t'approches\nun peu trop. Alors regarde en\nl'air et liquide-les avant qu'ils\natterrissent."
  },
  {
    "label": "Hopper_UnlockComment_03",
    "text": "Le piédestal qu'ils abandonnent\nsur place te propulse en l'air si tu\nle touches. Très pratique si tu as\nbesoin d'une voie de secours au\ncas où tu t'es fait encercler !"
  },
  {
    "label": "Hopper_UnlockComment_04",
    "text": "En plus, c'est amusant ! Tu aimes\nfaire du trampoline, Huit ? Parce\nque moi, j'a-dore !"
  },
  {
    "label": "Hopper_UnlockComment_Conclusion",
    "text": "Élimine-les pour pouvoir te propulser !"
  },
  {
    "label": "Tree_UnlockComment_00",
    "text": "J'ai encore jamais rencontré\nce genre de bestiole."
  },
  {
    "label": "Tree_UnlockComment_02",
    "text": "Les graines qui leur poussent\ndessus deviennent des missiles\nqui te traquent. Dégomme les\ngraines, et elles exploseront\nspectaculairement."
  },
  {
    "label": "Tree_UnlockComment_03",
    "text": "L'idéal, c'est de détruire au moins\nquelques graines. Sinon tu risques\nde te retrouver avec tout un tas\nde missiles aux fesses !"
  },
  {
    "label": "Tree_UnlockComment_04",
    "text": "Ça a l'air crevant ! On peut pas\njuste leur canarder directement\nle corps ? Quoique, ils ont l'air\nbien trop résistants..."
  },
  {
    "label": "Tree_UnlockComment_Conclusion",
    "text": "Feu sur les graines !"
  },
  {
    "label": "TreeMissile_UnlockComment_00",
    "text": "J'ai encore jamais rencontré\nce genre de bestiole."
  },
  {
    "label": "TreeMissile_UnlockComment_02",
    "text": "Ça, ce sont les missiles que\nproduisent ces espèces d'arbres\nbizarres. Ils te traquent, mais\nsont plutôt lents, alors pas de\npanique."
  },
  {
    "label": "TreeMissile_UnlockComment_03",
    "text": "Tente pas de les fuir, Huit, ils te\npoursuivront inlassablement. Et\nils répandent des vilaines flaques\nd'encre quand ils explosent."
  },
  {
    "label": "TreeMissile_UnlockComment_04",
    "text": "Petit conseil, évite de t'en\nprendre un dans la tronche.\nÉlimine-les avant qu'il ne\nsoit trop tard, Huit !"
  },
  {
    "label": "TreeMissile_UnlockComment_Conclusion",
    "text": "Dégomme-les avant qu'ils t'atteignent !"
  },
  {
    "label": "ChargerTower_UnlockComment_00",
    "text": "J'ai encore jamais rencontré\nce genre de bestiole."
  },
  {
    "label": "ChargerTower_UnlockComment_02",
    "text": "Il faut viser la tête tout en haut.\nUne fois celle-ci éliminée, le reste\nexplose et inflige des dégâts aux\nennemis à proximité."
  },
  {
    "label": "ChargerTower_UnlockComment_03",
    "text": "Si la tête est hors d'atteinte, détruis\nquelques éléments du corps. Mais\nfais vite, ou ils se régénéreront et\nla bestiole deviendra plus agressive !"
  },
  {
    "label": "ChargerTower_UnlockComment_04",
    "text": "Ils attaquent comme si on leur\navait refilé un fusil ! S'ils ratent\nleur premier coup, ne leur donne\nsurtout pas une seconde chance,\nHuit !"
  },
  {
    "label": "ChargerTower_UnlockComment_Conclusion",
    "text": "Vise la tête !"
  },
  {
    "label": "ExplodeSpawner_UnlockComment_00",
    "text": "J'ai encore jamais rencontré\nce genre de bestiole."
  },
  {
    "label": "ExplodeSpawner_UnlockComment_02",
    "text": "Si tu leur laisses le temps, ils se\nrégénéreront. Alors si t'en\nattaques un, lâche pas l'affaire\navant de lui avoir réglé son\ncompte."
  },
  {
    "label": "ExplodeSpawner_UnlockComment_03",
    "text": "L'avantage, c'est qu'apparemment\nils arrivent pas à se régénérer si\non encre le sol à leur base. Et\navec de l'encre toxique, tu peux\nfaire d'une pierre, deux coups !"
  },
  {
    "label": "ExplodeSpawner_UnlockComment_04",
    "text": "Quoi de mieux que de les voir\néclater... BOUM ! C'est l'heure\nde la douche d'encre, les\npoiscailles ! SPLASH ! Ha ha ha !"
  },
  {
    "label": "ExplodeSpawner_UnlockComment_Conclusion",
    "text": "Encre la base en priorité !"
  },
  {
    "label": "RivalKing_UnlockComment_00",
    "text": "J'ai encore jamais rencontré\nce genre de bestiole."
  },
  {
    "label": "RivalKing_UnlockComment_02",
    "text": "Ce sont des adversaires coriaces\nqui... te ressemblent beaucoup,\nHuit. Et pas qu'au niveau du look.\nPlus ta palette sera puissante, et\nplus ils auront de ressource."
  },
  {
    "label": "RivalKing_UnlockComment_03",
    "text": "Les laisse pas t'encercler ! Utilise\nles éléments de terrain en hauteur\nau milieu pour les obliger à des\ncombats à un contre un."
  },
  {
    "label": "RivalKing_UnlockComment_04",
    "text": "Ils arrivent à balancer des Triples\nchocs chromatiques comme ça, de\nnulle part ?! Où est-ce que ces\nenquiquineurs ont bien pu apprendre\nça ?"
  },
  {
    "label": "RivalKing_UnlockComment_Conclusion",
    "text": "Liquide-les un par un !"
  },
  {
    "label": "TowerKing_UnlockComment_00",
    "text": "J'ai encore jamais rencontré\nce genre de bestiole."
  },
  {
    "label": "TowerKing_UnlockComment_02",
    "text": "Les protubérances qui ressemblent\nà un visage sont son point faible.\nSi le faisceau lumineux te repère,\ngare à toi, alors cache-toi dans\nson angle mort ou dans ton encre."
  },
  {
    "label": "TowerKing_UnlockComment_03",
    "text": "Tu devras dégommer chaque strate\nilluminée pour le vaincre. Tu peux\ncommencer par le bas et remonter,\nou viser direct plus haut si tu as\nune arme à longue portée !"
  },
  {
    "label": "TowerKing_UnlockComment_04",
    "text": "Attends, c'est quoi le truc sous\nle faisceau ? Un symbole ?\nPeut-être que ça indique quelle\nattaque il va effectuer, ou un\ntruc du genre."
  },
  {
    "label": "TowerKing_UnlockComment_Conclusion",
    "text": "Évite le faisceau lumineux !"
  },
  {
    "label": "BallKing_UnlockComment_00",
    "text": "J'ai encore jamais rencontré\nce genre de bestiole."
  },
  {
    "label": "BallKing_UnlockComment_02",
    "text": "Quand il se roule au sol, vise les\nouvertures, c'est son point faible.\nAh, et attention, en cas d'obstacle\nil rebondit et largue un banc de\npoissons. Tente un combo chance !"
  },
  {
    "label": "BallKing_UnlockComment_03",
    "text": "Ce qui arrive aussi quand il rebondit,\nc'est que sa carapace s'ouvre un\npeu, ce qui le rend plus facile à\ntoucher. Bref, adapte ta tactique\nà ton arme."
  },
  {
    "label": "BallKing_UnlockComment_04",
    "text": "Et sa manie de charger à toute\nblinde, on en parle ? Quand il fait\nça, t'as tout intérêt à répandre\nun peu d'encre et te carapater !"
  },
  {
    "label": "BallKing_UnlockComment_Conclusion",
    "text": "Anticipation et tactique !"
  },
  {
    "label": "BarrierKingIida_UnlockComment_02",
    "text": "Heureusement que Coralie va bien.\nEt c'est grâce à Huit et Perle,\nil faut le dire."
  },
  {
    "label": "BarrierKingIida_UnlockComment_03",
    "text": "Merci de m'avoir tirée de là !\nJe vous revaudrai ça avec mes\ntalents de hacking... on peut\ncontrecarrer l'Ordre si on\ns'y met tous ensemble !"
  },
  {
    "label": "BarrierKingIida_UnlockComment_04",
    "text": "Comment l'Ordre a-t-il osé faire\nsubir un truc pareil à Coralie ?\nÇa va se payer !"
  },
  {
    "label": "BarrierKingIida_UnlockComment_Conclusion",
    "text": "L'Ordre va payer sa vilénie !"
  },
  {
    "label": "BarrierKingOdako_UnlockComment_02",
    "text": "L'Ordre était féroce, mais on était\npas en reste. Je savais que Huit\net Perle seraient de taille. Nous\nvoilà enfin de retour dans le monde\nréel et tout est bien qui finit bien."
  },
  {
    "label": "BarrierKingOdako_UnlockComment_03",
    "text": "Il était pas adorable, ce petit\nOrdre ? Je me demande bien\noù il a pu filer."
  },
  {
    "label": "BarrierKingOdako_UnlockComment_04",
    "text": "Je pense qu'on va pas le revoir de\nsitôt, ce dingo-là. Et s'il ose se\nrepointer, Huit, Coralie, Eyte\net moi, on en fera de la friture !"
  },
  {
    "label": "BarrierKingOdako_UnlockComment_Conclusion",
    "text": "À Tenta-Cool, rien d'impossible !"
  }
]