[
  {
    "label": "Minigame_Manual_Title00",
    "text": "«Карты и район»: свежайшая карточная игра!"
  },
  {
    "label": "Minigame_Manual00",
    "text": "Самый горячий хит настолок Плюхтонии!"
  },
  {
    "label": "Minigame_Manual_Title01",
    "text": "Бой за район один на один. В карты!"
  },
  {
    "label": "Minigame_Manual01",
    "text": "«Карты и район» — игра для двоих, {{color id=\"1\"}}для победы в которой нужно закрасить\nкак можно больше территории{{color id=\"65535\"}}, прежде чем ходы закончатся!"
  },
  {
    "label": "Minigame_Manual_Title02",
    "text": "Закрась все с помощью карт!"
  },
  {
    "label": "Minigame_Manual02",
    "text": "Оба игрока одновременно выкладывают карты. Каждая из них по-разному\nзакрашивает часть поверхности. Помни: у тебя всего {{color id=\"1\"}}12 ходов{{color id=\"65535\"}}!"
  },
  {
    "label": "Minigame_Manual_Title03",
    "text": "Законы района"
  },
  {
    "label": "Minigame_Manual03",
    "text": "Закрашивать район можно лишь рядом с местами, {{color id=\"1\"}}которые уже под твоим\nконтролем{{color id=\"65535\"}}. Помни, что перекрасить его нельзя!"
  },
  {
    "label": "Minigame_Manual_Title04",
    "text": "Как и где закрашивать?"
  },
  {
    "label": "Minigame_Manual04",
    "text": "Если игроки хотят закрасить одно и то же место, победит {{color id=\"1\"}}карта с меньшим\nчислом{{color id=\"65535\"}}. Число одинаковое? Вместо краски появится стена. Ее не закрасить!"
  },
  {
    "label": "Minigame_Manual_Title05",
    "text": "Получение особых очков"
  },
  {
    "label": "Minigame_Manual05",
    "text": "Если одно из твоих {{color id=\"1\"}}особых полей {{color id=\"65535\"}}окружено твоей краской, вражеской краской\nили даже стеной, ты получаешь {{color id=\"1\"}}особое очко{{color id=\"65535\"}}!"
  },
  {
    "label": "Minigame_Manual_Title06",
    "text": "Изменение хода игры с помощью особых атак"
  },
  {
    "label": "Minigame_Manual06",
    "text": "Единственный способ {{color id=\"1\"}}перекрасить вражеские поля {{color id=\"65535\"}}— {{color id=\"1\"}}особая атака{{color id=\"65535\"}},\nно применить ее можно только рядом с твоим особым полем."
  },
  {
    "label": "Minigame_Manual_Title07",
    "text": "Собери целую коллекцию"
  },
  {
    "label": "Minigame_Manual07",
    "text": "Хочешь больше карт? Свежайшие {{color id=\"1\"}}колоды {{color id=\"65535\"}}можно получить через каталог,\nкапсульный автомат и во множестве других мест!"
  },
  {
    "label": "Minigame_Manual_Title08",
    "text": "Создай свою колоду"
  },
  {
    "label": "Minigame_Manual08",
    "text": "Перед началом боя создай колоду из 15 карт.\nМожно сохранить до 32 разных колод!"
  }
]