{
  "version": 7,
  "rootNode": {
    "Category": "LockerObj",
    "Components": {
      "Behavior": "Work/Component/Behavior/LObjParent.game__BehaviorParam.gyml",
      "GameParameterTable": "Work/Component/GameParameterTable/LObjParent.game__GameParameterTable.gyml",
      "PhysicsRef": "Work/Component/Physics/LObjParent.engine__component__PhysicsParam.gyml",
      "SLinkRef": "Work/Component/SLink/LObjParent.engine__component__SLinkParam.gyml",
      "SystemSetting": "Work/ActorSystem/ActorSystemSetting/SplLockerObj.engine__actor__ActorSystemSetting.gyml",
      "XLinkRef": "Work/Component/XLink/Default.engine__component__XLinkParam.gyml"
    }
  }
}