[
  {
    "label": "272d8490-91e2-42c0-8868-f8836d972cf4",
    "text": "やったー！ 完成！"
  },
  {
    "label": "4182c9c6-a44c-4e3a-8bf9-57678a27adea",
    "text": "なんだろー？ 見たことあるような…？"
  },
  {
    "label": "42db31ea-9c2b-4928-b6b1-efcdca1f50cd",
    "text": "どんまいどんまい！\nじっくり落ち着いていこー！"
  },
  {
    "label": "458e5e6e-38b2-47fe-b285-f72b1b083cff",
    "text": "あ！ これで完成したのを見てみる？"
  },
  {
    "label": "6993ef7d-ea58-4769-ac53-4c825a89fa88",
    "text": "じっくり見比べて ていねいにやらんとね"
  },
  {
    "label": "6c92dd11-6960-4da7-aecc-b7207d940c7b",
    "text": "必要な木箱を壊しちゃうと 失敗だからね！\nじっくり見比べていこー！"
  },
  {
    "label": "7239c43a-a753-460e-a78a-f8ab10a1d5d6",
    "text": "ふむふむ、左にあるのがお手本か"
  },
  {
    "label": "79e5828f-4287-43ee-a157-a82d0b25f65d",
    "text": "ん～ どっかで見たような…？"
  },
  {
    "label": "7e9d47e2-5efe-45da-967e-3edd35b846a3",
    "text": "{{string value=\"5\"}}… … …{{fun_000F_0004 arg=\"0x0500\"}}"
  },
  {
    "label": "81dfb674-1ad3-4e98-851d-dab1ff6588a3",
    "text": "{{color id=\"1\"}}{{icon id=\"10\" arg=\"0x0000803F00000000\"}}ショクワンダー{{color id=\"65535\"}}で飛び移れそうな足場も たくさんあるね！"
  },
  {
    "label": "90757e58-3cfd-4b1e-969a-ef1fbb908c7f",
    "text": "{{color id=\"1\"}}スクリュースロッシャー{{color id=\"65535\"}}のインクは\n山なりに飛んでくから 気をつけてね～"
  },
  {
    "label": "99e84346-adcc-4a32-936d-79859bbab28d",
    "text": "{{string value=\"5\"}}… … …{{fun_000F_0004 arg=\"0x0500\"}}"
  },
  {
    "label": "a32fe856-865d-412b-a799-a1233705f020",
    "text": "遠くからだと またちがって見えるかもね"
  },
  {
    "label": "a889ec2e-d131-4245-b674-ee0f41104f30",
    "text": "さっさとゴールするもよし、じっくり見ていくもよし♪"
  },
  {
    "label": "a92b8578-0739-44d2-b231-2174a993378d",
    "text": "どんまいどんまい！\nじっくり落ち着いていこー！"
  },
  {
    "label": "ba8b2fba-02e7-4a88-8fc6-db674e0fc40c",
    "text": "周囲をしっかり確認！ 戦場の鉄則ゥ"
  },
  {
    "label": "cf74fc31-9d8e-4ed5-9c15-71842f909756",
    "text": "フルチャージすると、木箱を つきぬけるから注意だよ～"
  },
  {
    "label": "d1e6e852-2623-4cd2-8bcb-02fc42716ded",
    "text": "どんまいどんまい！\nじっくり落ち着いていこー！"
  },
  {
    "label": "d9c88c5f-2b17-464e-83af-49780860420e",
    "text": "{{icon id=\"12\" arg=\"0x0000803F00000000\"}}を短く押すと、インクを遠くまで飛ばせるよ～"
  },
  {
    "label": "fc743b58-e36f-463e-9894-b73e10e79382",
    "text": "うわー、後ろの方は ちょっと複雑だねー"
  }
]