[
  {
    "label": "34b2dfb9-28cd-4570-ae51-4dceb28fd7f5",
    "text": "あっちに着いたら始まるみたい！"
  },
  {
    "label": "3a97942b-91f5-4300-a078-6c562217fdef",
    "text": "ダッシュダッシュー！"
  },
  {
    "label": "6964651b-b2c5-40c2-a1fb-80633c821b50",
    "text": "あと１０個！ ラストスパート！！"
  },
  {
    "label": "a0eaf0c0-4fd9-4612-81ca-11171449a289",
    "text": "インク残量に気をつけてこ～"
  },
  {
    "label": "dbf7ef0c-b96c-4cdd-bf7f-992912e4af0f",
    "text": "あと半分！"
  }
]