[
  {
    "label": "07c55aad-0782-4f62-a149-64c0071102d1",
    "text": "ここの{{color id=\"1\"}}インクレール{{color id=\"65535\"}}、空中にのびてる？"
  },
  {
    "label": "0b8bde31-3bdd-4fd4-aaa0-350938113e22",
    "text": "ウェーブしとる… タイミングが大切やね"
  },
  {
    "label": "3c4de050-7fc2-4e5f-a96b-a177a4bf692d",
    "text": "わたりきったね！ ナイス！"
  },
  {
    "label": "3e74964f-2904-45a5-a24a-12e68334ba16",
    "text": "{{color id=\"1\"}}ヌリヌリ棒{{color id=\"65535\"}}、当たったら痛そう…"
  },
  {
    "label": "4b0c4e44-0d80-4fff-a11c-2d828c892de8",
    "text": "ふ～… ヒヤヒヤしたわ～"
  },
  {
    "label": "509a09a1-29ab-4e4e-b10a-dc7f1b90d5a3",
    "text": "{{color id=\"1\"}}ヌリヌリ棒{{color id=\"65535\"}}の動き、よく見てこー！"
  },
  {
    "label": "6fbc3caf-6125-4d28-9f8e-a4c045793d5c",
    "text": "インク届かないね… {{icon id=\"10\" arg=\"0x0000803F00000000\"}}{{color id=\"1\"}}ボム{{color id=\"65535\"}}なら届くかな？"
  },
  {
    "label": "75228c14-13e6-4772-89db-097c1a364140",
    "text": "背中いただき♪ とっちめちゃって！"
  },
  {
    "label": "7ac618bb-af8c-4976-a922-4abb7c1a8732",
    "text": "イカフライ 残さずゲット♪"
  },
  {
    "label": "7e30121e-97cc-48a8-8451-4f49ffd64464",
    "text": "「進むべき道は {{color id=\"1\"}}インクレール{{color id=\"65535\"}}が示してくれる」\nと、司令は言っとったよ"
  },
  {
    "label": "8cca503f-6281-46b1-bcd9-c4f32bc5f920",
    "text": "{{color id=\"1\"}}インクレール{{color id=\"65535\"}}の上でも {{icon id=\"1\" arg=\"0x0000803F00000000\"}}でジャンプできるかんね"
  },
  {
    "label": "92954aac-ffdd-4ab7-b653-198bded7e6d7",
    "text": "遠方に {{color id=\"1\"}}タコスナイパー{{color id=\"65535\"}}発見！ 注意されたし！"
  },
  {
    "label": "9e544886-658f-4930-9cf1-42aa58c374d5",
    "text": "{{color id=\"1\"}}インクレール{{color id=\"65535\"}}だ、とりま撃っとこ"
  },
  {
    "label": "b8485cda-84b7-49f3-800e-67ed05340c28",
    "text": "小さい足場がたくさんあるよ！"
  }
]