[
  {
    "label": "324b2f3e-bfde-49ca-813a-3d92214fe9f2",
    "text": "ナイス ナイス！"
  },
  {
    "label": "4613feb0-962c-4d73-bbe0-61d0bded0463",
    "text": "やっとゴールに着いたね\nおつかれさま！"
  },
  {
    "label": "5a6a3c20-f1f6-4f8c-bd44-40195e2d92d0",
    "text": "ナ～イス あとはゴールだけやね"
  },
  {
    "label": "7f43ba32-3855-4ab2-8b2d-95525be3e540",
    "text": "下へ まいりま～す"
  },
  {
    "label": "8104e11f-0a53-426f-b932-04d7f15730ac",
    "text": "おっと、 前方に敵を発見\n注意されたし！"
  },
  {
    "label": "951a2fc9-f77d-43a1-9a2a-9be6526565de",
    "text": "わー プロペラリフトがたくさん！\n乗り移るときは 気をつけて！！"
  },
  {
    "label": "a5f75457-2dc9-4f8e-834b-a6acde24e5aa",
    "text": "気をつけて おりよっか"
  },
  {
    "label": "d9f9b9a0-ffcf-408b-91d5-a0613b92110e",
    "text": "{{color id=\"1\"}}タココマンダー{{color id=\"65535\"}}がやっかいやね… \n柱にかくれつつ 近づいていくしかないな"
  },
  {
    "label": "db61f4fe-0f4b-49dc-a66f-1af41c6dbe2a",
    "text": "スイ～ッとね"
  },
  {
    "label": "dd38eaf8-e732-47b4-a445-4d2679e56c8e",
    "text": "この先 どうなってんだろ…"
  },
  {
    "label": "e6266e66-9bc8-4469-a20f-8dc0df997e2a",
    "text": "正面に ゴール確認！\n…でも すぐには行けなさそう"
  },
  {
    "label": "ec162189-120e-40f7-b6e2-d3b0914fa097",
    "text": "とうちゃ～く\nカベ塗って のぼろっか"
  }
]