[
  {
    "label": "01b7bdef-67cb-4600-83b4-b41f2b3b601b",
    "text": "グッジョブ"
  },
  {
    "label": "0aa2d2ec-a062-4020-8ea9-7931f01eae06",
    "text": "１、２、３、４… 一筋縄じゃいかなそうやね"
  },
  {
    "label": "3221f919-94d0-4b86-b30a-6484baaeefde",
    "text": "やったー！ なるほどね！"
  },
  {
    "label": "324dc23c-f647-449b-9bb1-43549413e836",
    "text": "む！ 今度は{{color id=\"1\"}}スイッチ{{color id=\"65535\"}}が３つ！"
  },
  {
    "label": "47a3ef17-3a52-4936-903d-93af510c973f",
    "text": "よーし！ {{color id=\"1\"}}ラインマーカー{{color id=\"65535\"}}投げまくるよー！"
  },
  {
    "label": "512b8555-0dfc-432d-8c4d-e023b54b3bfe",
    "text": "ナイスー！"
  },
  {
    "label": "59d8632c-cb72-40e7-994a-654d1d28b6d4",
    "text": "タイミングを見計らって {{color id=\"1\"}}ボム風船{{color id=\"65535\"}}にド～ンやね"
  },
  {
    "label": "7f705d7c-46c5-4937-88c4-aeb9cef83add",
    "text": "なるほど、次は横ね"
  },
  {
    "label": "91f20dd4-0091-4ce4-b8b5-e38b90ede127",
    "text": "え？ ここどーなってるの？！"
  },
  {
    "label": "9c2f95b9-f586-4192-a688-e3d38e5029f7",
    "text": "あの{{color id=\"1\"}}スイッチ{{color id=\"65535\"}}、ちょっと遠いね"
  },
  {
    "label": "aa2f4e4f-8596-4d74-832e-26d38414ae3f",
    "text": "あ！ 回転方向が変わった！"
  },
  {
    "label": "b3143fe9-7ed3-45f9-bdd2-10d34a222138",
    "text": "やるね、３号"
  },
  {
    "label": "b6be2ea8-9186-40b1-923d-422f1c374bf9",
    "text": "はっや！"
  },
  {
    "label": "c0e079d2-ec35-41e9-ab66-e5f0d11aeda3",
    "text": "これで最後かな、おつかれ～３号"
  },
  {
    "label": "c4cf31dd-7c38-4b3d-954e-c0b019e8c357",
    "text": "いや、１号がやるわけじゃないんよ…"
  },
  {
    "label": "ca5b5e25-f3f0-426e-a319-8ca38cffb246",
    "text": "ガラスの向こうで {{color id=\"1\"}}スイッチ{{color id=\"65535\"}}が回ってる！"
  },
  {
    "label": "d331b6cb-575a-45e3-a75e-48fa1c1f215d",
    "text": "まだいるよ！"
  },
  {
    "label": "d984ea43-b9f2-443c-a994-e451b4cc8f95",
    "text": "なんか動き出したよ…"
  },
  {
    "label": "dfab8c6f-2d70-4884-8f19-da18c682c4e8",
    "text": "{{color id=\"1\"}}ラインマーカー{{color id=\"65535\"}}なら ヨユ～っしょ"
  }
]