[
  {
    "label": "14e090a0-ad4d-49b3-b282-a66c43f18975",
    "text": "クマサン座ってる！ 何かしてくるかも！"
  },
  {
    "label": "47c3f0f4-af13-49cb-b04e-7765e70f89bc",
    "text": "クマサン、転がろうとしてる…？"
  },
  {
    "label": "5c7e2651-66a4-4bb4-beb0-a423e3a38b06",
    "text": "わッ！ ケバインクの {{icon id=\"22\" arg=\"0x0000803F00000000\"}}{{color id=\"1\"}}コア{{color id=\"65535\"}}出てきた？！"
  },
  {
    "label": "5eafff55-1554-4069-9ed4-6e76eae1e1ad",
    "text": "あの変な色のトコ、撃ってみる？"
  },
  {
    "label": "76931577-5e70-4013-b718-cea1a9a7bf6c",
    "text": "半周くらいしたかも！ ふんばれ 3号ー！！"
  },
  {
    "label": "857e292b-d85d-4555-879c-ac60aa30c84e",
    "text": "ィよし！ {{color id=\"1\"}}コア{{color id=\"65535\"}}出たよ！！"
  },
  {
    "label": "b40eab39-2c05-4490-9388-6c28ed8412b9",
    "text": "クマサンのおなか、色が変なトコあるね"
  },
  {
    "label": "b833dc76-cfa8-48f8-a5e3-2cefa214b43e",
    "text": "金イクラだ！ これ、使えるかも…！"
  },
  {
    "label": "c5269e9f-fc25-4e20-b635-0fde232b354b",
    "text": "また転がるつもりっぽい！ 気をつけて！"
  },
  {
    "label": "cd16b0b0-c294-4093-87f8-e70e59855fe6",
    "text": "３号もコジャケくんもナイス！ これで進めるッ！"
  },
  {
    "label": "daae7b48-be3b-4ece-9ff4-3c18f03027e7",
    "text": "今だ、３号！ キメちゃえーーーッ！！"
  },
  {
    "label": "fe9b924a-0c3a-4338-b6b5-0a0a4bda6170",
    "text": "ロケット回転してる！ 落ちないようにダッシュー！"
  }
]