[
  {
    "label": "00067465-24c0-442c-8ef1-5367757a6c13",
    "text": "ゴールだ！ やったね、３号！"
  },
  {
    "label": "2a6d423d-d33e-485e-afcd-18deed6d090e",
    "text": "ジャンプで乗って、レッツゴ～"
  },
  {
    "label": "2d8a5fcc-657b-4088-ba60-3969bd3397ad",
    "text": "仕事が早いな～"
  },
  {
    "label": "8332ce59-47b2-4bbb-9524-2affdf4b773f",
    "text": "あっ…"
  },
  {
    "label": "bab99ff3-86b3-4f44-9059-1c41428dd9e4",
    "text": "わっ、{{color id=\"1\"}}ライドレール{{color id=\"65535\"}}出てきた！"
  }
]