[
  {
    "label": "088a297b-7117-4e35-862e-c9ef56344496",
    "text": "イイネ\nあと少し、油断せずにイコウ"
  },
  {
    "label": "291675fb-59f8-4c4c-8413-e1ee3a483561",
    "text": "アイツら アタシたちに似てっけど…\n戦えってんなら やってやろーぜ、ハチ！"
  },
  {
    "label": "2b062af0-4a8a-4180-91f6-cdb43b8ee5e1",
    "text": "敵が次々に出てくルヨ\n囲まれないよう 注意してクレ"
  },
  {
    "label": "2ded4d00-a4a9-49cd-94e7-3edac036aa67",
    "text": "置いてある{{icon id=\"65\" arg=\"0x0000803F00000000\"}}アーマーも使ってくださいね\nガンバです、ハチさん！"
  },
  {
    "label": "382c30d6-e00e-4181-8941-c425e6b51107",
    "text": "ナイスです！\n高台をうまく使えると良さそうですね！"
  },
  {
    "label": "42aefc90-caa0-4fb4-90f7-15924e670943",
    "text": "ッシャー！ まずは１体！"
  },
  {
    "label": "471cafe2-da8f-479b-aad2-ad48ccb380b2",
    "text": "出だしは上々みたいダネ\n今のうちに 地面を塗っておくとイイ"
  },
  {
    "label": "71c0ccdf-903b-4d15-9f7b-5ed0118b5a33",
    "text": "イイ感じですね～♪\nでは、次の相手に備えましょう！"
  },
  {
    "label": "9c267681-5c5d-4668-b731-e2ef19195c7e",
    "text": "アタシたちが降りたら 向こうも来るぞ！\n気合い入れてこーな！"
  },
  {
    "label": "9d8359a2-f297-4bc4-9a35-7669e4aae1d5",
    "text": "ゲッ！ 敵のドローンが\nスケルトーン出しやがった！！ "
  },
  {
    "label": "a8f8a290-98d3-4f22-b8d4-31dda4695b2e",
    "text": "敵は もう来ないみたいですね！\nハチさん、センパイ、おつかれさまでした～！"
  },
  {
    "label": "cb062415-0ce9-440c-880f-2569d42fbb12",
    "text": "見事な戦いぶりダナ\nこういうバトルには慣れてるノカ？"
  },
  {
    "label": "ed1cc6b3-d171-445b-b2d3-571392cf9693",
    "text": "ふー… なんとか倒しきったか！\nがんばったな、ハチ！"
  }
]