[
  {
    "label": "Start",
    "text": "強制ノンカラ処理を実行… エラー！\n再実行… エラーだト？！"
  },
  {
    "label": "PortalAttack",
    "text": "やっぱり！ カラーチップはポータルの中です！"
  },
  {
    "label": "PotalBreak01",
    "text": "すごい… カラーチップのエネルギーが\n一気にパレットの中へ…！"
  },
  {
    "label": "PotalBreakSupport",
    "text": "あっ！ 今度は{{color id=\"4\"}}サポート{{color id=\"65535\"}}のチップです！"
  },
  {
    "label": "PotalBreakMove",
    "text": "コレは… {{color id=\"4\"}}ムーブ{{color id=\"65535\"}}系統のチップか？"
  },
  {
    "label": "PortalBreakLucky",
    "text": "{{color id=\"4\"}}ラッキー{{color id=\"65535\"}}のチップですね！ いい感じですよ～、ハチさん！"
  },
  {
    "label": "PortalBreakRange",
    "text": "コイツは 系統が{{color id=\"4\"}}レンジ{{color id=\"65535\"}}のチップだ！"
  },
  {
    "label": "PortalBreakDrone",
    "text": "来たな、{{color id=\"4\"}}ドローン{{color id=\"65535\"}}のチップ！ テンション上がってきたーッ！！"
  },
  {
    "label": "PortalBreakPower",
    "text": "{{color id=\"4\"}}パワー{{color id=\"65535\"}}系統のチップとは 心強イナ"
  },
  {
    "label": "PortalBreak01_02",
    "text": "カラーチップがフィーバーしまくってんぞ！"
  },
  {
    "label": "PortalBreak02",
    "text": "{{color id=\"4\"}}新しいポータル{{color id=\"65535\"}}が出現したようです！\n残りのカラーチップも きっとその中に…！"
  },
  {
    "label": "PortalBreak03",
    "text": "何が起こってイル！ 状況を解析… エラー！"
  },
  {
    "label": "PortalBreak04",
    "text": "ノンカラ処理ガ 逆行シテイル…？！\nアリ得ないコトダ！！"
  },
  {
    "label": "PortalBreakAll",
    "text": "今のが最後のチップみたいダ！"
  },
  {
    "label": "LastMegaPhone01",
    "text": "グ…オォォ… 色ガ あふれていク……！"
  },
  {
    "label": "LastMegaPhone02",
    "text": "ヨッシャー！ ボルテージMAXだ！！"
  },
  {
    "label": "LastMegaPhone03",
    "text": "アタシらとカラーチップの全部、アイツにぶつけてやる！\nハチ！ {{icon id=\"76\" arg=\"0xEC51383FFEFFFFFF\"}}を押しこめ！！"
  },
  {
    "label": "LastMegaPhoneAttack01",
    "text": "いくぞっ メガホンセット！！"
  },
  {
    "label": "LastMegaPhoneAttack02",
    "text": "HAHA！ スゴイナ、メチャクチャな出力ダ！"
  },
  {
    "label": "LastMegaPhoneAttack03",
    "text": "センパイ… お願いしますっ！！"
  },
  {
    "label": "LastMegaPhoneAttack04",
    "text": "プログラムとはチガウ… コレ ハ……"
  },
  {
    "label": "LastMegaPhoneAttack05",
    "text": "%∞？≠&∴♭⇔♪★＠#△Ⅲ………！！！"
  },
  {
    "label": "LastOdako100",
    "text": "オオォォォ！ ナゼ これホドのチカラ…？！"
  },
  {
    "label": "LastOdako075",
    "text": "このまま押し切っちまうか？！\nそれも悪くねーな、ハチ！！"
  },
  {
    "label": "LastOdako050",
    "text": "エラーからノ 復帰処理… 失敗\nこんな コトガ… コノ ママ デハ……！！"
  },
  {
    "label": "LastOdako025",
    "text": "もう少しです！ ハチさん！！"
  }
]