[
  {
    "label": "089b5cd1-9674-40ea-885f-262c7909bbcb",
    "text": "今のは {{color id=\"1\"}}びっくりネジ{{color id=\"65535\"}}じゃな！\nインクを当てると アイテムが飛び出るぞィ！"
  },
  {
    "label": "1328e717-32f6-4bc2-a2f6-cf53ac4b9e94",
    "text": "まずは {{color id=\"1\"}}オクタリアン基地{{color id=\"65535\"}}を見つけるんじゃ！\nワシが道中 戦場の鉄則をレクチャーするでの"
  },
  {
    "label": "21ff056d-bb3f-488a-b74c-9a0f310cb233",
    "text": "ケバインクだらけじゃな…"
  },
  {
    "label": "2681ba24-8466-4318-b0a2-e3d78df8ff43",
    "text": "クレーターは深いからの、落ちないように要注意じゃ…！"
  },
  {
    "label": "298d2273-a09a-4848-886c-baf66dfef571",
    "text": "コジャケが光っとるな…\n近くに何かあるんじゃろうか"
  },
  {
    "label": "32824a09-b565-4de1-ad5e-0f16c96a38cf",
    "text": "む？ コジャケが何やらアピールしておるぞ"
  },
  {
    "label": "3326e409-bc78-4f03-9150-c7cf0fad934f",
    "text": "どうやらコジャケは 鼻が利くようじゃの\nアピールしとったら気にしてやれィ！"
  },
  {
    "label": "3437df5f-46c4-4398-8f8a-c18abca93f59",
    "text": "ドンマイじゃぞ ３号…！\nワシも昔は よく失敗したもんじゃ"
  },
  {
    "label": "36effd91-a5dd-4606-b9fa-ccc24972b36b",
    "text": "ほり出し物、ゲットじゃな！\nかざったら ばえそうな品じゃのゥ"
  },
  {
    "label": "38eb557d-1a5d-4e0c-a79f-5f2b72ee6f17",
    "text": "飛び降り先の安全、確認されたしーッ！"
  },
  {
    "label": "3c43fef5-0275-47fb-aae6-ecf3d068d388",
    "text": "どうした３号よ、忘れ物か？"
  },
  {
    "label": "4c652b1e-ddd8-4875-8054-31c30dee5d7f",
    "text": "トツゲキせよーーッ！"
  },
  {
    "label": "4d935a83-4e75-47e5-b0ed-6f21c70aa6ba",
    "text": "{{color id=\"1\"}}びっくりネジ{{color id=\"65535\"}}が うまっとったんじゃな！\nこいつは地面の下にかくれて 見えないこともある"
  },
  {
    "label": "575aaf16-4099-4b0c-9c4c-2ab0a4435e4e",
    "text": "さわったら 「ボンッ」 じゃ…！"
  },
  {
    "label": "60fd5350-28b0-40a2-8817-a2c2938a3ab0",
    "text": "足元には注意して進むんじゃ！ クレーターは深いぞ…！"
  },
  {
    "label": "678fcdb2-d920-4eae-a2f7-390239c2ef9b",
    "text": "ケバインクはおそろしいのゥ… よーく注意して進むんじゃぞ"
  },
  {
    "label": "68aef71f-29d4-4a25-9d11-bf3495674188",
    "text": "ヒャッホウ！ スッキリするわィ！！"
  },
  {
    "label": "79ebd8bf-e9c5-4133-8568-9bebfeed83ea",
    "text": "足をすべらせて クレーターの底へ落っこちんようにな"
  },
  {
    "label": "90dcfafa-a26d-48f4-8dea-9db977a6c086",
    "text": "クレーター中心部に{{color id=\"1\"}}コア{{color id=\"65535\"}}発見！ 確認されたしーッ！"
  },
  {
    "label": "920b37ae-ea45-4245-91a0-d4a43389909d",
    "text": "イクラが足りんようじゃな…\n先に タコどもの基地を探してみんか？"
  },
  {
    "label": "92c440df-4b6d-4dce-9640-b88928aeb1ca",
    "text": "行き止まりじゃな…\n何か見落としたかもしれんぞ、もどって探すんじゃ！"
  },
  {
    "label": "9ff5b8d6-e03a-4831-a852-5ac970b60efd",
    "text": "ふう… ヒヤヒヤしたわィ"
  },
  {
    "label": "a07f0133-1e47-479d-b146-cf118a25221d",
    "text": "カードを拾ったんか？\nうーむ、タコの間でも流行っとるんかのゥ…"
  },
  {
    "label": "a840b10d-138c-416c-a05e-04c070cf5b46",
    "text": "コジャケにイクラをやるには {{icon id=\"8\" arg=\"0xCDCC4C3F00000000\"}}押しこみ！\nそれから {{icon id=\"10\" arg=\"0x0000803F00000000\"}}で投げつけるんじゃ！"
  },
  {
    "label": "a9228c67-5d0a-45f5-849a-b724ef57a19b",
    "text": "ダイジョブか？ ケバインクには注意して進むんじゃ！"
  },
  {
    "label": "b3996e94-2a7f-44e5-a549-a3e08f1e59bc",
    "text": "コアを食べさせるなら、{{icon id=\"8\" arg=\"0xCDCC4C3F00000000\"}}を押しこんで\nコジャケに {{color id=\"1\"}}イクラ{{color id=\"65535\"}}をやるんじゃぞ"
  },
  {
    "label": "ba2f0335-26f9-4534-b268-5a5ae951546d",
    "text": "無事じゃったか３号…\n足元には気をつけて進めィ！"
  },
  {
    "label": "cad1f675-3301-409b-80ff-53df1ce37b85",
    "text": "{{color id=\"1\"}}イクラ{{color id=\"65535\"}}がないと コアには歯が立たんようじゃな\n{{icon id=\"8\" arg=\"0xCDCC4C3F00000000\"}}を押しこんでから 試してみるんじゃ！"
  },
  {
    "label": "dc918e12-63c9-47ba-bb28-d5908941bd2a",
    "text": "あそこのケバインク、ジャマじゃな…"
  },
  {
    "label": "618321da-390d-4cb3-a92e-792da1825ae9",
    "text": "やはりインクを当ててもムダのようじゃな\nもっと強力なチカラとパワーがあれば…"
  },
  {
    "label": "d2bc1fb0-ce5d-426e-b2a4-acc2bf1dd48c",
    "text": "今じゃ！ あの毛玉に投げつけィ！"
  },
  {
    "label": "5087f971-62a1-4c31-9ec9-85ee1100c845",
    "text": "もう一回じゃ！ {{icon id=\"8\" arg=\"0xCDCC4C3F00000000\"}}スティックを押しこんだあと、\n{{icon id=\"10\" arg=\"0x0000803F00000000\"}}で {{color id=\"1\"}}コア{{color id=\"65535\"}}に投げるんじゃぞ！"
  },
  {
    "label": "69ceea28-ad90-4eac-a12a-808d33534e30",
    "text": "しっかりねらって {{color id=\"1\"}}コア{{color id=\"65535\"}}に当てるんじゃー！"
  },
  {
    "label": "be58c4cd-a1d3-44e0-b12b-5e18ee343082",
    "text": "あの… {{color id=\"1\"}}コア{{color id=\"65535\"}}に当てるんじゃよ？"
  },
  {
    "label": "796db7e5-31c0-42ee-a836-49d0dd0e2d6e",
    "text": "そこら中にくっついとる ケバいインク…\n{{color id=\"1\"}}ケバインク{{color id=\"65535\"}}には さわらないほうがいいぞィ"
  },
  {
    "label": "58052b9c-e335-4c17-b2e2-f2802b186f00",
    "text": "あれは きゃつらの基地の入口！\n{{icon id=\"12\" arg=\"0x0000803F00000000\"}}でフタを撃って こじ開けるんじゃ！"
  }
]