[
  {
    "label": "0dafca74-963e-4a1f-9dd5-575470fb3706",
    "text": "もう ひと息だよ！！"
  },
  {
    "label": "3c65a63b-c4be-45e3-8689-f3fac4decb67",
    "text": "この距離は ハンコ投げなきゃ届かなくね？"
  },
  {
    "label": "6eea0bb5-ca15-40fc-96d7-089b0a55d933",
    "text": "２段目に当てられたら 一発で倒せそうやね"
  },
  {
    "label": "efbc349f-6b3f-4f1f-a4a0-329616bc2f0d",
    "text": "{{icon id=\"10\" arg=\"0x0000803F00000000\"}}で ハンコ投げつけちゃえ！"
  },
  {
    "label": "f7aa1475-cea1-4667-a720-548521c813f5",
    "text": "{{icon id=\"12\" arg=\"0x0000803F00000000\"}}押しっぱなしで ハンコ押しながら進めるよ\n遠くの敵には {{icon id=\"10\" arg=\"0x0000803F00000000\"}}で ハンコ投げつけちゃお"
  },
  {
    "label": "ff2651e2-b51a-4ec6-8bd4-71519ca4871e",
    "text": "１体倒したら カウントダウンが始まるよ"
  }
]