[
  {
    "label": "JP",
    "text": "日本"
  },
  {
    "label": "US",
    "text": "アメリカ大陸/オーストラリア/ニュージーランド"
  },
  {
    "label": "EU",
    "text": "ヨーロッパ"
  },
  {
    "label": "ASIA",
    "text": "香港/韓国"
  },
  {
    "label": "JP_Eve",
    "text": "日本"
  },
  {
    "label": "US_Eve",
    "text": "アメリカ大陸"
  },
  {
    "label": "EU_Eve",
    "text": "ヨーロッパ"
  },
  {
    "label": "ASIA_Eve",
    "text": "オーストラリア/ニュージーランド/香港/韓国"
  }
]