[
  {
    "label": "SpInkStorm",
    "text": "pioggia di colore"
  },
  {
    "label": "SpUltraShot",
    "text": "ultraturbinator"
  },
  {
    "label": "SpUltraStamp",
    "text": "mega timbro"
  },
  {
    "label": "SpGachihoko",
    "text": "bazookarp"
  },
  {
    "label": "SpGreatBarrier",
    "text": "gran bolla scudo"
  },
  {
    "label": "SpJetpack",
    "text": "jet splat"
  },
  {
    "label": "SpShockSonar",
    "text": "sonar esplosivo"
  },
  {
    "label": "SpSuperHook",
    "text": "molluscatto"
  },
  {
    "label": "SpSuperLanding",
    "text": "vernischianto"
  },
  {
    "label": "SpSkewer",
    "text": "motosqualo"
  },
  {
    "label": "SpChariot",
    "text": "granchio armato"
  },
  {
    "label": "SpNiceBall",
    "text": "granbotto"
  },
  {
    "label": "SpBlower",
    "text": "vampinchiostro"
  },
  {
    "label": "SpMultiMissile",
    "text": "lanciarazzi"
  },
  {
    "label": "SpMicroLaser",
    "text": "tintofono 5.1"
  },
  {
    "label": "SpTripleTornado",
    "text": "triplo tornado"
  },
  {
    "label": "SpEnergyStand",
    "text": "rinfrigorente"
  },
  {
    "label": "SpFirework",
    "text": "diversivo esplosivo"
  },
  {
    "label": "SpCastle",
    "text": "kraken reale"
  },
  {
    "label": "SpChimney",
    "text": "cortina ingannevole"
  },
  {
    "label": "SpPogo",
    "text": "triplo vernischianto"
  }
]