[
  {
    "label": "Hello",
    "text": "Приветики."
  },
  {
    "label": "Offline",
    "text": "Э, погодь.{{pageBreak}}Где {{color id=\"1\"}}Интернет{{color id=\"65535\"}}? Без Интернета\nсегодня никакие дела не делаются,\nтак что давай дуй в Холл,\nподключайся, а потом уже\nприходи разговоры разговаривать!"
  },
  {
    "label": "NotEnoughRank",
    "text": "Хм... Что-то ты мне не внушаешь\nдоверия.{{pageBreak}}Вот что. Давай-ка побейся чуток\nи получи хотя бы {{color id=\"1\"}}уровень 4{{color id=\"65535\"}}.\nТогда, может, нам будет о чем\nпоговорить с тобой."
  },
  {
    "label": "FirstRank_4_9",
    "text": "Ух, а у тебя посвежее видок,\nдолжен признать!{{pageBreak}}Конечно, выглядеть свежо\nи одеваться стильно это не одно\nи то же. Если хочешь покорить\nэтот город, то без {{color id=\"1\"}}снаряжения{{color id=\"65535\"}}\nтебе не обойтись.{{pageBreak}}Тебе же приходилось встречать\nкого-то в стильном снаряжении?\nИ ведь оно внушало уважение,\nтак ведь? Уверен, что так!{{pageBreak}}Если встретишь кого-то в стильном\nснаряжении, детально рассмотри\nего с помощью {{icon id=\"0\" arg=\"0x0000803F00000000\"}}, а затем\nсвяжись со мной, и я {{color id=\"1\"}}сделаю заказ{{color id=\"65535\"}}!{{pageBreak}}Может, мне не удастся {{color id=\"1\"}}заказать{{color id=\"65535\"}}\nснаряжение с теми же свойствами,\nно я сделаю для этого все\nвозможное. Вот, запиши мой\nномер."
  },
  {
    "label": "FirstRank_4_9_Short",
    "text": "А кое-кто тут немного посвежел!{{pageBreak}}Конечно, когда свежо на душе — это\nодно, а свежо одеваться — совсем\nдругое. А... ты же уже в курсе?{{pageBreak}}Ладно, ладно, не буду тебя\nгрузить.{{pageBreak}}Если присмотришь себе классное\n{{color id=\"1\"}}снаряжение{{color id=\"65535\"}} с помощью кнопки {{icon id=\"0\" arg=\"0x0000803F00000000\"}},\nкликни меня, и я {{color id=\"1\"}}сделаю заказ{{color id=\"65535\"}}.{{pageBreak}}Но никаких гарантий, OK? Если что\nне так со свойствами будет или чем\nдругим, я не при делах. Звони."
  },
  {
    "label": "FirstRank_10_15",
    "text": "Да ты свежачком! Выглядишь\nочень неплохо!{{pageBreak}}Но уверен, ты можешь выглядеть\nеще свежее!{{pageBreak}}Я тут подумал, что и мне самому\nне мешает посвежеть, так сказать.{{pageBreak}}Ну и я, конечно, должен буду\nсоответствовать тебе и в смысле\nведения бизнеса. То есть выйти\nна новый уровень.{{pageBreak}}Так что не мешкай, заказывай. Если\nувидишь на ком-то стильное\nснаряжение, используя {{icon id=\"0\" arg=\"0x0000803F00000000\"}},\nсвяжись со мной, помогу, чем могу!"
  },
  {
    "label": "FirstRank_16_19",
    "text": "Вау! Да от тебя свежестью\nпросто разит! Прямо валит!{{pageBreak}}Слушай, а это вообще безопасно?{{pageBreak}}Я не осуждаю и ничего такого,\nпросто хочу помочь. А давай\nвместе покорим весь мир, а?{{pageBreak}}Если увидишь на ком-то стильное\nснаряжение, нажав {{icon id=\"0\" arg=\"0x0000803F00000000\"}}, свяжись\nсо мной, я помогу достать его!"
  },
  {
    "label": "FirstRank_20_20",
    "text": "Да ладно?! Честно говоря, от такой\nсвежести у меня невольно\nколенки подгибаются.{{pageBreak}}Так получается, ты теперь легенда,\nда? Хотя зачем я спрашиваю?\nЭто же очевидно!{{pageBreak}}Пожалуй, я оставлю свои мечты\nо том, чтобы стать лучшим,\nи просто буду помогать тебе\nпопасть на самую вершину.{{pageBreak}}Если увидишь на ком-то стильное\nснаряжение, нажав {{icon id=\"0\" arg=\"0x0000803F00000000\"}}, свяжись\nсо мной, и я закажу его для тебя!"
  },
  {
    "label": "FirstSdodr_Normal",
    "text": "Ты часто бываешь на Инкопольской\nплощади? Я тут жил, когда еще\nбыл мальком.{{pageBreak}}Теперь тут все выглядит\nнамного меньше, чем в моих\nвоспоминаниях. Но это\nя, наверное, вырос.{{pageBreak}}В последнее время я кочую\nмежду Инкопольской площадью\nи Плюхтоном. Если тебе что-то\nбудет нужно, то обращайся!"
  },
  {
    "label": "FirstSdodr_AfterRankMsg",
    "text": "Кстати, ты часто бываешь на\nИнкопольской площади? Я тут\nжил, когда еще был мальком.{{pageBreak}}Теперь тут все выглядит\nнамного меньше, чем в моих\nвоспоминаниях. Но это\nя, наверное, вырос.{{pageBreak}}В последнее время я кочую\nмежду Инкопольской площадью\nи Плюхтоном. Если тебе что-то\nбудет нужно, то обращайся!"
  },
  {
    "label": "FirstShell",
    "text": "Ух ты, ух ты, ух ты!\nЭто же {{color id=\"1\"}}круть-улитка{{color id=\"65535\"}}, да?!{{pageBreak}}Наверное, ты не захочешь с ней\nрасстаться. Я коллекционирую их...\nУ меня есть на то причина.{{pageBreak}}Ты знаешь, что верхнюю часть\n{{color id=\"1\"}}круть-улитки {{color id=\"65535\"}}можно использовать\nдля того, чтобы {{color id=\"1\"}}добавить звезд\nтвоему снаряжению{{color id=\"65535\"}}? Круто, да?{{pageBreak}}А если у тебя заняты все слоты\nпод свойства, я знаю, как \n{{color id=\"1\"}}случайным образом сменить\nвсе три свойства{{color id=\"65535\"}}.{{pageBreak}}Я делаю это бесплатно. Это,\nможно сказать, жест доброй воли.\nПросто достань мне {{color id=\"1\"}}круть-улиток{{color id=\"65535\"}}."
  },
  {
    "label": "FirstShell_Short",
    "text": "Ух ты, ух ты, ух ты!\nЭто же {{color id=\"1\"}}круть-улитка{{color id=\"65535\"}}, да?!{{pageBreak}}Наверное, ты не захочешь с ней\nрасстаться. Я коллекционирую их...\nУ меня есть на то причина.{{pageBreak}}Ты знаешь, что верхнюю часть\n{{color id=\"1\"}}круть-улитки {{color id=\"65535\"}}можно использовать\nдля того, чтобы {{color id=\"1\"}}добавить звезд{{color id=\"65535\"}}\nили случайных {{color id=\"1\"}}особых свойств\nтвоему снаряжению{{color id=\"65535\"}}? Круто, да?{{pageBreak}}Я даже сделаю это бесплатно.\nВ знак нашей дружбы, так сказать.\nТы мне {{color id=\"1\"}}круть-улиток{{color id=\"65535\"}}, а я тебе\nвсякие полезности!"
  },
  {
    "label": "ExplainFestT",
    "text": "У тебя есть {{color id=\"1\"}}Сплатфест-майка{{color id=\"65535\"}}?\nСлушай сюда...{{pageBreak}}Если хочешь {{color id=\"1\"}}отмыть{{color id=\"65535\"}}\nСплатфест-майку, чтобы {{color id=\"1\"}}сменить\nсвойства снаряжения{{color id=\"65535\"}}, я тот, кто\nтебе нужен.{{pageBreak}}За отмывку я возьму всего {{icon id=\"39\" arg=\"0x85EB913F00000000\"}}{{color id=\"1\"}}2000{{color id=\"65535\"}}.\nХорошее предложение, не так ли?\nНо это еще не все.{{pageBreak}}Я смогу собрать новые свойства,\nиспользуя {{color id=\"1\"}}гораздо меньше\nб/у свойств{{color id=\"65535\"}}!{{pageBreak}}Если я тебя не убедил, что это\nочень {{color id=\"1\"}}выгодно{{color id=\"65535\"}}... посмотри, какие\nСплатфест-майки у других игроков.\nВеселье прямо в воздухе висит.{{pageBreak}}Так что надевай майку, бросайся\nв бой, а потом приходи ко мне,\nи мы с тобой майку постираем.\nДа, забыл сказать, {{color id=\"1\"}}я буду делать\nэто бесплатно сколько захочешь{{color id=\"65535\"}}."
  },
  {
    "label": "RecieveGeso_First",
    "text": "Кстати, ты можешь забирать\nу меня любое снаряжение,\nзаказанное в {{color id=\"1\"}}Щупозоне{{color id=\"65535\"}}.{{pageBreak}}Снаряжение, которое продает Аня\nв {{color id=\"1\"}}Щупозоне{{color id=\"65535\"}}, обладает рядом\n{{color id=\"1\"}}уникальных свойств{{color id=\"65535\"}}. Такого\nснаряжения в этом городе ты\nне найдешь.{{pageBreak}}Если будет нужна дополнительная\nинформация о {{color id=\"1\"}}Щупозонe{{color id=\"65535\"}}, просто\nнажми {{icon id=\"6\" arg=\"0x0000803F00000000\"}} и прочитай,\n{{color id=\"1\"}}как и что работает{{color id=\"65535\"}}.{{pageBreak}}Ладно, давай я проверю твой заказ!"
  },
  {
    "label": "Recieve_NotOrder",
    "text": "Так, для тебя {{color id=\"1\"}}заказов {{color id=\"65535\"}}нет."
  },
  {
    "label": "Recieve_NotArrive",
    "text": "Мне нужно еще немного времени,\nчтобы доставить заказанное тобой\n{{color id=\"1\"}}снаряжение{{color id=\"65535\"}}. Приходи {{color id=\"1\"}}завтра{{color id=\"65535\"}}."
  },
  {
    "label": "Recieve_ArriveOrder",
    "text": "Пожалуйста! Точь-в-точь как\nв заказе! Я хорош, не правда ли?"
  },
  {
    "label": "Recieve_ArriveNearOrder",
    "text": "Ну, что скажешь? Конечно,\nэто не совсем то, что в заказе\nбыло, но все равно неплохо,\nне правда ли?"
  },
  {
    "label": "Recieve_ArriveNotOrder",
    "text": "Это лучшее из того, что я мог\nдостать. Я старался, честно."
  },
  {
    "label": "Recieve_ArriveGeso",
    "text": "Тут тебе доставили кое-что\nособенное от Ани."
  },
  {
    "label": "Recieve_BuyQ",
    "text": "Все-таки купишь?"
  },
  {
    "label": "Recieve_NotBuy",
    "text": "Не хочешь? Лады. Если\nпередумаешь, приходи {{color id=\"1\"}}до конца\nдня{{color id=\"65535\"}}. Завтра его уже не будет."
  },
  {
    "label": "Recieve_NotBuyGeso",
    "text": "Не хочешь? Как хочешь.\nПриходи, если передумаешь."
  },
  {
    "label": "Recieve_HaveSameGear",
    "text": "У тебя же есть {{color id=\"1\"}}точно такое же\nснаряжение{{color id=\"65535\"}}. Если ты купишь то,\nчто было {{color id=\"1\"}}в заказе{{color id=\"65535\"}}, то мне\nпридется забрать {{color id=\"1\"}}старое\nснаряжение{{color id=\"65535\"}}."
  },
  {
    "label": "Recieve_NotEnoughMoney",
    "text": "У тебя деньжат не хватает.\nТы давай там, подзаработай.\nБез денег как-то грустно."
  },
  {
    "label": "Skill_First",
    "text": "Ой! Тебе уже доводилось\n{{color id=\"1\"}}добавлять свойство снаряжения{{color id=\"65535\"}}?\nЕсли нет, то это не проблема!{{pageBreak}}{{color id=\"1\"}}Б/у свойства {{color id=\"65535\"}}можно найти\nповсюду. Смешивая их можно\nполучить абсолютно любое\nсвойство.{{pageBreak}}Если в слоте уже есть свойство,\nего можно заменить новым.\nСтарое свойство {{color id=\"1\"}}разбивается при\nэтом на несколько б/у свойств{{color id=\"65535\"}}.{{pageBreak}}Знаю, звучит не очень просто,\nно на самом деле ничего сложного\nтут нет."
  },
  {
    "label": "Skill_ExSkillDouble",
    "text": "Аккуратнее! Если разобьешь\n{{color id=\"1\"}}дупликатор{{color id=\"65535\"}} и вставишь в слот\nновое свойство, {{color id=\"1\"}}то вернуть\nстарое свойство невозможно{{color id=\"65535\"}}!"
  },
  {
    "label": "Skill_Select",
    "text": "Выбери {{color id=\"1\"}}снаряжение {{color id=\"65535\"}}и нужное\nтебе {{color id=\"1\"}}свойство{{color id=\"65535\"}}."
  },
  {
    "label": "Skill_Q",
    "text": "Устраивает?"
  },
  {
    "label": "Skill_Set",
    "text": "Все готово! Надеюсь, это поможет\nтебе в бою. Ну а если не поможет...\nвыглядишь ты все равно классно!"
  },
  {
    "label": "RandSkill_First",
    "text": "Если отдашь мне {{color id=\"1\"}}круть-улитку{{color id=\"65535\"}},\nя возьму все {{color id=\"1\"}}дополнительные\nсвойства на элементе снаряжения{{color id=\"65535\"}}\nи заменю их новыми.{{pageBreak}}Я даже отдам тебе потом\nэти {{color id=\"1\"}}б/у свойства{{color id=\"65535\"}}!{{pageBreak}}Ах да! Я заменяю свойства только\nна снаряжении, у которого {{color id=\"1\"}}заняты\nвсе 3 слота{{color id=\"65535\"}}. Не забывай об этом.{{pageBreak}}Ну, ты разберешься..."
  },
  {
    "label": "RandSkill_Select",
    "text": "Если у тебя есть снаряжение\nсо всеми заполненными слотами,\nто за {{color id=\"1\"}}круть-улитку {{color id=\"65535\"}}я могу заменить\nего {{color id=\"1\"}}дополнительные свойства{{color id=\"65535\"}}.\nЭто так, для информации."
  },
  {
    "label": "RandSkill_NotEnoughShell",
    "text": "Есть у тебя {{color id=\"1\"}}круть-улитки{{color id=\"65535\"}}?{{pageBreak}}Серьезно? Ни одной? Ну, так дела\nне делаются. Давай-ка раздобудь\nсначала {{color id=\"1\"}}круть-улиток{{color id=\"65535\"}}, а там уж\nпоговорим!"
  },
  {
    "label": "RandSkill_NotFirstShell",
    "text": "Извини, я сейчас очень занят."
  },
  {
    "label": "RandSkill_NotEnoughRarity",
    "text": "На этом снаряжении недостаточно\n{{color id=\"1\"}}слотов{{color id=\"65535\"}}. Похоже, {{color id=\"1\"}}звезд {{color id=\"65535\"}}не хватает.{{pageBreak}}Я могу сменить свойства только \nна снаряжении с {{color id=\"1\"}}3 слотами{{color id=\"65535\"}}.\nИ они все должны быть {{color id=\"1\"}}заполнены{{color id=\"65535\"}}!"
  },
  {
    "label": "RandSkill_EmptySlot",
    "text": "Эй, погоди. У этого снаряжения\nзаняты {{color id=\"1\"}}не все слоты{{color id=\"65535\"}}.{{pageBreak}}Я могу менять свойства только\nна том снаряжении, у которого\nесть {{color id=\"1\"}}3 заполненных слота{{color id=\"65535\"}}.\nИзвини, ничего не могу поделать."
  },
  {
    "label": "RandSkill_Q",
    "text": "Заменить свойства?"
  },
  {
    "label": "RareUp_First",
    "text": "За {{color id=\"1\"}}круть-улитку{{color id=\"65535\"}} я могу {{color id=\"1\"}}добавить\nзвезд твоему снаряжению{{color id=\"65535\"}}.{{pageBreak}}Чем больше звезд, тем больше\n{{color id=\"1\"}}слотов{{color id=\"65535\"}}, а значит, и больше свойств.\nКак только снаряжение получает\nвсе доступные слоты, то начинает\nнакапливаться{{color id=\"1\"}} опыт снаряжения{{color id=\"65535\"}}!{{pageBreak}}Если у тебя есть какое-то любимое\nснаряжение, советую добавлять\nему звезд. Поверь мне, я знаю,\nо чем говорю!{{pageBreak}}Конечно, чем больше уже есть\nзвезд, тем больше {{color id=\"1\"}}круть-улиток{{color id=\"65535\"}}\nпонадобится для дальнейшего\nулучшения. Понятно?{{pageBreak}}Ладно, тогда..."
  },
  {
    "label": "RareUp_Select",
    "text": "Какому {{color id=\"1\"}}снаряжению{{color id=\"65535\"}} хочешь\nдобавить звезд? Если у тебя\nзавалялись {{color id=\"1\"}}круть-улитки{{color id=\"65535\"}},\nя все сделаю, не вопрос."
  },
  {
    "label": "RareUp_NoShell",
    "text": "Есть у тебя {{color id=\"1\"}}круть-улитки{{color id=\"65535\"}}?{{pageBreak}}Серьезно? Ни одной? Ну, так дела\nне делаются. Давай-ка раздобудь\nсначала {{color id=\"1\"}}круть-улиток{{color id=\"65535\"}}, а там уж\nпоговорим!"
  },
  {
    "label": "RareUp_NotEnoughShell",
    "text": "Не хватает {{color id=\"1\"}}круть-улиток{{color id=\"65535\"}}?\nИзвини, но скидок я не делаю."
  },
  {
    "label": "RareUp_NotFirstShell",
    "text": "Извини, я сейчас очень занят."
  },
  {
    "label": "RareUp_FestT",
    "text": "О, да это же {{color id=\"1\"}}Сплатфест-майка{{color id=\"65535\"}}.\nС ней я ничего не могу сделать.\nИзвини, но {{color id=\"1\"}}звезд {{color id=\"65535\"}}не прибавится."
  },
  {
    "label": "RareUp_AlreadyMax",
    "text": "Ух ты... звезд тут выше крыши.\nБольше уже нельзя добавить.\nИзвини."
  },
  {
    "label": "RareUp_Q",
    "text": "Добавить звезд?"
  },
  {
    "label": "Clean_First",
    "text": "Тебе уже приходилось {{color id=\"1\"}}отмывать{{color id=\"65535\"}}\nснаряжение?{{pageBreak}}{{color id=\"1\"}}Отмывая{{color id=\"65535\"}} снаряжение, ты стираешь\nвсе {{color id=\"1\"}}дополнительные свойства{{color id=\"65535\"}}\nи оно становится как новенькое.{{pageBreak}}Бросайся в бой с {{color id=\"1\"}}отмытым{{color id=\"65535\"}}\nснаряжением и сможешь\nзаполучить новые свойства!{{pageBreak}}После отмывки остаются\n{{color id=\"1\"}}б/у свойства{{color id=\"65535\"}}. И они все твои.\nМне они не нужны.{{pageBreak}}Как только получишь достаточно\n{{color id=\"1\"}}б/у свойств{{color id=\"65535\"}}, смешай их и получишь\nлюбое свойство, какое захочешь.{{pageBreak}}Поверь мне, очень многие\nиграют с {{color id=\"1\"}}отмытым {{color id=\"65535\"}}снаряжением.{{pageBreak}}И это, скажу я тебе, потрясающее\nзрелище!{{pageBreak}}Короче, если у тебя есть чем\nплатить и ты хочешь отмыть\nснаряжение, я тот, кто тебе нужен!{{pageBreak}}Так, посмотрим..."
  },
  {
    "label": "Clean_Select",
    "text": "Какое {{color id=\"1\"}}снаряжение{{color id=\"65535\"}} ты хочешь\n{{color id=\"1\"}}отмыть{{color id=\"65535\"}}? Я все быстро проверну,\nты даже и не заметишь!"
  },
  {
    "label": "Clean_NoSkill",
    "text": "Э... это снаряжение и так блестит.\nУ него нет {{color id=\"1\"}}дополнительных свойств{{color id=\"65535\"}},\nтак что я тут ничего не могу\nсделать."
  },
  {
    "label": "Clean_NotEnoughMoney",
    "text": "С деньгами у тебя хило. Ты давай,\nподзаработай чуток, а потом уж\nи приходи."
  },
  {
    "label": "Clean_Q",
    "text": "Отмыть снаряжение?"
  },
  {
    "label": "Clean_Done",
    "text": "Чистота — чисто я! Тут, кстати,\n{{color id=\"1\"}}б/у свойства {{color id=\"65535\"}}нарисовались.\nЗабирай!"
  },
  {
    "label": "GoodBye",
    "text": "Спасибо! Если что, ты знаешь,\nгде меня найти."
  },
  {
    "label": "FirstSand",
    "text": "Гранд-фестиваль — просто отвал\nвсего. Я еще думал, идти или нет,\nи решил все-таки не упускать\nуникальную возможность.{{pageBreak}}Такой восторг я в последний раз\nиспытывал, когда мальком был.\nКажется, будто им пропитан даже\nвоздух.{{pageBreak}}Дерни меня, если я могу чем-то\nсделать Гранд-фестиваль для тебя\nеще круче."
  },
  {
    "label": "FirstSand_AfterSomeMsg",
    "text": "Надо сказать, Гранд-фестиваль —\nпросто отвал всего. Я еще думал,\nидти или нет, и решил все-таки не\nупускать уникальную возможность.{{pageBreak}}Такой восторг я в последний раз\nиспытывал, когда мальком был.\nКажется, будто им пропитан даже\nвоздух.{{pageBreak}}Дерни меня, если я могу чем-то\nсделать Гранд-фестиваль для тебя\nеще круче."
  }
]