{
  "version": 7,
  "rootNode": {
    "Triggers": [
      {
        "DuckerKey": "Sdodr_MM",
        "EndState": "Progress",
        "StartState": "HeroMenu"
      },
      {
        "DuckerKey": "Sdodr_SS",
        "EndState": "Progress",
        "StartState": "FleaMarket"
      },
      {
        "DuckerKey": "Sdodr_SS",
        "EndState": "Progress",
        "StartState": "Hacking"
      }
    ]
  }
}