{
  "version": 7,
  "rootNode": {
    "Triggers": [
      {
        "DuckerKey": "Mission_HeroMenu",
        "EndState": "Progress,ChangeAreaDokanWarp,NoChangeAreaDokanWarp",
        "StartState": "HeroMenu"
      },
      {
        "DuckerKey": "Mission_HeroMenu",
        "EndState": "Progress",
        "StartState": "Progress/AncientDocumentGetWindow"
      }
    ]
  }
}