[
  {
    "label": "000",
    "text": "Wauw, je bent al best ver gekomen, of niet?"
  },
  {
    "label": "001",
    "text": "Het lijkt erop dat je vanaf hier een andere sector kunt\nbereiken."
  },
  {
    "label": "002",
    "text": "O kijk! Er is zelfs een buis aan de andere kant!"
  },
  {
    "label": "003",
    "text": "Maar geen tekenen van opa..."
  },
  {
    "label": "004",
    "text": "Eens zien wat er hier te ontdekken valt. Veel succes!"
  },
  {
    "label": "100",
    "text": "Wauw, je bent al best ver gekomen, of niet?"
  },
  {
    "label": "101",
    "text": "Het lijkt erop dat je vanaf hier een andere sector kunt\nbereiken."
  },
  {
    "label": "102",
    "text": "Die buis is vast de weg terug."
  },
  {
    "label": "103",
    "text": "Hm... Maar nog steeds geen bericht van opa. Tja."
  },
  {
    "label": "104",
    "text": "Eens zien wat er hier te ontdekken valt. Veel succes!"
  }
]