[
  {
    "label": "000",
    "text": "Zo, da's een serieuze hoop {{color id=\"1\"}}vloeivacht{{color id=\"65535\"}}.{{delay frames=\"30\"}}\nDat ronde geval bovenaan is vast de {{icon id=\"22\" arg=\"0x0000803F00000000\"}}{{color id=\"1\"}}haarbal{{color id=\"65535\"}}."
  },
  {
    "label": "001",
    "text": "Ik durf te wedden dat als je dat ding zou laten\nKNAPPEN, dat alles zou verdwijnen... maar met je inkt\nlukt dat niet."
  },
  {
    "label": "002",
    "text": "Nou ja... daar denken we later wel over na. Laten we\neerst maar op zoek gaan naar een Octarianenbasis!"
  }
]