[
  {
    "label": "000",
    "text": "Aaay... {{string value=\"5\"}}(Je bent niet slecht...){{fun_000F_0004 arg=\"0x0500\"}}"
  },
  {
    "label": "001",
    "text": "Aaay! {{string value=\"5\"}}(Maar ik zal niet verliezen!){{fun_000F_0004 arg=\"0x0500\"}}"
  },
  {
    "label": "002",
    "text": "AAAY!{{string value=\"5\"}} (Ik heb te hard getraind om nu te verliezen!){{fun_000F_0004 arg=\"0x0500\"}}"
  }
]