[
  {
    "label": "000",
    "text": "Dit? Dit is de {{color id=\"1\"}}Armadrone{{color id=\"65535\"}}. De naam verwijst naar de\nwinkel waar hij vandaan komt: de Armada. De eigenaar,\nKrabbert, heeft me er het een en ander over verteld."
  },
  {
    "label": "001",
    "text": "Je kunt er verborgen voorwerpen mee opsporen, zelfs\nhier in Alterna.{{delay frames=\"15\"}} Krabberts verhaal was een stuk langer,\nmaar dat was in het kort wat je ermee kunt."
  },
  {
    "label": "002",
    "text": "Een ander belangrijk punt dat hij noemde, was dat je\n{{icon id=\"23\" arg=\"0x0000803F00000000\"}}{{color id=\"1\"}}visseneieren {{color id=\"65535\"}}nodig hebt om er gebruik van te maken.\nDus eerst eieren zoeken, dan voorwerpen zoeken!"
  },
  {
    "label": "003",
    "text": "Alle voorwerpen die je vindt, worden direct naar de\n{{color id=\"1\"}}lobbyterminal{{color id=\"65535\"}} gebracht. Vergeet dus niet om je mooie\nvondsten daar op te halen."
  },
  {
    "label": "004",
    "text": "Als je een gevonden voorwerp hebt opgehaald, komt de\nArmadrone weer hierheen voor een volgende klus.\nLief hè, van de Armadrone?"
  }
]