[
  {
    "label": "C4_S03_00",
    "text": "...Aha... O? Mhm..."
  },
  {
    "label": "C4_S03_01",
    "text": "De kapitein zegt dat je het echt klasse gedaan hebt,\nagent 3!{{pageBreak}}En die tirade over Deep Cut was ook de moeite waard.\nDuurde alleen een beetje lang."
  },
  {
    "label": "C4_S03_02",
    "text": "{{string value=\"6\"}}Krrrsj!{{fun_000F_0004 arg=\"0x0600\"}} ...oort iemand me? Hallo? Over!"
  },
  {
    "label": "C4_S03_03",
    "text": "Opa! We horen je! Niet bepaald luid en duidelijk, maar\nwe horen je! {{delay frames=\"15\"}}Wat is er loos?"
  },
  {
    "label": "C4_S03_04",
    "text": "Alles oké? {{delay frames=\"15\"}}Hoe staat het er voor aan jouw kant?"
  },
  {
    "label": "C4_S03_05",
    "text": "Aha! Ik heb dat dekselse ding toch weer aan de gang\ngekregen! Oké, hier komt mijn status...{{pageBreak}}Ik ben hier opgesloten door iets of iemand die zich\nTed B. noemt. Klinkt als een louche figuur.{{pageBreak}}Maar waar ik ben? Geen idee. Maar mijn linkerknie\nsteekt als een stekelbaars, dus ik moet ergens heel\nhoog zijn!"
  },
  {
    "label": "C4_S03_06",
    "text": "Hm, dat is een nuttige aanwijzing. Er is eigenlijk\nmaar één plek die in aanmerking komt, toch?"
  },
  {
    "label": "C4_S03_07",
    "text": "Zo, zo. Die gammele knie van je mag onze locatie dan\nwel hebben verraden, maar vergeet het maar als je\nsoms denkt dat wij je daarvoor gaan vergoeden!{{pageBreak}}Ik zal de legendarische aanvoerder van de\nKraakcommando's in elk geval niet zomaar meer\nonderschatten.{{pageBreak}}Misschien moet ik nu maar met je afrekenen, voordat\nje écht op m'n zenuwen gaat werken."
  },
  {
    "label": "C4_S03_08",
    "text": "Hé, wacht... HÉ! Wat is dat? Wat denk je dat je aan het\ndoen bent?{{pageBreak}}Aaaah!"
  },
  {
    "label": "C4_S03_09",
    "text": "...Uuuh. {{delay frames=\"15\"}}Dat klonk niet zo best voor opa..."
  },
  {
    "label": "C4_S03_10",
    "text": "Opa! We komen je halen! Houd vol!"
  },
  {
    "label": "C4_S03_11",
    "text": "Tenminste, als we hebben uitgevogeld hoe we bij je\nkunnen komen..."
  },
  {
    "label": "C4_S03_12",
    "text": "Kunnen we misschien wat met dat spul dat we\nonderweg bijeen hebben gescharreld?{{pageBreak}}Agent 3, bekijk jij onze schatten eens goed.\nMisschien komen we daarmee in de raket!"
  }
]