[
  {
    "label": "001",
    "text": "Belangrijk nieuws voor iedereen die wat wil\nbijverdienen: Beer & Co zoekt medewerkers!"
  },
  {
    "label": "002",
    "text": "Als je die Salmonieten altijd al de baas\nhebt willen zijn, dan is dit je kans!"
  },
  {
    "label": "003",
    "text": "Iedereen die bijscholing nodig heeft, kan bij\nmij terecht! Ik weet namelijk alles!"
  },
  {
    "label": "004",
    "text": "Ay... {{string value=\"5\"}}(Of ze lezen het klushandboek...\nZomaar een idee.){{fun_000F_0004 arg=\"0x0500\"}}"
  },
  {
    "label": "005",
    "text": "Teamwerk is nog niet zo simpel. Vooral met\neen teamlid dat soms ineens staat te dansen."
  },
  {
    "label": "006",
    "text": "Ay? AYY?! {{string value=\"5\"}}(Over wie heb je het?\nEn waarom heb ik dat gemist?!){{fun_000F_0004 arg=\"0x0500\"}}"
  },
  {
    "label": "007",
    "text": "Zeg, Muriël, wat doe jij eigenlijk als je wilt\nontspannen?"
  },
  {
    "label": "008",
    "text": "Een paar golfjes Salmonieten mollen!\nDat helpt altijd!"
  },
  {
    "label": "009",
    "text": "Ik draag vaak het meeste bij als ik het\nstrijdgewoel van een afstandje overzie."
  },
  {
    "label": "010",
    "text": "Ay?! {{string value=\"5\"}}(Terwijl wij allemaal onze nekken\nuitsteken?! O ja... Ik heb geen nek.){{fun_000F_0004 arg=\"0x0500\"}}"
  },
  {
    "label": "011",
    "text": "De seconden tikken weg, ze werpt nog een\nlaatste ei naar de mand... VOLTREFFER!"
  },
  {
    "label": "012",
    "text": "Ay? {{string value=\"5\"}}(Je bent je eiergooitechniek aan het\nbijschaven?){{fun_000F_0004 arg=\"0x0500\"}}"
  },
  {
    "label": "101",
    "text": "Muriël verliest haar doel nooit uit het oog...\nmaar al de Salmonietjes die haar omsingelen wel!"
  },
  {
    "label": "102",
    "text": "Pfff, wat boeien mij die muggenbeestjes\nals er grote vissen zijn om af te drogen!"
  },
  {
    "label": "103",
    "text": "Totdat je verzuipt in zo'n school Salmonieten\nen ik je weer moet helpen, zeker?"
  },
  {
    "label": "104",
    "text": "Ay?! {{string value=\"5\"}}(Er zijn hier muggen?! Waarom ben ik\ndan geen muggen aan het eten?!){{fun_000F_0004 arg=\"0x0500\"}}"
  },
  {
    "label": "105",
    "text": "Vergis ik me, of wordt Ray altijd met rust\ngelaten door die Salmonieten?"
  },
  {
    "label": "106",
    "text": "Ayy? {{string value=\"5\"}}(Misschien zijn ze bang omdat ik er\nzo sterk uitzie?){{fun_000F_0004 arg=\"0x0500\"}}"
  },
  {
    "label": "107",
    "text": "Tuurlijk, joh. Het komt zeker niet doordat je\ner zelf uitziet als een Salmoniet."
  },
  {
    "label": "108",
    "text": "Ay?! {{string value=\"5\"}}(Op wat voor manier lijk ik op die\nvieze schubbenbeesten?!){{fun_000F_0004 arg=\"0x0500\"}}"
  },
  {
    "label": "109",
    "text": "Hmm... Weet er iemand toevallig hoeveel\neen miljoen keer een miljoen is?"
  },
  {
    "label": "110",
    "text": "Ay? {{string value=\"5\"}}(Een miljoen wat? Beer & Co-punten?\nJij hebt geen miljoen Beer & Co-punten!){{fun_000F_0004 arg=\"0x0500\"}}"
  },
  {
    "label": "111",
    "text": "Dat is mijn geheimpje. Maar hoeveel is dat\nnou? Een megajoen? Een veeljard?"
  },
  {
    "label": "112",
    "text": "Reken jij nog maar even door..."
  }
]