[
  {
    "label": "000",
    "text": "Ik moest een briefje voorlezen van Beer & Co...\n{{color id=\"1\"}}Bedrijfseitjes {{color id=\"65535\"}}zijn nu beschikbaar!"
  },
  {
    "label": "001",
    "text": "Ay. {{string value=\"5\"}}(Als je daar zin in hebt, meld je dan met\nwat vrienden aan bij Beer & Co.){{fun_000F_0004 arg=\"0x0500\"}}"
  },
  {
    "label": "010",
    "text": "Als jij nog niet genoeg tijd doorbrengt met je\ncollega's, dan is een {{color id=\"1\"}}bedrijfseitje {{color id=\"65535\"}}wat voor jou!"
  },
  {
    "label": "011",
    "text": "Heerlijk, een extra kans om jullie teamwerk\ntot in de puntjes te verfijnen!"
  },
  {
    "label": "020",
    "text": "Ay? {{string value=\"5\"}}(En je krijgt ook nog een aardig\naandenken aan een {{color id=\"1\"}}bedrijfseitje{{color id=\"65535\"}}, toch?){{fun_000F_0004 arg=\"0x0500\"}}"
  },
  {
    "label": "021",
    "text": "O, ja! Wat zou het deze keer zijn..."
  }
]