[
  {
    "label": "000",
    "text": "O, spannend! Het {{color id=\"1\"}}nieuwe seizoen {{color id=\"65535\"}}is\nbegonnen!"
  },
  {
    "label": "001",
    "text": "O yesss! Zin in!"
  },
  {
    "label": "002",
    "text": "Ay! Ay! {{string value=\"5\"}}(Ik heb er ook zin in! Mijn vinnen\nkriebelen al van verwachting!){{fun_000F_0004 arg=\"0x0500\"}}"
  },
  {
    "label": "003",
    "text": "Ooo! Er worden soms ook {{color id=\"1\"}}eventgevechten{{color id=\"65535\"}}\ngehouden! Die wil je niet missen!"
  },
  {
    "label": "004",
    "text": "JOEHOE! Kijk uit, wereld, Muriël komt eraan!\n...Eh, wat zijn eventgevechten precies?"
  },
  {
    "label": "005",
    "text": "Speciale gevechten met aparte regels of\nverrassende beperkingen."
  },
  {
    "label": "006",
    "text": "Ay? Ay! {{string value=\"5\"}}(En ze komen ook onregelmatig\nvoor, hè? Dus wees erbij!){{fun_000F_0004 arg=\"0x0500\"}}"
  },
  {
    "label": "018",
    "text": "Volgens betrouwbare bronnen heeft\nBeer & Co een nieuwe {{color id=\"1\"}}werkplek {{color id=\"65535\"}}geopend."
  },
  {
    "label": "019",
    "text": "Ay? Ay... {{string value=\"5\"}}(Dat is hem dus? Ik rekende meer op\neen zonnige lobby met een tafelvoetbaltafel...){{fun_000F_0004 arg=\"0x0500\"}}"
  },
  {
    "label": "020",
    "text": "Gouden eieren in overvloed daar, zo te zien.\n'Werknemer van de maand' is voor mij!"
  },
  {
    "label": "021",
    "text": "Ay... {{string value=\"5\"}}(Zorg maar gewoon dat je niet WEER\nin de zee kukelt...){{fun_000F_0004 arg=\"0x0500\"}}"
  }
]