[
  {
    "label": "001",
    "text": "Einde verhaal voor jou, Or-duf!"
  },
  {
    "label": "002",
    "text": "De kracht van chaos... {{delay frames=\"15\"}}Wat een oergeweld."
  },
  {
    "label": "003",
    "text": "Maar mijn programma is nu volledig uitgevoerd."
  },
  {
    "label": "004",
    "text": "Na de herstart zal de wereld rust en orde kennen!"
  },
  {
    "label": "005",
    "text": "O nee...{{delay frames=\"15\"}} Waren we toch te laat?"
  },
  {
    "label": "006",
    "text": "Ik wil geen kleurloze wereld..."
  },
  {
    "label": "007",
    "text": "Misschien kan ik het programma van Orde nog stoppen!"
  },
  {
    "label": "008",
    "text": "Het gaat niet! {{delay frames=\"30\"}}Hij voert het te efficiënt uit!"
  },
  {
    "label": "009",
    "text": "...{{delay frames=\"15\"}}Lorelei...{{delay frames=\"30\"}} Ik...{{delay frames=\"15\"}}..."
  }
]