[
  {
    "label": "000",
    "text": "Goed bezig, Acht. {{delay frames=\"30\"}}Ik heb hier ook de informatie over de\nvolgende etage."
  },
  {
    "label": "001",
    "text": "Wacht even! {{delay frames=\"15\"}}We krijgen hier TWEE kleurenchips?!{{delay frames=\"30\"}}\nDubbele pret!"
  },
  {
    "label": "002",
    "text": "Weet je wat ik me al even heb lopen afvragen... {{delay frames=\"30\"}}Wat is\ndat gedoe over een {{icon id=\"63\" arg=\"0x0000803F00000000\"}}{{color id=\"4\"}}beloning{{color id=\"65535\"}}?"
  },
  {
    "label": "003",
    "text": "Je beloning is hoeveel {{icon id=\"63\" arg=\"0x0000803F00000000\"}}{{color id=\"4\"}}neuri's{{color id=\"65535\"}} je krijgt voor\nhet uitspelen van een etage. {{delay frames=\"30\"}}Ik weet nog niet wat je\nermee kunt, maar het zal wel iets goeds zijn?"
  },
  {
    "label": "004",
    "text": "Als jij het zegt. {{delay frames=\"15\"}}Oké, daar komen we nog wel achter, dan."
  },
  {
    "label": "005",
    "text": "Acht, als je {{color id=\"4\"}}een pauze nodig hebt {{color id=\"65535\"}}van het beklimmen van\nde toren, dan kun je me dat vertellen met {{icon id=\"74\" arg=\"0x0000803F00000000\"}}.{{pageBreak}}Dan stop ik de lift en wacht ik hier tot je er klaar voor\nbent.{{delay frames=\"15\"}} Het is nergens voor nodig om jezelf af te matten."
  }
]