[
  {
    "label": "001",
    "text": "Lekker ritme, Acht! {{delay frames=\"30\"}}Ik ga er helemaal in mee!"
  },
  {
    "label": "002",
    "text": "En Mariana! {{delay frames=\"30\"}}Wat een heerlijke melodie!"
  },
  {
    "label": "003",
    "text": "Geen tijd om te dutten! {{delay frames=\"30\"}}Geef me die beat, dj!"
  },
  {
    "label": "004",
    "text": "Komt ie, Lore!"
  },
  {
    "label": "005",
    "text": "Wat voor zin heeft deze weerstand?"
  },
  {
    "label": "006",
    "text": "Geluk is stilstand. Geen veranderingen. Voor altijd."
  },
  {
    "label": "007",
    "text": "Stilstand?! We zijn op tournee!"
  },
  {
    "label": "007_01",
    "text": "Geen tijd om te rusten!"
  },
  {
    "label": "008",
    "text": "Bewaar je saaie optredens maar voor saaie lui. {{delay frames=\"15\"}}\nAls wij live spelen, is het levendig!"
  },
  {
    "label": "009",
    "text": "Zo is het toch? {{delay frames=\"30\"}}Draai dat volume omhoog!"
  },
  {
    "label": "010",
    "text": "Een, twee, drie..."
  },
  {
    "label": "011",
    "text": "{{size value=\"200\"}}GAAAAAAAAAAAH!{{size value=\"100\"}}"
  }
]