[
  {
    "label": "000",
    "text": "Welkom op het Inkopolisplein, het\nnieuwe {{color id=\"1\"}}hart{{color id=\"65535\"}} van de Inkling-cultuur!"
  },
  {
    "label": "001",
    "text": "Recht voor je zie je de {{color id=\"1\"}}Deca-toren{{color id=\"65535\"}}, het meest\niconische gebouw van het Inkopolisplein!{{pageBreak}}Je moet in de {{color id=\"1\"}}lobby {{color id=\"65535\"}}op de begane\ngrond zijn voor onlinegevechten."
  },
  {
    "label": "002",
    "text": "Wat hebben we hier? De meest verse winkels\nvan Inkopolis!{{pageBreak}}Je vindt er {{color id=\"1\"}}wapens {{color id=\"65535\"}}en {{color id=\"1\"}}uitrusting{{color id=\"65535\"}}\nwaarmee je weer helemaal bij bent!{{pageBreak}}Maar het personeel is zo verwaand dat ze\nje niet bedienen als je niet vers genoeg bent..."
  },
  {
    "label": "003",
    "text": "Er is ook nog dat duistere gebouw daar in het\nhoekje. Ze schijnen er baantjes aan te bieden...{{pageBreak}}Ik zou er twee keer over nadenken voor ik daar zou\naankloppen. Of je moet echt centen nodig hebben..."
  },
  {
    "label": "004",
    "text": "En dan hebben we nog {{color id=\"1\"}}De Flipper{{color id=\"65535\"}}, de\npopulairste ontmoetingsplek van Inkopolis.{{pageBreak}}Dat is de plek waar vrienden elkaar treffen\nom met én tegen elkaar te spelen."
  },
  {
    "label": "005",
    "text": "Als je een andere stad wilt bezoeken, moet je\nhier bij het {{color id=\"1\"}}treinstation {{color id=\"65535\"}}zijn.{{pageBreak}}Een aantal van de bewoners lijkt het nog wat te\nduizelen... Kan niemand daar iets aan doen?{{pageBreak}}Een van de bestemmingen van de trein is de\n{{color id=\"1\"}}ordesector{{color id=\"65535\"}}. Zeker het bezoeken waard!"
  },
  {
    "label": "006",
    "text": "En dat was het! Maak gerust een ommetje, of\nga meteen dat vreemde fenomeen onderzoeken!{{pageBreak}}Veel plezier op het Inkopolisplein!"
  }
]