[
  {
    "label": "000",
    "text": "We zijn intussen best hoog, hè? {{delay frames=\"30\"}}We hebben vast meer\nkleurenchips dan we kunnen tellen!"
  },
  {
    "label": "001",
    "text": "Dat kun je makkelijk genoeg bekijken. Druk op {{icon id=\"72\" arg=\"0x0000803F00000000\"}} om\nje palet te zien."
  },
  {
    "label": "002",
    "text": "Een, {{delay frames=\"5\"}}twee, {{delay frames=\"5\"}}drie...{{delay frames=\"30\"}} Nou, het zijn er in elk geval meer dan\nik WIL tellen!{{pageBreak}}Yo...{{delay frames=\"15\"}} Wat is dat gedoe met \"bereik\" en \"kracht\" dat\ndaar links staat?"
  },
  {
    "label": "003",
    "text": "Dat zijn {{color id=\"4\"}}tinten{{color id=\"65535\"}} van kleurenchips. {{pageBreak}}Een tint staat voor een bepaald effect,{{delay frames=\"30\"}} dus chips met\neen vergelijkbare kleur en patroon hebben hetzelfde\nsoort effect.{{pageBreak}}Kleurenchips met een rode kleur hebben de {{color id=\"4\"}}kracht{{color id=\"65535\"}}tint,{{delay frames=\"15\"}}\nen die zorgen er vooral voor dat je meer schade\ntoebrengt.{{pageBreak}}Eén blik op je palet geeft je meteen een indruk van welke\ntint je een hoop chips hebt. Dan kun je zien waar je op\ndat moment het sterkst in bent.{{pageBreak}}En als je lang genoeg naar je palet hebt gekeken...{{delay frames=\"15\"}}\ndan wordt het tijd voor de volgende etage."
  }
]