[
  {
    "label": "000",
    "text": "We zijn ongeveer halverwege."
  },
  {
    "label": "001",
    "text": "Cool. {{delay frames=\"15\"}}Niet te geloven dat we ons hiermee bezig moeten\nhouden terwijl we net op wereldtournee zijn."
  },
  {
    "label": "002",
    "text": "Wereldtournee? {{delay frames=\"30\"}}Je zit in de muziek?"
  },
  {
    "label": "003",
    "text": "Ja! Mariana en ik zijn {{color id=\"4\"}}Tentacool{{color id=\"65535\"}}, het meest dynamische\nduo van de wereld!"
  },
  {
    "label": "004",
    "text": "Aha. {{delay frames=\"15\"}}Dus Mariana is een succesvolle artiest?"
  },
  {
    "label": "005",
    "text": "...Lo...re... ...ver...nie...iging..."
  },
  {
    "label": "006",
    "text": "Mariana?! {{delay frames=\"15\"}}Volhouden, hulp is onderweg!"
  },
  {
    "label": "007",
    "text": "Dat klonk niet best. {{delay frames=\"30\"}}Laten we vooral opschieten!"
  },
  {
    "label": "008",
    "text": "Ja...{{delay frames=\"15\"}} Goed idee."
  }
]