[
  {
    "label": "000",
    "text": "O, Acht? {{delay frames=\"15\"}}Niet vergeten dat het palet waarmee je Orde\neen lesje hebt geleerd, al opnieuw geconfigureerd is.{{pageBreak}}Dus...{{delay frames=\"15\"}} is het misschien tijd om een ander palet\nte gebruiken? {{delay frames=\"30\"}}Je kunt een palet kiezen met {{icon id=\"74\" arg=\"0x0000803F00000000\"}}!"
  }
]