[
  {
    "label": "Normal_00",
    "text": "Нужно вырвать большого вольторыба из рук\nэтих гадских осьморян!"
  },
  {
    "label": "Normal_01",
    "text": "Знаешь, костюм героя тебе идет. Жаль,\nу сегодняшней молодежи со вкусом не очень..."
  },
  {
    "label": "Normal_02",
    "text": "Проклятые осьморяне! Мне бы на пенсии отдыхать,\nа не других на пенсию отправлять!"
  },
  {
    "label": "Normal_03",
    "text": "Когда все закончится, нужно будет тщательнее\nохранять большого вольторыба."
  },
  {
    "label": "Normal_04",
    "text": "Здорово, что твой маленький друг не бросает\nтебя в беде..."
  },
  {
    "label": "Normal_05",
    "text": "Шерстудень — опасная штука. Не трогай его!\nА то следующие 10 лет будешь бриться!"
  },
  {
    "label": "Normal_06",
    "text": "Что ты любишь есть, а? Еду? В смысле, обычную\nеду? Я и не знал, что ее еще едят."
  },
  {
    "label": "Normal_07",
    "text": "Эти чайники ведут к базам осьморян. Чтобы открыть\nих, их нужно закрасить. Чайники дома не крась!"
  },
  {
    "label": "Normal_08",
    "text": "Когда кидаешь малетчика, удерживай {{icon id=\"10\" arg=\"0x0000803F00000000\"}}\nи не торопись. Дождись удобного момента!"
  },
  {
    "label": "Normal_09",
    "text": "Знаешь, чем особенно хорош костюм героя? Он сам\nвосстанавливается! Нужно просто подождать."
  },
  {
    "label": "Normal_10",
    "text": "Если все валится из рук, не нервничай,\nа расслабься и нажми {{icon id=\"3\" arg=\"0x0000803F00000000\"}}."
  },
  {
    "label": "Normal_11",
    "text": "Стальные решетки и заборы действуют на нервы.\nНажми {{icon id=\"11\" arg=\"0x0000803F00000000\"}}, чтобы проскользнуть сквозь них!"
  },
  {
    "label": "Normal_12",
    "text": "Краска — это тебе не каска, а жизнь — не сказка!\nЭто я так, к слову..."
  },
  {
    "label": "Normal_14",
    "text": "Вражеская краска брызжет из-за каждого угла?\nПрячься за стену! Это совсем не стыдно!"
  },
  {
    "label": "Normal_15",
    "text": "Я уже неоднократно это говорил, но скажу еще раз...\nСначала крась, а потом уж думай!"
  },
  {
    "label": "Location_00",
    "text": "Ты хорошо кушаешь? Бросаться в бой на пустой\nжелудок нельзя!"
  },
  {
    "label": "Location_01",
    "text": "Эта башня стоит вверх тормашками, потому что...\nПотому что какой-то башне надо ж так стоять!"
  },
  {
    "label": "Location_02",
    "text": "А уверенности в своих силах тебе не занимать.\nЧувствую себя гением. Ведь я тебя нашел!"
  },
  {
    "label": "Location_03",
    "text": "Знаешь агента 001 и агента 002? У них еще другая\nработенка есть. Вроде они поп-звезды и все такое."
  },
  {
    "label": "Location_04",
    "text": "Я буду присматривать за тобой издалека,\nагент 003. А глаз у меня алмаз!"
  },
  {
    "label": "Location_05",
    "text": "Ух, какая высота..."
  },
  {
    "label": "Bored_00",
    "text": "{{string value=\"5\"}}{{color id=\"0\"}}(Ох, спина болит...){{color id=\"65535\"}}{{fun_000F_0004 arg=\"0x0500\"}}"
  },
  {
    "label": "Bored_01",
    "text": "{{string value=\"5\"}}{{color id=\"0\"}}(Эх, сейчас бы подкрепиться краб-крекерами...){{color id=\"65535\"}}{{fun_000F_0004 arg=\"0x0500\"}}"
  },
  {
    "label": "Bored_02",
    "text": "{{string value=\"5\"}}{{color id=\"0\"}}(Обед вчера был вкусный. Но надо было, наверное,\nболее тщательно чистить зубы.){{color id=\"65535\"}}{{fun_000F_0004 arg=\"0x0500\"}}"
  },
  {
    "label": "Bored_03",
    "text": "{{string value=\"5\"}}{{color id=\"0\"}}(Эх, вот бы мне кто в молодости рассказал\nпро такую штуку, как увлажнитель...){{color id=\"65535\"}}{{fun_000F_0004 arg=\"0x0500\"}}"
  },
  {
    "label": "Bored_04",
    "text": "Давай! Пусть у этих осьморян в глазах зарябит!"
  },
  {
    "label": "Bored_05",
    "text": "Нужна помощь, агент 003? Мудрый совет?"
  },
  {
    "label": "Bored_06",
    "text": "{{string value=\"5\"}}... ... ...{{fun_000F_0004 arg=\"0x0500\"}} А-А-А! Не сплю я, не сплю! Это был\nсеанс тактического увлажнения глаз!"
  }
]