[
  {
    "label": "Normal_00",
    "text": "Вижу, костюмчик сидит отлично! Ты только его\nстирать не забывай."
  },
  {
    "label": "Normal_01",
    "text": "Поверить не могу, что Октавио оказался не таким\nуж и плохим. Это... просто возмутительно!"
  },
  {
    "label": "Normal_02",
    "text": "Здорово, что твой маленький друг не бросил\nтебя в беде..."
  },
  {
    "label": "Normal_03",
    "text": "Что ты любишь есть, а? Еду? В смысле, обычную\nеду? Я и не знал, что ее еще едят."
  },
  {
    "label": "Normal_04",
    "text": "Скучаю по своей гавайке. Интересно, продают ли\nих в размере ультра-нано-мини?.."
  },
  {
    "label": "Normal_05",
    "text": "Твой взгляд ничуть не изменился. Взгляд, который\nя искал. Взгляд, который никогда не обманывает!"
  },
  {
    "label": "Normal_06",
    "text": "Не забывай, что в меню можно менять снаряжение\nи делать другие молодежные штучки. Попробуй!"
  },
  {
    "label": "Normal_07",
    "text": "Ты знаешь, что малетчика тоже можно улучшать?\nМалец заслужил пару-тройку апгрейдов!"
  },
  {
    "label": "Progress_00",
    "text": "Да ты зачищаешь чайники быстрее, чем\nчайникочист на чаепитии!"
  },
  {
    "label": "Bored_00",
    "text": "{{string value=\"5\"}}{{color id=\"0\"}}(Ох, спина болит... Если это можно назвать спиной.){{color id=\"65535\"}}{{fun_000F_0004 arg=\"0x0500\"}}"
  },
  {
    "label": "Bored_01",
    "text": "{{string value=\"5\"}}{{color id=\"0\"}}(Эх, сейчас бы подкрепиться краб-крекерами...){{color id=\"65535\"}}{{fun_000F_0004 arg=\"0x0500\"}}"
  },
  {
    "label": "Bored_02",
    "text": "{{string value=\"5\"}}{{color id=\"0\"}}(Обед вчера был вкусный. Но надо было, наверное,\nболее тщательно чистить зубы.){{color id=\"65535\"}}{{fun_000F_0004 arg=\"0x0500\"}}"
  },
  {
    "label": "Bored_03",
    "text": "{{string value=\"5\"}}{{color id=\"0\"}}(Никак не пойму, как же им удалось меня\nвысушить. Под землей-то?!){{color id=\"65535\"}}{{fun_000F_0004 arg=\"0x0500\"}}"
  },
  {
    "label": "Bored_04",
    "text": "Нужна помощь, агент 003? Мудрый совет?"
  },
  {
    "label": "Bored_05",
    "text": "{{string value=\"5\"}}... ... ...{{fun_000F_0004 arg=\"0x0500\"}} А-А-А! Не сплю я, не сплю! Это был\nсеанс тактического увлажнения глаз!"
  }
]