[
  {
    "label": "18bbd126-4acd-4099-b3b2-6ad9c801cd0c",
    "text": "Dat had erger uit kunnen pakken!"
  },
  {
    "label": "3a9e70dc-bcf0-404a-ad73-c0fa71d5eeb8",
    "text": "Zo te zien komen {{color id=\"1\"}}muurboosts {{color id=\"65535\"}}hier weer van pas. Kijk\nwel eerst naar boven en spring op het juiste moment!"
  },
  {
    "label": "57ba1eb7-b557-4858-a35e-805d1a6d49f4",
    "text": "Gelukt! Nu eens zien waar dat {{color id=\"1\"}}lanceerpunt{{color id=\"65535\"}} je naartoe\nbrengt."
  },
  {
    "label": "655be6c1-d290-43e1-b0e2-344f4b1b6abd",
    "text": "Super! Goed gedaan!"
  },
  {
    "label": "6c33d03a-c557-43a8-8002-509dc5db8e3f",
    "text": "Lijkt erop dat je hier naar beneden moet..."
  },
  {
    "label": "8427df56-c753-4fdf-929c-05b6e62633e2",
    "text": "Ha! Je hoeft niet op te scheppen, hoor."
  },
  {
    "label": "a359defc-2036-400b-a6d9-ca6dfe24f5ee",
    "text": "Pas op waar je loopt!"
  },
  {
    "label": "a448547a-c7b3-45dd-9160-e68aff42382d",
    "text": "Niet opgeven! Je kunt het!"
  },
  {
    "label": "b521ba12-b367-4028-9906-df6762bc289a",
    "text": "Ooo! Zo elegant kan niet iedereen vallen!"
  },
  {
    "label": "c04a9c6a-a5c6-44ed-8591-f2c6346db1a2",
    "text": "O, je zou een {{color id=\"1\"}}inktrol{{color id=\"65535\"}} kunnen doen richting het platform."
  },
  {
    "label": "d37fdfb0-36f6-466b-85a2-ed952a4e5b1a",
    "text": "Oei! Blijf opletten waar je je voeten neerzet!"
  },
  {
    "label": "d72cef4c-3cfe-4c8b-97da-2e4ec3d46b70",
    "text": "Tijd voor actie!"
  },
  {
    "label": "d9e8e02f-575c-4476-84c5-b23064537992",
    "text": "Oeps! Iets te ver... Misschien kom je op het volgende\nplatform terecht met een achterwaartse {{color id=\"1\"}}inktrol{{color id=\"65535\"}}?"
  },
  {
    "label": "ee5f0c1b-728f-4fed-8a5a-5aa902a05ae5",
    "text": "O, kijk! Het onderste gedeelte van de pilaar kan worden\ngeverfd!"
  }
]