[
  {
    "label": "0a5c19e2-9f91-49b5-b5e4-90c29ec4eab0",
    "text": "Hij is omgedraaid! Dit is je kans!"
  },
  {
    "label": "24fb0647-9323-490c-b6d7-dc9c7726b60a",
    "text": "Dat was... raar. Maar niet slecht gedaan, agent 3.\nHelemaal niet slecht."
  },
  {
    "label": "25db09c5-5b56-4ac9-b73d-696bf360b76d",
    "text": "Dit voelt... verkeerd. Tijd om extra op te passen."
  },
  {
    "label": "397f308b-7886-4e80-b83c-29d7bd0beb77",
    "text": "Weer een deur... of is het dezelfde als daarnet?"
  },
  {
    "label": "39bbf6a5-365f-4552-9b65-ebfffed7fef2",
    "text": "Heel fraai!"
  },
  {
    "label": "47b6bbc1-96d2-4d10-8197-cad144897c88",
    "text": "Er is nu geen weg meer terug! Maar dat is ook vast\nniet nodig. Vast niet."
  },
  {
    "label": "57bdf9ac-0a0b-4945-9519-de38c37027b0",
    "text": "Slecht zicht én Octoschutters... Wat een combinatie..."
  },
  {
    "label": "6b36bb04-79e9-4aba-9021-7862bafaa4cf",
    "text": "Wat een geklauter! Zelfs als toeschouwer was het\nvermoeiend!"
  },
  {
    "label": "7058210c-9e71-4d55-9163-58f63d94282b",
    "text": "Daar! Pak aan!"
  },
  {
    "label": "7d893147-6fb4-4fff-b83b-893ed68f65f9",
    "text": "Jij bent niet bang van hoogtes, hè?"
  },
  {
    "label": "a818f6d9-18bf-4d35-b048-f2b90d400723",
    "text": "Leuke deur! Uitnodigend, maar ook een vleugje\nonheilspellend."
  },
  {
    "label": "a82eda97-74ec-4ea3-9448-5d1c87e8623d",
    "text": "En daar gaat de ontsnappingsroute..."
  },
  {
    "label": "aa965b63-386b-4a89-81a3-435ffb918ab9",
    "text": "Je kunt veel over ze zeggen, maar die Octarianen zijn\nwel grondig."
  },
  {
    "label": "d5abfcdd-3bd9-42b0-9b79-eaa797756d1b",
    "text": "Is dat... een {{color id=\"1\"}}Octoschutter{{color id=\"65535\"}}?"
  },
  {
    "label": "fb9168da-4df9-41da-8ac6-a0a4b64d7a63",
    "text": "O bah, helemaal onder de inkt!"
  }
]