[
  {
    "label": "01b7bdef-67cb-4600-83b4-b41f2b3b601b",
    "text": "Zó goed, zeg!"
  },
  {
    "label": "0aa2d2ec-a062-4020-8ea9-7931f01eae06",
    "text": "Vier maffe vitrines... Je zult creatief moeten zijn met\ndie {{color id=\"1\"}}Ketskogel{{color id=\"65535\"}}."
  },
  {
    "label": "3221f919-94d0-4b86-b30a-6484baaeefde",
    "text": "Gelukt! Het is echt leuk om zo'n kunstenaar aan het\nwerk te zien."
  },
  {
    "label": "324dc23c-f647-449b-9bb1-43549413e836",
    "text": "En nu moet je DRIE {{color id=\"1\"}}schakelaars {{color id=\"65535\"}}raken? Je zult goed\nmoeten mikken!"
  },
  {
    "label": "47a3ef17-3a52-4936-903d-93af510c973f",
    "text": "Ik sta te stuiteren van de spanning! We mogen\nlekker in de weer met de {{color id=\"1\"}}Ketskogel{{color id=\"65535\"}}!"
  },
  {
    "label": "512b8555-0dfc-432d-8c4d-e023b54b3bfe",
    "text": "Heel mooi."
  },
  {
    "label": "59d8632c-cb72-40e7-994a-654d1d28b6d4",
    "text": "Wacht op het juiste moment en laat dan geen enkele\n{{color id=\"1\"}}ballonvis {{color id=\"65535\"}}heel!"
  },
  {
    "label": "7f705d7c-46c5-4937-88c4-aeb9cef83add",
    "text": "Inderdaad! Nu draait hij horizontaal."
  },
  {
    "label": "91f20dd4-0091-4ce4-b8b5-e38b90ede127",
    "text": "Hm, eh... Waar kijk ik naar?"
  },
  {
    "label": "9c2f95b9-f586-4192-a688-e3d38e5029f7",
    "text": "Die {{color id=\"1\"}}schakelaar {{color id=\"65535\"}}lijkt een beetje ver voor een normaal\nschot."
  },
  {
    "label": "aa2f4e4f-8596-4d74-832e-26d38414ae3f",
    "text": "Nu draait hij de andere kant op!"
  },
  {
    "label": "b3143fe9-7ed3-45f9-bdd2-10d34a222138",
    "text": "Vakwerk, agent 3."
  },
  {
    "label": "b6be2ea8-9186-40b1-923d-422f1c374bf9",
    "text": "Bam! Nog eentje!"
  },
  {
    "label": "c0e079d2-ec35-41e9-ab66-e5f0d11aeda3",
    "text": "Dat was de laatste!"
  },
  {
    "label": "c4cf31dd-7c38-4b3d-954e-c0b019e8c357",
    "text": "Eh, agent 1, je weet toch dat dit een klusje is voor\nagent 3, hè?"
  },
  {
    "label": "ca5b5e25-f3f0-426e-a319-8ca38cffb246",
    "text": "O! Ik zie wat {{color id=\"1\"}}schakelaars {{color id=\"65535\"}}draaien achter dat glas!"
  },
  {
    "label": "d331b6cb-575a-45e3-a75e-48fa1c1f215d",
    "text": "Er zijn er nog meer?!"
  },
  {
    "label": "d984ea43-b9f2-443c-a994-e451b4cc8f95",
    "text": "Nu zit er beweging in! Dat is meestal een goed teken."
  },
  {
    "label": "dfab8c6f-2d70-4884-8f19-da18c682c4e8",
    "text": "Gelukkig sta je paraat met je {{color id=\"1\"}}Ketskogel{{color id=\"65535\"}}."
  }
]