[
  {
    "label": "02630791-d285-4532-9103-295a3206047f",
    "text": "O, yes! {{color id=\"1\"}}Krabbentank{{color id=\"65535\"}},{{color id=\"1\"}} Krabbentank{{color id=\"65535\"}},{{color id=\"1\"}} Krabbentank{{color id=\"65535\"}}!"
  },
  {
    "label": "46465237-33e0-4a87-b2e2-cda6dc7777ee",
    "text": "Knal erop los!"
  },
  {
    "label": "622fdea1-4867-49ec-8e8d-df2ec26356c2",
    "text": "Ay! {{string value=\"5\"}}(Dat was spannend!){{fun_000F_0004 arg=\"0x0500\"}}"
  },
  {
    "label": "634b5970-06ab-4b83-b233-f968ad93a98d",
    "text": "O nee! De Megavoltvis zit in die enorme container!"
  },
  {
    "label": "681440f8-051b-4cc1-8ef4-268a65e49b95",
    "text": "Wat een beveiliging hier, zeg. Overdrijven is ook een\nkunst."
  },
  {
    "label": "8136722e-6236-4628-b8ae-3db1238a1f49",
    "text": "Een {{color id=\"1\"}}Ultrastempel{{color id=\"65535\"}}! Druk op {{icon id=\"12\" arg=\"0x0000803F00000000\"}} en druk je stempel op\nhet gevecht!"
  },
  {
    "label": "8484ca13-5552-4bfc-8c0b-8be6a75e9503",
    "text": "Dus hier is dat arme ding... We moeten hem\nterugbrengen! Maar eh, dat doen we later wel een keer."
  },
  {
    "label": "8dcabab4-e2bc-4c53-83d0-3b5908d54b35",
    "text": "Het is nog een aardig eindje, maar daar draai jij toch\nzeker je tentakel niet voor om!"
  },
  {
    "label": "a22c5a93-1bf7-425a-a7a6-774c746ba018",
    "text": "Poeh, even op adem komen."
  },
  {
    "label": "e69897ce-a932-4502-8d47-41cec93e0541",
    "text": "Mooi, mooi, mooi! ♪"
  },
  {
    "label": "f89dd579-fe53-4be9-8b61-ebe6558782be",
    "text": "Weet je zeker dat je dat kunt halen? Ik namelijk niet..."
  }
]