[
  {
    "label": "14e090a0-ad4d-49b3-b282-a66c43f18975",
    "text": "Ted B. gaat zitten! Hij voert vast wat in zijn schild..."
  },
  {
    "label": "47c3f0f4-af13-49cb-b04e-7765e70f89bc",
    "text": "Wat doet hij nou? Hij... rolt om?"
  },
  {
    "label": "5c7e2651-66a4-4bb4-beb0-a423e3a38b06",
    "text": "Wat?! Een {{icon id=\"22\" arg=\"0x0000803F00000000\"}}{{color id=\"1\"}}haarbal{{color id=\"65535\"}}!"
  },
  {
    "label": "5eafff55-1554-4069-9ed4-6e76eae1e1ad",
    "text": "Schiet op die ene vlek die er anders uitziet!\nEens kijken wat dat doet!"
  },
  {
    "label": "76931577-5e70-4013-b718-cea1a9a7bf6c",
    "text": "Hou vol! Je bent halverwege!"
  },
  {
    "label": "857e292b-d85d-4555-879c-ac60aa30c84e",
    "text": "Mooi! Daar is de {{color id=\"1\"}}haarbal{{color id=\"65535\"}}!"
  },
  {
    "label": "b40eab39-2c05-4490-9388-6c28ed8412b9",
    "text": "Wat zijn die gekke vlekken op zijn buik?"
  },
  {
    "label": "b833dc76-cfa8-48f8-a5e3-2cefa214b43e",
    "text": "Een gouden vissenei! Misschien kun je dat wel\ngebruiken!"
  },
  {
    "label": "c5269e9f-fc25-4e20-b635-0fde232b354b",
    "text": "Hij wil weer gaan rollen! Opgepast!"
  },
  {
    "label": "cd16b0b0-c294-4093-87f8-e70e59855fe6",
    "text": "Uitstekend gedaan, agent 3! En jij ook, Salmini!\nRecht zo die gaat!"
  },
  {
    "label": "daae7b48-be3b-4ece-9ff4-3c18f03027e7",
    "text": "Maak de klus af, agent 3! Dit is het moment!"
  },
  {
    "label": "fe9b924a-0c3a-4338-b6b5-0a0a4bda6170",
    "text": "Hij laat de hele raket draaien! Beweeg met de\ndraaiing mee, agent 3!"
  }
]