[
  {
    "label": "2aba29ed-d6a2-433b-80c8-794f1f287e46",
    "text": "Houd {{icon id=\"1\" arg=\"0x0000803F00000000\"}} ingedrukt voor een {{color id=\"1\"}}muurboost{{color id=\"65535\"}}!"
  },
  {
    "label": "2d4866c0-0e91-4f34-904a-e97d02ee18d3",
    "text": "{{color id=\"1\"}}Octoraketten {{color id=\"65535\"}}in aantocht!"
  },
  {
    "label": "59568b7a-c023-4da1-ae11-2407f1dcb81f",
    "text": "Hup!"
  },
  {
    "label": "640b3e95-4f09-461e-943b-cd4c958a4262",
    "text": "Agent 3, maak dat je wegkomt!"
  },
  {
    "label": "6d61d746-4dbb-4aa4-8816-d12031bdcfa3",
    "text": "O! Erachteraan!"
  },
  {
    "label": "7ff33967-eb96-4e95-b16b-d397d674fb69",
    "text": "Helemaal toppie!"
  },
  {
    "label": "8ee021aa-fa26-4e41-81d5-49e650526199",
    "text": "De tijd loopt! NU, NU, NU!"
  },
  {
    "label": "bb5788c1-0eec-470c-ba48-b4e3406f17ad",
    "text": "Hup!"
  },
  {
    "label": "c3350510-5127-4966-9d1b-8328e76a5ea8",
    "text": "Zet je schrap om een {{color id=\"1\"}}inktrol {{color id=\"65535\"}}te doen..."
  },
  {
    "label": "c80c762a-897b-4286-93c3-a3673012088d",
    "text": "Hup, houd de vaart erin!"
  },
  {
    "label": "dc1be723-83c9-4f88-b4f4-9f411fd466f6",
    "text": "Ben je er klaar voor, agent 3? Houd je ogen op het doel!"
  },
  {
    "label": "e15b559a-be1d-453f-b27f-22d0cbae3d29",
    "text": "Goed gevangen!"
  },
  {
    "label": "f6404e0c-3ae8-49ec-9dee-5d10af23361e",
    "text": "Wat is er hier aan de hand?"
  },
  {
    "label": "fbfb2ac2-34c4-4d3f-9195-f518d074e638",
    "text": "Mooi!"
  }
]