[
  {
    "label": "1bef1742-e641-43bd-b6b8-91996e07de4b",
    "text": "Ze zijn geniepig, maar er is er nog maar één over."
  },
  {
    "label": "2ff46da6-802e-43cf-bbba-e922a0b0eb6a",
    "text": "Probeer de grond te verven rond de plek waar\n{{icon id=\"60\" arg=\"0x0000803F00000000\"}}ze rondhangen. Dat zal ze tegenhouden."
  },
  {
    "label": "3cc92024-c9b0-4a0b-b289-d87aff48eb4c",
    "text": "Bepantsering helpt je om niet verslagen te worden."
  },
  {
    "label": "71d1ebe6-2d88-418b-a8bf-31f5acc6cafd",
    "text": "Ik had moeten zeggen dat je de kooi sneller kunt laten\ngaan door {{icon id=\"75\" arg=\"0xEC51383FFEFFFFFF\"}} te bewegen."
  },
  {
    "label": "880f8768-74e2-426b-9592-08caa8f30d82",
    "text": "Netjes!"
  },
  {
    "label": "a6335c97-396f-4633-ac23-781c83b5712b",
    "text": "Ik zie daar wat {{icon id=\"65\" arg=\"0x0000803F00000000\"}}{{color id=\"4\"}}bepantsering{{color id=\"65535\"}}!"
  }
]