[
  {
    "label": "FirstEnter_00",
    "text": "Questa è la {{color id=\"1\"}}lobby{{color id=\"65535\"}}! Qui puoi accedere alle partite\nonline e conservare il tuo equipaggiamento."
  },
  {
    "label": "FirstEnter_01",
    "text": "Man mano che combatti online {{color id=\"1\"}}aumenti\ndi livello{{color id=\"65535\"}} e {{color id=\"1\"}}guadagni denaro{{color id=\"65535\"}}.{{pageBreak}}Perché farlo, ti chiedi? Per poterti permettere\nl'{{color id=\"1\"}}equipaggiamento più stiloso{{color id=\"65535\"}} di Splatville!{{pageBreak}}E alcune {{color id=\"1\"}}modalità {{color id=\"65535\"}}sono riservate a giocatori\ndi livello più alto. Quindi metticela tutta!"
  },
  {
    "label": "FirstEnter_03",
    "text": "Innanzitutto, dai un'occhiata al {{color id=\"1\"}}bollibattaglie{{color id=\"65535\"}}\nlaggiù e seleziona una {{color id=\"1\"}}partita amichevole{{color id=\"65535\"}}.{{pageBreak}}Inizierà una {{color id=\"1\"}}mischia mollusca{{color id=\"65535\"}}: la tua squadra\nha 3 minuti per colorare più terreno di tutti!"
  },
  {
    "label": "FirstEnter_03_Fest",
    "text": "Che emozione! C'è un {{color id=\"1\"}}festival {{color id=\"65535\"}}in corso!{{pageBreak}}Se vuoi partecipare, vai al {{color id=\"1\"}}bollibattaglie {{color id=\"65535\"}}e\nseleziona {{color id=\"1\"}}Partita tematica {{size value=\"75\"}}(Aperta){{size value=\"100\"}}{{color id=\"65535\"}}.{{pageBreak}}Inizierà una {{color id=\"1\"}}mischia mollusca{{color id=\"65535\"}}: la tua squadra\nha 3 minuti per colorare più terreno di tutti!"
  },
  {
    "label": "FirstEnter_04",
    "text": "Meno chiacchiere, più inchiostro. Iniziamo!"
  },
  {
    "label": "FirstEnter_FestVote_00",
    "text": "Oooh, c'è un {{color id=\"1\"}}festival {{color id=\"65535\"}}in corso!{{pageBreak}}Significa che devi {{color id=\"1\"}}votare {{color id=\"65535\"}}prima di poterti\ngodere il divertimento.{{pageBreak}}Torna in piazza e usa il {{color id=\"1\"}}terminal di voto{{color id=\"65535\"}}\nper fare la tua scelta."
  },
  {
    "label": "Msg_Legal00",
    "text": "Le linee guida relative alla community di Nintendo\nsi applicano al gioco online e si trovano sul\nnostro sito Internet. Assicurati di assumere un\natteggiamento rispettoso verso gli altri utenti.\n\nQuando giochi online, il tuo nickname e i tuoi\ndati giocatore potrebbero essere resi pubblici."
  }
]