[
  {
    "label": "Shop_00",
    "text": "Scusa l'interruzione, ma pare che tu stia\ndiventando sempre più in gambero...{{pageBreak}}Sapevi che ci sono vari {{color id=\"1\"}}negozi {{color id=\"65535\"}}qui intorno\ncon dell'{{color id=\"1\"}}equipaggiamento{{color id=\"65535\"}} che potrebbe aiutarti?{{pageBreak}}Parlo di {{color id=\"1\"}}vestiti{{color id=\"65535\"}}, {{color id=\"1\"}}calzature{{color id=\"65535\"}}, {{color id=\"1\"}}copricapi {{color id=\"65535\"}}e persino\nnuove {{color id=\"1\"}}armi{{color id=\"65535\"}}. C'è anche un {{color id=\"1\"}}negozio di articoli vari{{color id=\"65535\"}}!{{pageBreak}}Vai a fare un po' di shopping e... puoi dire che\nti manda la voce fuori campo!"
  }
]