[
  {
    "label": "000",
    "text": "Beh, pare che qui ci sia, come dire, un pochino\ndi disordine...{{delay frames=\"30\"}} Un attimo!"
  },
  {
    "label": "001",
    "text": "Qualcosa da quella posizione elevata sta sparando\nun segnale fortissimo!"
  },
  {
    "label": "002",
    "text": "Dev'essere il nonno! {{delay frames=\"15\"}}Gamberi in spalla, Numero 3!"
  },
  {
    "label": "100",
    "text": "Beh, pare che qui ci sia, come dire, un pochino\ndi disordine...{{delay frames=\"30\"}} Un attimo!"
  },
  {
    "label": "101",
    "text": "Qualcosa da quella posizione elevata sta sparando\nun segnale fortissimo!"
  },
  {
    "label": "102",
    "text": "Dev'essere il nonno! {{delay frames=\"15\"}}Gamberi in spalla, Numero 3!"
  }
]