[
  {
    "label": "Comment_00",
    "text": "{{fun_0001_0001 arg=\"0x0000003F\"}}Gli... {{delay frames=\"42\"}}gli {{delay frames=\"35\"}}O-Oc..."
  },
  {
    "label": "Comment_01",
    "text": "Gli Octariani!"
  },
  {
    "label": "Comment_02",
    "text": "DI NUOVOOO!"
  },
  {
    "label": "Comment_03",
    "text": "Chiedo scusa... Ma non è già accaduto?\nLa mia capoccia non è più la stessa..."
  },
  {
    "label": "Comment_04",
    "text": "In ogni caso, sono {{color id=\"1\"}}Seppia{{color id=\"65535\"}}, {{color id=\"1\"}}consigliere capo{{color id=\"65535\"}}\ndella Nuova Divisione Branchia. Al tuo servizio!"
  },
  {
    "label": "Comment_05",
    "text": "Che sguardo fiero, giovane!{{delay frames=\"30\"}}\nSei proprio ciò che cercavo!"
  },
  {
    "label": "Comment_06",
    "text": "Il {{color id=\"1\"}}Gran pescescossa{{color id=\"65535\"}}, fonte di energia\ndi {{color id=\"1\"}}Splatville{{color id=\"65535\"}}, non c'è più!"
  },
  {
    "label": "Comment_07",
    "text": "È di nuovo opera degli Octariani.\nPuoi scommetterci i tentacoli!"
  },
  {
    "label": "Comment_08",
    "text": "Vedi, il {{color id=\"1\"}}Gran pescescossa {{color id=\"65535\"}}è già sparito in passato.\nDue volte, a essere precisi! Ed è stata sempre\ncolpa di quei farabutti."
  },
  {
    "label": "Comment_09",
    "text": "Anche se ormai sono in pensione, li ho tenuti\nd'occhio. E nulla sfugge ai miei occhi di seppia!{{pageBreak}}Ma sono comunque riusciti a portare\nvia il {{color id=\"1\"}}Gran pescescossa{{color id=\"65535\"}}, e ora dobbiamo\nriprendercelo! {{delay frames=\"30\"}}Capito?"
  },
  {
    "label": "Comment_10",
    "text": "Quindi, uh...{{pageBreak}}{{string value=\"5\"}}...{{delay frames=\"5\"}} ...{{pageBreak}}...{{delay frames=\"5\"}} ...{{delay frames=\"5\"}} ...{{fun_000F_0004 arg=\"0x0500\"}}"
  },
  {
    "label": "Comment_11",
    "text": "Quella era un'offerta di lavoro, giovane. La paga è...\n{{size value=\"75\"}}zero...{{size value=\"100\"}} ma potresti salvare il mondo. Ci stai, giusto?"
  },
  {
    "label": "Comment_12",
    "text": "Ma certo! {{delay frames=\"30\"}}Ora fai parte della {{color id=\"1\"}}Nuova Divisione\nBranchia{{color id=\"65535\"}}. {{fun_0001_0001 arg=\"0x0000A03F\"}}Ti chiamerai {{color id=\"1\"}}Numero 3{{color id=\"65535\"}}!"
  },
  {
    "label": "Comment_13",
    "text": "Questa è una {{color id=\"1\"}}divisa élite{{color id=\"65535\"}}. Ti proteggerà\ndall'inchiostro nemico.{{pageBreak}}Uhm... Possibile che lavandola si sia allargata?\nTi veste un po' ampia, sembri una medusa...{{pageBreak}}{{string value=\"5\"}}{{color id=\"0\"}}(Strano, non ricordo di averla mai lavata... {{delay frames=\"30\"}}Mah!\nL'ultimo Numero 3 era pulito come un pesce spazzino!){{color id=\"65535\"}}{{fun_000F_0004 arg=\"0x0500\"}}\n"
  },
  {
    "label": "Comment_14",
    "text": "Ora vai a dare una bella lezione a\nquegli Octariani! {{delay frames=\"45\"}}Conto su di te!"
  },
  {
    "label": "Comment_15",
    "text": "Hai già un aiutante con te, eh?{{delay frames=\"15\"}}\nBeh, ho finito le divise élite, purtroppo...{{pageBreak}}Però mi sembra un pesciolino navigato.\nSono sicuro che se la caverà."
  },
  {
    "label": "Comment_16",
    "text": "Che cosa stavo dicendo...? {{delay frames=\"45\"}}Ah, sì! {{delay frames=\"15\"}}Ora vai a dare\nuna bella lezione a quegli Octariani! Conto su di te!"
  }
]