[
  {
    "label": "000",
    "text": "ALTOLÀ!"
  },
  {
    "label": "001",
    "text": "Sei un mollusco che sa il fatto suo. Si vede!"
  },
  {
    "label": "002",
    "text": "Ecco cosa penso.{{delay frames=\"30\"}} Tu molli tutto, ti unisci\nalla mia banda e ci dividiamo il tesoro!"
  },
  {
    "label": "003",
    "text": "Bah. {{delay frames=\"15\"}}Vuoi risolverla in stile splattoniano, eh?"
  },
  {
    "label": "004",
    "text": "A me va bene! {{delay frames=\"15\"}}DANZEREMO ALL'ULTIMO TENTACOLO!"
  },
  {
    "label": "005",
    "text": "Muregialle, sgusciate subito qui!"
  },
  {
    "label": "006",
    "text": "HOP, HOP, HOP!"
  },
  {
    "label": "007",
    "text": "SI BALLA!"
  },
  {
    "label": "101",
    "text": "Era ora! Finalmente!"
  },
  {
    "label": "102",
    "text": "Sai, io ho un problemino.{{delay frames=\"30\"}} Quando mi sconfiggono,\nnon riesco a lasciarmelo alle spalle."
  },
  {
    "label": "103",
    "text": "Aaaaah, giusto. {{delay frames=\"15\"}}Quasi dimenticavo."
  },
  {
    "label": "104",
    "text": "Io e te...{{delay frames=\"15\"}} lasceremo danzare le pinne.\nO i tentacoli. O i denti. Insomma, hai capito."
  },
  {
    "label": "105",
    "text": "Muregialle, a me!"
  },
  {
    "label": "106",
    "text": "SÌ, SÌ, SÌ!"
  },
  {
    "label": "107",
    "text": "È ORA DELLA RIVINCITA!"
  }
]