[
  {
    "label": "001",
    "text": "Ahiaaaa... {{delay frames=\"30\"}}Penso che la lezione di oggi basti e avanzi..."
  },
  {
    "label": "003",
    "text": "Ma il Trio Triglio tornerà, te lo assicuro."
  },
  {
    "label": "004",
    "text": "Alla prossima. {{delay frames=\"30\"}}Eh? OH N..."
  }
]