[
  {
    "label": "000",
    "text": "OK, quella sì che è una montagna di {{color id=\"1\"}}melma pelosa{{color id=\"65535\"}}.{{delay frames=\"30\"}}\nLa bolla in cima è probabilmente il {{color id=\"1\"}}melmucleo {{color id=\"65535\"}}{{icon id=\"22\" arg=\"0x0000803F00000000\"}}."
  },
  {
    "label": "001",
    "text": "Scommetto che se potessi farlo scoppiare, tutto\nquell'affare sparirebbe. Ma l'inchiostro non basta."
  },
  {
    "label": "002",
    "text": "Beh, pensiamoci più tardi. Per adesso, trova\nil modo di entrare nelle basi degli Octariani!"
  }
]