[
  {
    "label": "000",
    "text": "Argh! {{delay frames=\"15\"}}Hanno preso tutto! Tutti i tuoi oggetti élite!"
  },
  {
    "label": "001",
    "text": "Ugh. Beh, insomma, non li abbiamo proprio sorpresi,\nno? Ci siamo gettati in bocca al pescecane."
  },
  {
    "label": "002",
    "text": "Se avessi teso io questa trappola, ora farei\nla danza della vittoria. {{delay frames=\"15\"}}Anzi, quasi quasi la faccio\nlo stesso. È una danza di tendenza!"
  },
  {
    "label": "003",
    "text": "Man! Man! {{string value=\"5\"}}{{color id=\"0\"}}(Vedo dove sono i tuoi oggetti! Dovresti\nriuscire a recuperarli se superi indenne questa zona.){{color id=\"65535\"}}{{fun_000F_0004 arg=\"0x0500\"}}"
  },
  {
    "label": "004",
    "text": "Cosa ne dici, Numero 3? Hai il tuo Salmonello.\nTe la senti di fare un tentacolativo?"
  },
  {
    "label": "005",
    "text": "Tu ci andresti lì senza inchiostro?\nAh, ma che domande. Certo che ci andresti!"
  },
  {
    "label": "100",
    "text": "Ah, hai recuperato il tuo equipaggiamento!"
  },
  {
    "label": "101",
    "text": "Attenzione, Numero 3. Mi aspetto altre trappole,\ndopo quelle che ci hanno già teso..."
  }
]