[
  {
    "label": "000",
    "text": "Man! {{string value=\"5\"}}{{color id=\"0\"}}(Altolà!){{color id=\"65535\"}}{{fun_000F_0004 arg=\"0x0500\"}}"
  },
  {
    "label": "001",
    "text": "Maaaan! {{string value=\"5\"}}{{color id=\"0\"}}(Questo tesoro non è tuo!\nNon puoi prenderlo!){{color id=\"65535\"}}{{fun_000F_0004 arg=\"0x0500\"}}"
  },
  {
    "label": "002",
    "text": "Maaan... {{string value=\"5\"}}{{color id=\"0\"}}(Non ti sfiderei se non fosse necessario...){{color id=\"65535\"}}{{fun_000F_0004 arg=\"0x0500\"}}"
  },
  {
    "label": "003",
    "text": "MAAAN! {{string value=\"5\"}}{{color id=\"0\"}}(PER SPLATVILLE!){{color id=\"65535\"}}{{fun_000F_0004 arg=\"0x0500\"}}"
  },
  {
    "label": "100",
    "text": "Man! {{string value=\"5\"}}{{color id=\"0\"}}(Sei di nuovo qui!){{color id=\"65535\"}}{{fun_000F_0004 arg=\"0x0500\"}}"
  },
  {
    "label": "101",
    "text": "Maaaan? {{string value=\"5\"}}{{color id=\"0\"}}(Vuoi combattere con me?\nDi nuovo? Davvero?){{color id=\"65535\"}}{{fun_000F_0004 arg=\"0x0500\"}}"
  },
  {
    "label": "102",
    "text": "Man-man... {{string value=\"5\"}}{{color id=\"0\"}}(Combattere continua a non\npiacermi, ma...){{color id=\"65535\"}}{{fun_000F_0004 arg=\"0x0500\"}}"
  },
  {
    "label": "103",
    "text": "Man-man! {{string value=\"5\"}}{{color id=\"0\"}}(Quelle due mi fanno una testa\ncosì se scappo!){{color id=\"65535\"}}{{fun_000F_0004 arg=\"0x0500\"}}"
  }
]