[
  {
    "label": "C4_S01_01",
    "text": "Wow, un lavoro coi ricci, Numero 3.{{delay frames=\"30\"}}\nE hai ottenuto questa... cosa! Ma non il nonno."
  },
  {
    "label": "C4_S01_02",
    "text": "È un tesoro. O almeno, penso che lo sia.\nPossiamo tenerlo qui, per ora."
  },
  {
    "label": "C4_S01_03",
    "text": "{{string value=\"5\"}}...{{fun_000F_0004 arg=\"0x0500\"}} Pronto? Mi ricevete? Passo!{{pageBreak}}C'è nessuno in ascolto? Mi sentite?! Passo!"
  },
  {
    "label": "C4_S01_04",
    "text": "È il nonno!"
  },
  {
    "label": "C4_S01_05",
    "text": "Nonno, dove sei?"
  },
  {
    "label": "C4_S01_06",
    "text": "Stella, Marina, tesori miei! State bene?"
  },
  {
    "label": "C4_S01_07",
    "text": "Se stiamo bene? {{delay frames=\"15\"}}No, aspetta... siamo noi che\ndobbiamo chiederlo a te! Stai bene, nonno?"
  },
  {
    "label": "C4_S01_08",
    "text": "Oh, certo. {{delay frames=\"15\"}}Cioè, sono chiuso in una specie\ndi stanza scura, il che non è proprio l'ideale...{{pageBreak}}Proverò a evadere. Passo!"
  },
  {
    "label": "C4_S01_09",
    "text": "Non fare niente di avventato! {{delay frames=\"30\"}}Stiamo tracciando\nil tuo segnale, quindi saremo lì tra poco. Chiamaci\nse succede qualcosa!"
  },
  {
    "label": "C4_S01_10",
    "text": "Beh, sono felice che sia ancora tutto intero.\n{{delay frames=\"30\"}}Forza, diamo un'occhiata al segnale che sta inviando!"
  },
  {
    "label": "C4_S01_11",
    "text": "Numero 3, se vuoi tornare a un bollitore precedente,\napri il menu. Potrebbe essere utile a un certo punto..."
  }
]