[
  {
    "label": "000",
    "text": "L'evento principale del festival è in corso.\nVediamo i risultati dell'{{color id=\"1\"}}anteprima{{color id=\"65535\"}}!"
  },
  {
    "label": "001",
    "text": "Che squadra ha vinto? Devo saperlo!"
  },
  {
    "label": "002",
    "text": "Già, quale squadra ha ottenuto più\n{{color id=\"1\"}}conchiglie {{color id=\"65535\"}}durante l'anteprima?"
  },
  {
    "label": "003",
    "text": "Tss-tt-tss-tt-tssssh..."
  },
  {
    "label": "004",
    "text": "Manmanmanmanman..."
  },
  {
    "label": "005",
    "text": "{{size value=\"130\"}}PAM! AH AH!{{size value=\"100\"}}"
  },
  {
    "label": "006",
    "text": "{{size value=\"130\"}}MAN!{{size value=\"100\"}}"
  },
  {
    "label": "007",
    "text": "Ottimo lavoro con l'anteprima del festival,\ngente. Ma è adesso che si fa sul serio!"
  },
  {
    "label": "008",
    "text": "Man! {{string value=\"5\"}}{{color id=\"0\"}}(Buona fortuna a tutti!){{color id=\"65535\"}}{{fun_000F_0004 arg=\"0x0500\"}}"
  }
]