[
  {
    "label": "000",
    "text": "Il festival si conclude qui!"
  },
  {
    "label": "001",
    "text": "Man!{{string value=\"5\"}} {{color id=\"0\"}}(Congratulazioni a tutti!){{color id=\"65535\"}}{{fun_000F_0004 arg=\"0x0500\"}}"
  },
  {
    "label": "002",
    "text": "Ma... che squadra ha vinto?"
  },
  {
    "label": "003",
    "text": "Man, man... {{string value=\"5\"}}{{color id=\"0\"}}(Un attimo! I risultati\ndevono ancora arrivare...){{color id=\"65535\"}}{{fun_000F_0004 arg=\"0x0500\"}}"
  },
  {
    "label": "004",
    "text": "Il Grand Festival chiude i battenti!"
  },
  {
    "label": "005",
    "text": "Man. {{string value=\"5\"}}{{color id=\"0\"}}(Stanno ancora elaborando i risultati,\nquindi aspettate ancora un po'.){{color id=\"65535\"}}{{fun_000F_0004 arg=\"0x0500\"}}"
  },
  {
    "label": "006",
    "text": "Perché non impiegare il tempo dell'attesa\nvenendo a vedere il nostro spettacolo?"
  },
  {
    "label": "007",
    "text": "Man! {{string value=\"5\"}}{{color id=\"0\"}}(Su le pinne per l'ottimo lavoro\nsvolto da tutti!){{color id=\"65535\"}}{{fun_000F_0004 arg=\"0x0500\"}}"
  }
]