[
  {
    "label": "000",
    "text": "Ah, che emozione! La {{color id=\"1\"}}nuova\nstagione{{color id=\"65535\"}} è iniziata!"
  },
  {
    "label": "001",
    "text": "Sìììì! Non sto più nella pelle!"
  },
  {
    "label": "002",
    "text": "Man! Man.{{string value=\"5\"}}{{color id=\"0\"}} (Già, la stagione fredda! Che\nbello mettersi un maglione e stare comodi.){{color id=\"65535\"}}{{fun_000F_0004 arg=\"0x0500\"}}"
  },
  {
    "label": "003",
    "text": "Beh, non troppo comodi. C'è una nuova\nmodalità bella tosta, le {{color id=\"1\"}}partite X{{color id=\"65535\"}}!"
  },
  {
    "label": "005",
    "text": "Man!{{string value=\"5\"}} {{color id=\"0\"}}(Wow! Pare che si debba raggiungere{{color id=\"65535\"}}\n{{color id=\"1\"}}almeno il rango Ｓ+{{size value=\"75\"}}0{{size value=\"100\"}}{{color id=\"65535\"}} {{color id=\"0\"}}per partecipare!){{color id=\"65535\"}}{{fun_000F_0004 arg=\"0x0500\"}}"
  },
  {
    "label": "006",
    "text": "Occhio, gente. Arriverò in vetta,\nmentre voi mangerete la sabbia."
  },
  {
    "label": "007",
    "text": "Sono pronta per queste {{color id=\"1\"}}armi\nnuove di zecca{{color id=\"65535\"}}!"
  },
  {
    "label": "008",
    "text": "Man?{{string value=\"5\"}} {{color id=\"0\"}}(Non sono niente male. Ce ne sono\nazionate a pinna? Chiedo per me.){{color id=\"65535\"}}{{fun_000F_0004 arg=\"0x0500\"}}"
  },
  {
    "label": "008_01",
    "text": "Magnifiche... Quale sarà la mia nuova arma\nprincipale? Dovrò splat-testarle tutte..."
  },
  {
    "label": "009",
    "text": "Fai pure. Io ascolto quello che mi dice\nArmand. Credo di essere l'unica..."
  },
  {
    "label": "010",
    "text": "Ascoltare? Non ho tempo. Sono\nappena arrivati dei {{color id=\"1\"}}NUOVI SCENARI{{color id=\"65535\"}}!"
  },
  {
    "label": "011",
    "text": "Man...{{string value=\"5\"}} {{color id=\"0\"}}(Ascoltare gli altri, o Armand, è utile.\nCerto questi scenari sembrano perfetti...){{color id=\"65535\"}}{{fun_000F_0004 arg=\"0x0500\"}}"
  },
  {
    "label": "012",
    "text": "Intendi perfetti per {{color id=\"1\"}}combattere{{color id=\"65535\"}}, giusto?\nPerché è a quello che servono!"
  },
  {
    "label": "013",
    "text": "Splattaggio à gogo!"
  }
]