[
  {
    "label": "000",
    "text": "Man! Man!{{string value=\"5\"}} {{color id=\"0\"}}(Notizie freschissime!){{color id=\"65535\"}}{{fun_000F_0004 arg=\"0x0500\"}}"
  },
  {
    "label": "001",
    "text": "Eh? Cos'hai da agitare tanto le pinne?"
  },
  {
    "label": "002",
    "text": "Ma come, Pinnuccia! Devi saperlo.\nÈ arrivato il momento!"
  },
  {
    "label": "003",
    "text": "MAAAN! Man. {{string value=\"5\"}}{{color id=\"0\"}}(FEEEEESTIVAL! Ehm.\nÈ tempo di{{color id=\"65535\"}} {{color id=\"1\"}}festival{{color id=\"65535\"}}{{color id=\"0\"}}.){{color id=\"65535\"}}{{fun_000F_0004 arg=\"0x0500\"}}"
  },
  {
    "label": "004",
    "text": "Oooh! Mi piacciono i festival."
  },
  {
    "label": "005",
    "text": "SÌÌÌÌÌ! FACCIAMO FESTA!"
  },
  {
    "label": "006",
    "text": "E il tema? Qual è il tema?"
  },
  {
    "label": "007",
    "text": "Man...{{string value=\"5\"}} {{color id=\"0\"}}(Un attimo di pazienza...\nLe informazioni stanno arrivando...){{color id=\"65535\"}}{{fun_000F_0004 arg=\"0x0500\"}}"
  },
  {
    "label": "008",
    "text": "Ecco qui! Il tema è... Ah.\nBeh, è affascinante..."
  },
  {
    "label": "009",
    "text": "Urgh, dai, sputa la coda di rospo!\nNon puoi tenere per te una cosa così!"
  },
  {
    "label": "010",
    "text": "Calma. Mi sto preparando all'annuncio.\nAh-ehm..."
  },
  {
    "label": "011",
    "text": "Maaan, maaan!{{string value=\"5\"}} {{color id=\"0\"}}(Dai, dai...){{color id=\"65535\"}}{{fun_000F_0004 arg=\"0x0500\"}}"
  },
  {
    "label": "012",
    "text": "Senza ulteriori indugi, il tema di\nquesto festival non sarà altro che..."
  },
  {
    "label": "013",
    "text": "Rullo di tamburi! Dan-dan-dan-dan...\n{{size value=\"125\"}}BAM!{{size value=\"100\"}}"
  }
]