[
  {
    "label": "000",
    "text": "Ehi, Otto! Hai un attimo?"
  },
  {
    "label": "001",
    "text": "Ho fatto una scansione del sistema{{delay frames=\"15\"}} e ho scoperto che\nOrdine ha aumentato la difficoltà della torre al massimo."
  },
  {
    "label": "002",
    "text": "Perché l'ha fatto? {{delay frames=\"15\"}}E che significa per noi?!"
  },
  {
    "label": "003",
    "text": "Beh, prima di tutto la torre è diventata più alta.{{delay frames=\"30\"}}\nMa il peggio deve ancora venire.{{pageBreak}}Se si resta a corto di vite anche solo una volta,\n{{color id=\"4\"}}si viene cacciati dalla torre{{color id=\"65535\"}}.{{delay frames=\"30\"}} E prima o poi succede,\nvisto che {{color id=\"4\"}}i nemici sono più forti{{color id=\"65535\"}}."
  },
  {
    "label": "004",
    "text": "Capisco... le cose si fanno difficili."
  },
  {
    "label": "005",
    "text": "Però...{{delay frames=\"15\"}} in fondo il Noriverse è opera mia.\nNon posso certo starmene con i tentacoli in mano.{{pageBreak}}Ora che sono fuori, posso {{color id=\"4\"}}entrare nel sistema{{color id=\"65535\"}},\nhackerare le impostazioni e diminuire la difficoltà!"
  },
  {
    "label": "006",
    "text": "Wow! Puoi farlo davvero?!{{delay frames=\"15\"}} Per fortuna sei\ntornata dei nostri!"
  },
  {
    "label": "007",
    "text": "Il fatto è che mi servono le {{color id=\"4\"}}perle {{icon id=\"64\" arg=\"0x0000803F00000000\"}} {{color id=\"65535\"}}per\nhackerare il sistema.{{pageBreak}}Ma penso che ne abbiate già ottenute alcune."
  },
  {
    "label": "008",
    "text": "Eccole qua! Queste perle sono state generate\nall'uscita della torre.{{pageBreak}}Ogni volta che lasciate la torre, le {{color id=\"4\"}}schede\ncolore {{icon id=\"55\" arg=\"0x0000803F00000000\"}} {{color id=\"65535\"}}e le {{color id=\"4\"}}norilir {{icon id=\"63\" arg=\"0x0000803F00000000\"}} {{color id=\"65535\"}}vengono\nautomaticamente {{color id=\"4\"}}convertite in perle{{color id=\"65535\"}}."
  },
  {
    "label": "009",
    "text": "Quindi... è probabile che nella torre ce le suonino,\nma se prima le suoniamo noi, otterremo più perle?{{pageBreak}}E se diamo le perle a Nori, potrà apportare modifiche\nal sistema per renderci le cose {{color id=\"4\"}}più facili {{color id=\"65535\"}}la volta dopo.{{delay frames=\"30\"}}\nCosì, anche le sconfitte ci aiutano a vincere! Mi piace!"
  },
  {
    "label": "010",
    "text": "Queste sono le impostazioni che ho hackerato finora.{{delay frames=\"30\"}}\nVuoi sistemare qualcosa a tuo vantaggio?"
  }
]