[
  {
    "label": "001",
    "text": "Non capisco. {{delay frames=\"30\"}}Il mio corpo si muove da solo."
  },
  {
    "label": "002",
    "text": "Errore imprevisto. {{delay frames=\"30\"}}Parametri non rilevati."
  },
  {
    "label": "003",
    "text": "Visto?! {{delay frames=\"30\"}}Il tuo mondo ideale è troppo noioso\npersino per te!"
  },
  {
    "label": "004",
    "text": "Ci pensiamo noi a colorarlo!"
  },
  {
    "label": "005",
    "text": "Non ci riesci con le mani? {{delay frames=\"130\"}}Allora tenta coi tentacoli!"
  }
]