[
  {
    "label": "000",
    "text": "State andando alla grande. {{delay frames=\"30\"}}Se continuate così,\nriuscirete a raggiungere davvero l'ultimo piano."
  },
  {
    "label": "001",
    "text": "A proposito, Acht. {{delay frames=\"15\"}}Come fai a sapere tutte queste\ncose sulla torre?"
  },
  {
    "label": "002",
    "text": "Domanda sensata. {{delay frames=\"15\"}}Tutte le informazioni che\nvi do, le prendo dalla plancia dell'ascensore.{{pageBreak}}Ho imparato il trucco dove l'ha imparato Nori.{{delay frames=\"30\"}}\nMa vi capisco se non riuscite a credermi."
  },
  {
    "label": "003",
    "text": "Sul serio?! {{delay frames=\"30\"}}Beh, in effetti Nori è una vera e\npropria turbonerd quando si tratta di computer.{{pageBreak}}Visto che avete frequentato la stessa scuola,\nè ovvio che sappiate fare le stesse cose!"
  },
  {
    "label": "004",
    "text": "Beh...{{delay frames=\"15\"}} lei è sempre stata molto più brava di me.\nNon sono al suo stesso livello."
  },
  {
    "label": "005",
    "text": "Comunque, ecco qui la prossima scheda colore."
  },
  {
    "label": "006",
    "text": "{{color id=\"4\"}}Bomba fortunata{{color id=\"65535\"}}? {{delay frames=\"15\"}}Ma fortunata per chi?!"
  },
  {
    "label": "007",
    "text": "Le {{color id=\"4\"}}bombe fortunate{{color id=\"65535\"}} {{icon id=\"69\" arg=\"0x0000803F00000000\"}} appaiono quando sconfiggete\ni nemici.{{delay frames=\"15\"}} Esplodono da sole e causano parecchi danni."
  },
  {
    "label": "008",
    "text": "Fantastico. {{delay frames=\"30\"}}Io spero sempre che arrivi una bella bomba\na togliere di mezzo i nemici senza farmi faticare."
  }
]