[
  {
    "label": "000",
    "text": "Siamo al {{color id=\"4\"}}piano 1{{color id=\"65535\"}}.{{delay frames=\"30\"}} È il piano proprio sopra all'ingresso.{{pageBreak}}Ogni piano ha un {{color id=\"4\"}}obiettivo{{color id=\"65535\"}} da superare. {{delay frames=\"15\"}}Se riuscirai\nnell'impresa, potrai proseguire al piano seguente."
  },
  {
    "label": "001",
    "text": "Il tuo obiettivo qui è distruggere quel {{color id=\"4\"}}portale {{icon id=\"61\" arg=\"0x0000803F00000000\"}}{{color id=\"65535\"}}."
  },
  {
    "label": "002",
    "text": "A proposito. {{delay frames=\"15\"}}Quella cosa che abbiamo impostato\nnella tavoletta {{icon id=\"56\" arg=\"0xCDCC8C3F02000000\"}} poco fa è una scheda colore\n{{color id=\"4\"}}Danno principale (lontano){{color id=\"65535\"}}.{{pageBreak}}Grazie ad essa, {{delay frames=\"15\"}}i tuoi colpi con {{icon id=\"80\" arg=\"0x0000803F00000000\"}}\ninfliggeranno ancora più danni {{color id=\"4\"}}da lontano{{color id=\"65535\"}}."
  },
  {
    "label": "003",
    "text": "Puoi usare quel bersaglio per esercitarti e provare\nl'efficacia dei tuoi colpi da vicino e da lontano."
  },
  {
    "label": "004",
    "text": "Dai, Otto! {{delay frames=\"30\"}}Facciamo un po' di pratica prima di\nlanciarci nella mischia!"
  }
]