[
  {
    "label": "001",
    "text": "Grande. {{delay frames=\"30\"}}Senza di te, non avrei avuto un piano B."
  },
  {
    "label": "002",
    "text": "Che c'è? {{delay frames=\"15\"}}Ho qualcosa sulla faccia?"
  },
  {
    "label": "003",
    "text": "Ah, giusto! {{delay frames=\"15\"}}Non puoi riconoscermi così."
  },
  {
    "label": "004",
    "text": "Sono {{color id=\"4\"}}Alga{{color id=\"65535\"}}! {{delay frames=\"60\"}}Hai presente? La tua BFF!"
  },
  {
    "label": "005",
    "text": "{{string value=\"5\"}}...{{delay frames=\"5\"}} ...{{fun_000F_0004 arg=\"0x0500\"}}"
  },
  {
    "label": "006",
    "text": "No, dico sul serio! {{delay frames=\"15\"}}Sono proprio Alga!"
  },
  {
    "label": "007",
    "text": "Non so nemmeno io come ho fatto a ridurmi così..."
  },
  {
    "label": "008",
    "text": "E non trovo più {{color id=\"4\"}}Nori{{color id=\"65535\"}}. Dovrebbe essere qui con me."
  },
  {
    "label": "009",
    "text": "Otto...{{delay frames=\"30\"}} non dirmi che non ti ricordi neanche di Nori."
  },
  {
    "label": "010",
    "text": "Ti capisco, hai appena ripreso i sensi.{{delay frames=\"15\"}}\nTi serve un po' di tempo per schiarirti le idee."
  },
  {
    "label": "011",
    "text": "Qui a sinistra sono io, com'ero prima, almeno.{{delay frames=\"30\"}}\nE quella a destra è Nori."
  },
  {
    "label": "012",
    "text": "Qualche idea su come proseguire?\nDi solito c'è sempre Nori a darmi consigli."
  },
  {
    "label": "013",
    "text": "E quiiiiindi...{{delay frames=\"15\"}} la nostra prima mossa è cercarla!"
  },
  {
    "label": "014",
    "text": "Forza, Otto! {{delay frames=\"15\"}}Andiamo!"
  }
]