[
  {
    "label": "000",
    "text": "Gli armadietti... si sono trasformati nella\n{{color id=\"4\"}}tavoletta di Otto{{color id=\"65535\"}}?!"
  },
  {
    "label": "001",
    "text": "Oh!{{delay frames=\"15\"}} E chi se lo aspettava?{{delay frames=\"30\"}} Incredibile...\nGli armadietti erano la tavoletta stessa!"
  },
  {
    "label": "002",
    "text": "Questa è l'ultima, giusto? {{delay frames=\"30\"}}Ci basta riconfigurarla\ne abbiamo finito."
  },
  {
    "label": "003",
    "text": "Aspetta. {{delay frames=\"30\"}}La tavoletta si comporta in modo strano,\nOtto.{{delay frames=\"15\"}} Sto facendo più fatica del solito ad hackerarla.{{pageBreak}}Sembra che...{{delay frames=\"30\"}} più modifiche sono attive, {{delay frames=\"15\"}}{{color id=\"4\"}}meno schede\ncolore puoi impostare{{color id=\"65535\"}}."
  },
  {
    "label": "004",
    "text": "Argh! Questo complica le cose.{{delay frames=\"15\"}} E mi piace!{{pageBreak}}Otto, Nori, {{delay frames=\"30\"}}prima controllate se riusciamo a fare\na meno di qualche modifica. {{delay frames=\"30\"}}Poi andremo al galoppolpo\nverso la cima della torre con la tavoletta!"
  }
]