[
  {
    "label": "000",
    "text": "Siamo parecchio in alto, eh? {{delay frames=\"30\"}}Scommetto che abbiamo\nraccolto un bel po' di schede colore."
  },
  {
    "label": "001",
    "text": "Beh, basta premere {{icon id=\"72\" arg=\"0x0000803F00000000\"}} per dare un'occhiata\nalla vostra tavoletta."
  },
  {
    "label": "002",
    "text": "Una, {{delay frames=\"5\"}}due, {{delay frames=\"5\"}}tre...{{delay frames=\"30\"}} wow! Sono un sacco!{{pageBreak}}Ehi...{{delay frames=\"15\"}} ma che significano quei \"Gittata\" e \"Potenza\"\nsulla sinistra?"
  },
  {
    "label": "003",
    "text": "Quelle sono le {{color id=\"4\"}}tonalità{{color id=\"65535\"}} delle schede colore.{{pageBreak}}Le schede colore hanno tonalità diverse in base ai loro\neffetti.{{delay frames=\"30\"}} Ogni tonalità è abbinata a un colore e un motivo.{{pageBreak}}Le schede colore rossastre si riferiscono alla\n{{color id=\"4\"}}potenza{{color id=\"65535\"}},{{delay frames=\"15\"}} quindi per lo più incrementano i danni inflitti.{{pageBreak}}Uno sguardo alla tavoletta basta per scoprire la\ntonalità di cui avete più schede, e quindi quale abilità\nè più potenziata rispetto alle altre.{{pageBreak}}Quando avete finito con l'ispezione della tavoletta...{{delay frames=\"15\"}}\npossiamo passare al prossimo piano."
  }
]