[
  {
    "label": "000",
    "text": "Oplà!"
  },
  {
    "label": "001",
    "text": "Forte. {{delay frames=\"30\"}}Non ti preoccupare, Otto.\nCi penso io a guardarti le spalle.{{pageBreak}}Apriamo le danze!"
  }
]