[
  {
    "label": "B00",
    "text": "looks Kalmarus"
  },
  {
    "label": "B01",
    "text": "looks Leviathus"
  },
  {
    "label": "B02",
    "text": "looks Krakeurs"
  },
  {
    "label": "B03",
    "text": "looks Iormungand"
  },
  {
    "label": "B04",
    "text": "looks Ezko"
  },
  {
    "label": "B05",
    "text": "looks Fosia"
  },
  {
    "label": "B06",
    "text": "looks Arki"
  },
  {
    "label": "B07",
    "text": "looks P. Tonk"
  },
  {
    "label": "B08",
    "text": "looks Fréma"
  },
  {
    "label": "B09",
    "text": "looks Abysma"
  },
  {
    "label": "B10",
    "text": "looks Tentatek"
  },
  {
    "label": "B11",
    "text": "looks Pionic"
  },
  {
    "label": "B15",
    "text": "looks Aroz"
  },
  {
    "label": "B16",
    "text": "looks DUX"
  },
  {
    "label": "B17",
    "text": "looks Thony K"
  },
  {
    "label": "B18",
    "text": "looks E+A"
  },
  {
    "label": "B19",
    "text": "looks Alpaj"
  },
  {
    "label": "B20",
    "text": "looks Tizonius"
  },
  {
    "label": "B97",
    "text": "looks M. Ours Cie"
  },
  {
    "label": "B98",
    "text": "looks Radmaré"
  }
]