[
  {
    "label": "Tag_LastOneMinute",
    "text": " 1 minuto!"
  },
  {
    "label": "Tag_ExtraTime",
    "text": "Tempo +"
  },
  {
    "label": "Tag_WipeOut",
    "text": "TABULA RASA!"
  },
  {
    "label": "Tag_CountLead",
    "text": "In vantaggio!"
  },
  {
    "label": "Tag_VlfCheckPointPass",
    "text": "Checkpoint {{number index=\"0\" type=\"1\" arg3=\"0\" arg4=\"0\"}} superato!"
  },
  {
    "label": "Tag_VglCheckPointPass",
    "text": "Checkpoint superato!"
  },
  {
    "label": "Tag_VclGoalOpen",
    "text": "Barriera nemica distrutta!"
  },
  {
    "label": "Tag_TclNoroshiAppear",
    "text": "È apparso l'ultrasegnale!"
  },
  {
    "label": "Tag_TclNoroshiGet",
    "text": "Ultrasegnale conquistato!"
  }
]