{
  "version": 7,
  "rootNode": {
    "Labels": ["0952","0647","0526","3013","0595","0005","1120","0148","0268","0935","0293","1129","0911","1108","0892","0270","0869","1132","0967","0791","0942","1082","1013","0465","0963","0988","0604","0982","0415","0296","0648","0362","0851","3100","0164","0664","1085","0510","0242","0061","0259","0525","0172","1092","0554","0289","0678","0462","0920","0768","0414","0235","0455","0622","0044","0973","2503","0978","0534","0817","0186","0687","0763","1135","0987","0924","0499","0416","0729","0377","2010","3300","0537","0220","1109","1043","0117","0772","0246","0118","0914","0212","0150","0698","0023","0332","1145","3009","0570","1065","0917","1089","1058","0157","0328","0984","0974","0582","0247","0254","0928","0288","0639","0474","0838","0884","0610","1118","0814","0820","2506","0068","1102","0021","0418","0990","0709","0444","0122","0557","0231","0850","0307","0705","0369","0631","0126","1137","0957","0596","1067","0142","0016","0980","0250","0655","0703","0013","0728","3014","0970","0907","0155","0178","0381","1004","0553","0635","1084","0760","1014","2009","0334","1033","1128","0147","0686","0361","0236","0645","0255","0166","0276","0188","0779","3126","0951","1027","0999","0458","0785","0578","0234","1139","0282","0688","1002","0169","0870","0067","0841","0565","0564","1001","0653","0279","0877","0128","0959","0900","0860","0804","0215","0340","0419","1078","0855","0882","0723","0408","0140","0202","0162","0335","0878","0643","0718","1062","0773","0493","0949","1050","0961","1040","0902","0916","2006","3110","1066","0477","0306","1076","0360","0568","0441","0437","0359","0480","0066","0864","0451","0800","0948","1009","0248","0632","0991","0969","0120","0901","0745","0507","0972","1081","0146","0442","0979","0317","0805","0518","0466","1144","0837","0766","0692","0636","0559","0278","0856","0486","0376","0694","0879","0014","0125","0853","0045","0490","0629","0018","0195","2012","1039","1113","0532","1015","0932","0308","0989","0403","0571","0563","0189","0145","0130","0438","0121","0432","0923","2015","1054","0849","0297","0958","0354","0256","0732","0759","0443","0404","0258","0503","0750","0358","0861","0124","0749","0225","0598","0915","0799","0324","0541","0677","0921","1117","0818","0417","1072","0375","0341","0880","0926","0310","0461","0546","0716","0918","1045","0171","0261","0627","0459","0707","0363","0784","0398","0109","0535","0548","2507","1061","0318","0343","0751","0807","1022","0701","0618","1146","1012","0102","0966","0391","0938","0710","0133","0216","0835","0320","1097","0047","0721","0696","3127","0405","3304","0527","0406","0657","0208","0295","0996","0764","0313","0179","0867","0423","0556","0144","0129","0956","0350","0762","0719","0778","0757","0309","0579","0714","0230","0744","0620","0660","3015","0736","0115","0431","0540","0788","0822","0206","1112","0997","0608","0665","0847","0684","3001","0263","3008","0165","0862","1035","0770","1087","0910","0681","0599","1037","0975","0950","0875","3123","0468","0755","0412","0411","0724","0816","0774","0389","0953","0319","0111","0796","0795","0180","1051","0667","1088","0634","0740","0105","0748","0925","0944","1059","1111","0919","0945","0644","0357","0454","0693","0436","0569","1071","0421","0311","1070","0460","0626","0843","0502","2004","0682","1020","1055","0600","0940","0522","0336","0913","0731","3010","1036","0048","0857","1073","0883","0137","0933","1123","0485","0006","0539","0194","0022","0170","0200","0815","2003","0284","0143","0274","0790","0889","0123","0819","0219","0735","1100","0492","1041","0495","0930","0663","0304","0517","0469","0103","0174","0159","3012","0621","0224","0640","0301","1104","0863","0960","0781","0761","0010","0400","0008","1119","0017","0642","0386","1121","0765","0630","0160","0113","0253","1105","0887","1107","3111","0135","1044","0243","0722","0433","1083","0364","1122","0811","0420","0151","0700","0543","0566","0240","2002","0187","0673","0183","0777","0229","0345","0193","0758","0322","0589","0676","0428","0586","0210","0794","0141","0742","0112","0127","0587","0756","0726","0754","0426","1126","0871","1060","1005","0801","0775","0367","1006","0895","0866","3117","1057","0858","1046","1093","0789","3002","3003","3005","0106","1138","0207","0269","0594","0689","1019","0830","0828","0823","0825","0831","0829","0824","0826","0833","0827","3011","0832","0196","0470","0175","0591","3112","0683","0167","0992","0922","0661","0390","3114","0769","0623","0812","0233","0321","0011","0646","0927","0371","0352","1124","0260","0593","0009","0463","0842","0574","0552","2008","0656","0888","1094","0617","3115","0929","0062","0985","0163","0339","0854","0114","0699","3120","0440","0650","0447","0214","0747","0275","0906","0372","0294","0043","0674","0161","0971","0149","0771","1024","0378","0330","1114","0222","0116","0203","0939","1010","2500","0983","0702","0221","0020","3125","1095","0908","1042","1016","0965","0946","0576","0464","0891","0782","0040","0064","0844","3301","0981","0962","0337","0912","0473","0520","0941","0954","0802","0886","0521","0041","0625","0607","0138","0995","0840","0002","0439","0868","0638","1018","3302","1034","0007","0859","0675","0476","0257","0249","0209","0562","1103","1091","0003","0508","0262","0399","0019","0797","0452","0305","0449","0204","1049","0450","0671","0000","0429","0245","3303","0395","2007","0042","0547","0752","0852","0680","0890","0182","1079","1003","0213","0132","0669","0379","0725","0348","0734","0998","3200","0457","1048","1074","0267","1142","1143","0697","3000","0104","0704","0602","3122","0283","0266","3121","0592","0060","1064","1053","3201","0739","0609","0158","0976","1096","0156","1023","0012","0063","0767","1038","0691","0001","0580","1047","0201","0136","3006","3007","3004","0108","0808","0205","2501","0251","2005","1011","0370","0672","0177","0015","0601","0241","0069","0291","0662","0119","0387","0738","0874","0897","0422","0191","0424","0272","0264","0100","0238","0445","0265","0695","0154","2014","0993","0471","0848","0139","0529","0733","0312","0134","0873","1000","1052","0836","0717","3118","3124","0505","0353","0584","0968","0382","1101","1069","0513","0577","0654","0273","0110","0809","0004","0931","0211","3113","2505","0904","0894","1068","0393","0651","1026","1080","1028","0366","0753","0964","0402","0501","0743","0652","0344","0633","0730","0228","0374","0896","0934","0898","0226","0572","0581","0793","0549","0560","0937","0385","1130","1077","0905","1021","1007","0615","1056","0876","0787","0394","0786","1106","1086","0994","0619","0727","0185","0326","0497","2011","1140","0338","0244","0303","0955","0746","0504","0903","0494","0690","0524","0737","1017","0292","0316","1008","1136","0776","0813","0798","0237","0708","1141","3116","0834","0810","1031","0397","0107","0845","0232","0329","0865","0217","1116","0624","2502","2013","1032","0666","1133","1029","0720","0290","0277","0184","0947","1110","0425","0612","0885","0488","0046","0315","0173","0281","1131","0227","0909","0573","0239","0197","0977","0741","0388","0846","3305","0533","0168","1075","0314","0679","0670","0131","3119","0181","0893","0101","0936","0872","0605","0551","2504","1090","0881","0542","0065","0368","0899","0271","0347","0323","0783","0152","1025","0613","0821","0588","0484","1099","0806","0325"]
  }
}