{
  "version": 7,
  "rootNode": {
    "Labels": ["0540","0271","0526","0952","0665","0270","0682","0534","0269","1099","0312","1129","0911","0785","0942","2503","1013","0276","0901","2505","0853","0930","0354","0953","0791","1132","1104","0381","0439","0141","0464","1054","0362","0982","0480","3100","0775","0164","0157","0325","1078","0664","0111","0660","0960","0510","0061","0394","1024","3004","0764","0954","0118","0414","0622","3005","0485","0773","0204","0978","2504","0869","0186","0821","0289","0102","0235","0548","0914","0765","0698","0225","0419","0695","0896","0689","0592","0958","0605","0015","0138","3115","0194","0570","0313","0361","0391","0594","0068","0938","0105","0692","0568","0256","1026","0830","1130","0133","1107","0021","0922","0709","0557","0048","0471","0980","0231","1067","0705","0812","0817","0829","1041","0423","0006","0863","1137","0831","0294","0560","0872","0577","0250","0629","1019","1014","0146","0725","0224","0634","0311","0703","0507","0353","0323","0066","1070","0109","3014","0825","2506","0907","0310","0945","0308","0888","0750","0886","0454","0732","0155","0804","1102","0994","0850","0858","0981","0178","0584","1062","0101","0630","0891","0126","2004","0677","1004","0553","0150","1116","1045","0180","1059","1096","1097","0305","1135","1094","0137","0291","0880","0522","0170","1084","0979","0619","0019","0667","0735","0857","0473","0114","3300","0883","0788","0899","1048","0895","0458","0760","0260","0258","0443","0875","0184","0564","1111","0673","0777","0177","0672","0143","0370","0432","0951","0152","0431","0666","0897","0422","0191","0108","0805","0989","0999","1103","1081","0578","0217","1050","0488","0881","2009","1077","1073","0904","0601","0688","0246","1080","1002","0169","0766","0377","0569","1043","3117","0693","0828","0927","0877","0602","0183","0187","0438","1028","0393","0640","2012","0969","0617","0001","0069","0643","3126","0404","0779","1057","0949","0372","0477","0984","1083","1089","1040","0359","0600","0798","0451","0470","0296","0724","0444","1069","0961","0924","0328","0360","0800","0916","1009","0248","1012","0991","0925","1072","0107","0129","0144","0576","0415","0573","0566","0521","0745","0678","0168","0324","0317","0402","1144","1074","0463","0636","0251","0574","1015","0376","0856","0262","0007","0990","0882","0542","0174","0559","0486","0127","0763","0497","1076","0490","1029","0565","0905","0195","0266","0241","1036","0403","0571","0563","0232","0632","0397","0810","0988","3200","0923","0254","0900","0297","1117","0860","0304","0818","0941","1010","0917","0627","0707","0363","0398","0625","0946","0965","0120","0751","0807","0046","0525","0932","0894","0733","0701","0618","0462","1146","1128","0171","0203","0277","0441","0710","0219","3121","0913","0002","0721","0182","0008","0806","0209","0282","0919","0499","0956","0484","1091","0867","0336","0292","0795","0727","0309","0772","0620","0149","0884","0125","0612","0230","0714","0768","0635","0208","0822","3123","0920","0340","0736","0115","0350","0016","0185","0179","1061","0808","0596","0970","0793","1055","1005","0494","0388","1106","0318","0572","3001","1003","1051","0263","1033","0344","0743","0939","0918","0011","0264","0265","0100","0165","0166","0167","0188","0238","0549","0782","1087","0646","0326","1071","3127","0910","0681","0902","0047","3116","0445","0455","0389","0532","0599","0921","0879","0967","1042","1100","0492","0676","0457","0997","0234","0874","3125","0283","0915","0123","0259","0023","0357","0274","0556","1139","0675","0418","0469","0781","0436","0650","0159","3012","0408","0301","0202","0815","2003","0338","0042","0546","0663","0517","0809","0796","0162","0148","0128","0535","1122","0642","0761","1022","0876","0948","0010","0013","0947","0113","0017","3114","0022","0041","0386","0371","0160","0934","3111","0343","2011","1136","1044","0893","1082","0722","0364","0420","0124","3015","0272","0731","0307","0005","0273","0885","0551","0226","0950","0700","0543","0928","0940","2002","0974","0527","0459","0820","0518","3305","0588","0847","0395","0009","1105","0322","0586","0959","0200","0794","0742","0112","0589","0726","0754","0845","0756","0332","0426","0587","0819","1046","0801","0789","0811","1138","0106","3002","3003","0207","0476","0247","1065","0215","0671","0771","0862","0428","0816","0610","0598","1120","0390","3009","0762","0196","0851","2502","0802","0975","0175","0243","0320","0992","0786","0848","0955","0529","0661","0608","0838","0121","0604","1121","0654","0505","0279","0995","0582","1140","3118","0769","0119","0442","1032","1039","2014","1007","0233","0321","1112","0405","1058","0352","0749","1124","0460","1060","0424","1034","1017","0944","0593","0728","0508","0552","2008","0770","0865","0621","1118","0639","0730","0929","0623","0966","0062","0744","0163","0985","0214","0339","0122","0237","1064","0814","0288","0854","0253","0699","0440","0870","0908","0783","0890","0906","0694","0648","0674","1110","0746","0797","1113","0154","0758","0767","2006","0849","0060","0378","1016","0303","1066","3110","0778","0834","0117","0871","1085","0873","1095","1114","0222","0729","1027","1108","0161","0193","0416","0687","0020","0983","0702","0221","0824","0739","0110","1145","0044","0971","0284","0406","3301","0064","0043","0216","0846","0504","0776","0245","0844","0375","0842","0242","0784","0000","0369","0211","0737","0399","0691","0537","0684","0358","1049","0452","0450","0449","0212","0429","0503","0306","0520","0912","0135","0337","2507","0495","0018","0823","0173","0861","0249","3112","0156","0752","2007","0852","1141","0855","1025","0142","0638","1088","0976","1126","0181","0345","0740","0859","0607","0581","0826","0595","0972","0316","0690","0680","0931","0734","0045","0227","0539","0631","1037","1119","3006","3007","0103","0626","3122","0040","1123","0417","0281","0833","1143","1142","3000","0827","0697","0104","0656","0704","0774","0145","3120","0130","2010","0268","1011","0158","0957","0421","1053","0474","0295","0609","0759","1023","0201","0063","1020","3302","0580","0832","1075","1092","1047","0278","1079","0012","0136","0840","0348","0293","0385","0213","0669","0132","0379","2500","0696","0382","1101","2501","0205","0513","0892","0968","0868","2005","0240","3113","0502","0210","0723","0962","0229","0579","0116","0433","2013","0837","0341","0329","0662","1133","0368","3304","0387","2015","0147","0686","3011","3010","0645","0466","0236","0963","0624","0255","0244","0335","0683","0653","3008","3201","0493","0647","0465","0738","0437","3013","0412","0468","0755","1035","0841","0998","0716","0591","0347","0719","0757","0655","0996","0993","0275","1031","3124","0139","0843","0330","0799","0172","0140","0134","0067","1000","0836","1018","0717","0411","0334","1001","1093","0261","0004","0898","1068","1021","0501","0813","0400","1006","0753","0652","0003","1056","0864","0747","0374","0878","0787","0964","0366","0633","0367","0228","0987","0651","1052","0748","0866","0615","0189","1038","0937","0933","0206","0541","0903","1008","1109","0447","0708","0720","0790","0889","0554","0014","3303","0613","0151","0657","0290","0644","0835","0315","0239","0936","0926","0935","0257","3119","0562","0267","0533","0314","0679","0131","0670","0220","0909","1131","0887","0718","1090","0547","0425","0197","0741","0977","0065","0461","0319","1086","0973","0524","0943"]
  }
}