{
  "version": 7,
  "rootNode": {
    "Labels": ["2015_0","0917_0","0483_0","0483_1","0541_0","0907_0","0455_0","0455_1","0437_0","0653_0","0399_0","0500_0","0501_0","3005_0","0502_0","0503_0","0844_0","0916_0","0702_0","1062_0","0997_0","0702_1","1062_1","0997_1","0546_0","1146_0","0449_0","0449_1","0862_0","1114_0","0684_0","0511_0","1168_0","1109_0","1109_1","1021_0","0886_0","0360_0","0360_1","1154_0","0698_0","1067_0","0892_0","0345_0","0344_0","0348_0","3125_0","0443_0","0443_1","0423_0","0398_0","3011_1","0955_0","0836_0","0563_0","0563_1","2009_0","0848_0","0369_0","0369_1","0810_0","0810_1","0607_0","0607_1","1032_0","0779_0","0667_0","3111_0","1153_0","0727_0","0727_1","0818_0","0889_0","0838_0","0573_0","3200_0","0037_0","0060_0","0058_0","0121_0","0006_0","0057_0","0024_0","0003_0","0028_0","0014_0","0015_0","0011_0","0101_0","0100_0","0036_0","0035_0","0018_0","0019_0","0033_0","0030_0","0031_0","0125_0","0012_0","0064_0","0108_0","0138_0","0046_0","0040_0","0129_0","0004_0","0054_0","0007_0","0001_0","0016_0","0131_0","0063_0","0103_0","0023_0","0013_0","0050_0","0128_0","0124_0","0130_0","0126_0","0061_0","0038_0","0010_0","0055_0","0107_0","0132_0","0105_0","0021_0","0127_0","0039_0","0022_0","0059_0","0056_0","0009_0","0002_0","0000_0","0122_0","0110_0","0102_0","0106_0","0062_0","0104_0","0111_0","0135_0","0042_0","0136_0","0134_0","0112_0","0048_0","0137_0","0133_0","0029_0","0120_0","0017_0","0113_0","0032_0","0109_0","0123_0","0027_0","0052_0","0053_0","0020_0","0026_0","0051_0","0045_0","0049_0","0044_0","0041_0","0043_0","0025_0","0005_0","0008_0","0034_0","0047_0","0996_0","0964_0","0964_1","0461_0","0461_1","0350_0","0350_1","3121_0","1074_0","0586_0","0372_0","0376_0","0411_0","0822_0","0645_0","1011_0","0794_0","0544_1","0544_0","0875_0","0821_0","0845_0","0983_0","0952_1","0952_0","0900_0","0900_1","0934_1","1014_1","2013_0","0934_0","1014_0","0622_0","0622_1","0879_0","3301_0","3301_1","1056_0","0426_0","0488_0","0488_1","0454_0","1006_0","1006_1","1102_1","1102_0","3012_0","3012_1","0562_0","0562_1","0776_0","0691_0","0505_1","0505_0","0798_1","0798_0","0666_0","0666_1","0584_0","0584_1","0606_0","0478_0","0478_1","0620_0","1124_0","0922_0","0930_0","0930_1","1072_0","0813_0","0543_1","0543_0","0583_0","1161_0","0583_1","1161_1","0491_0","0950_0","0582_0","0540_0","0540_1","0479_0","0458_1","1110_1","0458_0","1110_0","0729_0","0729_1","0858_0","0723_0","1026_0","0834_0","0534_0","0534_1","0447_1","0447_0","0396_1","1112_0","0933_0","0396_0","0770_0","0762_0","0982_0","0982_1","0440_1","0373_1","0373_0","0948_0","0948_1","0772_0","0869_0","0719_0","0757_0","2503_1","2503_0","1120_0","0464_0","0440_0","0929_0","0929_1","3004_1","3000_1","0847_1","0554_0","3011_0","0343_0","0394_0","0387_0","0720_0","0854_0","0792_0","0812_0","0721_0","0408_0","0908_0","0629_1","0629_0","0391_0","0429_0","0913_0","1129_0","0429_1","0988_0","1106_0","0843_0","3008_1","0389_0","3122_0","1116_0","1103_0","2006_0","0655_0","3013_0","0868_0","0905_0","0782_0","0230_0","0230_1","0663_1","0663_0","0863_0","0552_0","0374_0","1051_0","0700_0","0514_0","0547_0","0557_0","1035_0","0705_0","0705_1","0872_0","0676_0","0550_0","0550_1","0465_0","0734_1","0734_0","1071_0","0367_1","0367_0","0304_0","0312_0","0311_0","0305_0","0301_0","1107_0","1107_1","0662_0","0336_0","0336_1","0752_0","0397_0","0397_1","0521_0","0937_0","0937_1","0351_0","0351_1","0730_0","0891_0","0773_0","0625_0","0468_0","0468_1","0972_1","0972_0","0553_0","0809_0","1081_0","0496_0","0496_1","0504_0","0559_0","0510_0","2014_0","0897_0","2502_0","2502_1","1073_0","0508_0","1054_0","1054_1","1131_0","1131_1","0675_0","0780_0","0467_0","0881_0","0493_0","1046_0","1091_0","0896_0","0896_1","0921_0","0329_0","2010_0","0565_0","0840_0","0906_0","0906_1","0902_0","0902_1","1151_0","1151_1","0570_0","0518_0","0787_0","1132_0","0943_0","1132_1","0943_1","1099_0","0740_0","0989_0","0989_1","0434_0","0434_1","0962_0","0487_0","1033_0","3124_0","3001_0","0515_0","1163_0","0947_0","3117_0","0530_0","0532_0","0784_0","3201_0","3201_1","0999_0","0837_0","0781_0","0850_0","1023_0","0870_0","0985_0","1164_0","0954_0","0839_0","1036_0","0533_0","0533_1","0899_0","1041_0","0914_0","0914_1","0936_0","1142_0","0395_0","0932_1","0932_0","1031_0","0965_1","0965_0","1027_0","1101_0","0340_0","0758_0","1101_1","0340_1","0758_1","0751_0","0975_0","0733_0","0956_0","0403_0","0783_0","0710_0","1068_0","0969_0","0926_0","0926_1","0690_0","1044_0","0979_0","1028_0","1019_0","0402_0","0349_1","0349_0","0375_1","0664_1","0375_0","0664_0","0452_0","0390_0","0871_0","0401_0","0942_0","0942_1","0390_1","0537_0","1086_0","0851_1","0851_0","0517_0","1042_0","1042_1","1085_0","0973_0","1075_0","1029_0","1029_1","1017_0","3119_0","1022_0","0951_0","1141_0","0949_0","0971_0","0628_0","0846_0","0846_1","0536_0","0378_0","0808_0","0618_0","1133_0","1126_0","1126_1","1038_0","0512_0","0327_0","0324_0","0323_0","0325_0","0326_0","0328_0","0322_0","0637_1","0637_0","0586_1","0961_0","1140_0","0460_0","0460_1","0430_0","1048_0","0233_0","1028_1","0627_0","1038_1","1090_0","1090_1","0318_0","0316_0","0571_0","0317_0","0585_0","0382_0","0974_0","0315_0","0318_1","0316_1","0571_1","0317_1","0585_1","0382_1","0974_1","0315_1","0766_0","0864_0","3004_0","0847_0","3007_1","0353_0","1105_0","0715_0","1108_0","3114_0","0590_0","0909_0","0966_0","0746_0","0321_0","0909_1","0481_0","3006_1","1052_0","1152_0","0683_0","1172_0","0592_0","0592_1","1025_0","1025_1","0355_1","0355_0","0978_0","0356_0","0419_0","0842_0","0665_0","0616_0","0616_1","0579_0","0873_0","1076_0","0959_0","0574_0","0682_0","3010_1","3010_0","0359_0","0420_0","0155_0","0159_0","0157_0","0167_0","0154_0","0165_0","0163_0","0150_0","0168_0","0152_0","0158_0","0161_0","0166_0","0153_0","0156_0","0151_0","0160_0","0337_0","0334_0","0332_0","0338_0","0162_0","0333_0","0339_0","0335_0","0164_0","0331_0","0732_0","0342_0","0342_1","0904_0","0877_0","0393_0","1058_0","0610_0","0610_1","1138_0","1138_1","0761_0","1096_0","0484_0","0777_0","0614_0","1084_0","0358_0","1080_0","1083_0","0828_0","0778_0","0731_0","0731_1","0968_0","1139_0","2005_0","3127_0","0519_0","0492_0","1015_0","0492_1","0568_0","0568_1","0824_0","0824_1","1053_0","0745_0","1100_0","1100_1","0352_0","0352_1","1113_0","1113_1","3115_0","0725_0","1001_0","1001_1","0639_0","0639_1","0619_0","1078_0","2504_0","2504_1","0911_0","0911_1","0648_0","0744_1","0744_0","0374_1","1064_1","1064_0","0507_0","0692_0","0880_0","0874_0","0561_0","0409_0","0646_1","0646_0","0601_0","0650_0","0631_0","0893_0","0228_0","0231_0","0242_0","0240_0","0238_0","0239_0","0237_0","0229_0","0235_0","0224_0","0232_0","0236_0","0234_0","0241_0","0226_0","0222_0","0225_0","0223_0","0228_1","0231_1","0242_1","0240_1","0238_1","0239_1","0237_1","0229_1","0235_1","0224_1","0232_1","0236_1","0234_1","0241_1","0226_1","0222_1","0225_1","0223_1","2002_0","2012_0","0742_0","0463_0","0685_0","0685_1","0555_0","0555_1","0861_0","0861_1","0598_0","0903_1","0903_0","0605_0","0377_0","1040_1","1040_0","0621_0","0800_0","0998_0","2505_0","2505_1","3126_0","0987_0","0987_1","0489_0","1049_0","1049_1","0747_0","0748_0","3002_0","0330_0","0466_0","0354_0","0354_1","0523_0","0901_1","0901_0","3006_0","0623_0","0366_0","0413_0","0413_1","0433_0","0433_1","2501_0","0595_0","1134_0","0711_0","1079_0","1030_0","3118_0","3007_0","0801_0","3000_0","0221_0","0221_1","0815_0","0953_0","0424_0","0424_1","0651_0","0651_1","0890_0","0890_1","0495_0","0894_0","0939_0","0765_0","0388_0","0736_0","0833_0","0991_0","0991_1","0412_0","0412_1","0986_0","0421_0","0421_1","3015_0","0984_0","0576_0","0741_0","1057_0","0548_0","0548_1","0919_0","1115_0","1165_0","0920_0","0920_1","0652_0","0652_1","0804_0","3014_0","0957_1","0957_0","0694_1","0694_0","0679_0","0679_1","0945_0","0749_0","0749_1","0567_0","0977_0","0977_1","0545_0","0432_0","0545_1","0432_1","0361_0","0693_0","3120_0","3116_0","1047_0","1047_1","0714_0","0714_1","1004_0","1004_1","0771_1","0771_0","1000_0","1097_0","1097_1","0825_1","0825_0","1145_0","1145_1","0931_0","0528_0","0528_1","1003_0","2004_0","2004_1","1010_0","1010_1","0671_0","0671_1","1155_0","1155_1","0425_0","0841_0","0450_0","0450_1","0673_1","0673_0","0677_0","0677_1","0923_1","0923_0","0724_0","0703_0","1135_0","1135_1","2507_0","0963_0","0963_1","0722_0","3110_0","3110_1","0371_0","0371_1","1024_0","0767_0","0638_0","0638_1","0816_0","0743_0","0581_0","0581_1","3112_1","3112_0","1149_0","1149_1","0416_0","0416_1","0365_0","0365_1","0417_0","0415_0","0415_1","0992_0","0992_1","0915_0","0915_1","1144_1","1144_0","1119_0","1119_1","0699_0","1077_0","0347_0","0760_0","0347_1","0760_1","0643_0","0678_0","1169_0","0860_0","3300_0","0859_0","3300_1","0859_1","0701_0","0439_0","0600_0","0439_1","0600_1","0362_1","0362_0","0320_1","0320_0","0925_0","0993_0","0993_1","0526_0","1137_0","0883_0","0444_0","0444_1","0994_0","0970_0","0709_0","1013_0","0539_0","0602_0","1122_0","0469_0","0469_1","1043_0","1043_1","0626_0","0884_0","0707_0","1148_0","0422_0","0422_1","0857_0","0589_0","0386_0","0680_0","0680_1","0480_0","0613_0","1125_0","0472_0","2007_0","0599_0","0599_1","0763_0","0796_0","0658_0","0849_0","3003_0","0405_0","1143_0","1143_1","0636_0","0882_0","1069_0","0641_0","0451_1","0451_0","1147_0","1128_0","1128_1","1050_0","0789_0","0790_0","0898_0","0379_0","0379_1","0372_1","0376_1","1111_0","3303_0","3303_1","0835_0","0498_0","1045_0","1045_1","0791_0","0759_0","0759_1","0739_0","0728_0","0728_1","0941_0","0941_1","0866_0","0976_0","0820_0","0706_0","1034_0","1034_1","1063_0","1063_1","0814_0","0660_0","0660_1","0756_0","0383_0","0713_0","0388_1","0341_0","0341_1","1093_0","1156_0","1156_1","0635_0","0635_1","0538_0","0456_0","0538_1","0456_1","0670_0","0793_0","0764_0","0718_0","1087_0","1087_1","2506_1","2506_0","1104_0","0644_0","0516_0","0644_1","0516_1","0805_0","0990_0","0990_1","2008_0","0807_0","0807_1","0806_0","0811_0","1002_0","0995_0","0642_0","0642_1","1018_0","0649_0","0649_1","1094_0","3113_0","0885_0","0946_1","0946_0","0446_0","1065_1","1065_0","3009_1","3009_0","0632_0","0695_0","0572_0","0657_0","2003_0","2003_1","0227_1","0227_0","0549_0","0717_0","0912_0","0735_0","0735_1","1130_0","1130_1","0940_0","0944_0","0940_1","0944_1","0551_0","0551_1","0428_0","1162_0","1066_0","0428_1","1162_1","1066_1","0924_1","0924_0","1121_0","1121_1","0795_0","0476_1","0476_0","0591_0","0775_0","1118_0","0485_0","0486_0","0482_0","0669_0","2500_1","2500_0","3008_0","0448_0","0593_0","0938_0","0774_0","1059_0","0474_0","0407_1","0407_0","0558_0","0888_1","0888_0","0588_0","0588_1","0935_0","3302_0","0596_0","3013_1","1037_0","1037_1","1089_0","0475_0","0475_1","1016_0","1009_0","1009_1","3123_0","0686_0","0668_0","0569_0","0689_0","0855_0","0855_1","0918_0","0918_1","0750_0","0535_0","0535_1","0566_0","0566_1","0513_0","0556_0","0958_0","0769_0","0769_1","0431_0","0431_1","0364_0","0363_0","0364_1","0363_1","0615_0","0867_0","0346_0","0980_0","1157_1","1157_0","0453_1","0453_0","3304_0","0564_0","1092_0","0597_0","0319_0","0499_0","0597_1","0319_1","0499_1","0404_1","0681_0","1158_0","1159_0","1160_0","0681_1","1158_1","1159_1","1160_1","0404_0","0445_0","0445_1","1088_0","0184_0","0181_0","0191_0","0193_0","0190_0","0307_0","0187_0","0192_0","0194_0","0195_0","0182_0","0185_0","0197_0","0308_0","0196_0","0186_0","0306_0","0180_0","0189_0","0183_0","0188_0","0314_0","0611_0","0309_0","0310_0","0300_0","0313_0","0302_0","0303_0","0737_0","0184_1","0181_1","0191_1","0193_1","0190_1","0307_1","0187_1","0192_1","0194_1","0195_1","0182_1","0185_1","0197_1","0308_1","0196_1","0186_1","0306_1","0180_1","0189_1","0183_1","0188_1","0314_1","0611_1","0309_1","0310_1","0300_1","0313_1","0302_1","0303_1","0737_1","0384_0","0380_0","0380_1","1060_0","0661_0","0755_0","3305_0","0471_0","0697_0","0529_0","0578_0","0895_0","0525_0","2011_0","1082_0","0220_0","0243_0","0696_0","0696_1","0910_0","0910_1","1039_0","0524_0","0400_0","0960_0","0960_1","0418_0","0418_1","0876_0","0633_0","0633_1","0381_0","0577_0","0577_1","0768_0","0385_0","0392_0","0687_0","0357_0","0659_0","0368_0","3100_0","0368_1","3100_1","0470_0","0647_0","1117_1","1117_0","0674_0","0672_0","0442_0","0441_0","0441_1","0459_0","0522_0","1166_0","1005_1","1005_0","1150_0","0509_0","0406_0","0406_1","0754_1","0754_0","0634_0","0384_1","1061_0","1061_1","0494_0","0928_0","0753_1","0753_0","1095_0","1008_0","1008_1","0617_0","0617_1","0630_0","0716_0","0531_0","1167_0","0520_0","0887_0","0967_0","0603_0","0603_1","1070_0","1070_1","0477_0","0477_1","1020_0","0608_0","0878_0","0473_0","0786_1","0786_0"]
  }
}