[
  {
    "label": "Hello",
    "text": "Hallo und willkommen!"
  },
  {
    "label": "FirstExplain",
    "text": "Du bist zum ersten Mal hier, nicht\nwahr? Wunderbar! Ich hoffe, es\ngefällt dir bei uns im Kampfmampf-\nImbiss!{{pageBreak}}Ich will ja nicht angeben, aber unsere\nSnacks füllen nicht nur deinen Bauch!{{pageBreak}}Sie helfen auch dabei, deine\nErfahrungsanzeige oder sogar deinen\nGeldbeutel zu füllen, wenn du sie dir\nvor einem Kampf gönnst!{{pageBreak}}Eines musst du noch wissen,\nSchätzchen. Wir nehmen hier kein\nGeld, sondern nur Coupons.\nAber genug getratscht, was darf es\ndenn sein?"
  },
  {
    "label": "Select",
    "text": "Hier schmeckt alles!"
  },
  {
    "label": "Confirm",
    "text": "Was gefunden?"
  },
  {
    "label": "OverwriteConfirm",
    "text": "Willst du wirklich?"
  },
  {
    "label": "NoTicket",
    "text": "Oh, du hast gar keine Coupons?\nIch schicke nur ungern jemanden\nmit leerem Bauch weg, aber...\nOhne Coupons kann ich dir nichts\ngeben."
  },
  {
    "label": "RemainOtherBoost",
    "text": "Du hast ja Appetit, Schätzchen!\nDer Effekt von deinem letzten\nSnack ist noch wirksam.{{pageBreak}}Ich mach dir gern was Neues,\naber dann geht der aktuelle Effekt\nverloren. Wäre das in Ordnung?"
  },
  {
    "label": "Bye",
    "text": "Vielen Dank! Komm bald wieder!"
  }
]