{
  "version": 7,
  "rootNode": {
    "ControlLimit": {
      "CanUseShot": "Always",
      "CanUseSquid": "Always",
      "CanUseTeamSignal": "Always"
    },
    "HintLabel": "Tips_80_Trial",
    "LocatorName": "Front10m",
    "Playground": "Front_10-20_CenSid",
    "WeaponName": "Blaster_Middle_00"
  }
}