{
  "version": 7,
  "rootNode": {
    "ControlLimit": {
      "CanUseBomb": "Always",
      "CanUseLStick": "Always",
      "CanUseSquid": "Always",
      "CanUseTeamSignal": "Always"
    },
    "HintLabel": "Tips_91_Trial",
    "Judge": "UseSubWeapon3Times",
    "JudgeDelay": 2.5,
    "LocatorName": "Front20m",
    "Playground": "Front_10-20_CenSid",
    "WeaponName": "Shooter_Blaze_00"
  }
}