{
  "version": 7,
  "rootNode": {
    "ControlLimit": {
      "CanUseJump": "None",
      "CanUseLStick": "Always",
      "CanUseShot": "Always",
      "CanUseSquid": "Always",
      "CanUseTeamSignal": "Always"
    },
    "HintLabel": "Tips_78_Trial",
    "LocatorName": "Charger",
    "Playground": "Charger",
    "WeaponName": "Charger_Normal_00"
  }
}