{
  "version": 7,
  "rootNode": {
    "ControlLimit": {
      "CanUseBomb": "InSpecial",
      "CanUseLStick": "Always",
      "CanUseRStickPress": "Always",
      "CanUseShot": "InSpecial",
      "CanUseSquid": "None",
      "CanUseTeamSignal": "Always"
    },
    "HintLabel": "Tips_88_Trial",
    "LocatorName": "Front24.5m",
    "Playground": "Front_25-30_CenStr",
    "SpecialState": "AlwaysFull",
    "WeaponName": "Spinner_Quick_00"
  }
}