{
  "version": 7,
  "rootNode": {
    "ControlLimit": {
      "CanUseBomb": "None",
      "CanUseJump": "Always",
      "CanUseLStick": "Always",
      "CanUseMinimap": "Always",
      "CanUseShot": "Always",
      "CanUseSquid": "Always",
      "CanUseTeamSignal": "Always"
    },
    "HintLabel": "Tips_15_Trial",
    "LocatorName": "Front15m",
    "Playground": "TerritoryMap",
    "WeaponName": "Shooter_Normal_00"
  }
}