{
  "version": 7,
  "rootNode": {
    "Interpolation": {
      "CoopDropDemo": {
        "Curve": {
          "Data": [0.0,1.0],
          "MaxX": 30.0,
          "Type": "Linear"
        },
        "Type": "Euler"
      },
      "EaseIn30": {
        "Curve": {
          "Data": [0.0,0.0,1.0,1.937102],
          "MaxX": 30.0,
          "Type": "Hermit"
        }
      },
      "EaseInOut30": {
        "Curve": {
          "Data": [0.0,0.0,1.0,0.0],
          "MaxX": 30.0,
          "Type": "Hermit"
        }
      },
      "EaseInOut60": {
        "Curve": {
          "Data": [0.0,-0.07510003,1.0,0.0],
          "MaxX": 60.0,
          "Type": "Hermit"
        }
      },
      "EaseOut30": {
        "Curve": {
          "Data": [0.0,2.085699,1.0,0.0],
          "MaxX": 30.0,
          "Type": "Hermit"
        }
      },
      "Linear30": {
        "Curve": {
          "Data": [0.0,1.0],
          "MaxX": 30.0,
          "Type": "Linear"
        }
      },
      "Linear60": {
        "Curve": {
          "Data": [0.0,1.0],
          "MaxX": 60.0,
          "Type": "Linear"
        }
      },
      "PaintResult": {
        "Curve": {
          "Data": [50.0,0.0,0.0,85.0,1.0,0.0],
          "MaxX": 90.0,
          "Type": "Hermit2DSmooth"
        },
        "Type": "Quaternion"
      },
      "PlayerMakeBottom": {
        "Curve": {
          "Data": [0.0,1.0],
          "MaxX": 20.0,
          "Type": "Linear"
        }
      },
      "PlayerMakeConfirm": {
        "Curve": {
          "Data": [0.0,1.0],
          "MaxX": 20.0,
          "Type": "Linear"
        }
      },
      "PlayerMakeEnd": {
        "Curve": {
          "Data": [0.0,0.0,0.1462264,0.2841835,0.5,0.3331935,0.8915094,0.3602058,1.0,0.0,1.0,0.0],
          "MaxX": 90.0,
          "Type": "Hermit"
        },
        "Type": "Euler"
      },
      "PlayerMakePartner": {
        "Curve": {
          "Data": [0.0,1.0],
          "MaxX": 20.0,
          "Type": "Linear"
        }
      },
      "PlzNPCZoom": {
        "Curve": {
          "Data": [0.0,1.022222,1.0,0.0],
          "MaxX": 30.0,
          "Type": "Hermit"
        }
      },
      "ShopZoom": {
        "Curve": {
          "Data": [0.0,3.091618,1.0,0.0],
          "MaxX": 20.0,
          "Type": "Hermit"
        }
      },
      "Spectator30": {
        "Curve": {
          "Data": [0.0,0.0,1.0,0.0],
          "MaxX": 30.0,
          "Type": "Hermit"
        },
        "Type": "Quaternion"
      },
      "Spectator60": {
        "Curve": {
          "Data": [0.0,0.0,1.0,0.0],
          "MaxX": 40.0,
          "Type": "Hermit"
        },
        "Type": "Quaternion"
      },
      "SupplyPoint": {
        "Curve": {
          "Data": [0.0,1.0],
          "MaxX": 15.0,
          "Type": "Linear"
        }
      }
    },
    "Rumble": {
      "FootPaintEnemy": {
        "Axis": {
          "X": 0.0,
          "Y": 1.0,
          "Z": 0.0
        },
        "Curve": {
          "Data": [0.0,0.7683962,0.0,-0.6242645,0.25,0.0,-0.25,0.4331001,0.0,-0.6243063,-0.07407407,1.195746,-0.03703704,0.9078547,-0.1128581,2.099056,0.0,-3.770833],
          "MaxX": 50.0,
          "Type": "Hermit"
        },
        "IsLooped": true,
        "Scale": 0.12
      },
      "Fuwa": {
        "Curve": {
          "Data": [0.0,4.583333,0.0,-5.113636,0.0,1.042179,0.0,-0.481666,0.0,0.3950581],
          "MaxX": 15.0,
          "Type": "Hermit"
        },
        "Scale": 0.2
      },
      "FuwaLoop": {
        "Curve": {
          "Data": [0.0,1.236544,0.0,-0.6731832,0.0,0.4508986,0.0,-1.333001,0.0,1.459671],
          "MaxX": 15.0,
          "Type": "Hermit"
        },
        "IsLooped": true,
        "Scale": 0.1
      },
      "FuwaStrong": {
        "Curve": {
          "Data": [0.0,1.581111,0.0,-1.700413,0.0,1.042179,0.0,-0.481666,0.0,0.3950581],
          "MaxX": 15.0,
          "Type": "Hermit"
        },
        "Scale": 0.3
      },
      "FuwaWeak": {
        "Curve": {
          "Data": [0.0,1.581111,0.0,-1.700413,0.0,1.042179,0.0,-0.481666,0.0,0.3950581],
          "MaxX": 15.0,
          "Type": "Hermit"
        },
        "Scale": 0.1
      },
      "SpinnerShooting": {
        "Curve": {
          "Data": [0.18,1.0],
          "MaxX": 20.0,
          "Type": "Sin"
        },
        "IsLooped": true,
        "Scale": 0.02
      },
      "ZigZag": {
        "Curve": {
          "Data": [0.5,-0.5,0.3181818,-0.2090909,0.2636364,-0.3181818,0.0,-0.1,0.0],
          "MaxX": 8.0,
          "Type": "Linear"
        },
        "Scale": 0.2
      },
      "ZigZagLoop": {
        "Curve": {
          "Data": [0.5,-0.5,0.5,-0.5,0.5,-0.5,0.5,-0.5,0.5],
          "MaxX": 16.0,
          "Type": "Linear"
        },
        "IsLooped": true,
        "Scale": 0.1
      },
      "ZigZagStrong": {
        "Curve": {
          "Data": [0.5,-0.5,0.3181818,-0.2090909,0.2636364,-0.3181818,0.0,-0.1,0.0],
          "MaxX": 8.0,
          "Type": "Linear"
        },
        "Scale": 0.2
      },
      "ZigZagStrongLoop": {
        "Axis": {
          "X": 0.0,
          "Y": 1.0,
          "Z": 0.0
        },
        "Curve": {
          "Data": [0.5,-0.5,0.5,-0.5,0.5,-0.5,0.5,-0.5,0.5],
          "MaxX": 20.0,
          "Type": "Linear"
        },
        "IsLooped": true,
        "Scale": 0.2
      }
    }
  }
}