{
  "version": 7,
  "rootNode": {
    "HeightGradation": {
      "MaxHeightColor": {
        "A": 1.0,
        "B": 0.9372549,
        "G": 0.9607843,
        "R": 0.9764706
      },
      "MinHeightColor": {
        "A": 1.0,
        "B": 0.07058824,
        "G": 0.0627451,
        "R": 0.0627451
      }
    },
    "PaintBrightnessUpAmount": 0.95,
    "UVScale": {
      "FenceUVScale": 1.5,
      "NoPaintUVScale": 2.0,
      "SlopeUVScale": 12.0,
      "WallUVScale": 10.0
    }
  }
}