{
  "version": 7,
  "rootNode": {
    "AmiiboDistanceOverride": {
      "NpcAmiiboMantaro": 3.0,
      "NpcAmiiboSalmonBuddy": 1.2
    },
    "AmiiboInvalidMessageLabel": "Msg_FestIdle",
    "AmiiboInvalidMessageMstxt": "CommonMsg/Plaza/PlazaAmiibo",
    "AmiiboInvalidMessageSec": 4.0,
    "CaptureStartFrame": 0,
    "MikoshiActorNames": ["Lft_MikoshiHead","Lft_MikoshiBody","Lft_MikoshiTail"],
    "MikoshiLocalCameraPos": {
      "X": 0.0,
      "Y": 2.0,
      "Z": 10.0
    },
    "MikoshiNpcBoneNames": ["Loc_Winner00","Loc_Winner01","Loc_Winner02","Loc_Winner03"],
    "MikoshiNpcNameOffsetY": 2.0,
    "MikoshiStageAtPosL": {
      "X": 4.0,
      "Y": 7.0,
      "Z": 0.0
    },
    "MikoshiStageLocalCameraPos": {
      "X": 14.0,
      "Y": 4.0,
      "Z": 0.0
    },
    "PlayerAlphaByDistance": {
      "Data": [0.0,0.0,0.0,0.0,0.0,0.0,0.0,0.0,1.0],
      "MaxX": 1.0,
      "Type": "Linear"
    },
    "PoseData": [
      {
        "IsEmote": false,
        "IsWeaponVisible": true,
        "WeaponASCommand": {
          "Blaster": "",
          "Brush": "",
          "Charger": "",
          "Invalid": "",
          "Maneuver": "",
          "Roller": "CloseOff",
          "Saber": "",
          "Shelter": "CloseImm",
          "Shooter": "",
          "Slosher": "",
          "Spinner": "",
          "Stringer": "Default"
        },
        "WeaponPoseName": {
          "Blaster": "WaitHold_Shtr",
          "Brush": "WaitHold_Rllr",
          "Charger": "WaitHold_Shtr",
          "Invalid": "Wait",
          "Maneuver": "WaitHold_Mnvr",
          "Roller": "WaitHold_Rllr",
          "Saber": "WaitHold_Sber",
          "Shelter": "WaitHold_Shlt",
          "Shooter": "WaitHold_Shtr",
          "Slosher": "WaitHold_Slsh",
          "Spinner": "WaitHold_Spnr",
          "Stringer": "WaitHold_Strn"
        }
      },
      {
        "IsWeaponVisible": false,
        "WeaponPoseName": {
          "Blaster": "",
          "Brush": "",
          "Charger": "",
          "Invalid": "amiiboPose_Standing_IkaPose",
          "Maneuver": "",
          "Roller": "",
          "Saber": "",
          "Shelter": "",
          "Shooter": "",
          "Slosher": "",
          "Spinner": "",
          "Stringer": ""
        }
      },
      {
        "EmoteName": "Crouching00",
        "IsEmote": true,
        "IsWeaponVisible": true,
        "WeaponASCommand": {
          "Blaster": "",
          "Brush": "",
          "Charger": "",
          "Invalid": "",
          "Maneuver": "",
          "Roller": "",
          "Saber": "",
          "Shelter": "",
          "Shooter": "",
          "Slosher": "",
          "Spinner": "",
          "Stringer": ""
        },
        "WeaponPoseName": {
          "Blaster": "",
          "Brush": "",
          "Charger": "",
          "Invalid": "Crouching00",
          "Maneuver": "",
          "Roller": "",
          "Saber": "",
          "Shelter": "",
          "Shooter": "",
          "Slosher": "",
          "Spinner": "",
          "Stringer": ""
        }
      },
      {
        "EmoteName": "FeelingWarm00",
        "IsEmote": true,
        "WeaponASCommand": {
          "Blaster": "",
          "Brush": "",
          "Charger": "",
          "Invalid": "",
          "Maneuver": "",
          "Roller": "",
          "Saber": "",
          "Shelter": "",
          "Shooter": "",
          "Slosher": "",
          "Spinner": "",
          "Stringer": "Emote_Win_Strn03"
        },
        "WeaponPoseName": {
          "Blaster": "",
          "Brush": "",
          "Charger": "",
          "Invalid": "",
          "Maneuver": "",
          "Roller": "",
          "Saber": "",
          "Shelter": "",
          "Shooter": "",
          "Slosher": "",
          "Spinner": "",
          "Stringer": "Win_Strn03"
        }
      },
      {
        "EmoteName": "Win13",
        "IsEmote": true,
        "WeaponPoseName": {
          "Blaster": "",
          "Brush": "",
          "Charger": "",
          "Invalid": "",
          "Maneuver": "",
          "Roller": "",
          "Saber": "",
          "Shelter": "",
          "Shooter": "",
          "Slosher": "",
          "Spinner": "",
          "Stringer": ""
        }
      },
      {
        "EmoteName": "Win15",
        "IsEmote": true,
        "WeaponPoseName": {
          "Blaster": "",
          "Brush": "",
          "Charger": "",
          "Invalid": "",
          "Maneuver": "",
          "Roller": "",
          "Saber": "",
          "Shelter": "",
          "Shooter": "",
          "Slosher": "",
          "Spinner": "",
          "Stringer": ""
        }
      },
      {
        "EmoteName": "NwBtl00",
        "IsEmote": true,
        "WeaponPoseName": {
          "Blaster": "",
          "Brush": "",
          "Charger": "",
          "Invalid": "",
          "Maneuver": "",
          "Roller": "",
          "Saber": "",
          "Shelter": "",
          "Shooter": "",
          "Slosher": "",
          "Spinner": "",
          "Stringer": ""
        }
      },
      {
        "IsWeaponVisible": true,
        "WeaponASCommand": {
          "Blaster": "",
          "Brush": "",
          "Charger": "",
          "Invalid": "",
          "Maneuver": "",
          "Roller": "amiiboPose_TalkA",
          "Saber": "",
          "Shelter": "CloseImm",
          "Shooter": "",
          "Slosher": "",
          "Spinner": "",
          "Stringer": "Default"
        },
        "WeaponPoseName": {
          "Blaster": "amiiboPose_Standing_TalkA_Blst",
          "Brush": "amiiboPose_Standing_TalkA_Brsh",
          "Charger": "amiiboPose_Standing_TalkA_Chrg",
          "Invalid": "amiiboPose_Standing_TalkA",
          "Maneuver": "amiiboPose_Standing_TalkA_Mnvr",
          "Roller": "amiiboPose_Standing_TalkA_Rllr",
          "Saber": "amiiboPose_Standing_TalkA_Sber",
          "Shelter": "amiiboPose_Standing_TalkA_Shlt",
          "Shooter": "amiiboPose_Standing_TalkA_Shtr",
          "Slosher": "amiiboPose_Standing_TalkA_Slsh",
          "Spinner": "amiiboPose_Standing_TalkA_Spnr",
          "Stringer": "amiiboPose_Standing_TalkA_Strn"
        }
      },
      {
        "IsWeaponVisible": true,
        "WeaponASCommand": {
          "Blaster": "",
          "Brush": "",
          "Charger": "",
          "Invalid": "",
          "Maneuver": "",
          "Roller": "CloseOff",
          "Saber": "",
          "Shelter": "CloseImm",
          "Shooter": "",
          "Slosher": "",
          "Spinner": "",
          "Stringer": "Default"
        },
        "WeaponPoseName": {
          "Blaster": "amiiboPose_Sitting_TalkA_Blst",
          "Brush": "amiiboPose_Sitting_TalkA_Brsh",
          "Charger": "amiiboPose_Sitting_TalkA_Chrg",
          "Invalid": "amiiboPose_Sitting_TalkA",
          "Maneuver": "amiiboPose_Sitting_TalkA_Mnvr",
          "Roller": "amiiboPose_Sitting_TalkA_Rllr",
          "Saber": "amiiboPose_Sitting_TalkA_Sber",
          "Shelter": "amiiboPose_Sitting_TalkA_Shlt",
          "Shooter": "amiiboPose_Sitting_TalkA_Shtr",
          "Slosher": "amiiboPose_Sitting_TalkA_Slsh",
          "Spinner": "amiiboPose_Sitting_TalkA_Spnr",
          "Stringer": "amiiboPose_Sitting_TalkA_Strn"
        }
      },
      {
        "IsEmote": false,
        "IsWeaponVisible": true,
        "WeaponASCommand": {
          "Blaster": "",
          "Brush": "",
          "Charger": "",
          "Invalid": "",
          "Maneuver": "",
          "Roller": "OpenFully",
          "Saber": "",
          "Shelter": "CloseImm",
          "Shooter": "",
          "Slosher": "",
          "Spinner": "",
          "Stringer": "amiiboPose_Win_Strn03"
        },
        "WeaponPoseName": {
          "Blaster": "amiiboPose_Win_Blst03",
          "Brush": "amiiboPose_Win_Brsh03",
          "Charger": "amiiboPose_Win_Chrg03",
          "Invalid": "amiiboPose_WaveHands",
          "Maneuver": "amiiboPose_Win_Mnvr03",
          "Roller": "amiiboPose_Win_Rllr03",
          "Saber": "amiiboPose_Win_Sber03",
          "Shelter": "amiiboPose_Win_Shlt03",
          "Shooter": "amiiboPose_Win_Shtr03",
          "Slosher": "amiiboPose_Win_Slsh03",
          "Spinner": "amiiboPose_Win_Spnr03",
          "Stringer": "amiiboPose_Win_Strn03"
        }
      },
      {
        "IsWeaponVisible": true,
        "WeaponASCommand": {
          "Blaster": "",
          "Brush": "",
          "Charger": "",
          "Invalid": "",
          "Maneuver": "",
          "Roller": "amiiboPose_Vss",
          "Saber": "",
          "Shelter": "OpenFully",
          "Shooter": "",
          "Slosher": "",
          "Spinner": "",
          "Stringer": "amiiboPose_Standing"
        },
        "WeaponPoseName": {
          "Blaster": "amiiboPose_Standing_Vss_Blst",
          "Brush": "amiiboPose_Standing_Vss_Brsh",
          "Charger": "amiiboPose_Standing_Vss_Chrg",
          "Invalid": "amiiboPose_Standing_Vss",
          "Maneuver": "amiiboPose_Standing_Vss_Mnvr",
          "Roller": "amiiboPose_Standing_Vss_Rllr",
          "Saber": "amiiboPose_Standing_Vss_Sber",
          "Shelter": "amiiboPose_Standing_Vss_Shlt",
          "Shooter": "amiiboPose_Standing_Vss_Shtr",
          "Slosher": "amiiboPose_Standing_Vss_Slsh",
          "Spinner": "amiiboPose_Standing_Vss_Spnr",
          "Stringer": "amiiboPose_Standing_Vss_Strn"
        }
      },
      {
        "IsWeaponVisible": true,
        "WeaponASCommand": {
          "Blaster": "",
          "Brush": "",
          "Charger": "",
          "Invalid": "",
          "Maneuver": "",
          "Roller": "OpenFully",
          "Saber": "",
          "Shelter": "OpenFully",
          "Shooter": "",
          "Slosher": "",
          "Spinner": "",
          "Stringer": "amiiboPose_Sitting"
        },
        "WeaponPoseName": {
          "Blaster": "amiiboPose_Sitting_Vss_Blst",
          "Brush": "amiiboPose_Sitting_Vss_Brsh",
          "Charger": "amiiboPose_Sitting_Vss_Chrg",
          "Invalid": "amiiboPose_Sitting_Vss",
          "Maneuver": "amiiboPose_Sitting_Vss_Mnvr",
          "Roller": "amiiboPose_Sitting_Vss_Rllr",
          "Saber": "amiiboPose_Sitting_Vss_Sber",
          "Shelter": "amiiboPose_Sitting_Vss_Shlt",
          "Shooter": "amiiboPose_Sitting_Vss_Shtr",
          "Slosher": "amiiboPose_Sitting_Vss_Slsh",
          "Spinner": "amiiboPose_Sitting_Vss_Spnr",
          "Stringer": "amiiboPose_Sitting_Vss_Strn"
        }
      }
    ],
    "VSLowCeiinglSphereCastRadius": 0.3,
    "VSLowCeilingCheckLenY": 0.8,
    "WeaponASCommandOnLeave": {
      "Blaster": "",
      "Brush": "",
      "Charger": "",
      "Invalid": "",
      "Maneuver": "",
      "Roller": "Close",
      "Saber": "",
      "Shelter": "Close",
      "Shooter": "",
      "Slosher": "",
      "Spinner": "",
      "Stringer": "Default"
    }
  }
}