{
  "version": 7,
  "rootNode": {
    "Rewards": [
      {
        "Description": "journey1_cardsleeve",
        "Id": 0,
        "Reward": {
          "MiniGameSleeve": "Work/Gyml/MiniGameCardSleeve_FoodShop.spl__MiniGameCardSleeve.gyml",
          "Type": "MiniGameSleeve"
        },
        "Type": 1
      },
      {
        "Description": "journey1_byname",
        "Id": 1,
        "Reward": {
          "Byname_Adjective": "Work/Gyml/Byname/3300.spl__BynameAdjectiveInfo.gyml",
          "Byname_Subject": "Work/Gyml/Byname/3300.spl__BynameSubjectInfo.gyml",
          "Type": "Byname"
        },
        "Type": 1
      },
      {
        "Description": "journey2_byname",
        "Id": 2,
        "Reward": {
          "Byname_Adjective": "Work/Gyml/Byname/3301.spl__BynameAdjectiveInfo.gyml",
          "Byname_Subject": "Work/Gyml/Byname/3301.spl__BynameSubjectInfo.gyml",
          "Type": "Byname"
        },
        "Type": 1
      },
      {
        "Description": "journey3_byname",
        "Id": 3,
        "Reward": {
          "Byname_Adjective": "Work/Gyml/Byname/3302.spl__BynameAdjectiveInfo.gyml",
          "Byname_Subject": "Work/Gyml/Byname/3302.spl__BynameSubjectInfo.gyml",
          "Type": "Byname"
        },
        "Type": 1
      },
      {
        "Description": "journey1_gear",
        "Id": 4,
        "Reward": {
          "GearInfo": "Work/Gyml/Hed_TRG000.spl__GearInfo.gyml",
          "Type": "Gear_Head"
        },
        "Type": 1
      },
      {
        "Description": "journey2_gear",
        "Id": 5,
        "Reward": {
          "GearInfo": "Work/Gyml/Shs_TRG000.spl__GearInfo.gyml",
          "Type": "Gear_Shoes"
        },
        "Type": 1
      },
      {
        "Description": "journey3_gear",
        "Id": 6,
        "Reward": {
          "GearInfo": "Work/Gyml/Clt_TRG000.spl__GearInfo.gyml",
          "Type": "Gear_Clothes"
        },
        "Type": 1
      },
      {
        "Description": "checkin",
        "Id": 7,
        "Reward": {
          "NamePlateBgInfo": "Work/Gyml/NamePlateBgInfo/Npl_Trg_Season01_Lv01.spl__NamePlateBgInfo.gyml",
          "Type": "NamePlateBg"
        },
        "Type": 2
      },
      {
        "Description": "checkin",
        "Id": 8,
        "Reward": {
          "NamePlateBgInfo": "Work/Gyml/NamePlateBgInfo/Npl_Trg_Season01_Lv02.spl__NamePlateBgInfo.gyml",
          "Type": "NamePlateBg"
        },
        "Type": 2
      },
      {
        "Description": "checkin",
        "Id": 9,
        "Reward": {
          "BoostType": "MoneyParty",
          "Num": 1,
          "Type": "FoodTicket"
        },
        "Type": 2
      },
      {
        "Description": "checkin",
        "Id": 10,
        "Reward": {
          "NamePlateBgInfo": "Work/Gyml/NamePlateBgInfo/Npl_Trg_Season03_Lv01.spl__NamePlateBgInfo.gyml",
          "Type": "NamePlateBg"
        },
        "Type": 2
      },
      {
        "Description": "checkin",
        "Id": 11,
        "Reward": {
          "NamePlateBgInfo": "Work/Gyml/NamePlateBgInfo/Npl_Trg_Season03_Lv02.spl__NamePlateBgInfo.gyml",
          "Type": "NamePlateBg"
        },
        "Type": 2
      },
      {
        "Description": "checkin",
        "Id": 12,
        "Reward": {
          "BoostType": "MoneyParty",
          "Type": "FoodTicket"
        },
        "Type": 2
      },
      {
        "Description": "checkin",
        "Id": 13,
        "Reward": {
          "Num": 1,
          "Type": "RandomByname"
        },
        "Type": 2
      },
      {
        "Description": "checkin",
        "Id": 14,
        "Reward": {
          "NamePlateBgInfo": "Work/Gyml/NamePlateBgInfo/Npl_Trg_Season05_Lv01.spl__NamePlateBgInfo.gyml",
          "Type": "NamePlateBg"
        },
        "Type": 2
      },
      {
        "Description": "checkin",
        "Id": 15,
        "Reward": {
          "NamePlateBgInfo": "Work/Gyml/NamePlateBgInfo/Npl_Trg_Season05_Lv02.spl__NamePlateBgInfo.gyml",
          "Type": "NamePlateBg"
        },
        "Type": 2
      },
      {
        "Description": "checkin",
        "Id": 16,
        "Reward": {
          "NamePlateBgInfo": "Work/Gyml/NamePlateBgInfo/Npl_Trg_Season05_Lv03.spl__NamePlateBgInfo.gyml",
          "Type": "NamePlateBg"
        },
        "Type": 2
      },
      {
        "Description": "checkin",
        "Id": 17,
        "Reward": {
          "NamePlateBgInfo": "Work/Gyml/NamePlateBgInfo/Npl_Trg_Season05_Lv04.spl__NamePlateBgInfo.gyml",
          "Type": "NamePlateBg"
        },
        "Type": 2
      },
      {
        "Description": "checkin",
        "Id": 18,
        "Reward": {
          "NamePlateBgInfo": "Work/Gyml/NamePlateBgInfo/Npl_Trg_Season06_Lv01.spl__NamePlateBgInfo.gyml",
          "Type": "NamePlateBg"
        },
        "Type": 2
      },
      {
        "Description": "journey4_gear",
        "Id": 19,
        "Reward": {
          "GearInfo": "Work/Gyml/Clt_TRG001.spl__GearInfo.gyml",
          "Type": "Gear_Clothes"
        },
        "Type": 1
      },
      {
        "Description": "journey4_byname",
        "Id": 20,
        "Reward": {
          "Byname_Adjective": "Work/Gyml/Byname/3303.spl__BynameAdjectiveInfo.gyml",
          "Byname_Subject": "Work/Gyml/Byname/3303.spl__BynameSubjectInfo.gyml",
          "Type": "Byname"
        },
        "Type": 1
      },
      {
        "Description": "checkin",
        "Id": 21,
        "Reward": {
          "NamePlateBgInfo": "Work/Gyml/NamePlateBgInfo/Npl_Trg_Season07_Lv01.spl__NamePlateBgInfo.gyml",
          "Type": "NamePlateBg"
        },
        "Type": 2
      },
      {
        "Description": "journey5_gear",
        "Id": 22,
        "Reward": {
          "GearInfo": "Work/Gyml/Shs_TRG001.spl__GearInfo.gyml",
          "Type": "Gear_Shoes"
        },
        "Type": 1
      },
      {
        "Description": "journey5_byname",
        "Id": 23,
        "Reward": {
          "Byname_Adjective": "Work/Gyml/Byname/3304.spl__BynameAdjectiveInfo.gyml",
          "Byname_Subject": "Work/Gyml/Byname/3304.spl__BynameSubjectInfo.gyml",
          "Type": "Byname"
        },
        "Type": 1
      },
      {
        "Description": "Tournament_Manger_first_play_in_each_season",
        "Id": 24,
        "Reward": {
          "BoostType": "MoneyParty",
          "Type": "FoodTicket"
        },
        "Type": 3
      },
      {
        "Description": "Tournament_Manger_first_play_in_each_season",
        "Id": 25,
        "Reward": {
          "BoostType": "MoneyParty",
          "Type": "FoodTicket"
        },
        "Type": 3
      },
      {
        "Description": "Tournament_Manger_first_play_in_each_season",
        "Id": 26,
        "Reward": {
          "BoostType": "MoneyParty",
          "Type": "FoodTicket"
        },
        "Type": 3
      },
      {
        "Description": "Tournament_Manger_first_play_in_each_season",
        "Id": 27,
        "Reward": {
          "BoostType": "MoneyParty",
          "Type": "FoodTicket"
        },
        "Type": 3
      },
      {
        "Description": "Tournament_Manger_first_play_in_each_season",
        "Id": 28,
        "Reward": {
          "BoostType": "MoneyParty",
          "Type": "FoodTicket"
        },
        "Type": 3
      },
      {
        "Description": "Tournament_Manger_first_play_in_each_season",
        "Id": 29,
        "Reward": {
          "BoostType": "MoneyParty",
          "Type": "FoodTicket"
        },
        "Type": 3
      },
      {
        "Description": "Tournament_Manger_first_play_in_each_season",
        "Id": 30,
        "Reward": {
          "BoostType": "MoneyParty",
          "Type": "FoodTicket"
        },
        "Type": 3
      },
      {
        "Description": "Tournament_Manger_first_play_in_each_season",
        "Id": 31,
        "Reward": {
          "BoostType": "MoneyParty",
          "Type": "FoodTicket"
        },
        "Type": 3
      },
      {
        "Description": "Tournament_Manger_first_play_in_each_season",
        "Id": 32,
        "Reward": {
          "BoostType": "MoneyParty",
          "Type": "FoodTicket"
        },
        "Type": 3
      },
      {
        "Description": "Tournament_Manger_first_play_in_each_season",
        "Id": 33,
        "Reward": {
          "BoostType": "MoneyParty",
          "Type": "FoodTicket"
        },
        "Type": 3
      },
      {
        "Description": "Tournament_Manger_first_play_in_each_season",
        "Id": 34,
        "Reward": {
          "BoostType": "MoneyParty",
          "Type": "FoodTicket"
        },
        "Type": 3
      },
      {
        "Description": "Tournament_Manger_first_play_in_each_season",
        "Id": 35,
        "Reward": {
          "BoostType": "MoneyParty",
          "Type": "FoodTicket"
        },
        "Type": 3
      },
      {
        "Description": "Tournament_Manger_first_play_in_each_season",
        "Id": 36,
        "Reward": {
          "BoostType": "MoneyParty",
          "Type": "FoodTicket"
        },
        "Type": 3
      },
      {
        "Description": "Tournament_Manger_first_play_in_each_season",
        "Id": 37,
        "Reward": {
          "BoostType": "MoneyParty",
          "Type": "FoodTicket"
        },
        "Type": 3
      },
      {
        "Description": "Tournament_Manger_first_play_in_each_season",
        "Id": 38,
        "Reward": {
          "BoostType": "MoneyParty",
          "Type": "FoodTicket"
        },
        "Type": 3
      },
      {
        "Description": "Tournament_Manger_first_play_in_each_season",
        "Id": 39,
        "Reward": {
          "BoostType": "MoneyParty",
          "Type": "FoodTicket"
        },
        "Type": 3
      },
      {
        "Description": "Tournament_Manger_first_play_in_each_season",
        "Id": 40,
        "Reward": {
          "BoostType": "MoneyParty",
          "Type": "FoodTicket"
        },
        "Type": 3
      },
      {
        "Description": "Tournament_Manger_first_play_in_each_season",
        "Id": 41,
        "Reward": {
          "BoostType": "MoneyParty",
          "Type": "FoodTicket"
        },
        "Type": 3
      },
      {
        "Description": "Tournament_Manger_first_play_in_each_season",
        "Id": 42,
        "Reward": {
          "BoostType": "MoneyParty",
          "Type": "FoodTicket"
        },
        "Type": 3
      },
      {
        "Description": "Tournament_Manger_first_play_in_each_season",
        "Id": 43,
        "Reward": {
          "BoostType": "MoneyParty",
          "Type": "FoodTicket"
        },
        "Type": 3
      },
      {
        "Description": "Tournament_Manger_first_play_in_each_season",
        "Id": 44,
        "Reward": {
          "BoostType": "MoneyParty",
          "Type": "FoodTicket"
        },
        "Type": 3
      },
      {
        "Description": "Tournament_Manger_first_play_in_each_season",
        "Id": 45,
        "Reward": {
          "BoostType": "MoneyParty",
          "Type": "FoodTicket"
        },
        "Type": 3
      },
      {
        "Description": "Tournament_Manger_first_play_in_each_season",
        "Id": 46,
        "Reward": {
          "BoostType": "MoneyParty",
          "Type": "FoodTicket"
        },
        "Type": 3
      },
      {
        "Description": "Tournament_Manger_first_play_in_each_season",
        "Id": 47,
        "Reward": {
          "BoostType": "MoneyParty",
          "Type": "FoodTicket"
        },
        "Type": 3
      },
      {
        "Description": "Tournament_Manger_first_play_in_each_season",
        "Id": 48,
        "Reward": {
          "BoostType": "MoneyParty",
          "Type": "FoodTicket"
        },
        "Type": 3
      },
      {
        "Description": "Tournament_Manger_first_play_in_each_season",
        "Id": 49,
        "Reward": {
          "BoostType": "MoneyParty",
          "Type": "FoodTicket"
        },
        "Type": 3
      },
      {
        "Description": "Tournament_Manger_first_play_in_each_season",
        "Id": 50,
        "Reward": {
          "BoostType": "MoneyParty",
          "Type": "FoodTicket"
        },
        "Type": 3
      },
      {
        "Description": "Tournament_Manger_first_play_in_each_season",
        "Id": 51,
        "Reward": {
          "BoostType": "MoneyParty",
          "Type": "FoodTicket"
        },
        "Type": 3
      },
      {
        "Description": "Tournament_Manger_first_play_in_each_season",
        "Id": 52,
        "Reward": {
          "BoostType": "MoneyParty",
          "Type": "FoodTicket"
        },
        "Type": 3
      },
      {
        "Description": "Tournament_Manger_first_play_in_each_season",
        "Id": 53,
        "Reward": {
          "BoostType": "MoneyParty",
          "Type": "FoodTicket"
        },
        "Type": 3
      },
      {
        "Description": "Tournament_Manger_first_play_in_each_season",
        "Id": 54,
        "Reward": {
          "BoostType": "MoneyParty",
          "Type": "FoodTicket"
        },
        "Type": 3
      },
      {
        "Description": "Tournament_Manger_first_play_in_each_season",
        "Id": 55,
        "Reward": {
          "BoostType": "MoneyParty",
          "Type": "FoodTicket"
        },
        "Type": 3
      },
      {
        "Description": "Tournament_Manger_first_play_in_each_season",
        "Id": 56,
        "Reward": {
          "BoostType": "MoneyParty",
          "Type": "FoodTicket"
        },
        "Type": 3
      },
      {
        "Description": "Tournament_Manger_first_play_in_each_season",
        "Id": 57,
        "Reward": {
          "BoostType": "MoneyParty",
          "Type": "FoodTicket"
        },
        "Type": 3
      },
      {
        "Description": "Tournament_Manger_first_play_in_each_season",
        "Id": 58,
        "Reward": {
          "BoostType": "MoneyParty",
          "Type": "FoodTicket"
        },
        "Type": 3
      },
      {
        "Description": "Tournament_Manger_first_play_in_each_season",
        "Id": 59,
        "Reward": {
          "BoostType": "MoneyParty",
          "Type": "FoodTicket"
        },
        "Type": 3
      },
      {
        "Description": "Tournament_Manger_first_play_in_each_season",
        "Id": 60,
        "Reward": {
          "BoostType": "MoneyParty",
          "Type": "FoodTicket"
        },
        "Type": 3
      },
      {
        "Description": "Tournament_Manger_first_play_in_each_season",
        "Id": 61,
        "Reward": {
          "BoostType": "MoneyParty",
          "Type": "FoodTicket"
        },
        "Type": 3
      },
      {
        "Id": 62,
        "Reward": {
          "BoostType": "MoneyParty",
          "Type": "FoodTicket"
        },
        "Type": 3
      },
      {
        "Description": "Tournament_Manger_first_play_in_each_season",
        "Id": 63,
        "Reward": {
          "BoostType": "MoneyParty",
          "Type": "FoodTicket"
        },
        "Type": 3
      },
      {
        "Description": "Tournament_Manger_first_play_in_each_season",
        "Id": 64,
        "Reward": {
          "BoostType": "MoneyParty",
          "Type": "FoodTicket"
        },
        "Type": 3
      },
      {
        "Description": "Tournament_Manger_first_play_in_each_season",
        "Id": 65,
        "Reward": {
          "BoostType": "MoneyParty",
          "Type": "FoodTicket"
        },
        "Type": 3
      },
      {
        "Description": "journey6_gear",
        "Id": 66,
        "Reward": {
          "GearInfo": "Work/Gyml/Hed_TRG001.spl__GearInfo.gyml",
          "Type": "Gear_Head"
        },
        "Type": 1
      },
      {
        "Description": "journey6_byname",
        "Id": 67,
        "Reward": {
          "Byname_Adjective": "Work/Gyml/Byname/3305.spl__BynameAdjectiveInfo.gyml",
          "Byname_Subject": "Work/Gyml/Byname/3305.spl__BynameSubjectInfo.gyml",
          "Type": "Byname"
        },
        "Type": 1
      },
      {
        "Description": "checkin",
        "Id": 68,
        "Reward": {
          "Byname_Adjective": "Work/Gyml/Byname/0015.spl__BynameAdjectiveInfo.gyml",
          "Byname_Subject": "Work/Gyml/Byname/0320.spl__BynameSubjectInfo.gyml",
          "Type": "Byname"
        },
        "Type": 2
      },
      {
        "Description": "checkin",
        "Id": 69,
        "Reward": {
          "NamePlateBgInfo": "Work/Gyml/NamePlateBgInfo/Npl_Trg_Season08_Lv01.spl__NamePlateBgInfo.gyml",
          "Type": "NamePlateBg"
        },
        "Type": 2
      }
    ]
  }
}