{
  "version": 7,
  "rootNode": {
    "BigWorldBossStageName": {
      "A": "Msn_SharkKing",
      "B": "Msn_MorayKing",
      "C": "Msn_MantaKing"
    },
    "ExStageName": "Msn_ExStage",
    "Rows": [
      {
        "SceneName": "Work/Scene/Msn_C_01.engine__scene__SceneParam.gyml",
        "StageName": "Msn_C_01",
        "WorldAreaType": "SmallWorld"
      },
      {
        "SceneName": "Work/Scene/Msn_C_02.engine__scene__SceneParam.gyml",
        "StageName": "Msn_C_02"
      },
      {
        "SceneName": "Work/Scene/Msn_C_03.engine__scene__SceneParam.gyml",
        "StageName": "Msn_C_03"
      },
      {
        "SceneName": "Work/Scene/Msn_C_04.engine__scene__SceneParam.gyml",
        "StageName": "Msn_C_04"
      },
      {
        "SceneName": "Work/Scene/Msn_A01_01.engine__scene__SceneParam.gyml",
        "StageName": "Msn_A01_01",
        "WorldAreaType": "BigWorld1"
      },
      {
        "SceneName": "Work/Scene/Msn_A01_02.engine__scene__SceneParam.gyml",
        "StageName": "Msn_A01_02",
        "WorldAreaType": "BigWorld1"
      },
      {
        "SceneName": "Work/Scene/Msn_A01_03.engine__scene__SceneParam.gyml",
        "StageName": "Msn_A01_03",
        "WorldAreaType": "BigWorld1"
      },
      {
        "SceneName": "Work/Scene/Msn_A01_04.engine__scene__SceneParam.gyml",
        "StageName": "Msn_A01_04",
        "WorldAreaType": "BigWorld1"
      },
      {
        "SceneName": "Work/Scene/Msn_A01_01C.engine__scene__SceneParam.gyml",
        "StageName": "Msn_A01_01C",
        "WorldAreaType": "BigWorld1"
      },
      {
        "SceneName": "Work/Scene/Msn_A01_02C.engine__scene__SceneParam.gyml",
        "StageName": "Msn_A01_02C",
        "WorldAreaType": "BigWorld1"
      },
      {
        "SceneName": "Work/Scene/Msn_A01_03C.engine__scene__SceneParam.gyml",
        "StageName": "Msn_A01_03C",
        "WorldAreaType": "BigWorld1"
      },
      {
        "SceneName": "Work/Scene/Msn_A01_04C.engine__scene__SceneParam.gyml",
        "StageName": "Msn_A01_04C",
        "WorldAreaType": "BigWorld1"
      },
      {
        "SceneName": "Work/Scene/Msn_A01_05C.engine__scene__SceneParam.gyml",
        "StageName": "Msn_A01_05C",
        "WorldAreaType": "BigWorld1"
      },
      {
        "SceneName": "Work/Scene/Msn_A01_06C.engine__scene__SceneParam.gyml",
        "StageName": "Msn_A01_06C",
        "WorldAreaType": "BigWorld1"
      },
      {
        "SceneName": "Work/Scene/Msn_A02_01.engine__scene__SceneParam.gyml",
        "StageName": "Msn_A02_01",
        "WorldAreaType": "BigWorld2"
      },
      {
        "SceneName": "Work/Scene/Msn_A02_02.engine__scene__SceneParam.gyml",
        "StageName": "Msn_A02_02",
        "WorldAreaType": "BigWorld2"
      },
      {
        "SceneName": "Work/Scene/Msn_A02_03.engine__scene__SceneParam.gyml",
        "StageName": "Msn_A02_03",
        "WorldAreaType": "BigWorld2"
      },
      {
        "SceneName": "Work/Scene/Msn_A02_01C.engine__scene__SceneParam.gyml",
        "StageName": "Msn_A02_01C",
        "WorldAreaType": "BigWorld2"
      },
      {
        "SceneName": "Work/Scene/Msn_A02_02C.engine__scene__SceneParam.gyml",
        "StageName": "Msn_A02_02C",
        "WorldAreaType": "BigWorld2"
      },
      {
        "SceneName": "Work/Scene/Msn_A02_03C.engine__scene__SceneParam.gyml",
        "StageName": "Msn_A02_03C",
        "WorldAreaType": "BigWorld2"
      },
      {
        "SceneName": "Work/Scene/Msn_A02_04C.engine__scene__SceneParam.gyml",
        "StageName": "Msn_A02_04C",
        "WorldAreaType": "BigWorld2"
      },
      {
        "SceneName": "Work/Scene/Msn_A02_05C.engine__scene__SceneParam.gyml",
        "StageName": "Msn_A02_05C",
        "WorldAreaType": "BigWorld2"
      },
      {
        "SceneName": "Work/Scene/Msn_A03_01.engine__scene__SceneParam.gyml",
        "StageName": "Msn_A03_01",
        "WorldAreaType": "BigWorld3"
      },
      {
        "SceneName": "Work/Scene/Msn_A03_02.engine__scene__SceneParam.gyml",
        "StageName": "Msn_A03_02",
        "WorldAreaType": "BigWorld3"
      },
      {
        "SceneName": "Work/Scene/Msn_A03_03.engine__scene__SceneParam.gyml",
        "StageName": "Msn_A03_03",
        "WorldAreaType": "BigWorld3"
      },
      {
        "SceneName": "Work/Scene/Msn_A03_01C.engine__scene__SceneParam.gyml",
        "StageName": "Msn_A03_01C",
        "WorldAreaType": "BigWorld3"
      },
      {
        "SceneName": "Work/Scene/Msn_A03_02C.engine__scene__SceneParam.gyml",
        "StageName": "Msn_A03_02C",
        "WorldAreaType": "BigWorld3"
      },
      {
        "SceneName": "Work/Scene/Msn_A03_03C.engine__scene__SceneParam.gyml",
        "StageName": "Msn_A03_03C",
        "WorldAreaType": "BigWorld3"
      },
      {
        "SceneName": "Work/Scene/Msn_A03_04C.engine__scene__SceneParam.gyml",
        "StageName": "Msn_A03_04C",
        "WorldAreaType": "BigWorld3"
      },
      {
        "SceneName": "Work/Scene/Msn_A04_01.engine__scene__SceneParam.gyml",
        "StageName": "Msn_A04_01",
        "WorldAreaType": "BigWorld4"
      },
      {
        "SceneName": "Work/Scene/Msn_A04_02.engine__scene__SceneParam.gyml",
        "StageName": "Msn_A04_02",
        "WorldAreaType": "BigWorld4"
      },
      {
        "SceneName": "Work/Scene/Msn_A04_03.engine__scene__SceneParam.gyml",
        "StageName": "Msn_A04_03",
        "WorldAreaType": "BigWorld4"
      },
      {
        "SceneName": "Work/Scene/Msn_A04_01C.engine__scene__SceneParam.gyml",
        "StageName": "Msn_A04_01C",
        "WorldAreaType": "BigWorld4"
      },
      {
        "SceneName": "Work/Scene/Msn_A04_02C.engine__scene__SceneParam.gyml",
        "StageName": "Msn_A04_02C",
        "WorldAreaType": "BigWorld4"
      },
      {
        "SceneName": "Work/Scene/Msn_A04_03C.engine__scene__SceneParam.gyml",
        "StageName": "Msn_A04_03C",
        "WorldAreaType": "BigWorld4"
      },
      {
        "SceneName": "Work/Scene/Msn_A04_04C.engine__scene__SceneParam.gyml",
        "StageName": "Msn_A04_04C",
        "WorldAreaType": "BigWorld4"
      },
      {
        "SceneName": "Work/Scene/Msn_A04_05C.engine__scene__SceneParam.gyml",
        "StageName": "Msn_A04_05C",
        "WorldAreaType": "BigWorld4"
      },
      {
        "SceneName": "Work/Scene/Msn_A04_06C.engine__scene__SceneParam.gyml",
        "StageName": "Msn_A04_06C",
        "WorldAreaType": "BigWorld4"
      },
      {
        "SceneName": "Work/Scene/Msn_A04_07C.engine__scene__SceneParam.gyml",
        "StageName": "Msn_A04_07C",
        "WorldAreaType": "BigWorld4"
      },
      {
        "SceneName": "Work/Scene/Msn_A04_08C.engine__scene__SceneParam.gyml",
        "StageName": "Msn_A04_08C",
        "WorldAreaType": "BigWorld4"
      },
      {
        "SceneName": "Work/Scene/Msn_A04_09C.engine__scene__SceneParam.gyml",
        "StageName": "Msn_A04_09C",
        "WorldAreaType": "BigWorld4"
      },
      {
        "SceneName": "Work/Scene/Msn_A05_01.engine__scene__SceneParam.gyml",
        "StageName": "Msn_A05_01",
        "WorldAreaType": "BigWorld5"
      },
      {
        "SceneName": "Work/Scene/Msn_A05_02.engine__scene__SceneParam.gyml",
        "StageName": "Msn_A05_02",
        "WorldAreaType": "BigWorld5"
      },
      {
        "SceneName": "Work/Scene/Msn_A05_03.engine__scene__SceneParam.gyml",
        "StageName": "Msn_A05_03",
        "WorldAreaType": "BigWorld5"
      },
      {
        "SceneName": "Work/Scene/Msn_A05_04.engine__scene__SceneParam.gyml",
        "StageName": "Msn_A05_04",
        "WorldAreaType": "BigWorld5"
      },
      {
        "SceneName": "Work/Scene/Msn_A05_01C.engine__scene__SceneParam.gyml",
        "StageName": "Msn_A05_01C",
        "WorldAreaType": "BigWorld5"
      },
      {
        "SceneName": "Work/Scene/Msn_A05_02C.engine__scene__SceneParam.gyml",
        "StageName": "Msn_A05_02C",
        "WorldAreaType": "BigWorld5"
      },
      {
        "SceneName": "Work/Scene/Msn_A05_03C.engine__scene__SceneParam.gyml",
        "StageName": "Msn_A05_03C",
        "WorldAreaType": "BigWorld5"
      },
      {
        "SceneName": "Work/Scene/Msn_A05_04C.engine__scene__SceneParam.gyml",
        "StageName": "Msn_A05_04C",
        "WorldAreaType": "BigWorld5"
      },
      {
        "SceneName": "Work/Scene/Msn_A05_05C.engine__scene__SceneParam.gyml",
        "StageName": "Msn_A05_05C",
        "WorldAreaType": "BigWorld5"
      },
      {
        "SceneName": "Work/Scene/Msn_A05_06C.engine__scene__SceneParam.gyml",
        "StageName": "Msn_A05_06C",
        "WorldAreaType": "BigWorld5"
      },
      {
        "SceneName": "Work/Scene/Msn_A05_07C.engine__scene__SceneParam.gyml",
        "StageName": "Msn_A05_07C",
        "WorldAreaType": "BigWorld5"
      },
      {
        "SceneName": "Work/Scene/Msn_A05_08C.engine__scene__SceneParam.gyml",
        "StageName": "Msn_A05_08C",
        "WorldAreaType": "BigWorld5"
      },
      {
        "SceneName": "Work/Scene/Msn_A05_09C.engine__scene__SceneParam.gyml",
        "StageName": "Msn_A05_09C",
        "WorldAreaType": "BigWorld5"
      },
      {
        "SceneName": "Work/Scene/Msn_A06_01.engine__scene__SceneParam.gyml",
        "StageName": "Msn_A06_01",
        "WorldAreaType": "BigWorld6"
      },
      {
        "SceneName": "Work/Scene/Msn_A06_02.engine__scene__SceneParam.gyml",
        "StageName": "Msn_A06_02",
        "WorldAreaType": "BigWorld6"
      },
      {
        "SceneName": "Work/Scene/Msn_A06_03.engine__scene__SceneParam.gyml",
        "StageName": "Msn_A06_03",
        "WorldAreaType": "BigWorld6"
      },
      {
        "SceneName": "Work/Scene/Msn_A06_01C.engine__scene__SceneParam.gyml",
        "StageName": "Msn_A06_01C",
        "WorldAreaType": "BigWorld6"
      },
      {
        "SceneName": "Work/Scene/Msn_A06_02C.engine__scene__SceneParam.gyml",
        "StageName": "Msn_A06_02C",
        "WorldAreaType": "BigWorld6"
      },
      {
        "SceneName": "Work/Scene/Msn_A06_03C.engine__scene__SceneParam.gyml",
        "StageName": "Msn_A06_03C",
        "WorldAreaType": "BigWorld6"
      },
      {
        "SceneName": "Work/Scene/Msn_A06_04C.engine__scene__SceneParam.gyml",
        "StageName": "Msn_A06_04C",
        "WorldAreaType": "BigWorld6"
      },
      {
        "SceneName": "Work/Scene/Msn_A06_05C.engine__scene__SceneParam.gyml",
        "StageName": "Msn_A06_05C",
        "WorldAreaType": "BigWorld6"
      },
      {
        "SceneName": "Work/Scene/Msn_A06_06C.engine__scene__SceneParam.gyml",
        "StageName": "Msn_A06_06C",
        "WorldAreaType": "BigWorld6"
      },
      {
        "SceneName": "Work/Scene/Msn_A06_07C.engine__scene__SceneParam.gyml",
        "StageName": "Msn_A06_07C",
        "WorldAreaType": "BigWorld6"
      },
      {
        "SceneName": "Work/Scene/Msn_A06_08C.engine__scene__SceneParam.gyml",
        "StageName": "Msn_A06_08C",
        "WorldAreaType": "BigWorld6"
      },
      {
        "SceneName": "Work/Scene/Msn_A06_09C.engine__scene__SceneParam.gyml",
        "StageName": "Msn_A06_09C",
        "WorldAreaType": "BigWorld6"
      },
      {
        "SceneName": "Work/Scene/Msn_R_01.engine__scene__SceneParam.gyml",
        "StageName": "Msn_R_01",
        "WorldAreaType": "LaunchPadWorld"
      },
      {
        "SceneName": "Work/Scene/Msn_R_02.engine__scene__SceneParam.gyml",
        "StageName": "Msn_R_02",
        "WorldAreaType": "LaunchPadWorld"
      },
      {
        "SceneName": "Work/Scene/Msn_R_03.engine__scene__SceneParam.gyml",
        "StageName": "Msn_R_03",
        "WorldAreaType": "LaunchPadWorld"
      },
      {
        "ExtraSceneName": ["Work/Scene/Msn_R_05.engine__scene__SceneParam.gyml"],
        "SceneName": "Work/Scene/Msn_R_04.engine__scene__SceneParam.gyml",
        "StageName": "Msn_R_04",
        "WorldAreaType": "LaunchPadWorld"
      },
      {
        "SceneName": "Work/Scene/Msn_MorayKing.engine__scene__SceneParam.gyml",
        "StageName": "Msn_MorayKing",
        "WorldAreaType": "BigWorld2"
      },
      {
        "SceneName": "Work/Scene/Msn_SharkKing.engine__scene__SceneParam.gyml",
        "StageName": "Msn_SharkKing",
        "WorldAreaType": "BigWorld4"
      },
      {
        "SceneName": "Work/Scene/Msn_MantaKing.engine__scene__SceneParam.gyml",
        "StageName": "Msn_MantaKing",
        "WorldAreaType": "BigWorld6"
      },
      {
        "ExtraSceneName": ["Work/Scene/Msn_EX02.engine__scene__SceneParam.gyml","Work/Scene/Msn_EX03.engine__scene__SceneParam.gyml","Work/Scene/Msn_EX04.engine__scene__SceneParam.gyml"],
        "SceneName": "Work/Scene/Msn_EX01.engine__scene__SceneParam.gyml",
        "StageName": "Msn_ExStage",
        "WorldAreaType": "BigWorldEx"
      }
    ]
  }
}