[
  {
    "label": "PartyMoney_Up",
    "text": "Mega Mountain a la Marigold"
  },
  {
    "label": "PartyExp_Up",
    "text": "Marigold'en Garden Greens"
  },
  {
    "label": "BattleMoney_Up_01",
    "text": "Crab Trap Sandwich"
  },
  {
    "label": "BattleMoney_Up_02",
    "text": "Commercial Crab Trap Sandwich"
  },
  {
    "label": "BattleExp_Up_01",
    "text": "The Pescatariat"
  },
  {
    "label": "BattleExp_Up_02",
    "text": "The Pescatariat Royale"
  },
  {
    "label": "MainInk_Save",
    "text": "Main Mega Pucker-Up"
  },
  {
    "label": "SubInk_Save",
    "text": "Sub Berry Blaster Blitz"
  },
  {
    "label": "InkRecovery_Up",
    "text": "Ink-Well Chiller"
  },
  {
    "label": "HumanMove_Up",
    "text": "Speedy Gazpacho"
  },
  {
    "label": "SquidMove_Up",
    "text": "Cherry Apple Fizz"
  },
  {
    "label": "SpecialIncrease_Up",
    "text": "Ma's Special Blend"
  },
  {
    "label": "RespawnSpecialGauge_Save",
    "text": "Salty Melon Special"
  },
  {
    "label": "SpecialTime_Up",
    "text": "Smoothie Especial"
  },
  {
    "label": "RespawnTime_Save",
    "text": "Matcha Reviver"
  },
  {
    "label": "JumpTime_Save",
    "text": "Citrus Hip-Hopper"
  },
  {
    "label": "BombDistance_Up",
    "text": "Super Sub Juicer"
  },
  {
    "label": "OpInkEffect_Reduction",
    "text": "Stompin' Grape"
  },
  {
    "label": "SubEffect_Reduction",
    "text": "Sub Lime"
  },
  {
    "label": "Action_Up",
    "text": "Actionberry Twist"
  }
]