[
  {
    "label": "Title",
    "text": "Which is the most important to you?"
  },
  {
    "label": "ShortName_Alpha",
    "text": "Past"
  },
  {
    "label": "LongName_Alpha",
    "text": "The past is most\nimportant!"
  },
  {
    "label": "ShortName_Bravo",
    "text": "Present"
  },
  {
    "label": "LongName_Bravo",
    "text": "The present is most\nimportant!"
  },
  {
    "label": "ShortName_Charlie",
    "text": "Future"
  },
  {
    "label": "LongName_Charlie",
    "text": "The future is most\nimportant!"
  }
]