[
  {
    "label": "122ecfba-09df-41ef-9e8c-c25e978bd914",
    "text": "음～ 잘 칠했는데? 수고 많았어～!"
  },
  {
    "label": "31a03527-7af8-4524-a77c-aaf005ba4750",
    "text": "수고했어～"
  },
  {
    "label": "32b81e49-4529-4d01-b9bb-103295e701f7",
    "text": "좋아, 3호! 마구 칠해 봐～!"
  },
  {
    "label": "466013b8-77bc-4e57-95eb-5d807792f10c",
    "text": "1호도 이렇게 꼼꼼히 칠해 주면 얼마나 좋을까～"
  },
  {
    "label": "482d135f-dffa-4315-9b7f-1575f25bdb22",
    "text": "거의 다 끝났어!\n자잘하게 남은 부분들도 칠해 주자～!"
  },
  {
    "label": "5c466157-c7b1-4de7-a9c0-859cc7543abd",
    "text": "어? 어?"
  },
  {
    "label": "6ff905e0-ef11-4123-83dc-af65bd2a62bf",
    "text": "3호, 혹시 높은 곳 좋아해?"
  },
  {
    "label": "d427e78b-be4b-46bd-87bf-a79a45193b27",
    "text": "얼굴 한번 되게 크네…"
  },
  {
    "label": "e7b820db-7b8f-48b0-8773-183c0e74a994",
    "text": "잉크 면적이 20%를 넘었습니다\n{{color id=\"1\"}}발판{{color id=\"65535\"}}을 전개합니다"
  },
  {
    "label": "e7f3b11c-60a2-4320-9a88-fdeecdd6547b",
    "text": "이제 반 정도 칠했나? 잘하고 있어!"
  }
]