[
  {
    "label": "13637932-d8e7-4880-932f-da55e1f1ae60",
    "text": "아앗～! 위쪽에 골 발견!\n뭔가 움직이고는 있지만 3호한테는 문제 될 것 없지?"
  },
  {
    "label": "3b48aafa-3b0f-4818-a5bc-39e32c86209d",
    "text": "나이스!"
  },
  {
    "label": "515d7e5b-41d8-41d0-af5a-033691b0535f",
    "text": "올라갈 수 있을 듯한 길이 나타났네\n문어를 주의하면서 가 보자～"
  },
  {
    "label": "98f1800d-9aa7-4462-9f16-27cd7ef1f64d",
    "text": "또 어딘가에 올라가는 길이 생긴 것 아닐까?"
  },
  {
    "label": "a10d9bda-6992-44ca-a820-383dcce9fe43",
    "text": "굿 잡～"
  },
  {
    "label": "b890076e-e92a-415b-bb37-ef856dda00cb",
    "text": "이제 골까지 올라갈 수 있겠어!"
  },
  {
    "label": "cb6e56a6-3382-43b4-a4ab-f5f5231c4b58",
    "text": "좋았어!"
  }
]