[
  {
    "label": "41e9917b-0e53-4399-8bb7-cae53b5f56c1",
    "text": "우와, 잔뜩 튀어나왔다!"
  },
  {
    "label": "66c44b04-add5-410e-a54a-1831632fcbe6",
    "text": "아직 남았어!"
  },
  {
    "label": "6c25cf90-bc21-4b1e-b489-28d796833a00",
    "text": "앞으로 1마리!"
  },
  {
    "label": "856ac6d5-4465-4a6b-86cf-1cc52bf51ce7",
    "text": "또 나왔다!!"
  },
  {
    "label": "881118d8-a71d-4b65-83f8-341fabaf554b",
    "text": "골… 맞지?"
  },
  {
    "label": "91a7fa06-76ea-49ae-9b3c-ec56a6c88750",
    "text": "함부로 뛰어들지 않는 게 좋을 것 같아～"
  },
  {
    "label": "d3abef05-8d14-44b8-a5e6-ee51d7016845",
    "text": "위쪽에도 뭔가가 있나 봐\n조심해, 3호!"
  },
  {
    "label": "f3741973-9475-4c37-9492-5490960a0a8d",
    "text": "{{color id=\"1\"}}울트라 샷{{color id=\"65535\"}}!\n이게 있으면 어떻게든 돌파할 수 있지 않을까?"
  }
]