[
  {
    "label": "596d2f8a-63ee-4c00-98ec-2f9d8de1109a",
    "text": "골～～～!!"
  },
  {
    "label": "3bf6a58a-b72f-4f43-bba9-e9a87102fb3c",
    "text": "이 출구는 꽝이었구나…"
  },
  {
    "label": "85cf0139-bcf1-48cb-8768-4032313c16be",
    "text": "…올라가라는 건가?"
  },
  {
    "label": "a9897acb-efc1-4ee5-bc2a-b749b8f132d4",
    "text": "으앗, 움직였어!"
  }
]