[
  {
    "label": "095d3008-f8a4-45be-9896-945fe7096116",
    "text": "두근두근!"
  },
  {
    "label": "09fb313c-a6fd-4caa-8f1e-0bde2ff7d5d6",
    "text": "이 {{color id=\"1\"}}문어 미사일{{color id=\"65535\"}}은 위에 탈 수 있을 것 같은데?"
  },
  {
    "label": "39d22a31-8078-40f2-8618-223f1d5e3f28",
    "text": "왠지 소란스러운 곳이구마잉…"
  },
  {
    "label": "4f1978ba-5dd1-48f9-afe2-1f2f0d168c9a",
    "text": "꺅! 막다른 길?!\n일단 내리자!"
  },
  {
    "label": "556db72a-d62d-4015-bdab-1c5c6cf1fcf2",
    "text": "3호! 앞에 주의해!"
  },
  {
    "label": "5f1f2aad-1d6f-46cb-b8df-c4e524a1d643",
    "text": "승객 여러분～!\n우리 문어펠린호는 이제 곧 골에 도착합니다～!"
  },
  {
    "label": "678316a5-2e89-48c4-9a54-916cac3a9dda",
    "text": "발밑을 주의하며 내리시기 바랍니다～"
  },
  {
    "label": "ad0f2628-6478-4e32-8b09-03e20e0d412f",
    "text": "막다른 길이 뚫렸나 보네잉～"
  },
  {
    "label": "b26b894a-66cd-4ddd-b9e5-5b2e42ff5fcb",
    "text": "레츠 라이드～!"
  },
  {
    "label": "c4f1b68d-5489-4242-824e-2a45572ab8ed",
    "text": "한 번 더 온다!!!"
  }
]