[
  {
    "label": "02630791-d285-4532-9103-295a3206047f",
    "text": "{{color id=\"1\"}}크랩 탱크{{color id=\"65535\"}}다, 마구 쏠 수 있겠어!"
  },
  {
    "label": "46465237-33e0-4a87-b2e2-cda6dc7777ee",
    "text": "잘하고 있데이!"
  },
  {
    "label": "622fdea1-4867-49ec-8e8d-df2ec26356c2",
    "text": "만타!{{string value=\"5\"}}(조마조마했어～!){{fun_000F_0004 arg=\"0x0500\"}}"
  },
  {
    "label": "634b5970-06ab-4b83-b233-f968ad93a98d",
    "text": "응? 이거 거대전지메기 아니야?!"
  },
  {
    "label": "681440f8-051b-4cc1-8ef4-268a65e49b95",
    "text": "이 주변은 역시 적의 방어도 거세구나"
  },
  {
    "label": "8136722e-6236-4628-b8ae-3db1238a1f49",
    "text": "{{color id=\"1\"}}울트라 스탬프{{color id=\"65535\"}}다!\n{{icon id=\"12\" arg=\"0x0000803F00000000\"}}을 누르면서 쭉쭉 가자～!"
  },
  {
    "label": "8484ca13-5552-4bfc-8c0b-8be6a75e9503",
    "text": "이런 곳에 잡혀 있었구나…\n어떻게든 이쪽도 되찾아야겠구마잉"
  },
  {
    "label": "8dcabab4-e2bc-4c53-83d0-3b5908d54b35",
    "text": "아직 끝나려면 먼 것 같지만 힘내자～!"
  },
  {
    "label": "a22c5a93-1bf7-425a-a7a6-774c746ba018",
    "text": "후우～ 일단 정리됐네"
  },
  {
    "label": "e69897ce-a932-4502-8d47-41cec93e0541",
    "text": "좋았어～♪"
  },
  {
    "label": "f89dd579-fe53-4be9-8b61-ebe6558782be",
    "text": "점프로 뛰어넘기에는 너무 먼 것 같은데…"
  }
]