[
  {
    "label": "0155795c-2eb2-445c-a5ca-4793b92a404b",
    "text": "비상용 시스템 작동\n문의 잠금을 해제합니다"
  },
  {
    "label": "1f074bf5-0681-40e8-b41d-7378ed6b26df",
    "text": "시스템 기동…\n에너지가 부족하여 실패했습니다"
  },
  {
    "label": "2c106ac7-310e-4ca1-a0b4-c48bff16c82d",
    "text": "전부 획득했네잉"
  },
  {
    "label": "2f6619eb-b163-4861-80f3-775efac80ff8",
    "text": "이게 마지막일 거야, 출구로 가자!"
  },
  {
    "label": "451d1b09-e7bb-47e2-bcaf-b81924fbf6a0",
    "text": "1개 남았어! 기운 내!"
  },
  {
    "label": "50d74a14-951c-4ac7-bd45-81fc022355de",
    "text": "마지막 1개 남았어!"
  },
  {
    "label": "5ca7a838-bf65-44ee-ae48-aeca3ed22c53",
    "text": "{{color id=\"1\"}}쇼크 원더{{color id=\"65535\"}}야!\n이게 있으면 {{color id=\"1\"}}에너지 코어{{color id=\"65535\"}} 회수하기 편하겠다!"
  },
  {
    "label": "5efe1b75-4266-4730-8ad2-a169a1e26ff6",
    "text": "야호! 여기 것도 전부 획득했네!"
  },
  {
    "label": "7a4ae44f-18b3-44e3-90a8-176fff77fb51",
    "text": "남은 반응 5개 확인!"
  },
  {
    "label": "80d4a22c-f490-484a-9320-8086696e02d6",
    "text": "시스템 기동…\n에너지가 부족하여 실패했습니다"
  },
  {
    "label": "8a02730d-6eb7-400a-8aaf-d7115316e014",
    "text": "남아 있는 {{color id=\"1\"}}에너지 코어{{color id=\"65535\"}}가 있나 봐"
  },
  {
    "label": "8e85fe6e-72f3-4eb8-8e2a-b6d0e8f667fe",
    "text": "시스템 기동…\n에너지가 부족하여 실패했습니다"
  },
  {
    "label": "90822a52-45e9-4f0c-81e1-4253b6743d67",
    "text": "{{icon id=\"10\" arg=\"0x0000803F00000000\"}}로 팔을 뻗어서 벽에 달라붙는 거야～"
  },
  {
    "label": "f97ff9db-a455-4bd4-ac2f-975b4fc3f820",
    "text": "할아버지, 조금만 기다려!\n서두르자, 3호!"
  }
]