[
  {
    "label": "00067465-24c0-442c-8ef1-5367757a6c13",
    "text": "골이다! 해냈구나, 3호!"
  },
  {
    "label": "2a6d423d-d33e-485e-afcd-18deed6d090e",
    "text": "점프로 올라타서 레츠 고～"
  },
  {
    "label": "2d8a5fcc-657b-4088-ba60-3969bd3397ad",
    "text": "일 처리가 빠르네～"
  },
  {
    "label": "8332ce59-47b2-4bbb-9524-2affdf4b773f",
    "text": "앗…"
  },
  {
    "label": "bab99ff3-86b3-4f44-9059-1c41428dd9e4",
    "text": "으앗, {{color id=\"1\"}}라이드 레일{{color id=\"65535\"}}이 나왔어!"
  }
]