[
  {
    "label": "0031c3f3-5ff7-4173-8ebe-fb7b256d5bad",
    "text": "{{icon id=\"12\" arg=\"0x0000803F00000000\"}}을 누르고 있으면 지면을 칠하면서 이동할 수 있어"
  },
  {
    "label": "0246f8bb-0946-4641-9a7e-f30e36a9ddba",
    "text": "위험해! 아직 남아 있었네"
  },
  {
    "label": "1d2bc628-c906-42f8-923e-dce35fb70169",
    "text": "치고 들어갈 틈이 없을까?"
  },
  {
    "label": "2478b2de-513f-45f4-a4a8-a21badd86842",
    "text": "시작하자마자?!"
  },
  {
    "label": "2c40e1ec-2778-4719-adf3-84cd091bc06c",
    "text": "우와, 방패를 든 문어에 문어 스나이퍼까지… 준비 단단히 했네잉"
  },
  {
    "label": "302c9e68-bcc4-417a-8018-c82edcd034c0",
    "text": "아, {{color id=\"1\"}}연어알 팩{{color id=\"65535\"}}이다!"
  },
  {
    "label": "3251ace2-7f86-4e7a-873b-30454f524f01",
    "text": "그냥 {{icon id=\"12\" arg=\"0x0000803F00000000\"}}을 누르면 {{color id=\"1\"}}가로 휘두르기{{color id=\"65535\"}},\n점프하면서 {{icon id=\"12\" arg=\"0x0000803F00000000\"}}을 누르면 {{color id=\"1\"}}세로 휘두르기{{color id=\"65535\"}}야～!"
  },
  {
    "label": "456b24b9-25e1-4291-8e86-37d6dcc39a34",
    "text": "잘하고 있어!"
  },
  {
    "label": "5991f815-2dda-443e-b078-d5ebad7c64e7",
    "text": "길이 있어～!"
  },
  {
    "label": "7faa22cb-e043-4e1a-a16d-6d88967fca1c",
    "text": "등 뒤에서 해치워 버릴 수 있겠어"
  },
  {
    "label": "831b4ad9-1bd5-41e5-bdef-0f4c4a93e7d1",
    "text": "우두머리를 쓰러뜨렸어～!"
  },
  {
    "label": "8692e390-0b96-4c93-a497-d2896189b50e",
    "text": "나이스, 3호!"
  },
  {
    "label": "aa3cb97b-e1da-4d1c-8020-85dccb4bd61e",
    "text": "파워풀하구마잉～ 롤러가 손에 좀 익었어?"
  },
  {
    "label": "ac0a4804-2fbb-45a4-9931-7ea5aee8f8c9",
    "text": "발밑을 주의해!"
  },
  {
    "label": "c28934ae-e86d-4e2c-b82e-36eac6828edc",
    "text": "2마리를 한 번에?! 대단해～"
  },
  {
    "label": "ceaad6a7-c669-4398-8ba3-aacf9b1b68be",
    "text": "점프해서 세로 휘두르기를 하면 잉크를 멀리까지 날릴 수 있어!"
  },
  {
    "label": "cf8987a8-a96d-4006-aef1-d993522ff40e",
    "text": "{{color id=\"1\"}}점프 매트{{color id=\"65535\"}} 위에서는\n{{icon id=\"1\" arg=\"0x0000803F00000000\"}}를 누르고 있으면 높이 점프해!"
  },
  {
    "label": "d9f2e6ae-db2a-4ad7-91ac-dd06bd2cf2b9",
    "text": "방심하면 안 돼～"
  },
  {
    "label": "dfebb4e2-a395-4285-a22f-92c247040f27",
    "text": "당연히 눈치채고 있었지라\n안 그래, 1호?"
  },
  {
    "label": "f906fe63-b376-4151-bf3f-3550000d8364",
    "text": "응?! 그, 그럼!"
  }
]