[
  {
    "label": "05ab78bd-125e-4382-9c93-1bc89c00de3f",
    "text": "약점이 넓어진 것 같네"
  },
  {
    "label": "0d939e8f-663c-4442-b992-994c325bec11",
    "text": "아자～～!!\n휴우, 굴리고 쫓아가고 하느라 고생했네～"
  },
  {
    "label": "10dba701-25d1-40ba-94a1-a89b6cbbec72",
    "text": "껍데기가 벌어졌어요! 기회예요!!"
  },
  {
    "label": "46551923-b717-4b5f-b7ed-604a0350d880",
    "text": "적은 늘어났지만 지금이라면 약점을 노릴 수 있겠어"
  },
  {
    "label": "4f65a775-2854-4cd8-829e-77623a3bd03b",
    "text": "적이 나왔다! 하지만 속살도 드러났어!"
  },
  {
    "label": "524af405-2d4e-4925-92f3-fc3beb44de37",
    "text": "쿨쿨 자는 와중에 미안하지만\n잠시 실례할게"
  },
  {
    "label": "53dfd7f6-adc1-4ab9-b076-ec09faa33d2d",
    "text": "에이트 씨, 선배! 수고하셨어요!\n정말 멋졌어요～♪"
  },
  {
    "label": "564046c0-1c59-4eb4-852f-4c308c446af8",
    "text": "잘하고 있어, 마지막까지 방심하지 마"
  },
  {
    "label": "586431fa-6513-486b-b383-b4aee4480d48",
    "text": "속살이 드러났어! 지금 얼른 해치워 버려!!"
  },
  {
    "label": "5a144b25-88e1-442c-9266-4a58baf7211a",
    "text": "또 저 커다란 데굴이가 상대구나\n가 보자고, 에이트!"
  },
  {
    "label": "5b696359-531e-425f-a857-2af138ccd57a",
    "text": "나온 적을 잘 처리하면\n기회가 될 것 같아"
  },
  {
    "label": "5f7ff828-920e-496e-bd66-c23b79ded7f0",
    "text": "이거야 원, 드디어 끝났네… 수고했어, 에이트"
  },
  {
    "label": "7a8ae7c7-e77b-4494-8742-bdf018ef7ab2",
    "text": "쪼그라들었다!\n조금만 더 힘내, 에이트!!"
  },
  {
    "label": "7ffff043-b251-4cdb-81ae-8b6831160ff9",
    "text": "많이 작아졌네요!\n얼마 안 남았어요, 에이트 씨!"
  },
  {
    "label": "80efd5c6-3a6e-4a0b-9fe7-f575d75b3d16",
    "text": "적이 나왔다! 하지만 속살도 드러났어!"
  },
  {
    "label": "81cad8dc-5873-4916-b0eb-5c72353eef1a",
    "text": "뭔가 데굴이 같은 커다란 게 있는데…\n조심해, 에이트!"
  },
  {
    "label": "a008683d-bd83-4655-98bf-d50ca25953e9",
    "text": "적은 늘어났지만 지금이라면 약점을 노릴 수 있겠어"
  },
  {
    "label": "a5331b79-8cc4-4c8b-bfc4-e3d8b43b0bb9",
    "text": "으악～! {{color id=\"4\"}}범퍼{{color id=\"65535\"}}에 부딪히면\n동료를 부르는 거야?!"
  },
  {
    "label": "a887771f-b8a5-48b0-939a-98e4ada88693",
    "text": "쪼그라들었다!\n조금만 더 힘내, 에이트!!"
  },
  {
    "label": "a9c139ab-a0b0-40f3-957f-65a012603d02",
    "text": "저 녀석, 무슨 짓을 할 셈이지…?!"
  },
  {
    "label": "b3532888-eb0f-417b-88df-1f187e96fdff",
    "text": "돌진한다! 피해, 에이트!!"
  },
  {
    "label": "b9cd13d8-9b3e-4bc9-b612-f4ec660c6364",
    "text": "저 거대하고 중후한 메탈릭 보디…\n적이지만 로망이 넘쳐요～!!"
  },
  {
    "label": "bae66ce9-fd8a-4491-8bb0-4920a0f65498",
    "text": "또 온다!!"
  },
  {
    "label": "be013d87-4e9c-4d7d-86da-c5d994fb0b6a",
    "text": "껍데기가 벌어졌어요! 적이 늘어났으니 조심하세요!"
  },
  {
    "label": "bef3cf01-239e-4881-970c-fa62dd59cd96",
    "text": "껍데기가 벌어졌어요! 적이 늘어났으니 조심하세요!"
  },
  {
    "label": "da0aa4e8-d446-4938-bdb8-6d0196ccb7bd",
    "text": "으앗! {{color id=\"4\"}}범퍼{{color id=\"65535\"}}가 늘어난 것 같아요!"
  },
  {
    "label": "da790809-2ae8-442a-8252-6491b331482c",
    "text": "또 새로운 적이…! 하지만 껍데기가 벌어져 있어요!"
  }
]