[
  {
    "label": "9c587cab-3e7b-4057-b888-d0832c9b56c4",
    "text": "저 커다란 건 또 뭐래～?"
  },
  {
    "label": "1bed1adf-33dd-4555-b2d1-9ff4ad1b525f",
    "text": "저 녀석을 보고 있으면 눈이 빙빙 돈다니까…"
  },
  {
    "label": "6ac09845-6b16-4414-a27e-c357181a9591",
    "text": "또 저 녀석인가… 여전히 크네"
  },
  {
    "label": "4a878929-b755-4feb-b137-596fd82a6b12",
    "text": "강한 상대지만 에이트 씨라면 이길 수 있어요!\n파이팅!"
  },
  {
    "label": "16bb9c5b-ae56-4ee2-81c8-3e341c5a7410",
    "text": "{{color id=\"4\"}}서치라이트{{color id=\"65535\"}}에 걸리면 안 되는구나!"
  },
  {
    "label": "95821f05-8565-4b7f-811d-2638cd3caa9e",
    "text": "일단 도망쳐, 에이트!"
  },
  {
    "label": "6850dc3d-817b-4329-9ea1-174676777826",
    "text": "들켰나… 도망치는 게 좋겠어"
  },
  {
    "label": "6e4389d1-2e3d-4224-a33a-9d6c029aacb9",
    "text": "들키면 공격당해요! 도망치세요!!"
  },
  {
    "label": "83333d96-d700-449d-bc73-0ab377def2dd",
    "text": "들켰다! 도망쳐, 에이트～!!"
  },
  {
    "label": "81cf2207-5289-468b-8be0-3020317ae4ea",
    "text": "키가 커졌을 때는 웨이브로 공격하는 모양이야"
  },
  {
    "label": "a7a51ad3-eb23-4afe-bd3b-fd0d17d92dfe",
    "text": "연기가 나오고 있어… 지금이 기회 같은데?"
  },
  {
    "label": "f2781e80-dbc3-4943-9b2c-f751cd9c70d7",
    "text": "이 녀석, 다가가면 키가 커지잖아!"
  },
  {
    "label": "823a540d-8c9a-454f-b494-9b9169ccd1ed",
    "text": "위험한 게 올 것 같아, 조심해!"
  },
  {
    "label": "9d7a0624-5217-494d-be02-0767ead6dcb5",
    "text": "뭔가 올 것 같아… 조심해"
  },
  {
    "label": "6f372fbc-0837-4d20-91b5-213ab45ffa7b",
    "text": "공격이 와요! 조심하세요!"
  },
  {
    "label": "e04e99ff-a7cf-4f3f-bf85-9fb929685434",
    "text": "에이트! 뭔가가 날아온다!"
  },
  {
    "label": "53c56fc0-8621-4073-88fa-45def26e7b40",
    "text": "에이트 씨, 적이 날아와요!"
  },
  {
    "label": "9598a1a3-0716-4f56-a040-0e3af647db68",
    "text": "HEY! 적이 날아오고 있어"
  },
  {
    "label": "805fc56f-7570-4aa4-bc16-ee65e5ce1f68",
    "text": "윽! 밤을 던지잖아!"
  },
  {
    "label": "f60d28f6-18d2-416b-9231-aa33c0418250",
    "text": "밤?! 피해, 에이트!!"
  },
  {
    "label": "48871f26-2120-46f8-a0a0-0e76fee4c87e",
    "text": "좋았어～! 잘한다～!!"
  },
  {
    "label": "edd311c4-c260-4e3f-b034-9833b5a60064",
    "text": "나이스예요! 적의 키가 작아지고 있어요!"
  },
  {
    "label": "8ac55961-da9c-43ab-8587-646286c1f5e6",
    "text": "바로 그거야, 마지막까지 긴장을 풀지 마"
  },
  {
    "label": "366705e6-00f9-4e0f-9905-8dbff8dc51ac",
    "text": "좋았어～! 다 부숴 버려～!"
  },
  {
    "label": "6faa4033-3e2b-4f6f-b8e6-d45bcd744f20",
    "text": "좋았어! 우선 하나～!!"
  },
  {
    "label": "fc648494-7a29-4781-9cd2-6bbb21129796",
    "text": "아자～! 우리의 승리다!!"
  },
  {
    "label": "00277b56-c5b4-49df-925c-8bafe60853bb",
    "text": "성가신 상대였네… 제법인걸, 에이트"
  },
  {
    "label": "f5103654-3515-4747-bf23-3320102022d9",
    "text": "해냈다…! 에이트 씨, 선배! 해냈어요!"
  },
  {
    "label": "1a5ec2a8-40f4-4fcc-8b69-d9a687c18869",
    "text": "회전 속도가 느려졌어요! 에이트 씨, 지금이에요!!"
  },
  {
    "label": "6470af20-1d54-47eb-a3dc-ce3a10fbf88c",
    "text": "저 녀석, 휘청이는 것 같은데? 기회다!!"
  },
  {
    "label": "745feb7b-98c3-4725-80fd-d278b884b80b",
    "text": "에이트, 기회야! 약해 보이는 부분을 노려!!"
  }
]