[
  {
    "label": "0dafca74-963e-4a1f-9dd5-575470fb3706",
    "text": "마지막 고비야!"
  },
  {
    "label": "3c65a63b-c4be-45e3-8689-f3fac4decb67",
    "text": "이 거리면 스탬프를 던져야 닿겠는데?"
  },
  {
    "label": "6eea0bb5-ca15-40fc-96d7-089b0a55d933",
    "text": "2단째에 맞히면 한 방에 쓰러뜨릴 수 있겄어"
  },
  {
    "label": "efbc349f-6b3f-4f1f-a4a0-329616bc2f0d",
    "text": "{{icon id=\"10\" arg=\"0x0000803F00000000\"}}로 스탬프를 던져 버려～"
  },
  {
    "label": "f7aa1475-cea1-4667-a720-548521c813f5",
    "text": "{{icon id=\"12\" arg=\"0x0000803F00000000\"}}을 누르고 있으면 스탬프를 찍으면서 전진할 수 있어\n적이 멀리 있으면 {{icon id=\"10\" arg=\"0x0000803F00000000\"}}로 스탬프를 던져 버리자"
  },
  {
    "label": "ff2651e2-b51a-4ec6-8bd4-71519ca4871e",
    "text": "1마리 쓰러뜨리면 카운트다운이 시작돼"
  }
]