{
  "version": 7,
  "rootNode": {
    "$parent": "Work/Phive/ControllerSetParam/LiftParent.phive__ControllerSetParam.gyml",
    "PathCharacterController": "",
    "ShapeNamePathAry": [
      {
        "FilePath": "Work/Phive/ShapeParam/FldObj_BigSlope00_SideAsari.phive__ShapeParam.gyml",
        "Name": "Main"
      }
    ]
  }
}