[
  {
    "label": "00b65a31-07ab-439e-a99b-72e292f3e94e",
    "text": "Estoy empezando a cansarme de los {{color id=\"1\"}}octotiradores{{color id=\"65535\"}}..."
  },
  {
    "label": "024e3176-1e96-408e-a6c0-f7a3874afc02",
    "text": "Eso está bien."
  },
  {
    "label": "21b438ba-407d-4cee-841c-26139861b132",
    "text": "Hay un {{color id=\"1\"}}octotirador{{color id=\"65535\"}} ahí arriba, cómo no."
  },
  {
    "label": "2ccf5c12-fdcf-47d6-bb11-89c436ad8ea8",
    "text": "¡Ah, mira! ¡Algo más a lo que disparar!"
  },
  {
    "label": "2f13d932-dd75-45dc-928d-659f0cbfab65",
    "text": "A ver qué nos espera... Más «octocansinos», supongo."
  },
  {
    "label": "582915df-dcc7-46db-91d6-f80473ba3541",
    "text": "Tengo una idea: cargas un disparo, te acercas usando\nun tintransportador... ¡y luego lo sueltas!"
  },
  {
    "label": "5e7d7c68-3e3a-49ed-892e-fdb8f10de353",
    "text": "¿Qué es lo mejor de cargar un disparo? El mero hecho\nde cargar, por supuesto: ¡mantén pulsado {{icon id=\"12\" arg=\"0x0000803F00000000\"}}!"
  },
  {
    "label": "634f7768-7c7f-440b-9c50-6c8a821a590a",
    "text": "¡También puedes mantener un disparo cargado mientras\nusas un {{color id=\"1\"}}tintransportador{{color id=\"65535\"}}!"
  },
  {
    "label": "6905c09b-afb5-42ca-a566-054d12e518dc",
    "text": "La puerta está abierta. ¡Vamos!"
  },
  {
    "label": "914cae90-d00a-4dcb-95c6-8361cee82c60",
    "text": "Carga un disparo, mantenlo mientras aceleras nadando\npor tu tinta... ¡y luego emerge disparando!"
  },
  {
    "label": "9164d406-c830-417d-98a5-d78ebe698781",
    "text": "A lo mejor con un disparo cargado podrías llegar."
  },
  {
    "label": "a6701eff-b358-400a-ae4a-ae83335e6522",
    "text": "Fíjate, un {{color id=\"1\"}}octotirador{{color id=\"65535\"}}..."
  },
  {
    "label": "a9a29d7e-81b5-47c6-881a-727c6dd37a1e",
    "text": "Podrías ir a lo bestia por la puerta delantera, pero\nserá mejor avanzar poco a poco por el exterior."
  },
  {
    "label": "b626ca7c-169c-473d-a71a-d9f43566efb1",
    "text": "Nunca decepcionas, ¿eh?"
  },
  {
    "label": "c0d338e3-3faf-429a-bddc-91a54600754e",
    "text": "¡Hala, qué montonazo!"
  },
  {
    "label": "c2fb3b35-7398-47af-8873-12b864fe54b0",
    "text": "¡Bien!"
  },
  {
    "label": "c7e5199e-0e1d-4fa9-ba17-b4d9191d266f",
    "text": "No te dejan en paz, ¿eh?"
  },
  {
    "label": "d2799044-1b6c-4577-9b5c-946c62fb96f8",
    "text": "Puedes sumergirte en tinta pulsando {{icon id=\"11\" arg=\"0x0000803F00000000\"}}, que aun\nasí conservarás el disparo cargado por un tiempo."
  },
  {
    "label": "d2ae7e0d-d14e-4a79-85cb-08f38cf38dbc",
    "text": "¡Excelente!"
  },
  {
    "label": "d3aec9ff-f917-463d-975a-5ee993d13ebc",
    "text": "¡Así se dispara!"
  },
  {
    "label": "ded1f65b-1b3a-4a35-b386-47c78c5733b4",
    "text": "Para un momento y carga en algún lugar seguro."
  },
  {
    "label": "e15f50f8-04d7-42bd-99ff-2a5fdac382d9",
    "text": "¡{{color id=\"1\"}}Lanzador{{color id=\"65535\"}} a la vista!"
  },
  {
    "label": "f6e8a499-9fd8-4b61-b1a8-dd705364a4a8",
    "text": "Esa {{color id=\"1\"}}octodiscobola{{color id=\"65535\"}} te va a dar problemas. Con lo bonito\nque sería un mundo sin barreras..."
  },
  {
    "label": "ff9d5535-fdf8-4c97-8303-c03d68e30164",
    "text": "¡Ja! ¡Eso sí que no se lo esperaban!"
  }
]