[
  {
    "label": "40e171e4-7230-47b0-8081-e171324ca65e",
    "text": "Tienes el camino despejado... y eso me hace desconfiar.\n¡Ve con mucho cuidado, Agente 3!"
  },
  {
    "label": "69362011-33f7-47cf-90fe-17b87ec8c9eb",
    "text": "Ya puedes volver a usar el {{color id=\"1\"}}salto explosivo{{color id=\"65535\"}}.\n¡Pulsa {{icon id=\"8\" arg=\"0xCDCC4C3F00000000\"}} cuando lo necesites!"
  },
  {
    "label": "27258447-a228-41d4-9b01-6b7fe7baa10b",
    "text": "¡Toooma!"
  },
  {
    "label": "39f3aa7d-bf03-4602-a33f-f3821ca2e68e",
    "text": "Tienes el medidor de arma especial lleno, Agente 3.\n¡Pulsa {{icon id=\"8\" arg=\"0xCDCC4C3F00000000\"}} para usar el {{color id=\"1\"}}salto explosivo{{color id=\"65535\"}}!"
  },
  {
    "label": "74e8d6b8-9e17-4119-a6a7-7e3060b5011a",
    "text": "Seguro que todavía se esconde alguno más.\nPalabra de Jibión."
  },
  {
    "label": "a5acbc55-e246-4fd7-8972-c21f64d1e783",
    "text": "¡Hay octarianos por todas partes! ¡Apunta y dispara\nsin olvidarte de ninguno!"
  },
  {
    "label": "799a5ab8-89bb-43f2-986f-9da8260fd10e",
    "text": "Quizá esos muros te sirvan para resguardarte."
  },
  {
    "label": "ae1da840-6d66-43a8-9c3f-36b87ad32bfc",
    "text": "¡Te han dañado el {{color id=\"1\"}}traje de élite{{color id=\"65535\"}}! ¡Más te vale\n{{color id=\"1\"}}sumergirte{{color id=\"65535\"}} en tinta para que se recupere rápido!"
  },
  {
    "label": "aeac4508-24ad-47c9-87bd-db0cf16cdcf5",
    "text": "Uf... Menos mal. Un poco más y no lo cuentas."
  },
  {
    "label": "b9f7356a-63c0-4bb6-a375-0b26c6f28088",
    "text": "¡Bien hecho! Pero parece que el baile de las columnas\ncontinúa..."
  },
  {
    "label": "c958b75c-f9b7-476e-be7c-6710929b2154",
    "text": "¡Así se hace! Ahora está surgiendo otra columna\ndesde abajo."
  },
  {
    "label": "e01f0b1a-47d9-48ad-be24-96e950c7cdd5",
    "text": "¡Ja! Sabía que aún quedarían más. ¡Y los que faltarán\npor aparecer!"
  },
  {
    "label": "ee4a0fa1-d57e-40b1-9381-8487ba1c31bf",
    "text": "Piénsalo dos veces antes de saltar ahí por las buenas."
  },
  {
    "label": "74a57e1d-40ab-4ee1-8ba6-8f2255e0b421",
    "text": "Pulsa {{icon id=\"10\" arg=\"0x0000803F00000000\"}} para lanzar a tu compañero el {{color id=\"1\"}}cenutrín{{color id=\"65535\"}}.\n¡Igual sirve para distraerlos!"
  }
]