[
  {
    "label": "1fd2bb2c-c4e3-4638-89b6-c048d7571161",
    "text": "¿Eh? ¿No hay {{color id=\"1\"}}llave{{color id=\"65535\"}}?"
  },
  {
    "label": "2d3a4e4c-0f62-4488-9526-d7fd075a4c3a",
    "text": "¡Hala! ¡Hay una planta secreta! Tiene su gracia..."
  },
  {
    "label": "2e70a00b-956d-4d80-be3d-d3a5ca2a8200",
    "text": "Tiene que haber una {{color id=\"1\"}}llave{{color id=\"65535\"}} {{icon id=\"26\" arg=\"0x0000803F00000000\"}} por aquí alrededor,\n¿no crees?"
  },
  {
    "label": "370f19bc-76ce-4160-9730-2bbd96a5207d",
    "text": "¡{{color id=\"1\"}}Llave{{color id=\"65535\"}} localizada!"
  },
  {
    "label": "5f32135c-4c04-4b9b-8a56-bc802fc60c05",
    "text": "Se ve la {{color id=\"1\"}}meta{{color id=\"65535\"}} desde aquí. ¡Y mi casa!...\nNo, eso es broma."
  },
  {
    "label": "6c1ba049-6e57-4285-b765-be543fcc74db",
    "text": "¡Eso es! ¡Queremos más {{color id=\"1\"}}llaves{{color id=\"65535\"}}!"
  },
  {
    "label": "7300bfab-b5c5-4f65-a9aa-608c10919f85",
    "text": "¡Ya solo tienes que cruzar para llegar a la {{color id=\"1\"}}meta{{color id=\"65535\"}}!"
  },
  {
    "label": "a83c0d89-c421-4c5e-a440-cfff145a527c",
    "text": "¡Bravo! ¡Otra {{color id=\"1\"}}llave{{color id=\"65535\"}}!"
  },
  {
    "label": "bcdb4de6-985a-46ee-8380-1574b53cb664",
    "text": "Aquí hay alguien acechando. Ve con pies de plomo..."
  },
  {
    "label": "f449c6f0-c98f-4d15-b55a-6dc88a84fe08",
    "text": "¡Otra {{color id=\"1\"}}llave{{color id=\"65535\"}}! Quién lo habría pensado..."
  },
  {
    "label": "f9f2839a-8134-4261-94a8-571852743fb1",
    "text": "¡Anda! Puedes usar el {{color id=\"1\"}}flotiburón{{color id=\"65535\"}}. ¡Ponte de frente\na tus enemigos y pulsa {{icon id=\"8\" arg=\"0xCDCC4C3F00000000\"}} para embestirlos!"
  },
  {
    "label": "ff35ff10-9143-4fe9-9ba0-4da82ca4411d",
    "text": "¡Ya se ve la {{color id=\"1\"}}meta{{color id=\"65535\"}}!"
  }
]