[
  {
    "label": "05ab78bd-125e-4382-9c93-1bc89c00de3f",
    "text": "Su punto débil es ahora mayor."
  },
  {
    "label": "0d939e8f-663c-4442-b992-994c325bec11",
    "text": "¡Toooooma! Ya me tenía frita con tanto rodar."
  },
  {
    "label": "10dba701-25d1-40ba-94a1-a89b6cbbec72",
    "text": "¡Se ha abierto el caparazón! ¡Es tu oportunidad!"
  },
  {
    "label": "46551923-b717-4b5f-b7ed-604a0350d880",
    "text": "Aunque haya más enemigos, ahora puedes atacar\nsu punto débil."
  },
  {
    "label": "4f65a775-2854-4cd8-829e-77623a3bd03b",
    "text": "¡Esos patanes se multiplican! ¡Aprovechemos que\nla parte interior es vulnerable ahora!"
  },
  {
    "label": "524af405-2d4e-4925-92f3-fc3beb44de37",
    "text": "Siento molestarte justo ahora, grandullón, pero\naquí estorbas."
  },
  {
    "label": "53dfd7f6-adc1-4ab9-b076-ec09faa33d2d",
    "text": "¡Así se hace! ¡Habéis estado impresionantes,\nOcho y Perla!"
  },
  {
    "label": "564046c0-1c59-4eb4-852f-4c308c446af8",
    "text": "¡Epa! No bajes la guardia hasta el final."
  },
  {
    "label": "586431fa-6513-486b-b383-b4aee4480d48",
    "text": "¡Aprovecha para pegarle dentro ahora!"
  },
  {
    "label": "5a144b25-88e1-442c-9266-4a58baf7211a",
    "text": "¿Otra vez esa cosa redonda? ¡Mucha atención, Ocho!"
  },
  {
    "label": "5b696359-531e-425f-a857-2af138ccd57a",
    "text": "Si logras librarte de los enemigos que van apareciendo,\nacabarás teniendo una oportunidad."
  },
  {
    "label": "5f7ff828-920e-496e-bd66-c23b79ded7f0",
    "text": "¡Ufff! Menos mal... ¡Buen trabajo, Ocho!"
  },
  {
    "label": "7a8ae7c7-e77b-4494-8742-bdf018ef7ab2",
    "text": "¡Mira qué cosita insignificante es ahora!\n¡Casi lo tienes, Ocho!"
  },
  {
    "label": "7ffff043-b251-4cdb-81ae-8b6831160ff9",
    "text": "¡Sí que se ha reducido! ¡Te falta poco, Ocho!"
  },
  {
    "label": "80efd5c6-3a6e-4a0b-9fe7-f575d75b3d16",
    "text": "¡Esos patanes se multiplican! ¡Aprovechemos que\nla parte interior es vulnerable ahora!"
  },
  {
    "label": "81cad8dc-5873-4916-b0eb-5c72353eef1a",
    "text": "Cosa enorme y redonda a la vista. ¡Mucho ojo, Ocho!"
  },
  {
    "label": "a008683d-bd83-4655-98bf-d50ca25953e9",
    "text": "Aunque haya más enemigos, ahora puedes atacar\nsu punto débil."
  },
  {
    "label": "a5331b79-8cc4-4c8b-bfc4-e3d8b43b0bb9",
    "text": "¡Arg! ¡Parece que pide refuerzos cuando {{color id=\"4\"}}rebota\nen esas cosas{{color id=\"65535\"}}!"
  },
  {
    "label": "a887771f-b8a5-48b0-939a-98e4ada88693",
    "text": "¡Mira qué cosita insignificante es ahora!\n¡Casi lo tienes, Ocho!"
  },
  {
    "label": "a9c139ab-a0b0-40f3-957f-65a012603d02",
    "text": "¡¿Qué pretende?!"
  },
  {
    "label": "b3532888-eb0f-417b-88df-1f187e96fdff",
    "text": "¡Cuidado, que viene! ¡Apártate, Ocho!"
  },
  {
    "label": "b9cd13d8-9b3e-4bc9-b612-f4ec660c6364",
    "text": "¡Vaya mole acorazada! ¡Me fascina y me da miedo\nal mismo tiempo!"
  },
  {
    "label": "bae66ce9-fd8a-4491-8bb0-4920a0f65498",
    "text": "¡Ahí vuelve!"
  },
  {
    "label": "be013d87-4e9c-4d7d-86da-c5d994fb0b6a",
    "text": "¡El caparazón está abierto! ¡Cuidado con la avalancha\nde enemigos!"
  },
  {
    "label": "bef3cf01-239e-4881-970c-fa62dd59cd96",
    "text": "¡El caparazón está abierto! ¡Cuidado con la avalancha\nde enemigos!"
  },
  {
    "label": "da0aa4e8-d446-4938-bdb8-6d0196ccb7bd",
    "text": "¡Oh, no! ¡Ahora un montón de {{color id=\"4\"}}rebotadores{{color id=\"65535\"}} de esos!"
  },
  {
    "label": "da790809-2ae8-442a-8252-6491b331482c",
    "text": "«Habemus» más enemigos... ¡Pero el caparazón\nse ha abierto!"
  }
]