[
  {
    "label": "1df6c256-32a2-4d5b-9a16-115b16e4295f",
    "text": "¡Ay, lo que veo venir! ¡Pulsa {{icon id=\"1\" arg=\"0x0000803F00000000\"}} para saltar y\nesquivar el peligro!"
  },
  {
    "label": "7650ceda-07d8-49b5-ad55-793b0d3f560b",
    "text": "¡Solo falta la mitad! ¡Ánimo!"
  }
]