[
  {
    "label": "Tips_01",
    "text": "Mauw! (M'n kattenbak heeft meer gevechtsstijl\ndan jij! Ga naar de Knokpot en speel {{color id=\"1\"}}Grondoorlog{{color id=\"65535\"}}!){{pageBreak}}(Als je je {{color id=\"1\"}}niveau{{color id=\"65535\"}} hebt {{color id=\"1\"}}verhoogd{{color id=\"65535\"}} met gevechten,\nbezoek dan de {{color id=\"1\"}}wapenwinkel {{color id=\"65535\"}}op het plein.)"
  },
  {
    "label": "Tips_02",
    "text": "Prrr... (Ga eens naar {{color id=\"1\"}}Armada {{color id=\"65535\"}}als je niveau is\nverhoogd. Misschien hebben ze {{color id=\"1\"}}nieuwe wapens{{color id=\"65535\"}}.){{pageBreak}}(Je krijgt ook {{color id=\"1\"}}Krabbert-vergunningen{{color id=\"65535\"}} als je niveau\nverbetert, om nog MEER wapens mee te kopen!)"
  },
  {
    "label": "Tips_03",
    "text": "Miauw? (Heb je {{color id=\"1\"}}Mikey{{color id=\"65535\"}} al ontmoet op het plein?\nHij weet alles over {{color id=\"1\"}}uitrusting{{color id=\"65535\"}}!)"
  },
  {
    "label": "Tips_04",
    "text": "Prrr! (Druk op {{icon id=\"3\" arg=\"0x0000803F00000000\"}} om de {{color id=\"1\"}}standaardpositie{{color id=\"65535\"}} van\nde camera mauwtomatisch te herstellen.){{pageBreak}}({{color id=\"1\"}}Inkt schieten{{color id=\"65535\"}} en {{color id=\"1\"}}tegenstanders uitschakelen{{color id=\"65535\"}} is\nmakkelijker als je recht vooruit kijkt.){{pageBreak}}(Probeer het anders gewoon uit! Sloop het doel-\nwit terwijl je hem met {{icon id=\"3\" arg=\"0x0000803F00000000\"}} in het oog houdt!)"
  },
  {
    "label": "Tips_04_Trial",
    "text": "Tijd voor wat oefening! Richt en schiet met {{icon id=\"12\" arg=\"0x295C0F4005000000\"}}!\nJe kunt je {{color id=\"1\"}}camera centreren {{color id=\"65535\"}}met {{icon id=\"3\" arg=\"0x295C0F4005000000\"}}."
  },
  {
    "label": "Tips_05",
    "text": "Mauw! (Je kunt omhoog en omlaag drukken op\n{{icon id=\"4\" arg=\"0x0000803F00000000\"}} om {{color id=\"1\"}}signalen{{color id=\"65535\"}} naar je teamgenoten te sturen.){{pageBreak}}(Druk omlaag op {{icon id=\"4\" arg=\"0x0000803F00000000\"}} om een '{{color id=\"1\"}}Cool!{{color id=\"65535\"}}' te sturen.\nGebruik dit als je enthousiast bent over iets!){{pageBreak}}(Druk omhoog op {{icon id=\"4\" arg=\"0x0000803F00000000\"}} om een '{{color id=\"1\"}}Hierheen!{{color id=\"65535\"}}' te sturen,\nzodat je teamgenoten weten waar je bent!){{pageBreak}}(Als je wordt uitgeschakeld, verandert omhoog op\n{{icon id=\"4\" arg=\"0x0000803F00000000\"}} in '{{color id=\"1\"}}Auwie!{{color id=\"65535\"}}'){{pageBreak}}(Het sturen van signalen is geen garantie voor\nsucces, maar het verbetert wel de samenwerking!){{pageBreak}}(Stuur er maar eens een paar om te zien hoe\ndat gaat.)"
  },
  {
    "label": "Tips_05_Trial",
    "text": "Stuur drie {{color id=\"1\"}}signalen {{color id=\"65535\"}}met {{icon id=\"4\" arg=\"0x295C0F4005000000\"}}. Druk op {{icon id=\"14\" arg=\"0x295C0F4005000000\"}} voor \"Hierheen!\"\nof {{icon id=\"40\" arg=\"0x295C0F4005000000\"}} voor \"Cool!\""
  },
  {
    "label": "Tips_06",
    "text": "Mieuw! (Als je snel door inkt zwemt, veroorzaak\nje {{color id=\"1\"}}golfjes{{color id=\"65535\"}} die oplettende vijanden kunnen zien.){{pageBreak}}(Kantel daarom {{icon id=\"7\" arg=\"0x0000803F00000000\"}} voorzichtig om {{color id=\"1\"}}vijanden\nlangzaam te naderen en te overrompelen{{color id=\"65535\"}}!){{pageBreak}}(Er is een manier om onopgemerkt snel te zwemmen:\nmet uitrusting met het {{color id=\"1\"}}Ninja-inktvis{{color id=\"65535\"}}-effect!){{pageBreak}}(Je kunt nooit te stiekem zijn!)"
  },
  {
    "label": "Tips_06_Trial",
    "text": "Zwem {{color id=\"1\"}}zonder te spetteren{{color id=\"65535\"}} en breek de doelwitten! Beweeg\nvoorzichtig met {{icon id=\"7\" arg=\"0x5C8FC23F05000000\"}} om spetteren te voorkomen."
  },
  {
    "label": "Tips_07",
    "text": "Prrr! (Aan de pictogrammen bovenin kun\nje zien of er een team een overtal heeft.){{pageBreak}}(Wees voorzichtig als je team uitgedund is,\nen ga ervoor als je team de overhand heeft!)"
  },
  {
    "label": "Tips_08",
    "text": "Prrr... (Tijdens een gevecht is het handig om te\nweten of je de tegenstander eigenlijk wel raakt!){{pageBreak}}(Let daarom op het spettergeluid dat je hoort\nals een aanval succesvol was!){{pageBreak}}(Je kunt dit ook horen als je wapens test, dus\nprobeer het zeker een keertje uit!)"
  },
  {
    "label": "Tips_08_Trial",
    "text": "Let op de {{color id=\"1\"}}reactie{{color id=\"65535\"}} als je een doelwit raakt. Bij een voltreffer krijg\nje een mooi poppend geluid."
  },
  {
    "label": "Tips_09",
    "text": "Mauw! (Heb je de {{color id=\"1\"}}winkels{{color id=\"65535\"}} al bezocht? Nieuwe\n{{color id=\"1\"}}uitrusting{{color id=\"65535\"}} kan je helpen tijdens gevechten!){{pageBreak}}(Er zijn drie soorten uitrusting: {{color id=\"1\"}}accessoires{{color id=\"65535\"}},\n{{color id=\"1\"}}kleding{{color id=\"65535\"}} en {{color id=\"1\"}}schoenen{{color id=\"65535\"}}. Probeer ze allemaal!)"
  },
  {
    "label": "Tips_SpecialWeapon",
    "text": "Mauw... (Als je gebieden met inkt besproeit,\nwordt de {{color id=\"1\"}}meter van je speciale wapen{{color id=\"65535\"}} gevuld.){{pageBreak}}(Zodra hij vol is, kun je op {{icon id=\"8\" arg=\"0x0000803F00000000\"}} drukken om je\n{{color id=\"1\"}}speciale wapen{{color id=\"65535\"}} tevoorschijn te halen!){{pageBreak}}(De Trizooka is GEWELDIG om doelwitten mee\nkapot te maken. Moet je echt eens proberen!)"
  },
  {
    "label": "Tips_SpecialWeapon_Trial",
    "text": "Breek het doelwit met je {{color id=\"1\"}}speciale wapen{{color id=\"65535\"}}! Activeer je wapen door\nop {{icon id=\"8\" arg=\"0x5C8FC23F05000000\"}} te drukken en val vervolgens aan met {{icon id=\"12\" arg=\"0x295C0F4005000000\"}}."
  },
  {
    "label": "Tips_11",
    "text": "Miauw! (Druk op {{icon id=\"10\" arg=\"0x0000803F00000000\"}} om je {{color id=\"1\"}}subwapen{{color id=\"65535\"}} te\ngebruiken!){{pageBreak}}(Je kunt je team ermee helpen of inkt sproeien\nop plekken die je normaal niet kunt bereiken!){{pageBreak}}(Subwapens verbruiken overigens {{color id=\"1\"}}meer inkt{{color id=\"65535\"}} dan\ngewone wapens, dus hou je inkttank in de gaten.){{pageBreak}}(Meer info over een subwapen? Kies een wapen in het\n{{icon id=\"5\" arg=\"0x0000803F00000000\"}} uitrustingsscherm en druk twee keer op {{icon id=\"11\" arg=\"0x0000803F00000000\"}}.){{pageBreak}}(Of probeer ze uit op de schietbaan, dat is ook\nontzettend leerzaam!)"
  },
  {
    "label": "Tips_11_Trial",
    "text": "Breek het doelwit met je {{color id=\"1\"}}subwapen{{color id=\"65535\"}}! Druk op\n{{icon id=\"10\" arg=\"0x295C0F4005000000\"}} om een bom te gooien."
  },
  {
    "label": "Tips_12",
    "text": "Mauw! (De {{color id=\"1\"}}versheidsmeter{{color id=\"65535\"}} in het gevechtsmenu\nmeet je prrrestaties!){{pageBreak}}(De meter wordt gevuld als je een Grondoorlog\nwint, maar hij raakt leger als je er een verliest.){{pageBreak}}(De meter bepaalt ook de kleur van de vlag{{color id=\"1\"}}\nnaast elk wapen {{color id=\"65535\"}}in het {{icon id=\"5\" arg=\"0x0000803F00000000\"}} uitrustingsscherm.){{pageBreak}}(Zo kun je zien hoe goed je het met elk wapen\nhebt gedaan en nog beter proberen te worden!)"
  },
  {
    "label": "Tips_13",
    "text": "Mauw! (Zit je tijdens een gevecht zonder inkt?\nNeem een frisse duik in je eigen inkt met {{icon id=\"11\" arg=\"0x0000803F00000000\"}}!){{pageBreak}}(En dan nog een tip: als je {{color id=\"1\"}}rondzwemt{{color id=\"65535\"}} in de inkt,\n{{color id=\"1\"}}vul je de inkttank het snelst{{color id=\"65535\"}}!){{pageBreak}}(Probeer maar eens om wat doelwitten te\nvernielen en daarna pijlsnel je inkt bij te vullen!)"
  },
  {
    "label": "Tips_13_Trial",
    "text": "Breek doelwitten met bommen! Druk op {{icon id=\"10\" arg=\"0x295C0F4005000000\"}} om ze te gooien.\nHoud {{icon id=\"11\" arg=\"0x295C0F4005000000\"}} ingedrukt om te {{color id=\"1\"}}duiken en je inkt sneller bij te vullen{{color id=\"65535\"}}."
  },
  {
    "label": "Tips_14",
    "text": "Miauw! (Als je niet in een gevecht bent verwikkeld,\ndruk dan op {{icon id=\"2\" arg=\"0x0000803F00000000\"}} om het {{color id=\"1\"}}hoofdmenu{{color id=\"65535\"}} te openen.){{pageBreak}}(Kies {{color id=\"1\"}}OPTIES{{color id=\"65535\"}} om een aantal dingen naar wens aan\nte passen.){{pageBreak}}(Als de camera te snel beweegt of de inktkleuren\nmoeilijk zijn te onderscheiden, pas het dan aan!){{pageBreak}}(Over de camera gesproken: je kunt verschillende\ninstellingen gebruiken voor tv- en handheldstijl.)"
  },
  {
    "label": "Tips_15",
    "text": "Mauw! (Druk op {{icon id=\"2\" arg=\"0x0000803F00000000\"}} tijdens een gevecht om de\n{{color id=\"1\"}}kaart {{color id=\"65535\"}}te openen! Die is heel handig!){{pageBreak}}(Je kunt in 'n oogopslag zien welk gebied elk team\nheeft besproeid en je tactiek daarop aanpassen!){{pageBreak}}(Geloof je me niet? Druk dan maar eens op {{icon id=\"2\" arg=\"0x0000803F00000000\"}}\nen kijk wat er gebeurt!)"
  },
  {
    "label": "Tips_15_Trial",
    "text": "Vind het doelwit door de {{color id=\"1\"}}kaart{{color id=\"65535\"}} te openen\nmet {{icon id=\"2\" arg=\"0x295C0F4005000000\"}} en maak er korte metten mee!"
  },
  {
    "label": "Tips_16",
    "text": "Mauw! (Je kunt een {{color id=\"1\"}}supersprong{{color id=\"65535\"}} maken naar\neen teamgenoot.){{pageBreak}}(Open daarvoor de kaart, kies de teamgenoot\nmet {{icon id=\"4\" arg=\"0x0000803F00000000\"}} en druk dan op {{icon id=\"0\" arg=\"0x0000803F00000000\"}}.){{pageBreak}}(Supersprongen zijn heel handig om terug te\nkeren naar de frontlinie nadat je bent verslagen.){{pageBreak}}(Je kunt ook je controller kantelen om de\nteamgenoot te kiezen waar je naar wilt springen.){{pageBreak}}(En als er iemand uit je team een Springschotel\nheeft opgesteld, kun je daar ook heenspringen!)"
  },
  {
    "label": "Tips_16_Trial",
    "text": "Maak een {{color id=\"1\"}}supersprong{{color id=\"65535\"}} naar het doelwit en breek het. Open je kaart met\n{{icon id=\"2\" arg=\"0x295C0F4005000000\"}}, kies de {{color id=\"1\"}}Springschotel{{color id=\"65535\"}} en druk op {{icon id=\"0\" arg=\"0x295C0F4005000000\"}} voor een supersprong."
  },
  {
    "label": "Tips_17",
    "text": "Mauw! ({{color id=\"1\"}}Supersprongen{{color id=\"65535\"}} zijn praktisch, maar ook\nbest gevaarlijk...){{pageBreak}}({{color id=\"1\"}}Tegenstanders kunnen zien waar je landt{{color id=\"65535\"}} als je\neen supersprong uitvoert!){{pageBreak}}(Kijk dus eerst op de{{color id=\"1\"}} kaart {{color id=\"65535\"}}of je tegenstanders\nziet, voordat je het luchtruim kiest!)"
  },
  {
    "label": "Tips_18",
    "text": "Prrr! (Alle soorten uitrusting hebben bepaalde\neffecten, die je tijdens een gevecht helpen!){{pageBreak}}(Druk op {{icon id=\"2\" arg=\"0x0000803F00000000\"}} om het hoofdmenu te openen en\nkies {{color id=\"1\"}}EFFECTEN {{color id=\"65535\"}}in de tab {{color id=\"1\"}}SPELER{{color id=\"65535\"}}.)"
  },
  {
    "label": "Tips_19",
    "text": "Prrr! (Druk op {{icon id=\"5\" arg=\"0x0000803F00000000\"}} om het {{color id=\"1\"}}uitrustingsscherm{{color id=\"65535\"}}\nte openen.){{pageBreak}}(In het uitrustingsscherm kun je je wapens,\nuitrusting en de besturing wijzigen.){{pageBreak}}(Je zult vaak van wapens en uitrusting wisselen,\ndus onthoud: aanpassingen maak je via {{icon id=\"5\" arg=\"0x0000803F00000000\"}}!)"
  },
  {
    "label": "Tips_22",
    "text": "Mauwww! (Als je een stuk uitrusting vaak\ngebruikt, verhoogt het niveau ervan.){{pageBreak}}(Je uitrusting krijgt daardoor {{color id=\"1\"}}extra effecten{{color id=\"65535\"}}!){{pageBreak}}(Die zijn zwakker dan het normale effect, maar de\nverschillende combinaties kunnen heel handig zijn.){{pageBreak}}(Je weet echter pas wat de nieuwe effecten zijn\nzodra het niveau van de uitrusting is verhoogd...){{pageBreak}}(Dus je kunt uitrusting met verschillende effecten\nkrijgen, om in allerlei situaties in te zetten!)"
  },
  {
    "label": "Tips_23",
    "text": "Miauw! (Heb je al {{color id=\"1\"}}effectfragmenten{{color id=\"65535\"}}?){{pageBreak}}(Als je effecten verwijdert of omwisselt, vallen\nze uiteen in zogenaamde effectfragmenten.){{pageBreak}}(Je kunt fragmenten weer combineren tot\neffecten en deze aan je uitrusting toevoegen.){{pageBreak}}(Vraag het anders eens aan {{color id=\"1\"}}Mikey {{color id=\"65535\"}}op het plein.\nHij kan je er alles over vertellen!)"
  },
  {
    "label": "Tips_24",
    "text": "Mauw! (Probeer zoveel mogelijk verschillende\neffecten te combineren voor het beste resultaat.){{pageBreak}}(De effectiviteit neemt af als je veel effecten van\ndezelfde soort gebruikt.)"
  },
  {
    "label": "Tips_25",
    "text": "Mieuw! (Heb je weleens moeite met richten of\nvan richting veranderen?){{pageBreak}}(Verander van richting met {{icon id=\"8\" arg=\"0x0000803F00000000\"}}, of kantel\nde controller om nauwkeuriger te richten!){{pageBreak}}(Ik heb wel een paar doelwitten voor je\nwaar je mee kunt oefenen...)"
  },
  {
    "label": "Tips_25_Trial",
    "text": "Oefen op doelwitten! Richt door {{icon id=\"8\" arg=\"0x5C8FC23F05000000\"}} te\nbewegen of je controller te kantelen."
  },
  {
    "label": "Tips_26",
    "text": "Mauw! (Als je niet zelf aanvalt, kun je je beter\nverborgen houden met {{icon id=\"11\" arg=\"0x0000803F00000000\"}}!){{pageBreak}}(Hierdoor kunnen je tegenstanders je minder goed\nzien en wordt je inkttank veel sneller gevuld!)"
  },
  {
    "label": "Tips_27",
    "text": "Mauw! (Vergeet niet dat je {{color id=\"1\"}}niet in water kunt\nzwemmen {{color id=\"65535\"}}en dat je inkt erin oplost!){{pageBreak}}(Best gek, hè? Wees in elk geval voorzichtig in\nde buurt van water, oké?)"
  },
  {
    "label": "Tips_28",
    "text": "Mrauw! (Gebruik je {{icon id=\"2\" arg=\"0x0000803F00000000\"}} weleens om op de {{color id=\"1\"}}kaart{{color id=\"65535\"}} te\nkijken?){{pageBreak}}(Nadat je bent uitgeschakeld, is het een goed idee\nom de kaart te raadplegen!){{pageBreak}}(Ga naar een gebied met minder tegenstanders,\nof maak een supersprong naar een teamgenoot!)"
  },
  {
    "label": "Tips_29",
    "text": "Miauwww! (Als je met {{icon id=\"11\" arg=\"0x0000803F00000000\"}} naar de zwemvorm\nwisselt, kun je door hekken en roosters glippen.){{pageBreak}}(De aanvallen van je hoofdwapen gaan ook\ndoor ze heen. Handig, hè?){{pageBreak}}(Er zijn hier vast wel een paar roosters\nwaar je deze techniek mee kunt oefenen...)"
  },
  {
    "label": "Tips_29_Trial",
    "text": "Glip door een rooster door {{icon id=\"11\" arg=\"0x295C0F4005000000\"}} ingedrukt\nte houden en breek het doelwit!"
  },
  {
    "label": "Tips_30",
    "text": "Prrr! (Als je wordt verslagen, zal de {{color id=\"1\"}}meter van\nje speciale wapen{{color id=\"65535\"}} een beetje teruglopen.){{pageBreak}}(Hoe voller de meter, hoe meer je verliest als je\nwordt verslagen!){{pageBreak}}(Gebruik je speciale wapen dus voordat dat\ngebeurt, maar wees wel bedachtzaam.){{pageBreak}}(Gebruik het niet te pas en te onpas, maar\nprobeer te wachten op de perfecte gelegenheid!)"
  },
  {
    "label": "Tips_31",
    "text": "Mauw! (Druk op {{icon id=\"11\" arg=\"0x0000803F00000000\"}} om in je zwemvorm op geverfde\nmuren te klimmen en op {{icon id=\"1\" arg=\"0x0000803F00000000\"}} om snel te klimmen!)"
  },
  {
    "label": "Tips_32",
    "text": "Mauw! (Bij {{color id=\"1\"}}Spetterzones{{color id=\"65535\"}} is het de bedoeling\nom te heersen over alle Spetterzones!){{pageBreak}}(Het is belangrijk om geen zones te verliezen,\nmaar nóg belangrijker om zones te veroveren!){{pageBreak}}(Begeef je nooit in je eentje op vijandelijk gebied.\n{{color id=\"1\"}}Val altijd aan als team van vier{{color id=\"65535\"}}!)"
  },
  {
    "label": "Tips_33",
    "text": "Mauw! (Bij {{color id=\"1\"}}Torentwist{{color id=\"65535\"}} is het de bedoeling om de\ntoren in het doel van de tegenstander te krijgen.){{pageBreak}}(Ruim zoveel mogelijk tegenstanders uit de weg om\nde toren vrije doorgang te verschaffen.)"
  },
  {
    "label": "Tips_34",
    "text": "Mauw! (Bij {{color id=\"1\"}}Bazookarper{{color id=\"65535\"}} moet je de Bazookarper\nnaar het doel van de tegenstander brengen.){{pageBreak}}(Ga er eerst mee naar het {{color id=\"1\"}}checkpoint{{color id=\"65535\"}} en\nbreek door om het doel te bereiken.){{pageBreak}}(De Bazookarper is wel een krachtig wapen, maar\nzwak tegen tegenstanders die dichtbij zijn.){{pageBreak}}(Om een pad te banen is er teamwork nodig.)"
  },
  {
    "label": "Tips_35",
    "text": "Mrauw! ({{color id=\"1\"}}Klodderbommen {{color id=\"65535\"}}zijn de klassiekers\nonder de subwapens.){{pageBreak}}(De ontploftijd hangt af van het contact met de\ngrond. Ze ontploffen sneller als je ze rolt.){{pageBreak}}(Probeer maar eens uit hoeveel doelwitten\ntegelijk je met Klodderbommen kunt stukmaken!)"
  },
  {
    "label": "Tips_35_Trial",
    "text": "Breek de doelwitten met een {{color id=\"1\"}}Klodderbom{{color id=\"65535\"}}! Druk op {{icon id=\"10\" arg=\"0x295C0F4005000000\"}} om een\nbom te gooien. De bom zal kort nadat hij neerkomt ontploffen."
  },
  {
    "label": "Tips_36",
    "text": "Prrr! ({{color id=\"1\"}}Kleefbommen{{color id=\"65535\"}} bevestigen zich aan de grond\nof aan muren.){{pageBreak}}(Ze ontploffen iets langzamer dan andere bommen,\nmaar hun bereik is groter.){{pageBreak}}(Laat er maar eens wat doelwitten mee in de\nlucht vliegen. Dolle pret!)"
  },
  {
    "label": "Tips_36_Trial",
    "text": "Breek de doelwitten met een {{color id=\"1\"}}Kleefbom{{color id=\"65535\"}}! Druk op {{icon id=\"10\" arg=\"0x295C0F4005000000\"}} om de bom\nte gooien. Deze bom blijft aan muren of de grond plakken."
  },
  {
    "label": "Tips_37",
    "text": "Mieuw! ({{color id=\"1\"}}Ballonbommen{{color id=\"65535\"}} ontploffen als ze iets\nanders aanraken.){{pageBreak}}(Heel krachtig zijn ze niet, maar ze kosten weinig\ninkt, dus je kunt er twee achter elkaar gooien.){{pageBreak}}(Maar genoeg geleuterd. Help er maar eens een\ndoelwit mee naar de haaien!)"
  },
  {
    "label": "Tips_37_Trial",
    "text": "Breek het doelwit met {{color id=\"1\"}}Ballonbommen{{color id=\"65535\"}}! Druk op {{icon id=\"10\" arg=\"0x295C0F4005000000\"}} om er een te\ngooien. Een Ballonbom ontploft zodra hij de grond of een muur raakt."
  },
  {
    "label": "Tips_38",
    "text": "Mauw! ({{color id=\"1\"}}Curlingbommen{{color id=\"65535\"}} zijn bommen die over\nde grond glijden en van muren afketsen.){{pageBreak}}(Door {{icon id=\"10\" arg=\"0x0000803F00000000\"}} ingedrukt te houden kun je ze eerder\nlaten ontploffen na het loslaten.){{pageBreak}}(Nadat je ze hebt gegooid, kun je door het\ninktspoor erachteraan zwemmen.){{pageBreak}}(Curlingbommen vereisen een bepaalde handigheid\nin het gebruik, dus oefen eens op de doelwitten!)"
  },
  {
    "label": "Tips_38_Trial",
    "text": "Breek de doelwitten met {{color id=\"1\"}}Curlingbommen{{color id=\"65535\"}}! Druk op {{icon id=\"10\" arg=\"0x295C0F4005000000\"}} om een\nbom te schuiven. De bom schuift minder ver als je langer drukt."
  },
  {
    "label": "Tips_39",
    "text": "Miauw! (De {{color id=\"1\"}}Detector {{color id=\"65535\"}}is het ideale instrument om\nverborgen tegenstanders op te sporen.){{pageBreak}}(Als je inkt markeert met dit subwapen, krijg je\nte zien of er zich tegenstanders in verstoppen.){{pageBreak}}(Je teamgenoten krijgen de tegenstanders\nook te zien, dus markeer er flink op los!){{pageBreak}}(Het effect van de Detector houdt een tijdje aan,\ndus probeer niet zelf gemarkeerd te worden!){{pageBreak}}(Dat is wel genoeg uitleg, oefen er maar eens\nmee!)"
  },
  {
    "label": "Tips_39_Trial",
    "text": "Gooi drie {{color id=\"1\"}}Detectoren{{color id=\"65535\"}}. Druk op {{icon id=\"10\" arg=\"0x295C0F4005000000\"}} om er een te gooien\nen er doelwitten mee te markeren."
  },
  {
    "label": "Tips_46",
    "text": "Mauw! (Met {{color id=\"1\"}}Inktmijnen{{color id=\"65535\"}} kun je een val zetten\nvoor je tegenstanders.){{pageBreak}}(Ze ontploffen als er een dichtbij komt. Daarbij\nwordt de tegenstander ook {{color id=\"1\"}}gemarkeerd{{color id=\"65535\"}}.){{pageBreak}}(Je kunt maximaal twee Inktmijnen tegelijk\nplaatsen.){{pageBreak}}(Plaats ze bij voorkeur ergens waar\ntegenstanders langskomen.){{pageBreak}}(Probeer er maar eens een paar uit!)"
  },
  {
    "label": "Tips_46_Trial",
    "text": "Plaats drie {{color id=\"1\"}}Inktmijnen{{color id=\"65535\"}} met {{icon id=\"10\" arg=\"0x295C0F4005000000\"}}. De mijnen zullen ontploffen als\ner een doelwit in de buurt komt."
  },
  {
    "label": "Tips_54",
    "text": "Mauw! (De {{color id=\"1\"}}Springschotel{{color id=\"65535\"}} zendt een signaal uit\nwaar je team naartoe kan superspringen.){{pageBreak}}(Plaats er bijvoorbeeld eentje bij de frontlinie om\nze daarnaartoe te laten springen.){{pageBreak}}(Let goed op waar je tegenstanders Springschotels\nplaatsen, en maak ze onschadelijk!){{pageBreak}}(Plaats er maar een paar om ze in actie te zien!)"
  },
  {
    "label": "Tips_54_Trial",
    "text": "Plaats een {{color id=\"1\"}}Springschotel {{color id=\"65535\"}}met {{icon id=\"10\" arg=\"0x295C0F4005000000\"}}! Open dan de kaart met\n{{icon id=\"2\" arg=\"0x295C0F4005000000\"}}, kies de schotel en druk op {{icon id=\"0\" arg=\"0x295C0F4005000000\"}}! Oefen dit drie keer."
  },
  {
    "label": "Tips_40",
    "text": "Prrr! (Het {{color id=\"1\"}}Inktgordijn{{color id=\"65535\"}} is een subwapen waarmee je\neen beschermende muur van inkt kunt optrekken!){{pageBreak}}(De inkt van je tegenstanders komt er niet\ndoorheen, maar die van je team wel.){{pageBreak}}(Het is handig in de frontlinie, maar het duurt\neventjes voordat het is opgebouwd. Kijk dus uit!){{pageBreak}}(Plaats hier maar eens een Inktgordijn voordat je\nhet in een echt gevecht demonstreert!)"
  },
  {
    "label": "Tips_40_Trial",
    "text": "Gebruik {{icon id=\"10\" arg=\"0x295C0F4005000000\"}} om drie {{color id=\"1\"}}Inktgordijnen{{color id=\"65535\"}} te plaatsen\nals verdedigingsmuren van inkt."
  },
  {
    "label": "Tips_41",
    "text": "Mrauw! ({{color id=\"1\"}}Gifmist{{color id=\"65535\"}} is een subwapen dat een voor\ntegenstanders hinderlijke wolk veroorzaakt.){{pageBreak}}(In zo'n wolk is het moeilijker om te bewegen en \nraakt hun inkt langzaam op.){{pageBreak}}(Hoe langer tegenstanders in de wolk blijven, des\nte meer inkt ze kwijtraken.){{pageBreak}}(Je kunt de Gifmist hier uitproberen als je dat\nwilt!)"
  },
  {
    "label": "Tips_41_Trial",
    "text": "Gebruik {{icon id=\"10\" arg=\"0x295C0F4005000000\"}} om drie wolken {{color id=\"1\"}}Gifmist{{color id=\"65535\"}} los te laten.\nTegenstanders die in de mist zijn, bewegen zich trager."
  },
  {
    "label": "Tips_42",
    "text": "Mauw! ({{color id=\"1\"}}Robobommen {{color id=\"65535\"}}volgen tegenstanders\nautomatisch.){{pageBreak}}(Ze sporen tegenstanders op waar ze landen, en\ngaan vervolgens naar de dichtstbijzijnde.){{pageBreak}}(Als tegenstanders zich verbergen, gebruik deze\nbommen dan om ze tevoorschijn te laten komen.){{pageBreak}}(Robobommen zijn echt technische wondertjes,\ndus. Sloop er eens een paar doelwitten mee!)"
  },
  {
    "label": "Tips_42_Trial",
    "text": "Breek de doelwitten met {{color id=\"1\"}}Robobommen{{color id=\"65535\"}}! Druk op {{icon id=\"10\" arg=\"0x295C0F4005000000\"}} om de bom \nte gooien. Deze bom zoekt een doelwit in de buurt voordat hij ontploft."
  },
  {
    "label": "Tips_43",
    "text": "Miauw! ({{color id=\"1\"}}Spetterraketten{{color id=\"65535\"}} maken korte metten\nmet de tegenstanders die je in het vizier krijgt!){{pageBreak}}(Als ze dicht genoeg bij elkaar staan, kun je\nmisschien wel het hele team te grazen nemen!){{pageBreak}}(De locatie van tegenstanders die je in het vizier\nkrijgt, blijft een tijdje zichtbaar.){{pageBreak}}(Speel er eens mee. Vuur wat Spetterraketten\nop de doelwitten af!)"
  },
  {
    "label": "Tips_43_Trial",
    "text": "Breek de doelwitten met {{color id=\"1\"}}Spetterraketten{{color id=\"65535\"}}! Druk op {{icon id=\"8\" arg=\"0x5C8FC23F05000000\"}} om ze\nte activeren, neem doelwitten in het vizier en vuur dan met {{icon id=\"12\" arg=\"0x295C0F4005000000\"}}."
  },
  {
    "label": "Tips_48",
    "text": "Mauw! (Met de {{color id=\"1\"}}Inktjet{{color id=\"65535\"}} kun je raketten afvuren\nen omhoog vliegen!){{pageBreak}}(De raketten ontploffen als ze iets of iemand\nraken. Mik op de voeten van je tegenstanders!){{pageBreak}}(Dit doe je door ze vliegend van bovenaf te\nbestoken. Je bent zo wel een makkelijkere prooi.){{pageBreak}}(Vlieg snel omhoog met {{icon id=\"1\" arg=\"0x0000803F00000000\"}} en omlaag met {{icon id=\"11\" arg=\"0x0000803F00000000\"}},\nzodat tegenstanders je moeilijker kunnen raken.){{pageBreak}}(Dat was een heel verhaal, maar het is echt niet\nmoeilijk. Probeer hem eens uit op de doelwitten!)"
  },
  {
    "label": "Tips_48_Trial",
    "text": "Breek de doelwitten met een {{color id=\"1\"}}Inktjet{{color id=\"65535\"}}! Druk op {{icon id=\"8\" arg=\"0x5C8FC23F05000000\"}} om hem te\nactiveren, richt op de basis van een doelwit en vuur met {{icon id=\"12\" arg=\"0x295C0F4005000000\"}}."
  },
  {
    "label": "Tips_50",
    "text": "Mauw! (De {{color id=\"1\"}}Spetterbui{{color id=\"65535\"}} is een speciaal wapen dat\neen regenwolk van inkt veroorzaakt.){{pageBreak}}(Je kunt een wolk maken met {{icon id=\"10\" arg=\"0x0000803F00000000\"}}. Er valt inkt uit\nterwijl hij zich langzaam naar voren beweegt.){{pageBreak}}(Als je in een Spetterbui terechtkomt, loop je\nschade op. Maak je dus snel uit de voeten!){{pageBreak}}(Laat het maar eens pijpenstelen gieten op de\ndoelwitten hier!)"
  },
  {
    "label": "Tips_50_Trial",
    "text": "Laat een {{color id=\"1\"}}Spetterbui{{color id=\"65535\"}} los! Druk op {{icon id=\"8\" arg=\"0x5C8FC23F05000000\"}} om je wapen te pakken\nen vervolgens op {{icon id=\"10\" arg=\"0x295C0F4005000000\"}} om een gevaarlijke regenwolk te maken."
  },
  {
    "label": "Tips_53",
    "text": "Mauw! (De {{color id=\"1\"}}Inktsprinkler{{color id=\"65535\"}} is een subwapen dat inkt\nrondsproeit.){{pageBreak}}(Hij blijft sproeien, ook als je er niet bij blijft, dus\nhij is ideaal om strategische plekken te bewaken.){{pageBreak}}(Je moet hem regelmatig vervangen, want hij\nwordt na verloop van tijd steeds zwakker.){{pageBreak}}(Inktsprinklers zijn echt reuzehandig!\nProbeer er maar eens een uit.)"
  },
  {
    "label": "Tips_53_Trial",
    "text": "Plaats drie {{color id=\"1\"}}Inktsprinklers{{color id=\"65535\"}}. Druk op {{icon id=\"10\" arg=\"0x295C0F4005000000\"}} om er een te gooien.\nDe Inktsprinkler gaat bij gebruik inkt in het rond sproeien."
  },
  {
    "label": "Tips_55",
    "text": "Mauw! (Je {{color id=\"1\"}}rang{{color id=\"65535\"}} is gebaseerd op de rangpunten\ndie je verdient in chaosgevechten.{{pageBreak}}(Chaosgevechten zijn er in allerlei stijlen, zoals\nSpetterzone, Torentwist, en Bazookarper.){{pageBreak}}(Als je in het Knokpotmenu op {{icon id=\"6\" arg=\"0x0000803F00000000\"}} drukt, kun je\neen uitleg lezen over iedere vechtstijl!)"
  },
  {
    "label": "Tips_56",
    "text": "Mauw! (Wist je dat er heel veel verschillende\n{{color id=\"1\"}}merken{{color id=\"65535\"}} uitrusting zijn?){{pageBreak}}(Ieder merk biedt modekenners een eigen stijl en\neen uniek ontwerp.){{pageBreak}}(Sommige merken geven je bovendien eenvoudiger\nbepaalde effecten dan andere merken.){{pageBreak}}(Met drankjes van de Bikbalie is het ook makkelijker\nom een effect te krijgen, ongeacht het merk.)"
  },
  {
    "label": "Tips_57",
    "text": "Mauw! ({{color id=\"1\"}}Spetters {{color id=\"65535\"}}zoals de Superspetter zijn\nhoofdwapens die je gewoon richt en vuurt.){{pageBreak}}(Om er bedreven mee te worden moet je leren\nrichten en weten wanneer je schot raak is.){{pageBreak}}(Als je de vijand in het vizier hebt, zal er een\n{{icon id=\"38\" arg=\"0x0000803F00000000\"}} worden weergegeven.){{pageBreak}}(Wacht totdat je dit symbool ziet voordat je met\n{{icon id=\"12\" arg=\"0x0000803F00000000\"}} de trekker overhaalt.){{pageBreak}}(Als je een tegenstander raakt, zou je dat\nduidelijk moeten merken.){{pageBreak}}(Maar juich niet te vroeg. Ga door met schieten\nen blijf je tegenstander raken!)"
  },
  {
    "label": "Tips_58",
    "text": "Miauw! ({{color id=\"1\"}}Inktgordijnen {{color id=\"65535\"}}en {{color id=\"1\"}}Joekelschilden{{color id=\"65535\"}} kunnen\nverhinderen dat je inkt de vijand raakt.){{pageBreak}}(Als je ze echter raakt met een {{color id=\"1\"}}Klodderbom{{color id=\"65535\"}} of\n{{color id=\"1\"}}Kleefbom{{color id=\"65535\"}}, zal die bom meteen ontploffen.){{pageBreak}}(Leg tegenstanders achter een Inktgordijn de\ninkt aan de schenen. Wees ze te slim af!){{pageBreak}}(Pas echter wel goed op als je zelf achter een\nInktgordijn schuilt.)"
  },
  {
    "label": "Tips_58_Trial",
    "text": "Breek de doelwitten met {{color id=\"1\"}}Kleefbommen{{color id=\"65535\"}}! Druk op {{icon id=\"10\" arg=\"0x295C0F4005000000\"}} om een bom\nte gooien. De bommen ontploffen als ze een Inktgordijn raken."
  },
  {
    "label": "Tips_59",
    "text": "Mauw? (Ben je al bij de {{color id=\"1\"}}winkel{{color id=\"65535\"}} in de lobby\ngeweest?){{pageBreak}}(Het {{color id=\"1\"}}eten{{color id=\"65535\"}} en {{color id=\"1\"}}drinken{{color id=\"65535\"}} dat ze daar verkopen,\nverhoogt je {{color id=\"1\"}}ervarings- {{color id=\"65535\"}}en {{color id=\"1\"}}geldinkomsten{{color id=\"65535\"}}.){{pageBreak}}(Zorg wel dat je genoeg {{color id=\"1\"}}coupons{{color id=\"65535\"}} hebt, anders\nkun je niets te schaften aanschaffen!)"
  },
  {
    "label": "Tips_60",
    "text": "Mauw. (Als je benieuwd bent hoe vers je eruitziet\nop het slagveld, kun je dat in de lobbyterminal zien.){{pageBreak}}(Daar kun je de {{color id=\"1\"}}herhalingen{{color id=\"65535\"}} terugkijken van een\nhoop van je gevechten.){{pageBreak}}(Je kunt ook herhalingen van anderen bekijken\ndoor een {{color id=\"1\"}}herhalingscode in te voeren{{color id=\"65535\"}}.){{pageBreak}}(Hopelijk helpt dit om aan je speelstijl te werken\nen successen uit het verleden te herhalen!)"
  },
  {
    "label": "Tips_61",
    "text": "Mieuw? (Raak je tijdens een gevecht weleens\nde weg kwijt?){{pageBreak}}(Ga dan op een rustig moment eens ongestoord\nop {{color id=\"1\"}}verkenning {{color id=\"65535\"}}uit in de levels.){{pageBreak}}(Praat met de {{color id=\"1\"}}gids {{color id=\"65535\"}}op het plein om een\nverkenningstocht naar een level te maken!)"
  },
  {
    "label": "Tips_62",
    "text": "Mauw. (Ben je benieuwd wat die ★ betekent naast\nje uitrusting? Die geeft de zeldzaamheid aan.){{pageBreak}}(Uitrusting met 3 ★ heeft {{color id=\"1\"}}3 extra effecten{{color id=\"65535\"}}. Hoe\nmeer effecten, hoe beter!){{pageBreak}}(Let goed op in de winkels of je voorwerpen\ntegenkomt die al een hoge zeldzaamheid hebben.){{pageBreak}}(Je kunt {{color id=\"1\"}}uitrusting die je al hebt ook opnieuw\nkopen{{color id=\"65535\"}}, om dat er een ★ bij te geven!){{pageBreak}}({{color id=\"1\"}}Mikey{{color id=\"65535\"}} weet hier meer over, dus ga naar hem toe op\nhet plein voor informatie over je fraaie uitrusting!)"
  },
  {
    "label": "Tips_63",
    "text": "Mauw. (Elk wapen heeft een {{color id=\"1\"}}wapenniveau{{color id=\"65535\"}}, dat\nstijgt zolang je het wapen blijft gebruiken.){{pageBreak}}(Het verbeteren ervan levert bonussen op, zoals\n{{color id=\"1\"}}Krabbert-vergunningen{{color id=\"65535\"}}, stickers en badges!){{pageBreak}}(Met stickers en badges kun je iedereen laten\nzien welke wapens je het liefst gebruikt.)"
  },
  {
    "label": "Tips_64",
    "text": "Mauw? (Wist je dat je je {{color id=\"1\"}}profiel{{color id=\"65535\"}} kunt aanpassen\nals je in de lobbyterminal bent?){{pageBreak}}(Kies een {{color id=\"1\"}}achtergrond{{color id=\"65535\"}}, {{color id=\"1\"}}badges{{color id=\"65535\"}} en een {{color id=\"1\"}}titel{{color id=\"65535\"}} \nom je persoonlijke stijl te laten zien.){{pageBreak}}(Badges krijg je als je speciale taken doet. Titels\nkun je uit de {{color id=\"1\"}}catalogus{{color id=\"65535\"}} en de {{color id=\"1\"}}Prijzenpot{{color id=\"65535\"}} krijgen.)"
  },
  {
    "label": "Tips_65",
    "text": "Mauw! (Vergeet niet om {{color id=\"1\"}}je kluisje{{color id=\"65535\"}} in te richten\nmet stickers en versieringen!){{pageBreak}}(Je vindt {{color id=\"1\"}}de kluisjes{{color id=\"65535\"}} in de lobby. Met versieringen\nspringt je kluisje veel meer in het oog bij anderen!){{pageBreak}}(Je kunt ook de kluisjes van anderen bekijken en\nanderen laten weten welke je '{{color id=\"1\"}}Cool!{{color id=\"65535\"}}' vindt.)"
  },
  {
    "label": "Tips_66",
    "text": "Mauw? (Wil je een {{color id=\"1\"}}muurboost{{color id=\"65535\"}} doen? Zwem tegen een\nmuur op met {{icon id=\"1\" arg=\"0x0000803F00000000\"}} ingedrukt, en laat los voor actie!){{pageBreak}}(Met een muurboost kun je snel tegen een muur op\ngaan om je tegenstander te verrassen.){{pageBreak}}(Als je de tijd hebt, raad ik je aan om je muurboost\neven te oefenen.)"
  },
  {
    "label": "Tips_66_Trial",
    "text": "{{color id=\"1\"}}Muurboost {{color id=\"65535\"}}tegen een muur op en breek het doelwit. Zwem tegen de muur\nop met {{icon id=\"11\" arg=\"0x295C0F4005000000\"}}, houd {{icon id=\"1\" arg=\"0x295C0F4005000000\"}} ingedrukt en laat los voor de muurboost!"
  },
  {
    "label": "Tips_67",
    "text": "Mauw! (Je kunt tijdens het zwemmen een {{color id=\"1\"}}inktrol{{color id=\"65535\"}} doen\ndoor tegen te sturen met {{icon id=\"7\" arg=\"0xCDCC4C3F00000000\"}} en op {{icon id=\"1\" arg=\"0x0000803F00000000\"}} te drukken!){{pageBreak}}(Dit is de perfecte manoeuvre voor als\ner ineens een bom voor je snufferd valt.){{pageBreak}}(Je kunt ook een inktrol op een muur uitvoeren.\nBeweeg {{icon id=\"7\" arg=\"0xCDCC4C3F00000000\"}} weg van de muur en druk op {{icon id=\"1\" arg=\"0x0000803F00000000\"}}.){{pageBreak}}(Met een inktrol van een muur af kun je vijanden\nverrassen. Dat zullen ze {{size value=\"65\"}}bijna{{size value=\"100\"}} nooit zien aankomen!){{pageBreak}}(Als ik jou was, zou ik constant mijn inktrollen\noefenen! Als je er de puf voor hebt, natuurlijk.)"
  },
  {
    "label": "Tips_67_Trial",
    "text": "Doe een {{color id=\"1\"}}inktrol{{color id=\"65535\"}} en breek het doelwit! Zwem tegen een muur op,\nbeweeg {{icon id=\"7\" arg=\"0x5C8FC23F05000000\"}} terug en druk snel op {{icon id=\"1\" arg=\"0x295C0F4005000000\"}} voor een inktrol."
  },
  {
    "label": "Tips_68",
    "text": "Mauw. (Aan het begin van elk gevecht word je\n{{color id=\"1\"}}de strijd in geschoten{{color id=\"65535\"}} door je {{color id=\"1\"}}mobiele basis{{color id=\"65535\"}}.){{pageBreak}}(Beweeg je controller om je landingsplek te kiezen\nen stuur dan je vluchttraject bij met {{icon id=\"7\" arg=\"0xCDCC4C3F00000000\"}}.){{pageBreak}}(Als je wordt uitgeschakeld, keer je terug naar je\nmobiele basis. Druk daarin op {{icon id=\"12\" arg=\"0x0000803F00000000\"}} voor lancering!){{pageBreak}}(Je kunt ook je kaart openen en daarop een plek\nkiezen als je liever terugkeert met een supersprong!)"
  },
  {
    "label": "Tips_69",
    "text": "Mauw! (Je niveau rijst de pan uit! Heb je trek\nom je aan een paar {{color id=\"1\"}}chaosgevechten{{color id=\"65535\"}} te wagen?){{pageBreak}}(Chaosgevechten zijn waar serieuze spelers\ner een serieuze kliederboel van maken.){{pageBreak}}(Neem maar eens een kijkje in de {{color id=\"1\"}}Knokpot{{color id=\"65535\"}} en\ndruk daar op {{icon id=\"6\" arg=\"0x0000803F00000000\"}} voor meer informatie. Succes!)"
  },
  {
    "label": "Tips_70",
    "text": "Mieuw! (Hier is een tip: ga op {{color id=\"1\"}}verkenning {{color id=\"65535\"}}uit\nvoordat je je in een chaosgevecht stort!{{pageBreak}}(Laat de gids weten om welke {{color id=\"1\"}}vechtstijl{{color id=\"65535\"}} het bij\nde verkenning moet gaan.){{pageBreak}}(Het level kan door de vechtstijl veranderen.\nVerken het om niet voor verrassingen te staan!)"
  },
  {
    "label": "Tips_71",
    "text": "Mauw. (De {{color id=\"1\"}}Ketskogel {{color id=\"65535\"}}is een subwapen dat in een\nrechte lijn schiet en een lang spoor achterlaat.){{pageBreak}}(Maar het leuke aan dit wapen is natuurlijk dat de\nschoten van muren of de grond afketsen!){{pageBreak}}(Zowel het schot als het spoor kunnen tegenstanders\nmarkeren. En het schot doet ook redelijk wat pijn.){{pageBreak}}(Probeer eens wat schoten de hoek om te kaatsen\nom tegenstanders te onthullen voor je team!){{pageBreak}}(Je kunt de Ketskogel hier proberen. Ik kijk wel even\nweg, want bewegende vlekjes op muren maken me wild.)"
  },
  {
    "label": "Tips_71_Trial",
    "text": "Gebruik de {{color id=\"1\"}}Ketskogel{{color id=\"65535\"}} om drie lijnen te maken! Druk op {{icon id=\"10\" arg=\"0x295C0F4005000000\"}} om\neen lijn te maken die schade aanricht en doelwitten markeert."
  },
  {
    "label": "Tips_72",
    "text": "Mauw. (De {{color id=\"1\"}}Trizooka{{color id=\"65535\"}} is een speciaal wapen dat drie\nsterke schoten afvuurt die naar hun doelwit cirkelen.){{pageBreak}}(Druk op {{icon id=\"8\" arg=\"0xCDCC4C3F00000000\"}} om het tijdelijk te pakken. Je kunt\nop dat moment drie keer schieten met {{icon id=\"12\" arg=\"0x0000803F00000000\"}}.){{pageBreak}}(Omdat de Trizooka in een boog schiet, kun je\ntegenstanders van ver raken door hoger te richten.){{pageBreak}}(Als je wilt, kun je hier oefenen met de Trizooka\nen een paar doelwitten aan stukken schieten.)"
  },
  {
    "label": "Tips_72_Trial",
    "text": "Gebruik de {{color id=\"1\"}}Trizooka{{color id=\"65535\"}} om de doelwitten te breken! Druk op {{icon id=\"8\" arg=\"0x5C8FC23F05000000\"}}\nvoor activering en schiet dan met {{icon id=\"12\" arg=\"0x295C0F4005000000\"}}. Je kunt drie keer schieten."
  },
  {
    "label": "Tips_73",
    "text": "Mauw. (Het {{color id=\"1\"}}Joekelschild{{color id=\"65535\"}} is een speciaal wapen\nwaarmee je jezelf en je team kunt beschermen.){{pageBreak}}(Het schild houdt inkt en bommen tegen, maar\neen tegenstander kan er gewoon doorheen lopen!){{pageBreak}}(De zwakke plekken van een Joekelschild zijn het\napparaat binnenin en het bovenste punt.){{pageBreak}}(Als je niet snapt waar ik het over heb, raad ik\nje aan om nu gelijk een Joekelschild te proberen.)"
  },
  {
    "label": "Tips_73_Trial",
    "text": "Druk op {{icon id=\"8\" arg=\"0x5C8FC23F05000000\"}} om een {{color id=\"1\"}}Joekelschild{{color id=\"65535\"}} te plaatsen. Het schild\nbeschermt tegen inktaanvallen."
  },
  {
    "label": "Tips_74",
    "text": "Mauw. (Met de {{color id=\"1\"}}Megalofoon 5.1 {{color id=\"65535\"}}kunnen wel drie doelen\nonder schot gehouden en beschoten worden.){{pageBreak}}(De lasers kunnen zelfs door muren schieten,\ndus verstoppen is zinloos!){{pageBreak}}(De modules vuren met tussenpozen, dus zorg dat\nje tussendoor zelf ook tegenstanders opjaagt!){{pageBreak}}(Als ik jou was zou ik nu gelijk gaan oefenen met de\nMegalofoon 5.1. Kun je doelwitten breken en zo. Leuk!)"
  },
  {
    "label": "Tips_74_Trial",
    "text": "Breek het doelwit met een {{color id=\"1\"}}Megalofoon 5.1{{color id=\"65535\"}}. Met {{icon id=\"8\" arg=\"0x5C8FC23F05000000\"}} activeer je\nhem. Heeft een module iets in het vizier, dan volgt hij zijn doelwit!"
  },
  {
    "label": "Tips_75",
    "text": "Mauw. (De {{color id=\"1\"}}Tentakabel {{color id=\"65535\"}}is een speciaal wapen\nwaarmee je aan muren en vloeren kunt plakken.){{pageBreak}}(Richt en druk op {{icon id=\"10\" arg=\"0x0000803F00000000\"}} om naar een bepaald punt te\nsuizen. Dat kan zelfs een paar keer achterelkaar!){{pageBreak}}(Probeer eens een muur achter een tegenstander te\nraken en druk op {{icon id=\"12\" arg=\"0x0000803F00000000\"}} voor een verrassingsaanval!){{pageBreak}}(De Tentakabel is leuk, maar vereist wat ervaring,\ndus slinger zo nu en dan langs in de oefenruimte.)"
  },
  {
    "label": "Tips_75_Trial",
    "text": "Bereik doelwitten met de {{color id=\"1\"}}Tentakabel{{color id=\"65535\"}} en breek ze! Druk op {{icon id=\"8\" arg=\"0x5C8FC23F05000000\"}} voor\nactivering, {{icon id=\"10\" arg=\"0x295C0F4005000000\"}} om te slingeren en {{icon id=\"12\" arg=\"0x295C0F4005000000\"}} om je wapen te gebruiken."
  },
  {
    "label": "Tips_76",
    "text": "Mauw. (De {{color id=\"1\"}}Golfbeker{{color id=\"65535\"}} is een speciaal wapen dat\nschokgolven in alle richtingen stuurt.){{pageBreak}}(Zet hem op een strategische plek met {{icon id=\"10\" arg=\"0x0000803F00000000\"}} om\ntegenstanders te raken en te markeren!){{pageBreak}}(Als je een Golfbeker tegen je krijgt, heb ik een\ntip: je kunt over de golven heen springen!){{pageBreak}}(Stel maar eens een Golfbeker op om te zien hoe\nhij werkt!)"
  },
  {
    "label": "Tips_76_Trial",
    "text": "Gebruik de {{color id=\"1\"}}Golfbeker{{color id=\"65535\"}}. Druk op {{icon id=\"8\" arg=\"0x5C8FC23F05000000\"}} voor activatie, dan {{icon id=\"10\" arg=\"0x295C0F4005000000\"}}\nom hem te gooien en drie schokgolven te veroorzaken."
  },
  {
    "label": "Tips_77",
    "text": "Mauw! (De {{color id=\"1\"}}Krabbentank {{color id=\"65535\"}}is een speciaal wapen\ndat een tank is in de vorm van een krab!){{pageBreak}}(Houd {{icon id=\"12\" arg=\"0x0000803F00000000\"}} ingedrukt voor snelle klauwaanvallen\nof druk op {{icon id=\"10\" arg=\"0x0000803F00000000\"}} voor een schot uit de muil!){{pageBreak}}(De Krabbentank is een beetje traag, tenzij je\n{{icon id=\"11\" arg=\"0x0000803F00000000\"}} ingedrukt houdt om beweeglijker te worden.){{pageBreak}}(Dender maar gelijk naar de oefenruimte om met\nje Krabbentank doelwitten onder vuur te nemen!)"
  },
  {
    "label": "Tips_77_Trial",
    "text": "Breek doelwitten met de {{color id=\"1\"}}Krabbentank{{color id=\"65535\"}}. Druk op {{icon id=\"8\" arg=\"0x5C8FC23F05000000\"}} voor\nactivatie. Val aan met {{icon id=\"10\" arg=\"0x295C0F4005000000\"}} en {{icon id=\"12\" arg=\"0x295C0F4005000000\"}}, en rol met {{icon id=\"11\" arg=\"0x295C0F4005000000\"}}."
  },
  {
    "label": "Tips_78",
    "text": "Mauw. (Met {{color id=\"1\"}}laders{{color id=\"65535\"}} als de Bloplader kun je\n{{color id=\"1\"}}een krachtig schot opladen{{color id=\"65535\"}}.){{pageBreak}}(Die lading kun je eventjes behouden terwijl je zwemt\nmet {{icon id=\"11\" arg=\"0x0000803F00000000\"}}, door tegelijk {{icon id=\"12\" arg=\"0x0000803F00000000\"}} ingedrukt te houden.){{pageBreak}}(Als je buiten zicht oplaadt, kun je daarna in\npositie zwemmen voor een verrassingsschot!){{pageBreak}}(Maar genoeg theorieles! Je kunt beter\nervaring opladen door wat te oefenen.)"
  },
  {
    "label": "Tips_78_Trial",
    "text": "Houd {{icon id=\"12\" arg=\"0x295C0F4005000000\"}} ingedrukt en breek het doelwit met een volledig\n{{color id=\"1\"}}opgeladen schot{{color id=\"65535\"}}! Bewaar je lading met {{icon id=\"12\" arg=\"0x295C0F4005000000\"}} en zwem met {{icon id=\"11\" arg=\"0x295C0F4005000000\"}}."
  },
  {
    "label": "Tips_79",
    "text": "Mauw! ({{color id=\"1\"}}Rollers{{color id=\"65535\"}} zoals de Klodderroller zijn hoofdwapens\ndie zijwaarts of op en neer kunnen aanvallen!){{pageBreak}}(Als je stilstaat of loopt en op {{icon id=\"12\" arg=\"0x0000803F00000000\"}} drukt, val je\nhorizontaal aan.){{pageBreak}}(Maar als je bij een sprong op {{icon id=\"12\" arg=\"0x0000803F00000000\"}} drukt, vliegt je\ninkt verticaal!){{pageBreak}}(Oefen het maar eens, zodat je voorbereid bent als je\nhet ene of het andere moet gebruiken.)"
  },
  {
    "label": "Tips_79_Trial",
    "text": "Breek de doelwitten met een {{color id=\"1\"}}roller{{color id=\"65535\"}}! Druk op {{icon id=\"12\" arg=\"0x295C0F4005000000\"}} voor een\nhorizontale aanval. Tijdens een sprong val je verticaal aan!"
  },
  {
    "label": "Tips_80",
    "text": "Mauw. ({{color id=\"1\"}}Blasters{{color id=\"65535\"}} zoals de Klodderblaster zijn\nhoofdwapens die exploderende klodders inkt schieten.){{pageBreak}}(Met de explosie kun je tegenstanders om de hoek\nraken of je kunt direct flinke schade aanrichten!){{pageBreak}}(Probeer ze uit, zou ik zeggen! Je zult er vast\nveel plezier mee hebben!)"
  },
  {
    "label": "Tips_80_Trial",
    "text": "Breek de doelwitten met een {{color id=\"1\"}}blaster{{color id=\"65535\"}}! Druk op {{icon id=\"12\" arg=\"0x295C0F4005000000\"}} om te schieten.\nDirecte treffers zijn krachtig en de explosie treft doelwitten in de buurt."
  },
  {
    "label": "Tips_81",
    "text": "Mauw. (Met {{color id=\"1\"}}kwasten {{color id=\"65535\"}}zoals de Octokwast kun je op\ntegenstanders af sprinten terwijl je de grond verft.){{pageBreak}}(Houd {{icon id=\"12\" arg=\"0x0000803F00000000\"}} ingedrukt en beweeg {{icon id=\"7\" arg=\"0xCDCC4C3F00000000\"}} om te sprinten.\nJe kunt snel banen verven als paden of ter verdediging.){{pageBreak}}(Maar let op je inkt! Zodra je inkt op is, kun je minder\nhard sprinten. Dus wees niet te kwistig met kwasten.){{pageBreak}}(Dat kwast het met mijn uitleg. Ga maar wat oefenen\nom een streepje voor te krijgen bij je team.)"
  },
  {
    "label": "Tips_81_Trial",
    "text": "Breek de doelwitten met een {{color id=\"1\"}}kwast{{color id=\"65535\"}}! Val aan met {{icon id=\"12\" arg=\"0x295C0F4005000000\"}} of beweeg\n{{icon id=\"7\" arg=\"0x5C8FC23F05000000\"}} met {{icon id=\"12\" arg=\"0x295C0F4005000000\"}} ingedrukt om snel banen inkt te maken!"
  },
  {
    "label": "Tips_82",
    "text": "Mauw! ({{color id=\"1\"}}Spetlingen{{color id=\"65535\"}} zijn hoofdwapens waarmee je\nzo snel kunt schieten dat het één straal lijkt!){{pageBreak}}(De afstand en de duur van de salvo hangt\nervan af hoelang je hebt opgeladen.){{pageBreak}}(Houd {{icon id=\"12\" arg=\"0x0000803F00000000\"}} ingedrukt om op te laden en let op je\nrichtkruis. Je kunt twee ladingen opladen.){{pageBreak}}(De eerste lading bepaalt de afstand van je\nsalvo, de tweede hoelang je salvo duurt.){{pageBreak}}(Laad volledig op en laat {{icon id=\"12\" arg=\"0x0000803F00000000\"}} dan los om te\nbeginnen met schieten. Probeer het maar eens!)"
  },
  {
    "label": "Tips_82_Trial",
    "text": "Breek de doelwitten met een {{color id=\"1\"}}spetling{{color id=\"65535\"}}. Houd {{icon id=\"12\" arg=\"0x295C0F4005000000\"}} ingedrukt om op te laden.\nLaat los om te schieten. Je lading bepaalt de afstand en duur van je salvo!"
  },
  {
    "label": "Tips_83",
    "text": "Mauw! ({{color id=\"1\"}}Dubbelknallers{{color id=\"65535\"}} zijn hoofdwapens waarvan\nje er een in iedere hand vasthoudt!){{pageBreak}}(Met dubbelknallers kun je een snelle {{color id=\"1\"}}ontwijkrol {{color id=\"65535\"}}uitvoeren.\nSchiet met {{icon id=\"12\" arg=\"0x0000803F00000000\"}}, beweeg {{icon id=\"7\" arg=\"0xCDCC4C3F00000000\"}} en druk op {{icon id=\"1\" arg=\"0x0000803F00000000\"}}.){{pageBreak}}(Na een rol ben je even trager, maar je kunt op dat\nmoment ook tijdelijk beter richten.){{pageBreak}}(Het kost veel inkt om een ontwijkrol uit te voeren, dus\nzorg dat je altijd voldoende inkt achter de hand houdt!){{pageBreak}}(Ontwijkrol nu maar eens naar de oefenruimte\nen knal er dubbel op los!)"
  },
  {
    "label": "Tips_83_Trial",
    "text": "Breek de doelwitten met {{color id=\"1\"}}dubbelknallers{{color id=\"65535\"}}! Schiet met {{icon id=\"12\" arg=\"0x295C0F4005000000\"}}. Beweeg\n{{icon id=\"7\" arg=\"0x5C8FC23F05000000\"}} tijdens het schieten en druk op {{icon id=\"1\" arg=\"0x295C0F4005000000\"}} voor een {{color id=\"1\"}}ontwijkrol{{color id=\"65535\"}}!"
  },
  {
    "label": "Tips_84",
    "text": "Mauw. ({{color id=\"1\"}}Morsers{{color id=\"65535\"}} zijn hoofdwapens waarmee je\ngrote emmers inkt kunt gooien.){{pageBreak}}(Bij de meeste morsers kun je de richting van je\nworp bepalen door je controller te zwaaien.){{pageBreak}}(Je zult veel moeten oefenen voordat je dit onder\nde knie hebt, maar het is zeker de moeite waard!){{pageBreak}}(Dus waar wacht je nog op? Pak je morser\nen ga oefenen!)"
  },
  {
    "label": "Tips_84_Trial",
    "text": "Breek de doelwitten met een {{color id=\"1\"}}morser{{color id=\"65535\"}}! Druk op {{icon id=\"12\" arg=\"0x295C0F4005000000\"}} om aan te vallen.\nBeweeg de controller tijdens een aanval om de worp te bepalen!"
  },
  {
    "label": "Tips_85",
    "text": "Mauw. ({{color id=\"1\"}}Plenzers{{color id=\"65535\"}} zijn hoofdwapens waarmee je je\nkunt verdedigen tegen aanvallen.){{pageBreak}}(Houd {{icon id=\"12\" arg=\"0x0000803F00000000\"}} ingedrukt om je scherm te openen. Pas wel\nop als het veel schade oploopt, want het kan breken.){{pageBreak}}(Er zijn zelfs plenzers die naar voren worden\n{{color id=\"1\"}}geschoten{{color id=\"65535\"}} als je {{icon id=\"12\" arg=\"0x0000803F00000000\"}} lang genoeg ingedrukt houdt!){{pageBreak}}(Plenzers die gelanceerd of gebroken zijn, kunnen even\nniet gebruikt worden. Maar ze herstellen vanzelf!){{pageBreak}}(Bij het oefenen met plenzers raad ik je aan om zowel\nhet blokkeren als lanceren uit te proberen!)"
  },
  {
    "label": "Tips_85_Trial",
    "text": "Breek de doelwitten met een {{color id=\"1\"}}plenzer{{color id=\"65535\"}}! Val aan met {{icon id=\"12\" arg=\"0x295C0F4005000000\"}}. Houd {{icon id=\"12\" arg=\"0x295C0F4005000000\"}}\ningedrukt om aanvallen te blokkeren en de plenzer na een tijd {{color id=\"1\"}}af te vuren{{color id=\"65535\"}}!"
  },
  {
    "label": "Tips_86",
    "text": "Mauw. ({{color id=\"1\"}}Spanners{{color id=\"65535\"}}, zoals de Triospanner, zijn hoofd-\nwapens die in één keer meerdere schoten afvuren.){{pageBreak}}(Houd {{icon id=\"12\" arg=\"0x0000803F00000000\"}} ingedrukt en laat los om te schieten.\nDoor op te laden schiet je verder en krachtiger.){{pageBreak}}(Als je {{icon id=\"12\" arg=\"0x0000803F00000000\"}} loslaat terwijl je staat of rondrent,\nschiet je een horizontale waaier van schoten.){{pageBreak}}(Maar als je {{icon id=\"12\" arg=\"0x0000803F00000000\"}} loslaat tijdens een sprong,\nzijn je schoten verticaal!){{pageBreak}}(Spanners lijken een beetje op laders, maar het is\nmoeilijker voor tegenstanders om te zien waar je richt.){{pageBreak}}(Loop maar eens met een boog naar de oefenruimte\nen test zelf uit hoe spanners werken!)"
  },
  {
    "label": "Tips_86_Trial",
    "text": "Breek doelwitten met een {{color id=\"1\"}}spanner{{color id=\"65535\"}}! Druk kort op {{icon id=\"12\" arg=\"0x295C0F4005000000\"}} voor een\nkort wijd schot of langer voor een afstandsschot!"
  },
  {
    "label": "Tips_87",
    "text": "Mauw! ({{color id=\"1\"}}Zwiepers {{color id=\"65535\"}}zoals de Stempelzwieper zijn\nhoofdwapens die inkt zwiepen in een mooie boog!){{pageBreak}}(Druk kort op {{icon id=\"12\" arg=\"0x0000803F00000000\"}} voor een {{color id=\"1\"}}horizontale slag{{color id=\"65535\"}} of\ndruk langer en laat los voor een {{color id=\"1\"}}opgeladen slag{{color id=\"65535\"}}!){{pageBreak}}(Bij een opgeladen slag kun je {{icon id=\"7\" arg=\"0xCDCC4C3F00000000\"}} naar voren\nbewegen voor een krachtige sprintaanval!){{pageBreak}}(Zwiepers maken gehakt van doelwitten! Probeer\nhet maar eens uit in de oefenruimte.)"
  },
  {
    "label": "Tips_87_Trial",
    "text": "Breek de doelwitten met een {{color id=\"1\"}}zwieper{{color id=\"65535\"}}! Druk kort op {{icon id=\"12\" arg=\"0x295C0F4005000000\"}} voor een\n{{color id=\"1\"}}horizontale slag{{color id=\"65535\"}} of druk langer voor je loslaat voor een {{color id=\"1\"}}opgeladen slag{{color id=\"65535\"}}!"
  },
  {
    "label": "Tips_88",
    "text": "Mauw. (Een {{color id=\"1\"}}Ultrastempel{{color id=\"65535\"}} is een speciaal wapen\ndat in wezen een grote hamer is.){{pageBreak}}(Houd {{icon id=\"12\" arg=\"0x0000803F00000000\"}} ingedrukt om te gaan meppen en\nbeweeg met {{icon id=\"7\" arg=\"0xCDCC4C3F00000000\"}}!){{pageBreak}}(Je kunt ook op {{icon id=\"10\" arg=\"0x0000803F00000000\"}} drukken om de stempel te\ngooien! Mik goed, want daarna ben je hem kwijt!){{pageBreak}}(Ga maar eens wat doelwitten een mep verkopen\nmet je Ultrastempel in de oefenruimte!)"
  },
  {
    "label": "Tips_88_Trial",
    "text": "Breek de doelwitten met een {{color id=\"1\"}}Ultrastempel{{color id=\"65535\"}}! Druk op {{icon id=\"8\" arg=\"0x5C8FC23F05000000\"}} om hem\nte activeren, {{icon id=\"12\" arg=\"0x295C0F4005000000\"}} om uit te halen en {{icon id=\"10\" arg=\"0x295C0F4005000000\"}} om hem te gooien!"
  },
  {
    "label": "Tips_89",
    "text": "Mauw. (Een {{color id=\"1\"}}Reddingsbar {{color id=\"65535\"}}is een speciaal wapen met\ndrankjes om je team een oppepper te geven.){{pageBreak}}(Druk op {{icon id=\"10\" arg=\"0x0000803F00000000\"}} en zet hem bij je team, zodat\nje teamgenoten er gebruik van kunnen maken.){{pageBreak}}(Een voorbeeld van een oppepper is dat teamgenoten\nsneller op vijandelijke inkt kunnen lopen.){{pageBreak}}(En als je wordt uitgeschakeld terwijl je een drankje\nop hebt, kom je gelijk terug, maar zonder oppepper.){{pageBreak}}(Als je dorst hebt naar kennis, raad ik je aan zelf\neens met een Reddingsbar te gaan oefenen!)"
  },
  {
    "label": "Tips_89_Trial",
    "text": "Haal een drankje bij een {{color id=\"1\"}}Reddingsbar {{color id=\"65535\"}}en breek de doelwitten! Pak de bar met\n{{icon id=\"8\" arg=\"0x5C8FC23F05000000\"}}, plaats hem met {{icon id=\"10\" arg=\"0x295C0F4005000000\"}} en haal er dan een {{color id=\"1\"}}oppeppend drankje{{color id=\"65535\"}}!"
  },
  {
    "label": "Tips_90",
    "text": "Mauw. (Een {{color id=\"1\"}}Inktdief {{color id=\"65535\"}}is een speciaal wapen dat inkt\nvan tegenstanders opzuigt en tegen ze gebruikt.){{pageBreak}}(Als je {{icon id=\"12\" arg=\"0x0000803F00000000\"}} ingedrukt houdt, zuig je vijandelijke\ninkt op voordat je ermee terugschiet.){{pageBreak}}(Je kunt er ook bommen en speciale wapens\nmee opzuigen!){{pageBreak}}(Dat wil je wel uitproberen, toch?)"
  },
  {
    "label": "Tips_90_Trial",
    "text": "Zuig vijandelijke inkt op met je {{color id=\"1\"}}Inktdief{{color id=\"65535\"}}! Activeer hem met {{icon id=\"8\" arg=\"0x5C8FC23F05000000\"}}, zuig inkt\nmet {{icon id=\"12\" arg=\"0x295C0F4005000000\"}} en schiet door {{icon id=\"12\" arg=\"0x295C0F4005000000\"}} los te laten of er opnieuw op te drukken!"
  },
  {
    "label": "Tips_91",
    "text": "Mauw. (Een opgeladen {{color id=\"1\"}}Bomblikje {{color id=\"65535\"}}kan wel drie keer\nexploderen.){{pageBreak}}(Houd {{icon id=\"10\" arg=\"0x0000803F00000000\"}} ingedrukt om op te laden en laat los om\nte gooien. Mik goed, want de explosies zijn klein.){{pageBreak}}(Je kunt het opladen versnellen door {{icon id=\"10\" arg=\"0x0000803F00000000\"}}\ningedrukt te houden en je controller te schudden.){{pageBreak}}(Of door de linkerstick snel heen en weer te\nbewegen.){{pageBreak}}(Ga snel een blik werpen in de oefenruimte\nen breek wat doelwitten!)"
  },
  {
    "label": "Tips_91_Trial",
    "text": "Gooi drie {{color id=\"1\"}}Bomblikjes{{color id=\"65535\"}}! Houd {{icon id=\"10\" arg=\"0x295C0F4005000000\"}} ingedrukt om op te laden en laat los\nom te gooien. Schud je controller of beweeg in het rond om sneller te laden."
  },
  {
    "label": "Tips_92",
    "text": "Mauw. (Een {{color id=\"1\"}}Opblaashaai {{color id=\"65535\"}}is een haaivormig speciaal\nwapen dat op tegenstanders in kan zwemmen.){{pageBreak}}(Hij zwemt in een rechte lijn en ontploft als hij de\nmaximale afstand heeft afgelegd of als je op {{icon id=\"12\" arg=\"0x0000803F00000000\"}} drukt.){{pageBreak}}(Met dit wapen kun je ver in vijandelijk territorium\nkomen of tegenstanders achterna zitten.){{pageBreak}}(Kijk maar eens wat je ervan vindt door op de\nOpblaashaai op een aantal doelwitten in te rijden!)"
  },
  {
    "label": "Tips_92_Trial",
    "text": "Breek doelwitten met een {{color id=\"1\"}}Opblaashaai{{color id=\"65535\"}}! Richt en druk op {{icon id=\"8\" arg=\"0x5C8FC23F05000000\"}} om vooruit te\nsnellen. De haai ontploft als je op {{icon id=\"12\" arg=\"0x295C0F4005000000\"}} drukt of aan het eind van zijn baan."
  },
  {
    "label": "Tips_93",
    "text": "Mauw! (Een {{color id=\"1\"}}Torpedobom {{color id=\"65535\"}}is een subwapen dat\nop tegenstanders afgaat!){{pageBreak}}(Druk op {{icon id=\"10\" arg=\"0x0000803F00000000\"}} om hem te gooien. Zodra hij een\ntegenstander opmerkt, gaat hij erop af en ontploft hij.){{pageBreak}}(De bom kan neergeschoten worden, dus probeer je\ntegenstanders te verrassen.){{pageBreak}}(Oefening baart kunst, dus oefen maar eens met\nhet gooien van Torpedobommen!)"
  },
  {
    "label": "Tips_93_Trial",
    "text": "Gooi drie {{color id=\"1\"}}Torpedobommen{{color id=\"65535\"}} en kijk waar ze op afgaan! Druk op\n{{icon id=\"10\" arg=\"0x295C0F4005000000\"}} om er een te gooien en achter een doelwit aan te laten gaan."
  },
  {
    "label": "Tips_94",
    "text": "Mauw! (De {{color id=\"1\"}}Tri-tornado {{color id=\"65535\"}}is een speciaal wapen waar-\nmee je torpedo's op bakens kunt laten neerkomen!){{pageBreak}}(Druk op {{icon id=\"8\" arg=\"0xCDCC4C3F00000000\"}} voor activatie en {{icon id=\"10\" arg=\"0x0000803F00000000\"}} om een baken\nte plaatsen. Het maximale aantal is drie bakens.){{pageBreak}}(Je kunt de bakens verspreid neerzetten of ze op\néén plek zetten voor een groots bombardement!){{pageBreak}}(Oefen maar eens op wat doelwitten! Laat de\nbakens van je Tri-tornado het vuile werk doen!)"
  },
  {
    "label": "Tips_94_Trial",
    "text": "Breek de doelwitten met een {{color id=\"1\"}}Tri-tornado{{color id=\"65535\"}}! Druk op {{icon id=\"8\" arg=\"0x5C8FC23F05000000\"}} om hem\nte pakken en gooi maximaal drie bakens met {{icon id=\"10\" arg=\"0x295C0F4005000000\"}}."
  },
  {
    "label": "Tips_95",
    "text": "Mauw! (In een {{color id=\"1\"}}Coole bom{{color id=\"65535\"}} kun je energie opslaan\nvoordat je hem naar tegenstanders gooit!){{pageBreak}}(De bom laadt sneller op als jij en je team\n\"Cool!\" roepen met {{icon id=\"40\" arg=\"0x295C4F3F00000000\"}}!){{pageBreak}}(Bij teamgenoten die \"Cool!\" roepen, wordt de\nmeter van hun speciale wapen een beetje gevuld.){{pageBreak}}(Het is misschien cooler om het in actie te zien,\ndus ga wat doelwitten breken met een Coole bom!)"
  },
  {
    "label": "Tips_95_Trial",
    "text": "Breek doelwitten met een {{color id=\"1\"}}Coole bom{{color id=\"65535\"}}! Druk op {{icon id=\"8\" arg=\"0x5C8FC23F05000000\"}} voor activatie,\nroep \"Cool!\" met {{icon id=\"40\" arg=\"0x295C0F4005000000\"}} om op te laden en gooi met {{icon id=\"10\" arg=\"0x295C0F4005000000\"}}."
  },
  {
    "label": "Tips_96",
    "text": "Mauw? (Heb je al een {{color id=\"1\"}}catalogus{{color id=\"65535\"}}? Je kunt er een\nhalen bij Aqua Morgana.){{pageBreak}}(Zodra je er een hebt, kun je je {{color id=\"1\"}}catalogusniveau{{color id=\"65535\"}}\nverhogen en beloningen verdienen!){{pageBreak}}(Met gevechten of Salmon Run-klussen krijg je\n{{color id=\"1\"}}cataloguspunten{{color id=\"65535\"}} die je catalogusniveau verhogen.){{pageBreak}}(Het eerste gevecht of de eerste klus van de dag\nlevert zelfs bonuspunten op!){{pageBreak}}(Wacht niet te lang om beloningen te kiezen, want\nde inhoud van de catalogus verandert regelmatig!)"
  },
  {
    "label": "Tips_97",
    "text": "Mauw? (Je weet wel wat de {{color id=\"1\"}}inktrobot{{color id=\"65535\"}} is, toch?\nDie staat in de lobby tegen de muur.){{pageBreak}}(Ga erheen en druk op {{icon id=\"0\" arg=\"0x0000803F00000000\"}} om hem te activeren.\nDruk opnieuw op {{icon id=\"0\" arg=\"0x0000803F00000000\"}} om hem weer te deactiveren.){{pageBreak}}(De inktrobot doet je na. Val aan met {{icon id=\"12\" arg=\"0x0000803F00000000\"}} of\ngebruik een subwapen met {{icon id=\"10\" arg=\"0x0000803F00000000\"}} en zie de reactie.){{pageBreak}}(Je kunt er goed een Inktgordijn of Joekelschild mee\noefenen of effecten van uitrusting op proberen!)"
  },
  {
    "label": "Tips_98",
    "text": "Mauw! (In {{color id=\"1\"}}Schelpenstrijd{{color id=\"65535\"}} wint het team dat de meeste\nschelpen in de mand van de tegenstander gooit!){{pageBreak}}(Combineer schelpen eerst tot een superschelp\nwaarmee je de barrière om de mand kunt breken.){{pageBreak}}(Zodra die barrière weg is, moet je zo veel mogelijk\nschelpen in de mand gooien voor de overwinning!)"
  },
  {
    "label": "Tips_99",
    "text": "Mauw! (De zeldzaamste uitrusting heeft vijf ★.\nVanaf drie ★ verdien je sneller {{color id=\"1\"}}uitrustingservaring{{color id=\"65535\"}}!){{pageBreak}}(Het kost een flinke duit om tot drie ★ te komen,\nmaar de verhoogde ervaring is daarna permanent.){{pageBreak}}(Met zeldzamere uitrusting krijg je ook sneller\n{{color id=\"1\"}}effectfragmenten{{color id=\"65535\"}}, dus verhoog die zeldzaamheid!)"
  },
  {
    "label": "Tips_100",
    "text": "Mauw? (Heb je de {{color id=\"1\"}}Prijzenpot {{color id=\"65535\"}}in de lobby al\nuitgeprobeerd? Er zijn mooie prijzen te winnen!){{pageBreak}}(Dat kost je wel wat geld, maar je kunt wel\niedere dag een keer met korting spelen!){{pageBreak}}(Een van de prijzen schijnt een {{color id=\"1\"}}glittercapsule {{color id=\"65535\"}}te\nzijn! Ik wou dat ik die te pakken kon krijgen...)"
  },
  {
    "label": "Tips_101",
    "text": "Mauw? (Heb je al bij {{color id=\"1\"}}Aqua Morgana{{color id=\"65535\"}} gewinkeld?\nDaar kun je allerlei dingen krijgen voor je kluisje.){{pageBreak}}(Hun aanbod verandert iedere dag, dus wees\ner op tijd bij als je iets leuks ziet!){{pageBreak}}(O, nog een tip... Bekijk een versiering eens goed\nvan dichtbij met {{icon id=\"11\" arg=\"0x0000803F00000000\"}}!) "
  },
  {
    "label": "Tips_102",
    "text": "Mieuw! (De {{color id=\"1\"}}Voorschutter {{color id=\"65535\"}}is een speciaal wapen dat\nhet slagveld bezaait met {{color id=\"1\"}}loklandingsplekken{{color id=\"65535\"}}!){{pageBreak}}(Deze lijken op echte superspronglandings-\nplekken, maar kunnen exploderen.){{pageBreak}}(Dat is een flinke kater voor tegenstanders\ndie ernaast op wacht staan!){{pageBreak}}(Geen zorgen als dit wapen tegen jou wordt gebruikt.\nDoor snel te reageren kun je ze onschadelijk maken.){{pageBreak}}(Probeer de Voorschutter eens zelf uit!)"
  },
  {
    "label": "Tips_102_Trial",
    "text": "Probeer de {{color id=\"1\"}}Voorschutter{{color id=\"65535\"}} zelf uit! Druk op {{icon id=\"8\" arg=\"0x5C8FC23F05000000\"}} om het wapen te\nactiveren en gebruik {{icon id=\"12\" arg=\"0x295C0F4005000000\"}} om loklandingsplekken te lanceren."
  },
  {
    "label": "Tips_103",
    "text": "Mauw! (De {{color id=\"1\"}}Monstermorfose{{color id=\"65535\"}} is een speciaal wapen\nwaarmee je in een heus gevaarte verandert!){{pageBreak}}(Wat je daaraan hebt? Nou, het maakt je\nonkwetsbaar voor vijandelijke inkt!){{pageBreak}}(Dat betekent dat je diep in vijandelijk gebied kunt\ndoordringen zonder dat iemand je wat maakt!){{pageBreak}}(En bovendien is er een oplaadaanval! Houd {{icon id=\"12\" arg=\"0x0000803F00000000\"}}\ningedrukt en laat dan los om vooruit te stormen.){{pageBreak}}(Je kunt in deze vorm niet in de inkt duiken,\nmaar wel springen met {{icon id=\"1\" arg=\"0x0000803F00000000\"}}.){{pageBreak}}(Aanvallen vertragen je, dus kies het juiste\nmoment om het offensief aan te gaan.){{pageBreak}}(Ik kijk er ontzettend naar uit om je de\nMonstermorfose te zien uitproberen!)"
  },
  {
    "label": "Tips_103_Trial",
    "text": "Breek doelwitten met de {{color id=\"1\"}}Monstermorfose{{color id=\"65535\"}}! Druk op {{icon id=\"8\" arg=\"0x5C8FC23F05000000\"}} om te transformeren,\nspring met {{icon id=\"1\" arg=\"0x295C0F4005000000\"}}, en houd {{icon id=\"12\" arg=\"0x295C0F4005000000\"}} ingedrukt en laat los om aan te vallen."
  },
  {
    "label": "Tips_104",
    "text": "Mauw! (De {{color id=\"1\"}}Ultralanding {{color id=\"65535\"}}kun je opladen en dan\nkun je een drievoudige vuistaanval uitdelen!){{pageBreak}}(En daarvoor heb je niet eens drie vuisten nodig!\nGewoon eentje van jou, en twee die je oproept.){{pageBreak}}(Als je wordt bedreigd door deze aanval,\nprobeer dan het opladen ervan te voorkomen.){{pageBreak}}(Wie 'super' wat gewoontjes vindt, moet de\nUltralanding zeker uitproberen!)"
  },
  {
    "label": "Tips_104_Trial",
    "text": "Breek doelwitten met de {{color id=\"1\"}}Ultralanding{{color id=\"65535\"}}! Druk op {{icon id=\"8\" arg=\"0x5C8FC23F05000000\"}} om het lucht-\nruim te kiezen en de kracht van drie vuisten neer te laden dalen!"
  },
  {
    "label": "Tips_105",
    "text": "Mauw! (Met het {{color id=\"1\"}}PLED-scherm {{color id=\"65535\"}}vervaagt de grens\ntussen aanval en verdediging!){{pageBreak}}(Druk op {{icon id=\"10\" arg=\"0x0000803F00000000\"}} om een groot, flinterdun scherm\nte plaatsen dat langzaam vooruit beweegt.){{pageBreak}}(Vijanden die dat scherm aanraken, lopen schade\nop en zien eventjes niet meer in kleur!){{pageBreak}}(Maar vergeet niet dat dit scherm geen schild\nis. Schiet er doorheen, of sluip er omheen!){{pageBreak}}(Probeer het PLED-scherm uit als jij vindt dat\nje wel een plekje op het grote scherm verdient!)"
  },
  {
    "label": "Tips_105_Trial",
    "text": "Bekijk het {{color id=\"1\"}}PLED-scherm{{color id=\"65535\"}}! Druk op {{icon id=\"8\" arg=\"0x5C8FC23F05000000\"}} om het te activeren,\nen plaats het met {{icon id=\"10\" arg=\"0x295C0F4005000000\"}}. Het scherm beweegt zich vanzelf!"
  }
]