[
  {
    "label": "Msg_ConnectOnline",
    "text": "正在连接互联网……"
  },
  {
    "label": "Msg_NetworkReady_Local",
    "text": "正在准备本地联机……"
  },
  {
    "label": "Msg_NetworkReady_Lan",
    "text": "正在准备局域网联机……"
  },
  {
    "label": "Msg_Match_Fix",
    "text": "开始对战！"
  },
  {
    "label": "Msg_Match_Fix_Coop",
    "text": "打工的时间到了！"
  },
  {
    "label": "Msg_Match_Fix_CoopLocal",
    "text": "开始游戏！"
  },
  {
    "label": "Msg_StartSoloConfirm_Regular",
    "text": "要参加一般比赛吗？\n（对战将会在凑齐8人后开始。）"
  },
  {
    "label": "BtnL_StartSoloConfirm_Regular",
    "text": "取消"
  },
  {
    "label": "BtnR_StartSoloConfirm_Regular",
    "text": "参加！"
  },
  {
    "label": "Msg_StartSoloConfirm_BankaraOpen",
    "text": "要参加蛮颓比赛吗？\n（对战将会在凑齐8人后开始。）"
  },
  {
    "label": "BtnL_StartSoloConfirm_BankaraOpen",
    "text": "取消"
  },
  {
    "label": "BtnR_StartSoloConfirm_BankaraOpen",
    "text": "参加！"
  },
  {
    "label": "Msg_StartSoloConfirm_XMatch",
    "text": "要挑战X比赛吗？\n（对战将会在凑齐8人后开始。）"
  },
  {
    "label": "BtnL_StartSoloConfirm_XMatch",
    "text": "取消"
  },
  {
    "label": "BtnR_StartSoloConfirm_XMatch",
    "text": "挑战！"
  },
  {
    "label": "Msg_StartSoloConfirm_FestRegular",
    "text": "要参加祭典比赛吗？\n（对战将会在凑齐8人后开始。）"
  },
  {
    "label": "BtnL_StartSoloConfirm_FestRegular",
    "text": "取消"
  },
  {
    "label": "BtnR_StartSoloConfirm_FestRegular",
    "text": "参加！"
  },
  {
    "label": "Msg_StartSoloConfirm_FestChallenge",
    "text": "要参加祭典比赛吗？\n（对战将会在凑齐8人后开始。）"
  },
  {
    "label": "BtnL_StartSoloConfirm_FestChallenge",
    "text": "取消"
  },
  {
    "label": "BtnR_StartSoloConfirm_FestChallenge",
    "text": "参加！"
  },
  {
    "label": "Msg_StartSoloConfirm_FestTriColor",
    "text": "要参加三色夺宝比赛吗？\n（对战将会在凑齐8人后开始。）"
  },
  {
    "label": "BtnL_StartSoloConfirm_FestTriColor",
    "text": "取消"
  },
  {
    "label": "BtnR_StartSoloConfirm_FestTriColor",
    "text": "参加！"
  },
  {
    "label": "Msg_StartSoloContinueConfirm_Bankara",
    "text": "要从上一次中断时的进度继续挑战吗？\n（目前 {{number index=\"0\" type=\"1\" arg3=\"0\" arg4=\"0\"}}胜 {{number index=\"1\" type=\"1\" arg3=\"0\" arg4=\"0\"}}败）"
  },
  {
    "label": "BtnL_StartSoloContinueConfirm_Bankara",
    "text": "取消"
  },
  {
    "label": "BtnR_StartSoloContinueConfirm_Bankara",
    "text": "继续！"
  },
  {
    "label": "Msg_StartSoloContinueConfirm_XMatch",
    "text": "要从上一次中断时的进度继续挑战吗？\n（目前 {{number index=\"0\" type=\"1\" arg3=\"0\" arg4=\"0\"}}胜 {{number index=\"1\" type=\"1\" arg3=\"0\" arg4=\"0\"}}败）"
  },
  {
    "label": "BtnL_StartSoloContinueConfirm_XMatch",
    "text": "取消"
  },
  {
    "label": "BtnR_StartSoloContinueConfirm_XMatch",
    "text": "继续！"
  },
  {
    "label": "Msg_StartSoloConfirm_League",
    "text": "要参加活动比赛吗？\n（对战将会在人数凑齐后开始。）"
  },
  {
    "label": "BtnL_StartSoloConfirm_League",
    "text": "取消"
  },
  {
    "label": "BtnR_StartSoloConfirm_League",
    "text": "参加！"
  },
  {
    "label": "Msg_StartSoloConfirm_Coop",
    "text": "要参加打工吗？"
  },
  {
    "label": "BtnL_StartSoloConfirm_Coop",
    "text": "取消"
  },
  {
    "label": "BtnR_StartSoloConfirm_Coop",
    "text": "参加！"
  },
  {
    "label": "Msg_StartSoloConfirm_CoopBigRun",
    "text": "要参加大型跑打工吗？"
  },
  {
    "label": "BtnL_StartSoloConfirm_CoopBigRun",
    "text": "取消"
  },
  {
    "label": "BtnR_StartSoloConfirm_CoopBigRun",
    "text": "参加！"
  },
  {
    "label": "Msg_StartSoloConfirm_CoopTeamContest",
    "text": "要参加团队打工竞赛吗？"
  },
  {
    "label": "BtnL_StartSoloConfirm_CoopTeamContest",
    "text": "取消"
  },
  {
    "label": "BtnR_StartSoloConfirm_CoopTeamContest",
    "text": "参加！"
  },
  {
    "label": "Msg_QuitConfirm",
    "text": "要离开房间吗？"
  },
  {
    "label": "BtnL_QuitConfirm",
    "text": "取消"
  },
  {
    "label": "BtnR_QuitConfirm",
    "text": "离开"
  },
  {
    "label": "Msg_QuitConfirm_RemoteRoomMaster",
    "text": "要离开房间吗？\n\n房间不会解散，\n再次会合便可开始私人比赛。"
  },
  {
    "label": "BtnL_QuitConfirm_RemoteRoomMaster",
    "text": "取消"
  },
  {
    "label": "BtnR_QuitConfirm_RemoteRoomMaster",
    "text": "离开"
  },
  {
    "label": "Msg_QuitConfirm_Hammer",
    "text": "确定要离开大赛支援助手房间吗？"
  },
  {
    "label": "BtnL_QuitConfirm_Hammer",
    "text": "先不要"
  },
  {
    "label": "BtnR_QuitConfirm_Hammer",
    "text": "离开"
  },
  {
    "label": "Msg_DeactivateConfirm",
    "text": "要解散房间吗？\n（所有参加的玩家都会离开房间。）"
  },
  {
    "label": "BtnL_DeactivateConfirm",
    "text": "取消"
  },
  {
    "label": "BtnR_DeactivateConfirm",
    "text": "解散"
  },
  {
    "label": "Msg_MemberShortage",
    "text": "未凑齐所需人数，\n请在凑齐人数前稍作等待。"
  },
  {
    "label": "Msg_NotAllReady",
    "text": "请等待所有玩家准备完成。"
  },
  {
    "label": "Msg_NotJoinableFriend",
    "text": "无法与此玩家会合。"
  },
  {
    "label": "Msg_FullParticipantFriend",
    "text": "房间已满，无法会合。"
  },
  {
    "label": "Msg_AnotherFest",
    "text": "无法参加\n其他地区举行的祭典。"
  },
  {
    "label": "Msg_AnotherTeam",
    "text": "与此玩家的所属队伍不同，\n无法参加。"
  },
  {
    "label": "Msg_LockerSaveWait",
    "text": "正在保存……"
  },
  {
    "label": "Msg_LockerResetConfirm",
    "text": "要将置物柜内部的东西\n和贴在门上的贴纸全都收起来吗？"
  },
  {
    "label": "BtnL_LockerResetConfirm",
    "text": "取消"
  },
  {
    "label": "BtnR_LockerResetConfirm",
    "text": "全部收起！"
  },
  {
    "label": "Msg_LockerMatchmakeEdit",
    "text": "正在匹配，无法编辑。"
  },
  {
    "label": "Msg_NotJoinableWhileMatching",
    "text": "正在匹配，无法参加。"
  },
  {
    "label": "Msg_NotDownloadableWhileMatching",
    "text": "正在匹配，无法下载。"
  },
  {
    "label": "Msg_FestRegion_Notice",
    "text": "要更改祭典地区吗？\n※在参加祭典后\n　　将暂时无法更改此设置。"
  },
  {
    "label": "BtnL_FestRegion_Notice",
    "text": "取消"
  },
  {
    "label": "BtnR_FestRegion_Notice",
    "text": "更改！"
  },
  {
    "label": "Msg_Processing_MakeRoom",
    "text": "正在创建房间……"
  },
  {
    "label": "Msg_Processing_Join",
    "text": "正在会合……"
  },
  {
    "label": "Msg_Processing_BreakInto",
    "text": "正在乱入……"
  },
  {
    "label": "Msg_Unlocked",
    "text": "此模式尚未解放。"
  },
  {
    "label": "Msg_AnotherLobby_Versus",
    "text": "请移动至大厅以便参加对战。"
  },
  {
    "label": "Msg_AnotherLobby_MiniGame",
    "text": "请移动至大厅以便参加占地斗士。"
  },
  {
    "label": "Msg_AnotherLobby_Coop",
    "text": "请移动至熊先生商会以便参加打工。"
  },
  {
    "label": "Msg_NeedVote",
    "text": "请前往广场的投票所，\n为想要参加的队伍投票以便参加祭典。"
  },
  {
    "label": "Msg_NotFoundScenario",
    "text": "当前没有已保存的剧本。\n剧本可以在熊先生商会的熊先生设备处保存。"
  },
  {
    "label": "Msg_MemberFixing",
    "text": "正在结束成员募集……"
  },
  {
    "label": "Msg_CoopManualConfirmKi",
    "text": "你要再次参加打工实习\n基础知识第一课吗？"
  },
  {
    "label": "BtnL_CoopManualConfirmKi",
    "text": "取消"
  },
  {
    "label": "BtnR_CoopManualConfirmKi",
    "text": "参加！"
  },
  {
    "label": "Msg_CoopManualConfirmHo",
    "text": "你要再次参加打工实习\n基础知识第二课吗？"
  },
  {
    "label": "BtnL_CoopManualConfirmHo",
    "text": "取消"
  },
  {
    "label": "BtnR_CoopManualConfirmHo",
    "text": "参加！"
  },
  {
    "label": "Msg_Disconnecting",
    "text": "请稍候……"
  },
  {
    "label": "Msg_CodeInputExitConfirm",
    "text": "将放弃输入并回到初始界面，\n不会保存已输入的代码。"
  },
  {
    "label": "BtnL_CodeInputExitConfirm",
    "text": "继续输入"
  },
  {
    "label": "BtnR_CodeInputExitConfirm",
    "text": "OK"
  },
  {
    "label": "Msg_PlayerNameNG_NumberOver",
    "text": "最多使用5个数字。"
  },
  {
    "label": "Msg_PlayerNameNG_SpaceOnly",
    "text": "无法登录空白玩家名称。"
  },
  {
    "label": "Msg_PlayerNameNG_SharpExists",
    "text": "无法使用“#”。"
  },
  {
    "label": "Msg_PlayerNameNG_ProfanityWordExists",
    "text": "包含无法使用的词句。"
  },
  {
    "label": "Msg_CantReport",
    "text": "在一定时间内的举报次数已超过限制，\n无法举报。"
  },
  {
    "label": "Msg_Reporting",
    "text": "正在举报……"
  },
  {
    "label": "Msg_Reported",
    "text": "举报完成。"
  },
  {
    "label": "Msg_OnlinePenalty",
    "text": "上一次连接游玩未能正常结束。\n若此情况反复发生，\n将有可能暂时无法参加连接游玩。\n请在检查连接环境后再次尝试。"
  },
  {
    "label": "Msg_OnlinePenalty_Minutes",
    "text": "由于上一次连接游玩未能正常结束，\n无法开始新的连接游玩。\n请检查连接环境，\n并在{{number index=\"0\" type=\"1\" arg3=\"0\" arg4=\"0\"}}分钟后再次尝试。"
  },
  {
    "label": "Msg_CoopGradeGuide",
    "text": "与评价存在差距的玩家一同参加打工时，\n评价可能不会提升。"
  },
  {
    "label": "BtnL_CoopGradeGuide",
    "text": "取消"
  },
  {
    "label": "BtnR_CoopGradeGuide",
    "text": "OK!"
  },
  {
    "label": "Msg_CoopGradeReset",
    "text": "确定要将打工评价\n重置为{{string index=\"0\" arg2=\"12\"}} {{number index=\"0\" type=\"2\" arg3=\"0\" arg4=\"0\"}}吗？"
  },
  {
    "label": "BtnL_CoopGradeReset",
    "text": "取消"
  },
  {
    "label": "BtnR_CoopGradeReset",
    "text": "重置！"
  },
  {
    "label": "Msg_CoopGradeResetDone",
    "text": "打工评价\n已重置为{{string index=\"0\" arg2=\"12\"}} {{number index=\"0\" type=\"2\" arg3=\"0\" arg4=\"0\"}}。"
  },
  {
    "label": "Msg_ExplainAutoNotificaton",
    "text": "游玩状况的通知将会自动发送至\n好友或身处相同频道的玩家的大厅。\n通过位于主菜单“选项”中的“其他”\n即可切换通知的开启或关闭。"
  },
  {
    "label": "Msg_PhotoUnavailable",
    "text": "没有可用来装饰的照片。\n如果想拍摄照片，就请前往广场等可以拍摄的地点，\n并在屏幕右下方出现相机图标时按{{icon id=\"6\" arg=\"0x0000803F00000000\"}}进行拍摄。"
  },
  {
    "label": "Msg_ReservedReplayDownloadConfirm",
    "text": "存在预约下载的对战记忆，\n要开始下载吗？"
  },
  {
    "label": "BtnL_ReservedReplayDownloadConfirm",
    "text": "取消"
  },
  {
    "label": "BtnR_ReservedReplayDownloadConfirm",
    "text": "下载！"
  },
  {
    "label": "Msg_ReplayNotificationDesc",
    "text": "上传对战记忆后，会向好友发送通知。\n（不会向同一频道中非好友的玩家发送通知。）"
  },
  {
    "label": "Msg_ReplayNotificationDownloadSuccess",
    "text": "下载完成的对战记忆\n可以在大厅设备处观看。"
  },
  {
    "label": "Msg_RecruitNotification",
    "text": "已发送成员募集的通知。\n（经过一定时间后可再次发送。）"
  },
  {
    "label": "Msg_RecruitFullMember",
    "text": "房间已满，无法募集成员。"
  },
  {
    "label": "Msg_DescribeXRankingRegion",
    "text": "X比赛分为“{{color id=\"1\"}}组别·暇古{{color id=\"65535\"}}”与“{{color id=\"1\"}}组别·艾洛眼{{color id=\"65535\"}}”，\n相同组别内的玩家之间将展开对战。\n名列前茅的玩家的排名也会根据组别分别公布\n\n请根据您所居住的地区，\n决定本赛季要参加的组别。"
  },
  {
    "label": "Msg_ConfirmXRankingRegion",
    "text": "确定要参加此组别吗？\n一旦确定后，在下个赛季之前将无法更改。\n\n{{color id=\"1\"}}{{size value=\"150\"}}{{string value=\"SelectedXBattleDivision\" arg1=\"0\" arg3=\"0\"}}{{size value=\"100\"}}{{color id=\"65535\"}}\n{{size value=\"75\"}}（{{string value=\"SelectedXBattleRegion\" arg1=\"0\" arg3=\"0\"}}）{{size value=\"100\"}}"
  },
  {
    "label": "BtnL_ConfirmXRankingRegion",
    "text": "更改"
  },
  {
    "label": "BtnR_ConfirmXRankingRegion",
    "text": "OK!"
  },
  {
    "label": "Msg_SelectXRankingRegion",
    "text": "要参加哪个组别？\n\n{{color id=\"1\"}}{{size value=\"150\"}}组别·暇古{{size value=\"100\"}}{{color id=\"65535\"}}\n{{size value=\"75\"}}（日本/香港/韩国/澳大利亚/新西兰）{{size value=\"100\"}}\n\n{{size value=\"150\"}}{{color id=\"1\"}}组别·艾洛眼{{color id=\"65535\"}}{{size value=\"100\"}}\n{{size value=\"75\"}}（美洲大陆/欧洲）{{size value=\"100\"}}"
  },
  {
    "label": "BtnL_SelectXRankingRegion",
    "text": "组别·暇古"
  },
  {
    "label": "BtnR_SelectXRankingRegion",
    "text": "组别·艾洛眼"
  },
  {
    "label": "Msg_NoticeXRankingRegion",
    "text": "确定要参加此组别吗？\n确定后将无法在下个赛季之前更改。\n\n{{color id=\"1\"}}{{size value=\"150\"}}{{string value=\"SelectedXBattleDivision\" arg1=\"0\" arg3=\"0\"}}{{size value=\"100\"}}{{color id=\"65535\"}}\n{{size value=\"75\"}}（{{string value=\"SelectedXBattleRegion\" arg1=\"0\" arg3=\"0\"}}）{{size value=\"100\"}}\n\n※若选择的组别与实际的居住地区不同，\n　将可能出现连接延迟、难以匹配等情况，\n　导致无法顺畅游玩。"
  },
  {
    "label": "BtnL_NoticeXRankingRegion",
    "text": "重新选择"
  },
  {
    "label": "BtnR_NoticeXRankingRegion",
    "text": "OK!"
  },
  {
    "label": "Msg_FirstPlayerNameAlias",
    "text": "设置别名后，\n将以不同于平时的名称参加私人比赛。"
  },
  {
    "label": "Msg_ConfirmPlayerNameAlias",
    "text": "{{color id=\"1\"}}{{string index=\"0\" arg2=\"0\"}}{{color id=\"65535\"}}\n\n要以此名称参加私人比赛吗？"
  },
  {
    "label": "BtnL_ConfirmPlayerNameAlias",
    "text": "取消"
  },
  {
    "label": "BtnR_ConfirmPlayerNameAlias",
    "text": "OK!"
  },
  {
    "label": "Msg_UdemaeReset_Already",
    "text": "每1赛季只能重置1次技术。\n目前赛季无法重置。"
  },
  {
    "label": "Msg_UdemaeReset_Confirm1",
    "text": "要将技术重置为{{string value=\"SeasonRank\" arg1=\"0\" arg3=\"0\"}}吗？\n（每1赛季只能重置1次技术。）"
  },
  {
    "label": "BtnL_UdemaeReset_Confirm1",
    "text": "取消"
  },
  {
    "label": "BtnR_UdemaeReset_Confirm1",
    "text": "重置"
  },
  {
    "label": "Msg_UdemaeReset_Confirm2",
    "text": "真的要重置技术吗？"
  },
  {
    "label": "BtnL_UdemaeReset_Confirm2",
    "text": "取消"
  },
  {
    "label": "BtnR_UdemaeReset_Confirm2",
    "text": "OK!"
  },
  {
    "label": "Msg_UdemaeReset_Processing",
    "text": "请稍候……"
  },
  {
    "label": "Msg_UdemaeReset_Done",
    "text": "已将技术重置为{{string value=\"SeasonRank\" arg1=\"0\" arg3=\"0\"}}。"
  },
  {
    "label": "Msg_MiniGame_AnyoneInBattle",
    "text": "当房间中有正在对战的玩家时，\n无法解散房间。"
  },
  {
    "label": "Msg_CoopPrivate_ScenarioApplied",
    "text": "主办者更改了打工设置。"
  },
  {
    "label": "Msg_CoopPrivate_InvalidScenario",
    "text": "此打工剧本的数据存在问题，\n无法游玩。"
  },
  {
    "label": "Msg_CoopShiftBoard_WaitingForResult",
    "text": "正在统计团队打工竞赛的结果，\n在公布结果前请稍事等待。"
  },
  {
    "label": "Msg_Channel_Description",
    "text": "请输入想要参加的频道名字。\n参加后，身处相同频道的玩家之间\n可以发送与接收通知。"
  },
  {
    "label": "BtnL_Channel_Description",
    "text": "取消"
  },
  {
    "label": "BtnR_Channel_Description",
    "text": "输入！"
  },
  {
    "label": "Msg_Channel_ConnectConfrim",
    "text": "{{color id=\"1\"}}{{fun_0002_0002 arg=\"0x0000390306002E002E002E00\"}}{{color id=\"65535\"}}\n要参加这个频道吗？\n\n参加期间会自动连接至频道。\n打开大厅菜单的通知列表，\n按{{icon id=\"5\" arg=\"0x0000803F00000000\"}}即可退出频道。"
  },
  {
    "label": "BtnL_Channel_ConnectConfrim",
    "text": "取消"
  },
  {
    "label": "BtnR_Channel_ConnectConfrim",
    "text": "参加！"
  },
  {
    "label": "Msg_Channel_ConnectDone",
    "text": "已参加\n{{color id=\"1\"}}{{fun_0002_0002 arg=\"0x0000390306002E002E002E00\"}}{{color id=\"65535\"}}"
  },
  {
    "label": "Msg_Channel_Processing",
    "text": "请稍候……"
  },
  {
    "label": "Msg_ChannelNameNG_FirstChar",
    "text": "不能使用以数字作为开头或是\n下划线（_）与数字的组合作为开头的名称。"
  },
  {
    "label": "Msg_ChannelNameNG_Char",
    "text": "包含不能使用的文字。"
  },
  {
    "label": "Msg_ChannelNameNG_Word",
    "text": "包含不能使用的词句。"
  },
  {
    "label": "Msg_ChannelNameNG_PunctuationOnly",
    "text": "不能使用仅有下划线（_）的名称。"
  },
  {
    "label": "Msg_Channel_DisconnectConfrim",
    "text": "{{color id=\"1\"}}{{fun_0002_0002 arg=\"0x0000390306002E002E002E00\"}}{{color id=\"65535\"}}\n要离开这个频道吗？"
  },
  {
    "label": "BtnL_Channel_DisconnectConfrim",
    "text": "取消"
  },
  {
    "label": "BtnR_Channel_DisconnectConfrim",
    "text": "离开"
  },
  {
    "label": "Msg_Channel_DisconnectDone",
    "text": "已离开\n{{color id=\"1\"}}{{fun_0002_0002 arg=\"0x0000390306002E002E002E00\"}}{{color id=\"65535\"}}"
  },
  {
    "label": "Msg_WeaponDuplication",
    "text": "无法选择\n和其他队伍成员相同的武器。"
  },
  {
    "label": "Msg_WeaponMayDiffer",
    "text": "当2人参加团队打工竞赛时，\n发放的武器可能会与选择的武器不同。"
  },
  {
    "label": "Msg_Jukebox_First",
    "text": "在这里，你可以花费{{icon id=\"39\" arg=\"0x295C8F3F00000000\"}}{{color id=\"1\"}}100{{color id=\"65535\"}}\n点播1次在大厅中播放的歌曲。"
  },
  {
    "label": "Msg_Jukebox_StopConfirm",
    "text": "要停止点播的歌曲吗？"
  },
  {
    "label": "BtnL_Jukebox_StopConfirm",
    "text": "取消"
  },
  {
    "label": "BtnR_Jukebox_StopConfirm",
    "text": "停止！"
  },
  {
    "label": "Msg_Jukebox_NoMoney",
    "text": "金钱不够。"
  },
  {
    "label": "Msg_LeagueInvalidWeapon",
    "text": "无法使用当前装备的武器参加活动比赛。\n要更换武器吗？"
  },
  {
    "label": "BtnL_LeagueInvalidWeapon",
    "text": "取消"
  },
  {
    "label": "BtnR_LeagueInvalidWeapon",
    "text": "更换！"
  },
  {
    "label": "Msg_LeagueNoWeapon",
    "text": "没有可用于参加活动比赛的武器，\n前往武器店获得武器吧！"
  },
  {
    "label": "Msg_LeagueWeaponInvalidOnReady",
    "text": "无法使用当前装备的武器参加活动比赛。\n请按{{icon id=\"5\" arg=\"0x0000803F00000000\"}}打开自定义更换武器。"
  },
  {
    "label": "Msg_CreateRoomWhenRoomKeeperExists",
    "text": "已有通过《鱿鱼圈 3》创建的房间，\n要创建新的房间吗？"
  },
  {
    "label": "BtnL_CreateRoomWhenRoomKeeperExists",
    "text": "取消"
  },
  {
    "label": "BtnR_CreateRoomWhenRoomKeeperExists",
    "text": "创建！"
  },
  {
    "label": "Msg_CreateRoomWhenHammerRoomExists",
    "text": "大赛支援助手房间已存在。\n确定要另外创建新的房间吗？"
  },
  {
    "label": "BtnL_CreateRoomWhenHammerRoomExists",
    "text": "先不要"
  },
  {
    "label": "BtnR_CreateRoomWhenHammerRoomExists",
    "text": "创建！"
  },
  {
    "label": "Msg_LotExchangeCoinFull",
    "text": "无法持有更多的{{icon id=\"34\" arg=\"0xE17A943F00000000\"}}抽奖金币。"
  },
  {
    "label": "Msg_LotExchangeCoinNotWeaponComplete",
    "text": "在武器店兑换过所有武器后，\n就可以用{{icon id=\"28\" arg=\"0x6666663FFEFFFFFF\"}}武器兑换证\n兑换{{icon id=\"34\" arg=\"0xE17A943F00000000\"}}抽奖金币。"
  },
  {
    "label": "Msg_StartSoloConfirm_Coop_HammerExists",
    "text": "大赛支援助手的房间已存在。\n要继续独自参加打工吗？"
  },
  {
    "label": "BtnL_StartSoloConfirm_Coop_HammerExists",
    "text": "取消"
  },
  {
    "label": "BtnR_StartSoloConfirm_Coop_HammerExists",
    "text": "参加！"
  },
  {
    "label": "Msg_StartSoloConfirm_CoopBigRun_HammerExists",
    "text": "大赛支援助手的房间已存在。\n要继续独自参加大型跑的打工吗？"
  },
  {
    "label": "BtnL_StartSoloConfirm_CoopBigRun_HammerExists",
    "text": "取消"
  },
  {
    "label": "BtnR_StartSoloConfirm_CoopBigRun_HammerExists",
    "text": "参加！"
  },
  {
    "label": "Msg_QuitConfirm_CoopHammer",
    "text": "确定要离开大赛支援助手房间吗？\n（只要在大赛时间内，就可以再次会合至该房间。）"
  },
  {
    "label": "BtnL_QuitConfirm_CoopHammer",
    "text": "取消"
  },
  {
    "label": "BtnR_QuitConfirm_CoopHammer",
    "text": "离开"
  }
]