[
  {
    "label": "B00",
    "text": "looks Kalamarus Rex"
  },
  {
    "label": "B01",
    "text": "looks Leviathus"
  },
  {
    "label": "B02",
    "text": "looks Krakers"
  },
  {
    "label": "B03",
    "text": "looks Iormungand"
  },
  {
    "label": "B04",
    "text": "looks Ezko"
  },
  {
    "label": "B05",
    "text": "looks Focus"
  },
  {
    "label": "B06",
    "text": "looks Friture"
  },
  {
    "label": "B07",
    "text": "looks Jack"
  },
  {
    "label": "B08",
    "text": "looks Gédéon"
  },
  {
    "label": "B09",
    "text": "looks Abysma"
  },
  {
    "label": "B10",
    "text": "looks OculR"
  },
  {
    "label": "B11",
    "text": "looks Cubic"
  },
  {
    "label": "B15",
    "text": "looks Aroz"
  },
  {
    "label": "B16",
    "text": "looks DUX"
  },
  {
    "label": "B17",
    "text": "looks Thony K"
  },
  {
    "label": "B18",
    "text": "looks E+F"
  },
  {
    "label": "B19",
    "text": "looks Alpaj"
  },
  {
    "label": "B20",
    "text": "looks Apex"
  },
  {
    "label": "B97",
    "text": "looks M. Ours SA"
  },
  {
    "label": "B98",
    "text": "looks Macalamar"
  }
]