[
  {
    "label": "000",
    "text": "X比赛结果公布"
  },
  {
    "label": "001",
    "text": "蛮颓比赛最终结果"
  },
  {
    "label": "002",
    "text": "新赛季的技术已定！"
  },
  {
    "label": "L_Btn_00-T_Info_00",
    "text": "OK"
  },
  {
    "label": "100",
    "text": "{{string index=\"0\" arg2=\"12\"}}  ～  {{string index=\"1\" arg2=\"12\"}}"
  },
  {
    "label": "101",
    "text": "{{string index=\"0\" arg2=\"12\"}}  ～  {{string index=\"1\" arg2=\"12\"}}"
  },
  {
    "label": "L_Record_00-T_Max_00",
    "text": "最高："
  },
  {
    "label": "L_Record_00-T_Fix_00",
    "text": "最终："
  },
  {
    "label": "L_Record_00-T_NoRecord_00",
    "text": "无记录"
  },
  {
    "label": "L_Record_00-T_Rank_00",
    "text": "推算"
  },
  {
    "label": "200",
    "text": "第{{number index=\"0\" type=\"5\" arg3=\"0\" arg4=\"0\"}}名"
  },
  {
    "label": "T_Rule_00",
    "text": "真格区域"
  },
  {
    "label": "T_Rule_01",
    "text": "真格塔楼"
  },
  {
    "label": "T_Rule_02",
    "text": "真格鱼虎对战"
  },
  {
    "label": "T_Rule_03",
    "text": "真格蛤蜊"
  },
  {
    "label": "300",
    "text": "请通过互联网服务《{{color id=\"1\"}}鱿鱼圈 3{{color id=\"65535\"}}》\n确认准确的排名。\n\n当名次已确定且自己位列一定名次之内时，\n即可在{{color id=\"1\"}}大厅{{color id=\"65535\"}}领取礼物。"
  },
  {
    "label": "T_UdemaeTitle_00",
    "text": "技术"
  },
  {
    "label": "T_UdemaeMsg_00",
    "text": "下个赛季中也继续朝技术的巅峰迈进吧！"
  }
]