[
  {
    "label": "T_Msg_00",
    "text": "要参加哪个地区的祭典？\n※若选择的地区与实际游玩的地点不同，\n　将有可能无法顺畅地游玩祭典。"
  },
  {
    "label": "L_BackBtn_00-T_Btn_00",
    "text": "返回"
  },
  {
    "label": "L_Btn_00-T_Btn_00_Normal",
    "text": "日本"
  },
  {
    "label": "L_Btn_01-T_Btn_00_Normal",
    "text": "美洲大陆\n澳大利亚\n新西兰"
  },
  {
    "label": "L_Btn_02-T_Btn_00_Normal",
    "text": "欧洲"
  },
  {
    "label": "L_Btn_03-T_Btn_00_Normal",
    "text": "香港\n韩国"
  },
  {
    "label": "L_Btn_00-T_Btn_00_Eve",
    "text": "日本"
  },
  {
    "label": "L_Btn_01-T_Btn_00_Eve",
    "text": "美洲大陆"
  },
  {
    "label": "L_Btn_02-T_Btn_00_Eve",
    "text": "欧洲"
  },
  {
    "label": "L_Btn_03-T_Btn_00_Eve",
    "text": "澳大利亚\n新西兰\n香港/韩国"
  }
]