[
  {
    "label": "T_Text_00",
    "text": "要与该玩家进行占地斗士对战吗？"
  },
  {
    "label": "T_Rank_00",
    "text": "占地斗士等级"
  },
  {
    "label": "T_Stage_00",
    "text": "对战场地"
  },
  {
    "label": "T_Point_00",
    "text": "可获得点数"
  },
  {
    "label": "L_Btn_00-T_Btn_00",
    "text": "取消"
  },
  {
    "label": "L_Btn_01-T_Btn_00",
    "text": "对战！"
  }
]