[
  {
    "label": "T_Msg_00",
    "text": "要前往哪座城镇？"
  },
  {
    "label": "L_BackBtn_00-T_Info_00",
    "text": "返回"
  },
  {
    "label": "000",
    "text": "蛮颓镇"
  },
  {
    "label": "001",
    "text": "尚兴市"
  },
  {
    "label": "002",
    "text": "尚兴广场"
  },
  {
    "label": "003",
    "text": "秩序之城"
  }
]