[
  {
    "label": "T_Msg_00",
    "text": "已发现《斯普拉遁 2》的保存数据，\n可以将此数据继承至本游戏。"
  },
  {
    "label": "000",
    "text": "★{{number index=\"0\" type=\"3\" arg3=\"0\" arg4=\"0\"}}"
  },
  {
    "label": "001",
    "text": "{{number index=\"0\" type=\"3\" arg3=\"0\" arg4=\"0\"}}"
  },
  {
    "label": "010",
    "text": "{{number index=\"0\" type=\"5\" arg3=\"0\" arg4=\"0\"}}小时"
  },
  {
    "label": "T_Rank_00",
    "text": "等级"
  },
  {
    "label": "T_Time_00",
    "text": "游玩时间"
  }
]