[
  {
    "label": "L_PlayerName_00-T_Wait_00",
    "text": "募集中……"
  },
  {
    "label": "L_PlayerName_00-T_Message_00",
    "text": "・・・"
  },
  {
    "label": "000",
    "text": "正在等待{{string index=\"0\" arg2=\"10\"}}……"
  }
]