[
  {
    "label": "T_Food_00",
    "text": "食物"
  },
  {
    "label": "T_Drink_00",
    "text": "饮料"
  },
  {
    "label": "T_Title_02",
    "text": "持续数："
  },
  {
    "label": "T_Num_00",
    "text": "持续数：20"
  },
  {
    "label": "000",
    "text": "×{{number index=\"0\" type=\"3\" arg3=\"0\" arg4=\"0\"}}"
  },
  {
    "label": "100",
    "text": "{{number index=\"0\" type=\"3\" arg3=\"0\" arg4=\"0\"}}"
  },
  {
    "label": "200",
    "text": "{{number index=\"0\" type=\"3\" arg3=\"0\" arg4=\"0\"}}"
  },
  {
    "label": "300",
    "text": "{{number index=\"0\" type=\"3\" arg3=\"0\" arg4=\"0\"}}"
  },
  {
    "label": "T_TicketNum_01",
    "text": "所持券"
  },
  {
    "label": "L_Btn_00-T_Btn_00",
    "text": "取消"
  },
  {
    "label": "L_Btn_01-T_Btn_00",
    "text": "点餐！"
  },
  {
    "label": "L_Btn_02-T_Btn_00",
    "text": "维持现状"
  },
  {
    "label": "L_Btn_03-T_Btn_00",
    "text": "选择这个！"
  },
  {
    "label": "T_Before_00",
    "text": "已附加的效果"
  },
  {
    "label": "T_After_00",
    "text": "点餐后附加的效果"
  },
  {
    "label": "L_Back_00-T_Info_00",
    "text": "返回"
  },
  {
    "label": "L_RestTicket_00-T_Explain_00",
    "text": "目前的效果"
  }
]