[
  {
    "label": "000",
    "text": "恭喜成功晋级！！"
  },
  {
    "label": "001",
    "text": "挑战结束！"
  },
  {
    "label": "002",
    "text": "胜出！"
  },
  {
    "label": "003",
    "text": "挑战结束！"
  },
  {
    "label": "010",
    "text": "{{number index=\"0\" type=\"1\" arg3=\"0\" arg4=\"0\"}}-{{number index=\"1\" type=\"1\" arg3=\"0\" arg4=\"0\"}}"
  },
  {
    "label": "015",
    "text": "连续：\n{{number index=\"0\" type=\"2\" arg3=\"0\" arg4=\"0\"}}次"
  },
  {
    "label": "T_Total_00",
    "text": "TOTAL"
  },
  {
    "label": "T_UnitTotal_00",
    "text": "p"
  },
  {
    "label": "T_Msg_00",
    "text": "技术不变"
  },
  {
    "label": "T_Upgrade_00",
    "text": "技术提升！！"
  },
  {
    "label": "T_Explain_00",
    "text": "技术点数将被重置"
  },
  {
    "label": "020",
    "text": "WIN"
  },
  {
    "label": "021",
    "text": "LOSE"
  },
  {
    "label": "T_Win_00",
    "text": "WIN"
  },
  {
    "label": "T_Lose_00",
    "text": "LOSE"
  },
  {
    "label": "T_Hyphen_00",
    "text": "-"
  },
  {
    "label": "T_Msg_02",
    "text": "技术提升！！"
  },
  {
    "label": "030",
    "text": "晋级战"
  },
  {
    "label": "050",
    "text": "距下次技术提升还需"
  },
  {
    "label": "051",
    "text": "距晋级战还需"
  },
  {
    "label": "052",
    "text": "可挑战晋级战！"
  },
  {
    "label": "053",
    "text": "正在挑战晋级战"
  },
  {
    "label": "100",
    "text": "开放"
  },
  {
    "label": "101",
    "text": "挑战"
  },
  {
    "label": "102",
    "text": "晋级战"
  },
  {
    "label": "110",
    "text": "{{number index=\"0\" type=\"3\" arg3=\"0\" arg4=\"0\"}}{{size value=\"70\"}}p{{size value=\"100\"}}"
  },
  {
    "label": "T_Msg_01",
    "text": "可以参加蛮颓比赛（挑战）\n来挑战{{color id=\"1\"}}晋级战{{color id=\"65535\"}}哦！"
  },
  {
    "label": "T_XPowerTitle_00",
    "text": "X战力"
  },
  {
    "label": "210",
    "text": "+{{number index=\"0\" type=\"2\" arg3=\"0\" arg4=\"0\"}}.{{number index=\"1\" type=\"1\" arg3=\"0\" arg4=\"0\"}}"
  },
  {
    "label": "211",
    "text": "-{{number index=\"0\" type=\"2\" arg3=\"0\" arg4=\"0\"}}.{{number index=\"1\" type=\"1\" arg3=\"0\" arg4=\"0\"}}"
  }
]