[
  {
    "label": "L_PreviewBack_00-T_Info_00",
    "text": "返回"
  },
  {
    "label": "000",
    "text": "返回"
  },
  {
    "label": "001",
    "text": "返回"
  },
  {
    "label": "T_TitlePiece_00",
    "text": "兑换卡片碎片"
  },
  {
    "label": "T_Title_00",
    "text": "卡片列表"
  },
  {
    "label": "L_TradePieceBtn_00-T_Text_00",
    "text": "兑换卡片碎片"
  },
  {
    "label": "L_EditBtn_00-T_Text_00",
    "text": "编辑牌组"
  }
]