[
  {
    "label": "T_Rotate_00",
    "text": "旋转"
  },
  {
    "label": "T_Back_00",
    "text": "返回"
  },
  {
    "label": "L_Guide_01-T_Info_00",
    "text": "退出试摆"
  },
  {
    "label": "L_Guide_02-T_Info_00",
    "text": "重置配置"
  },
  {
    "label": "T_All_00",
    "text": "格子总数"
  },
  {
    "label": "T_Title_00",
    "text": "试摆"
  },
  {
    "label": "L_DeckChange_00-T_BtnR_00",
    "text": "所持卡片"
  },
  {
    "label": "L_DeckChange_00-T_BtnL_00",
    "text": "牌组"
  }
]