[
  {
    "label": "000",
    "text": "无"
  },
  {
    "label": "001",
    "text": "{{number index=\"0\" type=\"3\" arg3=\"0\" arg4=\"0\"}}秒"
  },
  {
    "label": "010",
    "text": "{{string value=\"TableturfStage\" arg1=\"0\" arg3=\"0\"}}"
  },
  {
    "label": "T_SelectStage_00",
    "text": "请选择场地"
  },
  {
    "label": "T_SelectTime_00",
    "text": "时限"
  },
  {
    "label": "T_SelectDeck_01",
    "text": "对手正在选择牌组"
  },
  {
    "label": "T_SelectStage_01",
    "text": "主办者正在选择场地"
  },
  {
    "label": "T_SelectDeck_00",
    "text": "请选择牌组"
  },
  {
    "label": "T_Watch_00",
    "text": "正在选择牌组"
  },
  {
    "label": "T_All_00",
    "text": "格子总数"
  },
  {
    "label": "L_Random_00-T_Info_00",
    "text": "随机"
  }
]