[
  {
    "label": "000",
    "text": "{{string value=\"PlayerName\" arg1=\"0\" arg3=\"0\"}}的装备"
  },
  {
    "label": "T_Delivery_03",
    "text": "预订列表"
  },
  {
    "label": "100",
    "text": "预订"
  },
  {
    "label": "101",
    "text": "已预订"
  },
  {
    "label": "102",
    "text": "非卖品"
  },
  {
    "label": "103",
    "text": "取消"
  },
  {
    "label": "104",
    "text": "可领取"
  },
  {
    "label": "T_Ordering_00",
    "text": "下单！"
  },
  {
    "label": "T_Delivery_00",
    "text": "等待发货"
  },
  {
    "label": "T_Arrived_00",
    "text": "可领取"
  },
  {
    "label": "200",
    "text": "预订的装备"
  },
  {
    "label": "201",
    "text": "取消的装备"
  },
  {
    "label": "300",
    "text": "先不要"
  },
  {
    "label": "301",
    "text": "取消"
  },
  {
    "label": "302",
    "text": "预订！"
  },
  {
    "label": "303",
    "text": "更换！"
  },
  {
    "label": "L_Btn_00-T_List_00",
    "text": "预订列表"
  },
  {
    "label": "L_Back_00-T_Info_00",
    "text": "返回"
  }
]