[
  {
    "label": "L_Change_00-T_Info_00",
    "text": "更换其他amiibo"
  },
  {
    "label": "L_Back_00-T_Info_00",
    "text": "返回"
  },
  {
    "label": "L_BtnMyset_00-T_Btn_00",
    "text": "记忆装备的方法"
  },
  {
    "label": "L_BtnCamera_00-T_Btn_00",
    "text": "一起拍摄照片的方法"
  },
  {
    "label": "L_BtnFesSeq_00-T_Btn_00",
    "text": "大型祭典的事情"
  },
  {
    "label": "L_BtnFes_00-T_Btn_00",
    "text": "回想色彩缤纷的黄昏"
  },
  {
    "label": "L_BtnFes_01-T_Btn_00",
    "text": "回想团结一心的夜晚"
  },
  {
    "label": "L_BtnFes_02-T_Btn_00",
    "text": "回想风平浪静的黎明"
  }
]