[
  {
    "label": "L_Btn_00-T_Btn_00",
    "text": "继续！"
  },
  {
    "label": "L_Btn_01-T_Btn_00",
    "text": "从头开始"
  },
  {
    "label": "L_Btn_02-T_Btn_00",
    "text": "结束播放记忆"
  },
  {
    "label": "L_PlayInfo_00-T_Info_00",
    "text": "操作说明"
  }
]