[
  {
    "label": "T_ThankYou_00",
    "text": "Thank you for playing!"
  },
  {
    "label": "N_Expansion_01",
    "text": "Splatoon 3"
  },
  {
    "label": "N_Expansion_02",
    "text": "Expansion Pass"
  }
]