[
  {
    "label": "000",
    "text": "获得道具"
  },
  {
    "label": "010",
    "text": "记忆播放器"
  },
  {
    "label": "020",
    "text": "对战战绩"
  },
  {
    "label": "030",
    "text": "编辑名称牌"
  },
  {
    "label": "040",
    "text": "输入代码"
  },
  {
    "label": "050",
    "text": "登录玩家名称"
  },
  {
    "label": "051",
    "text": "更改玩家名称"
  },
  {
    "label": "060",
    "text": "更改祭典地区"
  },
  {
    "label": "070",
    "text": "蛮颓战力及\n活动战力"
  },
  {
    "label": "400",
    "text": "关闭"
  },
  {
    "label": "L_CoopContents_00-T_Contents_00",
    "text": "打工记录"
  },
  {
    "label": "L_CoopContents_01-T_Contents_00",
    "text": "打工剧本一览"
  },
  {
    "label": "L_CoopContents_02-T_Contents_00",
    "text": "输入代码"
  }
]