[
  {
    "label": "L_Meter_00-T_OppositeTeam_00",
    "text": "敌方队伍"
  },
  {
    "label": "T_Win_00",
    "text": "WIN!"
  },
  {
    "label": "T_Lose_00",
    "text": "LOSE…"
  },
  {
    "label": "L_Meter_00-T_TeamC_00",
    "text": "我方队伍"
  },
  {
    "label": "000",
    "text": "10倍比赛"
  },
  {
    "label": "001",
    "text": "100倍比赛"
  },
  {
    "label": "002",
    "text": "333倍比赛"
  },
  {
    "label": "003",
    "text": "法螺争夺战"
  },
  {
    "label": "004",
    "text": "10倍法螺争夺战"
  },
  {
    "label": "005",
    "text": "33倍法螺争夺战"
  },
  {
    "label": "T_FestShellCount_01",
    "text": "Get!"
  }
]