[
  {
    "label": "GearGenre_Head_Accessory",
    "locale": {
      "CNzh": "饰品",
      "EUde": "Accessoires",
      "EUen": "Accessorized",
      "EUes": "complementos",
      "EUfr": "accessoires divers",
      "EUit": "accessori",
      "EUnl": "accessoires",
      "EUru": "Фенечки",
      "JPja": "アクセサリー",
      "KRko": "액세서리",
      "TWzh": "飾品",
      "USen": "Accessorized",
      "USes": "complementos",
      "USfr": "accessoires divers"
    }
  },
  {
    "label": "GearGenre_Head_Band",
    "locale": {
      "CNzh": "头带",
      "EUde": "Stirnbändern",
      "EUen": "Headbanded",
      "EUes": "cintas del pelo",
      "EUfr": "bandeaux",
      "EUit": "fascia",
      "EUnl": "hoofdbanden",
      "EUru": "Повязки",
      "JPja": "ヘッドバンド",
      "KRko": "헤드밴드",
      "TWzh": "頭帶",
      "USen": "Headbanded",
      "USes": "cintas",
      "USfr": "bandeaux"
    }
  },
  {
    "label": "GearGenre_Head_Bandana",
    "locale": {
      "CNzh": "丝巾",
      "EUde": "Bandanas",
      "EUen": "Bandana-Sporting",
      "EUes": "pañuelos",
      "EUfr": "bandanas",
      "EUit": "bandana",
      "EUnl": "bandana's",
      "EUru": "Банданы",
      "JPja": "バンダナ",
      "KRko": "반다나",
      "TWzh": "絲巾",
      "USen": "Bandana-Sporting",
      "USes": "pañuelos",
      "USfr": "bandanas"
    }
  },
  {
    "label": "GearGenre_Head_Beret",
    "locale": {
      "CNzh": "贝雷帽",
      "EUde": "Baretten",
      "EUen": "Beret-Sporting",
      "EUes": "boinas",
      "EUfr": "bérets",
      "EUit": "basco",
      "EUnl": "baretten",
      "EUru": "Береты",
      "JPja": "ベレー",
      "KRko": "베레",
      "TWzh": "貝雷帽",
      "USen": "Beret-Sporting",
      "USes": "boinas",
      "USfr": "bérets"
    }
  },
  {
    "label": "GearGenre_Head_Cap",
    "locale": {
      "CNzh": "帽子",
      "EUde": "Kappen",
      "EUen": "Capped",
      "EUes": "gorras",
      "EUfr": "casquettes",
      "EUit": "berretto",
      "EUnl": "petten",
      "EUru": "Кепки",
      "JPja": "キャップ",
      "KRko": "캡",
      "TWzh": "帽子",
      "USen": "Capped",
      "USes": "gorras",
      "USfr": "casquettes"
    }
  },
  {
    "label": "GearGenre_Head_Glasses",
    "locale": {
      "CNzh": "眼镜",
      "EUde": "Brillen",
      "EUen": "Nearsighted",
      "EUes": "gafas",
      "EUfr": "lunettes",
      "EUit": "occhiali",
      "EUnl": "brillen",
      "EUru": "Очки",
      "JPja": "メガネ",
      "KRko": "안경",
      "TWzh": "眼鏡",
      "USen": "Nearsighted",
      "USes": "lentes",
      "USfr": "lunettes"
    }
  },
  {
    "label": "GearGenre_Head_Goggle",
    "locale": {
      "CNzh": "护目镜",
      "EUde": "Schutzbrillen",
      "EUen": "Goggled",
      "EUes": "visores",
      "EUfr": "protections oculaires",
      "EUit": "visore",
      "EUnl": "veiligheidsbrillen",
      "EUru": "Окуляры",
      "JPja": "ゴーグル",
      "KRko": "고글",
      "TWzh": "護目鏡",
      "USen": "Goggled",
      "USes": "visores",
      "USfr": "protections oculaires"
    }
  },
  {
    "label": "GearGenre_Head_Hat",
    "locale": {
      "CNzh": "圆边帽",
      "EUde": "Hüten",
      "EUen": "Hat-Wearing",
      "EUes": "sombreros",
      "EUfr": "chapeaux",
      "EUit": "cappello",
      "EUnl": "hoeden",
      "EUru": "Шляпы",
      "JPja": "ハット",
      "KRko": "해트",
      "TWzh": "圓邊帽",
      "USen": "Hat-Wearing",
      "USes": "sombreros",
      "USfr": "chapeaux"
    }
  },
  {
    "label": "GearGenre_Head_Headphone",
    "locale": {
      "CNzh": "耳机",
      "EUde": "Kopfhörern",
      "EUen": "Headphoned",
      "EUes": "auriculares",
      "EUfr": "casques audio",
      "EUit": "cuffie",
      "EUnl": "koptelefoons",
      "EUru": "Наушники",
      "JPja": "ヘッドホン",
      "KRko": "헤드폰",
      "TWzh": "耳機",
      "USen": "Headphoned",
      "USes": "auriculares",
      "USfr": "casques audio"
    }
  },
  {
    "label": "GearGenre_Head_Helmet",
    "locale": {
      "CNzh": "安全帽",
      "EUde": "Helmen",
      "EUen": "Helmeted",
      "EUes": "cascos",
      "EUfr": "casques",
      "EUit": "casco",
      "EUnl": "helmen",
      "EUru": "Шлемы",
      "JPja": "ヘルメット",
      "KRko": "헬멧",
      "TWzh": "安全帽",
      "USen": "Helmeted",
      "USes": "cascos",
      "USfr": "casques"
    }
  },
  {
    "label": "GearGenre_Head_KnitCap",
    "locale": {
      "CNzh": "针织帽子",
      "EUde": "Wollmützen",
      "EUen": "Knit-Capped",
      "EUes": "gorros",
      "EUfr": "bonnets",
      "EUit": "pon-pon",
      "EUnl": "mutsen",
      "EUru": "Вязаные шапочки",
      "JPja": "ニット",
      "KRko": "니트 모자",
      "TWzh": "針織帽子",
      "USen": "Knit-Capped",
      "USes": "gorros",
      "USfr": "tuques"
    }
  },
  {
    "label": "GearGenre_Head_Mask",
    "locale": {
      "CNzh": "面罩",
      "EUde": "Masken",
      "EUen": "Masked",
      "EUes": "máscaras",
      "EUfr": "masques",
      "EUit": "maschera",
      "EUnl": "maskers",
      "EUru": "Маски",
      "JPja": "マスク",
      "KRko": "마스크",
      "TWzh": "面罩",
      "USen": "Masked",
      "USes": "máscaras",
      "USfr": "masques"
    }
  },
  {
    "label": "GearGenre_Head_Party",
    "locale": {
      "CNzh": "派对头饰",
      "EUde": "Party-Accessoires",
      "EUen": "Party Headgear",
      "EUes": "complementos festivos",
      "EUfr": "accessoires festifs",
      "EUit": "accessori celebrativi",
      "EUnl": "feestmode",
      "EUru": "Пати-шапки",
      "JPja": "パーティーヘッド",
      "KRko": "파티 헤드",
      "TWzh": "派對頭飾",
      "USen": "Party Headgear",
      "USes": "accesorios festivos",
      "USfr": "accessoires festifs"
    }
  },
  {
    "label": "GearGenre_Head_Sand",
    "locale": {
      "CNzh": "愚乱怒风江州帝波龙",
      "EUde": "Grand-Festival-Look",
      "EUen": "Grand-Festival",
      "EUes": "aires de Grand Festival",
      "EUfr": "accessoires du Grand Festival",
      "EUit": "accessori del Grand Festival",
      "EUnl": "Grand Festival-look",
      "EUru": "с Гранд-фестиваля",
      "JPja": "愚乱怒風江州帝波龍",
      "KRko": "그랜드 페스티벌",
      "TWzh": "愚亂怒風江州帝波龍",
      "USen": "Grand-Festival",
      "USes": "aires de Grand Festival",
      "USfr": "accessoires du Grand Festival"
    }
  },
  {
    "label": "GearGenre_Head_Spring",
    "locale": {
      "CNzh": "春季中空遮阳帽",
      "EUde": "Frühlingsschirmbändern",
      "EUen": "Sprung",
      "EUes": "visores primaverales",
      "EUfr": "visières printanières",
      "EUit": "visiere primaverili",
      "EUnl": "lentezonnekleppen",
      "EUru": "Весенние козырьки",
      "JPja": "ハルバイザー",
      "KRko": "봄 바이저",
      "TWzh": "春季中空遮陽帽",
      "USen": "Sprung",
      "USes": "viseras primaverales",
      "USfr": "visières printanières"
    }
  },
  {
    "label": "GearGenre_Head_Visor",
    "locale": {
      "CNzh": "中空遮阳帽",
      "EUde": "Schirmbändern",
      "EUen": "Visor-Flaunting",
      "EUes": "viseras",
      "EUfr": "visières",
      "EUit": "visiera",
      "EUnl": "zonnekleppen",
      "EUru": "Визоры",
      "JPja": "バイザー",
      "KRko": "바이저",
      "TWzh": "中空遮陽帽",
      "USen": "Visor-Flaunting",
      "USes": "viseras",
      "USfr": "visières"
    }
  },
  {
    "label": "GearGenre_Shoes_Barefoot",
    "locale": {
      "CNzh": "光脚",
      "EUde": "luftigen Schuhen",
      "EUen": "Open-Toed",
      "EUes": "pies al aire",
      "EUfr": "doigts de pieds à l'air",
      "EUit": "alluci al vento",
      "EUnl": "open schoeisel",
      "EUru": "Босоножки",
      "JPja": "ハダシ",
      "KRko": "맨발",
      "TWzh": "光腳",
      "USen": "Open-Toed",
      "USes": "pies al aire",
      "USfr": "orteils à l'air"
    }
  },
  {
    "label": "GearGenre_Shoes_BigFoot",
    "locale": {
      "CNzh": "大鞋子",
      "EUde": "Riesenlatschen",
      "EUen": "Big-Footed",
      "EUes": "calzado gigante",
      "EUfr": "gros panards",
      "EUit": "scarpe giganti",
      "EUnl": "schuiten",
      "EUru": "Безразмерки",
      "JPja": "ビッグフット",
      "KRko": "빅 풋",
      "TWzh": "大鞋子",
      "USen": "Big-Footed",
      "USes": "calzado gigante",
      "USfr": "gros pieds"
    }
  },
  {
    "label": "GearGenre_Shoes_Boots",
    "locale": {
      "CNzh": "靴子",
      "EUde": "Stiefeln",
      "EUen": "Boot-Rocking",
      "EUes": "botas",
      "EUfr": "bottines",
      "EUit": "stivali",
      "EUnl": "laarzen",
      "EUru": "Тяжелые боты",
      "JPja": "ブーツ",
      "KRko": "부츠",
      "TWzh": "靴子",
      "USen": "Boot-Rocking",
      "USes": "botas",
      "USfr": "bottines"
    }
  },
  {
    "label": "GearGenre_Shoes_Bouldering",
    "locale": {
      "CNzh": "攀岩鞋",
      "EUde": "Kletterschuhen",
      "EUen": "Rock-Climbing",
      "EUes": "calzado de escalada",
      "EUfr": "souliers d'escalade",
      "EUit": "scarpe da arrampicata",
      "EUnl": "klimschoenen",
      "EUru": "Альпинистские боты",
      "JPja": "ボルダリング",
      "KRko": "볼더링",
      "TWzh": "攀岩鞋",
      "USen": "Rock-Climbing",
      "USes": "calzado de escalada",
      "USfr": "souliers d'escalade"
    }
  },
  {
    "label": "GearGenre_Shoes_Comfort",
    "locale": {
      "CNzh": "休闲鞋",
      "EUde": "Freizeitschuhen",
      "EUen": "Comfy-Kicked",
      "EUes": "zapatos informales",
      "EUfr": "chaussures décontractées",
      "EUit": "scarpe casual",
      "EUnl": "vrijetijdsschoenen",
      "EUru": "Повседневная обувь",
      "JPja": "コンフォート",
      "KRko": "컴포트",
      "TWzh": "休閒鞋",
      "USen": "Comfy-Kicked",
      "USes": "zapatos cómodos",
      "USfr": "chaussures décontractées"
    }
  },
  {
    "label": "GearGenre_Shoes_Hicut",
    "locale": {
      "CNzh": "高筒运动鞋",
      "EUde": "High-Tops",
      "EUen": "Hi-Topped",
      "EUes": "zapatillas altas",
      "EUfr": "chaussures montantes",
      "EUit": "scarpe alte",
      "EUnl": "Hi-Tops",
      "EUru": "Высокие спортивки",
      "JPja": "ハイカットスニーカー",
      "KRko": "하이 톱",
      "TWzh": "高筒運動鞋",
      "USen": "Hi-Topped",
      "USes": "tenis bota",
      "USfr": "chaussures hautes"
    }
  },
  {
    "label": "GearGenre_Shoes_Leather",
    "locale": {
      "CNzh": "皮鞋",
      "EUde": "Abendschuhen",
      "EUen": "Dressy-Shoed",
      "EUes": "calzado elegante",
      "EUfr": "chaussures habillées",
      "EUit": "scarpe eleganti",
      "EUnl": "nette schoenen",
      "EUru": "Выходная обувь",
      "JPja": "カワグツ",
      "KRko": "가죽신",
      "TWzh": "皮鞋",
      "USen": "Dressy-Shoed",
      "USes": "zapatos de vestir",
      "USfr": "chaussures habillées"
    }
  },
  {
    "label": "GearGenre_Shoes_Lowcut",
    "locale": {
      "CNzh": "运动鞋",
      "EUde": "Low-Tops",
      "EUen": "Sneaky",
      "EUes": "zapatillas",
      "EUfr": "chaussures basses",
      "EUit": "scarpe basse",
      "EUnl": "sneakers",
      "EUru": "Низкие спортивки",
      "JPja": "スニーカー",
      "KRko": "스니커즈",
      "TWzh": "運動鞋",
      "USen": "Sneaky",
      "USes": "tenis",
      "USfr": "chaussures basses"
    }
  },
  {
    "label": "GearGenre_Shoes_Moccasin",
    "locale": {
      "CNzh": "莫卡辛鞋",
      "EUde": "Mokassins",
      "EUen": "Mocca-Rockin'",
      "EUes": "mocasines",
      "EUfr": "pompes voraces",
      "EUit": "mocassini",
      "EUnl": "mocassins",
      "EUru": "Мокасины",
      "JPja": "モカシン",
      "KRko": "모카신",
      "TWzh": "莫卡辛鞋",
      "USen": "Mocca-Rockin'",
      "USes": "zapatos carnívoros",
      "USfr": "souliers voraces"
    }
  },
  {
    "label": "GearGenre_Shoes_RainBoots",
    "locale": {
      "CNzh": "长靴",
      "EUde": "Gummistiefeln",
      "EUen": "Rubber-Booty",
      "EUes": "botas de goma",
      "EUfr": "bottes en caoutchouc",
      "EUit": "stivali di gomma",
      "EUnl": "rubberlaarzen",
      "EUru": "Резиновые сапоги",
      "JPja": "ナガグツ",
      "KRko": "롱부츠",
      "TWzh": "長靴",
      "USen": "Rubber-Booty",
      "USes": "botas de goma",
      "USfr": "bottes en caoutchouc"
    }
  },
  {
    "label": "GearGenre_Shoes_RubberSole",
    "locale": {
      "CNzh": "厚底鞋",
      "EUde": "Gummisohlen",
      "EUen": "Thick-Soled",
      "EUes": "zapatos de suela extra",
      "EUfr": "compensées",
      "EUit": "suola di gomma",
      "EUnl": "rubberzolen",
      "EUru": "Платформы",
      "JPja": "ラバーソール",
      "KRko": "러버 솔",
      "TWzh": "厚底鞋",
      "USen": "Thick-Soled",
      "USes": "zapatos de suela extra",
      "USfr": "chaussures compensées"
    }
  },
  {
    "label": "GearGenre_Shoes_Sandal",
    "locale": {
      "CNzh": "拖鞋",
      "EUde": "Sandalen",
      "EUen": "Sandal-Rocking",
      "EUes": "sandalias",
      "EUfr": "sandales",
      "EUit": "sandali",
      "EUnl": "sandalen",
      "EUru": "Сандалии",
      "JPja": "サンダル",
      "KRko": "샌들",
      "TWzh": "拖鞋",
      "USen": "Sandal-Rocking",
      "USes": "chanclas",
      "USfr": "sandales"
    }
  },
  {
    "label": "GearGenre_Shoes_Slippon",
    "locale": {
      "CNzh": "懒人鞋",
      "EUde": "Slip-ons",
      "EUen": "Slip-On-Loving",
      "EUes": "playeras",
      "EUfr": "mocassins",
      "EUit": "espadrillas",
      "EUnl": "instappers",
      "EUru": "Шлепки",
      "JPja": "スリッポン",
      "KRko": "슬립온",
      "TWzh": "懶人鞋",
      "USen": "Slip-On-Loving",
      "USes": "mocasines",
      "USfr": "mocassins"
    }
  },
  {
    "label": "GearGenre_Shoes_Spike",
    "locale": {
      "CNzh": "钉鞋",
      "EUde": "Stollen",
      "EUen": "Striking",
      "EUes": "calzado de tacos",
      "EUfr": "crampons",
      "EUit": "scarpe con tacchetti",
      "EUnl": "noppenschoenen",
      "EUru": "Бутсы",
      "JPja": "スパイク",
      "KRko": "스파이크",
      "TWzh": "釘鞋",
      "USen": "Striking",
      "USes": "botas de tacos",
      "USfr": "crampons"
    }
  },
  {
    "label": "GearGenre_Shoes_Spring",
    "locale": {
      "CNzh": "春季鞋子",
      "EUde": "Frühlingsschuhen",
      "EUen": "Springy",
      "EUes": "calzado primaveral",
      "EUfr": "chaussures printanières",
      "EUit": "scarpe primaverili",
      "EUnl": "lenteschoenen",
      "EUru": "Весенняя обувка",
      "JPja": "ハルクツ",
      "KRko": "봄 신발",
      "TWzh": "春季鞋子",
      "USen": "Springy",
      "USes": "calzado primaveral",
      "USfr": "chaussures printanières"
    }
  },
  {
    "label": "Group_00",
    "locale": {
      "CNzh": "军团",
      "EUde": "Truppe",
      "EUen": "Warriors",
      "EUes": "Banda",
      "EUfr": "Le gang",
      "EUit": "Squadra",
      "EUnl": "Groep",
      "EUru": "Шайка",
      "JPja": "軍団",
      "KRko": " 군단",
      "TWzh": "軍團",
      "USen": "Warriors",
      "USes": "Banda",
      "USfr": "La gang"
    }
  },
  {
    "label": "Group_01",
    "locale": {
      "CNzh": "团",
      "EUde": "Crew",
      "EUen": "Mob",
      "EUes": "Patrulla",
      "EUfr": "La troupe",
      "EUit": "Cricca",
      "EUnl": "Crew",
      "EUru": "Табун",
      "JPja": "のつどい",
      "KRko": " 모임",
      "TWzh": "團",
      "USen": "Mob",
      "USes": "Patrulla",
      "USfr": "La troupe"
    }
  },
  {
    "label": "Group_02",
    "locale": {
      "CNzh": "队",
      "EUde": "Team",
      "EUen": "Quartet",
      "EUes": "Cuadrilla",
      "EUfr": "Le commando",
      "EUit": "Battaglione",
      "EUnl": "Ploeg",
      "EUru": "Ватага",
      "JPja": "チーム",
      "KRko": " 팀",
      "TWzh": "隊",
      "USen": "Quartet",
      "USes": "Cuadrilla",
      "USfr": "Le commando"
    }
  },
  {
    "label": "Group_03",
    "locale": {
      "CNzh": "组",
      "EUde": "Horde",
      "EUen": "Crew",
      "EUes": "Peña",
      "EUfr": "La horde",
      "EUit": "Clan",
      "EUnl": "Club",
      "EUru": "Кучка",
      "JPja": "ズ",
      "KRko": "즈",
      "TWzh": "組",
      "USen": "Crew",
      "USes": "Alianza",
      "USfr": "La horde"
    }
  },
  {
    "label": "Group_04",
    "locale": {
      "CNzh": "同好会",
      "EUde": "Gesellschaft",
      "EUen": "Gang",
      "EUes": "Brigada",
      "EUfr": "L'escouade",
      "EUit": "Banda",
      "EUnl": "Kliek",
      "EUru": "Коллектив",
      "JPja": "同好会",
      "KRko": " 동호회",
      "TWzh": "同好會",
      "USen": "Gang",
      "USes": "Brigada",
      "USfr": "L'escouade"
    }
  },
  {
    "label": "Group_05",
    "locale": {
      "CNzh": "集团",
      "EUde": "Brigade",
      "EUen": "Squad",
      "EUes": "Pandilla",
      "EUfr": "La bande",
      "EUit": "Brigata",
      "EUnl": "Bende",
      "EUru": "Косяк",
      "JPja": "集団",
      "KRko": " 집단",
      "TWzh": "集團",
      "USen": "Squad",
      "USes": "Compañía",
      "USfr": "La bande"
    }
  },
  {
    "label": "Group_06",
    "locale": {
      "CNzh": "群组",
      "EUde": "Gang",
      "EUen": "Society",
      "EUes": "Horda",
      "EUfr": "Le bataillon",
      "EUit": "Squadrone",
      "EUnl": "Brigade",
      "EUru": "Стайка",
      "JPja": "グループ",
      "KRko": " 그룹",
      "TWzh": "群組",
      "USen": "Society",
      "USes": "Unidad",
      "USfr": "Le bataillon"
    }
  },
  {
    "label": "Group_07",
    "locale": {
      "CNzh": "会",
      "EUde": "Bande",
      "EUen": "Syndicate",
      "EUes": "Tropa",
      "EUfr": "La clique",
      "EUit": "Team",
      "EUnl": "Clan",
      "EUru": "Тусовка",
      "JPja": "会",
      "KRko": "회",
      "TWzh": "會",
      "USen": "Syndicate",
      "USes": "Tropa",
      "USfr": "La clique"
    }
  },
  {
    "label": "PropertyHair00",
    "locale": {
      "CNzh": "长发",
      "EUde": "Langhaar-",
      "EUen": "Hippie ",
      "EUes": " de melena",
      "EUfr": " des mèches longues",
      "EUit": " dai capelli lunghi",
      "EUnl": "Lang haar-",
      "EUru": " лохматых",
      "JPja": "ロングヘア",
      "KRko": "긴 머리",
      "TWzh": "長髮",
      "USen": "Hippie ",
      "USes": " melenuda",
      "USfr": " des mèches longues"
    }
  },
  {
    "label": "PropertyHair01",
    "locale": {
      "CNzh": "短发",
      "EUde": "Kurzhaar-",
      "EUen": "Haircut ",
      "EUes": " de peinado corto",
      "EUfr": " des carrés courts",
      "EUit": " dai capelli corti",
      "EUnl": "Kort haar-",
      "EUru": " стриженых",
      "JPja": "ショートカット",
      "KRko": "단발머리",
      "TWzh": "短髮",
      "USen": "Haircut ",
      "USes": " de peinado corto",
      "USfr": " des carrés courts"
    }
  },
  {
    "label": "PropertyHair02",
    "locale": {
      "CNzh": "丸子头",
      "EUde": "Haarknoten-",
      "EUen": "Double-Bun ",
      "EUes": " de moño",
      "EUfr": " des chignons hauts",
      "EUit": " con lo chignon",
      "EUnl": "Knot-",
      "EUru": " училок",
      "JPja": "おだんご",
      "KRko": "올림머리",
      "TWzh": "丸子頭",
      "USen": "Double-Bun ",
      "USes": " de moños",
      "USfr": " des chignons hauts"
    }
  },
  {
    "label": "PropertyHair03",
    "locale": {
      "CNzh": "波浪卷发",
      "EUde": "Seitenpony-",
      "EUen": "Wave ",
      "EUes": " de melena ondulada",
      "EUfr": " des mèches de côté",
      "EUit": " con i capelli mossi",
      "EUnl": "Zijstaart-",
      "EUru": " модниц",
      "JPja": "ウェービー",
      "KRko": "웨이브",
      "TWzh": "波浪捲髮",
      "USen": "Wave ",
      "USes": " de melena ondulada",
      "USfr": " des mèches de côté"
    }
  },
  {
    "label": "PropertyHair04",
    "locale": {
      "CNzh": "双马尾",
      "EUde": "Rattenschwanz-",
      "EUen": "Pigtail ",
      "EUes": " de coletas",
      "EUfr": " des couettes frisées",
      "EUit": " con le treccine",
      "EUnl": "Vlechtjes-",
      "EUru": " хулиганок",
      "JPja": "ツインテ",
      "KRko": "트윈 테일",
      "TWzh": "雙馬尾",
      "USen": "Pigtail ",
      "USes": " de coletitas",
      "USfr": " des couettes frisées"
    }
  },
  {
    "label": "PropertyHair05",
    "locale": {
      "CNzh": "齐刘海",
      "EUde": "Pony-",
      "EUen": "Banger ",
      "EUes": " de flequillo",
      "EUfr": " des mèches lissées",
      "EUit": " con la frangetta",
      "EUnl": "Pony-",
      "EUru": " челкастых",
      "JPja": "ぱっつん",
      "KRko": "일자 머리",
      "TWzh": "齊瀏海",
      "USen": "Banger ",
      "USes": " de flequillo",
      "USfr": " des mèches lissées"
    }
  },
  {
    "label": "PropertyHair06",
    "locale": {
      "CNzh": "发髻",
      "EUde": "Bun-",
      "EUen": "Topknot ",
      "EUes": " de coleta alta",
      "EUfr": " des chignons samouraï",
      "EUit": " col codino alto",
      "EUnl": "Samoeraiknotje-",
      "EUru": " самураев",
      "JPja": "ちょんまげ",
      "KRko": "상투머리",
      "TWzh": "髮髻",
      "USen": "Topknot ",
      "USes": " de pelo recogido",
      "USfr": " des chignons samouraï"
    }
  },
  {
    "label": "PropertyHair07",
    "locale": {
      "CNzh": "后梳油头",
      "EUde": "Pomaden-",
      "EUen": "Slick ",
      "EUes": " de peinado copete",
      "EUfr": " des mèches pointues",
      "EUit": " col ciuffo",
      "EUnl": "Achterovergekamd haar-",
      "EUru": " стиляг",
      "JPja": "オールバック",
      "KRko": "올백",
      "TWzh": "後梳油頭",
      "USen": "Slick ",
      "USes": " de peinado ondulado",
      "USfr": " des mèches pointues"
    }
  },
  {
    "label": "PropertyHair08",
    "locale": {
      "CNzh": "平头",
      "EUde": "Musterfrisur-",
      "EUen": "Buzz-Cut ",
      "EUes": " de cabeza lisa",
      "EUfr": " des coupes militaires",
      "EUit": " con la testa rasata",
      "EUnl": "Crewcut-",
      "EUru": " бобриков",
      "JPja": "ボウズ",
      "KRko": "삭발",
      "TWzh": "平頭",
      "USen": "Buzz-Cut ",
      "USes": " de cabeza lisa",
      "USfr": " des coupes militaires"
    }
  },
  {
    "label": "PropertyHair09",
    "locale": {
      "CNzh": "斜刘海",
      "EUde": "Hipster-",
      "EUen": "Hipster ",
      "EUes": " de peinado asimétrico",
      "EUfr": " des raies de côté",
      "EUit": " con taglio asimmetrico",
      "EUnl": "Asymmetrisch kapsel-",
      "EUru": " эмо",
      "JPja": "アシメ",
      "KRko": "비대칭 머리",
      "TWzh": "斜瀏海",
      "USen": "Hipster ",
      "USes": " de peinado asimétrico",
      "USfr": " des raies de côté"
    }
  },
  {
    "label": "PropertyHair10",
    "locale": {
      "CNzh": "刺刺头",
      "EUde": "Stachelhaar-",
      "EUen": "Spiky-Haired ",
      "EUes": " de cresta",
      "EUfr": " des têtes d'oursin",
      "EUit": " con i capelli a spazzola",
      "EUnl": "Stekelhaar-",
      "EUru": " ежиков",
      "JPja": "ツンツン",
      "KRko": "삐죽 머리",
      "TWzh": "刺刺頭",
      "USen": "Spiky-Haired ",
      "USes": " de peinado picudo",
      "USfr": " des têtes d'oursin"
    }
  },
  {
    "label": "PropertyHair11",
    "locale": {
      "CNzh": "蘑菇头",
      "EUde": "Pilzkopf-",
      "EUen": "Mush-Cut ",
      "EUes": " de peinado tazón",
      "EUfr": " des coupes au bol",
      "EUit": " col caschetto",
      "EUnl": "Bloempotkapsel-",
      "EUru": " горшков",
      "JPja": "マッシュ",
      "KRko": "버섯 머리",
      "TWzh": "蘑菇頭",
      "USen": "Mush-Cut ",
      "USes": " de peinado honguito",
      "USfr": " des coupes au bol"
    }
  },
  {
    "label": "PropertyHair12",
    "locale": {
      "CNzh": "麻花辫",
      "EUde": "Seitzopf-",
      "EUen": "Megalobraid ",
      "EUes": " de trenza",
      "EUfr": " des tresses sur le côté",
      "EUit": " con treccia laterale",
      "EUnl": "Zijvlecht-",
      "EUru": " длиннокосых",
      "JPja": "ミツアミ",
      "KRko": "땋은 머리",
      "TWzh": "麻花辮",
      "USen": "Megalobraid ",
      "USes": " de trenzas",
      "USfr": " des tresses sur le côté"
    }
  },
  {
    "label": "PropertyHair13",
    "locale": {
      "CNzh": "自然发型",
      "EUde": "Wuschelkopf-",
      "EUen": "Bed Head ",
      "EUes": " de peinado informal",
      "EUfr": " des cheveux en bataille",
      "EUit": " con i capelli spettinati",
      "EUnl": "Net-uit-bed-haar-",
      "EUru": " растреп",
      "JPja": "むぞうさ",
      "KRko": "캐주얼",
      "TWzh": "自然髮型",
      "USen": "Bed Head ",
      "USes": " despeinada",
      "USfr": " des cheveux en bataille"
    }
  },
  {
    "label": "PropertyHair14",
    "locale": {
      "CNzh": "湿发",
      "EUde": "Wetlook-",
      "EUen": "Soaked ",
      "EUes": " de pelo húmedo",
      "EUfr": " des tignasses trempées",
      "EUit": " con i capelli bagnati",
      "EUnl": "Wetlook-",
      "EUru": " прилизанных",
      "JPja": "ウェット",
      "KRko": "젖은 머리",
      "TWzh": "濕髮",
      "USen": "Soaked ",
      "USes": " de pelo húmedo",
      "USfr": " des tignasses trempées"
    }
  },
  {
    "label": "PropertyHair15",
    "locale": {
      "CNzh": "脏辫",
      "EUde": "Cornrows-",
      "EUen": "Cornrows ",
      "EUes": " de trenzas pegadas",
      "EUfr": " des cornrows",
      "EUit": " con treccine afro",
      "EUnl": "Cornrows-",
      "EUru": " корнроу",
      "JPja": "コーンロウ",
      "KRko": "콘로우",
      "TWzh": "髒辮",
      "USen": "Cornrows ",
      "USes": " de trenzas pegadas",
      "USfr": " des tresses collées"
    }
  },
  {
    "label": "PropertyHair30",
    "locale": {
      "CNzh": "卷发",
      "EUde": "Locken-",
      "EUen": "Tentacurl ",
      "EUes": " de mechas onduladas",
      "EUfr": " des mèches ondulées",
      "EUit": " con i capelli ricci",
      "EUnl": "Krullend haar-",
      "EUru": " кучерявых",
      "JPja": "カーリーヘア",
      "KRko": "씨 컬",
      "TWzh": "捲髮",
      "USen": "Tentacurl ",
      "USes": " de rizos",
      "USfr": " des mèches ondulées"
    }
  },
  {
    "label": "PropertyHair31",
    "locale": {
      "CNzh": "马尾",
      "EUde": "Zopf-",
      "EUen": "Pony ",
      "EUes": " de coleta",
      "EUfr": " des queues de cheval",
      "EUit": " col codino",
      "EUnl": "Staartjes-",
      "EUru": " хвостатых",
      "JPja": "ポニテ",
      "KRko": "포니테일",
      "TWzh": "馬尾",
      "USen": "Pony ",
      "USes": " de colas de caballo",
      "USfr": " des queues de cheval"
    }
  },
  {
    "label": "PropertyHair32",
    "locale": {
      "CNzh": "莫西干头",
      "EUde": "Iro-",
      "EUen": "Punk ",
      "EUes": " de peinado mohicano",
      "EUfr": " des bananes",
      "EUit": " con la cresta",
      "EUnl": "Hanenkam-",
      "EUru": " панков",
      "JPja": "モヒカン",
      "KRko": "모히칸",
      "TWzh": "莫西干頭",
      "USen": "Punk ",
      "USes": " de crestas",
      "USfr": " des bananes"
    }
  },
  {
    "label": "PropertyHair33",
    "locale": {
      "CNzh": "爆炸头",
      "EUde": "Afro-",
      "EUen": "Afro ",
      "EUes": " a lo afro",
      "EUfr": " des coupes afro",
      "EUit": " con pettinatura afro",
      "EUnl": "Afro-",
      "EUru": " бро",
      "JPja": "アフロ",
      "KRko": "아프로",
      "TWzh": "爆炸頭",
      "USen": "Afro ",
      "USes": " de afro",
      "USfr": " des coupes afro"
    }
  },
  {
    "label": "PropertyHair34",
    "locale": {
      "CNzh": "纵卷发",
      "EUde": "Spirallocken-",
      "EUen": "Tentatwists ",
      "EUes": " de tirabuzones",
      "EUfr": " des tresses spiralées",
      "EUit": " con boccoli laterali",
      "EUnl": "Kronkelkrullen-",
      "EUru": " завитых",
      "JPja": "タテロール",
      "KRko": "롤빵 머리",
      "TWzh": "縱捲髮",
      "USen": "Tentatwists ",
      "USes": " de bucles",
      "USfr": " des tresses spiralées"
    }
  },
  {
    "label": "PropertyHair35",
    "locale": {
      "CNzh": "渐层寸头",
      "EUde": "Fade-Cut-",
      "EUen": "Fade ",
      "EUes": " de peinado degradado",
      "EUfr": " des coupes choucroute",
      "EUit": " con taglio sfumato",
      "EUnl": "Opgeschoren haar-",
      "EUru": " дредастых",
      "JPja": "フェード",
      "KRko": "페이드 커트",
      "TWzh": "漸層寸頭",
      "USen": "Fade ",
      "USes": " de peinado degradado",
      "USfr": " des coupes choucroute"
    }
  },
  {
    "label": "PropertyHair36",
    "locale": {
      "CNzh": "男性长发",
      "EUde": "Mittelscheitel-",
      "EUen": "Octolocks ",
      "EUes": " de media melena",
      "EUfr": " des cheveux longs",
      "EUit": " con octociocche",
      "EUnl": "Halflang haar-",
      "EUru": " щупастых",
      "JPja": "ロンゲ",
      "KRko": "장발",
      "TWzh": "男性長髮",
      "USen": "Octolocks ",
      "USes": " de media melena",
      "USfr": " des cheveux longs"
    }
  },
  {
    "label": "PropertyHair37",
    "locale": {
      "CNzh": "飞机头",
      "EUde": "Biker-",
      "EUen": "Surfcurl ",
      "EUes": " de tupé",
      "EUfr": " des coupes Pompadour",
      "EUit": " con ciuffo ingellato",
      "EUnl": "Pompadour-",
      "EUru": " помпадур",
      "JPja": "リーゼント",
      "KRko": "리젠트",
      "TWzh": "飛機頭",
      "USen": "Surfcurl ",
      "USes": " de peinado engominado",
      "USfr": " des coupes Pompadour"
    }
  },
  {
    "label": "PropertyOctopus",
    "locale": {
      "CNzh": "章鱼",
      "EUde": "Oktoling-",
      "EUen": "Octo ",
      "EUes": " octariana",
      "EUfr": " des Octalings",
      "EUit": " Octoling",
      "EUnl": "Octoling-",
      "EUru": " осьмолингов",
      "JPja": "タコ",
      "KRko": "문어",
      "TWzh": "章魚",
      "USen": "Octo ",
      "USes": " octoling",
      "USfr": " des octalings"
    }
  },
  {
    "label": "PropertySquid",
    "locale": {
      "CNzh": "鱿鱼",
      "EUde": "Inkling-",
      "EUen": "Squid ",
      "EUes": " inkling",
      "EUfr": " des Inklings",
      "EUit": " Inkling",
      "EUnl": "Inkling-",
      "EUru": " инклингов",
      "JPja": "イカ",
      "KRko": "오징어",
      "TWzh": "魷魚",
      "USen": "Squid ",
      "USes": " inkling",
      "USfr": " des inklings"
    }
  },
  {
    "label": "Template1",
    "locale": {
      "CNzh": "{{fun_0005_0003}}{{fun_0005_0004}}",
      "EUde": "{{fun_0005_0003}}{{fun_0005_0004}}",
      "EUen": "{{fun_0005_0003}}{{fun_0005_0004}}",
      "EUes": "{{fun_0005_0004}}{{fun_0005_0003}}",
      "EUfr": "{{fun_0005_0004}}{{fun_0005_0003}}",
      "EUit": "{{fun_0005_0004}}{{fun_0005_0003}}",
      "EUnl": "{{fun_0005_0003}}{{fun_0005_0004}}",
      "EUru": "{{fun_0005_0004}}{{fun_0005_0003}}",
      "JPja": "{{fun_0005_0003}}{{fun_0005_0004}}",
      "KRko": "{{fun_0005_0003}}{{fun_0005_0004}}",
      "TWzh": "{{fun_0005_0003}}{{fun_0005_0004}}",
      "USen": "{{fun_0005_0003}}{{fun_0005_0004}}",
      "USes": "{{fun_0005_0004}}{{fun_0005_0003}}",
      "USfr": "{{fun_0005_0004}}{{fun_0005_0003}}"
    }
  },
  {
    "label": "Template2",
    "locale": {
      "CNzh": "{{fun_0005_0000}}{{fun_0005_0005}}{{fun_0005_0003}}{{fun_0005_0004}}",
      "EUde": "{{fun_0005_0003}}{{fun_0005_0004}}{{fun_0005_0005}}mit{{fun_0005_0005}}{{fun_0005_0000}}",
      "EUen": "{{fun_0005_0000}}{{fun_0005_0005}}{{fun_0005_0003}}{{fun_0005_0004}}",
      "EUes": "{{fun_0005_0004}}{{fun_0005_0003}}{{fun_0005_0005}}con{{fun_0005_0005}}{{fun_0005_0000}}",
      "EUfr": "{{fun_0005_0004}}{{fun_0005_0003}}{{fun_0005_0005}}aux{{fun_0005_0005}}{{fun_0005_0000}}",
      "EUit": "{{fun_0005_0004}}{{fun_0005_0003}}{{fun_0005_0005}}con{{fun_0005_0005}}{{fun_0005_0000}}",
      "EUnl": "{{fun_0005_0003}}{{fun_0005_0004}}{{fun_0005_0005}}met{{fun_0005_0005}}{{fun_0005_0000}}",
      "EUru": "{{fun_0005_0004}}{{fun_0005_0003}}{{fun_0005_0005}}«{{fun_0005_0000}}»",
      "JPja": "{{fun_0005_0000}}{{fun_0005_0005}}{{fun_0005_0003}}{{fun_0005_0004}}",
      "KRko": "{{fun_0005_0000}}{{fun_0005_0005}}{{fun_0005_0003}}{{fun_0005_0004}}",
      "TWzh": "{{fun_0005_0000}}{{fun_0005_0005}}{{fun_0005_0003}}{{fun_0005_0004}}",
      "USen": "{{fun_0005_0000}}{{fun_0005_0005}}{{fun_0005_0003}}{{fun_0005_0004}}",
      "USes": "{{fun_0005_0004}}{{fun_0005_0003}}{{fun_0005_0005}}con{{fun_0005_0005}}{{fun_0005_0000}}",
      "USfr": "{{fun_0005_0004}}{{fun_0005_0003}}{{fun_0005_0005}}aux{{fun_0005_0005}}{{fun_0005_0000}}"
    }
  },
  {
    "label": "Template3",
    "locale": {
      "CNzh": "{{fun_0005_0000}}{{fun_0005_0005}}{{fun_0005_0001}}{{fun_0005_0005}}{{fun_0005_0003}}{{fun_0005_0004}}",
      "EUde": "{{fun_0005_0003}}{{fun_0005_0004}}{{fun_0005_0005}}mit{{fun_0005_0005}}{{fun_0005_0000}}{{fun_0005_0005}}und{{fun_0005_0005}}{{fun_0005_0001}}{{fun_0005_0005}}",
      "EUen": "{{fun_0005_0000}}{{fun_0005_0005}}{{fun_0005_0001}}{{fun_0005_0005}}{{fun_0005_0003}}{{fun_0005_0004}}",
      "EUes": "{{fun_0005_0004}}{{fun_0005_0003}}{{fun_0005_0005}}con{{fun_0005_0005}}{{fun_0005_0000}}{{fun_0005_0005}}y{{fun_0005_0005}}{{fun_0005_0001}}",
      "EUfr": "{{fun_0005_0004}}{{fun_0005_0003}}{{fun_0005_0005}}aux{{fun_0005_0005}}{{fun_0005_0000}}{{fun_0005_0005}}et{{fun_0005_0005}}{{fun_0005_0001}}",
      "EUit": "{{fun_0005_0004}}{{fun_0005_0003}}{{fun_0005_0005}}con{{fun_0005_0005}}{{fun_0005_0000}}{{fun_0005_0005}}e{{fun_0005_0005}}{{fun_0005_0001}}",
      "EUnl": "{{fun_0005_0003}}{{fun_0005_0004}}{{fun_0005_0005}}met{{fun_0005_0005}}{{fun_0005_0000}}{{fun_0005_0005}}en{{fun_0005_0005}}{{fun_0005_0001}}",
      "EUru": "{{fun_0005_0004}}{{fun_0005_0003}}{{fun_0005_0005}}«{{fun_0005_0000}}{{fun_0005_0005}}и{{fun_0005_0005}}{{fun_0005_0001}}»",
      "JPja": "{{fun_0005_0000}}{{fun_0005_0005}}{{fun_0005_0001}}{{fun_0005_0005}}{{fun_0005_0003}}{{fun_0005_0004}}",
      "KRko": "{{fun_0005_0000}}{{fun_0005_0005}}{{fun_0005_0001}}{{fun_0005_0005}}{{fun_0005_0003}}{{fun_0005_0004}}",
      "TWzh": "{{fun_0005_0000}}{{fun_0005_0005}}{{fun_0005_0001}}{{fun_0005_0005}}{{fun_0005_0003}}{{fun_0005_0004}}",
      "USen": "{{fun_0005_0000}}{{fun_0005_0005}}{{fun_0005_0001}}{{fun_0005_0005}}{{fun_0005_0003}}{{fun_0005_0004}}",
      "USes": "{{fun_0005_0004}}{{fun_0005_0003}}{{fun_0005_0005}}con{{fun_0005_0005}}{{fun_0005_0000}}{{fun_0005_0005}}y{{fun_0005_0005}}{{fun_0005_0001}}",
      "USfr": "{{fun_0005_0004}}{{fun_0005_0003}}{{fun_0005_0005}}aux{{fun_0005_0005}}{{fun_0005_0000}}{{fun_0005_0005}}et{{fun_0005_0005}}{{fun_0005_0001}}"
    }
  },
  {
    "label": "Template4",
    "locale": {
      "CNzh": "{{fun_0005_0000}}{{fun_0005_0005}}{{fun_0005_0001}}{{fun_0005_0005}}{{fun_0005_0002}}{{fun_0005_0005}}{{fun_0005_0003}}{{fun_0005_0004}}",
      "EUde": "{{fun_0005_0003}}{{fun_0005_0004}}{{fun_0005_0005}}mit{{fun_0005_0005}}{{fun_0005_0000}},{{fun_0005_0005}}{{fun_0005_0001}}{{fun_0005_0005}}und{{fun_0005_0005}}{{fun_0005_0002}}",
      "EUen": "{{fun_0005_0000}}{{fun_0005_0005}}{{fun_0005_0001}}{{fun_0005_0005}}{{fun_0005_0002}}{{fun_0005_0005}}{{fun_0005_0003}}{{fun_0005_0004}}",
      "EUes": "{{fun_0005_0004}}{{fun_0005_0003}}{{fun_0005_0005}}con{{fun_0005_0005}}{{fun_0005_0000}},{{fun_0005_0005}}{{fun_0005_0001}}{{fun_0005_0005}}y{{fun_0005_0005}}{{fun_0005_0002}}",
      "EUfr": "{{fun_0005_0004}}{{fun_0005_0003}}{{fun_0005_0005}}aux{{fun_0005_0005}}{{fun_0005_0000}},{{fun_0005_0005}}{{fun_0005_0001}}{{fun_0005_0005}}et{{fun_0005_0005}}{{fun_0005_0002}}",
      "EUit": "{{fun_0005_0004}}{{fun_0005_0003}}{{fun_0005_0005}}con{{fun_0005_0005}}{{fun_0005_0000}},{{fun_0005_0005}}{{fun_0005_0001}}{{fun_0005_0005}}e{{fun_0005_0005}}{{fun_0005_0002}}",
      "EUnl": "{{fun_0005_0003}}{{fun_0005_0004}}{{fun_0005_0005}}met{{fun_0005_0005}}{{fun_0005_0000}},{{fun_0005_0005}}{{fun_0005_0001}}{{fun_0005_0005}}en{{fun_0005_0005}}{{fun_0005_0002}}",
      "EUru": "{{fun_0005_0004}}{{fun_0005_0003}}{{fun_0005_0005}}«{{fun_0005_0000}},{{fun_0005_0005}}{{fun_0005_0001}}{{fun_0005_0005}}и{{fun_0005_0005}}{{fun_0005_0002}}»",
      "JPja": "{{fun_0005_0000}}{{fun_0005_0005}}{{fun_0005_0001}}{{fun_0005_0005}}{{fun_0005_0002}}{{fun_0005_0005}}{{fun_0005_0003}}{{fun_0005_0004}}",
      "KRko": "{{fun_0005_0000}}{{fun_0005_0005}}{{fun_0005_0001}}{{fun_0005_0005}}{{fun_0005_0002}}{{fun_0005_0005}}{{fun_0005_0003}}{{fun_0005_0004}}",
      "TWzh": "{{fun_0005_0000}}{{fun_0005_0005}}{{fun_0005_0001}}{{fun_0005_0005}}{{fun_0005_0002}}{{fun_0005_0005}}{{fun_0005_0003}}{{fun_0005_0004}}",
      "USen": "{{fun_0005_0000}}{{fun_0005_0005}}{{fun_0005_0001}}{{fun_0005_0005}}{{fun_0005_0002}}{{fun_0005_0005}}{{fun_0005_0003}}{{fun_0005_0004}}",
      "USes": "{{fun_0005_0004}}{{fun_0005_0003}}{{fun_0005_0005}}con{{fun_0005_0005}}{{fun_0005_0000}},{{fun_0005_0005}}{{fun_0005_0001}}{{fun_0005_0005}}y{{fun_0005_0005}}{{fun_0005_0002}}",
      "USfr": "{{fun_0005_0004}}{{fun_0005_0003}}{{fun_0005_0005}}aux{{fun_0005_0005}}{{fun_0005_0000}},{{fun_0005_0005}}{{fun_0005_0001}}{{fun_0005_0005}}et{{fun_0005_0005}}{{fun_0005_0002}}"
    }
  },
  {
    "label": "WmnBlaster",
    "locale": {
      "CNzh": "爆破枪",
      "EUde": "Blastern",
      "EUen": "Boom-Boom",
      "EUes": "devastadores",
      "EUfr": "blasters",
      "EUit": "blaster",
      "EUnl": "blasters",
      "EUru": "Бластеры",
      "JPja": "ブラスター",
      "KRko": "블래스터",
      "TWzh": "爆破槍",
      "USen": "Boom-Boom",
      "USes": "lanzamotas",
      "USfr": "blasteurs"
    }
  },
  {
    "label": "WmnBrush",
    "locale": {
      "CNzh": "画笔",
      "EUde": "Pinseln",
      "EUen": "Brush-Swinging",
      "EUes": "pinceles",
      "EUfr": "pinceaux",
      "EUit": "pennelli",
      "EUnl": "kwasten",
      "EUru": "Кисти",
      "JPja": "フデ",
      "KRko": "붓",
      "TWzh": "畫筆",
      "USen": "Brush-Swinging",
      "USes": "pinceles",
      "USfr": "pinceaux"
    }
  },
  {
    "label": "WmnCharger",
    "locale": {
      "CNzh": "蓄力狙击枪",
      "EUde": "Konzentratoren",
      "EUen": "Long-Range",
      "EUes": "cargatintas",
      "EUfr": "fusils",
      "EUit": "armi a carica",
      "EUnl": "laders",
      "EUru": "Нагнетатели",
      "JPja": "チャージャー",
      "KRko": "차저",
      "TWzh": "蓄力狙擊槍",
      "USen": "Long-Range",
      "USes": "cargatintas",
      "USfr": "fusils"
    }
  },
  {
    "label": "WmnManeuver",
    "locale": {
      "CNzh": "机动枪",
      "EUde": "Dopplern",
      "EUen": "Dualie",
      "EUes": "armas duales",
      "EUfr": "armes doubles",
      "EUit": "repolper",
      "EUnl": "dubbelknallers",
      "EUru": "Спуртометы",
      "JPja": "マニューバー",
      "KRko": "머누버",
      "TWzh": "機動槍",
      "USen": "Dualie",
      "USes": "armas duales",
      "USfr": "armes doubles"
    }
  },
  {
    "label": "WmnRoller",
    "locale": {
      "CNzh": "滚筒",
      "EUde": "Rollern",
      "EUen": "Roller",
      "EUes": "rodillos",
      "EUfr": "rouleaux",
      "EUit": "rulli",
      "EUnl": "rollers",
      "EUru": "Валики",
      "JPja": "ローラー",
      "KRko": "롤러",
      "TWzh": "滾筒",
      "USen": "Roller",
      "USes": "rodillos",
      "USfr": "rouleaux"
    }
  },
  {
    "label": "WmnSaber",
    "locale": {
      "CNzh": "刮水刀",
      "EUde": "Splatanas",
      "EUen": "Splatana",
      "EUes": "azotintadores",
      "EUfr": "éclatanas",
      "EUit": "lame",
      "EUnl": "zwiepers",
      "EUru": "Сплат-катаны",
      "JPja": "ワイパー",
      "KRko": "와이퍼",
      "TWzh": "刮水刀",
      "USen": "Splatana",
      "USes": "azotintadores",
      "USfr": "éclatanas"
    }
  },
  {
    "label": "WmnShelter",
    "locale": {
      "CNzh": "防空伞",
      "EUde": "Pluviatoren",
      "EUen": "Rainy-Day",
      "EUes": "paratintas",
      "EUfr": "para-encres",
      "EUit": "sparasole",
      "EUnl": "plenzers",
      "EUru": "Сплат-зонты",
      "JPja": "シェルター",
      "KRko": "셸터",
      "TWzh": "防空傘",
      "USen": "Rainy-Day",
      "USes": "paratintas",
      "USfr": "para-encres"
    }
  },
  {
    "label": "WmnShooter",
    "locale": {
      "CNzh": "射击枪",
      "EUde": "Klecksern",
      "EUen": "Shooter",
      "EUes": "lanzatintas",
      "EUfr": "lanceurs",
      "EUit": "armi a ripetizione",
      "EUnl": "spetters",
      "EUru": "Краскоматы",
      "JPja": "シューター",
      "KRko": "슈터",
      "TWzh": "射擊槍",
      "USen": "Shooter",
      "USes": "rociadores",
      "USfr": "lanceurs"
    }
  },
  {
    "label": "WmnSlosher",
    "locale": {
      "CNzh": "泼桶",
      "EUde": "Schwappern",
      "EUen": "Big-Bucket",
      "EUes": "derramatic",
      "EUfr": "seaux",
      "EUit": "secchiostri",
      "EUnl": "morsers",
      "EUru": "Ведроганы",
      "JPja": "スロッシャー",
      "KRko": "슬로셔",
      "TWzh": "潑桶",
      "USen": "Big-Bucket",
      "USes": "derramatic",
      "USfr": "seaux"
    }
  },
  {
    "label": "WmnSpinner",
    "locale": {
      "CNzh": "旋转枪",
      "EUde": "Splatlings",
      "EUen": "Rat-tat-tat",
      "EUes": "tintralladoras",
      "EUfr": "badigeonneurs",
      "EUit": "splatling",
      "EUnl": "spetlingen",
      "EUru": "Брызгометы",
      "JPja": "スピナー",
      "KRko": "스피너",
      "TWzh": "旋轉槍",
      "USen": "Rat-tat-tat",
      "USes": "garabateadores",
      "USfr": "badigeonneurs"
    }
  },
  {
    "label": "WmnStringer",
    "locale": {
      "CNzh": "猎鱼弓",
      "EUde": "Stringern",
      "EUen": "Bow-Stringing",
      "EUes": "arcromatizadores",
      "EUfr": "transperceurs",
      "EUit": "calamarchi",
      "EUnl": "spanners",
      "EUru": "Тетиваторы",
      "JPja": "ストリンガー",
      "KRko": "스트링거",
      "TWzh": "獵魚弓",
      "USen": "Bow-Stringing",
      "USes": "arcromatizadores",
      "USfr": "transperceurs"
    }
  },
  {
    "label": "WmnVariety",
    "locale": {
      "CNzh": "不同武器",
      "EUde": "Waffen-Mix",
      "EUen": "Variety",
      "EUes": "armas dispares",
      "EUfr": "armes dépareillées",
      "EUit": "armi varie",
      "EUnl": "divers geschut",
      "EUru": "Разное оружие",
      "JPja": "バラエティーブキ",
      "KRko": "버라이어티 무기",
      "TWzh": "不同武器",
      "USen": "Variety",
      "USes": "armas dispares",
      "USfr": "armes dépareillées"
    }
  }
]