[
  {
    "label": "12e257b0-65c3-4094-9209-221fb43102c3",
    "text": "Pffiou, c'était pas de la tarte !"
  },
  {
    "label": "463e383b-511e-49f3-955b-08ae14e37632",
    "text": "Continue à t'éclater !"
  },
  {
    "label": "64cd2b37-6234-4985-aa5f-1e714b79be66",
    "text": "Joli ! On est pas encore au bout, mais continue\ncomme ça !"
  },
  {
    "label": "afdd96e1-52c6-48ed-bfb7-37f49c10512e",
    "text": "Tu dois faire éclater toutes ces {{color id=\"1\"}}cibles{{color id=\"65535\"}}, j'imagine ?"
  }
]