[
  {
    "label": "324b2f3e-bfde-49ca-813a-3d92214fe9f2",
    "text": "Ça décoiffe !"
  },
  {
    "label": "4613feb0-962c-4d73-bbe0-61d0bded0463",
    "text": "T'as réussi ! Hélicita... Euh, félicitations !"
  },
  {
    "label": "5a6a3c20-f1f6-4f8c-bd44-40195e2d92d0",
    "text": "Ça, c'est fait !"
  },
  {
    "label": "7f43ba32-3855-4ab2-8b2d-95525be3e540",
    "text": "Accroche-toi, on desceeeend !"
  },
  {
    "label": "8104e11f-0a53-426f-b932-04d7f15730ac",
    "text": "C'est pas le moment de paniquer...\nou alors juste un petit peu."
  },
  {
    "label": "951a2fc9-f77d-43a1-9a2a-9be6526565de",
    "text": "Jamais vu autant de plateformes à hélice...\nEncre à tout-va, Numéro 3, et évite de tomber !"
  },
  {
    "label": "a5f75457-2dc9-4f8e-834b-a6acde24e5aa",
    "text": "Fais gaffe où tu mets les pieds."
  },
  {
    "label": "d9f9b9a0-ffcf-408b-91d5-a0613b92110e",
    "text": "Argh, les {{color id=\"1\"}}tentamiraux{{color id=\"65535\"}}, c'est la plaie !\nHeureusement qu'il y a des piliers pour se planquer."
  },
  {
    "label": "db61f4fe-0f4b-49dc-a66f-1af41c6dbe2a",
    "text": "T'arrête pas ! Fonce !"
  },
  {
    "label": "dd38eaf8-e732-47b4-a445-4d2679e56c8e",
    "text": "Oh ! Je m'attendais pas à ça."
  },
  {
    "label": "e6266e66-9bc8-4469-a20f-8dc0df997e2a",
    "text": "L'arrivée est là, mais ça ne sera pas pour\ntout de suite."
  },
  {
    "label": "ec162189-120e-40f7-b6e2-d3b0914fa097",
    "text": "OK, asperge ce mur et allons voir ce qui nous attend..."
  }
]