[
  {
    "label": "14509dd9-5d12-49c3-b554-e2eea516fcad",
    "text": "Tergiverse pas, ou tu vas te retrouver le bec dans\nl'eau... T'as qu'à te motiver avec notre musique !"
  },
  {
    "label": "07c609cd-193f-4c2f-b099-51070e988764",
    "text": "Dans des situations comme celle-ci, n'oublie pas que\nton Salmioche est là et qu'il peut t'aider !"
  },
  {
    "label": "17a0755a-3504-40b2-a9ac-bb0c0af4f7a6",
    "text": "Alerte Octariens ! Fais le ménage avec ton {{color id=\"1\"}}crabe\nd'assaut{{color id=\"65535\"}} !"
  },
  {
    "label": "250ee3f5-0733-4a0d-84e4-74385261f6c1",
    "text": "Bravo, Numéro 3... continue comme ça, tu atteins\ndes sommets !"
  },
  {
    "label": "3d030a47-9880-496d-a5dc-caa7e1c3bce1",
    "text": "Si je comprends bien, il suffit d'éliminer ces\nOctariens pour pouvoir continuer."
  },
  {
    "label": "3d6b0b7f-0866-41a5-86a0-9ee8de781eed",
    "text": "Un {{color id=\"1\"}}cavalsquale {{color id=\"65535\"}}! Chevauche-le pour foncer dans le tas,\net appuie sur {{icon id=\"12\" arg=\"0x0000803F00000000\"}} pour une attaque MORDANTE !"
  },
  {
    "label": "48c52839-7375-4bdb-8d9b-acfc584c5589",
    "text": "Fais gaffe au {{color id=\"1\"}}tentatourelle{{color id=\"65535\"}}... et à pas tomber !"
  },
  {
    "label": "53034657-0c8f-4787-92f5-cd137c6550be",
    "text": "Ouais ! Prends ça !"
  },
  {
    "label": "6cc49754-229b-4785-b802-ed1e62e712a0",
    "text": "Oh ! Un {{color id=\"1\"}}aspirencre{{color id=\"65535\"}} ! Maintiens {{icon id=\"12\" arg=\"0x0000803F00000000\"}} pour siphonner\nl'encre de l'ennemi... puis retourne-la à l'envoyeur !"
  },
  {
    "label": "723f0069-e3ab-4b75-be01-da87ebeed6ae",
    "text": "Ay ! {{string value=\"5\"}}(C'était génial !){{fun_000F_0004 arg=\"0x0500\"}}"
  },
  {
    "label": "7242d43e-3ec9-44e2-9940-750b219fe33e",
    "text": "Encore un ascenseur... oh, mais regarde ça !\nUn autre {{color id=\"1\"}}crabe d'assaut{{color id=\"65535\"}} rien que pour toi !"
  },
  {
    "label": "8b5ca5ea-cca8-4de9-845a-31d9bfef3c10",
    "text": "Je suis sous le choc."
  },
  {
    "label": "95d975b7-4226-489d-a923-bfd27366098e",
    "text": "On dirait qu'ils tiennent pas du tout à ce que\ntu passes par là..."
  },
  {
    "label": "9cc78a18-02f7-4462-a200-6da26385245e",
    "text": "Ay ! {{string value=\"5\"}}(Continue comme ça !){{fun_000F_0004 arg=\"0x0500\"}}"
  },
  {
    "label": "afaed687-2c93-47f3-9f35-f7eef12e2f60",
    "text": "Oh, un {{color id=\"1\"}}sonar paf{{color id=\"65535\"}} ! Lance-le au milieu d'un banc\nd'Octariens, et profite du spectacle !"
  },
  {
    "label": "c9a5c725-b38b-477b-827f-f78570db0365",
    "text": "Petite remarque : tu peux pas changer de direction,\nmais on s'en fiche vu que t'es invincible !"
  },
  {
    "label": "e8e54e59-7982-4cc2-9007-88ca9c3dcea1",
    "text": "Me dites pas que c'est un cul-de-sac ?"
  }
]