[
  {
    "label": "06f21571-59e5-43f4-862b-fad2a8464e1a",
    "text": "Il y a trop de cibles ! C'est trop injuste..."
  },
  {
    "label": "0cb08940-e8a3-44bd-ab5b-bcaa9bbd41e7",
    "text": "Ces cibles sont compliquées..."
  },
  {
    "label": "1dad4b49-95ab-465f-b661-2532222ad639",
    "text": "Arrivée en vuuuuue !"
  },
  {
    "label": "32061c68-c094-4e43-8110-ee5de46746c9",
    "text": "C'était époustouflant !"
  },
  {
    "label": "53a257eb-d613-4a58-8061-820e1c346e6c",
    "text": "Vous perdez rien pour attendre, cibles traîtresses..."
  },
  {
    "label": "5465e5d5-7115-42e2-b3f6-1c54369fd9d3",
    "text": "Allez, fichues cibles ! Arrêtez de nous casser les\ntentacules !"
  },
  {
    "label": "58999aea-8d86-4241-9826-02f18b04a60d",
    "text": "YES !"
  },
  {
    "label": "70e5bf5c-6231-4913-8d02-2bffb3dfe2c1",
    "text": "Le bouquet final arrive ! Je le sens !"
  },
  {
    "label": "71887444-23e5-415e-a875-ad97e1897be7",
    "text": "Lance une {{color id=\"1\"}}bombe ballon{{color id=\"65535\"}} avec {{icon id=\"10\" arg=\"0x0000803F00000000\"}} !"
  },
  {
    "label": "7ec78d24-b584-433b-ad6c-d2d23c766956",
    "text": "Beau travail, Numéro 3 !"
  },
  {
    "label": "85373911-2c7f-4552-8ad8-5815cfeec8af",
    "text": "C'est ça ! Continue !"
  },
  {
    "label": "9674cceb-dadb-499c-9d55-82eab8dbe8af",
    "text": "J'espère que t'aimes détruire les {{color id=\"1\"}}cibles{{color id=\"65535\"}}, Numéro 3 !"
  },
  {
    "label": "9d424236-20ea-4f4e-8516-b7cf4227f3e5",
    "text": "Bon, quand ça veut pas, ça veut pas...\nTu feras mieux la prochaine fois !"
  },
  {
    "label": "c6f59161-4b10-4dfe-a3ab-2df61cc6f6b6",
    "text": "Essaie de faire aussi bien sur la deuxième partie !"
  },
  {
    "label": "d51ac352-b913-4fcf-a834-1810a7df57a8",
    "text": "Tirer en se déplaçant, c'est pas de la tarte..."
  },
  {
    "label": "e20283f4-5fbe-4ca2-a2f0-8990bce20cef",
    "text": "Ces bombes génèrent une onde de choc qui peut\ndéclencher tout un tas de choses !"
  },
  {
    "label": "f7ec12f5-192c-4677-b2c1-1727d9131615",
    "text": "Ah, un {{color id=\"1\"}}fil conducteur{{color id=\"65535\"}} ! Je les adore parce qu'il\nsuffit de sauter dessus et zou, c'est parti !"
  }
]