[
  {
    "label": "0660b7cb-e815-4824-bc12-f8e87b85b5be",
    "text": "Pas mal, ça. Tu as fait le ménage autour de toi.\nEn plus, le {{color id=\"4\"}}vortex est en piteux état{{color id=\"65535\"}}."
  },
  {
    "label": "2444e4fe-493d-47a0-a743-60154965c47e",
    "text": "À la demande générale... voici la {{color id=\"4\"}}tempête sonore {{color id=\"65535\"}}!"
  },
  {
    "label": "279eb6ce-4630-4941-8b7e-acafb0bde1aa",
    "text": "Super, on a déjà le premier fragment."
  },
  {
    "label": "adb8ed4a-b39d-4db0-a578-511f1ad92b5c",
    "text": "À cet étage, tu vas devoir encrer les deux zones."
  },
  {
    "label": "b6255445-e775-4335-b635-edd88a3754aa",
    "text": "Plus rien ne sort du vortex quand il est bloqué.\nProfites-en !"
  },
  {
    "label": "fd977d4a-0601-4121-bee4-63271eda1567",
    "text": "Et de deux ! Un dernier fragment et je pourrai\ndéclencher ma tempête sonore !"
  }
]