[
  {
    "label": "0b6a990d-0ed2-41c9-932e-a15e2965d876",
    "text": "Allez, plus qu'un."
  },
  {
    "label": "c3dffacd-f7fe-465c-a624-62b15870a5c7",
    "text": "Les gros Squelécailles essaieront de te charger\nà la première occasion."
  },
  {
    "label": "ca2d558a-e9bf-4f8d-a6d5-4f5f7dd491fa",
    "text": "Boum ! Un de moins !"
  },
  {
    "label": "dfb7175e-35f4-423a-8354-0ffcf5796110",
    "text": "Ils encrent même pas le sol. T'y crois, toi ?"
  },
  {
    "label": "fd8f2a49-afcd-49fa-994c-9dc589eacdbc",
    "text": "Tu as vu cette {{color id=\"4\"}}cartouche d'encre {{color id=\"65535\"}}{{icon id=\"66\" arg=\"0x0000803F00000000\"}} ? Ramasse-la\net tu récupéreras un demi-réservoir d'encre."
  }
]