[
  {
    "label": "1df6c256-32a2-4d5b-9a16-115b16e4295f",
    "text": "Là, attention ! Appuie sur {{icon id=\"1\" arg=\"0x0000803F00000000\"}} pour sauter au-dessus\ndes ondes !"
  },
  {
    "label": "7650ceda-07d8-49b5-ad55-793b0d3f560b",
    "text": "T'es à la moitié ! Continue comme ça !"
  }
]