[
  {
    "label": "0593859f-126f-42e2-b55c-784f75af9ad0",
    "text": "Un {{color id=\"1\"}}bloc serpentin{{color id=\"65535\"}} ! Tire sur la souche et il s'étendra !"
  },
  {
    "label": "26cf78bf-05e2-4e7a-ae92-26339136b59e",
    "text": "Si tu dois effectuer une retraite stratégique,\nutilise le{{color id=\"1\"}} bloc serpentin{{color id=\"65535\"}}."
  },
  {
    "label": "312b4daf-bd59-4f8d-84ee-f3a81bc86264",
    "text": "L'arrivée est en vue !"
  },
  {
    "label": "3a6022ad-9723-4e08-9e33-bd1380d89a07",
    "text": "La route s'arrête là."
  },
  {
    "label": "453061cd-a6ad-4d93-911d-1e59f8b6d1ce",
    "text": "Pas mal !"
  },
  {
    "label": "4d5e53f2-4170-47ab-b0dc-0f8f0c5e35a0",
    "text": "Il faudrait se rapprocher de ce {{color id=\"1\"}}tentatourelle{{color id=\"65535\"}}..."
  },
  {
    "label": "66cb6cd2-8a3d-4f90-aa42-b94d0d0f250f",
    "text": "Fonce !"
  },
  {
    "label": "84a8d230-40bb-4721-b535-e7fd376d3cd5",
    "text": "J'adore la façon dont jaillissent les {{color id=\"1\"}}blocs serpentins{{color id=\"65535\"}}..."
  },
  {
    "label": "975a8643-0975-44e8-b0ad-02ec80efff85",
    "text": "Fais gaffe, les {{color id=\"1\"}}blocs serpentins{{color id=\"65535\"}} se recroquevillent\nen un rien de temps !"
  },
  {
    "label": "a33adf86-7944-4b75-806c-ec5119c4d303",
    "text": "Tu veux vraiment passer par là ?\nT'as pas froid aux yeux, toi..."
  },
  {
    "label": "cd5eb09d-1610-4e11-aadd-642acb857048",
    "text": "Pareil ! Ça vaut presque le coup de les laisser se\nrecroqueviller, juste pour les faire rejaillir !"
  },
  {
    "label": "cdfbceb2-bbd0-45ab-8742-af0975347a4f",
    "text": "« La voie du succès est pavée de {{color id=\"1\"}}blocs serpentins {{color id=\"65535\"}}»,\ncomme disait... moi, ha ha !"
  },
  {
    "label": "d253824b-59a6-4de1-9e01-ecc7ddbb813a",
    "text": "J'imagine que ça marche aussi comme ça..."
  },
  {
    "label": "df224ada-dc97-4bd0-8181-6b56e9982a89",
    "text": "Ouais !"
  },
  {
    "label": "f0fc8399-b421-49ab-89ff-2513aa713017",
    "text": "Quand un {{color id=\"1\"}}bloc serpentin{{color id=\"65535\"}} est étendu mais d'une autre\ncouleur, tire sur la souche pour qu'il se recroqueville."
  },
  {
    "label": "f47c8644-d7c5-492d-8cf3-82aee23a8608",
    "text": "Joli travail, Numéro 3 !"
  }
]