[
  {
    "label": "28e0369c-2d27-427c-b07a-b9cc0096d752",
    "text": "La classe ! Un {{color id=\"1\"}}ultra-tamponneur{{color id=\"65535\"}} ! J'en connais qui\nvont se faire estampiller la face !"
  },
  {
    "label": "2b5aa0fa-86d4-49f2-a06a-218f8a3bca08",
    "text": "C'est beaucoup trop calme ici.\nPrépare-toi à tout !"
  },
  {
    "label": "57a22500-ca92-4e08-ae57-08f692b933a6",
    "text": "{{color id=\"1\"}}Clé{{color id=\"65535\"}} {{icon id=\"26\" arg=\"0x0000803F00000000\"}} empochée ! Et... la serrure, elle est où ?"
  },
  {
    "label": "78322f93-9e1f-40f1-9966-0afed328452b",
    "text": "Y a un autre de ces affreux qui se planque juste\nau-dessus... Descends, espèce de lâche !"
  },
  {
    "label": "973dd824-2c25-456a-bed3-8bd6e05b79c3",
    "text": "L'arrivée doit être juste derrière ce portail...\nSauf qu'on a pas la {{color id=\"1\"}}clé{{color id=\"65535\"}}. Pff..."
  },
  {
    "label": "a17ff0f3-f7bf-4e75-a763-dabc648cd107",
    "text": "Un {{color id=\"1\"}}lance-rafales{{color id=\"65535\"}} ? OK, les choses sérieuses\npeuvent commencer."
  },
  {
    "label": "c704b8f7-64ed-4e0c-9c28-8208d56ee56f",
    "text": "T'as obtenu la {{color id=\"1\"}}clé {{color id=\"65535\"}}! Pfiou, j'en avais oublié de respirer\ntellement j'étais tendue. Allez, on bouge !"
  }
]