[
  {
    "label": "AfterFirstBattle_00",
    "text": "と、まあ、バトルはこんな感じだ！{{pageBreak}}ところで、バトル中に 味方や相手のプレイヤー名が入った\n{{color id=\"1\"}}フダのようなもの{{color id=\"65535\"}}を見なかったか？{{pageBreak}}それは {{color id=\"1\"}}ネームプレート{{color id=\"65535\"}}だ{{pageBreak}}バンカラ街のイカやタコたちは、ネームプレートを使って\n自分の個性をアピールしているぞ{{pageBreak}}…ムムッ？！"
  },
  {
    "label": "AfterFirstBattle_01",
    "text": "キミの持っているネームプレートは\nまだ{{color id=\"1\"}}プレイヤー名の登録{{color id=\"65535\"}}がされていないようだな"
  },
  {
    "label": "AfterFirstBattle_02",
    "text": "次のバトルへ行く前に、あそこにある{{color id=\"1\"}}ロビー端末{{color id=\"65535\"}}で\nプレイヤー名を登録してくれ！"
  },
  {
    "label": "AfterFirstBattle_Reward_00",
    "text": "キミの持っているネームプレートには\nどうやら昔のデータが少しだけ残っているみたいだ{{pageBreak}}残っているデータを使えるようにするぞ…"
  },
  {
    "label": "AfterFirstBattle_Reward_01",
    "text": "プレイヤー名は あらためて登録する必要があるぞ"
  }
]