[
  {
    "label": "XRankingReward_00",
    "text": "Xマッチで最高にイカしたプレイを見せてくれた\nキミへのお知らせだ！"
  },
  {
    "label": "XRankingReward_01",
    "text": "おめでとう！ 前のシーズンのXランキングが決まって\nキミの順位が上がったぞ！"
  },
  {
    "label": "XRankingReward_02",
    "text": "順位のチェックは{{color id=\"1\"}}イカリング３{{color id=\"65535\"}}からだ！"
  }
]