[
  {
    "label": "000",
    "text": "ふー、けっこう遠くまで来たね！"
  },
  {
    "label": "001",
    "text": "あっちから他のサイトに行けそうだよ"
  },
  {
    "label": "002",
    "text": "お、反対側にもパイプラインあるね"
  },
  {
    "label": "003",
    "text": "ここも おじいちゃんらしき反応は無しか…"
  },
  {
    "label": "004",
    "text": "じゃー探検しつつ、次のサイトにレッツゴー！"
  },
  {
    "label": "100",
    "text": "ふー、けっこう遠くまで来たね！"
  },
  {
    "label": "101",
    "text": "あっちから他のサイトに行けそうだよ"
  },
  {
    "label": "102",
    "text": "こっちはもどる方向のパイプやね"
  },
  {
    "label": "103",
    "text": "う～ん、おじいちゃんらしき反応は無しか…"
  },
  {
    "label": "104",
    "text": "じゃー探検しつつ、次のサイトにレッツゴー！"
  }
]