[
  {
    "label": "Comment_00",
    "text": "ちょっと待つんじゃあーーー！！"
  },
  {
    "label": "Comment_01",
    "text": "だれッ？！"
  },
  {
    "label": "Comment_02",
    "text": "ほほーう、だれかと聞いたな？{{delay frames=\"65\"}}\n耳のモズクかっぽじって よく聞くのじゃ！"
  },
  {
    "label": "Comment_03",
    "text": "三度のメシより オタカラ・ハント！"
  },
  {
    "label": "Comment_04",
    "text": "踊るギャングスター、{{color id=\"1\"}}{{delay frames=\"15\"}}ウツホ{{color id=\"65535\"}}！"
  },
  {
    "label": "Comment_05",
    "text": "一切合切 食いあらす！"
  },
  {
    "label": "Comment_06",
    "text": "サメ使いの {{color id=\"1\"}}フウカ{{color id=\"65535\"}}！"
  },
  {
    "label": "Comment_07",
    "text": "エイ！{{string value=\"5\"}}（一獲千金 千客万来！）{{fun_000F_0004 arg=\"0x0500\"}}"
  },
  {
    "label": "Comment_08",
    "text": "エイ！{{string value=\"5\"}}（マンタの {{color id=\"1\"}}マンタロー{{color id=\"65535\"}}！）{{fun_000F_0004 arg=\"0x0500\"}}"
  },
  {
    "label": "Comment_09",
    "text": "バンカラ代表、"
  },
  {
    "label": "Comment_10",
    "text": "イカした義賊、"
  },
  {
    "label": "Comment_11",
    "text": "エイ！{{string value=\"5\"}}（ゼイタクざんまい、）{{fun_000F_0004 arg=\"0x0500\"}}"
  },
  {
    "label": "Comment_12",
    "text": "「{{color id=\"1\"}}すりみ連合{{color id=\"65535\"}}」だッ！！"
  },
  {
    "label": "Comment_13",
    "text": "…か、{{delay frames=\"30\"}}かっこいいーーー！"
  },
  {
    "label": "Comment_14",
    "text": "え～と、{{delay frames=\"15\"}}その すりみ連合さん？が\nウチらに何の用？"
  },
  {
    "label": "Comment_15",
    "text": "ってか、{{delay frames=\"15\"}}すりみ連合って バンカラジオの…"
  },
  {
    "label": "Comment_16",
    "text": "フン、{{delay frames=\"15\"}}あっちは世をしのぶ仮の姿、{{delay frames=\"45\"}}\nその実体は 神出鬼没の とうぞくサマなのじゃ！"
  },
  {
    "label": "Comment_17",
    "text": "クレーターの地下に\nこ～んな空間があるやなんてねぇ"
  },
  {
    "label": "Comment_18",
    "text": "オタカラが ギョーさんあるに\nちがいあらへんわ"
  },
  {
    "label": "Comment_19",
    "text": "エイ！{{string value=\"5\"}}（高値で売れそう！）{{fun_000F_0004 arg=\"0x0500\"}}"
  },
  {
    "label": "Comment_20",
    "text": "オマエさんらも オタカラをねらっとるんじゃろ？"
  },
  {
    "label": "Comment_21",
    "text": "オタカラは ワシらが残らずいただくつもりじゃて、{{delay frames=\"15\"}}\n先にワビ入れとこうと思っての！"
  },
  {
    "label": "Comment_22",
    "text": "わぁ、れいぎ正しい人たちなんだね"
  },
  {
    "label": "Comment_23",
    "text": "なんじゃ、{{delay frames=\"15\"}}あんまりビビっとらんようじゃな{{pageBreak}}最近の若いもんは つまらんのう"
  },
  {
    "label": "Comment_24",
    "text": "エイ！{{string value=\"5\"}}（ボクたちも若いけどね！）{{fun_000F_0004 arg=\"0x0500\"}}"
  },
  {
    "label": "Comment_25",
    "text": "…とにかく、{{delay frames=\"30\"}}オタカラはぜ～んぶ\nウチらのもんやさかい"
  },
  {
    "label": "Comment_26",
    "text": "アンタらも せいぜいおきばりやす～"
  },
  {
    "label": "Comment_27",
    "text": "ほな、カイサン！"
  }
]