[
  {
    "label": "C4_S02_00",
    "text": "３号 ナ～イス♪{{pageBreak}}おじいちゃんは見つからんけど、\nオタカラは集まってきたね"
  },
  {
    "label": "C4_S02_01",
    "text": "{{string value=\"6\"}}ザザッ！{{fun_000F_0004 arg=\"0x0600\"}}{{delay frames=\"30\"}}{{string value=\"6\"}} ザーーー！{{fun_000F_0004 arg=\"0x0600\"}}{{pageBreak}}…応答されたしーーッ！"
  },
  {
    "label": "C4_S02_02",
    "text": "じーちゃんからの通信だ！ もしもーし！"
  },
  {
    "label": "C4_S02_03",
    "text": "応答された……{{delay frames=\"15\"}}おお、１号か！{{pageBreak}}部屋から出る方法を探っとるんじゃが、\n出口が見当たらんくてのゥ！{{pageBreak}}{{string value=\"5\"}}…？{{fun_000F_0004 arg=\"0x0500\"}}{{pageBreak}}ヌッ、だれか きよる！"
  },
  {
    "label": "C4_S02_04",
    "text": "気がついたようだね、アタリメ元司令"
  },
  {
    "label": "C4_S02_05",
    "text": "むむッ！ イカにもワシはアタリメじゃが…{{pageBreak}}なんじゃ貴様は！ 名を名乗れィ！"
  },
  {
    "label": "C4_S02_06",
    "text": "はは、元気なおじいさんだ…{{delay frames=\"15\"}} いいね{{pageBreak}}ワタシは… そう、{{delay frames=\"15\"}}「{{color id=\"1\"}}クマサン{{color id=\"65535\"}}」だよ"
  },
  {
    "label": "C4_S02_07",
    "text": "クマさん……と？{{delay frames=\"30\"}}\nそん…ク……んて………じゃ！"
  },
  {
    "label": "C4_S02_08",
    "text": "{{string value=\"6\"}}ザザーーーーー！{{fun_000F_0004 arg=\"0x0600\"}}"
  },
  {
    "label": "C4_S02_09",
    "text": "あれ、いいところで切れちゃった{{delay frames=\"30\"}}\nおーい！ じーちゃーーん！{{pageBreak}}…うーん、つながらないみたい{{pageBreak}}気になるけど、反応を追いかけてったら会えるよね{{delay frames=\"30\"}}\n行こう、３号！"
  }
]