[
  {
    "label": "Comment_00",
    "text": "じーちゃん！{{delay frames=\"15\"}} 助けにきたよ！！"
  },
  {
    "label": "Comment_01",
    "text": "えっ…"
  },
  {
    "label": "Comment_02",
    "text": "じ…{{delay frames=\"30\"}}じーちゃん？"
  },
  {
    "label": "Comment_03",
    "text": "おじいちゃん！{{delay frames=\"60\"}} ウソ…{{delay frames=\"45\"}}そんな……"
  },
  {
    "label": "Comment_04",
    "text": "ハッ！"
  },
  {
    "label": "Comment_05",
    "text": "やあやあ、{{delay frames=\"30\"}}よくここまで来たね"
  },
  {
    "label": "Comment_06",
    "text": "ちょっと、毛むくじゃら！{{delay frames=\"60\"}}\nじーちゃんを…{{delay frames=\"45\"}} じーちゃんを元にもどして！！"
  },
  {
    "label": "Comment_07",
    "text": "気にすることはない…{{delay frames=\"60\"}}\nこれからすべて元通りになるんだ"
  },
  {
    "label": "Comment_08",
    "text": "なんね？！！"
  },
  {
    "label": "Comment_09",
    "text": "アルバイト{{delay frames=\"15\"}} キホンの「ン」…{{delay frames=\"60\"}}\n何事にも終わりは訪れるものだ"
  },
  {
    "label": "Comment_10",
    "text": "そう、{{delay frames=\"30\"}}今の世界にもね"
  },
  {
    "label": "Comment_11",
    "text": "なに、{{delay frames=\"30\"}}天からケバインクを降らせて\n世界のバランスを正すだけさ"
  },
  {
    "label": "Comment_12",
    "text": "今日は終わり、{{delay frames=\"30\"}}明日が始まる"
  }
]