[
  {
    "label": "000",
    "text": "ロケットの中だー！"
  },
  {
    "label": "001",
    "text": "道が上までグルグル続いとるね"
  },
  {
    "label": "002",
    "text": "エイエイ！{{string value=\"5\"}}（登ってみよう！）{{fun_000F_0004 arg=\"0x0500\"}}"
  }
]