[
  {
    "label": "Comment_00",
    "text": "その調子じゃ ３号！{{pageBreak}}にしても、ここのタコは不気味じゃわィ…{{delay frames=\"30\"}}\n毛は分厚いのに 魂はペラペラっちゅうか{{pageBreak}}ワシらだけでは ちっとばかし心もとないのゥ…{{delay frames=\"45\"}}\nよし、{{delay frames=\"15\"}}通信機で助けを求めるぞィ！{{pageBreak}}レディオチェック レディオチェック{{delay frames=\"30\"}}\nこちらアタリメ、どうぞ"
  },
  {
    "label": "Comment_01",
    "text": "ん…{{delay frames=\"60\"}} こちら２号、{{delay frames=\"15\"}}ド～ゾ～"
  },
  {
    "label": "Comment_02",
    "text": "って おじいちゃんじゃん、{{delay frames=\"30\"}}\nまた勝手に歩き回っとんのね…{{pageBreak}}１号～{{delay frames=\"15\"}}\nおじいちゃん ほっつき歩いてるっぽい"
  },
  {
    "label": "Comment_03",
    "text": "行くよ ２号！{{delay frames=\"15\"}}\nじーちゃんをカクホせよっ！"
  },
  {
    "label": "Comment_04",
    "text": "らじゃ～ 了解～ イカよろしく～"
  },
  {
    "label": "Comment_06",
    "text": "{{string value=\"5\"}}……………{{fun_000F_0004 arg=\"0x0500\"}}{{delay frames=\"60\"}}切れてしもうた{{pageBreak}}うーむ、１号も ２号も せっかちでイカんな"
  },
  {
    "label": "Comment_07",
    "text": "{{string value=\"6\"}}ザザ…！{{fun_000F_0004 arg=\"0x0600\"}}{{delay frames=\"45\"}} {{string value=\"6\"}}ザザザ…！！{{fun_000F_0004 arg=\"0x0600\"}}"
  },
  {
    "label": "Comment_08",
    "text": "…ギ…{{delay frames=\"15\"}} ギギ…{{delay frames=\"60\"}} アタ……{{delay frames=\"15\"}} ミツ…タゾ！！"
  },
  {
    "label": "Comment_09",
    "text": "んん？{{delay frames=\"30\"}} どうも無線の調子が悪いようじゃの{{pageBreak}}まぁええか、{{delay frames=\"15\"}}\n気を取り直して レッツらゴーじゃ！"
  }
]