[
  {
    "label": "000",
    "text": "{{color id=\"1\"}}新しいシーズン{{color id=\"65535\"}}が 始まったで～！"
  },
  {
    "label": "001",
    "text": "おおおー！！"
  },
  {
    "label": "002",
    "text": "エ～イ！{{string value=\"5\"}}（心機一転 がんばっていこう！）{{fun_000F_0004 arg=\"0x0500\"}}"
  },
  {
    "label": "003",
    "text": "{{color id=\"1\"}}Xマッチ{{color id=\"65535\"}}が 解禁されたで！"
  },
  {
    "label": "005",
    "text": "エ～イ！{{string value=\"5\"}}（ウデマエ {{color id=\"1\"}}Ｓ+{{size value=\"75\"}}0{{size value=\"100\"}}以上{{color id=\"65535\"}}で参加できるよ！）{{fun_000F_0004 arg=\"0x0500\"}}"
  },
  {
    "label": "006",
    "text": "テッペンはワシがいただきじゃー！！"
  },
  {
    "label": "007",
    "text": "{{color id=\"1\"}}新しいブキ{{color id=\"65535\"}}が 追加されたんじゃな！"
  },
  {
    "label": "008",
    "text": "エイ！{{string value=\"5\"}}（やったね！）{{fun_000F_0004 arg=\"0x0500\"}}"
  },
  {
    "label": "008_01",
    "text": "ほうほう…"
  },
  {
    "label": "009",
    "text": "これは ブキチはんのお話が楽しみどすなぁ…"
  },
  {
    "label": "010",
    "text": "{{color id=\"1\"}}新しいステージ{{color id=\"65535\"}}も 追加されたんか！"
  },
  {
    "label": "011",
    "text": "エイエイ！{{string value=\"5\"}}（どんな立ち回りができるのかな～！）{{fun_000F_0004 arg=\"0x0500\"}}"
  },
  {
    "label": "012",
    "text": "{{color id=\"1\"}}バトルのステージ{{color id=\"65535\"}}に 選ばれるようになったし、\n楽しみにしといてや！"
  },
  {
    "label": "013",
    "text": "はよう暴れ回りたいのう！"
  }
]