[
  {
    "label": "000",
    "text": "エイッ！{{string value=\"5\"}}（ステージ紹介の前に 臨時ニュースだよ！）{{fun_000F_0004 arg=\"0x0500\"}}"
  },
  {
    "label": "001",
    "text": "なんや？ うれしそうやん"
  },
  {
    "label": "002",
    "text": "エイエイ！{{string value=\"5\"}}（{{color id=\"1\"}}ビッグラン{{color id=\"65535\"}}の結果が出ましたー！）{{fun_000F_0004 arg=\"0x0500\"}}"
  },
  {
    "label": "003",
    "text": "うおおお！ 来たのじゃーー！！"
  },
  {
    "label": "004",
    "text": "……え、何？ クマサン商会から？"
  },
  {
    "label": "005",
    "text": "え～、 「このたびは多大なるご協力をいただき\nまことにありがとうございました」"
  },
  {
    "label": "006",
    "text": "「ささやかながら ハイスコアに応じたお礼の品を\nご用意いたしました」…やって！"
  },
  {
    "label": "007",
    "text": "ふむぅ、ワクワクするのう！"
  },
  {
    "label": "008",
    "text": "それでは発表いたしやしょう！\nええモノもらえる {{color id=\"1\"}}ハイスコア{{color id=\"65535\"}}のボーダーラインは…"
  },
  {
    "label": "009",
    "text": "はよ！ はよぅ！！"
  },
  {
    "label": "010",
    "text": "てんてけてけてけー…"
  },
  {
    "label": "011",
    "text": "エイエイエイエイ～…"
  },
  {
    "label": "012",
    "text": "{{size value=\"150\"}}ぽん！{{size value=\"100\"}}"
  },
  {
    "label": "013",
    "text": "{{size value=\"150\"}}エイ！{{size value=\"100\"}}"
  },
  {
    "label": "014",
    "text": "こ、こんなに高いスコアを出した連中がおったんか？！"
  },
  {
    "label": "015",
    "text": "エ～イ！！{{string value=\"5\"}}（ファンタスティック！！）{{fun_000F_0004 arg=\"0x0500\"}}"
  },
  {
    "label": "014_1",
    "text": "また えらいスコアが出てもうたな…"
  },
  {
    "label": "015_1",
    "text": "これにはシャケもびっくりじゃろ"
  },
  {
    "label": "014_2",
    "text": "エエーイ！！{{string value=\"5\"}}（うわぁ、今回もすごいスコアだよ！！）{{fun_000F_0004 arg=\"0x0500\"}}"
  },
  {
    "label": "015_2",
    "text": "相変わらず ハイレベルやねぇ！"
  },
  {
    "label": "014_3",
    "text": "なんじゃー？！ この高すぎるボーダーはー！"
  },
  {
    "label": "015_3",
    "text": "エエイ！{{string value=\"5\"}}（スゴすぎー！！）{{fun_000F_0004 arg=\"0x0500\"}}"
  },
  {
    "label": "016",
    "text": "このスコアに届かんかっても\nお礼は全員もらえるさかい、安心してな～"
  },
  {
    "label": "017",
    "text": "エイ…{{string value=\"5\"}}（ホッ…）{{fun_000F_0004 arg=\"0x0500\"}}"
  },
  {
    "label": "100",
    "text": "エイ！{{string value=\"5\"}}（一時は どうなることかと思ったけど\nみんなのおかげで街を守れたね！）{{fun_000F_0004 arg=\"0x0500\"}}"
  },
  {
    "label": "101",
    "text": "うむ、バンカラもんの強さを\nシャケどもに見せつけてやったのじゃ！"
  },
  {
    "label": "102",
    "text": "みんな ほんまにようやったね！\nバンカラを代表して お礼を言わしてもらいますえ！"
  },
  {
    "label": "103",
    "text": "あー、久しぶりに あのジェットコースター\n乗りたくなってきたのう！"
  },
  {
    "label": "104",
    "text": "エイ～{{string value=\"5\"}}（最近プライベートでは 行ってなかったもんね～）{{fun_000F_0004 arg=\"0x0500\"}}"
  },
  {
    "label": "105",
    "text": "ほな、営業再開したら ３人で行こか！"
  },
  {
    "label": "106",
    "text": "ヨッシャ！ 決まりじゃな！！"
  },
  {
    "label": "107",
    "text": "エイ！{{string value=\"5\"}}（みんな、がんばってくれて本当にありがとう！\n学校も街も無事みたいだし よかった～！）{{fun_000F_0004 arg=\"0x0500\"}}"
  },
  {
    "label": "108",
    "text": "シャケも みんなのキレ～な立ち回り見してもろて\nええ勉強になったんとちゃう？"
  },
  {
    "label": "109",
    "text": "強さも美しさも ワシらが勝っておったな！\nおとといきやがれなのじゃ！！"
  },
  {
    "label": "110",
    "text": "にしても、美術なぁ… 仕事始めてから\n絵なんて全然かいてへん気ぃするわ"
  },
  {
    "label": "111",
    "text": "エイ～{{string value=\"5\"}}（そういえばフウカちゃん、中学のとき\n絵画コンクールで入賞してたよね～）{{fun_000F_0004 arg=\"0x0500\"}}"
  },
  {
    "label": "112",
    "text": "あの オオデンチナマズの絵じゃな！\n実にアバンギャルドな色使いじゃった！"
  },
  {
    "label": "113",
    "text": "ナマズ？\n入賞したんは 先生をかいた絵やろ？"
  },
  {
    "label": "114",
    "text": "オマエさんら、よくがんばってくれた！\n実にテキパキとした働きっぷりじゃったぞ！"
  },
  {
    "label": "115",
    "text": "エイ！{{string value=\"5\"}}（マテガイ放水路は どこも壊れてないんだって！\nまたバトルもできるみたいだし、ひと安心だね！）{{fun_000F_0004 arg=\"0x0500\"}}"
  },
  {
    "label": "116",
    "text": "バンカラの大事な収入…やなかった、\n文化財を守ってくれはって ほんまにありがとうね！"
  },
  {
    "label": "117",
    "text": "シャケが地上だけでなく 水路も通ってくるコトは\n覚えといたほうが良さそうじゃな"
  },
  {
    "label": "118",
    "text": "エイッ！{{string value=\"5\"}}（水路なら バンカラ街にもたくさんあるし、\n気をつけなくちゃ！）{{fun_000F_0004 arg=\"0x0500\"}}"
  },
  {
    "label": "119",
    "text": "そういえば、バンカラ七不思議のひとつに\n「水路にひびくナゾの声」ゆうのがあってな…"
  },
  {
    "label": "120",
    "text": "エーーイ？！{{string value=\"5\"}}（えっ何？ こわい話？！）{{fun_000F_0004 arg=\"0x0500\"}}"
  },
  {
    "label": "121",
    "text": "エイエイ～！{{string value=\"5\"}}（みんなの戦う姿、かっこよかったよ！\n歴史に名をはせる英雄って こんな感じなのかな～！）{{fun_000F_0004 arg=\"0x0500\"}}"
  },
  {
    "label": "122",
    "text": "ワシら バンカラもんの強さは、\n遠い未来まで 語りつがれるじゃろうな！"
  },
  {
    "label": "123",
    "text": "ナンプラー遺跡は無事やったみたいやし、\nまた安心して バトルや観光においでやす～！"
  },
  {
    "label": "124",
    "text": "「なぜシャケは ナンプラー遺跡をねらったのか？！」\n次回のバンカラジオは ３時間スペシャルで決まりじゃ！"
  },
  {
    "label": "125",
    "text": "エイ～♪{{string value=\"5\"}}（遺跡のヒミツを解き明かせ～♪）{{fun_000F_0004 arg=\"0x0500\"}}"
  },
  {
    "label": "126",
    "text": "ほな、イカの古代文明について\nキ～ッチリ 歴史のお勉強せなあかんなぁ？"
  },
  {
    "label": "127",
    "text": "…やっぱ次回は\nバンカラ街の最新グルメ特集にしようかの？"
  },
  {
    "label": "500",
    "text": "とにかく！ これで晴れて何の心配もなく\nフェスができるワケじゃ！"
  },
  {
    "label": "501",
    "text": "みんなのおかげやで！ ほんま おおきにね！"
  },
  {
    "label": "502",
    "text": "さあさあ すりみ連合 フェスにて相争う！\nリーダーの座は だれの手に？！"
  },
  {
    "label": "503",
    "text": "エ～イ！{{string value=\"5\"}}（おうえん よろしくお願いしまーす！）{{fun_000F_0004 arg=\"0x0500\"}}"
  },
  {
    "label": "600",
    "text": "……え、何？ クマサン商会から？"
  },
  {
    "label": "601",
    "text": "エーイエーイ{{string value=\"5\"}}（読んで読んでー）{{fun_000F_0004 arg=\"0x0500\"}}"
  },
  {
    "label": "602",
    "text": "えー、「このたびは多大なるご協力をいただき\nまことにありがとうございました」"
  },
  {
    "label": "603",
    "text": "「全アルバイターにより回収された金イクラの集計が\n終わりましたので ご報告いたします」…やって！"
  },
  {
    "label": "604",
    "text": "はたして何コの金イクラが集まったんかのう？！"
  },
  {
    "label": "605",
    "text": "それでは発表いたしやしょう！\n今回のビッグランで集まった金イクラの数は～？"
  },
  {
    "label": "606",
    "text": "はよ！ はよぅ！！"
  },
  {
    "label": "607",
    "text": "いち、じゅう、ひゃく…{{delay frames=\"30\"}}待て！{{delay frames=\"15\"}}\n数字が多すぎてわからん！！！"
  },
  {
    "label": "608",
    "text": "エーイ？！{{string value=\"5\"}}（とにかく ノルマは達成だね！\nっていうか、こんなに集まったんだ？！）{{fun_000F_0004 arg=\"0x0500\"}}"
  },
  {
    "label": "609",
    "text": "あとで全員にお礼のウロコが配られるさかい\n楽しみにしといてな～"
  },
  {
    "label": "610",
    "text": "エッイー！{{string value=\"5\"}}（やったー！）{{fun_000F_0004 arg=\"0x0500\"}}"
  },
  {
    "label": "607_1",
    "text": "グハッ！ ノルマには届かんかったか…！"
  },
  {
    "label": "608_1",
    "text": "エイィ！{{string value=\"5\"}}（でもスゴい数だよ！！）{{fun_000F_0004 arg=\"0x0500\"}}"
  },
  {
    "label": "609_1",
    "text": "やっぱノルマ７億コは よくばりすぎやろ"
  },
  {
    "label": "610_1",
    "text": "エーイ…{{string value=\"5\"}}（ウロコがもらえないのは残念だけど、\nフェス会場が無事だっただけで十分だよね）{{fun_000F_0004 arg=\"0x0500\"}}"
  },
  {
    "label": "611_pre1",
    "text": "エエ～イ{{string value=\"5\"}}（ちなみに 今回のボーダーラインは\nこんな感じだったね{{fun_000F_0004 arg=\"0x0500\"}}）"
  },
  {
    "label": "611_pre2",
    "text": "このスコアに届かなくとも お礼は全員もらえるから\n安心するがよい！"
  },
  {
    "label": "611",
    "text": "大事なグランドフェスティバルを守れたのは\nみんなのおかげじゃ！ 心から礼を言うぞ！"
  },
  {
    "label": "612",
    "text": "エイエ～イ！{{string value=\"5\"}}（いつもボクらのピンチを救ってくれて、\nホントどれだけ感謝しても足りないくらいだよ！）{{fun_000F_0004 arg=\"0x0500\"}}"
  },
  {
    "label": "613",
    "text": "もし今後もシャケが攻めてくるコトがあれば、\nどうかまた 力を貸しとくれやす！"
  },
  {
    "label": "614",
    "text": "みんながいれば こわいもんナシじゃな！"
  },
  {
    "label": "615",
    "text": "エイ…{{string value=\"5\"}}（逆に、もしみんながいなかったらって考えると\nこわくなっちゃうよね…）{{fun_000F_0004 arg=\"0x0500\"}}"
  },
  {
    "label": "616",
    "text": "まあ、もし他にだれもいなかろうと\nワシら３人は シャケに立ち向かうがのう！"
  },
  {
    "label": "617",
    "text": "それがシマを守るもんの務めやからね"
  },
  {
    "label": "620",
    "text": "エイ～{{string value=\"5\"}}（とにかく、フェス会場の設営も無事終わったし\nいろいろ間に合って良かったよー）{{fun_000F_0004 arg=\"0x0500\"}}"
  },
  {
    "label": "621",
    "text": "これで心置きなく フェスを楽しめそやな♪"
  },
  {
    "label": "622",
    "text": "あとはグランドフェスティバルで ブチ上がるだけじゃ！"
  },
  {
    "label": "623",
    "text": "こんなビッグイベント、めったにあらへんで！\n存分に味わいつくしとくれやす！"
  }
]