[
  {
    "label": "000",
    "text": "クマサン商会から トクベツなお知らせやって"
  },
  {
    "label": "001",
    "text": "エイ？{{string value=\"5\"}}（何だろう？）{{fun_000F_0004 arg=\"0x0500\"}}"
  },
  {
    "label": "002",
    "text": "なんと！ {{color id=\"1\"}}バイトチームコンテスト{{color id=\"65535\"}}の参加者を\n募集しておるのか？！"
  },
  {
    "label": "003",
    "text": "エイエイ！{{string value=\"5\"}}（ちょうど今やってるみたいだね！）{{fun_000F_0004 arg=\"0x0500\"}}"
  },
  {
    "label": "004",
    "text": "参加するんやったら仲間に声かけて\nクマサン商会に行くんやで！"
  },
  {
    "label": "005",
    "text": "こうしちゃおれん！\n最強チームの座は ワシらがいただきじゃ！！"
  }
]