[
  {
    "label": "000",
    "text": "{{color id=\"1\"}}新しいシーズン{{color id=\"65535\"}}が 始まったで～！"
  },
  {
    "label": "001",
    "text": "おおおー！！"
  },
  {
    "label": "002",
    "text": "エ～イ！{{string value=\"5\"}}（心機一転 がんばっていこう！）{{fun_000F_0004 arg=\"0x0500\"}}"
  },
  {
    "label": "008_1",
    "text": "エイ！{{string value=\"5\"}}（このあと全員に{{color id=\"1\"}}ブキチライセンス{{color id=\"65535\"}}をプレゼントするよ！\nブキ屋さんで使ってね！）{{fun_000F_0004 arg=\"0x0500\"}}"
  },
  {
    "label": "009",
    "text": "ブキチはんのお話が楽しみどすなぁ…"
  }
]