[
  {
    "label": "000",
    "text": "{{color id=\"1\"}}新しいシーズン{{color id=\"65535\"}}が 始まったで～！"
  },
  {
    "label": "001",
    "text": "おおおー！！"
  },
  {
    "label": "002",
    "text": "エ～イ！{{string value=\"5\"}}（心機一転 がんばっていこう！）{{fun_000F_0004 arg=\"0x0500\"}}"
  },
  {
    "label": "010_sing",
    "text": "{{color id=\"1\"}}新しいステージ{{color id=\"65535\"}}も 追加されたんか！"
  },
  {
    "label": "011_sing",
    "text": "エイエイ！{{string value=\"5\"}}（どんな立ち回りができるのかな～！）{{fun_000F_0004 arg=\"0x0500\"}}"
  },
  {
    "label": "012_sing",
    "text": "{{color id=\"1\"}}バトルのステージ{{color id=\"65535\"}}に 選ばれるようになったし、\n楽しみにしといてや！"
  },
  {
    "label": "013_sing",
    "text": "はよう暴れ回りたいのう！"
  },
  {
    "label": "101",
    "text": "…エイ？{{string value=\"5\"}}（…オカシラシャケの集合写真かな？）{{fun_000F_0004 arg=\"0x0500\"}}"
  },
  {
    "label": "102",
    "text": "なかなか よい笑顔じゃの"
  },
  {
    "label": "103",
    "text": "最近 {{color id=\"1\"}}３体のオカシラシャケ{{color id=\"65535\"}}を同時に目撃した、\nっちゅう報告が増えとるらしいで"
  },
  {
    "label": "104",
    "text": "エエイ？！{{string value=\"5\"}}（１体だけでも キケンなのに？！）{{fun_000F_0004 arg=\"0x0500\"}}"
  },
  {
    "label": "105",
    "text": "フン、「{{color id=\"1\"}}オカシラ連合{{color id=\"65535\"}}」とでも言うつもりか？\nワシらに張り合えると思うなよ！！"
  },
  {
    "label": "106",
    "text": "バイト行かはるヒトは 気ぃつけや～！"
  }
]