[
  {
    "label": "001",
    "text": "ここまでみてーだな、デカイの！！"
  },
  {
    "label": "002",
    "text": "おそるべき{{delay frames=\"15\"}} 混沌の力……"
  },
  {
    "label": "003",
    "text": "しかし たった今 プログラムは完了シタ"
  },
  {
    "label": "004",
    "text": "世界にあまねく{{delay frames=\"15\"}} 秩序の平穏ヲ…"
  },
  {
    "label": "005",
    "text": "そんな、{{delay frames=\"15\"}}間に合わなかったなんて…！"
  },
  {
    "label": "006",
    "text": "世界から色が 失われていく…"
  },
  {
    "label": "007",
    "text": "オーダのプログラムを除去します！！"
  },
  {
    "label": "008",
    "text": "ダメ！{{delay frames=\"30\"}} 拡大のスピードが速すぎる…！！"
  },
  {
    "label": "009",
    "text": "…{{delay frames=\"15\"}}セン…{{delay frames=\"30\"}} パ………{{delay frames=\"15\"}} …"
  }
]