[
  {
    "label": "000",
    "text": "ハチなら こんくらいラクショーだよな！"
  },
  {
    "label": "001",
    "text": "やるじゃナイカ{{delay frames=\"15\"}}\nカラーチップも使いこなせてるようだしネ{{pageBreak}}カラーチップには いろんな種類があっテ、{{delay frames=\"15\"}}\n{{color id=\"4\"}}次のフロアへ進む前{{color id=\"65535\"}}に 毎回支給されるみたいナンダ{{pageBreak}}これを見てクレ"
  },
  {
    "label": "002",
    "text": "いま見えてるのが {{color id=\"4\"}}次のフロア{{color id=\"65535\"}}と\n{{color id=\"4\"}}支給されるカラーチップ{{color id=\"65535\"}}の情報ってワケ{{pageBreak}}次のカラーチップは「{{color id=\"4\"}}インクパチパチ{{color id=\"65535\"}}」{{delay frames=\"30\"}}\n効果は…{{delay frames=\"15\"}}書いてある通りダネ"
  },
  {
    "label": "003",
    "text": "ま、{{delay frames=\"15\"}}実際使ってみりゃ どんなモンかわかるって{{delay frames=\"30\"}}\nなぁ ハチ！"
  }
]