[
  {
    "label": "T_Text_00",
    "text": "Gear You Have"
  },
  {
    "label": "T_Text_01",
    "text": "Gear You Just Got"
  },
  {
    "label": "T_Explain_00",
    "text": "Duplicate Gear"
  },
  {
    "label": "T_Explain_01",
    "text": "If you don't want to keep it, you can trade it in."
  },
  {
    "label": "100",
    "text": "Nah"
  },
  {
    "label": "101",
    "text": "Swap for Chunks!"
  },
  {
    "label": "200",
    "text": "Buy New Gear!"
  },
  {
    "label": "201",
    "text": "Keep New Gear!"
  }
]