[
  {
    "label": "T_Msg_00",
    "text": "Splatoon 2 save data found!\nYou can import it if you want."
  },
  {
    "label": "000",
    "text": "{{number index=\"0\" type=\"3\" arg3=\"0\" arg4=\"0\"}}★"
  },
  {
    "label": "001",
    "text": "{{number index=\"0\" type=\"3\" arg3=\"0\" arg4=\"0\"}}"
  },
  {
    "label": "010",
    "text": "Hours: {{number index=\"0\" type=\"5\" arg3=\"0\" arg4=\"0\"}}"
  },
  {
    "label": "T_Rank_00",
    "text": "Level:"
  },
  {
    "label": "T_Time_00",
    "text": "Play Time:"
  }
]