[
  {
    "label": "EnterManhole",
    "text": "Enter"
  },
  {
    "label": "BackToPlaza",
    "text": "Back to City"
  },
  {
    "label": "PlayerDevice",
    "text": "Lobby Terminal"
  },
  {
    "label": "WoodenFigureOn",
    "text": "Turn Copy Machine ON"
  },
  {
    "label": "WoodenFigureOff",
    "text": "Turn Copy Machine OFF"
  },
  {
    "label": "Amiibo",
    "text": "amiibo"
  },
  {
    "label": "TalkToNpc",
    "text": "Talk"
  },
  {
    "label": "CanolaPost",
    "text": "Post"
  },
  {
    "label": "EatFood",
    "text": "Grab a Bite"
  },
  {
    "label": "JudgeTips",
    "text": "Get Advice"
  },
  {
    "label": "MiniGame",
    "text": "Tableturf Battle"
  },
  {
    "label": "FestVote",
    "text": "Splatfest Teams"
  },
  {
    "label": "WalkSingle",
    "text": "Go on Recon"
  },
  {
    "label": "Locker",
    "text": "Open Locker"
  },
  {
    "label": "KumasanRadio",
    "text": "Start Shift"
  },
  {
    "label": "Manual",
    "text": "Read Employee Handbook"
  },
  {
    "label": "Shiftboard",
    "text": "View Bulletin Board"
  },
  {
    "label": "CashExchange",
    "text": "Check Rewards"
  },
  {
    "label": "Lot",
    "text": "Play"
  },
  {
    "label": "Jukebox",
    "text": "Request Song"
  },
  {
    "label": "MiniGame_Play",
    "text": "Tableturf Battle"
  },
  {
    "label": "MiniGame_WaitForOpponent",
    "text": "Take a Seat"
  },
  {
    "label": "MiniGame_RequestBattle",
    "text": "Challenge Opponent"
  },
  {
    "label": "CoopSkinChanger",
    "text": "Change Gear"
  },
  {
    "label": "CoopWeaponChanger",
    "text": "Change Weapon"
  },
  {
    "label": "TakeMissionTreasure",
    "text": "Grab!"
  },
  {
    "label": "Remember",
    "text": "Relive Memories"
  },
  {
    "label": "Dresser",
    "text": "Equip"
  },
  {
    "label": "LockerDoor",
    "text": "Check It Out!"
  },
  {
    "label": "CoopStatsDevice",
    "text": "Grizzco Terminal"
  },
  {
    "label": "ActivateDrone",
    "text": "Activate Shel-drone"
  },
  {
    "label": "ChangeCommander",
    "text": "Investigate"
  },
  {
    "label": "PlazaMove",
    "text": "Ride Rail"
  },
  {
    "label": "Goods",
    "text": "Hotlantis"
  },
  {
    "label": "MiniGame_Spectate",
    "text": "Spectate"
  },
  {
    "label": "MiniGame_StandUp",
    "text": "Leave Seat"
  },
  {
    "label": "FieldScope",
    "text": "Take Picture"
  },
  {
    "label": "OpenMainMenu",
    "text": "Go Elsewhere"
  }
]