[
  {
    "label": "T_Msg_00",
    "text": "Where to?"
  },
  {
    "label": "L_Close_00-T_Btn_00",
    "text": "Cancel"
  },
  {
    "label": "L_BtnBGM_00-T_Btn_00",
    "text": "Next Song's Start Time"
  },
  {
    "label": "000",
    "text": "Return to {{string value=\"24\" arg1=\"0\" arg3=\"0\"}}"
  },
  {
    "label": "100",
    "text": "Colorful Evenings"
  },
  {
    "label": "101",
    "text": "The Night of Unity"
  },
  {
    "label": "102",
    "text": "That Tranquil Dawn"
  }
]