[
  {
    "label": "L_PlayerName_00-T_Wait_00",
    "text": "Waiting..."
  },
  {
    "label": "L_BtnList_00-T_Btn_00",
    "text": "Open Card List"
  },
  {
    "label": "L_BtnList_01-T_Btn_00",
    "text": "Check Rules"
  },
  {
    "label": "L_BackBtn_00-T_Info_00",
    "text": "Back"
  },
  {
    "label": "L_PlayerName_00-T_MngState_00",
    "text": "Battle ready!"
  },
  {
    "label": "L_PlayerName_00-T_MngState_01",
    "text": "In a battle..."
  },
  {
    "label": "L_PlayerName_00-T_MngState_02",
    "text": "Spectating..."
  },
  {
    "label": "L_GuideNotify_00-T_Btn_00",
    "text": "Y"
  },
  {
    "label": "000",
    "text": "Close Room"
  },
  {
    "label": "001",
    "text": "Leave Room"
  }
]