[
  {
    "label": "000",
    "text": "x{{number index=\"0\" type=\"3\" arg3=\"0\" arg4=\"0\"}}"
  },
  {
    "label": "001",
    "text": "x{{number index=\"0\" type=\"4\" arg3=\"0\" arg4=\"0\"}}"
  },
  {
    "label": "002",
    "text": "x{{number index=\"0\" type=\"3\" arg3=\"0\" arg4=\"0\"}}"
  },
  {
    "label": "004",
    "text": "{{number index=\"0\" type=\"1\" arg3=\"0\" arg4=\"0\"}}.{{number index=\"1\" type=\"2\" arg3=\"1\" arg4=\"0\"}}"
  },
  {
    "label": "005",
    "text": "{{number index=\"0\" type=\"2\" arg3=\"0\" arg4=\"0\"}}/{{number index=\"1\" type=\"2\" arg3=\"0\" arg4=\"0\"}}"
  },
  {
    "label": "007",
    "text": "＜{{number index=\"0\" type=\"3\" arg3=\"0\" arg4=\"0\"}}＞"
  },
  {
    "label": "050",
    "text": "+{{number index=\"0\" type=\"4\" arg3=\"0\" arg4=\"0\"}}"
  },
  {
    "label": "051",
    "text": "First Clear\nof the Day!"
  },
  {
    "label": "100",
    "text": "Leave"
  },
  {
    "label": "110",
    "text": "Again!"
  },
  {
    "label": "111",
    "text": "Yeah!"
  },
  {
    "label": "112",
    "text": "Again!"
  },
  {
    "label": "200",
    "text": "Play another?"
  },
  {
    "label": "201",
    "text": "Try again?"
  },
  {
    "label": "300",
    "text": "Big Run Bonus"
  },
  {
    "label": "301",
    "text": "x{{number index=\"0\" type=\"1\" arg3=\"0\" arg4=\"0\"}}.{{number index=\"1\" type=\"1\" arg3=\"0\" arg4=\"0\"}}"
  },
  {
    "label": "302",
    "text": "Closeout Bonus"
  },
  {
    "label": "320",
    "text": "x{{number index=\"0\" type=\"1\" arg3=\"0\" arg4=\"0\"}}!"
  },
  {
    "label": "500",
    "text": "Custom"
  },
  {
    "label": "501",
    "text": "Salmon Run"
  },
  {
    "label": "502",
    "text": "Private Job"
  },
  {
    "label": "T_Clear_00",
    "text": "Clear!"
  },
  {
    "label": "T_Failure_00",
    "text": "Defeat"
  },
  {
    "label": "T_Rank_01",
    "text": "Job Review"
  },
  {
    "label": "T_Rank_00",
    "text": "Bonus Meter"
  },
  {
    "label": "T_Rank_05",
    "text": "Special Bonus Meter"
  },
  {
    "label": "T_RankUp_00",
    "text": "You got a raise!"
  },
  {
    "label": "T_RankDown_00",
    "text": "Awww, pay cut..."
  },
  {
    "label": "T_Bonus_00",
    "text": "Pay Grade"
  },
  {
    "label": "T_IkuraBonus_00",
    "text": "Job Score"
  },
  {
    "label": "T_Support_00",
    "text": "Support"
  },
  {
    "label": "T_Level_00",
    "text": "Hazard Level"
  },
  {
    "label": "T_Level_03",
    "text": "Hazard Level"
  },
  {
    "label": "T_Point_00",
    "text": "Grizzco Points"
  },
  {
    "label": "T_RankKeep_00",
    "text": "Pay Grade Retained"
  },
  {
    "label": "L_Catalog_00-T_RankUp_00",
    "text": "LEVEL UP!"
  },
  {
    "label": "L_Catalog_00-T_Rank_00",
    "text": "Catalog"
  },
  {
    "label": "L_Catalog_00-T_Max_00",
    "text": "MAX"
  },
  {
    "label": "L_Catalog_00-T_Message_00",
    "text": "Visit Hotlantis at level 4!"
  },
  {
    "label": "L_Meter_00-T_Get_00",
    "text": "Got it!"
  },
  {
    "label": "L_Meter_00-T_NextReward_00",
    "text": "Until superbonus:"
  },
  {
    "label": "T_Bonus_01",
    "text": "Clear Bonus"
  },
  {
    "label": "L_Name_00-T_MSign_03",
    "text": "x"
  },
  {
    "label": "L_Name_01-T_MSign_03",
    "text": "x"
  },
  {
    "label": "L_Name_02-T_MSign_03",
    "text": "x"
  },
  {
    "label": "L_Name_03-T_MSign_03",
    "text": "x"
  }
]