[
  {
    "label": "000",
    "text": "Step right up, and try your luck at the\n{{color id=\"1\"}}Shell-Out Machine{{color id=\"65535\"}}!\n\nThe first play will cost you {{icon id=\"39\" arg=\"0x0000404000000000\"}}{{color id=\"1\"}}5,000{{color id=\"65535\"}}.\nAnd it's a cool {{icon id=\"39\" arg=\"0x0000404000000000\"}}{{color id=\"1\"}}30,000 {{color id=\"65535\"}}for each\nplay after that!"
  },
  {
    "label": "001",
    "text": "During Splatfests, you can use\n{{icon id=\"35\" arg=\"0x0000404000000000\"}}{{color id=\"1\"}}conch shells {{color id=\"65535\"}}to play the Shell-Out\nMachine. One shell gets you one play!\n\nYou can also play with cash like usual.\nJust {{icon id=\"39\" arg=\"0x0000404000000000\"}}{{color id=\"1\"}}5,000 {{color id=\"65535\"}}for the first play and\n{{icon id=\"39\" arg=\"0x0000404000000000\"}}{{color id=\"1\"}}30,000 {{color id=\"65535\"}}every time after that!"
  },
  {
    "label": "L_Btn_00-T_Btn_00",
    "text": "Nah"
  },
  {
    "label": "100",
    "text": "Play!"
  },
  {
    "label": "101",
    "text": "Use Cash to Play!"
  },
  {
    "label": "200",
    "text": "Use a Shell-Out Token to play!"
  },
  {
    "label": "201",
    "text": "Use a Conch Shell to Play!"
  },
  {
    "label": "300",
    "text": "Try your luck with the Shell-Out Machine?"
  },
  {
    "label": "301",
    "text": "Try your luck with the Shell-Out Machine?"
  },
  {
    "label": "400",
    "text": "x{{number index=\"0\" type=\"2\" arg3=\"0\" arg4=\"0\"}}"
  },
  {
    "label": "500",
    "text": "x{{number index=\"0\" type=\"5\" arg3=\"0\" arg4=\"0\"}}"
  },
  {
    "label": "T_First_00",
    "text": "First Play of the Day"
  },
  {
    "label": "L_BtnL_00-T_Btn_00",
    "text": "Nah"
  },
  {
    "label": "L_BtnSelectNum_00-T_Btn_00",
    "text": "Exchange!"
  },
  {
    "label": "T_Exchange_00",
    "text": "Exchange your {{icon id=\"28\" arg=\"0x6666663FFEFFFFFF\"}}Sheldon Licenses for\n{{icon id=\"34\" arg=\"0xE17A943F00000000\"}}Shell-Out Tokens?"
  },
  {
    "label": "T_Owns_00",
    "text": "You have:"
  },
  {
    "label": "600",
    "text": "{{number index=\"0\" type=\"2\" arg3=\"0\" arg4=\"0\"}}"
  },
  {
    "label": "700",
    "text": "×{{number index=\"0\" type=\"2\" arg3=\"0\" arg4=\"0\"}}"
  },
  {
    "label": "800",
    "text": "×{{number index=\"0\" type=\"2\" arg3=\"0\" arg4=\"0\"}}"
  },
  {
    "label": "T_GuideExchange_00",
    "text": "Exchange"
  }
]