[
  {
    "label": "300",
    "text": "{{number index=\"0\" type=\"2\" arg3=\"0\" arg4=\"0\"}}"
  },
  {
    "label": "T_RestTurn_00",
    "text": "Turns Left"
  },
  {
    "label": "T_UnitTurn_00",
    "text": " "
  },
  {
    "label": "T_Message_01",
    "text": "..."
  },
  {
    "label": "400",
    "text": "{{number index=\"0\" type=\"2\" arg3=\"0\" arg4=\"0\"}}"
  }
]