[
  {
    "label": "T_All_00",
    "text": "Total"
  },
  {
    "label": "L_Edit_00-T_Text_00",
    "text": "Edit"
  },
  {
    "label": "L_DeckName_00-T_Text_00",
    "text": "Change Deck Name"
  },
  {
    "label": "L_Change_00-T_Text_00",
    "text": "Change Sleeves"
  },
  {
    "label": "L_Copy_00-T_Text_00",
    "text": "Copy"
  },
  {
    "label": "L_Delete_00-T_Text_00",
    "text": "Delete"
  },
  {
    "label": "L_MenuBack_00-T_Info_00",
    "text": "Back"
  },
  {
    "label": "L_Close_00-T_Info_00",
    "text": "Back"
  },
  {
    "label": "T_Title_00",
    "text": "Edit Deck"
  }
]