[
  {
    "label": "000",
    "text": "Redraw hand?"
  },
  {
    "label": "001",
    "text": "Redraw!"
  },
  {
    "label": "002",
    "text": "Hold Steady"
  },
  {
    "label": "010",
    "text": "Keep playing?"
  },
  {
    "label": "011",
    "text": "Yes!"
  },
  {
    "label": "012",
    "text": "Nah"
  },
  {
    "label": "020",
    "text": "Giving up?"
  },
  {
    "label": "021",
    "text": "Give Up!"
  },
  {
    "label": "022",
    "text": "Keep Going"
  },
  {
    "label": "030",
    "text": "You gave up..."
  },
  {
    "label": "040",
    "text": "Your opponent has given up."
  },
  {
    "label": "050",
    "text": "Your opponent left."
  },
  {
    "label": "100",
    "text": "Overwrite this deck? The existing deck\nwill be lost."
  },
  {
    "label": "101",
    "text": "Yeah!"
  },
  {
    "label": "102",
    "text": "Nah"
  },
  {
    "label": "110",
    "text": "Are you sure you want to delete this deck?"
  },
  {
    "label": "111",
    "text": "Yeah"
  },
  {
    "label": "112",
    "text": "Nah"
  },
  {
    "label": "120",
    "text": "Save your changes?"
  },
  {
    "label": "121",
    "text": "Don't Save"
  },
  {
    "label": "122",
    "text": "Save!"
  },
  {
    "label": "123",
    "text": "Back to Edit"
  },
  {
    "label": "130",
    "text": "You cannot use card bits when offline. Please\nreturn to the lobby and connect to the internet."
  },
  {
    "label": "131",
    "text": "You cannot use card bits while playing via local\nwireless. Please return to the lobby and connect\nto the internet."
  },
  {
    "label": "L_Rank_00-T_Max_01",
    "text": "MAX"
  },
  {
    "label": "L_Rank_00-T_RankUp_00",
    "text": "Rank up!"
  },
  {
    "label": "L_Rank_00-T_RankHeader_01",
    "text": "Tableturf Rank"
  },
  {
    "label": "200",
    "text": "Tableturf\nPoints"
  },
  {
    "label": "300",
    "text": "+{{number index=\"0\" type=\"3\" arg3=\"0\" arg4=\"0\"}}"
  },
  {
    "label": "T_Wait_00",
    "text": "Waiting for your opponent to pick..."
  }
]