[
  {
    "label": "L_Btn_00-T_Btn_00",
    "text": "Log001"
  },
  {
    "label": "L_Btn_01-T_Btn_00",
    "text": "Log002"
  },
  {
    "label": "L_Btn_02-T_Btn_00",
    "text": "Log003"
  },
  {
    "label": "L_Btn_03-T_Btn_00",
    "text": "Log004"
  },
  {
    "label": "L_Btn_04-T_Btn_00",
    "text": "Log005"
  },
  {
    "label": "L_Btn_05-T_Btn_00",
    "text": "Log006"
  },
  {
    "label": "L_BtnExtra_00-T_Btn_00",
    "text": "Log.exe"
  },
  {
    "label": "L_Title_00-T_Analysis_00",
    "text": "Analysis Complete"
  },
  {
    "label": "L_Title_00-T_Analysis_01",
    "text": "Analyzing..."
  },
  {
    "label": "L_KeyGuide_00-T_Info_00",
    "text": "Back"
  },
  {
    "label": "L_Back_00-T_Info_00",
    "text": "Back"
  },
  {
    "label": "T_NoData_00",
    "text": "No Data"
  }
]