[
  {
    "label": "L_Guide_00-T_Info_00",
    "text": "Back"
  },
  {
    "label": "L_InfoNpc_00-T_Level_00",
    "text": "Lv. 1"
  },
  {
    "label": "L_InfoNpc_00-T_Level_01",
    "text": "Lv. 2"
  },
  {
    "label": "L_InfoNpc_00-T_Level_02",
    "text": "Lv. 3"
  },
  {
    "label": "L_Guide_01-T_Info_00",
    "text": "Rules"
  }
]