[
  {
    "label": "T_Press_00",
    "text": "Press"
  },
  {
    "label": "T_Copyright_00",
    "text": "© Nintendo"
  },
  {
    "label": "T_Title_00",
    "text": "Splatfest World Premiere"
  },
  {
    "label": "L_Version_00-T_VersionTitle_00",
    "text": "Ver."
  }
]