[
  {
    "label": "T_Date_01",
    "text": "Date"
  },
  {
    "label": "000",
    "text": "Spot Name"
  },
  {
    "label": "T_Guide_00",
    "text": "Controls"
  },
  {
    "label": "T_Filter_00",
    "text": "Filter"
  },
  {
    "label": "T_Title_00",
    "text": "Set"
  },
  {
    "label": "T_Info_02",
    "text": "Rotate Camera"
  },
  {
    "label": "T_Info_03",
    "text": "Move Vertical"
  },
  {
    "label": "T_Info_04",
    "text": "Move Horizontal"
  },
  {
    "label": "T_Info_05",
    "text": "Zoom"
  },
  {
    "label": "T_Info_06",
    "text": "Tilt"
  },
  {
    "label": "T_Info_00",
    "text": "Take Picture"
  },
  {
    "label": "100",
    "text": "Order Sector"
  },
  {
    "label": "101",
    "text": "Foyer"
  },
  {
    "label": "T_Info_07",
    "text": "Vert./Horiz."
  },
  {
    "label": "T_Push_00",
    "text": "Push"
  },
  {
    "label": "L_Btn_01-T_Info_00",
    "text": "End Photo Shoot"
  },
  {
    "label": "L_Btn_00-T_Info_00",
    "text": "Set Scene"
  },
  {
    "label": "L_Btn_02-T_Info_00",
    "text": "Back"
  },
  {
    "label": "L_Switch_03-T_BtnR_00",
    "text": "Hide"
  },
  {
    "label": "L_Switch_03-T_BtnL_00",
    "text": "Show"
  },
  {
    "label": "L_Switch_01-T_BtnR_00",
    "text": "Hide"
  },
  {
    "label": "L_Switch_01-T_BtnL_00",
    "text": "Show"
  },
  {
    "label": "L_Switch_00-T_BtnR_00",
    "text": "Hide"
  },
  {
    "label": "L_Switch_00-T_BtnL_00",
    "text": "Show"
  },
  {
    "label": "200",
    "text": "None"
  },
  {
    "label": "201",
    "text": "Filter 1"
  },
  {
    "label": "202",
    "text": "Filter 2"
  },
  {
    "label": "203",
    "text": "Filter 3"
  },
  {
    "label": "204",
    "text": "Filter 4"
  },
  {
    "label": "205",
    "text": "Filter 5"
  },
  {
    "label": "206",
    "text": "Filter 6"
  },
  {
    "label": "207",
    "text": "Filter 7"
  }
]