[
  {
    "label": "000",
    "text": "+{{number index=\"0\" type=\"2\" arg3=\"0\" arg4=\"0\"}}"
  },
  {
    "label": "001",
    "text": "This way!"
  },
  {
    "label": "002",
    "text": "Ouch..."
  },
  {
    "label": "003",
    "text": "{{number index=\"0\" type=\"2\" arg3=\"0\" arg4=\"0\"}}.{{number index=\"1\" type=\"1\" arg3=\"0\" arg4=\"0\"}}"
  },
  {
    "label": "T_Rest_00",
    "text": "Remaining"
  },
  {
    "label": "T_Nice_00",
    "text": "Booyah!"
  },
  {
    "label": "L_Timer_00-T_Extend_00",
    "text": "Overtime!"
  },
  {
    "label": "T_Balloon_01",
    "text": "Danger!"
  },
  {
    "label": "T_Balloon_00",
    "text": "Danger!"
  },
  {
    "label": "L_SuperGauge_00-T_Press_00",
    "text": "Press"
  },
  {
    "label": "L_PaintNumbers_00-T_Unit_00",
    "text": "p"
  },
  {
    "label": "L_Info_00-T_Info_00",
    "text": "Menu"
  },
  {
    "label": "L_SuperGauge_00-T_Max_01",
    "text": "Charged!"
  },
  {
    "label": "T_Percent_00",
    "text": "%"
  },
  {
    "label": "T_BalloonLead_00",
    "text": "Lead!"
  }
]