{
  "version": 7,
  "rootNode": {
    "RigidBodyControllerUnitAry": [
      {
        "BoneBindModePosition": "All",
        "BoneBindModeRotation": "All",
        "ContactCollectionName": "",
        "IsAddToWorldOnReset": false,
        "IsSkipTrackingWhenNoHit": true,
        "IsTrackingActor": false,
        "IsTrackingEntity": false,
        "Name": "StandAlone",
        "TrackingBoneName": "",
        "TrackingEntityAlias": "",
        "UseNextMainRigidBodyMatrix": false,
        "WarpMode": "None"
      }
    ]
  }
}