{
  "version": 7,
  "rootNode": {
    "CellList": {
      "Special1___RivalLuckTipNum0": {
        "$type": "spl__MetaSpawnerRivalParamTableCellSdodr",
        "ColumnKey": "RivalLuckTipNum0",
        "Params": [
          {
            "DelaySec": 18.0,
            "IntervalSec": 150.0
          }
        ],
        "RowKey": "Special1"
      },
      "Special1___RivalLuckTipNum1": {
        "$type": "spl__MetaSpawnerRivalParamTableCellSdodr",
        "ColumnKey": "RivalLuckTipNum1",
        "Params": [
          {
            "DelaySec": 18.0,
            "IntervalSec": 120.0
          }
        ],
        "RowKey": "Special1"
      },
      "Special1___RivalLuckTipNum2": {
        "$type": "spl__MetaSpawnerRivalParamTableCellSdodr",
        "ColumnKey": "RivalLuckTipNum2",
        "Params": [
          {
            "DelaySec": 18.0,
            "IntervalSec": 96.0
          }
        ],
        "RowKey": "Special1"
      },
      "Special1___RivalLuckTipNum3": {
        "$type": "spl__MetaSpawnerRivalParamTableCellSdodr",
        "ColumnKey": "RivalLuckTipNum3",
        "Params": [
          {
            "DelaySec": 18.0,
            "IntervalSec": 84.0
          }
        ],
        "RowKey": "Special1"
      },
      "Special1___RivalLuckTipNum4": {
        "$type": "spl__MetaSpawnerRivalParamTableCellSdodr",
        "ColumnKey": "RivalLuckTipNum4",
        "Params": [
          {
            "DelaySec": 18.0,
            "IntervalSec": 72.0
          }
        ],
        "RowKey": "Special1"
      },
      "Special1___RivalLuckTipNum5": {
        "$type": "spl__MetaSpawnerRivalParamTableCellSdodr",
        "ColumnKey": "RivalLuckTipNum5",
        "Params": [
          {
            "DelaySec": 18.0,
            "IntervalSec": 60.0
          }
        ],
        "RowKey": "Special1"
      },
      "Special2___RivalLuckTipNum0": {
        "$type": "spl__MetaSpawnerRivalParamTableCellSdodr",
        "ColumnKey": "RivalLuckTipNum0",
        "Params": [
          {
            "DelaySec": 18.0,
            "IntervalSec": 300.0
          },
          {
            "DelaySec": 168.0,
            "IntervalSec": 300.0
          }
        ],
        "RowKey": "Special2"
      },
      "Special2___RivalLuckTipNum1": {
        "$type": "spl__MetaSpawnerRivalParamTableCellSdodr",
        "ColumnKey": "RivalLuckTipNum1",
        "Params": [
          {
            "DelaySec": 18.0,
            "IntervalSec": 240.0
          },
          {
            "DelaySec": 138.0,
            "IntervalSec": 240.0
          }
        ],
        "RowKey": "Special2"
      },
      "Special2___RivalLuckTipNum2": {
        "$type": "spl__MetaSpawnerRivalParamTableCellSdodr",
        "ColumnKey": "RivalLuckTipNum2",
        "Params": [
          {
            "DelaySec": 18.0,
            "IntervalSec": 192.0
          },
          {
            "DelaySec": 114.0,
            "IntervalSec": 192.0
          }
        ],
        "RowKey": "Special2"
      },
      "Special2___RivalLuckTipNum3": {
        "$type": "spl__MetaSpawnerRivalParamTableCellSdodr",
        "ColumnKey": "RivalLuckTipNum3",
        "Params": [
          {
            "DelaySec": 18.0,
            "IntervalSec": 168.0
          },
          {
            "DelaySec": 102.0,
            "IntervalSec": 168.0
          }
        ],
        "RowKey": "Special2"
      },
      "Special2___RivalLuckTipNum4": {
        "$type": "spl__MetaSpawnerRivalParamTableCellSdodr",
        "ColumnKey": "RivalLuckTipNum4",
        "Params": [
          {
            "DelaySec": 18.0,
            "IntervalSec": 144.0
          },
          {
            "DelaySec": 90.0,
            "IntervalSec": 144.0
          }
        ],
        "RowKey": "Special2"
      },
      "Special2___RivalLuckTipNum5": {
        "$type": "spl__MetaSpawnerRivalParamTableCellSdodr",
        "ColumnKey": "RivalLuckTipNum5",
        "Params": [
          {
            "DelaySec": 18.0,
            "IntervalSec": 120.0
          },
          {
            "DelaySec": 78.0,
            "IntervalSec": 120.0
          }
        ],
        "RowKey": "Special2"
      },
      "Special3___RivalLuckTipNum0": {
        "$type": "spl__MetaSpawnerRivalParamTableCellSdodr",
        "ColumnKey": "RivalLuckTipNum0",
        "Params": [
          {
            "DelaySec": 18.0,
            "IntervalSec": 450.0
          },
          {
            "DelaySec": 168.0,
            "IntervalSec": 450.0
          },
          {
            "DelaySec": 318.0,
            "IntervalSec": 450.0
          }
        ],
        "RowKey": "Special3"
      },
      "Special3___RivalLuckTipNum1": {
        "$type": "spl__MetaSpawnerRivalParamTableCellSdodr",
        "ColumnKey": "RivalLuckTipNum1",
        "Params": [
          {
            "DelaySec": 18.0,
            "IntervalSec": 360.0
          },
          {
            "DelaySec": 138.0,
            "IntervalSec": 360.0
          },
          {
            "DelaySec": 258.0,
            "IntervalSec": 360.0
          }
        ],
        "RowKey": "Special3"
      },
      "Special3___RivalLuckTipNum2": {
        "$type": "spl__MetaSpawnerRivalParamTableCellSdodr",
        "ColumnKey": "RivalLuckTipNum2",
        "Params": [
          {
            "DelaySec": 18.0,
            "IntervalSec": 288.0
          },
          {
            "DelaySec": 114.0,
            "IntervalSec": 288.0
          },
          {
            "DelaySec": 210.0,
            "IntervalSec": 288.0
          }
        ],
        "RowKey": "Special3"
      },
      "Special3___RivalLuckTipNum3": {
        "$type": "spl__MetaSpawnerRivalParamTableCellSdodr",
        "ColumnKey": "RivalLuckTipNum3",
        "Params": [
          {
            "DelaySec": 18.0,
            "IntervalSec": 252.0
          },
          {
            "DelaySec": 102.0,
            "IntervalSec": 252.0
          },
          {
            "DelaySec": 186.0,
            "IntervalSec": 252.0
          }
        ],
        "RowKey": "Special3"
      },
      "Special3___RivalLuckTipNum4": {
        "$type": "spl__MetaSpawnerRivalParamTableCellSdodr",
        "ColumnKey": "RivalLuckTipNum4",
        "Params": [
          {
            "DelaySec": 18.0,
            "IntervalSec": 216.0
          },
          {
            "DelaySec": 90.0,
            "IntervalSec": 216.0
          },
          {
            "DelaySec": 162.0,
            "IntervalSec": 216.0
          }
        ],
        "RowKey": "Special3"
      },
      "Special3___RivalLuckTipNum5": {
        "$type": "spl__MetaSpawnerRivalParamTableCellSdodr",
        "ColumnKey": "RivalLuckTipNum5",
        "Params": [
          {
            "DelaySec": 18.0,
            "IntervalSec": 180.0
          },
          {
            "DelaySec": 78.0,
            "IntervalSec": 180.0
          },
          {
            "DelaySec": 138.0,
            "IntervalSec": 180.0
          }
        ],
        "RowKey": "Special3"
      },
      "Zako0___RivalLuckTipNum0": {
        "$type": "spl__MetaSpawnerRivalParamTableCellSdodr",
        "ColumnKey": "RivalLuckTipNum0",
        "Params": [
          {
            "DelaySec": 25.0,
            "IntervalSec": 70.0
          }
        ],
        "RowKey": "Zako0"
      },
      "Zako0___RivalLuckTipNum1": {
        "$type": "spl__MetaSpawnerRivalParamTableCellSdodr",
        "ColumnKey": "RivalLuckTipNum1",
        "Params": [
          {
            "DelaySec": 25.0,
            "IntervalSec": 60.0
          }
        ],
        "RowKey": "Zako0"
      },
      "Zako0___RivalLuckTipNum2": {
        "$type": "spl__MetaSpawnerRivalParamTableCellSdodr",
        "ColumnKey": "RivalLuckTipNum2",
        "Params": [
          {
            "DelaySec": 25.0,
            "IntervalSec": 50.0
          }
        ],
        "RowKey": "Zako0"
      },
      "Zako0___RivalLuckTipNum3": {
        "$type": "spl__MetaSpawnerRivalParamTableCellSdodr",
        "ColumnKey": "RivalLuckTipNum3",
        "Params": [
          {
            "DelaySec": 25.0,
            "IntervalSec": 40.0
          }
        ],
        "RowKey": "Zako0"
      },
      "Zako0___RivalLuckTipNum4": {
        "$type": "spl__MetaSpawnerRivalParamTableCellSdodr",
        "ColumnKey": "RivalLuckTipNum4",
        "Params": [
          {
            "DelaySec": 25.0,
            "IntervalSec": 30.0
          }
        ],
        "RowKey": "Zako0"
      },
      "Zako0___RivalLuckTipNum5": {
        "$type": "spl__MetaSpawnerRivalParamTableCellSdodr",
        "ColumnKey": "RivalLuckTipNum5",
        "Params": [
          {
            "DelaySec": 25.0,
            "IntervalSec": 20.0
          }
        ],
        "RowKey": "Zako0"
      },
      "Zako1___RivalLuckTipNum0": {
        "$type": "spl__MetaSpawnerRivalParamTableCellSdodr",
        "ColumnKey": "RivalLuckTipNum0",
        "Params": [
          {
            "DelaySec": 80.0,
            "IntervalSec": 150.0
          }
        ],
        "RowKey": "Zako1"
      },
      "Zako1___RivalLuckTipNum1": {
        "$type": "spl__MetaSpawnerRivalParamTableCellSdodr",
        "ColumnKey": "RivalLuckTipNum1",
        "Params": [
          {
            "DelaySec": 80.0,
            "IntervalSec": 120.0
          }
        ],
        "RowKey": "Zako1"
      },
      "Zako1___RivalLuckTipNum2": {
        "$type": "spl__MetaSpawnerRivalParamTableCellSdodr",
        "ColumnKey": "RivalLuckTipNum2",
        "Params": [
          {
            "DelaySec": 80.0,
            "IntervalSec": 100.0
          }
        ],
        "RowKey": "Zako1"
      },
      "Zako1___RivalLuckTipNum3": {
        "$type": "spl__MetaSpawnerRivalParamTableCellSdodr",
        "ColumnKey": "RivalLuckTipNum3",
        "Params": [
          {
            "DelaySec": 80.0,
            "IntervalSec": 80.0
          }
        ],
        "RowKey": "Zako1"
      },
      "Zako1___RivalLuckTipNum4": {
        "$type": "spl__MetaSpawnerRivalParamTableCellSdodr",
        "ColumnKey": "RivalLuckTipNum4",
        "Params": [
          {
            "DelaySec": 60.0,
            "IntervalSec": 60.0
          }
        ],
        "RowKey": "Zako1"
      },
      "Zako1___RivalLuckTipNum5": {
        "$type": "spl__MetaSpawnerRivalParamTableCellSdodr",
        "ColumnKey": "RivalLuckTipNum5",
        "Params": [
          {
            "DelaySec": 35.0,
            "IntervalSec": 40.0
          }
        ],
        "RowKey": "Zako1"
      },
      "Zako2___RivalLuckTipNum0": {
        "$type": "spl__MetaSpawnerRivalParamTableCellSdodr",
        "ColumnKey": "RivalLuckTipNum0",
        "Params": [
          {
            "DelaySec": 15.0,
            "IntervalSec": 150.0
          }
        ],
        "RowKey": "Zako2"
      },
      "Zako2___RivalLuckTipNum1": {
        "$type": "spl__MetaSpawnerRivalParamTableCellSdodr",
        "ColumnKey": "RivalLuckTipNum1",
        "Params": [
          {
            "DelaySec": 15.0,
            "IntervalSec": 120.0
          }
        ],
        "RowKey": "Zako2"
      },
      "Zako2___RivalLuckTipNum2": {
        "$type": "spl__MetaSpawnerRivalParamTableCellSdodr",
        "ColumnKey": "RivalLuckTipNum2",
        "Params": [
          {
            "DelaySec": 15.0,
            "IntervalSec": 96.0
          }
        ],
        "RowKey": "Zako2"
      },
      "Zako2___RivalLuckTipNum3": {
        "$type": "spl__MetaSpawnerRivalParamTableCellSdodr",
        "ColumnKey": "RivalLuckTipNum3",
        "Params": [
          {
            "DelaySec": 15.0,
            "IntervalSec": 84.0
          }
        ],
        "RowKey": "Zako2"
      },
      "Zako2___RivalLuckTipNum4": {
        "$type": "spl__MetaSpawnerRivalParamTableCellSdodr",
        "ColumnKey": "RivalLuckTipNum4",
        "Params": [
          {
            "DelaySec": 15.0,
            "IntervalSec": 72.0
          }
        ],
        "RowKey": "Zako2"
      },
      "Zako2___RivalLuckTipNum5": {
        "$type": "spl__MetaSpawnerRivalParamTableCellSdodr",
        "ColumnKey": "RivalLuckTipNum5",
        "Params": [
          {
            "DelaySec": 15.0,
            "IntervalSec": 60.0
          }
        ],
        "RowKey": "Zako2"
      }
    },
    "TableType": "Work/System/CombinationDataTable/MetaSpawnerRivalParamTableSdodr.pp__CombinationDataTable.gyml"
  }
}