[
  {
    "label": "T_SubTitle_00",
    "text": "Splatfest-titel"
  },
  {
    "label": "L_Icon_00-T_Text_00",
    "text": "×"
  },
  {
    "label": "000",
    "text": "{{number index=\"0\" type=\"5\" arg3=\"0\" arg4=\"0\"}}"
  },
  {
    "label": "001",
    "text": "×{{number index=\"0\" type=\"2\" arg3=\"0\" arg4=\"0\"}}"
  },
  {
    "label": "002",
    "text": "{{number index=\"0\" type=\"5\" arg3=\"0\" arg4=\"0\"}}"
  },
  {
    "label": "100",
    "text": "Hartelijk bedankt! - Beer & Co"
  },
  {
    "label": "101",
    "text": "Aandenken aan bedrijfseitje"
  },
  {
    "label": "L_Btn_00-T_Info_00",
    "text": "Nu gebruiken"
  },
  {
    "label": "L_Btn_01-T_Info_00",
    "text": "Oké"
  },
  {
    "label": "200",
    "text": "{{string index=\"0\" arg2=\"12\"}} t/m {{string index=\"1\" arg2=\"12\"}}"
  }
]