[
  {
    "label": "000",
    "text": "Verdergaan"
  },
  {
    "label": "002",
    "text": "Stoppen"
  },
  {
    "label": "003",
    "text": "Inkt\nopruimen"
  },
  {
    "label": "004",
    "text": "Stoppen"
  }
]