[
  {
    "label": "T_Explanation_00",
    "text": "Wil je je huidige uitrusting, instellingen en lievelingsstijlen\nopslaan?"
  },
  {
    "label": "L_Btn_00-T_Btn_00",
    "text": "Neh..."
  },
  {
    "label": "L_Btn_01-T_Btn_00",
    "text": "Graag!"
  },
  {
    "label": "T_Equipment_00",
    "text": "Uitrusting"
  },
  {
    "label": "T_MysetNumber_00",
    "text": "Stijl 1"
  },
  {
    "label": "T_MysetNumber_01",
    "text": "Stijl 2"
  },
  {
    "label": "T_MysetNumber_02",
    "text": "Stijl 3"
  },
  {
    "label": "T_MysetNumber_03",
    "text": "Stijl 4"
  },
  {
    "label": "T_MysetNumber_04",
    "text": "Stijl 5"
  },
  {
    "label": "T_NonMyset_00",
    "text": "Niet opgeslagen"
  }
]