[
  {
    "label": "L_Btn_00-T_Info_00",
    "text": "Instellingen"
  },
  {
    "label": "L_Btn_01-T_Info_00",
    "text": "Stoppen"
  },
  {
    "label": "L_Btn_02-T_Info_00",
    "text": "Terug"
  },
  {
    "label": "L_Switch_00-T_BtnR_00",
    "text": "Verbergen"
  },
  {
    "label": "L_Switch_00-T_BtnL_00",
    "text": "Tonen"
  },
  {
    "label": "000",
    "text": "Geen"
  },
  {
    "label": "001",
    "text": "Filter 1"
  },
  {
    "label": "002",
    "text": "Filter 2"
  },
  {
    "label": "003",
    "text": "Filter 3"
  },
  {
    "label": "004",
    "text": "Filter 4"
  },
  {
    "label": "005",
    "text": "Filter 5"
  },
  {
    "label": "006",
    "text": "Filter 6"
  },
  {
    "label": "007",
    "text": "Filter 7"
  },
  {
    "label": "L_Switch_01-T_BtnR_00",
    "text": "Verbergen"
  },
  {
    "label": "L_Switch_01-T_BtnL_00",
    "text": "Tonen"
  },
  {
    "label": "L_Switch_02-T_BtnR_00",
    "text": "Verbergen"
  },
  {
    "label": "L_Switch_02-T_BtnL_00",
    "text": "Tonen"
  },
  {
    "label": "L_Switch_03-T_BtnR_00",
    "text": "Verbergen"
  },
  {
    "label": "L_Switch_03-T_BtnL_00",
    "text": "Tonen"
  },
  {
    "label": "T_Title_00",
    "text": "Instellingen"
  },
  {
    "label": "T_Info_02",
    "text": "Camera draaien"
  },
  {
    "label": "T_Info_03",
    "text": "Hoger/lager"
  },
  {
    "label": "T_Info_04",
    "text": "Rondbewegen"
  },
  {
    "label": "T_Info_05",
    "text": "Zoomen"
  },
  {
    "label": "T_Info_06",
    "text": "Kantelen"
  },
  {
    "label": "T_Info_00",
    "text": "Foto maken!"
  },
  {
    "label": "100",
    "text": "Origineel"
  },
  {
    "label": "101",
    "text": "Uitrusting 1"
  },
  {
    "label": "102",
    "text": "Uitrusting 2"
  },
  {
    "label": "103",
    "text": "Uitrusting 3"
  },
  {
    "label": "104",
    "text": "Uitrusting 4"
  },
  {
    "label": "105",
    "text": "Uitrusting 5"
  },
  {
    "label": "106",
    "text": "Uitrusting 6"
  },
  {
    "label": "200",
    "text": "Pose 1"
  },
  {
    "label": "201",
    "text": "Pose 2"
  },
  {
    "label": "202",
    "text": "Pose 3"
  },
  {
    "label": "203",
    "text": "Pose 4"
  },
  {
    "label": "204",
    "text": "Pose 5"
  },
  {
    "label": "205",
    "text": "Pose 6"
  },
  {
    "label": "206",
    "text": "Pose 7"
  },
  {
    "label": "207",
    "text": "Pose 8"
  },
  {
    "label": "208",
    "text": "Pose 9"
  },
  {
    "label": "209",
    "text": "Pose 10"
  },
  {
    "label": "210",
    "text": "Pose 11"
  },
  {
    "label": "211",
    "text": "Pose 12"
  },
  {
    "label": "296",
    "text": "Deep Cut"
  },
  {
    "label": "297",
    "text": "Squid Sisters"
  },
  {
    "label": "298",
    "text": "Tentacool"
  },
  {
    "label": "299",
    "text": "Vreugde"
  },
  {
    "label": "T_Text_00",
    "text": "Plek kiezen!"
  },
  {
    "label": "300",
    "text": "Splatsville"
  },
  {
    "label": "301",
    "text": "Inkopolis"
  },
  {
    "label": "302",
    "text": "Inkopolisplein"
  },
  {
    "label": "303",
    "text": "Grand Festival-terrein"
  },
  {
    "label": "T_Push_00",
    "text": "Drukken"
  },
  {
    "label": "T_Info_07",
    "text": "Vert./horiz."
  },
  {
    "label": "T_Date_01",
    "text": "Datum"
  },
  {
    "label": "T_Stage_01",
    "text": "Locatie"
  },
  {
    "label": "400",
    "text": "Locatie"
  },
  {
    "label": "401",
    "text": "Splatfest-titel"
  },
  {
    "label": "T_Player_00",
    "text": "Spelersnaam"
  },
  {
    "label": "500",
    "text": "Besturing"
  },
  {
    "label": "501",
    "text": "Besturing"
  },
  {
    "label": "T_Guide_00",
    "text": "Besturing"
  },
  {
    "label": "L_Timer_00-T_BtnL_00",
    "text": "Verbergen"
  },
  {
    "label": "L_Timer_00-T_BtnR_00",
    "text": "10 s"
  },
  {
    "label": "L_Timer_00-T_BtnC_00",
    "text": "3 s"
  },
  {
    "label": "T_Filter_00",
    "text": "Filter"
  },
  {
    "label": "T_Timer_00",
    "text": "Timer"
  },
  {
    "label": "T_Gear_00",
    "text": "amiibo-uitr."
  },
  {
    "label": "T_Pause_00",
    "text": "Pose"
  },
  {
    "label": "T_Pause_01",
    "text": "amiibo-pose"
  },
  {
    "label": "L_Switch_01-T_Msg_00",
    "text": "Dit kan niet worden weergegeven omdat\nde Splatfest-titels niet overeenkomen."
  }
]