[
  {
    "label": "000",
    "text": "+{{number index=\"0\" type=\"4\" arg3=\"0\" arg4=\"0\"}}"
  },
  {
    "label": "001",
    "text": "×{{number index=\"0\" type=\"1\" arg3=\"0\" arg4=\"0\"}},{{number index=\"1\" type=\"1\" arg3=\"0\" arg4=\"0\"}}"
  },
  {
    "label": "002",
    "text": "Gewonnen!"
  },
  {
    "label": "003",
    "text": "Geverfde\ngrond"
  },
  {
    "label": "004",
    "text": "Teamspirit-\nbonus"
  },
  {
    "label": "010",
    "text": "Ultrasignaal\nafgegaan!"
  },
  {
    "label": "011",
    "text": "Ultrasignaal\nveroverd!"
  },
  {
    "label": "020",
    "text": "Gevechts-\nbonus"
  },
  {
    "label": "021",
    "text": "Inktbonus!\n({{number index=\"0\" type=\"4\" arg3=\"0\" arg4=\"0\"}} p)"
  },
  {
    "label": "022",
    "text": "Teamspirit-\nbonus"
  },
  {
    "label": "023",
    "text": "Aanvallers-\nbonus"
  },
  {
    "label": "024",
    "text": "Verdedigers-\nbonus"
  },
  {
    "label": "100",
    "text": "×10-strijd"
  },
  {
    "label": "101",
    "text": "×100-strijd"
  },
  {
    "label": "102",
    "text": "×333-strijd"
  },
  {
    "label": "103",
    "text": "Driekleurenoorlog"
  },
  {
    "label": "T_FestPoint_00",
    "text": "Splatfest-punten"
  },
  {
    "label": "T_Title_00",
    "text": "Invloed"
  },
  {
    "label": "T_Total_00",
    "text": "Totale invloed"
  },
  {
    "label": "L_FestMeter_00-T_RankUpDown_00",
    "text": "Nieuwe Splatfest-titel!"
  },
  {
    "label": "L_FestMeter_00-T_Max_00",
    "text": "Max."
  },
  {
    "label": "T_Get_00",
    "text": "Een festivalschelp!"
  },
  {
    "label": "T_Get_01",
    "text": "Totaal"
  },
  {
    "label": "T_Max_00",
    "text": "Max."
  },
  {
    "label": "T_Open_00",
    "text": "Splatfest-gevecht {{size value=\"75\"}}(open){{size value=\"100\"}}"
  },
  {
    "label": "T_Challenge_00",
    "text": "Splatfest-gevecht {{size value=\"75\"}}(pro){{size value=\"100\"}}"
  },
  {
    "label": "T_Progress_00",
    "text": "X-kracht: onbekend"
  },
  {
    "label": "T_Rank_00",
    "text": "X-kracht berekend!"
  },
  {
    "label": "T_NumProgress_01",
    "text": "/5"
  },
  {
    "label": "T_XRankTitle_00",
    "text": "Positie"
  },
  {
    "label": "T_XRankTitle_01",
    "text": "Schatting"
  },
  {
    "label": "200",
    "text": "{{number index=\"0\" type=\"4\" arg3=\"0\" arg4=\"0\"}}e"
  }
]