[
  {
    "label": "001",
    "text": "Mosselmochi wordt in de Splatlands op een heel andere manier geserveerd\ndan in Inkopolis. In Inkopolis krijg je mossel gewikkeld in mochi, terwijl in de\nSplatlands mochi in mosselen wordt gewikkeld. Daar komen nog sesam-\nzaadjes en scherpe saus bovenop. Mmm... om je vinnen bij af te likken!"
  },
  {
    "label": "002",
    "text": "\"Lang geleden gingen de Splatlands bijna ten onder door een grote\nwatervloed. Alles leek verloren... totdat er drie lichten uit de hemel\nneerdaalden. De lichten vingen het onheil in een wervelwind. Als dank voor\ndie redding vierden de inwoners een festival met drie draagbare altaartjes.\""
  },
  {
    "label": "003",
    "text": "\"Bezoek de meest bubbelende en bruisende plek in de Splatlands!\"\n\"Wandel over de Boekanierboulevard en laat je meevoeren met de stroom!\"\n(Uit de speciale bundel \"Dompel je onder in Splatsville\", p. 54)"
  },
  {
    "label": "004",
    "text": "\"Leef je uit! Hier kan alles! In deze stad komt alles en\niedereen samen, dus laten we de boel op stelten zetten!\"\n\"Doen alsof je zo cool bent, vind ik echt suf.\nIk wil vonken laten vliegen tot ik overkook!\""
  },
  {
    "label": "005",
    "text": "Voor de Inklings en Octolings van de Splatlands is een bepaalde mate\nvan agressie de beste manier om indruk te maken in de lokale kringen.\nJongeren kleden zich vaak als straattuig om leeftijdsgenoten\nte intimideren tijdens haantjesachtige rituelen."
  },
  {
    "label": "006",
    "text": "\"De lobby die ik heb gebouwd, heeft niets dat in het oog springt... omdat\nALLES oogstrelend is! Als je hier niet de beste Grondoorlog van je leven\nhebt, eet ik mijn kleine klauw op.\"\n— Wenk Krab, algemeen directeur"
  },
  {
    "label": "007",
    "text": "Beer & Co: richtlijnen voor werkveiligheid\n(1) Houd je visseneieren in het spel. (2) \"Nog eentje!\" betekent al snel\neentje minder in het team. (3) Als de zee donker wordt, komt de vloed op.\n(4) Houd altijd de mand in de gaten. (5) Eieren zijn er om te gooien!"
  },
  {
    "label": "008",
    "text": "Salmonieten worden volwassen door terug te keren naar het water waar ze\ngeboren zijn. Soms, in heel zeldzame gevallen, dwaalt een jonge Salmoniet te\nver af van zijn school en verdwaalt hij. Tijdens zijn zoektocht naar zijn\nthuis krijgt hij honger... Onverzadigbare honger."
  },
  {
    "label": "009",
    "text": "\"Het drukste, dolste trio van de stad surft op de radiogolven!\nSchrob je oorschelpen schoon en kijk je ogen uit: Deep Cut is Splatsvilles\nultieme muzieksensatie! Deze beats zijn vlijmscherp!\""
  },
  {
    "label": "010",
    "text": "\"Een gretig zwaard, grijnzend in de hand van de ontembare krijger\nDe beet is fataal, het staal flitst, klieft, sneller dan een tijger\nLosse flarden dwarrelen, dalen neer als sneeuw, als vlokken wol\nIn een ijle bries, kort als het leven, rond mijn geopende parasol\""
  },
  {
    "label": "011",
    "text": "\"Zo tem je murenen: de geheime dansen van de Onaga-clan\nEerste dans: doorweek de droge grond als een welkome zomerregen.\nTweede dans: creëer een draaikolk die een wilde wind vanaf de kust oproept.\nLaatste dans: er vliegen honderd alen weg. Volg ze naar het beloofde land.\""
  },
  {
    "label": "012",
    "text": "Het ochtendritueel van de Manta-clan\nNadat ze hun borstvinnen zorgvuldig hebben verzorgd, verzamelt de familie\nzich voor hun favoriete ontbijt. Dit planktongerecht, waarvan het recept\nal generaties lang is doorgegeven, is goed voor lichaam, geest en gifklieren."
  },
  {
    "label": "013",
    "text": "\"Een jaar na het uitbreiden van zijn onderneming naar een nieuwe regio.\"\n\"Sinds zijn verovering van de Splatlands met meer dan 20.000 uur\nnon-stop verkooppraat neemt hij nu nieuwe horizonnen in het vizier.\"\n\"Wat is de aanvalswapen-ambassadeur verder nog van plan?\""
  },
  {
    "label": "014",
    "text": "\"#CyberNautilus #Nautastisch #ChaotischeZonneschijn #VerseHoofdmode\n#SchaalDierenSchitteren #VerkoopKoning #AmmonietOfTochWel\n#GuldenGetal4Me #KomUitJeSchulp #NautsDeals\""
  },
  {
    "label": "015",
    "text": "\"Modusa\" \"Tijdelijk gesloten wegens inventarisatie.\"\n\"Alleen contante betalingen\" \"Fotografie en influencers niet toegestaan.\nWe menen het.\" \"Geen bankbiljetten op voorraad, gepast betalen.\"\n\"Eerste hulp bij modenood.\" \"EERST betalen, DAN pas aanraken.\""
  },
  {
    "label": "016",
    "text": "Tijdens de groei verlaten schaaldieren zoals de kokoskrab vaak hun\nschilden wanneer die te krap worden. Sterk zonlicht versterkt dit gedrag,\nwat mogelijk verklaart waarom schaaldieren in de Splatlands vaak veel\ngroter worden dan hun soortgenoten in andere regio's."
  },
  {
    "label": "017",
    "text": "\"YO! Dit is Barry K.! Ja, die gast die Aqua Morgana runt! Ik moet er even\ntussenuit om nieuw spul in te slaan. （・ω<） Geen paniek! Mona (ja, die\nvan Chirpy Chips) past op de tent, en ze weet er nog beter de weg dan ik.\n (;^_^) We zijn dus gewoon open zoals je gewend bent! （＾ｖ＾）v\""
  },
  {
    "label": "018",
    "text": "\"Ik lig hier in de Roggentrog te sudderen. Gaar maar waar!\n#ZweetPantser #Fietstochtje\""
  },
  {
    "label": "019",
    "text": "\"Benoemingsbrief\nOverplaatsing: hoofdkwartier van de nieuwe Kraakcommando's, 1e peloton\nAanpassing: bevorderd tot Kaptein met salarisschaal 33\n–Karel Kraak\""
  },
  {
    "label": "020",
    "text": "\"Nacht van donderdag op vrijdag, 1:00: de honderdste aflevering\nvan 'Marie na middernacht'! Met als speciale gast om het mee te vieren:\nmijn nichtje Callie! Een Squid Sisters-special dus. We hebben de tijd helemaal\nvolgekletst! (Zonder dollen. We zijn 5 uur langer doorgegaan dan gepland!)\""
  },
  {
    "label": "021",
    "text": "Dit lijken instructies voor het mummificeren van een Inkling te zijn.\nMisschien geloofden Inklings vroeger dat hun geconserveerde lichamen\nooit weer tot leven zouden kunnen worden gewekt? Maar... dit kan toch\ngeen echte Inkling zijn? Dat bestaat niet... Toch?"
  },
  {
    "label": "022",
    "text": "Na vanuit Inkopolis de sprong naar wereldniveau te hebben gemaakt, heeft\nTentacool een nieuwe gig gevonden: de vocals doen voor de aanstormende\nrockband Damp Socks feat. Tentacool! De band, die ze online hebben ontdekt,\nspeelt 'melodisch-melancholische' nummers die Tentacool... cool vond klinken!"
  },
  {
    "label": "023",
    "text": "\"Operatie: Justus Jr.'s juiste jurering!\" \"Gedrag van de prooi\"\n\"Bezig vachtkwaliteit van de prooi te analyseren... Geen imprrrfecties!\"\n\"Dan kneed ik de kussentjes aan de poten maar.\""
  },
  {
    "label": "024",
    "text": "\"Naam van het doelwit: 'Goudelieve'\nRan Chi-Yu (schuilnaam): Bandeng (provincie Tong), ■■■-district\nNishiyo Oranda (schuilnaam): Chaosdistrict 3, 3-■\nPoisson Rouge (schuilnaam): Rue de ■■ 19-6, Chateaubateau\""
  },
  {
    "label": "L_Guide_00-T_Info_00",
    "text": "Terug"
  },
  {
    "label": "L_TopBtn_01-T_Num_00",
    "text": "01"
  },
  {
    "label": "L_TopBtn_02-T_Num_00",
    "text": "02"
  },
  {
    "label": "L_TopBtn_03-T_Num_00",
    "text": "03"
  },
  {
    "label": "L_TopBtn_04-T_Num_00",
    "text": "04"
  },
  {
    "label": "L_TopBtn_05-T_Num_00",
    "text": "05"
  },
  {
    "label": "L_TopBtn_06-T_Num_00",
    "text": "06"
  },
  {
    "label": "L_TopBtn_07-T_Num_00",
    "text": "07"
  },
  {
    "label": "L_TopBtn_08-T_Num_00",
    "text": "08"
  },
  {
    "label": "L_TopBtn_09-T_Num_00",
    "text": "09"
  },
  {
    "label": "L_TopBtn_10-T_Num_00",
    "text": "10"
  },
  {
    "label": "L_TopBtn_11-T_Num_00",
    "text": "11"
  },
  {
    "label": "L_TopBtn_12-T_Num_00",
    "text": "12"
  },
  {
    "label": "L_TopBtn_13-T_Num_00",
    "text": "13"
  },
  {
    "label": "L_TopBtn_14-T_Num_00",
    "text": "14"
  },
  {
    "label": "L_TopBtn_15-T_Num_00",
    "text": "15"
  },
  {
    "label": "L_TopBtn_16-T_Num_00",
    "text": "16"
  },
  {
    "label": "L_TopBtn_17-T_Num_00",
    "text": "17"
  },
  {
    "label": "L_TopBtn_18-T_Num_00",
    "text": "18"
  },
  {
    "label": "L_TopBtn_19-T_Num_00",
    "text": "19"
  },
  {
    "label": "L_TopBtn_20-T_Num_00",
    "text": "20"
  },
  {
    "label": "L_TopBtn_21-T_Num_00",
    "text": "21"
  },
  {
    "label": "L_TopBtn_22-T_Num_00",
    "text": "22"
  },
  {
    "label": "L_TopBtn_23-T_Num_00",
    "text": "23"
  },
  {
    "label": "L_TopBtn_24-T_Num_00",
    "text": "24"
  },
  {
    "label": "100",
    "text": "Geen tekst"
  },
  {
    "label": "101",
    "text": "Wel tekst"
  },
  {
    "label": "L_Guide_02-T_Info_00",
    "text": "Centreren"
  }
]