[
  {
    "label": "L_Guide_00-T_Info_00",
    "text": "Sluiten"
  },
  {
    "label": "L_InfoNpc_00-T_Level_00",
    "text": "Niveau 1"
  },
  {
    "label": "L_InfoNpc_00-T_Level_01",
    "text": "Niveau 2"
  },
  {
    "label": "L_InfoNpc_00-T_Level_02",
    "text": "Niveau 3"
  },
  {
    "label": "L_Guide_01-T_Info_00",
    "text": "Regels"
  }
]