[
  {
    "label": "000",
    "text": "Pauzeren"
  },
  {
    "label": "001",
    "text": "Afspelen"
  },
  {
    "label": "003",
    "text": "Bovenaanzicht"
  },
  {
    "label": "004",
    "text": "Doelen"
  },
  {
    "label": "L_Btn_01-T_Text_00",
    "text": "Navigatiebalk"
  },
  {
    "label": "L_Btn_02-T_Text_00",
    "text": "Camera"
  },
  {
    "label": "L_Btn_04-T_Text_00",
    "text": "Wisselen"
  },
  {
    "label": "L_Btn_05-T_Text_00",
    "text": "Hoogtepunt"
  },
  {
    "label": "L_Btn_03-T_Text_00",
    "text": "Menu"
  },
  {
    "label": "L_Btn_08-T_Text_00",
    "text": "Verbergen"
  },
  {
    "label": "L_Btn_09-T_Text_00",
    "text": "Grafiek bekijken"
  }
]