[
  {
    "label": "T_ClearTitle_00",
    "text": "Voltooid!"
  },
  {
    "label": "000",
    "text": "{{number index=\"0\" type=\"2\" arg3=\"0\" arg4=\"0\"}}"
  },
  {
    "label": "T_FloorUnit_00",
    "text": "Etage"
  }
]