[
  {
    "label": "L_BtnBack_00-T_Info_00",
    "text": "Terug"
  },
  {
    "label": "T_LevelTitle_00",
    "text": "Risiconiveau"
  },
  {
    "label": "L_BtnReport_00-T_Info_00",
    "text": "Melden"
  },
  {
    "label": "001",
    "text": "Recente klussen"
  },
  {
    "label": "002",
    "text": "Bewaarde klussen"
  },
  {
    "label": "010",
    "text": "Klus bewaren"
  },
  {
    "label": "011",
    "text": "Wissen"
  },
  {
    "label": "020",
    "text": "{{number index=\"0\" type=\"2\" arg3=\"0\" arg4=\"0\"}}/{{number index=\"1\" type=\"2\" arg3=\"0\" arg4=\"0\"}}"
  },
  {
    "label": "L_BtnScoreScenario_00-T_Result_00",
    "text": "Helaas..."
  },
  {
    "label": "L_BtnScoreScenario_00-T_Result_01",
    "text": "Gelukt!"
  },
  {
    "label": "L_Wave_00-T_Result_00",
    "text": "✓"
  },
  {
    "label": "L_Wave_00-T_Result_01",
    "text": "✘"
  },
  {
    "label": "L_WaveScenario_00-T_Result_00",
    "text": "✓"
  },
  {
    "label": "L_WaveScenario_00-T_Result_01",
    "text": "✘"
  },
  {
    "label": "100",
    "text": "Tijd is om!"
  },
  {
    "label": "101",
    "text": "Verloren..."
  },
  {
    "label": "L_PlayerScore_00-T_MSign_03",
    "text": "×"
  },
  {
    "label": "L_PlayerScenario_00-T_MSign_00",
    "text": "×"
  },
  {
    "label": "030",
    "text": "Eb"
  },
  {
    "label": "031",
    "text": "Normaal"
  },
  {
    "label": "032",
    "text": "Vloed"
  },
  {
    "label": "050",
    "text": "＜{{number index=\"0\" type=\"3\" arg3=\"0\" arg4=\"0\"}}＞"
  },
  {
    "label": "060",
    "text": "xx-xx-xxxx  xx:xx"
  },
  {
    "label": "061",
    "text": "---"
  },
  {
    "label": "062",
    "text": "---"
  },
  {
    "label": "070",
    "text": "+{{number index=\"0\" type=\"1\" arg3=\"0\" arg4=\"0\"}}"
  },
  {
    "label": "080",
    "text": "De klus is niet voltooid."
  },
  {
    "label": "T_HighScore_00",
    "text": "Topscore"
  },
  {
    "label": "T_ScenarioPlay_00",
    "text": "Deze bewaarde klus is nog niet gespeeld."
  },
  {
    "label": "T_Version_00",
    "text": "Versie"
  },
  {
    "label": "T_VersionMsg_00",
    "text": "Deze bewaarde klus komt uit een oudere versie van\nde game en wordt mogelijk niet meer ondersteund."
  },
  {
    "label": "Rush",
    "text": "Stormloop"
  },
  {
    "label": "Geyser",
    "text": "Het zoeken van Goldies"
  },
  {
    "label": "Dozer",
    "text": "Grillers"
  },
  {
    "label": "Hakobiya",
    "text": "Het moederschip"
  },
  {
    "label": "Fog",
    "text": "Mist"
  },
  {
    "label": "Missile",
    "text": "Storm van Sallogs"
  },
  {
    "label": "Relay",
    "text": "Enorme tornado"
  },
  {
    "label": "Tamaire",
    "text": "Moddermuil-uitbarstingen"
  }
]