[
  {
    "label": "000",
    "text": "Terug"
  },
  {
    "label": "100",
    "text": "{{number index=\"0\" type=\"6\" arg3=\"0\" arg4=\"0\"}} p"
  },
  {
    "label": "200",
    "text": "×{{number index=\"0\" type=\"4\" arg3=\"0\" arg4=\"0\"}}"
  },
  {
    "label": "300",
    "text": "Bladeren"
  },
  {
    "label": "T_Reward_00",
    "text": "Bonusmeter"
  },
  {
    "label": "T_Reward_01",
    "text": "Speciale bonusmeter"
  },
  {
    "label": "T_limitedTime_00",
    "text": "Huidige uitrusting"
  },
  {
    "label": "T_Uroko_00",
    "text": "Schubben"
  },
  {
    "label": "L_RewardMeter_00-T_NextReward_00",
    "text": "Volgende megabonus:"
  },
  {
    "label": "T_PointCard_00",
    "text": "Beer & Co-spaarkaart"
  },
  {
    "label": "T_Point_00",
    "text": "Huidig aantal punten"
  },
  {
    "label": "T_Job_00",
    "text": "Klussen"
  },
  {
    "label": "T_GoldIkura_00",
    "text": "Gouden eieren"
  },
  {
    "label": "T_Ikura_00",
    "text": "Visseneieren"
  },
  {
    "label": "T_Enemy_00",
    "text": "Voltooide extra golven"
  },
  {
    "label": "T_Help_00",
    "text": "Geredde teamgenoten"
  },
  {
    "label": "T_Total_00",
    "text": "Puntentotaal"
  },
  {
    "label": "T_Point_01",
    "text": "Speciale bonuspunten"
  },
  {
    "label": "L_GaugeGiant_00-T_Title_00",
    "text": "Salmometer"
  },
  {
    "label": "L_GaugeGiant_00-T_Random_00",
    "text": "?"
  }
]