[
  {
    "label": "000",
    "text": "Cool!"
  },
  {
    "label": "001",
    "text": "Hierheen!"
  },
  {
    "label": "002",
    "text": "Auw..."
  },
  {
    "label": "003",
    "text": "Help!"
  }
]