[
  {
    "label": "XMatchOpen_00",
    "text": "Dis donc, tu as un talent X-XL..."
  },
  {
    "label": "XMatchOpen_01",
    "text": "Mais ne t'arrête pas en si bon chemin! Il existe\nun rang encore plus élevé, le Ｓ+{{size value=\"75\"}}５０{{size value=\"100\"}}!{{size value=\"75\"}}{{size value=\"100\"}}"
  },
  {
    "label": "XMatchOpen_02",
    "text": "Et au fait... Tu viens de débloquer\nles {{color id=\"1\"}}matchs X{{color id=\"65535\"}}!"
  },
  {
    "label": "XMatchOpen_03",
    "text": "Au lieu de points de rang, tu gagneras et perdras\nde la {{color id=\"1\"}}Force X {{color id=\"65535\"}}en participant aux matchs X."
  },
  {
    "label": "XMatchOpen_04",
    "text": "Accumule assez de Force X et tu apparaîtras\ndans les classements X de {{color id=\"1\"}}SplatNet 3{{color id=\"65535\"}}!"
  },
  {
    "label": "XMatchOpen_05",
    "text": "Ceux-ci sont {{color id=\"1\"}}remis à zéro au début de chaque\nsaison{{color id=\"65535\"}}. Tu as une nouvelle chance à chaque fois!"
  },
  {
    "label": "XMatchOpen_07",
    "text": "Voilà, c'est simple, inutile de le répéter X fois...\nMaintenant, cours enchaîner les victoires!"
  }
]