[
  {
    "label": "000",
    "text": "Argh!{{delay frames=\"15\"}} Ils ont tout embarqué!\nVolatilisé, l'équipement héroïque!"
  },
  {
    "label": "001",
    "text": "Faut dire qu'on a pas franchement cherché à\nfinasser. On a juste foncé dans le tas."
  },
  {
    "label": "002",
    "text": "Si je vous avais tendu un piège, je vous ferais ma\nchorégraphie du guet-apens, là... {{delay frames=\"15\"}}D'ailleurs, je vais\npeut-être la faire quand même, juste pour le fun!"
  },
  {
    "label": "003",
    "text": "Ay! {{string value=\"5\"}}(Je vois où est ton équipement. Tu le récupéreras\nsi tu peux te frayer un chemin jusque là-bas!){{fun_000F_0004 arg=\"0x0500\"}}"
  },
  {
    "label": "004",
    "text": "T'en dis quoi, Numéro 3? T'as toujours Salmio\navec toi, après tout... Tu veux tenter le coup?"
  },
  {
    "label": "005",
    "text": "Se jeter dans la mêlée sans une goutte d'encre?\nFaut être dingue... Faut être toi, quoi!"
  },
  {
    "label": "100",
    "text": "Ouais, t'as récupéré ton équipement!"
  },
  {
    "label": "101",
    "text": "Attention, Numéro 3. On est déjà tombés sur\nquelques pièges... Y'en a sûrement d'autres."
  }
]