[
  {
    "label": "000",
    "text": "Amiral{{string value=\"11\" arg1=\"0\" arg3=\"2\"}}! Tout va bien?"
  },
  {
    "label": "001",
    "text": "Tu peux pas continuer?\nTu t'es luxé un tentacule?"
  },
  {
    "label": "002",
    "text": "T'inquiète, on va pas te laisser comme ça.\nOn reste ensemble jusqu'au bout!"
  },
  {
    "label": "003",
    "text": "Allez, Numéro 3. On y..."
  },
  {
    "label": "004",
    "text": "PAS SI VITE!"
  }
]