[
  {
    "label": "000",
    "text": "Ouah! T'as fait un sacré bout de chemin!"
  },
  {
    "label": "001",
    "text": "Visiblement, tu peux te rendre sur un autre\nsecteur, d'ici."
  },
  {
    "label": "002",
    "text": "Oh! Y'a même un tuyau de l'autre côté!"
  },
  {
    "label": "003",
    "text": "Par contre, toujours aucun signe de Papi..."
  },
  {
    "label": "004",
    "text": "Commençons par jeter un coup d'œil aux alentours...\nBonne chance, Numéro 3!"
  },
  {
    "label": "100",
    "text": "Ouah! T'as fait un sacré bout de chemin!"
  },
  {
    "label": "101",
    "text": "Visiblement, tu peux te rendre sur un autre\nsecteur, d'ici."
  },
  {
    "label": "102",
    "text": "Le chemin du retour passe par ce tuyau, je crois."
  },
  {
    "label": "103",
    "text": "Hum... Toujours aucun signe de Papi.\nJ'y comprends rien."
  },
  {
    "label": "104",
    "text": "Commençons par jeter un coup d'œil aux alentours...\nBonne chance, Numéro 3!"
  }
]