[
  {
    "label": "Comment_00",
    "text": "Eh oui... C'est nous!"
  },
  {
    "label": "Comment_01",
    "text": "Me dites pas que vous pensiez qu'on allait\nsimplement lâcher l'affaire?"
  },
  {
    "label": "Comment_02",
    "text": "Y'a que les nuls qui laissent tomber.\nEst-ce qu'on a des tronches de nuls?"
  },
  {
    "label": "Comment_03",
    "text": "Alors. Dernier. Avertissement. Si vous voulez pas\navoir affaire aux Tridenfer, donnez le trésor\net mettez les voiles."
  },
  {
    "label": "Comment_04",
    "text": "Ay! {{string value=\"5\"}}(J'aurais pas dit mieux!){{fun_000F_0004 arg=\"0x0500\"}}"
  },
  {
    "label": "Comment_05",
    "text": "Oh, vous parlez de ce machin?\n{{delay frames=\"15\"}}Non, on en a plus besoin.{{delay frames=\"15\"}} Embarquez-le si vous voulez."
  },
  {
    "label": "Comment_06",
    "text": "Vous...{{delay frames=\"15\"}} avez plus besoin... {{delay frames=\"15\"}}du trésor?\nMais...{{delay frames=\"15\"}} Allo, c'est un TRÉ-SOR!{{delay frames=\"15\"}}\nQu'est-ce qui tourne pas rond, chez vous?"
  },
  {
    "label": "Comment_07",
    "text": "Plein de choses! Mais vous inquiétez pas pour nous\net servez-vous si ça vous fait tellement plaisir!"
  },
  {
    "label": "Comment_08",
    "text": "C'est moi, ou ça pue l'embrouille, là?"
  },
  {
    "label": "Comment_10",
    "text": "Vous imaginez qu'on va avaler ça?{{delay frames=\"15\"}}\nVous nous laisseriez le trésor, sans raison?{{delay frames=\"15\"}}\nPourquoi vous feriez un truc pareil?"
  },
  {
    "label": "Comment_11",
    "text": "Et surtout... je suis folle de protester, ou quoi?\nMERCI, hein!"
  },
  {
    "label": "Comment_12",
    "text": "En fait, je me sens... {{delay frames=\"15\"}}pas top. {{delay frames=\"15\"}}On s'est relayés pour\ntenter de vous écrabouiller, et vous, vous nous\nrefilez quand même le trésor..."
  },
  {
    "label": "Comment_13",
    "text": "C'est à ce genre de choses qu'on reconnaît les vrais\nchefs.{{delay frames=\"15\"}} Ça... {{delay frames=\"15\"}}Ça te dirait d'être notre cheffe?"
  },
  {
    "label": "Comment_14",
    "text": "Ay! {{string value=\"5\"}}(Une nouvelle cheffe!\nJe peux avoir une augmentation?){{fun_000F_0004 arg=\"0x0500\"}}"
  },
  {
    "label": "Comment_15",
    "text": "Oly, cheffe de gang? Vous êtes drôles!"
  },
  {
    "label": "Comment_16",
    "text": "T'as tes propres employés, maintenant.{{delay frames=\"30\"}}\nAmuse-toi bien!"
  },
  {
    "label": "Comment_17",
    "text": "Oh... Je vais devoir me coltiner la vérification de\nleurs fiches de présence, c'est ça?"
  }
]