[
  {
    "label": "Comment_00",
    "text": "Ah oui, cette histoire de {{color id=\"1\"}}bouillie hirsute{{color id=\"65535\"}} m'était\ncomplètement sortie d'la tête.{{pageBreak}}Et c'te maudite {{color id=\"1\"}}boule de poils{{color id=\"65535\"}} {{icon id=\"22\" arg=\"0x0000803F00000000\"}} qui continue\nà se balancer rien qu'pour nous provoquer..."
  },
  {
    "label": "Comment_01",
    "text": "C'est ton copain Salmio que j'entends gazouiller?{{pageBreak}}Tu sais... il paraît qu'cette espèce est particulièrement\nfriande d'{{color id=\"1\"}}œufs de poisson {{color id=\"65535\"}}{{icon id=\"23\" arg=\"0x0000803F00000000\"}}... Pourquoi tu lui en\nbalancerais pas quelques-uns?"
  },
  {
    "label": "Comment_02",
    "text": "Ça coûte rien d'essayer, après tout! Appuie sur\nle levier {{icon id=\"8\" arg=\"0xCDCC4C3F00000000\"}} pour requinquer ton p'tit copain!"
  }
]