[
  {
    "label": "000",
    "text": "Grrrrr!{{delay frames=\"30\"}} T'es pas aussi lamentable que t'en as l'air..."
  },
  {
    "label": "001",
    "text": "Mais les Tridenfer ont pas dit leur dernier mot!"
  },
  {
    "label": "002",
    "text": "J'parie que j'vais te manquer! Ha ha!"
  }
]