[
  {
    "label": "Comment_00",
    "text": "Continue comme ça, Numéro 3! Je suis fier de toi.{{pageBreak}}Sinon... J'voudrais pas te courir sur les tentacules,\nt'as déjà assez de soucis comme ça...{{pageBreak}}Mais ces chevelus d'octariens me fichent la frousse.\nJ'crois qu'on devrait songer à appeler du renfort...{{pageBreak}}Laisse-moi remettre en marche ce vieux bidule...\nTest, test! Ici MacAlmar, terminé. Vous me recevez?"
  },
  {
    "label": "Comment_01",
    "text": "Ici Numéro 2.{{delay frames=\"15\"}} Terminé."
  },
  {
    "label": "Comment_02",
    "text": "Oh, Papi?{{delay frames=\"15\"}} C'est toi? {{delay frames=\"15\"}}T'es où?{{pageBreak}}Numéro 1, ici Numéro 2. {{delay frames=\"15\"}}Papi est de nouveau\nparti je-ne-sais-où. {{delay frames=\"15\"}}Terminé."
  },
  {
    "label": "Comment_03",
    "text": "Alors qu'est-ce qu'on attend, Numéro 2?{{delay frames=\"15\"}}\nIl faut récupérer Papi!"
  },
  {
    "label": "Comment_04",
    "text": "Reçu cinq sur cinq. À plus tard, calmar!"
  },
  {
    "label": "Comment_06",
    "text": "{{string value=\"5\"}}...{{fun_000F_0004 arg=\"0x0500\"}}{{delay frames=\"60\"}} Je rêve, ou elles m'ont raccroché au nez?{{pageBreak}}Pff, les Numéros, c'est plus ce que c'était.\nAucune patience!"
  },
  {
    "label": "Comment_07",
    "text": "{{string value=\"6\"}}Ksss-ksssht!{{fun_000F_0004 arg=\"0x0600\"}}{{delay frames=\"45\"}}{{string value=\"6\"}} Kssssssht!{{fun_000F_0004 arg=\"0x0600\"}}"
  },
  {
    "label": "Comment_08",
    "text": "... Mouah...{{delay frames=\"15\"}} Ha ha...{{delay frames=\"60\"}}\nMacA...{{delay frames=\"15\"}} Je t'ai... retrouvé!"
  },
  {
    "label": "Comment_09",
    "text": "Nom d'un plancton, ce bidule est décidément bon\npour la poubelle. Bof, tant pis. Allez, on fonce!"
  }
]