[
  {
    "label": "000",
    "text": "Oh, voilà qui est intéressant.\nLa {{color id=\"1\"}}nouvelle saison{{color id=\"65535\"}} a commencé!"
  },
  {
    "label": "001",
    "text": "Youhou! C'est la fête!"
  },
  {
    "label": "002",
    "text": "Ay.{{string value=\"5\"}} (La saison du frimas! Ah, j'ai hâte de\nme glisser bien au chaud sous la couverte.){{fun_000F_0004 arg=\"0x0500\"}}"
  },
  {
    "label": "003",
    "text": "C'est pas l'heure de la sieste, Raimi.\nUn nouveau mode arrive... Les {{color id=\"1\"}}matchs X{{color id=\"65535\"}}!"
  },
  {
    "label": "005",
    "text": "Ay, ay.{{string value=\"5\"}} (Oh, on dirait qu'il faut avoir atteint\n{{color id=\"1\"}}au moins le rang Ｓ+{{size value=\"75\"}}0{{size value=\"100\"}}{{color id=\"65535\"}} pour participer.){{fun_000F_0004 arg=\"0x0500\"}}"
  },
  {
    "label": "006",
    "text": "Écartez-vous, tout le monde, je vais\nouvrir la voie vers les sommets."
  },
  {
    "label": "007",
    "text": "Regardez-moi ces {{color id=\"1\"}}armes flambant neuves{{color id=\"65535\"}}!"
  },
  {
    "label": "008",
    "text": "Ay. Ay?{{string value=\"5\"}} (Eh, elles sont pas mal. On peut\ns'en servir avec des nageoires?){{fun_000F_0004 arg=\"0x0500\"}}"
  },
  {
    "label": "008_01",
    "text": "Je sais pas laquelle choisir... Je vais devoir\ntoutes les tester, du coup!"
  },
  {
    "label": "009",
    "text": "Moi, je vais demander son avis à Cartouche.\nÇa fera au moins une personne qui l'écoute."
  },
  {
    "label": "010",
    "text": "J'ai pas le temps pour son blabla!\nDe {{color id=\"1\"}}nouvelles cartes{{color id=\"65535\"}} viennent d'arriver!"
  },
  {
    "label": "011",
    "text": "Ay...{{string value=\"5\"}} (J'écouterai ce qu'il a à dire, mais...\nj'avoue que ces cartes donnent envie...){{fun_000F_0004 arg=\"0x0500\"}}"
  },
  {
    "label": "012",
    "text": "Donnent envie d'{{color id=\"1\"}}enchaîner les matchs{{color id=\"65535\"}},\ntu veux dire? Parce que c'est l'idée!"
  },
  {
    "label": "013",
    "text": "L'encre va couler à flots!"
  }
]