[
  {
    "label": "Comment_00",
    "text": "C'est tout pour le moment!"
  },
  {
    "label": "Comment_01",
    "text": "Gardez la forme en attendant!"
  },
  {
    "label": "Comment_02",
    "text": "Ay! {{string value=\"5\"}}(Allez, on remballe!){{fun_000F_0004 arg=\"0x0500\"}}"
  },
  {
    "label": "Comment_04",
    "text": "On rend les ondes, Cité-Clabousse!"
  },
  {
    "label": "Comment_03",
    "text": "Et on vous fait un gros bisou!"
  },
  {
    "label": "Comment_03B",
    "text": "Et on vous fait un gros bisou!"
  }
]