[
  {
    "label": "000",
    "text": "C'est là que vont se disputer\nles matchs tricolores!"
  },
  {
    "label": "001",
    "text": "Pasquale squatte la première place! Allez,\nRaimi! À nous deux, on va la virer vite!"
  },
  {
    "label": "002",
    "text": "Ay! Ay...{{string value=\"5\"}} (On est avec vous! En tout cas...\nTant qu'on a besoin de vous...){{fun_000F_0004 arg=\"0x0500\"}}"
  },
  {
    "label": "003",
    "text": "Ay!{{string value=\"5\"}} (Unissons nos forces pour déloger\nceux qui occupent la première place!){{fun_000F_0004 arg=\"0x0500\"}}"
  },
  {
    "label": "004",
    "text": "T'as une âme de battant, Raimi!\nEt ouais, on va en faire des confettis!"
  },
  {
    "label": "005",
    "text": "Angie, faisons une trêve pour ratatiner Raimi.\nEntre vedettes, on se serre les coudes!"
  },
  {
    "label": "006",
    "text": "Ça marche! Au moins jusqu'au bouquet\nfinal... Celui-là, je me le réserve!"
  },
  {
    "label": "101",
    "text": "Dans le Grand Festival, les matchs\ntricolores commencent direct!"
  },
  {
    "label": "102",
    "text": "Ay! {{string value=\"5\"}}(Le niveau change régulièrement, alors\nvérifiez avant pour savoir où vous allez!){{fun_000F_0004 arg=\"0x0500\"}}"
  },
  {
    "label": "103",
    "text": "Le dernier jour, y aura un niveau spécial...\nCelui que vous avez sauvé lors du Big Run!"
  },
  {
    "label": "104",
    "text": "Ay! {{string value=\"5\"}}(Niveau éphémère et nuit unique pour\nun match très spécial! Ne ratez pas ça!){{fun_000F_0004 arg=\"0x0500\"}}"
  }
]