[
  {
    "label": "000",
    "text": "Oooh, une annonce spéciale de M. Ours Cie\nvient de tomber..."
  },
  {
    "label": "001",
    "text": "Ay? Ay? {{string value=\"5\"}}(Sérieux? Ça parle de quoi?){{fun_000F_0004 arg=\"0x0500\"}}"
  },
  {
    "label": "002",
    "text": "Oh, c'est une bonne nouvelle. Ils cherchent\ndu monde pour des {{color id=\"1\"}}défis œuf sup'{{color id=\"65535\"}}!"
  },
  {
    "label": "003",
    "text": "Ay. {{string value=\"5\"}}(Oui, voilà une bonne nouvelle,\nsi on veut faire des œufs sup'!){{fun_000F_0004 arg=\"0x0500\"}}"
  },
  {
    "label": "004",
    "text": "Carrément! Et pour participer, il suffit de\nréunir des amis et d'aller voir M. Ours Cie."
  },
  {
    "label": "005",
    "text": "Je raffole pas des œufs sup', mais j'adore\nremporter la victoire avec mon équipe!"
  }
]