[
  {
    "label": "001",
    "text": "T'es avec les poissons qu'on vient de corriger?!"
  },
  {
    "label": "001_01",
    "text": "Liquide-moi ça, Huit!"
  },
  {
    "label": "002",
    "text": "On se calme.{{delay frames=\"15\"}} Je ne vous veux pas de mal."
  },
  {
    "label": "003",
    "text": "Je suis juste une victime de plus qui s'est retrouvée\nembarquée ici."
  },
  {
    "label": "004",
    "text": "Je déduis de votre présence ici que vous avez\nsuivi la voix de Coralie?"
  },
  {
    "label": "006",
    "text": "Hein, quoi? {{delay frames=\"15\"}}Tu connais Coralie?"
  },
  {
    "label": "007",
    "text": "Pour commencer, je m'appelle {{color id=\"4\"}}Eyte{{color id=\"65535\"}}. {{delay frames=\"60\"}}Quant à Coralie...\nc'est une vieille connaissance."
  },
  {
    "label": "008",
    "text": "Sans blague?! {{delay frames=\"30\"}}Commence par là, la prochaine fois!"
  },
  {
    "label": "009",
    "text": "Je te présente Huit! Et moi, c'est Perle!{{delay frames=\"30\"}}\nC'est un plaisir de te rencontrer!"
  },
  {
    "label": "010",
    "text": "Je me suis réveillée ici."
  },
  {
    "label": "011",
    "text": "Et puis j'ai entendu la voix de Coralie en haut de la tour,\nalors je me suis mise à la chercher."
  },
  {
    "label": "013",
    "text": "Mais c'était compter sans ces poissons... Je les ai\nbaptisés « {{color id=\"4\"}}squelécailles {{color id=\"65535\"}}». {{delay frames=\"15\"}}C'est à cause d'eux que\nje suis coincée dans cet ascenseur."
  },
  {
    "label": "014",
    "text": "La tour grouille de squelécailles. {{delay frames=\"30\"}}Je suis blessée et\nça ne guérit pas... Alors, je dois rester ici."
  },
  {
    "label": "016",
    "text": "Argh... {{delay frames=\"15\"}}Ça se présente mal pour nous, hein?"
  },
  {
    "label": "017",
    "text": "Ne nous enterre pas trop vite."
  },
  {
    "label": "018",
    "text": "Une personne {{color id=\"4\"}}octaling et son drone{{color id=\"65535\"}} doivent venir m'aider.{{delay frames=\"30\"}}\nTu t'appelles Huit, c'est ça?{{delay frames=\"30\"}} C'est toi que j'attendais."
  },
  {
    "label": "019",
    "text": "Maintenant, Perle... {{delay frames=\"30\"}}Observe ce qui se passe lorsque\ntu insères cette {{color id=\"4\"}}puce chromatique{{color id=\"65535\"}} dans la {{color id=\"4\"}}palette{{color id=\"65535\"}}."
  },
  {
    "label": "020",
    "text": "La palette? {{delay frames=\"15\"}}Je suis censée savoir ce que c'est?"
  },
  {
    "label": "021",
    "text": "Ah, tu parles de ce truc?"
  },
  {
    "label": "022",
    "text": "Précisément.{{delay frames=\"30\"}} Allez, insère la puce chromatique."
  },
  {
    "label": "023",
    "text": "OK, mais je rejette toute responsabilité sur ce qui va\nse passer.{{delay frames=\"30\"}} Vas-y, Huit! {{delay frames=\"15\"}}Enfourne la puce là-dedans!"
  },
  {
    "label": "024",
    "text": "OUAH!{{delay frames=\"15\"}} Je rêve ou {{color id=\"4\"}}ton arme est devenue\nplus puissante{{color id=\"65535\"}}?"
  },
  {
    "label": "025",
    "text": "Imagine comme tu vas réduire cette sale poiscaille en\ncharpie avec un tas de puces chromatiques!"
  },
  {
    "label": "026",
    "text": "En effet.{{delay frames=\"30\"}} Utilise judicieusement tes puces,\net tu pourras atteindre le sommet."
  },
  {
    "label": "027",
    "text": "J'ignore ce qu'il se passe ici, mais c'est évidemment\nlié à Coralie. {{delay frames=\"30\"}}En tout cas, c'est mon impression."
  },
  {
    "label": "028",
    "text": "Malheureusement, ma blessure me fait souffrir...{{delay frames=\"30\"}}\nVous devrez monter en première ligne sans moi."
  },
  {
    "label": "029",
    "text": "On s'occupe de tout, Eyte!{{delay frames=\"80\"}} Respire un grand coup,\nHuit, {{delay frames=\"15\"}}on a une Coralie à retrouver!"
  }
]