[
  {
    "label": "001",
    "text": "Hé, Huit!"
  },
  {
    "label": "002",
    "text": "Huit! {{delay frames=\"15\"}}Te revoilà!"
  },
  {
    "label": "003",
    "text": "Merci encore de nous avoir aidées à mettre un terme\nau plan machiavélique de l'Ordre."
  },
  {
    "label": "004",
    "text": "Tu as privé l'Ordre de l'essentiel de sa puissance.{{delay frames=\"15\"}} Plus\nbesoin de se tracasser à l'idée que d'autres gens soient\naspirés dans ce monde."
  },
  {
    "label": "005",
    "text": "Ouais, tout roule!{{delay frames=\"30\"}}\nEnfin, à peu près..."
  },
  {
    "label": "006",
    "text": "Par contre... {{delay frames=\"15\"}}La mauvaise nouvelle, c'est que j'ai\ndécouvert un problème avec les palettes encore\ndans le Poulpivers."
  },
  {
    "label": "007",
    "text": "Vous vous souvenez quand je vous ai dit que les\npalettes étaient des morceaux d'âmes des personnes\naspirées dans le Poulpivers?"
  },
  {
    "label": "008",
    "text": "Ça n'aurait jamais dû arriver, mais l'Ordre les a sans\ndoute transformées en palettes en les aspirant\ndans ce monde."
  },
  {
    "label": "008_01",
    "text": "Les systèmes mis en place pour protéger les\npropriétaires des âmes ont dû être contournés."
  },
  {
    "label": "009",
    "text": "C'est ce qui s'appelle une faille de sécurité."
  },
  {
    "label": "010",
    "text": "Oui. {{delay frames=\"15\"}}Et si on la règle pas, ça pourrait avoir de\nlourdes conséquences sur le monde réel."
  },
  {
    "label": "011",
    "text": "Si on emporte une palette dans la {{color id=\"4\"}}salle de contrôle{{color id=\"65535\"}} du\ndernier étage de la tour, {{delay frames=\"15\"}}on pourra la reconfigurer\npour corriger le problème."
  },
  {
    "label": "012",
    "text": "Le hic...{{delay frames=\"15\"}} c'est qu'on peut seulement reconfigurer les\npalettes qu'on a sur soi. {{delay frames=\"30\"}}Le problème sera pas réglé tant\nqu'on aura pas {{color id=\"4\"}}grimpé dans la tour avec chaque palette{{color id=\"65535\"}}."
  },
  {
    "label": "013",
    "text": "Sans compter que je reçois encore des signaux de\npalettes émanant des casiers. {{delay frames=\"30\"}}Autrement dit : on les\na pas toutes trouvées!"
  },
  {
    "label": "014",
    "text": "Bien, alors voilà le plan. {{delay frames=\"15\"}}Primo, on met la main sur\ntoutes les palettes. Deuzio : on les emporte à travers\ntous les étages de la tour, l'une après l'autre."
  },
  {
    "label": "015",
    "text": "Franchement... {{delay frames=\"15\"}}on a du pain sur la planche."
  },
  {
    "label": "016",
    "text": "Mais plus tôt on s'y met, plus tôt on aura fini!"
  },
  {
    "label": "017",
    "text": "Huit est une vraie machine. {{delay frames=\"30\"}}Ajoute à ça le fait qu'on\nl'aide, et tout ça sera réglé avant que l'encre ait\neu le temps de sécher!"
  },
  {
    "label": "018",
    "text": "Ouais, Perle! Bien dit!"
  }
]