[
  {
    "label": "001",
    "text": "Membres hors de contrôle.{{delay frames=\"30\"}} Que..."
  },
  {
    "label": "002",
    "text": "Une erreur inconnue est survenue.{{delay frames=\"30\"}}\nSituation hors configuration."
  },
  {
    "label": "003",
    "text": "Ha!{{delay frames=\"30\"}} Ton monde de rêve est tellement nul\nque même toi, il t'achale!"
  },
  {
    "label": "004",
    "text": "Mais on va pouvoir régler ça avec de l'encre."
  },
  {
    "label": "005",
    "text": "Quand le bateau coule...{{delay frames=\"130\"}}\nOn reste Tentacool!"
  }
]