[
  {
    "label": "000",
    "text": "Euh...{{delay frames=\"15\"}} Ils sortent d'où, ces affreux-là?"
  },
  {
    "label": "001",
    "text": "C'est aussi des squelécailles {{icon id=\"60\" arg=\"0x0000803F00000000\"}}. Il suffit d'en vaincre\ntrois pour venir au bout de l'étage."
  },
  {
    "label": "002",
    "text": "Mais c'est moi, ou ils sont montés sur roues?{{delay frames=\"30\"}}\nÇa va pas être de la tarte de les pogner, ceux-là..."
  },
  {
    "label": "003",
    "text": "Mais bon, Huit et moi, on en a vu d'autres!{{delay frames=\"30\"}}\nÀ l'assaut!"
  }
]