[
  {
    "label": "Grade_00",
    "text": "Dry"
  },
  {
    "label": "Grade_01",
    "text": "Raw"
  },
  {
    "label": "Grade_02",
    "text": "Fresh"
  },
  {
    "label": "Grade_03",
    "text": "SUPERFRESH!"
  },
  {
    "label": "Grade_04",
    "text": "SUPERFRESH!"
  }
]