[
  {
    "label": "Shooter_Short_00",
    "text": "Marker"
  },
  {
    "label": "Shooter_Short_01",
    "text": "Marker Neo"
  },
  {
    "label": "Shooter_First_00",
    "text": "Sparacolore recluta"
  },
  {
    "label": "Shooter_First_01",
    "text": "Sparacolore logo"
  },
  {
    "label": "Shooter_Precision_00",
    "text": "Marker d'assalto"
  },
  {
    "label": "Shooter_Precision_01",
    "text": "Marker d'assalto Neo"
  },
  {
    "label": "Shooter_Blaze_00",
    "text": "Aerografo"
  },
  {
    "label": "Shooter_Blaze_01",
    "text": "Aerografo élite"
  },
  {
    "label": "Shooter_Normal_00",
    "text": "Splasher"
  },
  {
    "label": "Shooter_Normal_01",
    "text": "Splasher logo"
  },
  {
    "label": "Shooter_Normal_H",
    "text": "Pistola élite replica"
  },
  {
    "label": "Shooter_Normal_Oct",
    "text": "Octosplasher replica"
  },
  {
    "label": "Shooter_Gravity_00",
    "text": "Calibro 2000"
  },
  {
    "label": "Shooter_Gravity_01",
    "text": "Calibro 2000 DX"
  },
  {
    "label": "Shooter_QuickMiddle_00",
    "text": "N-ZAP85"
  },
  {
    "label": "Shooter_QuickMiddle_01",
    "text": "N-ZAP89"
  },
  {
    "label": "Shooter_Expert_00",
    "text": "Splasher élite"
  },
  {
    "label": "Shooter_Expert_01",
    "text": "Splasher élite logo"
  },
  {
    "label": "Shooter_Heavy_00",
    "text": "Calibro 3000"
  },
  {
    "label": "Shooter_Heavy_01",
    "text": "Calibro 3000 DX"
  },
  {
    "label": "Shooter_Long_00",
    "text": "Sweeper"
  },
  {
    "label": "Shooter_Long_01",
    "text": "Sweeper CM"
  },
  {
    "label": "Blaster_Short_00",
    "text": "Blaster lunar"
  },
  {
    "label": "Blaster_Short_01",
    "text": "Blaster lunar Neo"
  },
  {
    "label": "Blaster_Middle_00",
    "text": "Blaster"
  },
  {
    "label": "Blaster_Middle_01",
    "text": "Blaster CM"
  },
  {
    "label": "Blaster_Long_00",
    "text": "Blaster a distanza"
  },
  {
    "label": "Blaster_Long_01",
    "text": "Blaster a distanza CM"
  },
  {
    "label": "Blaster_LightShort_00",
    "text": "Blaster da mischia"
  },
  {
    "label": "Blaster_LightShort_01",
    "text": "Blaster da mischia Neo"
  },
  {
    "label": "Blaster_Light_00",
    "text": "Blaster rapido"
  },
  {
    "label": "Blaster_Light_01",
    "text": "Blaster rapido DX"
  },
  {
    "label": "Blaster_LightLong_00",
    "text": "Blaster élite"
  },
  {
    "label": "Blaster_LightLong_01",
    "text": "Blaster élite DX"
  },
  {
    "label": "Shooter_TripleQuick_00",
    "text": "Triplete compatto"
  },
  {
    "label": "Shooter_TripleQuick_01",
    "text": "Triplete compatto D"
  },
  {
    "label": "Shooter_TripleMiddle_00",
    "text": "Triplete"
  },
  {
    "label": "Shooter_TripleMiddle_01",
    "text": "Triplete D"
  },
  {
    "label": "Shooter_Flash_00",
    "text": "Strizzer"
  },
  {
    "label": "Shooter_Flash_01",
    "text": "Strizzer B"
  },
  {
    "label": "Roller_Compact_00",
    "text": "Rullo di carbonio"
  },
  {
    "label": "Roller_Compact_01",
    "text": "Rullo di carbonio DX"
  },
  {
    "label": "Roller_Normal_00",
    "text": "Rullo splat"
  },
  {
    "label": "Roller_Normal_01",
    "text": "Rullo splat logo"
  },
  {
    "label": "Roller_Heavy_00",
    "text": "Rullo dinamo"
  },
  {
    "label": "Roller_Heavy_01",
    "text": "Rullo dinamo dorato"
  },
  {
    "label": "Roller_Hunter_00",
    "text": "Flexi-rullo"
  },
  {
    "label": "Roller_Hunter_01",
    "text": "Flexi-rullo B"
  },
  {
    "label": "Brush_Mini_00",
    "text": "Calamaravaggio"
  },
  {
    "label": "Brush_Mini_01",
    "text": "Calamaravaggio master"
  },
  {
    "label": "Brush_Normal_00",
    "text": "Tinturicchio"
  },
  {
    "label": "Brush_Normal_01",
    "text": "Tinturicchio master"
  },
  {
    "label": "Charger_Quick_00",
    "text": "Kalamarapid α"
  },
  {
    "label": "Charger_Quick_01",
    "text": "Kalamarapid β"
  },
  {
    "label": "Charger_Normal_00",
    "text": "Splatter a carica"
  },
  {
    "label": "Charger_Normal_01",
    "text": "Splatter a carica logo"
  },
  {
    "label": "Charger_NormalScope_00",
    "text": "Splatter con mirino"
  },
  {
    "label": "Charger_NormalScope_01",
    "text": "Splatter con mirino logo"
  },
  {
    "label": "Charger_Long_00",
    "text": "Tinter a carica 4K"
  },
  {
    "label": "Charger_Long_01",
    "text": "Tinter a carica 4K CM"
  },
  {
    "label": "Charger_LongScope_00",
    "text": "Tinter con mirino 4K"
  },
  {
    "label": "Charger_LongScope_01",
    "text": "Tinter con mirino 4K CM"
  },
  {
    "label": "Charger_Light_00",
    "text": "Bimbamboom 14-I"
  },
  {
    "label": "Charger_Light_01",
    "text": "Bimbamboom 14-II"
  },
  {
    "label": "Charger_Keeper_00",
    "text": "Tintubator"
  },
  {
    "label": "Charger_Keeper_01",
    "text": "Tintubator CM"
  },
  {
    "label": "Slosher_Strong_00",
    "text": "Secchiostro"
  },
  {
    "label": "Slosher_Strong_01",
    "text": "Secchiostro DX"
  },
  {
    "label": "Slosher_Diffusion_00",
    "text": "Secchiostro triplo"
  },
  {
    "label": "Slosher_Diffusion_01",
    "text": "Secchiostro triplo master"
  },
  {
    "label": "Slosher_Launcher_00",
    "text": "Secchiostro centrifuga"
  },
  {
    "label": "Slosher_Launcher_01",
    "text": "Secchiostro centrifuga Neo"
  },
  {
    "label": "Slosher_Bathtub_00",
    "text": "Secchiostro vasca"
  },
  {
    "label": "Slosher_Bathtub_01",
    "text": "Secchiostro vasca DX"
  },
  {
    "label": "Slosher_Washtub_00",
    "text": "Termosecchiostro"
  },
  {
    "label": "Slosher_Washtub_01",
    "text": "Termosecchiostro master"
  },
  {
    "label": "Spinner_Quick_00",
    "text": "Mini splatling"
  },
  {
    "label": "Spinner_Quick_01",
    "text": "Mini splatling logo"
  },
  {
    "label": "Spinner_Standard_00",
    "text": "Splatling a tanica"
  },
  {
    "label": "Spinner_Standard_01",
    "text": "Splatling a tanica DX"
  },
  {
    "label": "Spinner_Hyper_00",
    "text": "Idrante"
  },
  {
    "label": "Spinner_Hyper_01",
    "text": "Idrante CM"
  },
  {
    "label": "Spinner_Downpour_00",
    "text": "Tetrapenna"
  },
  {
    "label": "Spinner_Downpour_01",
    "text": "Tetrapenna master"
  },
  {
    "label": "Spinner_Serein_00",
    "text": "Nautilus 47"
  },
  {
    "label": "Spinner_Serein_01",
    "text": "Nautilus 79"
  },
  {
    "label": "Maneuver_Short_00",
    "text": "Ripolpella duplo"
  },
  {
    "label": "Maneuver_Short_01",
    "text": "Ripolpella duplo master"
  },
  {
    "label": "Maneuver_Normal_00",
    "text": "Repolper duplo"
  },
  {
    "label": "Maneuver_Normal_01",
    "text": "Repolper duplo logo"
  },
  {
    "label": "Maneuver_Gallon_00",
    "text": "Kelvin duplo 525"
  },
  {
    "label": "Maneuver_Gallon_01",
    "text": "Kelvin duplo 525 DX"
  },
  {
    "label": "Maneuver_Dual_00",
    "text": "Sweeper duplo"
  },
  {
    "label": "Maneuver_Dual_01",
    "text": "Sweeper duplo CM"
  },
  {
    "label": "Maneuver_Stepper_00",
    "text": "Moscarpino duplo nero"
  },
  {
    "label": "Maneuver_Stepper_01",
    "text": "Moscarpino duplo bianco"
  },
  {
    "label": "Shelter_Normal_00",
    "text": "Sparasole"
  },
  {
    "label": "Shelter_Normal_01",
    "text": "Sparasole Solerra"
  },
  {
    "label": "Shelter_Wide_00",
    "text": "Sparatenda"
  },
  {
    "label": "Shelter_Wide_01",
    "text": "Sparatenda Solerra"
  },
  {
    "label": "Stringer_Normal_00",
    "text": "Tri-calamarco"
  },
  {
    "label": "Stringer_Normal_01",
    "text": "Tri-calamarco Maremont"
  },
  {
    "label": "Stringer_Explosion_00",
    "text": "Fontanarco V"
  },
  {
    "label": "Stringer_Explosion_01",
    "text": "Fontanarco V CM"
  },
  {
    "label": "Stringer_Short_00",
    "text": "ARCO-RAL 450"
  },
  {
    "label": "Stringer_Short_01",
    "text": "ARCO-RAL 450 DX"
  },
  {
    "label": "Shelter_Compact_00",
    "text": "Bombrello"
  },
  {
    "label": "Shelter_Compact_01",
    "text": "Bombrello Solerra"
  },
  {
    "label": "Saber_Normal_00",
    "text": "Splattalama"
  },
  {
    "label": "Saber_Normal_01",
    "text": "Splattalama master"
  },
  {
    "label": "Saber_Heavy_00",
    "text": "Spazzolama menta"
  },
  {
    "label": "Saber_Heavy_01",
    "text": "Spazzolama carbone"
  },
  {
    "label": "Saber_Lite_00",
    "text": "Tergilama"
  },
  {
    "label": "Saber_Lite_01",
    "text": "Tergilama DX"
  },
  {
    "label": "Shooter_QuickLong_00",
    "text": "Splasher Nova"
  },
  {
    "label": "Shooter_QuickLong_01",
    "text": "Splasher Nova Annak"
  },
  {
    "label": "Roller_Wide_00",
    "text": "Ampiorullo"
  },
  {
    "label": "Roller_Wide_01",
    "text": "Ampiorullo Express"
  },
  {
    "label": "Brush_Heavy_00",
    "text": "Tonnoretto"
  },
  {
    "label": "Brush_Heavy_01",
    "text": "Tonnoretto master"
  },
  {
    "label": "Charger_Pencil_00",
    "text": "Lapis cecchino 5H"
  },
  {
    "label": "Charger_Pencil_01",
    "text": "Lapis cecchino 5B"
  },
  {
    "label": "Blaster_Precision_00",
    "text": "S-BLAST92"
  },
  {
    "label": "Blaster_Precision_01",
    "text": "S-BLAST91"
  },
  {
    "label": "Spinner_HyperShort_00",
    "text": "Splatling a pennarelli"
  },
  {
    "label": "Spinner_HyperShort_01",
    "text": "Splatling a pennarelli master"
  },
  {
    "label": "Slosher_Double_00",
    "text": "Secchiapavimenti"
  },
  {
    "label": "Slosher_Double_01",
    "text": "Secchiapavimenti D"
  },
  {
    "label": "Maneuver_Long_00",
    "text": "Repolper estintori FF"
  },
  {
    "label": "Maneuver_Long_01",
    "text": "Repolper estintori FF CM"
  },
  {
    "label": "Shelter_Focus_00",
    "text": "Sparasole riciclo 24-I"
  },
  {
    "label": "Shelter_Focus_01",
    "text": "Sparasole riciclo 24-II"
  },
  {
    "label": "Maneuver_Normal_O",
    "text": "Repolper Ordine replica"
  },
  {
    "label": "Shelter_Normal_O",
    "text": "Sparasole Ordine replica"
  },
  {
    "label": "Shooter_Normal_O",
    "text": "Pistola Ordine replica"
  },
  {
    "label": "Roller_Normal_O",
    "text": "Rullo Ordine replica"
  },
  {
    "label": "Charger_Normal_O",
    "text": "Splatter Ordine replica"
  },
  {
    "label": "Slosher_Strong_O",
    "text": "Secchiostro Ordine replica"
  },
  {
    "label": "Spinner_Standard_O",
    "text": "Splatling Ordine replica"
  },
  {
    "label": "Blaster_Short_O",
    "text": "Blaster Ordine replica"
  },
  {
    "label": "Brush_Normal_O",
    "text": "Pennello Ordine replica"
  },
  {
    "label": "Stringer_Normal_O",
    "text": "Calamarco Ordine replica"
  },
  {
    "label": "Saber_Normal_O",
    "text": "Lama Ordine replica"
  },
  {
    "label": "Blaster_Light_Coop",
    "text": "Blaster rapido"
  },
  {
    "label": "Blaster_LightLong_Coop",
    "text": "Blaster élite"
  },
  {
    "label": "Blaster_LightShort_Coop",
    "text": "Blaster da mischia"
  },
  {
    "label": "Blaster_Long_Coop",
    "text": "Blaster a distanza"
  },
  {
    "label": "Blaster_Middle_Coop",
    "text": "Blaster"
  },
  {
    "label": "Blaster_Short_Coop",
    "text": "Blaster lunar"
  },
  {
    "label": "Brush_Mini_Coop",
    "text": "Calamaravaggio"
  },
  {
    "label": "Brush_Normal_Coop",
    "text": "Tinturicchio"
  },
  {
    "label": "Charger_Keeper_Coop",
    "text": "Tintubator"
  },
  {
    "label": "Charger_Light_Coop",
    "text": "Bimbamboom 14-I"
  },
  {
    "label": "Charger_Long_Coop",
    "text": "Tinter a carica 4K"
  },
  {
    "label": "Charger_Normal_Coop",
    "text": "Splatter a carica"
  },
  {
    "label": "Charger_Quick_Coop",
    "text": "Kalamarapid α"
  },
  {
    "label": "Maneuver_Dual_Coop",
    "text": "Sweeper duplo"
  },
  {
    "label": "Maneuver_Gallon_Coop",
    "text": "Kelvin duplo 525"
  },
  {
    "label": "Maneuver_Normal_Coop",
    "text": "Repolper duplo"
  },
  {
    "label": "Maneuver_Short_Coop",
    "text": "Ripolpella duplo"
  },
  {
    "label": "Maneuver_Stepper_Coop",
    "text": "Moscarpino duplo nero"
  },
  {
    "label": "Roller_Compact_Coop",
    "text": "Rullo di carbonio"
  },
  {
    "label": "Roller_Heavy_Coop",
    "text": "Rullo dinamo"
  },
  {
    "label": "Roller_Hunter_Coop",
    "text": "Flexi-rullo"
  },
  {
    "label": "Roller_Normal_Coop",
    "text": "Rullo splat"
  },
  {
    "label": "Shelter_Compact_Coop",
    "text": "Bombrello"
  },
  {
    "label": "Shelter_Normal_Coop",
    "text": "Sparasole"
  },
  {
    "label": "Shelter_Wide_Coop",
    "text": "Sparatenda"
  },
  {
    "label": "Shooter_Blaze_Coop",
    "text": "Aerografo"
  },
  {
    "label": "Shooter_Expert_Coop",
    "text": "Splasher élite"
  },
  {
    "label": "Shooter_First_Coop",
    "text": "Sparacolore recluta"
  },
  {
    "label": "Shooter_Flash_Coop",
    "text": "Strizzer"
  },
  {
    "label": "Shooter_Gravity_Coop",
    "text": "Calibro 2000"
  },
  {
    "label": "Shooter_Heavy_Coop",
    "text": "Calibro 3000"
  },
  {
    "label": "Shooter_Long_Coop",
    "text": "Sweeper"
  },
  {
    "label": "Shooter_Normal_Coop",
    "text": "Splasher"
  },
  {
    "label": "Shooter_Precision_Coop",
    "text": "Marker d'assalto"
  },
  {
    "label": "Shooter_QuickMiddle_Coop",
    "text": "N-ZAP85"
  },
  {
    "label": "Shooter_Short_Coop",
    "text": "Marker"
  },
  {
    "label": "Shooter_TripleMiddle_Coop",
    "text": "Triplete"
  },
  {
    "label": "Shooter_TripleQuick_Coop",
    "text": "Triplete compatto"
  },
  {
    "label": "Slosher_Bathtub_Coop",
    "text": "Secchiostro vasca"
  },
  {
    "label": "Slosher_Diffusion_Coop",
    "text": "Secchiostro triplo"
  },
  {
    "label": "Slosher_Launcher_Coop",
    "text": "Secchiostro centrifuga"
  },
  {
    "label": "Slosher_Strong_Coop",
    "text": "Secchiostro"
  },
  {
    "label": "Slosher_Washtub_Coop",
    "text": "Termosecchiostro"
  },
  {
    "label": "Spinner_Downpour_Coop",
    "text": "Tetrapenna"
  },
  {
    "label": "Spinner_Hyper_Coop",
    "text": "Idrante"
  },
  {
    "label": "Spinner_Quick_Coop",
    "text": "Mini splatling"
  },
  {
    "label": "Spinner_Serein_Coop",
    "text": "Nautilus 47"
  },
  {
    "label": "Spinner_Standard_Coop",
    "text": "Splatling a tanica"
  },
  {
    "label": "Stringer_Normal_Coop",
    "text": "Tri-calamarco"
  },
  {
    "label": "Stringer_Short_Coop",
    "text": "ARCO-RAL 450"
  },
  {
    "label": "Saber_Normal_Coop",
    "text": "Splattalama"
  },
  {
    "label": "Saber_Lite_Coop",
    "text": "Tergilama"
  },
  {
    "label": "Shooter_QuickLong_Coop",
    "text": "Splasher Nova"
  },
  {
    "label": "Roller_Wide_Coop",
    "text": "Ampiorullo"
  },
  {
    "label": "Charger_Pencil_Coop",
    "text": "Lapis cecchino 5H"
  },
  {
    "label": "Brush_Heavy_Coop",
    "text": "Tonnoretto"
  },
  {
    "label": "Blaster_Precision_Coop",
    "text": "S-BLAST92"
  },
  {
    "label": "Slosher_Double_Coop",
    "text": "Secchiapavimenti"
  },
  {
    "label": "Spinner_HyperShort_Coop",
    "text": "Splatling a pennarelli"
  },
  {
    "label": "Maneuver_Long_Coop",
    "text": "Repolper estintori FF"
  },
  {
    "label": "Shelter_Focus_Coop",
    "text": "Sparasole riciclo 24-I"
  },
  {
    "label": "Saber_Heavy_Coop",
    "text": "Spazzolama menta"
  },
  {
    "label": "Stringer_Explosion_Coop",
    "text": "Fontanarco V"
  },
  {
    "label": "Blaster_Bear_Coop",
    "text": "Blaster Ursus"
  },
  {
    "label": "Charger_Bear_Coop",
    "text": "Splatter a carica Ursus"
  },
  {
    "label": "Saber_Bear_Coop",
    "text": "Lama Ursus"
  },
  {
    "label": "Shelter_Bear_Coop",
    "text": "Sparasole Ursus"
  },
  {
    "label": "Slosher_Bear_Coop",
    "text": "Secchiostro Ursus"
  },
  {
    "label": "Stringer_Bear_Coop",
    "text": "Calamarco Ursus"
  },
  {
    "label": "Maneuver_Bear_Coop",
    "text": "Repolper Ursus"
  },
  {
    "label": "Roller_Bear_Coop",
    "text": "Rullo Ursus"
  },
  {
    "label": "Free",
    "text": "-"
  },
  {
    "label": "Shooter_RivalLv1_00",
    "text": "-"
  },
  {
    "label": "Shooter_RivalLv2_00",
    "text": "-"
  },
  {
    "label": "Blaster_RivalLv1_00",
    "text": "-"
  },
  {
    "label": "Blaster_RivalLv2_00",
    "text": "-"
  },
  {
    "label": "Brush_RivalLv1_00",
    "text": "-"
  },
  {
    "label": "Brush_RivalLv2_00",
    "text": "-"
  },
  {
    "label": "Maneuver_RivalLv1_00",
    "text": "-"
  },
  {
    "label": "Maneuver_RivalLv2_00",
    "text": "-"
  },
  {
    "label": "Roller_RivalLv1_00",
    "text": "-"
  },
  {
    "label": "Roller_RivalLv2_00",
    "text": "-"
  },
  {
    "label": "Shelter_RivalLv1_00",
    "text": "-"
  },
  {
    "label": "Shelter_RivalLv2_00",
    "text": "-"
  },
  {
    "label": "Slosher_RivalLv1_00",
    "text": "-"
  },
  {
    "label": "Slosher_RivalLv2_00",
    "text": "-"
  },
  {
    "label": "Shooter_MissionLv1_00",
    "text": "ヒーローシューターLv1"
  },
  {
    "label": "Shooter_MissionLv2_00",
    "text": "ヒーローシューターLv2"
  },
  {
    "label": "Shooter_MissionLv3_00",
    "text": "ヒーローシューターLv3"
  },
  {
    "label": "Blaster_LightLong_Msn",
    "text": "Blaster élite"
  },
  {
    "label": "Blaster_LightShort_Msn",
    "text": "Blaster da mischia"
  },
  {
    "label": "Blaster_Light_Msn",
    "text": "Blaster rapido"
  },
  {
    "label": "Blaster_Long_Msn",
    "text": "Blaster a distanza"
  },
  {
    "label": "Blaster_Middle_Msn",
    "text": "Blaster"
  },
  {
    "label": "Blaster_Short_Msn",
    "text": "Blaster lunar"
  },
  {
    "label": "Brush_Mini_Msn",
    "text": "Calamaravaggio"
  },
  {
    "label": "Brush_Normal_Msn",
    "text": "Tinturicchio"
  },
  {
    "label": "Charger_Keeper_Msn",
    "text": "Tintubator"
  },
  {
    "label": "Charger_Light_Msn",
    "text": "Bimbamboom 14-I"
  },
  {
    "label": "Charger_LongScope_Msn",
    "text": "Tinter con mirino 4K"
  },
  {
    "label": "Charger_Long_Msn",
    "text": "Tinter a carica 4K"
  },
  {
    "label": "Charger_NormalScope_Msn",
    "text": "Splatter con mirino"
  },
  {
    "label": "Charger_Normal_Msn",
    "text": "Splatter a carica"
  },
  {
    "label": "Charger_Quick_Msn",
    "text": "Kalamarapid α"
  },
  {
    "label": "Maneuver_Dual_Msn",
    "text": "Sweeper duplo"
  },
  {
    "label": "Maneuver_Gallon_Msn",
    "text": "Kelvin duplo 525"
  },
  {
    "label": "Maneuver_Normal_Msn",
    "text": "Repolper duplo"
  },
  {
    "label": "Maneuver_Short_Msn",
    "text": "Ripolpella duplo"
  },
  {
    "label": "Maneuver_Stepper_Msn",
    "text": "Moscarpino duplo nero"
  },
  {
    "label": "Roller_Compact_Msn",
    "text": "Rullo di carbonio"
  },
  {
    "label": "Roller_Heavy_Msn",
    "text": "Rullo dinamo"
  },
  {
    "label": "Roller_Hunter_Msn",
    "text": "Flexi-rullo"
  },
  {
    "label": "Roller_Normal_Msn",
    "text": "Rullo splat"
  },
  {
    "label": "Saber_Normal_Msn",
    "text": "Splattalama"
  },
  {
    "label": "Shelter_Compact_Msn",
    "text": "Bombrello"
  },
  {
    "label": "Shelter_Normal_Msn",
    "text": "Sparasole"
  },
  {
    "label": "Shelter_Wide_Msn",
    "text": "Sparatenda"
  },
  {
    "label": "Shooter_Blaze_Msn",
    "text": "Aerografo"
  },
  {
    "label": "Shooter_Expert_Msn",
    "text": "Splasher élite"
  },
  {
    "label": "Shooter_First_Msn",
    "text": "Sparacolore recluta"
  },
  {
    "label": "Shooter_Flash_Msn",
    "text": "Strizzer"
  },
  {
    "label": "Shooter_Gravity_Msn",
    "text": "Calibro 2000"
  },
  {
    "label": "Shooter_Heavy_Msn",
    "text": "Calibro 3000"
  },
  {
    "label": "Shooter_Long_Msn",
    "text": "Sweeper"
  },
  {
    "label": "Shooter_Normal_Msn",
    "text": "Splasher"
  },
  {
    "label": "Shooter_Precision_Msn",
    "text": "Marker d'assalto"
  },
  {
    "label": "Shooter_QuickMiddle_Msn",
    "text": "N-ZAP85"
  },
  {
    "label": "Shooter_Short_Msn",
    "text": "Marker"
  },
  {
    "label": "Shooter_TripleMiddle_Msn",
    "text": "Triplete"
  },
  {
    "label": "Shooter_TripleQuick_Msn",
    "text": "Triplete compatto"
  },
  {
    "label": "Slosher_Bathtub_Msn",
    "text": "Secchiostro vasca"
  },
  {
    "label": "Slosher_Diffusion_Msn",
    "text": "Secchiostro triplo"
  },
  {
    "label": "Slosher_Launcher_Msn",
    "text": "Secchiostro centrifuga"
  },
  {
    "label": "Slosher_Strong_Msn",
    "text": "Secchiostro"
  },
  {
    "label": "Slosher_Washtub_Msn",
    "text": "Termosecchiostro"
  },
  {
    "label": "Spinner_Downpour_Msn",
    "text": "Tetrapenna"
  },
  {
    "label": "Spinner_Hyper_Msn",
    "text": "Idrante"
  },
  {
    "label": "Spinner_Quick_Msn",
    "text": "Mini splatling"
  },
  {
    "label": "Spinner_Serein_Msn",
    "text": "Nautilus 47"
  },
  {
    "label": "Spinner_Standard_Msn",
    "text": "Splatling a tanica"
  },
  {
    "label": "Stringer_Normal_Msn",
    "text": "Tri-calamarco"
  },
  {
    "label": "Shooter_ExtraOne_Sdodr",
    "text": "シューター"
  },
  {
    "label": "Shooter_ExtraTwo_Sdodr",
    "text": "オクタシューター"
  },
  {
    "label": "Blaster_ExtraOne_Sdodr",
    "text": "ブラスター"
  },
  {
    "label": "Charger_ExtraOne_Sdodr",
    "text": "チャージャー"
  },
  {
    "label": "Brush_Sdodr",
    "text": "フデ"
  },
  {
    "label": "Maneuver_Sdodr",
    "text": "マニューバー"
  },
  {
    "label": "Roller_Sdodr",
    "text": "ローラー"
  },
  {
    "label": "Saber_Sdodr",
    "text": "ワイパー"
  },
  {
    "label": "Shelter_Sdodr",
    "text": "シェルター"
  },
  {
    "label": "Slosher_Sdodr",
    "text": "スロッシャー"
  },
  {
    "label": "Spinner_Sdodr",
    "text": "スピナー"
  },
  {
    "label": "Stringer_Sdodr",
    "text": "ストリンガー"
  }
]