{
  "version": 7,
  "rootNode": {
    "Category": "TimelineDemo",
    "Components": {
      "NonEventMemberSetting": "Work/Event/EventSetting/EventSettingComponent/NonEventMemberSetting/AllPauseAndAllHide.engine__event__NonEventMemberSetting.gyml",
      "SleepActorSetting": "Work/Event/EventSetting/EventSettingComponent/SleepActorSetting/CancelSleep.engine__event__SleepActorSetting.gyml",
      "TraverseSetting": "Work/Event/EventSetting/EventSettingComponent/TraverseSetting/NoTraverseLimit.engine__event__TraverseSetting.gyml"
    },
    "Label": ""
  }
}