{
  "version": 7,
  "rootNode": {
    "DropDemoFade": 0.77,
    "DropDemoFadeDelay": 6.0,
    "DropDemoFadeOut": 6.0,
    "MainBgmFadeLength": 2.0,
    "MainBgmFadeTiming": 7.0,
    "MelodyFadeInLength": 0.25,
    "MelodyFadeOutLength": 2.0,
    "ResultDelay": 1.5
  }
}