{
  "version": 7,
  "rootNode": {
    "CurveScaleToFarFxSendScale": {
      "FarFx_AfterFesBgm": {
        "Data": [0.0,0.5,60.0,0.71],
        "MaxX": 220.0,
        "Type": "Linear2D"
      },
      "FarFx_Cmn": {
        "Data": [1.0,0.005,200.0,1.0],
        "MaxX": 220.0,
        "Type": "Linear2D"
      },
      "FarFx_FesBgm": {
        "Data": [0.0,0.75,60.0,1.0],
        "MaxX": 220.0,
        "Type": "Linear2D"
      },
      "FarFx_Sand": {
        "Data": [14.0,0.2,22.0,0.4,40.0,0.8],
        "MaxX": 110.0,
        "Type": "Linear2D"
      },
      "FarFx_SendFixed": {
        "Data": [1.0,1.0],
        "MaxX": 220.0,
        "Type": "Linear"
      },
      "FarFx_Spectacle": {
        "Data": [50.0,0.1,500.0,1.0],
        "MaxX": 600.0,
        "Type": "Linear2D"
      },
      "FarFx_WpMuzzle": {
        "Data": [0.0,0.1,200.0,0.8],
        "MaxX": 220.0,
        "Type": "Linear2D"
      }
    },
    "FarFxCurve": {
      "FarFx_AfterFesBgm": {
        "Data": [4.0,1.0,-0.6,8.0,0.0,0.011],
        "MaxX": 15.0,
        "Type": "Hermit2DSmooth"
      },
      "FarFx_Cmn": {
        "Data": [4.0,1.0,-0.6,8.0,0.0,0.01140435],
        "MaxX": 15.0,
        "Type": "Hermit2DSmooth"
      },
      "FarFx_FesBgm": {
        "Data": [0.35,0.6,0.1213647,2.0,1.0,-0.2579821,8.0,0.0,-0.03352347],
        "MaxX": 15.0,
        "Type": "Hermit2DSmooth"
      },
      "FarFx_Sand": {
        "Data": [3.0,1.0,-0.11551879,35.0,0.0,-0.013976434],
        "MaxX": 40.0,
        "Type": "Hermit2DSmooth"
      },
      "FarFx_SendFixed": {
        "Data": [4.0,1.0,-0.6,8.0,0.0,0.011],
        "MaxX": 15.0,
        "Type": "Hermit2DSmooth"
      },
      "FarFx_Spectacle": {
        "Data": [2.0,1.0,-0.3,8.0,0.0,0.0],
        "MaxX": 15.0,
        "Type": "Hermit2DSmooth"
      },
      "FarFx_WpMuzzle": {
        "Data": [4.0,1.0,-0.6,8.0,0.0,-0.022],
        "MaxX": 15.0,
        "Type": "Hermit2DSmooth"
      }
    },
    "FriendDistCoef": 1.5,
    "IsListenerDirectivityUseCamera": true,
    "OcclusionHfReference": 10000.0,
    "OcclusionInterpTime": 0.5,
    "OcclusionMinGain": -60.0,
    "SensitivityFilterCurve": {
      "CmnFlt_Const": {
        "Data": [0.0,0.0],
        "MaxX": 100.0,
        "Type": "Linear"
      },
      "CmnFlt_High": {
        "Data": [5.0,0.0,0.0,25.0,0.6,0.01],
        "MaxX": 100.0,
        "Type": "Hermit2DSmooth"
      },
      "CmnFlt_Low": {
        "Data": [5.0,0.0,0.0,25.0,1.0,0.01],
        "MaxX": 100.0,
        "Type": "Hermit2DSmooth"
      }
    }
  }
}