[
  {
    "label": "B00",
    "text": "Kalamas"
  },
  {
    "label": "B01",
    "text": "Tintaz"
  },
  {
    "label": "B02",
    "text": "Meddux"
  },
  {
    "label": "B03",
    "text": "Rockenberg"
  },
  {
    "label": "B04",
    "text": "Ezko"
  },
  {
    "label": "B05",
    "text": "Forima"
  },
  {
    "label": "B06",
    "text": "Chokkor"
  },
  {
    "label": "B07",
    "text": "Skalop"
  },
  {
    "label": "B08",
    "text": "Jimmon"
  },
  {
    "label": "B09",
    "text": "Moluskia"
  },
  {
    "label": "B10",
    "text": "Arome"
  },
  {
    "label": "B11",
    "text": "Sepioca"
  },
  {
    "label": "B15",
    "text": "Annak"
  },
  {
    "label": "B16",
    "text": "Krakien"
  },
  {
    "label": "B17",
    "text": "Tonken"
  },
  {
    "label": "B18",
    "text": "Ezkkor"
  },
  {
    "label": "B19",
    "text": "Barazushi"
  },
  {
    "label": "B20",
    "text": "Ascuax"
  },
  {
    "label": "B97",
    "text": "Don Oso"
  },
  {
    "label": "B98",
    "text": "Obvius"
  },
  {
    "label": "B99",
    "text": "amiibo"
  }
]