{
  "version": 7,
  "rootNode": {
    "Elements": [
      {
        "BehaviorStateArySize": 5,
        "BehaviorStateName": "spl::MiniGameMasterNetState_Table",
        "IsBehaviorStateAry": true,
        "Protocol": "Reliable"
      },
      {
        "BehaviorStateName": "spl::MiniGameMasterNetState_BattleId",
        "Protocol": "Reliable"
      }
    ],
    "HasEventElement": true,
    "SenderPolicy": "SessionMasterOrEvent"
  }
}