[
  {
    "label": "SpInkStorm",
    "text": "Pluie d'encre"
  },
  {
    "label": "SpUltraShot",
    "text": "Lance-rafales"
  },
  {
    "label": "SpUltraStamp",
    "text": "Ultra-tamponneur"
  },
  {
    "label": "SpGachihoko",
    "text": "Bazookarpe"
  },
  {
    "label": "SpGreatBarrier",
    "text": "Super bouclier"
  },
  {
    "label": "SpJetpack",
    "text": "Chromo-jet"
  },
  {
    "label": "SpShockSonar",
    "text": "Sonar paf"
  },
  {
    "label": "SpSuperHook",
    "text": "Super Mollusque"
  },
  {
    "label": "SpSuperLanding",
    "text": "Choc chromatique"
  },
  {
    "label": "SpSkewer",
    "text": "Cavalsquale"
  },
  {
    "label": "SpChariot",
    "text": "Crabe d'assaut"
  },
  {
    "label": "SpNiceBall",
    "text": "Jolizator"
  },
  {
    "label": "SpBlower",
    "text": "Aspirencre"
  },
  {
    "label": "SpMultiMissile",
    "text": "Multi-missile"
  },
  {
    "label": "SpMicroLaser",
    "text": "Haut-perceur 5.1"
  },
  {
    "label": "SpTripleTornado",
    "text": "Trimissile tornade"
  },
  {
    "label": "SpEnergyStand",
    "text": "Districool"
  },
  {
    "label": "SpFirework",
    "text": "Multi-leurres"
  },
  {
    "label": "SpCastle",
    "text": "Kraken royal"
  },
  {
    "label": "SpChimney",
    "text": "Barrière barbouillée"
  },
  {
    "label": "SpPogo",
    "text": "Triple choc chromatique"
  },
  {
    "label": "SpIkuraShoot",
    "text": "-"
  },
  {
    "label": "SpGreatBarrier_Rival",
    "text": "-"
  },
  {
    "label": "SpInkStorm_Rival",
    "text": "-"
  },
  {
    "label": "SpJetpack_Rival",
    "text": "-"
  },
  {
    "label": "SpMultiMissile_Rival",
    "text": "-"
  },
  {
    "label": "SpShockSonar_Rival",
    "text": "-"
  },
  {
    "label": "SpSuperLanding_Rival",
    "text": "-"
  },
  {
    "label": "SpBlower_Mission",
    "text": "Aspirencre"
  },
  {
    "label": "SpChariot_Mission",
    "text": "Crabe d'assaut"
  },
  {
    "label": "SpInkStorm_Mission",
    "text": "Pluie d'encre"
  },
  {
    "label": "SpMicroLaser_Mission",
    "text": "Haut-perceur 5.1"
  },
  {
    "label": "SpMultiMissile_Mission",
    "text": "Multi-missile"
  },
  {
    "label": "SpShockSonar_Mission",
    "text": "Sonar paf"
  },
  {
    "label": "SpSkewer_Mission",
    "text": "Cavalsquale"
  },
  {
    "label": "SpSuperHook_Mission",
    "text": "Super Mollusque"
  },
  {
    "label": "SpTripleTornado_Mission",
    "text": "Trimissile tornade"
  },
  {
    "label": "SpUltraShot_Mission",
    "text": "Lance-rafales"
  },
  {
    "label": "SpUltraStamp_Mission",
    "text": "Ultra-tamponneur"
  },
  {
    "label": "SpJetpack_Mission",
    "text": "Chromo-jet"
  },
  {
    "label": "SpUltraShot_Coop",
    "text": "Lance-rafales"
  },
  {
    "label": "SpJetpack_Coop",
    "text": "Chromo-jet"
  },
  {
    "label": "SpShockSonar_Coop",
    "text": "Sonar paf"
  },
  {
    "label": "SpSuperLanding_Coop",
    "text": "Choc chromatique"
  },
  {
    "label": "SpSkewer_Coop",
    "text": "Cavalsquale"
  },
  {
    "label": "SpChariot_Coop",
    "text": "Crabe d'assaut"
  },
  {
    "label": "SpNiceBall_Coop",
    "text": "Jolizator"
  },
  {
    "label": "SpMicroLaser_Coop",
    "text": "Haut-perceur 5.1"
  },
  {
    "label": "SpTripleTornado_Coop",
    "text": "Trimissile tornade"
  },
  {
    "label": "SpCastle_Coop",
    "text": "Kraken royal"
  },
  {
    "label": "SpPogo_Coop",
    "text": "Triple choc chromatique"
  },
  {
    "label": "SpGachihokoForEventMatch",
    "text": "Bazookarpe"
  },
  {
    "label": "SpMicroLaserSdodr",
    "text": "Haut-perceur 5.1"
  },
  {
    "label": "SpShockSonarSdodr",
    "text": "Sonar paf"
  },
  {
    "label": "SpSkewerSdodr",
    "text": "Cavalsquale"
  },
  {
    "label": "SpInkStormSdodr",
    "text": "Pluie d'encre"
  },
  {
    "label": "SpTripleTornadoSdodr",
    "text": "Trimissile tornade"
  },
  {
    "label": "SpChariotSdodr",
    "text": "Crabe d'assaut"
  },
  {
    "label": "SpCastleSdodr",
    "text": "Kraken royal"
  },
  {
    "label": "SpNiceBallSdodr",
    "text": "Jolizator"
  },
  {
    "label": "SpUltraStampSdodr",
    "text": "Ultra-tamponneur"
  },
  {
    "label": "SpUltraShotSdodr",
    "text": "Lance-rafales"
  },
  {
    "label": "SpPogoSdodr",
    "text": "Triple choc chromatique"
  },
  {
    "label": "SpPogo_Rival",
    "text": "-"
  },
  {
    "label": "SpDroneBuddySdodr",
    "text": "-"
  }
]