[
  {
    "label": "Shooter_Short_00",
    "text": "Marqueur lourd"
  },
  {
    "label": "Shooter_Short_01",
    "text": "Marqueur lourd Néo"
  },
  {
    "label": "Shooter_First_00",
    "text": "Liquidateur Jr."
  },
  {
    "label": "Shooter_First_01",
    "text": "Liquidateur Sr."
  },
  {
    "label": "Shooter_Precision_00",
    "text": "Marqueur léger"
  },
  {
    "label": "Shooter_Precision_01",
    "text": "Marqueur léger Néo"
  },
  {
    "label": "Shooter_Blaze_00",
    "text": "Aérogun"
  },
  {
    "label": "Shooter_Blaze_01",
    "text": "Aérogun premium"
  },
  {
    "label": "Shooter_Normal_00",
    "text": "Liquidateur"
  },
  {
    "label": "Shooter_Normal_01",
    "text": "Liquidateur griffé"
  },
  {
    "label": "Shooter_Normal_H",
    "text": "Lanceur héroïque (réplique)"
  },
  {
    "label": "Shooter_Normal_Oct",
    "text": "Lanceur Octaling (réplique)"
  },
  {
    "label": "Shooter_Gravity_00",
    "text": "Calibre 2000"
  },
  {
    "label": "Shooter_Gravity_01",
    "text": "Calibre 2000 chic"
  },
  {
    "label": "Shooter_QuickMiddle_00",
    "text": "N-ZAP 85"
  },
  {
    "label": "Shooter_QuickMiddle_01",
    "text": "N-ZAP 89"
  },
  {
    "label": "Shooter_Expert_00",
    "text": "Liquidateur pro"
  },
  {
    "label": "Shooter_Expert_01",
    "text": "Liquidateur pro griffé"
  },
  {
    "label": "Shooter_Heavy_00",
    "text": "Calibre 3000"
  },
  {
    "label": "Shooter_Heavy_01",
    "text": "Calibre 3000 chic"
  },
  {
    "label": "Shooter_Long_00",
    "text": "Nettoyeur XL"
  },
  {
    "label": "Shooter_Long_01",
    "text": "Nettoyeur XL modifié"
  },
  {
    "label": "Blaster_Short_00",
    "text": "Proxiblaster"
  },
  {
    "label": "Blaster_Short_01",
    "text": "Proxiblaster Néo"
  },
  {
    "label": "Blaster_Middle_00",
    "text": "Éclablaster"
  },
  {
    "label": "Blaster_Middle_01",
    "text": "Éclablaster modifié"
  },
  {
    "label": "Blaster_Long_00",
    "text": "Éclablaster XL"
  },
  {
    "label": "Blaster_Long_01",
    "text": "Éclablaster XL griffé"
  },
  {
    "label": "Blaster_LightShort_00",
    "text": "Rafablaster"
  },
  {
    "label": "Blaster_LightShort_01",
    "text": "Rafablaster Néo"
  },
  {
    "label": "Blaster_Light_00",
    "text": "Turboblaster"
  },
  {
    "label": "Blaster_Light_01",
    "text": "Turboblaster chic"
  },
  {
    "label": "Blaster_LightLong_00",
    "text": "Turboblaster pro"
  },
  {
    "label": "Blaster_LightLong_01",
    "text": "Turboblaster pro chic"
  },
  {
    "label": "Shooter_TripleQuick_00",
    "text": "Arroseur léger"
  },
  {
    "label": "Shooter_TripleQuick_01",
    "text": "Arroseur léger Cétacé"
  },
  {
    "label": "Shooter_TripleMiddle_00",
    "text": "Arroseur lourd"
  },
  {
    "label": "Shooter_TripleMiddle_01",
    "text": "Arroseur lourd Cétacé"
  },
  {
    "label": "Shooter_Flash_00",
    "text": "Compresseur"
  },
  {
    "label": "Shooter_Flash_01",
    "text": "Compresseur alu"
  },
  {
    "label": "Roller_Compact_00",
    "text": "Rouleau carbone"
  },
  {
    "label": "Roller_Compact_01",
    "text": "Rouleau carbone chic"
  },
  {
    "label": "Roller_Normal_00",
    "text": "Rouleau"
  },
  {
    "label": "Roller_Normal_01",
    "text": "Rouleau griffé"
  },
  {
    "label": "Roller_Heavy_00",
    "text": "Dynamo-rouleau"
  },
  {
    "label": "Roller_Heavy_01",
    "text": "Dynamo-rouleau tesla"
  },
  {
    "label": "Roller_Hunter_00",
    "text": "Flexi-rouleau"
  },
  {
    "label": "Roller_Hunter_01",
    "text": "Flexi-rouleau alu"
  },
  {
    "label": "Brush_Mini_00",
    "text": "Épinceau"
  },
  {
    "label": "Brush_Mini_01",
    "text": "Épinceau nuancé"
  },
  {
    "label": "Brush_Normal_00",
    "text": "Épinceau brosse"
  },
  {
    "label": "Brush_Normal_01",
    "text": "Épinceau brosse nuancé"
  },
  {
    "label": "Charger_Quick_00",
    "text": "Décap'express Alpha"
  },
  {
    "label": "Charger_Quick_01",
    "text": "Décap'express Bêta"
  },
  {
    "label": "Charger_Normal_00",
    "text": "Concentraceur"
  },
  {
    "label": "Charger_Normal_01",
    "text": "Concentraceur E+F"
  },
  {
    "label": "Charger_NormalScope_00",
    "text": "Concentraceur zoom"
  },
  {
    "label": "Charger_NormalScope_01",
    "text": "Concentraceur zoom E+F"
  },
  {
    "label": "Charger_Long_00",
    "text": "Extraceur +"
  },
  {
    "label": "Charger_Long_01",
    "text": "Extraceur + modifié"
  },
  {
    "label": "Charger_LongScope_00",
    "text": "Extraceur + zoom"
  },
  {
    "label": "Charger_LongScope_01",
    "text": "Extraceur + zoom modifié"
  },
  {
    "label": "Charger_Light_00",
    "text": "Bimbamboum Mk I"
  },
  {
    "label": "Charger_Light_01",
    "text": "Bimbamboum Mk II"
  },
  {
    "label": "Charger_Keeper_00",
    "text": "Détubeur"
  },
  {
    "label": "Charger_Keeper_01",
    "text": "Détubeur modifié"
  },
  {
    "label": "Slosher_Strong_00",
    "text": "Seauceur"
  },
  {
    "label": "Slosher_Strong_01",
    "text": "Seauceur chic"
  },
  {
    "label": "Slosher_Diffusion_00",
    "text": "Dépoteur"
  },
  {
    "label": "Slosher_Diffusion_01",
    "text": "Dépoteur nuancé"
  },
  {
    "label": "Slosher_Launcher_00",
    "text": "Encrifugeur"
  },
  {
    "label": "Slosher_Launcher_01",
    "text": "Encrifugeur Néo"
  },
  {
    "label": "Slosher_Bathtub_00",
    "text": "Bassineur"
  },
  {
    "label": "Slosher_Bathtub_01",
    "text": "Bassineur chic"
  },
  {
    "label": "Slosher_Washtub_00",
    "text": "Détoneur"
  },
  {
    "label": "Slosher_Washtub_01",
    "text": "Détoneur modifié"
  },
  {
    "label": "Spinner_Quick_00",
    "text": "Badigeonneur XS"
  },
  {
    "label": "Spinner_Quick_01",
    "text": "Badigeonneur XS griffé"
  },
  {
    "label": "Spinner_Standard_00",
    "text": "Badigeonneur"
  },
  {
    "label": "Spinner_Standard_01",
    "text": "Badigeonneur chic"
  },
  {
    "label": "Spinner_Hyper_00",
    "text": "Exteinteur"
  },
  {
    "label": "Spinner_Hyper_01",
    "text": "Exteinteur modifié"
  },
  {
    "label": "Spinner_Downpour_00",
    "text": "Badigeonneur stylo"
  },
  {
    "label": "Spinner_Downpour_01",
    "text": "Badigeonneur stylo nuancé"
  },
  {
    "label": "Spinner_Serein_00",
    "text": "Nautilus 47"
  },
  {
    "label": "Spinner_Serein_01",
    "text": "Nautilus 79"
  },
  {
    "label": "Maneuver_Short_00",
    "text": "Double moucheteur"
  },
  {
    "label": "Maneuver_Short_01",
    "text": "Double moucheteur nuancé"
  },
  {
    "label": "Maneuver_Normal_00",
    "text": "Double encreur"
  },
  {
    "label": "Maneuver_Normal_01",
    "text": "Double encreur griffé"
  },
  {
    "label": "Maneuver_Gallon_00",
    "text": "Double Kelvin 525"
  },
  {
    "label": "Maneuver_Gallon_01",
    "text": "Double Kelvin 525 chic"
  },
  {
    "label": "Maneuver_Dual_00",
    "text": "Double nettoyeur"
  },
  {
    "label": "Maneuver_Dual_01",
    "text": "Double nettoyeur modifié"
  },
  {
    "label": "Maneuver_Stepper_00",
    "text": "Double voltigeur noir"
  },
  {
    "label": "Maneuver_Stepper_01",
    "text": "Double voltigeur blanc"
  },
  {
    "label": "Shelter_Normal_00",
    "text": "Para-encre"
  },
  {
    "label": "Shelter_Normal_01",
    "text": "Para-encre Sorella"
  },
  {
    "label": "Shelter_Wide_00",
    "text": "Para-encre XL"
  },
  {
    "label": "Shelter_Wide_01",
    "text": "Para-encre XL Sorella"
  },
  {
    "label": "Stringer_Normal_00",
    "text": "Trisperceur"
  },
  {
    "label": "Stringer_Normal_01",
    "text": "Trisperceur Abysma"
  },
  {
    "label": "Stringer_Explosion_00",
    "text": "Multisperceur V"
  },
  {
    "label": "Stringer_Explosion_01",
    "text": "Multisperceur V modifié"
  },
  {
    "label": "Stringer_Short_00",
    "text": "Coralux 450"
  },
  {
    "label": "Stringer_Short_01",
    "text": "Coralux 450 chic"
  },
  {
    "label": "Shelter_Compact_00",
    "text": "Para-encre espion"
  },
  {
    "label": "Shelter_Compact_01",
    "text": "Para-encre espion Sorella"
  },
  {
    "label": "Saber_Normal_00",
    "text": "Éclatana d'estampe"
  },
  {
    "label": "Saber_Normal_01",
    "text": "Éclatana d'estampe nuancé"
  },
  {
    "label": "Saber_Heavy_00",
    "text": "Sabrifrice menthe"
  },
  {
    "label": "Saber_Heavy_01",
    "text": "Sabrifrice charbon"
  },
  {
    "label": "Saber_Lite_00",
    "text": "Éclatana Doto"
  },
  {
    "label": "Saber_Lite_01",
    "text": "Éclatana Doto chic"
  },
  {
    "label": "Shooter_QuickLong_00",
    "text": "Lanceur spatial"
  },
  {
    "label": "Shooter_QuickLong_01",
    "text": "Lanceur spatial Aroz"
  },
  {
    "label": "Roller_Wide_00",
    "text": "Rouleau large"
  },
  {
    "label": "Roller_Wide_01",
    "text": "Rouleau large Xpress"
  },
  {
    "label": "Brush_Heavy_00",
    "text": "Épinceau écaïe"
  },
  {
    "label": "Brush_Heavy_01",
    "text": "Épinceau écaïe nuancé"
  },
  {
    "label": "Charger_Pencil_00",
    "text": "Crayon X - 5H"
  },
  {
    "label": "Charger_Pencil_01",
    "text": "Crayon X - 5B"
  },
  {
    "label": "Blaster_Precision_00",
    "text": "S-Blaster '92"
  },
  {
    "label": "Blaster_Precision_01",
    "text": "S-Blaster '91"
  },
  {
    "label": "Spinner_HyperShort_00",
    "text": "Correcteur"
  },
  {
    "label": "Spinner_HyperShort_01",
    "text": "Correcteur nuancé"
  },
  {
    "label": "Slosher_Double_00",
    "text": "Seau S-Horreur"
  },
  {
    "label": "Slosher_Double_01",
    "text": "Seau S-Horreur Cétacé"
  },
  {
    "label": "Maneuver_Long_00",
    "text": "Double ignifugeur"
  },
  {
    "label": "Maneuver_Long_01",
    "text": "Double ignifugeur modifié"
  },
  {
    "label": "Shelter_Focus_00",
    "text": "Para-encre Ré-gen 24 Mk I"
  },
  {
    "label": "Shelter_Focus_01",
    "text": "Para-encre Ré-gen 24 Mk II"
  },
  {
    "label": "Maneuver_Normal_O",
    "text": "Arme double d'Ordre (réplique)"
  },
  {
    "label": "Shelter_Normal_O",
    "text": "Para-encre d'Ordre (réplique)"
  },
  {
    "label": "Shooter_Normal_O",
    "text": "Lanceur d'Ordre (réplique)"
  },
  {
    "label": "Roller_Normal_O",
    "text": "Rouleau d'Ordre (réplique)"
  },
  {
    "label": "Charger_Normal_O",
    "text": "Fusil d'Ordre (réplique)"
  },
  {
    "label": "Slosher_Strong_O",
    "text": "Seau d'Ordre (réplique)"
  },
  {
    "label": "Spinner_Standard_O",
    "text": "Badigeonneur d'Ordre (réplique)"
  },
  {
    "label": "Blaster_Short_O",
    "text": "Blaster d'Ordre (réplique)"
  },
  {
    "label": "Brush_Normal_O",
    "text": "Pinceau d'Ordre (réplique)"
  },
  {
    "label": "Stringer_Normal_O",
    "text": "Transperceur d'Ordre (réplique)"
  },
  {
    "label": "Saber_Normal_O",
    "text": "Éclatana d'Ordre (réplique)"
  },
  {
    "label": "Blaster_Light_Coop",
    "text": "Turboblaster"
  },
  {
    "label": "Blaster_LightLong_Coop",
    "text": "Turboblaster pro"
  },
  {
    "label": "Blaster_LightShort_Coop",
    "text": "Rafablaster"
  },
  {
    "label": "Blaster_Long_Coop",
    "text": "Éclablaster XL"
  },
  {
    "label": "Blaster_Middle_Coop",
    "text": "Éclablaster"
  },
  {
    "label": "Blaster_Short_Coop",
    "text": "Proxiblaster"
  },
  {
    "label": "Brush_Mini_Coop",
    "text": "Épinceau"
  },
  {
    "label": "Brush_Normal_Coop",
    "text": "Épinceau brosse"
  },
  {
    "label": "Charger_Keeper_Coop",
    "text": "Détubeur"
  },
  {
    "label": "Charger_Light_Coop",
    "text": "Bimbamboum Mk I"
  },
  {
    "label": "Charger_Long_Coop",
    "text": "Extraceur +"
  },
  {
    "label": "Charger_Normal_Coop",
    "text": "Concentraceur"
  },
  {
    "label": "Charger_Quick_Coop",
    "text": "Décap'express Alpha"
  },
  {
    "label": "Maneuver_Dual_Coop",
    "text": "Double nettoyeur"
  },
  {
    "label": "Maneuver_Gallon_Coop",
    "text": "Double Kelvin 525"
  },
  {
    "label": "Maneuver_Normal_Coop",
    "text": "Double encreur"
  },
  {
    "label": "Maneuver_Short_Coop",
    "text": "Double moucheteur"
  },
  {
    "label": "Maneuver_Stepper_Coop",
    "text": "Double voltigeur noir"
  },
  {
    "label": "Roller_Compact_Coop",
    "text": "Rouleau carbone"
  },
  {
    "label": "Roller_Heavy_Coop",
    "text": "Dynamo-rouleau"
  },
  {
    "label": "Roller_Hunter_Coop",
    "text": "Flexi-rouleau"
  },
  {
    "label": "Roller_Normal_Coop",
    "text": "Rouleau"
  },
  {
    "label": "Shelter_Compact_Coop",
    "text": "Para-encre espion"
  },
  {
    "label": "Shelter_Normal_Coop",
    "text": "Para-encre"
  },
  {
    "label": "Shelter_Wide_Coop",
    "text": "Para-encre XL"
  },
  {
    "label": "Shooter_Blaze_Coop",
    "text": "Aérogun"
  },
  {
    "label": "Shooter_Expert_Coop",
    "text": "Liquidateur pro"
  },
  {
    "label": "Shooter_First_Coop",
    "text": "Liquidateur Jr."
  },
  {
    "label": "Shooter_Flash_Coop",
    "text": "Compresseur"
  },
  {
    "label": "Shooter_Gravity_Coop",
    "text": "Calibre 2000"
  },
  {
    "label": "Shooter_Heavy_Coop",
    "text": "Calibre 3000"
  },
  {
    "label": "Shooter_Long_Coop",
    "text": "Nettoyeur XL"
  },
  {
    "label": "Shooter_Normal_Coop",
    "text": "Liquidateur"
  },
  {
    "label": "Shooter_Precision_Coop",
    "text": "Marqueur léger"
  },
  {
    "label": "Shooter_QuickMiddle_Coop",
    "text": "N-ZAP 85"
  },
  {
    "label": "Shooter_Short_Coop",
    "text": "Marqueur lourd"
  },
  {
    "label": "Shooter_TripleMiddle_Coop",
    "text": "Arroseur lourd"
  },
  {
    "label": "Shooter_TripleQuick_Coop",
    "text": "Arroseur léger"
  },
  {
    "label": "Slosher_Bathtub_Coop",
    "text": "Bassineur"
  },
  {
    "label": "Slosher_Diffusion_Coop",
    "text": "Dépoteur"
  },
  {
    "label": "Slosher_Launcher_Coop",
    "text": "Encrifugeur"
  },
  {
    "label": "Slosher_Strong_Coop",
    "text": "Seauceur"
  },
  {
    "label": "Slosher_Washtub_Coop",
    "text": "Détoneur"
  },
  {
    "label": "Spinner_Downpour_Coop",
    "text": "Badigeonneur stylo"
  },
  {
    "label": "Spinner_Hyper_Coop",
    "text": "Exteinteur"
  },
  {
    "label": "Spinner_Quick_Coop",
    "text": "Badigeonneur XS"
  },
  {
    "label": "Spinner_Serein_Coop",
    "text": "Nautilus 47"
  },
  {
    "label": "Spinner_Standard_Coop",
    "text": "Badigeonneur"
  },
  {
    "label": "Stringer_Normal_Coop",
    "text": "Trisperceur"
  },
  {
    "label": "Stringer_Short_Coop",
    "text": "Coralux 450"
  },
  {
    "label": "Saber_Normal_Coop",
    "text": "Éclatana d'estampe"
  },
  {
    "label": "Saber_Lite_Coop",
    "text": "Éclatana Doto"
  },
  {
    "label": "Shooter_QuickLong_Coop",
    "text": "Lanceur spatial"
  },
  {
    "label": "Roller_Wide_Coop",
    "text": "Rouleau large"
  },
  {
    "label": "Charger_Pencil_Coop",
    "text": "Crayon X - 5H"
  },
  {
    "label": "Brush_Heavy_Coop",
    "text": "Épinceau écaïe"
  },
  {
    "label": "Blaster_Precision_Coop",
    "text": "S-Blaster '92"
  },
  {
    "label": "Slosher_Double_Coop",
    "text": "Seau S-Horreur"
  },
  {
    "label": "Spinner_HyperShort_Coop",
    "text": "Correcteur"
  },
  {
    "label": "Maneuver_Long_Coop",
    "text": "Double ignifugeur"
  },
  {
    "label": "Shelter_Focus_Coop",
    "text": "Para-encre Ré-gen 24 Mk I"
  },
  {
    "label": "Saber_Heavy_Coop",
    "text": "Sabrifrice menthe"
  },
  {
    "label": "Stringer_Explosion_Coop",
    "text": "Multisperceur V"
  },
  {
    "label": "Blaster_Bear_Coop",
    "text": "Blaster M. Ours SA"
  },
  {
    "label": "Charger_Bear_Coop",
    "text": "Fusil M. Ours SA"
  },
  {
    "label": "Saber_Bear_Coop",
    "text": "Éclatana M. Ours SA"
  },
  {
    "label": "Shelter_Bear_Coop",
    "text": "Para-encre M. Ours SA"
  },
  {
    "label": "Slosher_Bear_Coop",
    "text": "Seau M. Ours SA"
  },
  {
    "label": "Stringer_Bear_Coop",
    "text": "Transperceur M. Ours SA"
  },
  {
    "label": "Maneuver_Bear_Coop",
    "text": "Arme double M. Ours SA"
  },
  {
    "label": "Roller_Bear_Coop",
    "text": "Rouleau M. Ours SA"
  },
  {
    "label": "Free",
    "text": "-"
  },
  {
    "label": "Shooter_RivalLv1_00",
    "text": "-"
  },
  {
    "label": "Shooter_RivalLv2_00",
    "text": "-"
  },
  {
    "label": "Blaster_RivalLv1_00",
    "text": "-"
  },
  {
    "label": "Blaster_RivalLv2_00",
    "text": "-"
  },
  {
    "label": "Brush_RivalLv1_00",
    "text": "-"
  },
  {
    "label": "Brush_RivalLv2_00",
    "text": "-"
  },
  {
    "label": "Maneuver_RivalLv1_00",
    "text": "-"
  },
  {
    "label": "Maneuver_RivalLv2_00",
    "text": "-"
  },
  {
    "label": "Roller_RivalLv1_00",
    "text": "-"
  },
  {
    "label": "Roller_RivalLv2_00",
    "text": "-"
  },
  {
    "label": "Shelter_RivalLv1_00",
    "text": "-"
  },
  {
    "label": "Shelter_RivalLv2_00",
    "text": "-"
  },
  {
    "label": "Slosher_RivalLv1_00",
    "text": "-"
  },
  {
    "label": "Slosher_RivalLv2_00",
    "text": "-"
  },
  {
    "label": "Shooter_MissionLv1_00",
    "text": "ヒーローシューターLv1"
  },
  {
    "label": "Shooter_MissionLv2_00",
    "text": "ヒーローシューターLv2"
  },
  {
    "label": "Shooter_MissionLv3_00",
    "text": "ヒーローシューターLv3"
  },
  {
    "label": "Blaster_LightLong_Msn",
    "text": "Turboblaster pro"
  },
  {
    "label": "Blaster_LightShort_Msn",
    "text": "Rafablaster"
  },
  {
    "label": "Blaster_Light_Msn",
    "text": "Turboblaster"
  },
  {
    "label": "Blaster_Long_Msn",
    "text": "Éclablaster XL"
  },
  {
    "label": "Blaster_Middle_Msn",
    "text": "Éclablaster"
  },
  {
    "label": "Blaster_Short_Msn",
    "text": "Proxiblaster"
  },
  {
    "label": "Brush_Mini_Msn",
    "text": "Épinceau"
  },
  {
    "label": "Brush_Normal_Msn",
    "text": "Épinceau brosse"
  },
  {
    "label": "Charger_Keeper_Msn",
    "text": "Détubeur"
  },
  {
    "label": "Charger_Light_Msn",
    "text": "Bimbamboum Mk I"
  },
  {
    "label": "Charger_LongScope_Msn",
    "text": "Extraceur + zoom"
  },
  {
    "label": "Charger_Long_Msn",
    "text": "Extraceur +"
  },
  {
    "label": "Charger_NormalScope_Msn",
    "text": "Concentraceur zoom"
  },
  {
    "label": "Charger_Normal_Msn",
    "text": "Concentraceur"
  },
  {
    "label": "Charger_Quick_Msn",
    "text": "Décap'express Alpha"
  },
  {
    "label": "Maneuver_Dual_Msn",
    "text": "Double nettoyeur"
  },
  {
    "label": "Maneuver_Gallon_Msn",
    "text": "Double Kelvin 525"
  },
  {
    "label": "Maneuver_Normal_Msn",
    "text": "Double encreur"
  },
  {
    "label": "Maneuver_Short_Msn",
    "text": "Double moucheteur"
  },
  {
    "label": "Maneuver_Stepper_Msn",
    "text": "Double voltigeur noir"
  },
  {
    "label": "Roller_Compact_Msn",
    "text": "Rouleau carbone"
  },
  {
    "label": "Roller_Heavy_Msn",
    "text": "Dynamo-rouleau"
  },
  {
    "label": "Roller_Hunter_Msn",
    "text": "Flexi-rouleau"
  },
  {
    "label": "Roller_Normal_Msn",
    "text": "Rouleau"
  },
  {
    "label": "Saber_Normal_Msn",
    "text": "Éclatana d'estampe"
  },
  {
    "label": "Shelter_Compact_Msn",
    "text": "Para-encre espion"
  },
  {
    "label": "Shelter_Normal_Msn",
    "text": "Para-encre"
  },
  {
    "label": "Shelter_Wide_Msn",
    "text": "Para-encre XL"
  },
  {
    "label": "Shooter_Blaze_Msn",
    "text": "Aérogun"
  },
  {
    "label": "Shooter_Expert_Msn",
    "text": "Liquidateur pro"
  },
  {
    "label": "Shooter_First_Msn",
    "text": "Liquidateur Jr."
  },
  {
    "label": "Shooter_Flash_Msn",
    "text": "Compresseur"
  },
  {
    "label": "Shooter_Gravity_Msn",
    "text": "Calibre 2000"
  },
  {
    "label": "Shooter_Heavy_Msn",
    "text": "Calibre 3000"
  },
  {
    "label": "Shooter_Long_Msn",
    "text": "Nettoyeur XL"
  },
  {
    "label": "Shooter_Normal_Msn",
    "text": "Liquidateur"
  },
  {
    "label": "Shooter_Precision_Msn",
    "text": "Marqueur léger"
  },
  {
    "label": "Shooter_QuickMiddle_Msn",
    "text": "N-ZAP 85"
  },
  {
    "label": "Shooter_Short_Msn",
    "text": "Marqueur lourd"
  },
  {
    "label": "Shooter_TripleMiddle_Msn",
    "text": "Arroseur lourd"
  },
  {
    "label": "Shooter_TripleQuick_Msn",
    "text": "Arroseur léger"
  },
  {
    "label": "Slosher_Bathtub_Msn",
    "text": "Bassineur"
  },
  {
    "label": "Slosher_Diffusion_Msn",
    "text": "Dépoteur"
  },
  {
    "label": "Slosher_Launcher_Msn",
    "text": "Encrifugeur"
  },
  {
    "label": "Slosher_Strong_Msn",
    "text": "Seauceur"
  },
  {
    "label": "Slosher_Washtub_Msn",
    "text": "Détoneur"
  },
  {
    "label": "Spinner_Downpour_Msn",
    "text": "Badigeonneur stylo"
  },
  {
    "label": "Spinner_Hyper_Msn",
    "text": "Exteinteur"
  },
  {
    "label": "Spinner_Quick_Msn",
    "text": "Badigeonneur XS"
  },
  {
    "label": "Spinner_Serein_Msn",
    "text": "Nautilus 47"
  },
  {
    "label": "Spinner_Standard_Msn",
    "text": "Badigeonneur"
  },
  {
    "label": "Stringer_Normal_Msn",
    "text": "Trisperceur"
  },
  {
    "label": "Shooter_ExtraOne_Sdodr",
    "text": "シューター"
  },
  {
    "label": "Shooter_ExtraTwo_Sdodr",
    "text": "オクタシューター"
  },
  {
    "label": "Blaster_ExtraOne_Sdodr",
    "text": "ブラスター"
  },
  {
    "label": "Charger_ExtraOne_Sdodr",
    "text": "チャージャー"
  },
  {
    "label": "Brush_Sdodr",
    "text": "フデ"
  },
  {
    "label": "Maneuver_Sdodr",
    "text": "マニューバー"
  },
  {
    "label": "Roller_Sdodr",
    "text": "ローラー"
  },
  {
    "label": "Saber_Sdodr",
    "text": "ワイパー"
  },
  {
    "label": "Shelter_Sdodr",
    "text": "シェルター"
  },
  {
    "label": "Slosher_Sdodr",
    "text": "スロッシャー"
  },
  {
    "label": "Spinner_Sdodr",
    "text": "スピナー"
  },
  {
    "label": "Stringer_Sdodr",
    "text": "ストリンガー"
  }
]