[
  {
    "label": "Template1",
    "text": "{{fun_0005_0003}}{{fun_0005_0004}}"
  },
  {
    "label": "Template2",
    "text": "{{fun_0005_0003}}{{fun_0005_0004}}{{fun_0005_0005}}met{{fun_0005_0005}}{{fun_0005_0000}}"
  },
  {
    "label": "Template3",
    "text": "{{fun_0005_0003}}{{fun_0005_0004}}{{fun_0005_0005}}met{{fun_0005_0005}}{{fun_0005_0000}}{{fun_0005_0005}}en{{fun_0005_0005}}{{fun_0005_0001}}"
  },
  {
    "label": "Template4",
    "text": "{{fun_0005_0003}}{{fun_0005_0004}}{{fun_0005_0005}}met{{fun_0005_0005}}{{fun_0005_0000}},{{fun_0005_0005}}{{fun_0005_0001}}{{fun_0005_0005}}en{{fun_0005_0005}}{{fun_0005_0002}}"
  },
  {
    "label": "Group_00",
    "text": "Groep"
  },
  {
    "label": "Group_01",
    "text": "Crew"
  },
  {
    "label": "Group_02",
    "text": "Ploeg"
  },
  {
    "label": "Group_03",
    "text": "Club"
  },
  {
    "label": "Group_04",
    "text": "Kliek"
  },
  {
    "label": "Group_05",
    "text": "Bende"
  },
  {
    "label": "Group_06",
    "text": "Brigade"
  },
  {
    "label": "Group_07",
    "text": "Clan"
  },
  {
    "label": "PropertySquid",
    "text": "Inkling-"
  },
  {
    "label": "PropertyOctopus",
    "text": "Octoling-"
  },
  {
    "label": "PropertyHair00",
    "text": "Lang haar-"
  },
  {
    "label": "PropertyHair01",
    "text": "Kort haar-"
  },
  {
    "label": "PropertyHair02",
    "text": "Knot-"
  },
  {
    "label": "PropertyHair03",
    "text": "Zijstaart-"
  },
  {
    "label": "PropertyHair04",
    "text": "Vlechtjes-"
  },
  {
    "label": "PropertyHair05",
    "text": "Pony-"
  },
  {
    "label": "PropertyHair06",
    "text": "Samoeraiknotje-"
  },
  {
    "label": "PropertyHair07",
    "text": "Achterovergekamd haar-"
  },
  {
    "label": "PropertyHair08",
    "text": "Crewcut-"
  },
  {
    "label": "PropertyHair09",
    "text": "Asymmetrisch kapsel-"
  },
  {
    "label": "PropertyHair10",
    "text": "Stekelhaar-"
  },
  {
    "label": "PropertyHair11",
    "text": "Bloempotkapsel-"
  },
  {
    "label": "PropertyHair12",
    "text": "Zijvlecht-"
  },
  {
    "label": "PropertyHair13",
    "text": "Net-uit-bed-haar-"
  },
  {
    "label": "PropertyHair14",
    "text": "Wetlook-"
  },
  {
    "label": "PropertyHair15",
    "text": "Cornrows-"
  },
  {
    "label": "PropertyHair30",
    "text": "Krullend haar-"
  },
  {
    "label": "PropertyHair31",
    "text": "Staartjes-"
  },
  {
    "label": "PropertyHair32",
    "text": "Hanenkam-"
  },
  {
    "label": "PropertyHair33",
    "text": "Afro-"
  },
  {
    "label": "PropertyHair34",
    "text": "Kronkelkrullen-"
  },
  {
    "label": "PropertyHair35",
    "text": "Opgeschoren haar-"
  },
  {
    "label": "PropertyHair36",
    "text": "Halflang haar-"
  },
  {
    "label": "PropertyHair37",
    "text": "Pompadour-"
  },
  {
    "label": "WmnShooter",
    "text": "spetters"
  },
  {
    "label": "WmnRoller",
    "text": "rollers"
  },
  {
    "label": "WmnManeuver",
    "text": "dubbelknallers"
  },
  {
    "label": "WmnBlaster",
    "text": "blasters"
  },
  {
    "label": "WmnCharger",
    "text": "laders"
  },
  {
    "label": "WmnSlosher",
    "text": "morsers"
  },
  {
    "label": "WmnShelter",
    "text": "plenzers"
  },
  {
    "label": "WmnBrush",
    "text": "kwasten"
  },
  {
    "label": "WmnSpinner",
    "text": "spetlingen"
  },
  {
    "label": "WmnStringer",
    "text": "spanners"
  },
  {
    "label": "WmnSaber",
    "text": "zwiepers"
  },
  {
    "label": "WmnVariety",
    "text": "divers geschut"
  },
  {
    "label": "GearGenre_Head_Cap",
    "text": "petten"
  },
  {
    "label": "GearGenre_Head_KnitCap",
    "text": "mutsen"
  },
  {
    "label": "GearGenre_Head_Hat",
    "text": "hoeden"
  },
  {
    "label": "GearGenre_Head_Beret",
    "text": "baretten"
  },
  {
    "label": "GearGenre_Head_Band",
    "text": "hoofdbanden"
  },
  {
    "label": "GearGenre_Head_Bandana",
    "text": "bandana's"
  },
  {
    "label": "GearGenre_Head_Glasses",
    "text": "brillen"
  },
  {
    "label": "GearGenre_Head_Visor",
    "text": "zonnekleppen"
  },
  {
    "label": "GearGenre_Head_Mask",
    "text": "maskers"
  },
  {
    "label": "GearGenre_Head_Goggle",
    "text": "veiligheidsbrillen"
  },
  {
    "label": "GearGenre_Head_Headphone",
    "text": "koptelefoons"
  },
  {
    "label": "GearGenre_Head_Helmet",
    "text": "helmen"
  },
  {
    "label": "GearGenre_Head_Accessory",
    "text": "accessoires"
  },
  {
    "label": "GearGenre_Head_Party",
    "text": "feestmode"
  },
  {
    "label": "GearGenre_Head_Spring",
    "text": "lentezonnekleppen"
  },
  {
    "label": "GearGenre_Head_Sand",
    "text": "Grand Festival-look"
  },
  {
    "label": "GearGenre_Shoes_Hicut",
    "text": "Hi-Tops"
  },
  {
    "label": "GearGenre_Shoes_Lowcut",
    "text": "sneakers"
  },
  {
    "label": "GearGenre_Shoes_Leather",
    "text": "nette schoenen"
  },
  {
    "label": "GearGenre_Shoes_Comfort",
    "text": "vrijetijdsschoenen"
  },
  {
    "label": "GearGenre_Shoes_RubberSole",
    "text": "rubberzolen"
  },
  {
    "label": "GearGenre_Shoes_Moccasin",
    "text": "mocassins"
  },
  {
    "label": "GearGenre_Shoes_Boots",
    "text": "laarzen"
  },
  {
    "label": "GearGenre_Shoes_Sandal",
    "text": "sandalen"
  },
  {
    "label": "GearGenre_Shoes_Slippon",
    "text": "instappers"
  },
  {
    "label": "GearGenre_Shoes_Spike",
    "text": "noppenschoenen"
  },
  {
    "label": "GearGenre_Shoes_RainBoots",
    "text": "rubberlaarzen"
  },
  {
    "label": "GearGenre_Shoes_BigFoot",
    "text": "schuiten"
  },
  {
    "label": "GearGenre_Shoes_Barefoot",
    "text": "open schoeisel"
  },
  {
    "label": "GearGenre_Shoes_Bouldering",
    "text": "klimschoenen"
  },
  {
    "label": "GearGenre_Shoes_Spring",
    "text": "lenteschoenen"
  }
]