[
  {
    "label": "FST000",
    "text": "crèmekleurige sneakers"
  },
  {
    "label": "SLO000",
    "text": "blauwe Lo-Tops"
  },
  {
    "label": "SLO001",
    "text": "bananensneakers"
  },
  {
    "label": "SLO002",
    "text": "{{fun_0005_0006}}"
  },
  {
    "label": "SLO003",
    "text": "witte sneakers"
  },
  {
    "label": "SLO004",
    "text": "oranje Lo-Tops"
  },
  {
    "label": "SLO005",
    "text": "zwarte sneakers"
  },
  {
    "label": "SLO006",
    "text": "anemoonvissneakers"
  },
  {
    "label": "SLO007",
    "text": "gele sneakers"
  },
  {
    "label": "SLO008",
    "text": "witte klittenbandschoenen"
  },
  {
    "label": "SLO009",
    "text": "rode klittenbandschoenen"
  },
  {
    "label": "SLO010",
    "text": "voetbalschoenen"
  },
  {
    "label": "SLO011",
    "text": "speciale editie voetbalschoenen"
  },
  {
    "label": "SLO012",
    "text": "gele klimschoenen"
  },
  {
    "label": "SLO013",
    "text": "groene klimschoenen"
  },
  {
    "label": "SLO014",
    "text": "groene Lace-Ups"
  },
  {
    "label": "SLO015",
    "text": "witte veterloze Dakroniks"
  },
  {
    "label": "SLO016",
    "text": "blauwe veterloze Dakroniks"
  },
  {
    "label": "SLO017",
    "text": "grijze suède schoenen"
  },
  {
    "label": "SLO018",
    "text": "kleurige suède schoenen"
  },
  {
    "label": "SLO019",
    "text": "turquoise suède schoenen"
  },
  {
    "label": "SLO020",
    "text": "{{fun_0005_0006}}"
  },
  {
    "label": "SLO021",
    "text": "wasabi-tabisneakers"
  },
  {
    "label": "SLO022",
    "text": "witte suède sneakers"
  },
  {
    "label": "SLO023",
    "text": "zwarte mosselsneakers"
  },
  {
    "label": "SLO024",
    "text": "zwarte suède sneakers"
  },
  {
    "label": "SLO025",
    "text": "witte mosselsneakers"
  },
  {
    "label": "SLO026",
    "text": "gele wielrenschoenen"
  },
  {
    "label": "SLO027",
    "text": "blauwe wielrenschoenen"
  },
  {
    "label": "SHI000",
    "text": "rode hoge sneakers"
  },
  {
    "label": "SHI001",
    "text": "hoge zombiesneakers"
  },
  {
    "label": "SHI002",
    "text": "crèmekleurige Hi-Tops"
  },
  {
    "label": "SHI003",
    "text": "paarse Hi-Tops"
  },
  {
    "label": "SHI004",
    "text": "groene Hi-Tops"
  },
  {
    "label": "SHI005",
    "text": "rode Hi-Tops"
  },
  {
    "label": "SHI006",
    "text": "gouden Hi-Tops"
  },
  {
    "label": "SHI008",
    "text": "krokodillenmocassins"
  },
  {
    "label": "SHI009",
    "text": "haaienmocassins"
  },
  {
    "label": "SHI010",
    "text": "chocobruine Dakroniks"
  },
  {
    "label": "SHI011",
    "text": "hemelsblauwe Dakroniks"
  },
  {
    "label": "SHI012",
    "text": "zwarte Dakroniks"
  },
  {
    "label": "SHI013",
    "text": "piranhamocassins"
  },
  {
    "label": "SHI014",
    "text": "witte Norimaki 750s"
  },
  {
    "label": "SHI015",
    "text": "zwarte Norimaki 750s"
  },
  {
    "label": "SHI016",
    "text": "gele orka-sneakers"
  },
  {
    "label": "SHI017",
    "text": "rode Squidkid IV"
  },
  {
    "label": "SHI018",
    "text": "blauwe Squidkid IV"
  },
  {
    "label": "SHI019",
    "text": "grijze hoge sneakers"
  },
  {
    "label": "SHI020",
    "text": "orka-sneakers"
  },
  {
    "label": "SHI022",
    "text": "blauwe Enperrial-laarzen"
  },
  {
    "label": "SHI023",
    "text": "bruine hoge sneakers"
  },
  {
    "label": "SHI024",
    "text": "gele Iromaki 750"
  },
  {
    "label": "SHI025",
    "text": "rood-witte Squidkid V"
  },
  {
    "label": "SHI026",
    "text": "geel-oranje Squidkid V"
  },
  {
    "label": "SHI027",
    "text": "geel-blauwe Squidkid IV"
  },
  {
    "label": "SHI028",
    "text": "geweven orka-sneakers"
  },
  {
    "label": "SHI029",
    "text": "groene Iromaki 750"
  },
  {
    "label": "SHI030",
    "text": "paarse Iromaki 750"
  },
  {
    "label": "SHI031",
    "text": "rode Iromaki 750"
  },
  {
    "label": "SHI032",
    "text": "blauwe Iromaki 750"
  },
  {
    "label": "SHI033",
    "text": "oranje Iromaki 750"
  },
  {
    "label": "SHI034",
    "text": "rode scifi-sneakers"
  },
  {
    "label": "SHI035",
    "text": "blauwe scifi-sneakers"
  },
  {
    "label": "SHI036",
    "text": "{{fun_0005_0006}}"
  },
  {
    "label": "SHI037",
    "text": "{{fun_0005_0006}}"
  },
  {
    "label": "SHI038",
    "text": "zwart-blauwe Squidkid V"
  },
  {
    "label": "SHI039",
    "text": "magenta orka-sneakers"
  },
  {
    "label": "SHI040",
    "text": "zwarte Hi-Tops"
  },
  {
    "label": "SHI042",
    "text": "{{fun_0005_0006}}"
  },
  {
    "label": "SHI043",
    "text": "rode basketbalschoenen"
  },
  {
    "label": "SHI044",
    "text": "paarse basketbalschoenen"
  },
  {
    "label": "SHI045",
    "text": "parelwitte 03ST3Rs"
  },
  {
    "label": "SHI046",
    "text": "zebravis-Hi-Tops"
  },
  {
    "label": "SHI047",
    "text": "zandstorm-Hi-Tops"
  },
  {
    "label": "SHI048",
    "text": "waterhoos-Hi-Tops"
  },
  {
    "label": "SHI049",
    "text": "witte Mega-Tops"
  },
  {
    "label": "SHI050",
    "text": "blauw-zwarte Squidkid III"
  },
  {
    "label": "SHI051",
    "text": "rood-witte Squidkid III"
  },
  {
    "label": "SHI052",
    "text": "onyxzwarte 03ST3Rs"
  },
  {
    "label": "SHI053",
    "text": "Squidkid III KE"
  },
  {
    "label": "SHT000",
    "text": "roze sportschoenen"
  },
  {
    "label": "SHT001",
    "text": "oranje pijlsneakers"
  },
  {
    "label": "SHT002",
    "text": "neongroene sportschoenen"
  },
  {
    "label": "SHT003",
    "text": "witte pijlsneakers"
  },
  {
    "label": "SHT004",
    "text": "turquoise sportschoenen"
  },
  {
    "label": "SHT005",
    "text": "blauwe sportschoenen"
  },
  {
    "label": "SHT006",
    "text": "rode sportschoenen"
  },
  {
    "label": "SHT007",
    "text": "paarse sportschoenen"
  },
  {
    "label": "SHT008",
    "text": "felgekleurde pijlsneakers"
  },
  {
    "label": "SHT009",
    "text": "zwarte sportschoenen"
  },
  {
    "label": "SHT010",
    "text": "violette sportschoenen"
  },
  {
    "label": "SHT011",
    "text": "kanariegele sportschoenen"
  },
  {
    "label": "SHT012",
    "text": "gele gaassneakers"
  },
  {
    "label": "SHT013",
    "text": "pijlenlaarsjes"
  },
  {
    "label": "SHT014",
    "text": "oranje gaassneakers"
  },
  {
    "label": "SHT015",
    "text": "{{fun_0005_0006}}"
  },
  {
    "label": "SHT016",
    "text": "{{fun_0005_0006}}"
  },
  {
    "label": "SHT017",
    "text": "{{fun_0005_0006}}"
  },
  {
    "label": "SHT018",
    "text": "{{fun_0005_0006}}"
  },
  {
    "label": "SHT019",
    "text": "sportieve pijlsneakers"
  },
  {
    "label": "SHT020",
    "text": "transparante sandalen"
  },
  {
    "label": "SHT021",
    "text": "funky vlechtwerksneakers"
  },
  {
    "label": "SHT022",
    "text": "rode turbo-tabisneakers"
  },
  {
    "label": "SHT023",
    "text": "{{fun_0005_0006}}"
  },
  {
    "label": "SHT024",
    "text": "oranje gespsneakers"
  },
  {
    "label": "SHT025",
    "text": "haaienvinsneakers"
  },
  {
    "label": "SHT026",
    "text": "blauwe scampisneakers"
  },
  {
    "label": "SHT027",
    "text": "{{fun_0005_0006}}"
  },
  {
    "label": "SHT028",
    "text": "waadlaarzen OB"
  },
  {
    "label": "SHT029",
    "text": "waadlaarzen AG"
  },
  {
    "label": "SHT030",
    "text": "zwarte vlechtwerksneakers"
  },
  {
    "label": "SHT031",
    "text": "TownClowns"
  },
  {
    "label": "SDL000",
    "text": "grijze klompen"
  },
  {
    "label": "SDL001",
    "text": "bruine klompen"
  },
  {
    "label": "SDL003",
    "text": "neon sandalen"
  },
  {
    "label": "SDL004",
    "text": "zwarte teenslippers"
  },
  {
    "label": "SDL005",
    "text": "sneeuwwitte sandalen"
  },
  {
    "label": "SDL006",
    "text": "roetzwarte sandalen"
  },
  {
    "label": "SDL007",
    "text": "rode badslippers"
  },
  {
    "label": "SDL008",
    "text": "gele badslippers"
  },
  {
    "label": "SDL009",
    "text": "{{fun_0005_0006}}"
  },
  {
    "label": "SDL010",
    "text": "sepiasandalen"
  },
  {
    "label": "SDL011",
    "text": "blauwe pijlsandalen"
  },
  {
    "label": "SDL012",
    "text": "{{fun_0005_0006}}"
  },
  {
    "label": "SDL013",
    "text": "oranje plastic sandalen"
  },
  {
    "label": "SDL014",
    "text": "paarse pijlsandalen"
  },
  {
    "label": "SDL015",
    "text": "{{fun_0005_0006}}"
  },
  {
    "label": "SDL016",
    "text": "inktvisschelpsandalen"
  },
  {
    "label": "SDL017",
    "text": "roze plastic sandalen"
  },
  {
    "label": "SDL018",
    "text": "turquoise plastic sandalen"
  },
  {
    "label": "SDL019",
    "text": "blauwe kunststof klompen"
  },
  {
    "label": "SDL020",
    "text": "rode kunststof klompen"
  },
  {
    "label": "SDL021",
    "text": "gele kunststof klompen"
  },
  {
    "label": "SDL022",
    "text": "groene kunststof klompen"
  },
  {
    "label": "SDL023",
    "text": "sloffen met kruisen"
  },
  {
    "label": "SDL024",
    "text": "sloffen met graten"
  },
  {
    "label": "CFS000",
    "text": "blauwe veterschoenen"
  },
  {
    "label": "CFS001",
    "text": "paarse veterschoenen"
  },
  {
    "label": "TRS000",
    "text": "wandelschoenen"
  },
  {
    "label": "TRS001",
    "text": "speciale wandelschoenen"
  },
  {
    "label": "TRS002",
    "text": "professionele wandelschoenen"
  },
  {
    "label": "BOT000",
    "text": "motorlaarzen"
  },
  {
    "label": "BOT001",
    "text": "bruine werkschoenen"
  },
  {
    "label": "BOT002",
    "text": "rode werkschoenen"
  },
  {
    "label": "BOT003",
    "text": "blauwe motorlaarzen"
  },
  {
    "label": "BOT004",
    "text": "groene regenlaarzen"
  },
  {
    "label": "BOT005",
    "text": "rode regenlaarzen"
  },
  {
    "label": "BOT006",
    "text": "witte punkschoenen"
  },
  {
    "label": "BOT007",
    "text": "rode punkschoenen"
  },
  {
    "label": "BOT008",
    "text": "gele punkschoenen"
  },
  {
    "label": "BOT009",
    "text": "gestipte regenlaarzen"
  },
  {
    "label": "BOT010",
    "text": "sneeuwlaarzen"
  },
  {
    "label": "BOT011",
    "text": "camouflagelaarzen"
  },
  {
    "label": "BOT012",
    "text": "jachtlaarzen"
  },
  {
    "label": "BOT013",
    "text": "zwarte punkschoenen"
  },
  {
    "label": "BOT014",
    "text": "diepzeeblauwe laarzen"
  },
  {
    "label": "BOT016",
    "text": "{{fun_0005_0006}}"
  },
  {
    "label": "BOT017",
    "text": "bladgroene laarzen"
  },
  {
    "label": "BOT018",
    "text": "theegroene jachtlaarzen"
  },
  {
    "label": "BOT019",
    "text": "motorlaarzen M-DCB"
  },
  {
    "label": "BOT020",
    "text": "{{fun_0005_0006}}"
  },
  {
    "label": "BOT021",
    "text": "witte halfrubberen laarzen"
  },
  {
    "label": "BOT022",
    "text": "groene halfrubberen laarzen"
  },
  {
    "label": "BOT023",
    "text": "rode hamerhaailaarzen"
  },
  {
    "label": "BOT024",
    "text": "gevlekte hamerhaailaarzen"
  },
  {
    "label": "BOT025",
    "text": "roze punkschoenen"
  },
  {
    "label": "BOT026",
    "text": "knuffellaarzen"
  },
  {
    "label": "BOT027",
    "text": "knuffellaarzen met bling"
  },
  {
    "label": "BOT028",
    "text": "motorlaarzen M-DCR"
  },
  {
    "label": "BOT029",
    "text": "halfrubberen stekellaarzen"
  },
  {
    "label": "BOT030",
    "text": "enkellaarzen met gesp"
  },
  {
    "label": "SLP000",
    "text": "blauwe instappers"
  },
  {
    "label": "SLP001",
    "text": "rode instappers"
  },
  {
    "label": "SLP002",
    "text": "instappers met patroon"
  },
  {
    "label": "SLP003",
    "text": "instappers met stippen"
  },
  {
    "label": "SLP004",
    "text": "{{fun_0005_0006}}"
  },
  {
    "label": "LTS000",
    "text": "witte plateauschoenen"
  },
  {
    "label": "LTS001",
    "text": "rode plateauschoenen"
  },
  {
    "label": "LTS002",
    "text": "turquoise plateauschoenen"
  },
  {
    "label": "LTS003",
    "text": "lakschoenen"
  },
  {
    "label": "LTS004",
    "text": "klassieke schoenen"
  },
  {
    "label": "LTS005",
    "text": "gespenschoenen"
  },
  {
    "label": "LTS006",
    "text": "elegante veterschoenen"
  },
  {
    "label": "LTS007",
    "text": "brogues met rode zool"
  },
  {
    "label": "LTS008",
    "text": "brogues met gele zool"
  },
  {
    "label": "LTS009",
    "text": "zwarte gespenschoenen"
  },
  {
    "label": "LTS010",
    "text": "{{fun_0005_0006}}"
  },
  {
    "label": "LTS011",
    "text": "{{fun_0005_0006}}"
  },
  {
    "label": "LTS013",
    "text": "kaki hoge schoenen"
  },
  {
    "label": "LTS014",
    "text": "donkerbruine bootschoenen"
  },
  {
    "label": "LTS015",
    "text": "driekleurige bootschoenen"
  },
  {
    "label": "LTS016",
    "text": "galoploafers"
  },
  {
    "label": "AMB000",
    "text": "schoolschoenen"
  },
  {
    "label": "AMB001",
    "text": "samoeraischoenen"
  },
  {
    "label": "AMB002",
    "text": "hightechschoenen"
  },
  {
    "label": "AMB003",
    "text": "loafers met franje"
  },
  {
    "label": "AMB004",
    "text": "ninjalaarzen"
  },
  {
    "label": "AMB005",
    "text": "hightechschoenen (prototype)"
  },
  {
    "label": "AMB006",
    "text": "{{fun_0005_0006}}"
  },
  {
    "label": "AMB007",
    "text": "{{fun_0005_0006}}"
  },
  {
    "label": "AMB008",
    "text": "toverlaarzen"
  },
  {
    "label": "AMB009",
    "text": "{{fun_0005_0006}}"
  },
  {
    "label": "AMB010",
    "text": "mascotteschoenen"
  },
  {
    "label": "AMB011",
    "text": "touwsandalen"
  },
  {
    "label": "AMB012",
    "text": "enkelbeschermers"
  },
  {
    "label": "AMB013",
    "text": "chaoslaarzen"
  },
  {
    "label": "AMB014",
    "text": "basisschoolschoenen"
  },
  {
    "label": "AMB015",
    "text": "basisloafers met franje"
  },
  {
    "label": "AMB018",
    "text": "{{fun_0005_0006}}"
  },
  {
    "label": "AMB019",
    "text": "{{fun_0005_0006}}"
  },
  {
    "label": "AMB020",
    "text": "{{fun_0005_0006}}"
  },
  {
    "label": "AMB021",
    "text": "wereldtourneelaarzen"
  },
  {
    "label": "AMB022",
    "text": "wereldtourneehakken"
  },
  {
    "label": "MSN000",
    "text": "heldenschoenen"
  },
  {
    "label": "MSN004",
    "text": "pantserschoenen"
  },
  {
    "label": "MSN306",
    "text": "heldensneakers"
  },
  {
    "label": "MSN307",
    "text": "overlevingsbandages"
  },
  {
    "label": "MSN311",
    "text": "kapiteinsslippers"
  },
  {
    "label": "COP101",
    "text": "rubberlaarzen"
  },
  {
    "label": "COP102",
    "text": "antislipschoenen"
  },
  {
    "label": "COP103",
    "text": "{{fun_0005_0006}}"
  },
  {
    "label": "COP104",
    "text": "vriendschapsbandje"
  },
  {
    "label": "COP105",
    "text": "zwemvliezen"
  },
  {
    "label": "COP106",
    "text": "houten sandalen"
  },
  {
    "label": "COP107",
    "text": "makreelrolschaatsen"
  },
  {
    "label": "COP108",
    "text": "glamrocklaarzen"
  },
  {
    "label": "COP109",
    "text": "bokslaarzen"
  },
  {
    "label": "HAP000",
    "text": "{{fun_0005_0006}}"
  },
  {
    "label": "HAP001",
    "text": "{{fun_0005_0006}}"
  },
  {
    "label": "HAP002",
    "text": "kroontjespunkschoenen"
  },
  {
    "label": "HAP003",
    "text": "dageraads-pijlsneakers"
  },
  {
    "label": "HAP004",
    "text": "{{fun_0005_0006}}"
  },
  {
    "label": "HAP005",
    "text": "{{fun_0005_0006}}"
  },
  {
    "label": "HAP006",
    "text": "rekruut-scifi-sneakers"
  },
  {
    "label": "HAP007",
    "text": "middernachts-instappers"
  },
  {
    "label": "HAP008",
    "text": "Squidkid III 'Haya'"
  },
  {
    "label": "HAP009",
    "text": "Squidkid III 'Muriël'"
  },
  {
    "label": "HAP010",
    "text": "Squidkid III 'Ray'"
  },
  {
    "label": "HAP011",
    "text": "DC-klompen met ketting"
  },
  {
    "label": "HAP012",
    "text": "DC-klompen met glimmers"
  },
  {
    "label": "HAP013",
    "text": "DC-klompen met zwierpatroon"
  },
  {
    "label": "HAP014",
    "text": "triarchielaarzen"
  },
  {
    "label": "HAP015",
    "text": "triarchiesneakers"
  },
  {
    "label": "HAP016",
    "text": "triarchiesandalen"
  },
  {
    "label": "TRG000",
    "text": "gambagympen"
  },
  {
    "label": "TRG001",
    "text": "potige stappers"
  },
  {
    "label": "SDODR200",
    "text": "Ordelaarzen"
  }
]