[
  {
    "label": "18cf0761-7d99-405f-8a81-2114d376114e",
    "text": "用{{color id=\"1\"}}终极发射{{color id=\"65535\"}}的话，就算是远处的章鱼，也能一下解决吧？"
  },
  {
    "label": "7cd85c8c-af89-4be5-9215-696815776681",
    "text": "数量好多，但暗处可能还藏着更多……"
  },
  {
    "label": "ad1913ed-6bb8-4397-a88b-e74f241156db",
    "text": "是{{color id=\"1\"}}强化章鱼兵{{color id=\"65535\"}}！它比章鱼兵更棘手哦！"
  },
  {
    "label": "ba0df8f9-ca58-4a30-806d-0498a5ff0fbc",
    "text": "就差一点了哦！"
  },
  {
    "label": "d16441dd-8c43-4c85-99f8-5bb4cf10231c",
    "text": "小鲑鱼好像能帮上忙呢。"
  }
]