[
  {
    "label": "3698c188-c5af-41c0-8a71-787c8a3abb96",
    "text": "侦测器出现反应，\n启动传送带。"
  },
  {
    "label": "51fb62b5-41f1-4a10-8eb1-1a17d28793e9",
    "text": "请注意不要被卷入{{color id=\"1\"}}涂涂棒{{color id=\"65535\"}}。"
  },
  {
    "label": "5f521f98-89a9-4778-8553-09135a673955",
    "text": "勤按{{icon id=\"11\" arg=\"0x0000803F00000000\"}}潜伏起来回复墨汁吧！"
  },
  {
    "label": "6a4a4708-d296-4cb4-9f8c-407b57251a61",
    "text": "3号，危险！"
  },
  {
    "label": "736bba10-eed4-4a2c-a980-93dc638e67f6",
    "text": "哇！地板动起来了？！"
  },
  {
    "label": "bdc638b4-ed39-4535-98db-777d7f03f34b",
    "text": "你行的，3号！"
  },
  {
    "label": "e496baae-6f82-46fd-8a9a-748e5ecd82dd",
    "text": "还差1个了！加油——！！"
  }
]