[
  {
    "label": "6412c563-f35a-4963-8ed5-89fc6fdf06aa",
    "text": "这也能找到啊——\n真不愧是3号！"
  },
  {
    "label": "2d911bf9-8c00-40d5-ad82-344e4deae6da",
    "text": "总算到屋顶了——！"
  },
  {
    "label": "536fc6d2-e114-4d78-a745-bdc0dfb05cd8",
    "text": "终点在更高的地方呢。"
  },
  {
    "label": "88f949d5-7a2d-48da-bddd-fe20a19c4c9d",
    "text": "什么什么？！\n敌人是从哪里瞄准的——？"
  },
  {
    "label": "ced5a6e4-0259-4378-a2a1-5a9875e1bcaf",
    "text": "总之先从能爬上去的地方找起吧。"
  }
]