[
  {
    "label": "00b65a31-07ab-439e-a99b-72e292f3e94e",
    "text": "呃，{{color id=\"1\"}}章鱼狙击兵{{color id=\"65535\"}}又出现了！"
  },
  {
    "label": "024e3176-1e96-408e-a6c0-f7a3874afc02",
    "text": "太好啦♪"
  },
  {
    "label": "21b438ba-407d-4cee-841c-26139861b132",
    "text": "高处有{{color id=\"1\"}}章鱼狙击兵{{color id=\"65535\"}}呢。"
  },
  {
    "label": "2ccf5c12-fdcf-47d6-bb11-89c436ad8ea8",
    "text": "发现敌方的新部队！\n提高警惕！"
  },
  {
    "label": "2f13d932-dd75-45dc-928d-659f0cbfab65",
    "text": "不要停，继续前进吧。"
  },
  {
    "label": "582915df-dcc7-46db-91d6-f80473ba3541",
    "text": "在维持蓄力状态的同时靠近轨道，然后发射！\n嗯，就这么办吧。"
  },
  {
    "label": "5e7d7c68-3e3a-49ed-892e-fdb8f10de353",
    "text": "蓄力狙击枪的精髓是蓄力维持！\n先按住{{icon id=\"12\" arg=\"0x0000803F00000000\"}}蓄力！"
  },
  {
    "label": "634f7768-7c7f-440b-9c50-6c8a821a590a",
    "text": "在{{color id=\"1\"}}墨汁轨道{{color id=\"65535\"}}里也可以维持蓄力哦！"
  },
  {
    "label": "6905c09b-afb5-42ca-a566-054d12e518dc",
    "text": "门开了哦！"
  },
  {
    "label": "914cae90-d00a-4dcb-95c6-8361cee82c60",
    "text": "蓄力后冲刺，然后现身发射！\n这就是蓄力维持的流程哦。"
  },
  {
    "label": "9164d406-c830-417d-98a5-d78ebe698781",
    "text": "用蓄力维持的话能射到吗？"
  },
  {
    "label": "a6701eff-b358-400a-ae4a-ae83335e6522",
    "text": "啊，发现{{color id=\"1\"}}章鱼狙击兵{{color id=\"65535\"}}了！"
  },
  {
    "label": "a9a29d7e-81b5-47c6-881a-727c6dd37a1e",
    "text": "从正面一下子攻进去有点困难啊，\n从外侧一点点攻过去比较好吧～"
  },
  {
    "label": "b626ca7c-169c-473d-a71a-d9f43566efb1",
    "text": "不愧是3号！"
  },
  {
    "label": "c0d338e3-3faf-429a-bddc-91a54600754e",
    "text": "哇啊！有这么多啊？！"
  },
  {
    "label": "c2fb3b35-7398-47af-8873-12b864fe54b0",
    "text": "干得漂亮！"
  },
  {
    "label": "c7e5199e-0e1d-4fa9-ba17-b4d9191d266f",
    "text": "对方盯着我们不放啊——！！"
  },
  {
    "label": "d2799044-1b6c-4577-9b5c-946c62fb96f8",
    "text": "即使按住{{icon id=\"11\" arg=\"0x0000803F00000000\"}}变成鱿鱼在墨汁中游泳，\n也能在一段时间内维持蓄力状态！"
  },
  {
    "label": "d2ae7e0d-d14e-4a79-85cb-08f38cf38dbc",
    "text": "干得漂亮～！"
  },
  {
    "label": "d3aec9ff-f917-463d-975a-5ee993d13ebc",
    "text": "真行啊～"
  },
  {
    "label": "ded1f65b-1b3a-4a35-b386-47c78c5733b4",
    "text": "在安全的地方蓄力吧。"
  },
  {
    "label": "e15f50f8-04d7-42bd-99ff-2a5fdac382d9",
    "text": "发现{{color id=\"1\"}}跳跃点{{color id=\"65535\"}}！"
  },
  {
    "label": "f6e8a499-9fd8-4b61-b1a8-dd705364a4a8",
    "text": "头上的{{color id=\"1\"}}章鱼镜球兵{{color id=\"65535\"}}也好碍事～\n要想办法对付那家伙的防护罩才行……"
  },
  {
    "label": "ff9d5535-fdf8-4c97-8303-c03d68e30164",
    "text": "射得漂亮～"
  }
]