[
  {
    "label": "2cd6ae3d-ac63-48b4-9a9a-f2fd0869d6c9",
    "text": "先去找{{color id=\"1\"}}钥匙{{color id=\"65535\"}}吧——！"
  },
  {
    "label": "38c3b8b9-f95e-4111-972b-af9cd42910bd",
    "text": "又1把钥匙到手啦！"
  },
  {
    "label": "3b4637ac-0481-4d48-af6d-d46fe3152015",
    "text": "真厉害～"
  },
  {
    "label": "3ce4ff63-7a4d-49fd-bbbd-b3a8fdfed2e1",
    "text": "按{{icon id=\"10\" arg=\"0x0000803F00000000\"}}将墨汁陷阱设置在{{color id=\"1\"}}章鱼溜兵{{color id=\"65535\"}}的必经之路上吧！"
  },
  {
    "label": "4d2adda6-4c12-4116-9c9f-d75ad744b2dd",
    "text": "从这里观察整体情况吧！"
  },
  {
    "label": "4d7a1dd4-f127-4f67-92ae-48bc6ca959d4",
    "text": "登上去就能抵达终点啦——！"
  },
  {
    "label": "548348fc-a353-47c3-be7a-95a199a54fb1",
    "text": "这里应该需要{{icon id=\"26\" arg=\"0x0000803F00000000\"}}{{color id=\"1\"}}钥匙{{color id=\"65535\"}}吧？"
  },
  {
    "label": "5b9b8457-569c-42e9-802b-d0030059cfe0",
    "text": "小心不要掉下去哦。"
  },
  {
    "label": "5dd76b14-9599-4f2c-9053-69f246c02914",
    "text": "不愧是3号！"
  },
  {
    "label": "6a90b05a-0f1d-48b2-bcc4-9a7d4344ee6f",
    "text": "这样就击倒所有敌人了吧？"
  },
  {
    "label": "75dd762e-4e50-4721-87f7-5ed77559e830",
    "text": "{{color id=\"1\"}}钥匙{{color id=\"65535\"}}到手啦——！"
  },
  {
    "label": "75fe6345-d37d-496e-8399-de7e70b5867c",
    "text": "{{color id=\"1\"}}墨汁陷阱{{color id=\"65535\"}}应该能派上用场哦。"
  },
  {
    "label": "77f19511-d97b-42ef-9a91-f8fcb8010ae1",
    "text": "发现{{color id=\"1\"}}墨汁轨道{{color id=\"65535\"}}！"
  },
  {
    "label": "7ac76324-a0d7-4a27-b6ee-ecc19f419876",
    "text": "做得好！"
  },
  {
    "label": "8da68b31-8689-45f8-9dda-bc1fb1d30399",
    "text": "这里好像通向终点呢。"
  },
  {
    "label": "be483814-d143-4e63-a617-96266aed5f90",
    "text": "快要找齐了呢——"
  },
  {
    "label": "bf3ca01e-aa69-4f15-9fad-120a99eb3d82",
    "text": "感觉真不错♪"
  },
  {
    "label": "c0cef21b-bbb4-47fe-bda0-72314fbdadb1",
    "text": "嗯嗯。"
  },
  {
    "label": "d7fb5e64-c9a8-4a1e-9afe-833fa54f0fa2",
    "text": "这把{{color id=\"1\"}}钥匙{{color id=\"65535\"}}应该能在那里使用。"
  },
  {
    "label": "ddad2d70-037e-4c4a-b0ac-e2e1fb80663f",
    "text": "啊？！！"
  },
  {
    "label": "f17ec11c-8f37-4034-a4e4-dcde3b770444",
    "text": "看来得有{{icon id=\"26\" arg=\"0x0000803F00000000\"}}{{color id=\"1\"}}钥匙{{color id=\"65535\"}}才能前往终点啊……"
  },
  {
    "label": "fa18238e-5176-45be-85d2-8ad57c654fa3",
    "text": "终点在那里啊——"
  },
  {
    "label": "fc583009-a1eb-42d5-97e2-bfee9b032f0e",
    "text": "这样就找齐了吧！"
  }
]