[
  {
    "label": "1fd2bb2c-c4e3-4638-89b6-c048d7571161",
    "text": "咦？没有{{color id=\"1\"}}钥匙{{color id=\"65535\"}}？"
  },
  {
    "label": "2d3a4e4c-0f62-4488-9526-d7fd075a4c3a",
    "text": "这里是2楼吧？唔……有点高啊……"
  },
  {
    "label": "2e70a00b-956d-4d80-be3d-d3a5ca2a8200",
    "text": "唔……这附近会不会有{{icon id=\"26\" arg=\"0x0000803F00000000\"}}{{color id=\"1\"}}钥匙{{color id=\"65535\"}}呢？"
  },
  {
    "label": "370f19bc-76ce-4160-9730-2bbd96a5207d",
    "text": "发现{{color id=\"1\"}}钥匙{{color id=\"65535\"}}啦～"
  },
  {
    "label": "5f32135c-4c04-4b9b-8a56-bc802fc60c05",
    "text": "哦，能看见{{color id=\"1\"}}终点{{color id=\"65535\"}}了。"
  },
  {
    "label": "6c1ba049-6e57-4285-b765-be543fcc74db",
    "text": "又拿到{{color id=\"1\"}}钥匙{{color id=\"65535\"}}啦——！"
  },
  {
    "label": "7300bfab-b5c5-4f65-a9aa-608c10919f85",
    "text": "桥搭好啦！这样就能前往终点了！"
  },
  {
    "label": "a83c0d89-c421-4c5e-a440-cfff145a527c",
    "text": "太棒啦，拿到{{color id=\"1\"}}钥匙{{color id=\"65535\"}}了！"
  },
  {
    "label": "bcdb4de6-985a-46ee-8380-1574b53cb664",
    "text": "有敌人，小心前进。"
  },
  {
    "label": "f449c6f0-c98f-4d15-b55a-6dc88a84fe08",
    "text": "{{color id=\"1\"}}钥匙{{color id=\"65535\"}}出现啦～"
  },
  {
    "label": "f9f2839a-8134-4261-94a8-571852743fb1",
    "text": "是{{color id=\"1\"}}鲨鱼坐骑{{color id=\"65535\"}}！\n面向想要前进的方向，按{{icon id=\"8\" arg=\"0xCDCC4C3F00000000\"}}突击——！"
  },
  {
    "label": "ff35ff10-9143-4fe9-9ba0-4da82ca4411d",
    "text": "看见{{color id=\"1\"}}终点{{color id=\"65535\"}}了——！"
  }
]