[
  {
    "label": "07bd2e1e-2509-4735-964f-df0864dcf19f",
    "text": "噢！奏效了！"
  },
  {
    "label": "1bf6d535-17ab-4ddb-a558-b732df112665",
    "text": "保持这个状态继续压制吧！！"
  },
  {
    "label": "20c3b73e-003b-4cca-8e4f-70d75bf125f8",
    "text": "要是打中那个，会被炸飞的——！"
  },
  {
    "label": "2516864f-2b4d-4985-934b-7449e58dfd01",
    "text": "哇，敌人过来了——！"
  },
  {
    "label": "38e20e07-db3e-4e82-aded-669366e3c847",
    "text": "鲼！{{string value=\"5\"}}（还剩1分钟！）{{fun_000F_0004 arg=\"0x0500\"}}"
  },
  {
    "label": "405f7ea6-69b1-472a-8305-5f3b2d4bcd16",
    "text": "要看准你与核心之间的距离！"
  },
  {
    "label": "4405a677-71c3-4133-a4fa-2a4a5df7d38c",
    "text": "哦——！大鲑鱼大人，好机会！\n就是那里——！"
  },
  {
    "label": "5022fa50-212e-4ab3-b32f-ebf4cd7772a2",
    "text": "背后毫无防备呢～！"
  },
  {
    "label": "54315d73-6f63-4a15-a37f-1c914e0b8ff5",
    "text": "使用吸墨机吸取时，移动速度会变慢，要注意哦。"
  },
  {
    "label": "5458b414-d635-45c9-a687-69b6e0d5b755",
    "text": "将吸取到的能量全数奉还！！"
  },
  {
    "label": "582a300d-dd7a-4a3f-9e23-00b3769ba352",
    "text": "哼！不错！"
  },
  {
    "label": "590bafcb-c7eb-4f6d-9b0c-a0a3af789b4b",
    "text": "鲼鲼！{{string value=\"5\"}}（趁现在，吸取核心！！）{{fun_000F_0004 arg=\"0x0500\"}}"
  },
  {
    "label": "5eb2b808-0591-4f3b-840b-eac634111485",
    "text": "假的核心可能{{color id=\"1\"}}无法被吸取{{color id=\"65535\"}}……不妙啊～"
  },
  {
    "label": "5f7de01d-7332-4a0b-bacc-e6a1d679076c",
    "text": "决不放弃！这是战场上的铁则——！！！"
  },
  {
    "label": "5fb66589-550b-4db9-97c2-8f49480100e4",
    "text": "还剩30秒！！"
  },
  {
    "label": "7589e7e7-88ba-4bfd-9ce9-a157c767e4ad",
    "text": "按{{icon id=\"11\" arg=\"0x0000803F00000000\"}}乘上蛸壶王者后，\n推动{{icon id=\"7\" arg=\"0xCDCC4C3F00000000\"}}来移动吧！"
  },
  {
    "label": "81860e16-bae3-4663-9fc1-8ea5106a460a",
    "text": "哼……！无法吸取假的核心！"
  },
  {
    "label": "8b8a0510-c57f-4fd1-a397-9488eebd3afd",
    "text": "啊——！快没时间了！！"
  },
  {
    "label": "8c58f4b3-8880-4d61-b773-cc5d2f413253",
    "text": "明明吸取了所有核心，他还是没停下来！\n该怎么办才好啊——！！"
  },
  {
    "label": "8d3d03bd-a2ff-4066-b5b3-e66d8f4429e5",
    "text": "还剩3分钟！加油！"
  },
  {
    "label": "919e96d5-8c8d-4f2e-9691-af2c448fd6d8",
    "text": "鲼——！{{string value=\"5\"}}（要吸取了哦！）{{fun_000F_0004 arg=\"0x0500\"}}"
  },
  {
    "label": "93825f65-ce08-4d18-b61a-884d256302e6",
    "text": "按住{{icon id=\"12\" arg=\"0x0000803F00000000\"}}的时候，吸墨机会咻～地伸长哦！"
  },
  {
    "label": "9da62711-da15-438a-a2e0-4d49204e33c9",
    "text": "按{{icon id=\"11\" arg=\"0x0000803F00000000\"}}乘上去，然后推动{{icon id=\"7\" arg=\"0xCDCC4C3F00000000\"}}来移动！"
  },
  {
    "label": "9f0b1ca9-27bb-479e-b733-2211cd72ad08",
    "text": "控制准星，好好瞄准敌人！"
  },
  {
    "label": "a421dc52-08e6-42ad-9756-08fd7aab7e8b",
    "text": "好——！还剩最后一个了！！"
  },
  {
    "label": "ba7312a7-c322-45cd-944f-7b819776234c",
    "text": "上啊——————！！！"
  },
  {
    "label": "c02a89a2-6987-4eb0-97af-d9051f68fd8f",
    "text": "敌人来了！小心！"
  },
  {
    "label": "c5954c67-61eb-4658-9d8f-7c514d50a337",
    "text": "喂，芥末章鱼，这边！"
  },
  {
    "label": "c5f0c63e-fb2d-427b-92ab-4a0c3ae695f2",
    "text": "还剩2分钟了！"
  },
  {
    "label": "c700b25f-f1d9-4871-8ad9-616340785ac9",
    "text": "按住{{icon id=\"12\" arg=\"0x0000803F00000000\"}}的时候，{{color id=\"1\"}}吸墨机会伸长{{color id=\"65535\"}}，\n瞄准核心来吸取吧！"
  },
  {
    "label": "da1d6d58-4576-4114-b4ab-7a9b5015eb5c",
    "text": "现在是紧要关头哦，3号！！"
  },
  {
    "label": "db4d18ed-8838-4d63-bddc-58ae5c4c40e0",
    "text": "好——还剩2个核心！"
  },
  {
    "label": "df3251b6-c87f-4551-9534-9da2952f86c2",
    "text": "“按{{icon id=\"12\" arg=\"0x0000803F00000000\"}}解决那家伙！！”\n司令是这么说的哦！！"
  },
  {
    "label": "f8ebd800-2f48-444e-a45e-149e4d01655c",
    "text": "不要靠得太近！危险！"
  },
  {
    "label": "f91218a5-c3c7-4da1-8506-86fa3dc1e1b4",
    "text": "飘浮着{{color id=\"1\"}}假{{color id=\"65535\"}}的核心！提高警惕——！"
  },
  {
    "label": "fba52049-0ecd-4aef-a1c7-2b6893643a55",
    "text": "还有别的核心呢！下一个——！"
  }
]