[
  {
    "label": "14e090a0-ad4d-49b3-b282-a66c43f18975",
    "text": "熊先生坐下了！他可能有什么企图！"
  },
  {
    "label": "47c3f0f4-af13-49cb-b04e-7765e70f89bc",
    "text": "熊先生想要翻滚……？"
  },
  {
    "label": "5c7e2651-66a4-4bb4-beb0-a423e3a38b06",
    "text": "哇！绒毛墨汁的{{icon id=\"22\" arg=\"0x0000803F00000000\"}}{{color id=\"1\"}}核心{{color id=\"65535\"}}出现了？！"
  },
  {
    "label": "5eafff55-1554-4069-9ed4-6e76eae1e1ad",
    "text": "要不射击那颜色怪怪的地方吧？"
  },
  {
    "label": "76931577-5e70-4013-b718-cea1a9a7bf6c",
    "text": "快转了半圈了！坚持住啊，3号——！！"
  },
  {
    "label": "857e292b-d85d-4555-879c-ac60aa30c84e",
    "text": "好极了！{{color id=\"1\"}}核心{{color id=\"65535\"}}出现了！！"
  },
  {
    "label": "b40eab39-2c05-4490-9388-6c28ed8412b9",
    "text": "熊先生的肚子上有颜色怪怪的地方········"
  },
  {
    "label": "b833dc76-cfa8-48f8-a5e3-2cefa214b43e",
    "text": "是金鲑鱼卵！这个或许能派上用场……！"
  },
  {
    "label": "c5269e9f-fc25-4e20-b635-0fde232b354b",
    "text": "他好像又要翻滚了！提高警惕！"
  },
  {
    "label": "cd16b0b0-c294-4093-87f8-e70e59855fe6",
    "text": "3号和小鲑鱼干得好！这下可以前进了！"
  },
  {
    "label": "daae7b48-be3b-4ece-9ff4-3c18f03027e7",
    "text": "就是现在，3号！做个了结吧——！！"
  },
  {
    "label": "fe9b924a-0c3a-4338-b6b5-0a0a4bda6170",
    "text": "火箭在旋转！快冲刺，不然会掉下去！"
  }
]