[
  {
    "label": "09439641-2adb-4069-8f5d-3af8046ad294",
    "text": "状态不错！！"
  },
  {
    "label": "1205a3dd-d2c5-4bed-86aa-141f82aa3448",
    "text": "倒计时开始！"
  },
  {
    "label": "3aeafc61-b444-4f78-9dd1-c62f71768f1b",
    "text": "总～觉得漏掉了什么……"
  },
  {
    "label": "41e09780-9027-4838-965f-62db9c954cf9",
    "text": "做得非常好～♪\n小鲑鱼也很开心呢。"
  },
  {
    "label": "4829f9d3-4c0e-44e3-ac16-317e719c734c",
    "text": "取得这个可以回复墨汁，\n看到了就千万不要错过哦。"
  },
  {
    "label": "49f37cc4-ca22-4a26-8f11-0b651a025172",
    "text": "咦？有漏掉的{{color id=\"1\"}}开关{{color id=\"65535\"}}吗？"
  },
  {
    "label": "4eb020db-1dec-413e-bf3b-38018d2a0b89",
    "text": "保持势头，冲啊——！"
  },
  {
    "label": "4fcf7db1-294f-497d-bc0c-0cde352bc120",
    "text": "{{color id=\"1\"}}开关{{color id=\"65535\"}}有1、2、3……数不清啦——！\n总之将开关一个个按顺序涂掉吧！"
  },
  {
    "label": "4fd7c4c3-cd03-43a8-ae17-badcc7024e24",
    "text": "不错不错，接下来就是重头戏了吧。"
  },
  {
    "label": "6e374df9-0208-4fb0-946d-8f2e398fe0cf",
    "text": "是奖励的鲑鱼卵，\n全都收下吧♪"
  },
  {
    "label": "73137a92-9bab-438f-a36b-c54ec985875d",
    "text": "虽然通关了，\n但是涂得乱七八糟的……"
  },
  {
    "label": "777c0315-99a6-435b-ac5a-d27e77975072",
    "text": "是不是有漏掉的{{color id=\"1\"}}开关{{color id=\"65535\"}}？"
  },
  {
    "label": "8ec782e5-ab00-4e0e-8aea-53b3aa80e0e3",
    "text": "虽然通关了，\n但是涂得乱七八糟的……"
  },
  {
    "label": "96935915-b31b-45b5-aae8-abeb93bd9a5d",
    "text": "倒计时结束！"
  },
  {
    "label": "af3e5138-492b-4a4f-bf6a-a462947e7688",
    "text": "嗯嗯！看起来不错！\n顺便问一下，这画的是啥？"
  },
  {
    "label": "db3d0bc3-89a2-483a-aa64-5a12cb03fccc",
    "text": "嗯嗯！看起来不错！\n顺便问一下，这画的是啥？"
  },
  {
    "label": "e7c28788-8e85-4de4-bd90-0ac454e0e331",
    "text": "按住{{icon id=\"12\" arg=\"0x0000803F00000000\"}}前进，就能边走边涂哦！"
  },
  {
    "label": "f3841151-f955-4c0f-8a87-83bcb291ef0c",
    "text": "做得非常好～♪\n小鲑鱼也很开心呢。"
  }
]