[
  {
    "label": "1168bcf3-9878-469b-926f-a75a2665b41c",
    "text": "又要对付那个超大的大球球啊。\n上吧，小八！"
  },
  {
    "label": "15b73a4e-0ccd-42b5-82e6-b552218387a4",
    "text": "如果能妥善处理出现的敌人，\n似乎能转化为机会。"
  },
  {
    "label": "1df2513d-71f1-45a3-942f-3232bb43f706",
    "text": "哎，终于结束了……辛苦啦，小八。"
  },
  {
    "label": "379e9860-32b8-4ef4-b384-6ea477d0bab2",
    "text": "它变小了！\n再加把劲，小八！！"
  },
  {
    "label": "3daa8b4c-343e-45e1-a036-cff46f5a2da5",
    "text": "很好，结束之前都别大意哦。"
  },
  {
    "label": "4855a827-d276-43fd-9482-c92325da9767",
    "text": "它的壳打开了！好机会！！"
  },
  {
    "label": "4c98a759-975d-4656-8997-69b32fe06a91",
    "text": "它变小了！\n再加把劲，小八！！"
  },
  {
    "label": "52a5b68b-09ad-4db4-9e04-e74649de0932",
    "text": "小八、前辈，辛苦了！\n你们都做得很棒～♪"
  },
  {
    "label": "55b9d0e9-d729-42ca-9be9-80b5a1b93bd2",
    "text": "虽然敌人变多了，但现在可以攻击它的弱点了。"
  },
  {
    "label": "581ab5da-a3c1-46a9-82eb-bf7ec7f1f605",
    "text": "它那巨大又厚重的金属质地身躯……\n洋溢着浪漫的气息，作为敌人也好让人着迷～！！"
  },
  {
    "label": "5d225c4e-afb5-4fe4-a96a-0ad7c026c9b7",
    "text": "敌人出现了！但它壳内的部分也露出来了！"
  },
  {
    "label": "8ebfb7aa-bb4c-4266-a983-3fc4588b50a2",
    "text": "抱歉啊，挑你睡得正香的时候，\n我们要来打扰一下咯！"
  },
  {
    "label": "981e1a20-4265-447e-91a5-bb0c1c832f83",
    "text": "哇！{{color id=\"4\"}}反弹器{{color id=\"65535\"}}好像变多了！"
  },
  {
    "label": "ae58add7-6199-4d80-91e1-1bd6e245bad7",
    "text": "它的弱点似乎变大了。"
  },
  {
    "label": "b3047563-c8f2-4d8a-88d2-f7b35cc20fe4",
    "text": "虽然敌人变多了，但现在可以攻击它的弱点了。"
  },
  {
    "label": "ba5dcce8-a4e8-43b5-8891-d872f98f6663",
    "text": "好像有个类似大球球的巨大家伙在啊……\n多加小心，小八！"
  },
  {
    "label": "bfe97c85-b012-400b-938e-e97649e1d7d0",
    "text": "它的壳打开了！小心多出来的敌人！！"
  },
  {
    "label": "c2daa76c-6530-4b5a-b31f-c5473037e1ce",
    "text": "那家伙想做什么……？！"
  },
  {
    "label": "ca74d5cd-0481-462f-88f9-c1643922288f",
    "text": "呃！它撞到{{color id=\"4\"}}反弹器{{color id=\"65535\"}}\n就会召唤同伴吗？！"
  },
  {
    "label": "d5f51fe2-562a-48fe-91c5-d90636d0f098",
    "text": "干得好——！！\n真是的，既要推它，又要追它，真是太累人了——"
  },
  {
    "label": "da4523b8-8c17-4be2-a3a8-24e2db1454b3",
    "text": "它要冲过来了！快躲开，小八！！"
  },
  {
    "label": "e944fbdc-d751-4ae2-92e9-2847786497a0",
    "text": "它的壳打开了！小心多出来的敌人！！"
  },
  {
    "label": "f0bbacc1-a81a-457b-afbf-1bb208980eb8",
    "text": "看来它已经缩小了许多！\n再加把劲，小八！"
  },
  {
    "label": "f75d0374-802c-4348-a285-718abb9afd7e",
    "text": "敌人出现了！但它壳内的部分也露出来了！"
  },
  {
    "label": "fb1292f1-2f6f-4d18-8443-320d0a43009c",
    "text": "壳内部分露出来了！趁现在解决掉它！！"
  },
  {
    "label": "fd437efb-f104-4812-ac4e-e85b311a7118",
    "text": "又出现新的敌人了……！但是，它的壳也打开了！"
  }
]