[
  {
    "label": "092feac9-517a-4e9a-b908-abcd5b7142ed",
    "text": "那个巨大的家伙……是什么啊？"
  },
  {
    "label": "0a94df73-695d-427a-875f-9951f1377fc9",
    "text": "很好！不要停——！！"
  },
  {
    "label": "14381376-7ca2-4df2-b5d6-37f1b6f94e71",
    "text": "HEY！有敌人飞来了。"
  },
  {
    "label": "18762e2a-13e3-4d24-bff1-e6dc2a761d1e",
    "text": "看着那家伙，我就感觉一阵晕眩……"
  },
  {
    "label": "3017dfa4-bd63-4cf6-8ebf-32d588cdda4d",
    "text": "小八，有敌人飞来了！"
  },
  {
    "label": "3b787142-643d-483b-adcd-162da0a36667",
    "text": "要是被{{color id=\"4\"}}探照灯{{color id=\"65535\"}}发现可就糟了！！"
  },
  {
    "label": "470570a8-bf68-473a-bc53-42990c620a12",
    "text": "这家伙……你一靠近就会升起来！"
  },
  {
    "label": "4a1ced93-1d98-4e42-b1f0-2399566d56e4",
    "text": "保持这个势头，战斗结束前都不要松懈。"
  },
  {
    "label": "53d5f434-282a-4a28-9963-fe3ef745c17a",
    "text": "很好！是我们赢了！！"
  },
  {
    "label": "59ff009a-6a5b-4830-b2f1-1e4464d4c4bb",
    "text": "感觉有什么要来了……多加注意。"
  },
  {
    "label": "63d6b428-6b69-4528-8b6f-115e8a5a3ed3",
    "text": "感觉危险的攻击要来了，多加小心！"
  },
  {
    "label": "7a10cc98-53ff-4b09-8c80-e9dc731d4261",
    "text": "敌人要攻击过来了！请多加小心！"
  },
  {
    "label": "820e879d-e70f-4964-9829-1a9f1f3bf7ce",
    "text": "很好——！完全摧毁它吧！"
  },
  {
    "label": "8b5af583-51e2-4964-b902-d1dc5469f4a5",
    "text": "干得漂亮！敌人的高度降下来了！"
  },
  {
    "label": "96ca187d-da7f-4ccd-981c-972db3ed92da",
    "text": "是炸弹？！快躲开，小八！！"
  },
  {
    "label": "a440832c-f28e-4c62-bc73-9da95a8aca37",
    "text": "虽然敌人很强，但小八一定能战胜它！\n加油啊！"
  },
  {
    "label": "a5613771-bba6-420b-9251-f2b25290c49c",
    "text": "它旋转的速度减慢了！小八，就是现在！！"
  },
  {
    "label": "b569981b-a9bc-4f02-bfb6-5f1b6c11f15b",
    "text": "暂时逃离敌人吧，小八！"
  },
  {
    "label": "c18252e2-db29-4ba2-8350-c6474a25b2ba",
    "text": "它升起来的时候似乎会释放冲击波进行攻击。"
  },
  {
    "label": "c476ff47-99e8-451e-8370-ba6a08d58837",
    "text": "呃！它居然会投掷炸弹！"
  },
  {
    "label": "cc93adfd-1e3a-4c9c-942d-2f7edc63e871",
    "text": "好！先解决掉一层！！"
  },
  {
    "label": "d5ce1b22-d0ca-4c98-9708-4511340c1a59",
    "text": "小八！有东西飞过来了！"
  },
  {
    "label": "d6e2edba-e8bd-4b18-a72b-824a5b83eb0f",
    "text": "赢了……！小八、前辈，我们打赢了！"
  },
  {
    "label": "e467c7b9-3c4a-4b2a-9e46-507f7dccbd0f",
    "text": "又是那家伙啊……它还是那么大。"
  },
  {
    "label": "e4bf6720-7bdb-4b85-82e9-f9f8d6eec6d9",
    "text": "被它发现了……走为上策。"
  },
  {
    "label": "e85d2e9c-2828-4640-a240-16789aced79b",
    "text": "它冒烟了……这是不是个好机会？"
  },
  {
    "label": "f5c073cd-861e-4467-8dff-a466350dbf8b",
    "text": "被发现了！快逃啊，小八——！！"
  },
  {
    "label": "f924050f-2590-4be3-afd9-5bb515f548c4",
    "text": "被它发现就会遭到攻击！请尽快逃离！！"
  },
  {
    "label": "ffd8ff1f-a6e0-4d59-ae9d-eb879db84fc4",
    "text": "这家伙真难对付……你挺厉害嘛，小八。"
  },
  {
    "label": "1176bb9a-2e19-46ee-8f9e-45bd191782ca",
    "text": "机会来了，小八！攻击那些看起来薄弱的地方！！"
  },
  {
    "label": "25505578-7e79-4bfd-9486-7ec00832d27f",
    "text": "那家伙是不是站不稳了？这似乎是个好机会！！"
  }
]