[
  {
    "label": "9c587cab-3e7b-4057-b888-d0832c9b56c4",
    "text": "那个巨大的家伙……是什么啊？"
  },
  {
    "label": "1bed1adf-33dd-4555-b2d1-9ff4ad1b525f",
    "text": "看着那家伙，我就感觉一阵晕眩……"
  },
  {
    "label": "6ac09845-6b16-4414-a27e-c357181a9591",
    "text": "又是那家伙啊……它还是那么大。"
  },
  {
    "label": "4a878929-b755-4feb-b137-596fd82a6b12",
    "text": "虽然敌人很强，但小八一定能战胜它！\n加油啊！"
  },
  {
    "label": "16bb9c5b-ae56-4ee2-81c8-3e341c5a7410",
    "text": "要是被{{color id=\"4\"}}探照灯{{color id=\"65535\"}}发现可就糟了！！"
  },
  {
    "label": "95821f05-8565-4b7f-811d-2638cd3caa9e",
    "text": "暂时逃离敌人吧，小八！"
  },
  {
    "label": "6850dc3d-817b-4329-9ea1-174676777826",
    "text": "被它发现了……走为上策。"
  },
  {
    "label": "6e4389d1-2e3d-4224-a33a-9d6c029aacb9",
    "text": "被它发现就会遭到攻击！请尽快逃离！！"
  },
  {
    "label": "83333d96-d700-449d-bc73-0ab377def2dd",
    "text": "被发现了！快逃啊，小八——！！"
  },
  {
    "label": "81cf2207-5289-468b-8be0-3020317ae4ea",
    "text": "它升起来的时候似乎会释放冲击波进行攻击。"
  },
  {
    "label": "a7a51ad3-eb23-4afe-bd3b-fd0d17d92dfe",
    "text": "它冒烟了……这是不是个好机会？"
  },
  {
    "label": "f2781e80-dbc3-4943-9b2c-f751cd9c70d7",
    "text": "这家伙……你一靠近就会升起来！"
  },
  {
    "label": "823a540d-8c9a-454f-b494-9b9169ccd1ed",
    "text": "感觉危险的攻击要来了，多加小心！"
  },
  {
    "label": "9d7a0624-5217-494d-be02-0767ead6dcb5",
    "text": "感觉有什么要来了……多加注意。"
  },
  {
    "label": "6f372fbc-0837-4d20-91b5-213ab45ffa7b",
    "text": "敌人要攻击过来了！请多加小心！"
  },
  {
    "label": "e04e99ff-a7cf-4f3f-bf85-9fb929685434",
    "text": "小八！有东西飞过来了！"
  },
  {
    "label": "53c56fc0-8621-4073-88fa-45def26e7b40",
    "text": "小八，有敌人飞来了！"
  },
  {
    "label": "9598a1a3-0716-4f56-a040-0e3af647db68",
    "text": "HEY！有敌人飞来了。"
  },
  {
    "label": "805fc56f-7570-4aa4-bc16-ee65e5ce1f68",
    "text": "呃！它居然会投掷炸弹！"
  },
  {
    "label": "f60d28f6-18d2-416b-9231-aa33c0418250",
    "text": "是炸弹？！快躲开，小八！！"
  },
  {
    "label": "48871f26-2120-46f8-a0a0-0e76fee4c87e",
    "text": "很好！不要停——！！"
  },
  {
    "label": "edd311c4-c260-4e3f-b034-9833b5a60064",
    "text": "干得漂亮！敌人的高度降下来了！"
  },
  {
    "label": "8ac55961-da9c-43ab-8587-646286c1f5e6",
    "text": "保持这个势头，战斗结束前都不要松懈。"
  },
  {
    "label": "366705e6-00f9-4e0f-9905-8dbff8dc51ac",
    "text": "很好——！完全摧毁它吧！"
  },
  {
    "label": "6faa4033-3e2b-4f6f-b8e6-d45bcd744f20",
    "text": "好！先解决掉一层！！"
  },
  {
    "label": "fc648494-7a29-4781-9cd2-6bbb21129796",
    "text": "很好！是我们赢了！！"
  },
  {
    "label": "00277b56-c5b4-49df-925c-8bafe60853bb",
    "text": "这家伙真难对付……你挺厉害嘛，小八。"
  },
  {
    "label": "f5103654-3515-4747-bf23-3320102022d9",
    "text": "赢了……！小八、前辈，我们打赢了！"
  },
  {
    "label": "1a5ec2a8-40f4-4fcc-8b69-d9a687c18869",
    "text": "它旋转的速度减慢了！小八，就是现在！！"
  },
  {
    "label": "6470af20-1d54-47eb-a3dc-ce3a10fbf88c",
    "text": "那家伙是不是站不稳了？这似乎是个好机会！！"
  },
  {
    "label": "745feb7b-98c3-4725-80fd-d278b884b80b",
    "text": "机会来了，小八！攻击那些看起来薄弱的地方！！"
  }
]