[
  {
    "label": "0b6a990d-0ed2-41c9-932e-a15e2965d876",
    "text": "还剩1个。"
  },
  {
    "label": "c3dffacd-f7fe-465c-a624-62b15870a5c7",
    "text": "巨大骷髅鱼会在靠近你之后使出撞击。"
  },
  {
    "label": "ca2d558a-e9bf-4f8d-a6d5-4f5f7dd491fa",
    "text": "很好，干得不错！"
  },
  {
    "label": "dfb7175e-35f4-423a-8354-0ffcf5796110",
    "text": "这家伙不会在地上涂墨啊。"
  },
  {
    "label": "fd8f2a49-afcd-49fa-994c-9dc589eacdbc",
    "text": "{{icon id=\"66\" arg=\"0x0000803F00000000\"}}{{color id=\"4\"}}墨汁瓶{{color id=\"65535\"}}出现了。\n拾取后会回复一半的墨汁。"
  }
]