[
  {
    "label": "0fb02278-90e5-4617-8e0a-b5cd6ee45bc6",
    "text": "饭田？喂，饭田——！！"
  },
  {
    "label": "2874d094-88fb-4264-a4d4-a581574cfe61",
    "text": "这里似乎是尚兴广场……到底怎么回事？"
  },
  {
    "label": "c2d55068-b052-4a68-bf3a-8eb61b3a65dc",
    "text": "置物柜？ 为什么会在这种地方？"
  },
  {
    "label": "f1d0167f-812c-4bd4-8806-0294e163c690",
    "text": "……感觉这个置物柜有点眼熟啊。"
  }
]