[
  {
    "label": "Start",
    "text": "执行强制脱色处理……发生错误！\n再次执行……依旧发生错误？！"
  },
  {
    "label": "PortalAttack",
    "text": "果然没错！色彩晶片就在传送口里！"
  },
  {
    "label": "PotalBreak01",
    "text": "好厉害……色彩晶片的能量\n一下子注入了调色盘……！"
  },
  {
    "label": "PotalBreakSupport",
    "text": "啊！这次是{{color id=\"4\"}}支援{{color id=\"65535\"}}色系的晶片！"
  },
  {
    "label": "PotalBreakMove",
    "text": "这是……{{color id=\"4\"}}移动{{color id=\"65535\"}}色系的晶片？"
  },
  {
    "label": "PortalBreakLucky",
    "text": "这是{{color id=\"4\"}}幸运{{color id=\"65535\"}}色系的晶片！感觉不错啊～小八！"
  },
  {
    "label": "PortalBreakRange",
    "text": "这是{{color id=\"4\"}}范围{{color id=\"65535\"}}色系的晶片！"
  },
  {
    "label": "PortalBreakDrone",
    "text": "轮到{{color id=\"4\"}}无人机{{color id=\"65535\"}}色系的晶片了！我的战意高涨起来了——！！"
  },
  {
    "label": "PortalBreakPower",
    "text": "{{color id=\"4\"}}力量{{color id=\"65535\"}}色系的晶片啊，有它就放心多了。"
  },
  {
    "label": "PortalBreak01_02",
    "text": "色彩晶片狂潮接连不断地出现了！"
  },
  {
    "label": "PortalBreak02",
    "text": "好像出现了{{color id=\"4\"}}新的传送口{{color id=\"65535\"}}！\n其余的色彩晶片也一定在那里面……！"
  },
  {
    "label": "PortalBreak03",
    "text": "发生什么了！分析情况……发生错误！"
  },
  {
    "label": "PortalBreak04",
    "text": "脱色处理正在逆向执行……？！\n这不可能！！"
  },
  {
    "label": "PortalBreakAll",
    "text": "刚才那些似乎是最后的晶片了！"
  },
  {
    "label": "LastMegaPhone01",
    "text": "呜……哦哦哦……颜色要溢出来了……！"
  },
  {
    "label": "LastMegaPhone02",
    "text": "好！计量槽达到MAX了！！"
  },
  {
    "label": "LastMegaPhone03",
    "text": "让那家伙感受我们和色彩晶片的全部力量！\n小八！按下{{icon id=\"76\" arg=\"0xEC51383FFEFFFFFF\"}}！！"
  },
  {
    "label": "LastMegaPhoneAttack01",
    "text": "接招吧！喇叭全击！！"
  },
  {
    "label": "LastMegaPhoneAttack02",
    "text": "HAHA！好厉害，这威力可真惊人！"
  },
  {
    "label": "LastMegaPhoneAttack03",
    "text": "前辈……拜托你了！！"
  },
  {
    "label": "LastMegaPhoneAttack04",
    "text": "和项目内容不同……这是……"
  },
  {
    "label": "LastMegaPhoneAttack05",
    "text": "%∞？≠&∴♭⇔♪★＠#△Ⅲ……！！！"
  },
  {
    "label": "LastOdako100",
    "text": "唔——！为什么你们会有如此强大的力量……？！"
  },
  {
    "label": "LastOdako075",
    "text": "保持这个势头压制到底？！\n那样做也不错啊，小八！！"
  },
  {
    "label": "LastOdako050",
    "text": "恢复发生的错误……执行失败。\n怎么会这样……这样下去的话……！！"
  },
  {
    "label": "LastOdako025",
    "text": "还差一口气！小八！！"
  }
]