[
  {
    "label": "06a7ee3e-d389-478b-bc18-d19db49332f0",
    "text": "好像能从下面绕过去呢！"
  },
  {
    "label": "16e1cc5f-753d-4895-9b10-e46301588135",
    "text": "是可以向上移动的螺旋桨踏板呢。"
  },
  {
    "label": "1ef6fd45-04b2-42c5-9f29-6bda8ef4fd59",
    "text": "漂亮的着陆！"
  },
  {
    "label": "270857c0-71bd-4810-834d-abb2f143d5da",
    "text": "这次是横向移动的踏板啊。"
  },
  {
    "label": "55797d3c-6a4f-4112-934c-b6f21a77c01a",
    "text": "按{{icon id=\"8\" arg=\"0xCDCC4C3F00000000\"}}发动{{color id=\"1\"}}超级着陆{{color id=\"65535\"}}！"
  },
  {
    "label": "65976bfe-b627-4b2c-a52d-8ae4e95caa05",
    "text": "赚翻啦——"
  },
  {
    "label": "758cbb5b-3458-4e59-a725-cdf1438fdf4f",
    "text": "小心不要掉下去哦。"
  },
  {
    "label": "79b3f7d9-f2d2-4d05-9470-535d7f45c2b8",
    "text": "用{{color id=\"1\"}}超级着陆{{color id=\"65535\"}}不停地往上爬吧！"
  },
  {
    "label": "8ca4d086-14d2-4ba2-a561-3b72b4be8ea0",
    "text": "咚——！"
  },
  {
    "label": "9ff74ba5-e10d-42f0-ba0a-b8cb47073eb1",
    "text": "提高警惕！"
  },
  {
    "label": "aa043f6a-ab2d-4d79-82c6-fe363eacf4fc",
    "text": "3号好帅——！"
  },
  {
    "label": "ab19cb79-a5ae-491c-8420-870b1370221a",
    "text": "咚——！！"
  },
  {
    "label": "b767aa56-5ec3-43cf-aa8e-151cf853e69e",
    "text": "在这里好像可以无限使用超级着陆哦。"
  },
  {
    "label": "c1cc9b7b-378c-4123-ba9c-e922bfc315a0",
    "text": "正面有{{color id=\"1\"}}章鱼狙击兵{{color id=\"65535\"}}！"
  },
  {
    "label": "cbc98594-717d-4e15-957c-4776b0218055",
    "text": "咚地一声着陆吧！"
  },
  {
    "label": "f1712803-b139-42b8-922c-c65e126c4bb9",
    "text": "咚——！"
  },
  {
    "label": "fd11ded9-e1b1-46fe-9776-c0a65133b246",
    "text": "全都一起咚掉——！"
  }
]