[
  {
    "label": "4b101335-2192-4efe-90b2-4ef9b85ab055",
    "text": "从上面来了！提高警惕！"
  },
  {
    "label": "8534c64a-4cbf-4e87-92c2-cb1362079363",
    "text": "{{color id=\"1\"}}章鱼弹跳兵{{color id=\"65535\"}}在跳来跳去——"
  },
  {
    "label": "b001dbd7-0672-441a-bb95-18ada50bfaad",
    "text": "它们甚至可以跳上有高低差的地方哦！"
  },
  {
    "label": "d1f2c5e0-edcf-4472-a96c-5ec33ec0ed63",
    "text": "看见{{color id=\"1\"}}终点{{color id=\"65535\"}}了，还差一点点！"
  },
  {
    "label": "dbefff48-3474-48cd-891b-0c3c8901fc43",
    "text": "啊，它们朝这边来了——！"
  }
]