[
  {
    "label": "60d0b77b-9779-45e0-a293-2bd3ad3fdc69",
    "text": "干得漂亮！全部都解决掉了呢。"
  },
  {
    "label": "4c077283-3bb9-41c8-a242-c31e29be5cef",
    "text": "啊——吓我一跳……\n接下来也小心前进吧！"
  },
  {
    "label": "53a0d5de-254b-4343-a0db-2507b6221929",
    "text": "看见{{color id=\"1\"}}终点{{color id=\"65535\"}}了！不过，可别掉以轻心哦！"
  },
  {
    "label": "546db347-e9c7-48d8-a9c7-f66a1723d74a",
    "text": "是{{color id=\"1\"}}终极发射{{color id=\"65535\"}}。\n先按{{icon id=\"8\" arg=\"0xCDCC4C3F00000000\"}}启动，再按{{icon id=\"12\" arg=\"0x0000803F00000000\"}}发射哦。"
  },
  {
    "label": "a156604d-3c04-4c14-ae6c-a749da8cb226",
    "text": "果然出现了——！"
  },
  {
    "label": "f00fcce9-bb56-4246-b1e8-d0f0119ab067",
    "text": "哇啊？！"
  },
  {
    "label": "fb9f39df-60cb-45e9-aa15-cb5fdc157c2b",
    "text": "差不多开始习惯了吧？"
  }
]