[
  {
    "label": "000",
    "text": "要我幫忙駭解嗎？"
  },
  {
    "label": "001",
    "text": "要使用珍珠駭解嗎？"
  },
  {
    "label": "002",
    "text": "確定要降低效果嗎？"
  },
  {
    "label": "003",
    "text": "小八，珍珠不夠多喔～"
  },
  {
    "label": "004",
    "text": "要重新挑戰哪個記錄呢？"
  },
  {
    "label": "005",
    "text": "沒有可以重新挑戰的記錄喔～"
  },
  {
    "label": "006",
    "text": "啊，小八。\n你來得正好。{{pageBreak}}可以讓你從陣亡的樓層\n{{color id=\"4\"}}重新挑戰{{color id=\"65535\"}}的功能已經完成了！{{pageBreak}}按下{{icon id=\"73\" arg=\"0x0000803F00000000\"}}就能選擇要重新挑戰的記錄了，\n有需要的話就試試看吧～"
  },
  {
    "label": "007",
    "text": "小八，可以駭解的東西變多囉！\n快來看看吧～"
  },
  {
    "label": "008",
    "text": "小八、小八，\n現在終於可以駭解{{color id=\"4\"}}高風險高報酬{{color id=\"65535\"}}了喔！{{pageBreak}}只要以縮減駭解效果的狀態通過秩序之塔，\n可以獲得的珍珠就會比平時還要來得更多！\n最多可達3倍！{{pageBreak}}但要是無法通過的話就沒辦法獲得珍珠了，\n這是必須注意的地方。{{pageBreak}}等你慢慢習慣攻略塔的流程，\n到了「感覺可以輕易通過」的時候\n就來試試看吧！"
  }
]