[
  {
    "label": "FST000",
    "text": "头带 白色"
  },
  {
    "label": "CAP000",
    "text": "海胆BB帽"
  },
  {
    "label": "CAP001",
    "text": "露营帽"
  },
  {
    "label": "CAP002",
    "text": "暇古网帽"
  },
  {
    "label": "CAP003",
    "text": "饮料标志帽"
  },
  {
    "label": "CAP004",
    "text": "千鸟帽"
  },
  {
    "label": "CAP005",
    "text": "墨行帽"
  },
  {
    "label": "CAP006",
    "text": "迷彩网帽"
  },
  {
    "label": "CAP007",
    "text": "五分割帽"
  },
  {
    "label": "CAP008",
    "text": "泽酷网帽"
  },
  {
    "label": "CAP009",
    "text": "反戴帽"
  },
  {
    "label": "CAP010",
    "text": "双线网帽"
  },
  {
    "label": "CAP011",
    "text": "喷射帽"
  },
  {
    "label": "CAP012",
    "text": "单车帽"
  },
  {
    "label": "CAP014",
    "text": "单车王者帽"
  },
  {
    "label": "CAP018",
    "text": "长帽檐帽"
  },
  {
    "label": "CAP019",
    "text": "王者翻檐网帽"
  },
  {
    "label": "CAP020",
    "text": "山核桃条纹工作帽"
  },
  {
    "label": "CAP021",
    "text": "羊毛海胆经典帽"
  },
  {
    "label": "CAP023",
    "text": "位元水母帽"
  },
  {
    "label": "CAP024",
    "text": "房屋标签牛仔帽"
  },
  {
    "label": "CAP025",
    "text": "河豚狩猎帽"
  },
  {
    "label": "CAP026",
    "text": "嘻哈头巾配帽子"
  },
  {
    "label": "CAP027",
    "text": "飞行帽"
  },
  {
    "label": "CAP028",
    "text": "遮阳帽 墨黑"
  },
  {
    "label": "CAP029",
    "text": "珊瑚帽"
  },
  {
    "label": "CAP030",
    "text": "条石鲷条纹帽"
  },
  {
    "label": "CAP031",
    "text": "海军风帽"
  },
  {
    "label": "CAP032",
    "text": "飞鱼骑行帽"
  },
  {
    "label": "CAP033",
    "text": "反戴狩猎帽"
  },
  {
    "label": "CAP034",
    "text": "迷彩帽 土遁"
  },
  {
    "label": "CAP035",
    "text": "迷彩帽 水遁"
  },
  {
    "label": "CAP036",
    "text": "瓜皮帽"
  },
  {
    "label": "CAP037",
    "text": "棱纹猎鹿帽"
  },
  {
    "label": "CAP038",
    "text": "夜行帽"
  },
  {
    "label": "CAP039",
    "text": "泳帽"
  },
  {
    "label": "NCP000",
    "text": "球球毛帽"
  },
  {
    "label": "NCP001",
    "text": "短款圆顶毛帽"
  },
  {
    "label": "NCP002",
    "text": "横纹圆顶毛帽"
  },
  {
    "label": "NCP003",
    "text": "冬季球球毛帽"
  },
  {
    "label": "NCP004",
    "text": "纹甲贝雷帽"
  },
  {
    "label": "NCP005",
    "text": "北欧鱿鱼帽"
  },
  {
    "label": "NCP008",
    "text": "针织帽"
  },
  {
    "label": "NCP009",
    "text": "无法无天别针贝雷帽"
  },
  {
    "label": "NCP010",
    "text": "山形纹圆顶毛帽"
  },
  {
    "label": "NCP011",
    "text": "藏貌针织帽"
  },
  {
    "label": "NCP012",
    "text": "灯笼鱼针织帽"
  },
  {
    "label": "NCP013",
    "text": "幼河豚针织帽"
  },
  {
    "label": "EYE000",
    "text": "复古黑框眼镜"
  },
  {
    "label": "EYE001",
    "text": "斯普拉护目镜"
  },
  {
    "label": "EYE002",
    "text": "飞行员护目镜"
  },
  {
    "label": "EYE003",
    "text": "有色眼镜"
  },
  {
    "label": "EYE004",
    "text": "眼镜固定带 黑色"
  },
  {
    "label": "EYE005",
    "text": "潜水护目镜"
  },
  {
    "label": "EYE006",
    "text": "眼镜固定带 白色"
  },
  {
    "label": "EYE007",
    "text": "显眼隐形眼镜"
  },
  {
    "label": "EYE008",
    "text": "明星墨镜 18K"
  },
  {
    "label": "EYE009",
    "text": "玳瑁圆形眼镜"
  },
  {
    "label": "EYE010",
    "text": "章鱼墨镜"
  },
  {
    "label": "EYE011",
    "text": "半框眼镜"
  },
  {
    "label": "EYE012",
    "text": "铁蛋墨镜"
  },
  {
    "label": "EYE013",
    "text": "泽酷翻檐帽"
  },
  {
    "label": "EYE014",
    "text": "圆形墨镜SV925"
  },
  {
    "label": "EYE015",
    "text": "无法无天巴斯克贝雷帽"
  },
  {
    "label": "EYE016",
    "text": "竞技泳镜"
  },
  {
    "label": "EYE017",
    "text": "防墨护目镜"
  },
  {
    "label": "EYE018",
    "text": "剑尖特制竞技泳镜"
  },
  {
    "label": "EYE021",
    "text": "桶眼鱼护目镜"
  },
  {
    "label": "EYE022",
    "text": "8-Bit 镜框"
  },
  {
    "label": "EYE023",
    "text": "眼饰"
  },
  {
    "label": "EYE024",
    "text": "墨墨墨镜"
  },
  {
    "label": "EYE025",
    "text": "浮法玻璃透明眼镜"
  },
  {
    "label": "EYE026",
    "text": "骑士偏光眼镜"
  },
  {
    "label": "EYE027",
    "text": "无法无天方形眼镜"
  },
  {
    "label": "EYE028",
    "text": "蛤蜊墨镜"
  },
  {
    "label": "EYE029",
    "text": "球形墨镜BC925"
  },
  {
    "label": "EYE030",
    "text": "眼鲷墨镜"
  },
  {
    "label": "EYE031",
    "text": "粗框方形眼镜"
  },
  {
    "label": "EYE032",
    "text": "完美眼罩"
  },
  {
    "label": "HAT000",
    "text": "龙虾登山帽"
  },
  {
    "label": "HAT001",
    "text": "野外观察圆边帽"
  },
  {
    "label": "HAT002",
    "text": "露营圆边帽"
  },
  {
    "label": "HAT003",
    "text": "河豚铃铛圆边帽"
  },
  {
    "label": "HAT004",
    "text": "斗笠"
  },
  {
    "label": "HAT005",
    "text": "鱿鱼草帽"
  },
  {
    "label": "HAT006",
    "text": "经典鱿鱼草帽"
  },
  {
    "label": "HAT007",
    "text": "宝藏安全帽"
  },
  {
    "label": "HAT008",
    "text": "鱿鱼渔夫帽"
  },
  {
    "label": "HAT009",
    "text": "补丁圆边帽"
  },
  {
    "label": "HAT010",
    "text": "遮阳郁金香帽"
  },
  {
    "label": "HAT011",
    "text": "河豚铃铛双层圆边帽"
  },
  {
    "label": "HAT012",
    "text": "贝纹斗笠"
  },
  {
    "label": "HAT013",
    "text": "帆立植物圆边帽"
  },
  {
    "label": "HAT014",
    "text": "山形圆边帽"
  },
  {
    "label": "HAT015",
    "text": "经典圆顶礼帽"
  },
  {
    "label": "HAT016",
    "text": "模板喷画牛仔布帽"
  },
  {
    "label": "HAT017",
    "text": "帆立贝牛仔帽"
  },
  {
    "label": "HAT018",
    "text": "剥壳海胆钩织帽"
  },
  {
    "label": "HAT019",
    "text": "草帽"
  },
  {
    "label": "HAT020",
    "text": "泽酷暖流圆顶礼帽"
  },
  {
    "label": "HAT021",
    "text": "河豚铃铛三层圆边帽"
  },
  {
    "label": "HAT022",
    "text": "桑拿圆边帽"
  },
  {
    "label": "HAT023",
    "text": "海百合派帽"
  },
  {
    "label": "HDP000",
    "text": "工作室耳机"
  },
  {
    "label": "HDP001",
    "text": "极光耳机"
  },
  {
    "label": "HDP002",
    "text": "抗噪耳机"
  },
  {
    "label": "HDP003",
    "text": "鳍挂式耳机HDP"
  },
  {
    "label": "HDP004",
    "text": "立体声录音机耳机"
  },
  {
    "label": "HDP007",
    "text": "耳朵章鱼8"
  },
  {
    "label": "HDP008",
    "text": "骨传导鳍挂式耳机EP"
  },
  {
    "label": "HDP009",
    "text": "耳朵章鱼8 RAW"
  },
  {
    "label": "HDP010",
    "text": "耳机90-d"
  },
  {
    "label": "HDP011",
    "text": "迷彩耳机 土遁"
  },
  {
    "label": "HDP012",
    "text": "迷彩耳机 水遁"
  },
  {
    "label": "VIS000",
    "text": "球童中空遮阳帽"
  },
  {
    "label": "VIS001",
    "text": "烧河豚中空遮阳帽"
  },
  {
    "label": "VIS002",
    "text": "艳阳中空遮阳帽"
  },
  {
    "label": "VIS003",
    "text": "暇古中空遮阳帽"
  },
  {
    "label": "VIS004",
    "text": "脸部中空遮阳帽"
  },
  {
    "label": "VIS005",
    "text": "龙10中空遮阳帽"
  },
  {
    "label": "VIS006",
    "text": "镜墨中空遮阳帽"
  },
  {
    "label": "MET000",
    "text": "单车安全帽"
  },
  {
    "label": "MET002",
    "text": "夜视镜"
  },
  {
    "label": "MET004",
    "text": "滑板安全帽"
  },
  {
    "label": "MET005",
    "text": "遮阳板安全帽"
  },
  {
    "label": "MET006",
    "text": "赞助商标摩托车安全帽"
  },
  {
    "label": "MET007",
    "text": "伊卡洛斯曲棍球安全帽"
  },
  {
    "label": "MET008",
    "text": "雾面摩托车安全帽"
  },
  {
    "label": "MET009",
    "text": "装饰奖章鱼安全帽"
  },
  {
    "label": "MET011",
    "text": "护目镜大安全帽"
  },
  {
    "label": "MET012",
    "text": "贝壳安全帽"
  },
  {
    "label": "MET013",
    "text": "号角安全帽BF"
  },
  {
    "label": "MET014",
    "text": "捕手面罩FU"
  },
  {
    "label": "MET015",
    "text": "捕手面罩FC"
  },
  {
    "label": "MET016",
    "text": "头部护具 素色"
  },
  {
    "label": "MET017",
    "text": "头部护具 条石鲷"
  },
  {
    "label": "MET018",
    "text": "条石鲷ST安全帽 主场"
  },
  {
    "label": "MET019",
    "text": "幼河豚安全帽"
  },
  {
    "label": "MET020",
    "text": "鱿鱼贴身安全帽PRO"
  },
  {
    "label": "MET021",
    "text": "鱿鱼贴身安全帽"
  },
  {
    "label": "MSK000",
    "text": "章鱼面罩"
  },
  {
    "label": "MSK001",
    "text": "护目镜面罩"
  },
  {
    "label": "MSK002",
    "text": "佩斯利花纹丝巾"
  },
  {
    "label": "MSK003",
    "text": "鱿鱼骨口罩"
  },
  {
    "label": "MSK004",
    "text": "喷漆面罩"
  },
  {
    "label": "MSK005",
    "text": "无法无天口罩"
  },
  {
    "label": "MSK006",
    "text": "章鱼王星星口罩"
  },
  {
    "label": "MSK007",
    "text": "鱿鱼交叉防护口罩"
  },
  {
    "label": "MSK008",
    "text": "暖流口罩"
  },
  {
    "label": "MSK009",
    "text": "王者口罩"
  },
  {
    "label": "MSK010",
    "text": "越野摩托车连鼻防护面罩"
  },
  {
    "label": "MSK011",
    "text": "锻品口罩"
  },
  {
    "label": "MSK012",
    "text": "锻品口罩 数位迷彩"
  },
  {
    "label": "MSK014",
    "text": "水滴鱼微笑面罩"
  },
  {
    "label": "MSK015",
    "text": "可爱鱼鳃面罩"
  },
  {
    "label": "MSK016",
    "text": "黑鸢防护面罩R255"
  },
  {
    "label": "MSK017",
    "text": "吾名口罩"
  },
  {
    "label": "MSK018",
    "text": "黑鸢防护面罩RGB0"
  },
  {
    "label": "MSK019",
    "text": "大口螈面罩"
  },
  {
    "label": "HBD001",
    "text": "篮球头带"
  },
  {
    "label": "HBD002",
    "text": "壁球头带"
  },
  {
    "label": "HBD003",
    "text": "网球头带"
  },
  {
    "label": "HBD004",
    "text": "跑步头带"
  },
  {
    "label": "HBD005",
    "text": "足球头带"
  },
  {
    "label": "HBD007",
    "text": "烧河豚丝巾 饼干"
  },
  {
    "label": "HBD008",
    "text": "烧河豚丝巾 黑色"
  },
  {
    "label": "HBD009",
    "text": "乒乓头带"
  },
  {
    "label": "AMB000",
    "text": "鱿鱼发夹"
  },
  {
    "label": "AMB001",
    "text": "武士头盔"
  },
  {
    "label": "AMB002",
    "text": "动力面罩"
  },
  {
    "label": "AMB003",
    "text": "鱿鱼回纹针"
  },
  {
    "label": "AMB004",
    "text": "鱿鱼影子面罩 乙"
  },
  {
    "label": "AMB005",
    "text": "动力面罩 原型"
  },
  {
    "label": "AMB006",
    "text": "姬伴皇冠S"
  },
  {
    "label": "AMB007",
    "text": "饭友耳机"
  },
  {
    "label": "AMB008",
    "text": "魔力圆边帽"
  },
  {
    "label": "AMB009",
    "text": "章鱼钢盔"
  },
  {
    "label": "AMB010",
    "text": "鱼奇奇"
  },
  {
    "label": "AMB011",
    "text": "奶嘴骨"
  },
  {
    "label": "AMB012",
    "text": "章鱼钵卷头带"
  },
  {
    "label": "AMB013",
    "text": "狂战士钢盔"
  },
  {
    "label": "AMB016",
    "text": "鱿鱼影子面罩 甲"
  },
  {
    "label": "AMB017",
    "text": "姬伴皇冠L"
  },
  {
    "label": "AMB018",
    "text": "颊白的面具"
  },
  {
    "label": "AMB019",
    "text": "翁长的面具"
  },
  {
    "label": "AMB020",
    "text": "曼蛇的面具"
  },
  {
    "label": "AMB021",
    "text": "世界级MC皇冠"
  },
  {
    "label": "AMB022",
    "text": "世界级DJ耳机"
  },
  {
    "label": "MSN000",
    "text": "英雄头部装备 复制"
  },
  {
    "label": "MSN004",
    "text": "盔甲头盔 复制"
  },
  {
    "label": "MSN109",
    "text": "熊耳朵"
  },
  {
    "label": "MSN110",
    "text": "绒毛章鱼女战士护目镜"
  },
  {
    "label": "MSN111",
    "text": "ケタコゾネスゴーグルワカメ"
  },
  {
    "label": "MSN301",
    "text": "生存耳朵"
  },
  {
    "label": "MSN302",
    "text": "英雄头饰装备Lv1"
  },
  {
    "label": "MSN303",
    "text": "英雄头饰装备Lv2"
  },
  {
    "label": "MSN304",
    "text": "英雄头饰装备Lv3"
  },
  {
    "label": "MSN305",
    "text": "英雄头饰装备ST"
  },
  {
    "label": "MSN306",
    "text": "英雄头饰装备 复制"
  },
  {
    "label": "MSN307",
    "text": "英雄耳挂 复制"
  },
  {
    "label": "MSN310",
    "text": "传说的帽子"
  },
  {
    "label": "MSN311",
    "text": "指挥官帽 复制"
  },
  {
    "label": "COP100",
    "text": "头灯钢盔"
  },
  {
    "label": "COP101",
    "text": "防尘口罩2.5"
  },
  {
    "label": "COP102",
    "text": "钢铁面具"
  },
  {
    "label": "COP103",
    "text": "守卫军圆边帽"
  },
  {
    "label": "COP104",
    "text": "女战士风望远镜"
  },
  {
    "label": "COP105",
    "text": "传奇帽子"
  },
  {
    "label": "COP107",
    "text": "止汗头巾"
  },
  {
    "label": "COP108",
    "text": "抽绳帽 复制"
  },
  {
    "label": "COP109",
    "text": "别针海军圆边帽"
  },
  {
    "label": "COP110",
    "text": "金线鱼帽"
  },
  {
    "label": "COP111",
    "text": "视野中空遮阳帽"
  },
  {
    "label": "COP112",
    "text": "消防盔"
  },
  {
    "label": "COP113",
    "text": "飞行员安全帽"
  },
  {
    "label": "COP114",
    "text": "高科技望远镜"
  },
  {
    "label": "COP115",
    "text": "灵光一闪安全帽"
  },
  {
    "label": "COP116",
    "text": "蛸壶安全帽"
  },
  {
    "label": "COP117",
    "text": "守卫者帽"
  },
  {
    "label": "COP118",
    "text": "视魄UD"
  },
  {
    "label": "COP119",
    "text": "超未来头盔"
  },
  {
    "label": "COP120",
    "text": "3D眼镜"
  },
  {
    "label": "COP121",
    "text": "El Calamares"
  },
  {
    "label": "COP122",
    "text": "将军安全帽"
  },
  {
    "label": "COP123",
    "text": "打工安全帽 复制"
  },
  {
    "label": "ACC003",
    "text": "鱿鱼章鱼耳饰"
  },
  {
    "label": "HAP000",
    "text": "僵僵帽"
  },
  {
    "label": "HAP001",
    "text": "海蛞蝓角发箍"
  },
  {
    "label": "HAP002",
    "text": "曲棍球面具"
  },
  {
    "label": "HAP003",
    "text": "灯笼鱼橡皮面罩"
  },
  {
    "label": "HAP004",
    "text": "派对装饰三角帽"
  },
  {
    "label": "HAP005",
    "text": "新年眼镜DX"
  },
  {
    "label": "HAP006",
    "text": "华丽扭绳头带"
  },
  {
    "label": "HAP007",
    "text": "花园鳗快乐圆边帽"
  },
  {
    "label": "HAP008",
    "text": "活动纪念帽 鲁冰紫"
  },
  {
    "label": "HAP009",
    "text": "活动纪念帽 荠菜绿"
  },
  {
    "label": "HAP010",
    "text": "活动纪念帽 虞美人橘"
  },
  {
    "label": "HAP011",
    "text": "活动纪念帽 石竹粉"
  },
  {
    "label": "HAP012",
    "text": "火焰鸡冠帽"
  },
  {
    "label": "HAP013",
    "text": "巨鱼骨盔"
  },
  {
    "label": "HAP014",
    "text": "宇宙天线"
  },
  {
    "label": "HAP015",
    "text": "正义之脑"
  },
  {
    "label": "HAP016",
    "text": "木乃鱿裹头布"
  },
  {
    "label": "HAP017",
    "text": "石狗公队长"
  },
  {
    "label": "HAP018",
    "text": "吓人面具"
  },
  {
    "label": "HAP019",
    "text": "旗鱼面罩"
  },
  {
    "label": "HAP020",
    "text": "钩子怪盗帽"
  },
  {
    "label": "HAP021",
    "text": "贝壳头环"
  },
  {
    "label": "HAP022",
    "text": "金鱼舞会面具"
  },
  {
    "label": "HAP023",
    "text": "章鱼珍珠皇冠"
  },
  {
    "label": "HAP024",
    "text": "活动纪念墨镜 风信子"
  },
  {
    "label": "HAP025",
    "text": "活动纪念墨镜 四叶草"
  },
  {
    "label": "HAP026",
    "text": "活动纪念墨镜 银莲花"
  },
  {
    "label": "HAP027",
    "text": "活动纪念墨镜 蒲公英"
  },
  {
    "label": "HAP028",
    "text": "祭典面具 石狗公"
  },
  {
    "label": "HAP029",
    "text": "祭典面具 箱河豚"
  },
  {
    "label": "HAP030",
    "text": "祭典面具 幼河豚"
  },
  {
    "label": "HAP031",
    "text": "祭典面具 猿蟹"
  },
  {
    "label": "HAP032",
    "text": "祭典面具 狐狸"
  },
  {
    "label": "HAP033",
    "text": "祭典面具 笑脸"
  },
  {
    "label": "HAP034",
    "text": "Now or Never 发箍"
  },
  {
    "label": "HAP035",
    "text": "Now or Never 皇冠"
  },
  {
    "label": "HAP036",
    "text": "Now or Never 帽"
  },
  {
    "label": "HAP037",
    "text": "Now or Never 耳饰"
  },
  {
    "label": "HAP038",
    "text": "Now or Never 发夹"
  },
  {
    "label": "HAP039",
    "text": "Now or Never 假发"
  },
  {
    "label": "HAP040",
    "text": "Now or Never 头饰"
  },
  {
    "label": "COP001",
    "text": "バイトヘルメット オレンジ"
  },
  {
    "label": "COP002",
    "text": "バイトヘルメット グリーン"
  },
  {
    "label": "COP003",
    "text": "バイトヘルメット イエロー"
  },
  {
    "label": "COP004",
    "text": "バイトヘルメット ピンク"
  },
  {
    "label": "COP005",
    "text": "バイトヘルメット ブルー"
  },
  {
    "label": "COP006",
    "text": "バイトヘルメット ブラック"
  },
  {
    "label": "COP007",
    "text": "バイトヘルメット ホワイト"
  },
  {
    "label": "COP008",
    "text": "バイトキャップ グリーン"
  },
  {
    "label": "COP009",
    "text": "バイトキャップ グレー"
  },
  {
    "label": "COP010",
    "text": "バイトキャップ ブルー"
  },
  {
    "label": "COP011",
    "text": "バイトキャップ ブラック"
  },
  {
    "label": "COP012",
    "text": "バイトヘルメット ネオン"
  },
  {
    "label": "COP013",
    "text": "バイトヘルメット カーキ"
  },
  {
    "label": "COP014",
    "text": "バイトヘルメット レッド"
  },
  {
    "label": "COP015",
    "text": "バイトキャップ ホワイト"
  },
  {
    "label": "COP016",
    "text": "バイトキャップ イエロー"
  },
  {
    "label": "COP017",
    "text": "バイトキャップ ネイビー"
  },
  {
    "label": "COP018",
    "text": "バイトヘルメット シルバー"
  },
  {
    "label": "COP019",
    "text": "バイトヘルメット ゴールド"
  },
  {
    "label": "COP020",
    "text": "バイトヘルメット プリズム"
  },
  {
    "label": "COP021",
    "text": "バイトヘルメット ブロッカー"
  },
  {
    "label": "INV000",
    "text": "INVISIBLE"
  },
  {
    "label": "TRG000",
    "text": "阿龙帽"
  },
  {
    "label": "TRG001",
    "text": "评审耳"
  },
  {
    "label": "SDODR000",
    "text": "オーダーピアス"
  },
  {
    "label": "SDODR001",
    "text": "オーダーレギュ"
  },
  {
    "label": "SDODR100",
    "text": "イカイノカノンノカメン"
  },
  {
    "label": "SDODR101",
    "text": "イカイノコブンノカメン"
  },
  {
    "label": "SDODR200",
    "text": "秩序耳饰 复制"
  },
  {
    "label": "SDODR201",
    "text": "秩序呼吸调节器 复制"
  },
  {
    "label": "SDODR202",
    "text": "思想改造VE"
  },
  {
    "label": "SDODR203",
    "text": "异界面具"
  },
  {
    "label": "SDODR204",
    "text": "小姬发箍"
  }
]