[
  {
    "label": "FST000",
    "text": "帆布鞋 白色"
  },
  {
    "label": "SLO000",
    "text": "低筒鞋 蓝色"
  },
  {
    "label": "SLO001",
    "text": "帆布鞋 香蕉"
  },
  {
    "label": "SLO002",
    "text": "低筒鞋 绿色限定版"
  },
  {
    "label": "SLO003",
    "text": "海马鞋 白色"
  },
  {
    "label": "SLO004",
    "text": "低筒鞋 橘色"
  },
  {
    "label": "SLO005",
    "text": "海马鞋 黑色皮革"
  },
  {
    "label": "SLO006",
    "text": "帆布鞋 小丑鱼"
  },
  {
    "label": "SLO007",
    "text": "海马鞋 黄色"
  },
  {
    "label": "SLO008",
    "text": "魔鬼毡鞋 白色"
  },
  {
    "label": "SLO009",
    "text": "魔鬼毡鞋 红色"
  },
  {
    "label": "SLO010",
    "text": "钉鞋 橙红"
  },
  {
    "label": "SLO011",
    "text": "钉鞋 稀有"
  },
  {
    "label": "SLO012",
    "text": "攀岩鞋 食舌虫"
  },
  {
    "label": "SLO013",
    "text": "攀岩鞋 叶樱"
  },
  {
    "label": "SLO014",
    "text": "系带鞋 绿色"
  },
  {
    "label": "SLO015",
    "text": "无鞋带贝壳鞋 白色"
  },
  {
    "label": "SLO016",
    "text": "无鞋带贝壳鞋 蓝色"
  },
  {
    "label": "SLO017",
    "text": "滑板查卡靴 灰色"
  },
  {
    "label": "SLO018",
    "text": "滑板查卡靴 民族风"
  },
  {
    "label": "SLO019",
    "text": "滑板查卡靴 知更鸟"
  },
  {
    "label": "SLO020",
    "text": "钉鞋 剑尖鱿特制"
  },
  {
    "label": "SLO021",
    "text": "NNJ运动鞋 绿色"
  },
  {
    "label": "SLO022",
    "text": "基地训练鞋 入门"
  },
  {
    "label": "SLO023",
    "text": "蛤蜊600 甘露酱油"
  },
  {
    "label": "SLO024",
    "text": "基地训练鞋 高手"
  },
  {
    "label": "SLO025",
    "text": "蛤蜊600 琥珀"
  },
  {
    "label": "SLO026",
    "text": "单车鞋 能量"
  },
  {
    "label": "SLO027",
    "text": "单车鞋 苏打"
  },
  {
    "label": "SHI000",
    "text": "高筒海马鞋 红色"
  },
  {
    "label": "SHI001",
    "text": "高筒海马鞋 僵尸"
  },
  {
    "label": "SHI002",
    "text": "高筒帆布鞋 蘑菇"
  },
  {
    "label": "SHI003",
    "text": "高筒海马鞋 紫色"
  },
  {
    "label": "SHI004",
    "text": "高筒帆布鞋 黄麻"
  },
  {
    "label": "SHI005",
    "text": "高筒帆布鞋 番茄"
  },
  {
    "label": "SHI006",
    "text": "高筒海马鞋 金色"
  },
  {
    "label": "SHI008",
    "text": "莫卡辛鞋 鲨鱼"
  },
  {
    "label": "SHI009",
    "text": "莫卡辛鞋 大白鲨"
  },
  {
    "label": "SHI010",
    "text": "贝壳鞋 巧克力"
  },
  {
    "label": "SHI011",
    "text": "贝壳鞋 薄荷"
  },
  {
    "label": "SHI012",
    "text": "贝壳鞋 黑色"
  },
  {
    "label": "SHI013",
    "text": "莫卡辛鞋 食人鱼"
  },
  {
    "label": "SHI014",
    "text": "海苔卷鞋750 白色"
  },
  {
    "label": "SHI015",
    "text": "海苔卷鞋750 黑色"
  },
  {
    "label": "SHI016",
    "text": "虎鲸高筒鞋 日落"
  },
  {
    "label": "SHI017",
    "text": "饵木钓鞋4 红配黑"
  },
  {
    "label": "SHI018",
    "text": "饵木钓鞋4 蓝配黑"
  },
  {
    "label": "SHI019",
    "text": "海蛞蝓镇高筒鞋 灰色"
  },
  {
    "label": "SHI020",
    "text": "虎鲸高筒鞋"
  },
  {
    "label": "SHI022",
    "text": "皇家靴 海军"
  },
  {
    "label": "SHI023",
    "text": "海蛞蝓镇高筒鞋 琥珀"
  },
  {
    "label": "SHI024",
    "text": "综合卷鞋750 黄色"
  },
  {
    "label": "SHI025",
    "text": "饵木钓鞋5 白配红"
  },
  {
    "label": "SHI026",
    "text": "饵木钓鞋5 蜂蜜橘子"
  },
  {
    "label": "SHI027",
    "text": "饵木钓鞋4 黄配深蓝"
  },
  {
    "label": "SHI028",
    "text": "虎鲸高筒鞋 梭织"
  },
  {
    "label": "SHI029",
    "text": "综合卷鞋750 绿色"
  },
  {
    "label": "SHI030",
    "text": "综合卷鞋750 紫色"
  },
  {
    "label": "SHI031",
    "text": "综合卷鞋750 红色"
  },
  {
    "label": "SHI032",
    "text": "综合卷鞋750 蓝色"
  },
  {
    "label": "SHI033",
    "text": "综合卷鞋750 橘色"
  },
  {
    "label": "SHI034",
    "text": "能力条纹鞋 红色"
  },
  {
    "label": "SHI035",
    "text": "能力条纹鞋 蓝色"
  },
  {
    "label": "SHI036",
    "text": "条纹鞋 剑尖鱿特制"
  },
  {
    "label": "SHI037",
    "text": "芝麻盐巴鞋270"
  },
  {
    "label": "SHI038",
    "text": "饵木钓鞋5 黑配蓝"
  },
  {
    "label": "SHI039",
    "text": "虎鲸高筒鞋 热情"
  },
  {
    "label": "SHI040",
    "text": "高筒帆布鞋 松露"
  },
  {
    "label": "SHI042",
    "text": "能力重置高筒鞋"
  },
  {
    "label": "SHI043",
    "text": "天亚8篮球鞋 红色"
  },
  {
    "label": "SHI044",
    "text": "天亚8篮球鞋 紫色"
  },
  {
    "label": "SHI045",
    "text": "01STER 琥珀"
  },
  {
    "label": "SHI046",
    "text": "鹈足青螺高筒鞋"
  },
  {
    "label": "SHI047",
    "text": "迷彩运动鞋 土遁"
  },
  {
    "label": "SHI048",
    "text": "迷彩运动鞋 水遁"
  },
  {
    "label": "SHI049",
    "text": "河鲈高筒鞋 白色"
  },
  {
    "label": "SHI050",
    "text": "饵木钓鞋3 蓝黑白"
  },
  {
    "label": "SHI051",
    "text": "饵木钓鞋3 红白黑"
  },
  {
    "label": "SHI052",
    "text": "01STER 甘露酱油"
  },
  {
    "label": "SHI053",
    "text": "饵木钓鞋3 ZY"
  },
  {
    "label": "SHT000",
    "text": "糖果运动鞋 粉红色"
  },
  {
    "label": "SHT001",
    "text": "箭标鞋 橘色"
  },
  {
    "label": "SHT002",
    "text": "海蛞蝓鞋 黄色"
  },
  {
    "label": "SHT003",
    "text": "箭标鞋 白色"
  },
  {
    "label": "SHT004",
    "text": "糖果运动鞋 蓝绿色"
  },
  {
    "label": "SHT005",
    "text": "海蛞蝓鞋 蓝色"
  },
  {
    "label": "SHT006",
    "text": "海蛞蝓鞋 红色"
  },
  {
    "label": "SHT007",
    "text": "海蛞蝓鞋 紫色"
  },
  {
    "label": "SHT008",
    "text": "箭标鞋 狂热"
  },
  {
    "label": "SHT009",
    "text": "糖果运动鞋 黑色"
  },
  {
    "label": "SHT010",
    "text": "糖果运动鞋 紫花地丁"
  },
  {
    "label": "SHT011",
    "text": "糖果运动鞋 金丝雀"
  },
  {
    "label": "SHT012",
    "text": "艾洛网眼运动鞋 黄色"
  },
  {
    "label": "SHT013",
    "text": "箭标鞋 剑尖鱿特制"
  },
  {
    "label": "SHT014",
    "text": "艾洛网眼运动鞋 朱红色"
  },
  {
    "label": "SHT015",
    "text": "皇耆鞋CaO"
  },
  {
    "label": "SHT016",
    "text": "皇耆鞋Ag"
  },
  {
    "label": "SHT017",
    "text": "皇耆鞋Au"
  },
  {
    "label": "SHT018",
    "text": "海蛞蝓鞋 伏特95"
  },
  {
    "label": "SHT019",
    "text": "箭标鞋 运动"
  },
  {
    "label": "SHT020",
    "text": "鱿鱼生鱼片 Scramble"
  },
  {
    "label": "SHT021",
    "text": "佛朗明哥孔雀鱼运动鞋"
  },
  {
    "label": "SHT022",
    "text": "MOVE跑鞋 红色"
  },
  {
    "label": "SHT023",
    "text": "MODZ-9"
  },
  {
    "label": "SHT024",
    "text": "贝壳柱WO"
  },
  {
    "label": "SHT025",
    "text": "双鱼翅"
  },
  {
    "label": "SHT026",
    "text": "虾蛄关节运动鞋"
  },
  {
    "label": "SHT027",
    "text": "MODZ-9S"
  },
  {
    "label": "SHT028",
    "text": "水母套鞋AKA"
  },
  {
    "label": "SHT029",
    "text": "水母套鞋MIZ"
  },
  {
    "label": "SHT030",
    "text": "纯黑孔雀鱼运动鞋"
  },
  {
    "label": "SHT031",
    "text": "LT90-3"
  },
  {
    "label": "SDL000",
    "text": "鳄鱼鞋 牡蛎"
  },
  {
    "label": "SDL001",
    "text": "鳄鱼鞋 巧克力"
  },
  {
    "label": "SDL003",
    "text": "三角带运动凉鞋 霓虹"
  },
  {
    "label": "SDL004",
    "text": "BB拖鞋"
  },
  {
    "label": "SDL005",
    "text": "三角带运动凉鞋 雪白"
  },
  {
    "label": "SDL006",
    "text": "三角带运动凉鞋 光亮"
  },
  {
    "label": "SDL007",
    "text": "烧河豚浴室拖鞋 红色"
  },
  {
    "label": "SDL008",
    "text": "烧河豚浴室拖鞋 黄色"
  },
  {
    "label": "SDL009",
    "text": "藤壶平底拖鞋"
  },
  {
    "label": "SDL010",
    "text": "鱼骨编织凉鞋"
  },
  {
    "label": "SDL011",
    "text": "箭标拖鞋 蓝黄色"
  },
  {
    "label": "SDL012",
    "text": "BS拖鞋"
  },
  {
    "label": "SDL013",
    "text": "非常非常拖鞋 橘色"
  },
  {
    "label": "SDL014",
    "text": "箭标拖鞋 紫黄色"
  },
  {
    "label": "SDL015",
    "text": "无法无天运动凉鞋 皮革"
  },
  {
    "label": "SDL016",
    "text": "鱿鱼骨拖鞋"
  },
  {
    "label": "SDL017",
    "text": "非常非常拖鞋 洋红色"
  },
  {
    "label": "SDL018",
    "text": "非常非常拖鞋 绿蓝色"
  },
  {
    "label": "SDL019",
    "text": "泽酷鳄鱼鞋 海军蓝"
  },
  {
    "label": "SDL020",
    "text": "泽酷鳄鱼鞋 红色"
  },
  {
    "label": "SDL021",
    "text": "泽酷鳄鱼鞋 黄色"
  },
  {
    "label": "SDL022",
    "text": "泽酷鳄鱼鞋 绿色"
  },
  {
    "label": "SDL023",
    "text": "鱿鱼交锋木底鞋"
  },
  {
    "label": "SDL024",
    "text": "鱼骨木底鞋"
  },
  {
    "label": "CFS000",
    "text": "休闲鞋 蓝莓"
  },
  {
    "label": "CFS001",
    "text": "休闲鞋 阿科比果"
  },
  {
    "label": "TRS000",
    "text": "登山鞋 轻量"
  },
  {
    "label": "TRS001",
    "text": "登山鞋 订制"
  },
  {
    "label": "TRS002",
    "text": "登山鞋 专业"
  },
  {
    "label": "BOT000",
    "text": "越野摩托车靴"
  },
  {
    "label": "BOT001",
    "text": "磨砂皮革靴 黄色"
  },
  {
    "label": "BOT002",
    "text": "磨砂皮革靴 红色"
  },
  {
    "label": "BOT003",
    "text": "越野摩托车靴 纯蓝色"
  },
  {
    "label": "BOT004",
    "text": "雨靴 青苔绿"
  },
  {
    "label": "BOT005",
    "text": "雨靴 樱桃红"
  },
  {
    "label": "BOT006",
    "text": "摇滚靴 白色"
  },
  {
    "label": "BOT007",
    "text": "摇滚靴 樱桃"
  },
  {
    "label": "BOT008",
    "text": "摇滚靴 黄色"
  },
  {
    "label": "BOT009",
    "text": "雨靴 泡泡"
  },
  {
    "label": "BOT010",
    "text": "羽绒靴 牛乳"
  },
  {
    "label": "BOT011",
    "text": "羽绒靴 冰原"
  },
  {
    "label": "BOT012",
    "text": "狩猎靴"
  },
  {
    "label": "BOT013",
    "text": "摇滚靴 黑色"
  },
  {
    "label": "BOT014",
    "text": "深海皮靴"
  },
  {
    "label": "BOT016",
    "text": "无法无天蜘蛛网6孔靴"
  },
  {
    "label": "BOT017",
    "text": "深绿皮靴"
  },
  {
    "label": "BOT018",
    "text": "茶吧狩猎靴"
  },
  {
    "label": "BOT019",
    "text": "越野摩托车靴M-DCB"
  },
  {
    "label": "BOT020",
    "text": "磨砂皮革靴xSJ"
  },
  {
    "label": "BOT021",
    "text": "猎鸭靴 白雪"
  },
  {
    "label": "BOT022",
    "text": "猎鸭靴 灌木"
  },
  {
    "label": "BOT023",
    "text": "双髻鲨靴 红色"
  },
  {
    "label": "BOT024",
    "text": "双髻鲨靴 斑纹"
  },
  {
    "label": "BOT025",
    "text": "摇滚靴 粉红色"
  },
  {
    "label": "BOT026",
    "text": "暖暖靴"
  },
  {
    "label": "BOT027",
    "text": "配饰迷彩靴"
  },
  {
    "label": "BOT028",
    "text": "越野摩托车靴M-DCR"
  },
  {
    "label": "BOT029",
    "text": "猎鸭靴 仙人掌"
  },
  {
    "label": "BOT030",
    "text": "工程师靴"
  },
  {
    "label": "SLP000",
    "text": "懒人鞋 蓝色"
  },
  {
    "label": "SLP001",
    "text": "懒人鞋 红色"
  },
  {
    "label": "SLP002",
    "text": "懒人鞋 千鸟"
  },
  {
    "label": "SLP003",
    "text": "懒人鞋 圆点"
  },
  {
    "label": "SLP004",
    "text": "幼河豚懒人鞋"
  },
  {
    "label": "LTS000",
    "text": "厚底鞋 白色"
  },
  {
    "label": "LTS001",
    "text": "厚底鞋 樱桃"
  },
  {
    "label": "LTS002",
    "text": "厚底鞋 绿松石"
  },
  {
    "label": "LTS003",
    "text": "鱿鱼墨汁雕花鞋"
  },
  {
    "label": "LTS004",
    "text": "烤鱿鱼雕花鞋"
  },
  {
    "label": "LTS005",
    "text": "鱿鱼僧侣鞋 驼色"
  },
  {
    "label": "LTS006",
    "text": "烟雾雕花鞋"
  },
  {
    "label": "LTS007",
    "text": "海军雕花鞋 红底"
  },
  {
    "label": "LTS008",
    "text": "灰色雕花鞋 黄底"
  },
  {
    "label": "LTS009",
    "text": "鱿鱼僧侣鞋 喷射黑"
  },
  {
    "label": "LTS010",
    "text": "无法无天厚底鞋 哈瓦那辣椒"
  },
  {
    "label": "LTS011",
    "text": "无法无天厚底鞋 爵士经典"
  },
  {
    "label": "LTS013",
    "text": "查卡靴 三明治"
  },
  {
    "label": "LTS014",
    "text": "帆船鞋 深咖啡色"
  },
  {
    "label": "LTS015",
    "text": "帆船鞋 拼色"
  },
  {
    "label": "LTS016",
    "text": "海马皮革乐福鞋"
  },
  {
    "label": "AMB000",
    "text": "学校乐福鞋 高级"
  },
  {
    "label": "AMB001",
    "text": "武士鞋"
  },
  {
    "label": "AMB002",
    "text": "动力靴"
  },
  {
    "label": "AMB003",
    "text": "流苏乐福鞋 宽松"
  },
  {
    "label": "AMB004",
    "text": "忍者鞋"
  },
  {
    "label": "AMB005",
    "text": "动力靴 原型"
  },
  {
    "label": "AMB006",
    "text": "姬伴运动鞋"
  },
  {
    "label": "AMB007",
    "text": "饭友懒人鞋"
  },
  {
    "label": "AMB008",
    "text": "魔力靴"
  },
  {
    "label": "AMB009",
    "text": "章鱼护腿鞋"
  },
  {
    "label": "AMB010",
    "text": "鱼奇奇鞋"
  },
  {
    "label": "AMB011",
    "text": "韦驮天绑带凉鞋"
  },
  {
    "label": "AMB012",
    "text": "脚踝支撑带"
  },
  {
    "label": "AMB013",
    "text": "狂战士胫甲"
  },
  {
    "label": "AMB014",
    "text": "学校乐福鞋 醋鱿鱼须"
  },
  {
    "label": "AMB015",
    "text": "流苏乐福鞋 醋鱿鱼须"
  },
  {
    "label": "AMB018",
    "text": "颊白的木屐"
  },
  {
    "label": "AMB019",
    "text": "翁长的足袋"
  },
  {
    "label": "AMB020",
    "text": "曼蛇的长靴"
  },
  {
    "label": "AMB021",
    "text": "世界级MC靴子"
  },
  {
    "label": "AMB022",
    "text": "世界级DJ短靴"
  },
  {
    "label": "MSN000",
    "text": "英雄鞋 复制"
  },
  {
    "label": "MSN004",
    "text": "盔甲靴 复制"
  },
  {
    "label": "MSN110",
    "text": "绒毛章鱼女战士靴"
  },
  {
    "label": "MSN200",
    "text": "タコ・ブーツ"
  },
  {
    "label": "MSN301",
    "text": "生存鞋子"
  },
  {
    "label": "MSN302",
    "text": "英雄靴Lv1"
  },
  {
    "label": "MSN303",
    "text": "英雄靴Lv2"
  },
  {
    "label": "MSN304",
    "text": "英雄靴Lv3"
  },
  {
    "label": "MSN305",
    "text": "英雄靴ST"
  },
  {
    "label": "MSN306",
    "text": "英雄靴 复制"
  },
  {
    "label": "MSN307",
    "text": "生存鞋子 复制"
  },
  {
    "label": "MSN310",
    "text": "传说的草鞋"
  },
  {
    "label": "MSN311",
    "text": "指挥官人字拖 复制"
  },
  {
    "label": "COP101",
    "text": "愤怒厚底鞋"
  },
  {
    "label": "COP102",
    "text": "防滑反折靴"
  },
  {
    "label": "COP103",
    "text": "女战士风靴"
  },
  {
    "label": "COP104",
    "text": "结拜绳"
  },
  {
    "label": "COP105",
    "text": "鱿鱼蛙鞋"
  },
  {
    "label": "COP106",
    "text": "蛮颓木屐"
  },
  {
    "label": "COP107",
    "text": "轮滑鞋GT"
  },
  {
    "label": "COP108",
    "text": "魅力超群歌手靴"
  },
  {
    "label": "COP109",
    "text": "完胜鞋"
  },
  {
    "label": "HAP000",
    "text": "滑板查卡靴 姬伴"
  },
  {
    "label": "HAP001",
    "text": "饵木钓鞋4 小姬金"
  },
  {
    "label": "HAP002",
    "text": "摇滚靴 皇冠"
  },
  {
    "label": "HAP003",
    "text": "箭标鞋 拂晓"
  },
  {
    "label": "HAP004",
    "text": "滑板查卡靴 饭友"
  },
  {
    "label": "HAP005",
    "text": "饵木钓鞋4 饭田蓝"
  },
  {
    "label": "HAP006",
    "text": "能力条纹鞋 士兵"
  },
  {
    "label": "HAP007",
    "text": "懒人鞋 午夜"
  },
  {
    "label": "HAP008",
    "text": "饵木钓鞋3xHF"
  },
  {
    "label": "HAP009",
    "text": "饵木钓鞋3xOU"
  },
  {
    "label": "HAP010",
    "text": "饵木钓鞋3xMT"
  },
  {
    "label": "HAP011",
    "text": "鱼浆鳄鱼鞋 锁链"
  },
  {
    "label": "HAP012",
    "text": "鱼浆鳄鱼鞋 铆钉"
  },
  {
    "label": "HAP013",
    "text": "鱼浆鳄鱼鞋 墨流"
  },
  {
    "label": "HAP014",
    "text": "三重花纹猎鸭靴"
  },
  {
    "label": "HAP015",
    "text": "三重花纹高筒帆布鞋"
  },
  {
    "label": "HAP016",
    "text": "三重花纹浴室拖鞋"
  },
  {
    "label": "TRG000",
    "text": "AGE262"
  },
  {
    "label": "TRG001",
    "text": "评审鞋"
  },
  {
    "label": "SDODR000",
    "text": "オーダーシューズ"
  },
  {
    "label": "SDODR200",
    "text": "秩序鞋 复制"
  }
]