[
  {
    "label": "FST001",
    "text": "新叶鱿鱼T恤"
  },
  {
    "label": "FST002",
    "text": "新叶章鱼T恤"
  },
  {
    "label": "TES000",
    "text": "鱿鱼T恤 白色"
  },
  {
    "label": "TES001",
    "text": "鱿鱼眼T恤 黑色"
  },
  {
    "label": "TES003",
    "text": "鱿鱼眼T恤 浅蓝色"
  },
  {
    "label": "TES004",
    "text": "罗肯贝格T恤 白色"
  },
  {
    "label": "TES005",
    "text": "罗肯贝格T恤 黑色"
  },
  {
    "label": "TES006",
    "text": "鱿鱼T恤 黑色"
  },
  {
    "label": "TES007",
    "text": "晴天橘T恤"
  },
  {
    "label": "TES008",
    "text": "雨天蓝T恤"
  },
  {
    "label": "TES009",
    "text": "牙买加鱿鱼T恤"
  },
  {
    "label": "TES010",
    "text": "圆圆河豚T恤"
  },
  {
    "label": "TES011",
    "text": "薄荷绿T恤"
  },
  {
    "label": "TES012",
    "text": "葡萄紫T恤"
  },
  {
    "label": "TES013",
    "text": "向量图案T恤 红色"
  },
  {
    "label": "TES014",
    "text": "向量图案T恤 灰色"
  },
  {
    "label": "TES015",
    "text": "山岳T恤 蓝色"
  },
  {
    "label": "TES016",
    "text": "山岳T恤 象牙色"
  },
  {
    "label": "TES017",
    "text": "千鸟哈密瓜绿T恤"
  },
  {
    "label": "TES018",
    "text": "海盗风横纹T恤"
  },
  {
    "label": "TES019",
    "text": "海军风横纹T恤"
  },
  {
    "label": "TES020",
    "text": "烧河豚点阵T恤 白色"
  },
  {
    "label": "TES021",
    "text": "烧河豚点阵T恤 黑色"
  },
  {
    "label": "TES022",
    "text": "真格T恤 白色"
  },
  {
    "label": "TES023",
    "text": "真格T恤 黑色"
  },
  {
    "label": "TES026",
    "text": "肉食动物T恤"
  },
  {
    "label": "TES027",
    "text": "珍珠点点T恤"
  },
  {
    "label": "TES028",
    "text": "章鱼T恤"
  },
  {
    "label": "TES029",
    "text": "草食动物T恤"
  },
  {
    "label": "TES030",
    "text": "鱿鱼V领T恤 黑色"
  },
  {
    "label": "TES031",
    "text": "大LogoT恤 白色"
  },
  {
    "label": "TES032",
    "text": "五分袖套头衫"
  },
  {
    "label": "TES033",
    "text": "王者HK衬衫"
  },
  {
    "label": "TES034",
    "text": "烧河豚点阵T恤 灰色"
  },
  {
    "label": "TES035",
    "text": "鱿鱼V领T恤 白色"
  },
  {
    "label": "TES036",
    "text": "刺冠海胆摇滚T恤 白色"
  },
  {
    "label": "TES037",
    "text": "刺冠海胆摇滚T恤 黑色"
  },
  {
    "label": "TES038",
    "text": "乐队T恤 WETFLOOR"
  },
  {
    "label": "TES039",
    "text": "乐队T恤 SQUIDSQUAD"
  },
  {
    "label": "TES040",
    "text": "大LogoT恤 深蓝色"
  },
  {
    "label": "TES041",
    "text": "耸肩先生T恤"
  },
  {
    "label": "TES042",
    "text": "乐队T恤 ABXY"
  },
  {
    "label": "TES043",
    "text": "乐队T恤 HIGHTIDEERA"
  },
  {
    "label": "TES046",
    "text": "ω-3T恤"
  },
  {
    "label": "TES047",
    "text": "无法无天章鱼图案T恤"
  },
  {
    "label": "TES048",
    "text": "火热渐层T恤"
  },
  {
    "label": "TES049",
    "text": "暇古扎染T恤 银河"
  },
  {
    "label": "TES050",
    "text": "暇古扎染T恤 彩虹"
  },
  {
    "label": "TES051",
    "text": "耸肩小姐T恤"
  },
  {
    "label": "TES052",
    "text": "联盟T恤"
  },
  {
    "label": "TES053",
    "text": "好友T恤"
  },
  {
    "label": "TES054",
    "text": "艾洛眼口号T恤"
  },
  {
    "label": "TES055",
    "text": "冰原渐层T恤"
  },
  {
    "label": "TES056",
    "text": "章鱼皇HK衬衫"
  },
  {
    "label": "TES057",
    "text": "大LogoT恤 奇异果绿"
  },
  {
    "label": "TES058",
    "text": "大LogoT恤 黄金"
  },
  {
    "label": "TES059",
    "text": "章鱼皇HKT恤 绒面黑"
  },
  {
    "label": "TES060",
    "text": "章鱼皇HKT恤 绒面绿"
  },
  {
    "label": "TES063",
    "text": "鱿鱼丝T恤 白色"
  },
  {
    "label": "TES064",
    "text": "艾洛眼T恤 五分袖"
  },
  {
    "label": "TES066",
    "text": "无法无天T恤配颈链"
  },
  {
    "label": "TES067",
    "text": "无法无天T恤配手链"
  },
  {
    "label": "TES068",
    "text": "再版T恤 白色"
  },
  {
    "label": "TES069",
    "text": "再版T恤 蓝色"
  },
  {
    "label": "TES070",
    "text": "再版T恤 棕色"
  },
  {
    "label": "TES071",
    "text": "散寿司披肩 海苔卷"
  },
  {
    "label": "TES072",
    "text": "散寿司T恤 白米"
  },
  {
    "label": "TES073",
    "text": "散寿司T恤 糙米"
  },
  {
    "label": "TES074",
    "text": "散寿司T恤 红豆饭"
  },
  {
    "label": "TES075",
    "text": "依古T恤 五分袖"
  },
  {
    "label": "TES076",
    "text": "鱿鱼先生T恤"
  },
  {
    "label": "TES077",
    "text": "章鱼先生T恤"
  },
  {
    "label": "TES078",
    "text": "暇古T恤 重量级螃蟹"
  },
  {
    "label": "TES079",
    "text": "暇古T恤 金属外星生物"
  },
  {
    "label": "TES081",
    "text": "暇古T恤 五分袖"
  },
  {
    "label": "TES082",
    "text": "滚边T恤 凤梨"
  },
  {
    "label": "TES083",
    "text": "滚边T恤 苹果"
  },
  {
    "label": "TES084",
    "text": "暮光渐层T恤"
  },
  {
    "label": "TES085",
    "text": "日落渐层T恤"
  },
  {
    "label": "TES086",
    "text": "饮料T恤 番茄红素"
  },
  {
    "label": "TES087",
    "text": "饮料T恤 芝麻素"
  },
  {
    "label": "TES088",
    "text": "加百列T恤"
  },
  {
    "label": "TES089",
    "text": "飞机云横纹T恤"
  },
  {
    "label": "TES090",
    "text": "密集水滴鱼上衣 莱姆绿"
  },
  {
    "label": "TES091",
    "text": "密集水滴鱼上衣 莓果红"
  },
  {
    "label": "TES092",
    "text": "泽酷暖流T恤 白色"
  },
  {
    "label": "TES093",
    "text": "泽酷暖流T恤 海军蓝"
  },
  {
    "label": "TES094",
    "text": "散寿司披肩 红紫苏卷"
  },
  {
    "label": "TES095",
    "text": "王者透明T恤"
  },
  {
    "label": "TEL000",
    "text": "横纹长袖上衣 白色"
  },
  {
    "label": "TEL001",
    "text": "长袖上衣 黑色"
  },
  {
    "label": "TEL002",
    "text": "迷彩长袖上衣 紫色"
  },
  {
    "label": "TEL003",
    "text": "横纹长袖上衣 海军蓝"
  },
  {
    "label": "TEL004",
    "text": "泽酷插肩袖上衣"
  },
  {
    "label": "TEL005",
    "text": "学院风插肩袖上衣"
  },
  {
    "label": "TEL006",
    "text": "插肩袖上衣 黑色"
  },
  {
    "label": "TEL007",
    "text": "插肩袖上衣 白色"
  },
  {
    "label": "TEL008",
    "text": "战斗长袖上衣 白色"
  },
  {
    "label": "TEL009",
    "text": "横纹长袖上衣 青苔绿"
  },
  {
    "label": "TEL010",
    "text": "鱿鱼交叉长袖上衣"
  },
  {
    "label": "TEL011",
    "text": "钢铁先锋长袖上衣"
  },
  {
    "label": "TEL012",
    "text": "山岳横纹长袖上衣"
  },
  {
    "label": "TEL013",
    "text": "宽松横纹长袖上衣 粉红色"
  },
  {
    "label": "TEL014",
    "text": "飞鱼HK制服"
  },
  {
    "label": "TEL015",
    "text": "无法无天长袖T恤 驾驶"
  },
  {
    "label": "TEL016",
    "text": "宽松横纹长袖上衣 莱姆绿"
  },
  {
    "label": "TEL017",
    "text": "无法无天长袖T恤 进化"
  },
  {
    "label": "TEL018",
    "text": "泽酷长袖T恤 胡萝卜"
  },
  {
    "label": "TEL019",
    "text": "泽酷长袖T恤 樱桃萝卜"
  },
  {
    "label": "TEL020",
    "text": "章鱼长袖T恤 黑色"
  },
  {
    "label": "TEL021",
    "text": "暇古插肩袖上衣 狂热"
  },
  {
    "label": "TEL022",
    "text": "章鱼长袖T恤 红色"
  },
  {
    "label": "TEL023",
    "text": "烧河豚点阵T恤 卡其色"
  },
  {
    "label": "TEL024",
    "text": "烧河豚点阵T恤 蓝色"
  },
  {
    "label": "TEL026",
    "text": "缠绕钩爪T恤 黑色"
  },
  {
    "label": "TEL027",
    "text": "缠绕钩爪T恤 深色"
  },
  {
    "label": "TEL028",
    "text": "鲨鱼插肩袖上衣"
  },
  {
    "label": "TLY000",
    "text": "两件式长袖上衣 白色"
  },
  {
    "label": "TLY001",
    "text": "两件式长袖上衣 芥末黄"
  },
  {
    "label": "TLY002",
    "text": "两件式长袖上衣 迷彩绿"
  },
  {
    "label": "TLY003",
    "text": "两件式长袖上衣 黑色"
  },
  {
    "label": "TLY004",
    "text": "钢铁先锋两件式长袖上衣"
  },
  {
    "label": "TLY005",
    "text": "真格两件式长袖上衣"
  },
  {
    "label": "TLY006",
    "text": "两件式长袖上衣 巧克力色"
  },
  {
    "label": "TLY007",
    "text": "隐藏版海盗上衣"
  },
  {
    "label": "TLY008",
    "text": "向量线条两件式长袖上衣"
  },
  {
    "label": "TLY009",
    "text": "绿色T恤"
  },
  {
    "label": "TLY010",
    "text": "艾洛眼T恤 红色"
  },
  {
    "label": "TLY011",
    "text": "艾洛眼T恤 蓝色"
  },
  {
    "label": "TLY013",
    "text": "鱿鱼两件式V领长袖上衣 黄色"
  },
  {
    "label": "PLO000",
    "text": "Polo衫 樱花虾色"
  },
  {
    "label": "PLO001",
    "text": "横纹橄榄球衫 橘色"
  },
  {
    "label": "PLO002",
    "text": "三色橄榄球衫"
  },
  {
    "label": "PLO003",
    "text": "Polo衫 艾草绿"
  },
  {
    "label": "PLO004",
    "text": "乒乓球Polo衫"
  },
  {
    "label": "PLO005",
    "text": "单车衫"
  },
  {
    "label": "PLO006",
    "text": "单车王者运动服"
  },
  {
    "label": "PLO007",
    "text": "FC乌鱼子制服"
  },
  {
    "label": "PLO008",
    "text": "藻萨多足球队制服"
  },
  {
    "label": "PLO009",
    "text": "王者橄榄球衫010"
  },
  {
    "label": "PLO010",
    "text": "王者橄榄球衫008"
  },
  {
    "label": "JKT000",
    "text": "登山外套 橄榄绿"
  },
  {
    "label": "JKT001",
    "text": "暇古尼龙拉链上衣 怀旧"
  },
  {
    "label": "JKT002",
    "text": "登山外套 莓果红"
  },
  {
    "label": "JKT003",
    "text": "多Logo棒球外套"
  },
  {
    "label": "JKT004",
    "text": "学校运动服"
  },
  {
    "label": "JKT005",
    "text": "字母针织罩衫 绿色"
  },
  {
    "label": "JKT006",
    "text": "鱿鱼骑士皮外套 黑色"
  },
  {
    "label": "JKT007",
    "text": "鱿鱼骑士皮外套 白色"
  },
  {
    "label": "JKT008",
    "text": "FC运动服"
  },
  {
    "label": "JKT009",
    "text": "字母针织罩衫 橘色"
  },
  {
    "label": "JKT010",
    "text": "F-190"
  },
  {
    "label": "JKT011",
    "text": "F-010"
  },
  {
    "label": "JKT012",
    "text": "鱿鱼水手服 蓝色"
  },
  {
    "label": "JKT013",
    "text": "鱿鱼水手服 白色"
  },
  {
    "label": "JKT014",
    "text": "鱿鱼飞行外套"
  },
  {
    "label": "JKT015",
    "text": "鲶鱼飞行外套"
  },
  {
    "label": "JKT016",
    "text": "海月528"
  },
  {
    "label": "JKT017",
    "text": "登山外套 冰雪蓝"
  },
  {
    "label": "JKT018",
    "text": "暇古尼龙拉链上衣 复古"
  },
  {
    "label": "JKT019",
    "text": "轻量羽绒外套 抹茶色"
  },
  {
    "label": "JKT020",
    "text": "FA-01正面"
  },
  {
    "label": "JKT021",
    "text": "FA-01反面"
  },
  {
    "label": "JKT022",
    "text": "套头风衣外套"
  },
  {
    "label": "JKT023",
    "text": "剑尖教练外套"
  },
  {
    "label": "JKT024",
    "text": "鸟儿天鹅绒飞行外套"
  },
  {
    "label": "JKT025",
    "text": "深海章鱼飞行外套"
  },
  {
    "label": "JKT026",
    "text": "泽酷教练外套 暗红色"
  },
  {
    "label": "JKT027",
    "text": "登山外套 海苔鸡蛋色"
  },
  {
    "label": "JKT028",
    "text": "泽酷教练外套 青绿色"
  },
  {
    "label": "JKT029",
    "text": "轰炸机飞行外套 正片"
  },
  {
    "label": "JKT033",
    "text": "王者大衣 海军"
  },
  {
    "label": "JKT034",
    "text": "泽酷教练外套 姜黄色"
  },
  {
    "label": "JKT035",
    "text": "F-3皮外套 油漆改装"
  },
  {
    "label": "JKT036",
    "text": "轰炸机飞行外套 负片"
  },
  {
    "label": "JKT038",
    "text": "F-3皮外套 白色"
  },
  {
    "label": "JKT039",
    "text": "登山外套 辣椒红"
  },
  {
    "label": "JKT040",
    "text": "房屋标签鲸鱼针织衫"
  },
  {
    "label": "JKT041",
    "text": "摇滚风皮外套"
  },
  {
    "label": "JKT042",
    "text": "功夫运动服"
  },
  {
    "label": "JKT043",
    "text": "熊猫风功夫运动服"
  },
  {
    "label": "JKT045",
    "text": "怪物 PCU56"
  },
  {
    "label": "JKT046",
    "text": "散寿司派克大衣"
  },
  {
    "label": "JKT047",
    "text": "鱼片外套"
  },
  {
    "label": "JKT048",
    "text": "永远凉爽外套"
  },
  {
    "label": "JKT049",
    "text": "划桨外套 负片"
  },
  {
    "label": "JKT050",
    "text": "短版小外套 负片"
  },
  {
    "label": "JKT051",
    "text": "渗透压毛绒外套 象牙色"
  },
  {
    "label": "JKT052",
    "text": "渗透压毛绒外套 大地色"
  },
  {
    "label": "JKT053",
    "text": "无法无天双排扣外套"
  },
  {
    "label": "JKT054",
    "text": "狩猎外套KK"
  },
  {
    "label": "JKT055",
    "text": "划桨外套 正片"
  },
  {
    "label": "JKT056",
    "text": "短版小外套 正片"
  },
  {
    "label": "JKT057",
    "text": "散寿司毛大衣"
  },
  {
    "label": "JKT058",
    "text": "散寿司海军大衣"
  },
  {
    "label": "JKT059",
    "text": "主公羽织"
  },
  {
    "label": "JKT060",
    "text": "登山外套 藻绿色"
  },
  {
    "label": "JKT061",
    "text": "暇古尼龙拉链上衣 乡愁"
  },
  {
    "label": "JKT062",
    "text": "散寿司内衬外套"
  },
  {
    "label": "JKT063",
    "text": "格纹剪裁外套"
  },
  {
    "label": "JKT064",
    "text": "无法无天毛大衣"
  },
  {
    "label": "JKT065",
    "text": "深色棒球外套"
  },
  {
    "label": "TNK000",
    "text": "篮球运动服 主场"
  },
  {
    "label": "TNK001",
    "text": "篮球运动服 客场"
  },
  {
    "label": "TNK003",
    "text": "王者坦克背心 白色"
  },
  {
    "label": "TNK004",
    "text": "王者坦克背心 斜线"
  },
  {
    "label": "TNK005",
    "text": "王者坦克背心 海军风"
  },
  {
    "label": "TNK006",
    "text": "威猛龙虾队制服"
  },
  {
    "label": "TNK007",
    "text": "海坊主坦克背心 客场"
  },
  {
    "label": "TNK008",
    "text": "海坊主坦克背心 主场"
  },
  {
    "label": "SWT000",
    "text": "学院风套头衫 灰色"
  },
  {
    "label": "SWT001",
    "text": "鱿鱼交叉套头衫 芥末黄"
  },
  {
    "label": "SWT002",
    "text": "复古运动服"
  },
  {
    "label": "SWT003",
    "text": "暖流套头衫 海军蓝"
  },
  {
    "label": "SWT004",
    "text": "学院风套头衫 海军蓝"
  },
  {
    "label": "SWT005",
    "text": "滑轮套头衫"
  },
  {
    "label": "SWT006",
    "text": "船锚套头衫"
  },
  {
    "label": "SWT007",
    "text": "长版套头衫 负片"
  },
  {
    "label": "SWT008",
    "text": "短版针织衫连衬衫"
  },
  {
    "label": "SWT009",
    "text": "长版套头衫 正片"
  },
  {
    "label": "SWT010",
    "text": "无法无天针织衫 蓝色袖子"
  },
  {
    "label": "SWT011",
    "text": "无法无天针织衫 黄色袖子"
  },
  {
    "label": "SWT012",
    "text": "无法无天针织衫 红色袖子"
  },
  {
    "label": "SWT013",
    "text": "皇耆训练套头衫"
  },
  {
    "label": "SWT014",
    "text": "复古章鱼族上衣"
  },
  {
    "label": "SWT015",
    "text": "暇古防风运动上衣"
  },
  {
    "label": "SWT016",
    "text": "海月海牛套头衫"
  },
  {
    "label": "SWT017",
    "text": "3D针织衫 鲨鱼"
  },
  {
    "label": "SWT018",
    "text": "章鱼防风运动上衣 蓝色"
  },
  {
    "label": "SWT019",
    "text": "章鱼防风运动上衣 白色"
  },
  {
    "label": "SWT020",
    "text": "3D针织衫 鲸鱼"
  },
  {
    "label": "SWT021",
    "text": "无帽厚上衣 黄色"
  },
  {
    "label": "SWT022",
    "text": "无帽厚上衣 彩色"
  },
  {
    "label": "SWT023",
    "text": "无帽厚上衣 绿色"
  },
  {
    "label": "SWT024",
    "text": "乱藻藻针织衫"
  },
  {
    "label": "SWT025",
    "text": "CFH连帽上衣"
  },
  {
    "label": "SHT000",
    "text": "秋季法兰绒衬衫"
  },
  {
    "label": "SHT001",
    "text": "鱿鱼刺绣西部衬衫"
  },
  {
    "label": "SHT002",
    "text": "嘉顿格纹衬衫 绿色"
  },
  {
    "label": "SHT003",
    "text": "白色衬衫"
  },
  {
    "label": "SHT004",
    "text": "海胆BB衬衫"
  },
  {
    "label": "SHT005",
    "text": "舞动鱿鱼夏威夷衬衫"
  },
  {
    "label": "SHT006",
    "text": "嘉顿格纹衬衫 红色"
  },
  {
    "label": "SHT007",
    "text": "小小水母衬衫"
  },
  {
    "label": "SHT008",
    "text": "棒球运动服"
  },
  {
    "label": "SHT009",
    "text": "拼接衬衫 灰色"
  },
  {
    "label": "SHT010",
    "text": "怀旧格纹衬衫"
  },
  {
    "label": "SHT011",
    "text": "圆领衬衫"
  },
  {
    "label": "SHT012",
    "text": "很多Logo夏威夷衬衫"
  },
  {
    "label": "SHT013",
    "text": "条纹衬衫"
  },
  {
    "label": "SHT014",
    "text": "青年布衬衫"
  },
  {
    "label": "SHT015",
    "text": "领带衬衫"
  },
  {
    "label": "SHT017",
    "text": "彼得朋克衬衫"
  },
  {
    "label": "SHT018",
    "text": "章鱼保龄球衫"
  },
  {
    "label": "SHT019",
    "text": "墨汁喷洒衬衫"
  },
  {
    "label": "SHT020",
    "text": "降落伞上衣 石榴红"
  },
  {
    "label": "SHT021",
    "text": "小小水母领带衬衫"
  },
  {
    "label": "SHT022",
    "text": "降落伞上衣 李子蓝"
  },
  {
    "label": "SHT023",
    "text": "彼得朋克领带衬衫 血红色"
  },
  {
    "label": "SHT024",
    "text": "扁面蛸夏威夷衬衫"
  },
  {
    "label": "SHT025",
    "text": "无法无天法兰绒连帽上衣"
  },
  {
    "label": "SHT026",
    "text": "墨汁脱落衬衫"
  },
  {
    "label": "SHT027",
    "text": "多重点点衬衫"
  },
  {
    "label": "SHT028",
    "text": "剑尖BBB衬衫"
  },
  {
    "label": "SHT030",
    "text": "海马古巴衬衫"
  },
  {
    "label": "SHT031",
    "text": "小丑衬衫"
  },
  {
    "label": "SHT032",
    "text": "虾蛄侦察兵"
  },
  {
    "label": "SHT033",
    "text": "鱼片衬衫 野外观察"
  },
  {
    "label": "SHT034",
    "text": "绣花衬衫 烟管鱼"
  },
  {
    "label": "SHT035",
    "text": "漏墨衬衫"
  },
  {
    "label": "SHT036",
    "text": "喷墨衬衫"
  },
  {
    "label": "SHT037",
    "text": "立领衬衫 条纹"
  },
  {
    "label": "SHT038",
    "text": "立领衬衫 素色"
  },
  {
    "label": "SHT039",
    "text": "拼接衬衫"
  },
  {
    "label": "SHT040",
    "text": "鱼片衬衫 城市"
  },
  {
    "label": "SHT041",
    "text": "条石鲷队条纹制服"
  },
  {
    "label": "SHT042",
    "text": "海洋度假区夏威夷衬衫"
  },
  {
    "label": "SHT043",
    "text": "虾蛄侦察兵 油甘鱼"
  },
  {
    "label": "VST000",
    "text": "登山羽绒背心"
  },
  {
    "label": "VST001",
    "text": "森林羽绒背心"
  },
  {
    "label": "VST002",
    "text": "城市背心 夜空蓝"
  },
  {
    "label": "VST003",
    "text": "城市背心 黄色"
  },
  {
    "label": "VST004",
    "text": "相撞鱿鱼背心"
  },
  {
    "label": "VST005",
    "text": "上升鱿鱼背心"
  },
  {
    "label": "VST007",
    "text": "钓鱼背心 爷爷"
  },
  {
    "label": "VST008",
    "text": "前拉链背心"
  },
  {
    "label": "VST009",
    "text": "艾洛眼跑步背心 银色"
  },
  {
    "label": "VST010",
    "text": "狩猎背心KK"
  },
  {
    "label": "VST011",
    "text": "长腿护甲 红色"
  },
  {
    "label": "VST012",
    "text": "长腿护甲 莱姆绿"
  },
  {
    "label": "VST013",
    "text": "喷墨背心"
  },
  {
    "label": "VST014",
    "text": "狩猎背心BK"
  },
  {
    "label": "VST015",
    "text": "漏墨背心"
  },
  {
    "label": "VST016",
    "text": "艾洛眼单车背心"
  },
  {
    "label": "VST017",
    "text": "花腹鲭运动背心"
  },
  {
    "label": "PRK000",
    "text": "拉链连帽外套 迷彩"
  },
  {
    "label": "PRK001",
    "text": "拉链连帽外套 绿色"
  },
  {
    "label": "PRK002",
    "text": "泽酷连帽上衣 红豆色"
  },
  {
    "label": "PRK004",
    "text": "连帽上衣配衬衫 蓝色"
  },
  {
    "label": "PRK005",
    "text": "王者连帽上衣 葡萄紫"
  },
  {
    "label": "PRK006",
    "text": "帆立连帽上衣 灰色"
  },
  {
    "label": "PRK007",
    "text": "帆立植物连帽上衣"
  },
  {
    "label": "PRK008",
    "text": "连帽上衣配衬衫 粉红色"
  },
  {
    "label": "PRK009",
    "text": "泽酷连帽上衣 橄榄绿"
  },
  {
    "label": "PRK010",
    "text": "帆立连帽上衣 黑色"
  },
  {
    "label": "PRK012",
    "text": "巴哈连帽上衣 红色"
  },
  {
    "label": "PRK013",
    "text": "迷彩连帽上衣 土遁"
  },
  {
    "label": "PRK014",
    "text": "巴哈连帽上衣 天蓝色"
  },
  {
    "label": "PRK015",
    "text": "迷彩连帽上衣 水遁"
  },
  {
    "label": "AMB000",
    "text": "学校制服外套L"
  },
  {
    "label": "AMB001",
    "text": "武士外套"
  },
  {
    "label": "AMB002",
    "text": "动力装"
  },
  {
    "label": "AMB003",
    "text": "学校针织罩衫 蝴蝶结"
  },
  {
    "label": "AMB004",
    "text": "忍者装"
  },
  {
    "label": "AMB005",
    "text": "动力装 原型"
  },
  {
    "label": "AMB006",
    "text": "姬伴连帽上衣"
  },
  {
    "label": "AMB007",
    "text": "饭友上衣"
  },
  {
    "label": "AMB008",
    "text": "魔力长袍S"
  },
  {
    "label": "AMB009",
    "text": "章鱼铠甲"
  },
  {
    "label": "AMB010",
    "text": "鱼奇奇手套"
  },
  {
    "label": "AMB011",
    "text": "鱿鱼丝校服"
  },
  {
    "label": "AMB012",
    "text": "柔道服 黑带"
  },
  {
    "label": "AMB013",
    "text": "狂战士盔甲"
  },
  {
    "label": "AMB014",
    "text": "学校制服外套R"
  },
  {
    "label": "AMB015",
    "text": "学校针织罩衫 领带"
  },
  {
    "label": "AMB017",
    "text": "魔力长袍L"
  },
  {
    "label": "AMB018",
    "text": "颊白的羽衣"
  },
  {
    "label": "AMB019",
    "text": "翁长的羽衣"
  },
  {
    "label": "AMB020",
    "text": "曼蛇的雨衣"
  },
  {
    "label": "AMB021",
    "text": "世界级MC羽绒衣"
  },
  {
    "label": "AMB022",
    "text": "世界级DJ外套"
  },
  {
    "label": "HAP001",
    "text": "祭典T恤"
  },
  {
    "label": "HAP003",
    "text": "祭典T恤"
  },
  {
    "label": "MSN000",
    "text": "英雄外套 复制"
  },
  {
    "label": "MSN004",
    "text": "盔甲外套 复制"
  },
  {
    "label": "MSN110",
    "text": "绒毛章鱼女战士护甲"
  },
  {
    "label": "MSN200",
    "text": "タコ・アーマー"
  },
  {
    "label": "MSN301",
    "text": "生存装"
  },
  {
    "label": "MSN302",
    "text": "英雄装Lv1"
  },
  {
    "label": "MSN303",
    "text": "英雄装Lv2"
  },
  {
    "label": "MSN304",
    "text": "英雄装Lv3"
  },
  {
    "label": "MSN305",
    "text": "英雄装ST"
  },
  {
    "label": "MSN306",
    "text": "英雄装 复制"
  },
  {
    "label": "MSN307",
    "text": "生存装 复制"
  },
  {
    "label": "MSN310",
    "text": "传说的披风"
  },
  {
    "label": "MSN311",
    "text": "指挥官披风 复制"
  },
  {
    "label": "COP100",
    "text": "鱿鱼小子Polo衫"
  },
  {
    "label": "COP101",
    "text": "船锚背心"
  },
  {
    "label": "COP102",
    "text": "燃料外套"
  },
  {
    "label": "COP103",
    "text": "卷袖上衣与劳工手套"
  },
  {
    "label": "COP104",
    "text": "酥脆天妇罗T恤XXL"
  },
  {
    "label": "COP105",
    "text": "北方国家外套87"
  },
  {
    "label": "COP106",
    "text": "女战士风护甲"
  },
  {
    "label": "COP108",
    "text": "开发人员工作制服"
  },
  {
    "label": "COP109",
    "text": "工作人员制服"
  },
  {
    "label": "COP110",
    "text": "研究员大衣"
  },
  {
    "label": "COP001",
    "text": "打工连身工作服 橘色"
  },
  {
    "label": "COP002",
    "text": "打工连身工作服 绿色"
  },
  {
    "label": "COP003",
    "text": "打工连身工作服 黄色"
  },
  {
    "label": "COP004",
    "text": "打工连身工作服 粉红色"
  },
  {
    "label": "COP005",
    "text": "打工连身工作服 蓝色"
  },
  {
    "label": "COP006",
    "text": "打工连身工作服 黑色"
  },
  {
    "label": "COP007",
    "text": "打工连身工作服 白色"
  },
  {
    "label": "COP008",
    "text": "打工防水衣 橘色"
  },
  {
    "label": "COP009",
    "text": "打工防水衣 黑色"
  },
  {
    "label": "COP010",
    "text": "打工防水衣 黄色"
  },
  {
    "label": "COP011",
    "text": "打工防水衣 棕色"
  },
  {
    "label": "COP111",
    "text": "守卫者装"
  },
  {
    "label": "COP012",
    "text": "打工连身工作服 点点"
  },
  {
    "label": "COP013",
    "text": "打工连身工作服 迷彩"
  },
  {
    "label": "COP014",
    "text": "打工连身工作服 锦鲤"
  },
  {
    "label": "COP015",
    "text": "打工防水衣 桃红"
  },
  {
    "label": "COP016",
    "text": "打工防水衣 莱姆绿"
  },
  {
    "label": "COP017",
    "text": "打工防水衣 莓果红"
  },
  {
    "label": "COP112",
    "text": "角色扮演高科技装"
  },
  {
    "label": "COP113",
    "text": "超未来装"
  },
  {
    "label": "COP114",
    "text": "魅力超群歌手外套"
  },
  {
    "label": "COP115",
    "text": "未来巨星外套"
  },
  {
    "label": "COP116",
    "text": "干劲十足发明家外套"
  },
  {
    "label": "COP117",
    "text": "精力外套"
  },
  {
    "label": "COP018",
    "text": "打工连身工作服 银色"
  },
  {
    "label": "COP019",
    "text": "打工连身工作服 金色"
  },
  {
    "label": "COP020",
    "text": "打工连身工作服 棱镜"
  },
  {
    "label": "COP021",
    "text": "打工连身工作服 重装"
  },
  {
    "label": "TRG000",
    "text": "酥脆外皮"
  },
  {
    "label": "TRG001",
    "text": "评审手套"
  },
  {
    "label": "SDODR000",
    "text": "オーダースーツ"
  },
  {
    "label": "SDODR200",
    "text": "秩序装 复制"
  }
]