[
  {
    "label": "Bomb_Splash",
    "text": "Splat Bomb"
  },
  {
    "label": "Bomb_Suction",
    "text": "Suction Bomb"
  },
  {
    "label": "Bomb_Quick",
    "text": "Burst Bomb"
  },
  {
    "label": "Bomb_Curling",
    "text": "Curling Bomb"
  },
  {
    "label": "Bomb_Robot",
    "text": "Autobomb"
  },
  {
    "label": "Trap",
    "text": "Ink Mine"
  },
  {
    "label": "Sprinkler",
    "text": "Sprinkler"
  },
  {
    "label": "PointSensor",
    "text": "Point Sensor"
  },
  {
    "label": "PoisonMist",
    "text": "Toxic Mist"
  },
  {
    "label": "Shield",
    "text": "Splash Wall"
  },
  {
    "label": "Beacon",
    "text": "Squid Beakon"
  },
  {
    "label": "Bomb_Fizzy",
    "text": "Fizzy Bomb"
  },
  {
    "label": "Bomb_Torpedo",
    "text": "Torpedo"
  },
  {
    "label": "LineMarker",
    "text": "Angle Shooter"
  },
  {
    "label": "SalmonBuddy",
    "text": "Smallfry"
  },
  {
    "label": "Bomb_Curling_Rival",
    "text": "-"
  },
  {
    "label": "Bomb_Quick_Rival",
    "text": "-"
  },
  {
    "label": "Bomb_Robot_Rival",
    "text": "-"
  },
  {
    "label": "Bomb_Splash_Rival",
    "text": "-"
  },
  {
    "label": "Bomb_Splash_Big_Coop",
    "text": "-"
  },
  {
    "label": "Bomb_Splash_Coop",
    "text": "-"
  },
  {
    "label": "Bomb_Splash_Sdodr",
    "text": "Splat Bomb"
  },
  {
    "label": "Bomb_Curling_Sdodr",
    "text": "Curling Bomb"
  },
  {
    "label": "Bomb_Fizzy_Sdodr",
    "text": "Fizzy Bomb"
  },
  {
    "label": "Bomb_Quick_Sdodr",
    "text": "Burst Bomb"
  },
  {
    "label": "Bomb_Suction_Sdodr",
    "text": "Suction Bomb"
  },
  {
    "label": "PoisonMist_Sdodr",
    "text": "Toxic Mist"
  },
  {
    "label": "Shield_Sdodr",
    "text": "Splash Wall"
  },
  {
    "label": "Sprinkler_Sdodr",
    "text": "Sprinkler"
  },
  {
    "label": "Trap_Sdodr",
    "text": "Ink Mine"
  },
  {
    "label": "Bomb_Curling_Sdodr_Rival",
    "text": "-"
  },
  {
    "label": "Bomb_Splash_Sdodr_Rival",
    "text": "-"
  }
]