[
  {
    "label": "CraterFirst00",
    "text": "Der Okto-Schock!\nFeinde im Krater?"
  },
  {
    "label": "CraterSecond00",
    "text": "Folge der Tinte!"
  },
  {
    "label": "CraterThird00",
    "text": "Schlüsselerlebnis\nfür Spürnasen!"
  },
  {
    "label": "CraterFourth00",
    "text": "Unbekannte Gefahr\nim Anmarsch!"
  },
  {
    "label": "first00",
    "text": "Willkommen in Alterna!\nEine andere Wahl gibt es nicht"
  },
  {
    "label": "first02",
    "text": "All deine Tricks sind gefragt.\nErreiche das Ziel!"
  },
  {
    "label": "takopod00",
    "text": "Oktopods en masse"
  },
  {
    "label": "takopod02",
    "text": "Keine Angst vor Knalleffekten!\nErreiche das Ziel!"
  },
  {
    "label": "takoHouse00",
    "text": "Nur am Rotieren"
  },
  {
    "label": "takoHouse02",
    "text": "Zerkleckse die Oktarianer\nund erreiche das Ziel!"
  },
  {
    "label": "indoor00",
    "text": "Türen-Tour"
  },
  {
    "label": "indoor02",
    "text": "Die Schlüssel sind der Schlüssel!"
  },
  {
    "label": "allPaint00",
    "text": "Relikt-Restaurierung"
  },
  {
    "label": "allPaint02",
    "text": "Flächenarbeit ist gefragt!\nBedecke alles mit Tinte!"
  },
  {
    "label": "easyKagidume00",
    "text": "Haften, schießen, springen!"
  },
  {
    "label": "easyKagidume02",
    "text": "Setze den Haftsprung ein\nund erreiche das Ziel!"
  },
  {
    "label": "dendenSalmon00",
    "text": "Eins mit dem Salmini!"
  },
  {
    "label": "dendenSalmon02",
    "text": "Arbeite mit deinem Salmini zusammen\nund erreicht gemeinsam das Ziel!"
  },
  {
    "label": "1shot00",
    "text": "Urknall ohne Umwege!"
  },
  {
    "label": "1shot02",
    "text": "Zerstöre alle Ziele gleichzeitig\nmit nur einem einzigen Schuss!"
  },
  {
    "label": "stringer00",
    "text": "Stringereinheiten"
  },
  {
    "label": "stringer02",
    "text": "Setze den Tri-Stringer ein\nund erreiche das Ziel!"
  },
  {
    "label": "shock00",
    "text": "Tanzfläche des Todes"
  },
  {
    "label": "shock02",
    "text": "Überlebe eine volle Minute."
  },
  {
    "label": "spin00",
    "text": "Dramatische Drehscheiben"
  },
  {
    "label": "spin02",
    "text": "Überquere die sich drehenden\nPlattformen und erreiche das Ziel!"
  },
  {
    "label": "spongeClimb00",
    "text": "Schwammig und schwindlig!"
  },
  {
    "label": "spongeClimb02",
    "text": "Erreiche das Ziel mithilfe der Schwämme."
  },
  {
    "label": "snakeLecture00",
    "text": "Expansive Expedition"
  },
  {
    "label": "snakeLecture02",
    "text": "Turne über die Expando-Blöcke\nund erreiche das Ziel!"
  },
  {
    "label": "railFirst00",
    "text": "Kimme, Korn, Kaputt!"
  },
  {
    "label": "railFirst02",
    "text": "Zerstöre alle Zielobjekte\nund erreiche das Ziel!"
  },
  {
    "label": "kanitank00",
    "text": "Krabbenscherereien"
  },
  {
    "label": "kanitank02",
    "text": "Kämpfe im Krabbenpanzer\nund erreiche das Ziel!"
  },
  {
    "label": "mazeClimb00",
    "text": "Lauf ins Leere leicht gemacht!"
  },
  {
    "label": "mazeClimb02",
    "text": "Finde durch das Labyrinth\nund erreiche das Ziel!"
  },
  {
    "label": "inkLimitPaintFes00",
    "text": "Sparen an allen Ecken und Enden"
  },
  {
    "label": "inkLimitPaintFes02",
    "text": "Erreiche das Ziel, doch Achtung!\nDein Tintenvorrat ist begrenzt!"
  },
  {
    "label": "courceMake00",
    "text": "Schau und schalte!"
  },
  {
    "label": "courceMake02",
    "text": "Aktiviere die Schalter\nund erreiche das Ziel!"
  },
  {
    "label": "battleHill00",
    "text": "Aufstiegskampf"
  },
  {
    "label": "battleHill02",
    "text": "Kontere das Gegnerfeuer\nund erreiche das Ziel!"
  },
  {
    "label": "airJam00",
    "text": "Dünne dicke Luft"
  },
  {
    "label": "airJam02",
    "text": "Erreiche das Ziel, aber Vorsicht!\nGefährliche Flugobjekte gesichtet!"
  },
  {
    "label": "snakeBomb00",
    "text": "Rolle rauswärts"
  },
  {
    "label": "snakeBomb02",
    "text": "Erreiche das Ziel mithilfe der Rollfärber."
  },
  {
    "label": "curling00",
    "text": "Nur für harte Curle"
  },
  {
    "label": "curling02",
    "text": "Setze Curling-Bomben ein\nund erreiche das Ziel!"
  },
  {
    "label": "brushRush00",
    "text": "Böse abgebürstet"
  },
  {
    "label": "brushRush02",
    "text": "Zerstöre alle Ziele."
  },
  {
    "label": "forwardShoot00",
    "text": "Klecks gegen die Zeit"
  },
  {
    "label": "forwardShoot02",
    "text": "Zerstöre alle Ziele\ninnerhalb des Zeitlimits!"
  },
  {
    "label": "inkRailMountain00",
    "text": "Sepia-Schlitterparty"
  },
  {
    "label": "inkRailMountain02",
    "text": "Nutze die Sepiadukte\nund erreiche das Ziel!"
  },
  {
    "label": "liftOnTheWater00",
    "text": "Blätter des Ruhms"
  },
  {
    "label": "liftOnTheWater02",
    "text": "Nutze die Propeller-Plattformen\nund erreiche das Ziel!"
  },
  {
    "label": "takohopper00",
    "text": "Die gefürchteten Oktohüpfer"
  },
  {
    "label": "takohopper02",
    "text": "Erreiche das Ziel, aber Vorsicht!\nHüpfende Widersacher gesichtet!"
  },
  {
    "label": "takostrikeFall00",
    "text": "Der große Wurf"
  },
  {
    "label": "takostrikeFall02",
    "text": "Erreiche das Ziel, aber Vorsicht!\nWer abstürzt, hat das Nachsehen."
  },
  {
    "label": "snakeSalmon00",
    "text": "Block um Block um Block"
  },
  {
    "label": "snakeSalmon02",
    "text": "Nutze die Expando-Blöcke\nund erreiche das Ziel!"
  },
  {
    "label": "dieCutting00",
    "text": "Auf den Spuren großer Kunst"
  },
  {
    "label": "dieCutting02",
    "text": "Ziele genau und kopiere die Vorlage."
  },
  {
    "label": "boxSashi00",
    "text": "Fast wie Tontauben"
  },
  {
    "label": "boxSashi02",
    "text": "Zerstöre alle Ziele."
  },
  {
    "label": "chargeKeep00",
    "text": "Erst laden, dann fragen"
  },
  {
    "label": "chargeKeep02",
    "text": "Setze geladene Schüsse ein\nund erreiche das Ziel!"
  },
  {
    "label": "railBaloonEasy00",
    "text": "Schützenfest im Supertempo!"
  },
  {
    "label": "railBaloonEasy02",
    "text": "Zerstöre alle Zielballons\nund erreiche das Ziel!"
  },
  {
    "label": "missileAirship00",
    "text": "Flauschige Flugobjekte"
  },
  {
    "label": "missileAirship02",
    "text": "Erreiche das Ziel.\nSchön aufpassen, wo du hintrittst!"
  },
  {
    "label": "fastDraw00",
    "text": "Klecks im Schnellreflex"
  },
  {
    "label": "fastDraw02",
    "text": "Zerstöre alle Zielballons\nund erreiche das Ziel!"
  },
  {
    "label": "savior00",
    "text": "Schwertstreich-Konzert"
  },
  {
    "label": "savior02",
    "text": "Setze das Stempel-Splatana ein\nund erreiche das Ziel!"
  },
  {
    "label": "oneStroke00",
    "text": "Pinselstrich, verlass mich nicht"
  },
  {
    "label": "oneStroke02",
    "text": "Aktiviere die Schalter\ninnerhalb des Zeitlimits!"
  },
  {
    "label": "bitakoHidding00",
    "text": "Elend an jeder Ecke"
  },
  {
    "label": "bitakoHidding02",
    "text": "Weiche gegnerischen Angriffen aus\nund erreiche das Ziel!"
  },
  {
    "label": "shootBack00",
    "text": "Tinterrücks erwischt"
  },
  {
    "label": "shootBack02",
    "text": "Greife von hinten an\nund erreiche das Ziel!"
  },
  {
    "label": "buildingSnipe00",
    "text": "Scharfes Schützenfest"
  },
  {
    "label": "buildingSnipe02",
    "text": "Entgehe dem Fernklecksfeuer\nund erreiche das Ziel!"
  },
  {
    "label": "barriar00",
    "text": "Oktodiskothek"
  },
  {
    "label": "barriar02",
    "text": "Besiege Oktodiskos und erreiche das Ziel."
  },
  {
    "label": "dozer00",
    "text": "Sammeleier-Feier"
  },
  {
    "label": "dozer02",
    "text": "Sammle alle Fischeier\ninnerhalb des Zeitlimits!"
  },
  {
    "label": "kagidumeClimb00",
    "text": "Sprünge über Dächer"
  },
  {
    "label": "kagidumeClimb02",
    "text": "Setze den Haftsprung ein\nund erreiche das Ziel!"
  },
  {
    "label": "railBoxStringer00",
    "text": "Parcours der Präzision"
  },
  {
    "label": "railBoxStringer02",
    "text": "Zerstöre alle Zielobjekte\nund erreiche das Ziel!"
  },
  {
    "label": "superLanding00",
    "text": "Tintenschockierende Kämpfe"
  },
  {
    "label": "superLanding02",
    "text": "Setze deinen Tintenschock ein\nund erreiche das Ziel!"
  },
  {
    "label": "fogMaze00",
    "text": "Schlechte Sicht, schlechte Chancen"
  },
  {
    "label": "fogMaze02",
    "text": "Finde den Weg im Nebel\nund erreiche das Ziel!"
  },
  {
    "label": "shortRail00",
    "text": "Schießen auf Schienen"
  },
  {
    "label": "shortRail02",
    "text": "Erreiche das Ziel mit Surfschienen\nund präzisem Schießen!"
  },
  {
    "label": "ninjaParkour00",
    "text": "Haftung eingeschlossen"
  },
  {
    "label": "ninjaParkour02",
    "text": "Klettere per Haftsprung nach oben\nund erreiche das Ziel!"
  },
  {
    "label": "shootingLong00",
    "text": "Kleckstraweit geschossen"
  },
  {
    "label": "shootingLong02",
    "text": "Schieß Tinte in alle Richtungen\nund erreiche das Ziel!"
  },
  {
    "label": "lineMarker00",
    "text": "Reflektieren und gewinnen!"
  },
  {
    "label": "lineMarker02",
    "text": "Nutze den Winkelmarker\nund erreiche das Ziel!"
  },
  {
    "label": "fogZones00",
    "text": "Klar wie dicke Tinte"
  },
  {
    "label": "fogZones02",
    "text": "Besiege die Gegner im Nebel\nund erreiche das Ziel!"
  },
  {
    "label": "takoTower00",
    "text": "Oben Richtung Oktogefahr"
  },
  {
    "label": "takoTower02",
    "text": "Erklimme den Turm voller Feinde\nund erreiche das Ziel!"
  },
  {
    "label": "takoAllStars00",
    "text": "Torturtour"
  },
  {
    "label": "takoAllStars02",
    "text": "Biete allerlei Angriffen die Stirn\nund kämpfe dich ans Ziel!"
  },
  {
    "label": "inkLimitHard00",
    "text": "Jedes Kleckschen zählt"
  },
  {
    "label": "inkLimitHard02",
    "text": "Erreiche das Ziel, aber Vorsicht!\nDein Tintenvorrat ist begrenzt!"
  },
  {
    "label": "curlingDoNotStep00",
    "text": "Killertintentänzerei"
  },
  {
    "label": "curlingDoNotStep02",
    "text": "Erreiche das Ziel, aber Vorsicht!\nBerühre KEINE feindliche Tinte!"
  },
  {
    "label": "roller00",
    "text": "In die Vollen rollen!"
  },
  {
    "label": "roller02",
    "text": "Setze deinen Roller ein\nund erreiche das Ziel!"
  },
  {
    "label": "escapeFromSinking00",
    "text": "Ein Turm taucht ab"
  },
  {
    "label": "escapeFromSinking02",
    "text": "Erreiche das Ziel.\nUnd zwar schnell."
  },
  {
    "label": "fireWorks00",
    "text": "Haltlos Halt-Los!"
  },
  {
    "label": "fireWorks02",
    "text": "Agiere im Rhythmus\nund erreiche das Ziel!"
  },
  {
    "label": "race00",
    "text": "Tauchsprint gewinnt!"
  },
  {
    "label": "race02",
    "text": "Erreiche das Ziel\ninnerhalb des Zeitlimits!"
  },
  {
    "label": "jetPack00",
    "text": "Mit Freunden wie Düsen"
  },
  {
    "label": "jetPack02",
    "text": "Fliege mit dem Tintendüser\nund erreiche das Ziel!"
  },
  {
    "label": "chase00",
    "text": "Der Weisheit letzter Schlüssel"
  },
  {
    "label": "chase02",
    "text": "Finde die Schlüssel\nund öffne den Weg zum Ziel!"
  },
  {
    "label": "stamp00",
    "text": "Auf sie mit Gestempel"
  },
  {
    "label": "stamp02",
    "text": "Plätte alle Gegner\ninnerhalb des Zeitlimits!"
  },
  {
    "label": "RailKing00",
    "text": "Oktotyrann HXN"
  },
  {
    "label": "RailKing02",
    "text": "Acht Arme für ein Rachegewitter!"
  },
  {
    "label": "MorayKing00",
    "text": "Die Zukunft blickt zurück"
  },
  {
    "label": "MorayKing02",
    "text": "Erreiche das Tor!"
  },
  {
    "label": "SharkKing00",
    "text": "Ein Riecher für Reichtum"
  },
  {
    "label": "SharkKing02",
    "text": "Erreiche das Tor!"
  },
  {
    "label": "MantaKing00",
    "text": "Silberglanz und Silhouetten"
  },
  {
    "label": "MantaKing02",
    "text": "Erreiche das Tor!"
  },
  {
    "label": "LaunchPad00",
    "text": "Raumfahrtzentrum Alterna"
  },
  {
    "label": "LaunchPad02",
    "text": "Rette Karl Kuttelfisch!"
  },
  {
    "label": "SurmonBudyR00",
    "text": "Raumfahrtzentrum Alterna: Eingang"
  },
  {
    "label": "SurmonBudyR02",
    "text": "Bewahre Ruhe.\nBeobachte. Lerne."
  },
  {
    "label": "BigBattleR00",
    "text": "Raumfahrtzentrum Alterna: Hangar"
  },
  {
    "label": "BigBattleR02",
    "text": "Rette Karl Kuttelfisch!"
  },
  {
    "label": "LiftR00",
    "text": "Raumfahrtzentrum Alterna: Aufzug"
  },
  {
    "label": "LiftR02",
    "text": "Rette Karl Kuttelfisch!"
  },
  {
    "label": "RocketAR00",
    "text": "Hoffnungsträgerin: Untere Ebene"
  },
  {
    "label": "RocketAR02",
    "text": "Rette Karl Kuttelfisch!"
  },
  {
    "label": "RocketBR00",
    "text": "Hoffnungsträgerin: Obere Ebene"
  },
  {
    "label": "RocketBR02",
    "text": "Rette Karl Kuttelfisch!"
  },
  {
    "label": "LastBossA00",
    "text": "Bärenanomalie 03"
  },
  {
    "label": "LastBossA02",
    "text": "Halte Herrn Bär auf!"
  },
  {
    "label": "LastBossB00",
    "text": "Die Rückkehr der Mammalianer"
  },
  {
    "label": "LastBossB02",
    "text": "Jetzt wird’s haarig!"
  },
  {
    "label": "EX0100",
    "text": "Alterna bewältigt"
  },
  {
    "label": "EX0102",
    "text": "Erreiche das Ziel, um Zugriff auf das\n■■■■-Log zu erhalten."
  },
  {
    "label": "EX0200",
    "text": "Alterna bewältigt"
  },
  {
    "label": "EX0202",
    "text": "Erreiche das Ziel, um Zugriff auf das\n■■■■-Log zu erhalten."
  },
  {
    "label": "EX0300",
    "text": "Alterna bewältigt"
  },
  {
    "label": "EX0302",
    "text": "Erreiche das Ziel, um Zugriff auf das\n■■■■-Log zu erhalten."
  },
  {
    "label": "EX0400",
    "text": "Alterna bewältigt"
  },
  {
    "label": "EX0402",
    "text": "Erreiche das Ziel, um Zugriff auf das\n■■■■-Log zu erhalten."
  }
]