[
  {
    "label": "12e257b0-65c3-4094-9209-221fb43102c3",
    "text": "PHEW! That was SO intense."
  },
  {
    "label": "463e383b-511e-49f3-955b-08ae14e37632",
    "text": "Keep it rollin'!"
  },
  {
    "label": "64cd2b37-6234-4985-aa5f-1e714b79be66",
    "text": "Yeah, great job! You're not done yet, but keep it up!"
  },
  {
    "label": "afdd96e1-52c6-48ed-bfb7-37f49c10512e",
    "text": "You probably have to pop ALL of these {{color id=\"1\"}}targets{{color id=\"65535\"}}, huh?"
  }
]