[
  {
    "label": "14e090a0-ad4d-49b3-b282-a66c43f18975",
    "text": "Mr. Grizz is sitting down! He's up to something..."
  },
  {
    "label": "47c3f0f4-af13-49cb-b04e-7765e70f89bc",
    "text": "What's he doing? Rolling over?"
  },
  {
    "label": "5c7e2651-66a4-4bb4-beb0-a423e3a38b06",
    "text": "Whoa! A {{icon id=\"22\" arg=\"0x0000803F00000000\"}}{{color id=\"1\"}}Fuzzball{{color id=\"65535\"}} came out!"
  },
  {
    "label": "5eafff55-1554-4069-9ed4-6e76eae1e1ad",
    "text": "Try inking that one weird splotch, and see if he\nhas any reaction!"
  },
  {
    "label": "76931577-5e70-4013-b718-cea1a9a7bf6c",
    "text": "Keep it up! You're halfway through a full rotation!"
  },
  {
    "label": "857e292b-d85d-4555-879c-ac60aa30c84e",
    "text": "Alright! There's the {{color id=\"1\"}}Fuzzball{{color id=\"65535\"}}!"
  },
  {
    "label": "b40eab39-2c05-4490-9388-6c28ed8412b9",
    "text": "What's up with the oozy splotches on his belly?"
  },
  {
    "label": "b833dc76-cfa8-48f8-a5e3-2cefa214b43e",
    "text": "A Golden Egg! You might be able to use that!"
  },
  {
    "label": "c5269e9f-fc25-4e20-b635-0fde232b354b",
    "text": "Looks like he's gonna roll again. Brace yourself!"
  },
  {
    "label": "cd16b0b0-c294-4093-87f8-e70e59855fe6",
    "text": "Nice work, Agent 3—and Smallfry too! Keep going!"
  },
  {
    "label": "daae7b48-be3b-4ece-9ff4-3c18f03027e7",
    "text": "Finish this, Agent 3! NOW!"
  },
  {
    "label": "fe9b924a-0c3a-4338-b6b5-0a0a4bda6170",
    "text": "He's making the whole rocket rotate!\nMove with the rotation, Agent 3!"
  }
]