[
  {
    "label": "0536bc4f-4d77-47b5-a2e9-a78206499a54",
    "text": "The reading is coming from just up ahead!"
  },
  {
    "label": "0e7b9d8e-a4eb-4a5d-8a63-e9510e4dfb7a",
    "text": "Ink it NOW before it gets away!"
  },
  {
    "label": "227ca509-f00d-4111-ac59-7593fc1a3c5b",
    "text": "OK, Master Mega. Show your pearly BITES!"
  },
  {
    "label": "22b09927-239e-4d64-b2db-34a50c50b6ca",
    "text": "Can you handle THIS?!"
  },
  {
    "label": "2487994a-6401-4546-a6bd-054a6e89675b",
    "text": "Good work!"
  },
  {
    "label": "2e4a01fc-fb93-43e8-be34-fe92c66a7e53",
    "text": "Try throwing something into the shark's open mouth!"
  },
  {
    "label": "330620bd-4641-44bc-a08e-271156a77ffe",
    "text": "Think you'll be OK without upgrading your Hero Gear?"
  },
  {
    "label": "39e25a19-dadc-4d36-ad3b-2b595d563a5f",
    "text": "Ugh. Stop embarrassing me, Master!"
  },
  {
    "label": "3c918f54-8197-4a26-a4cd-fbd1cafb549a",
    "text": "That was just a rehearsal. The real show starts NOW!"
  },
  {
    "label": "419cad23-9756-44c2-8c99-13c5e70637fe",
    "text": "PEDAL—and I mean it this time—TO THE MEGALODON!"
  },
  {
    "label": "466bcdd6-5d65-4ed4-be8c-14b2def528f2",
    "text": "Look! Shiver fell off!"
  },
  {
    "label": "47aa8bfb-d51e-4b40-a178-c72e9d47400a",
    "text": "UGH! Master! Get it together!"
  },
  {
    "label": "4f4112e4-1012-44f1-a501-e2f1b4185a22",
    "text": "Share your wisdom, Master Mega!"
  },
  {
    "label": "772146bb-d66e-477d-9854-47afc3639554",
    "text": "\"Pedal to the megalodon\"? Psh! That catchphrase\ncould use some work—right, Agent 3?"
  },
  {
    "label": "78513378-74e8-424f-84f6-17d4ae5666b6",
    "text": "Time to feed the fish! Hahaha!"
  },
  {
    "label": "8a3e2153-36dd-4da7-8e1c-667fac37e077",
    "text": "Awaaay we go!"
  },
  {
    "label": "8e1ab614-db2c-448b-8233-f4e7bbecac60",
    "text": "Watch out! They're gonna strike from below!"
  },
  {
    "label": "9a16a306-bdb2-46db-8dea-b0f860fd7fac",
    "text": "Let's swirl things up—way, WAY up! Haha!"
  },
  {
    "label": "9fe8de52-6ede-4ab4-94dc-550bb7e2d475",
    "text": "That shark's mouth is HUGE! Is it weird that\nI want to throw something in there?"
  },
  {
    "label": "af5acabb-f164-43f9-9d59-b28c9d1e59fb",
    "text": "♪Sooo gooood!♪"
  },
  {
    "label": "b69aa783-d190-4762-aa7f-758b91258fd7",
    "text": "Wow! That shark is so talented!"
  },
  {
    "label": "b9118e71-19cc-4870-bc61-5aa192406bfa",
    "text": "Nice, Agent 3!"
  },
  {
    "label": "b9a0e09e-afd1-4b78-8493-1d88efc0f0e2",
    "text": "They're out in the open! Now's your chance!"
  },
  {
    "label": "bed0b71f-c35c-48e0-8a26-ba3f24a7b0b1",
    "text": "She fell off again! Let her have it!"
  },
  {
    "label": "cafa15b2-e089-4a75-953f-0978eeda5547",
    "text": "If you lob something into that shark's {{color id=\"1\"}}open mouth{{color id=\"65535\"}},\nit might stop Shiver cold!"
  },
  {
    "label": "e2e41203-6c40-40c3-9b0d-63a66e7e3974",
    "text": "It's Gramps! It has to be!"
  },
  {
    "label": "e76e65d9-1998-4400-b61d-89413014482d",
    "text": "She's megalo-DONE! Now finish her off!"
  },
  {
    "label": "ea5045d3-a942-4cef-8a19-9e264fdb3161",
    "text": "Master! Get us back in the water! NOW!"
  },
  {
    "label": "ead100db-67f9-4705-9550-aadb9cc313e5",
    "text": "We'll shred you this time for sure!"
  },
  {
    "label": "fbe7fa1d-be2f-4ff3-83c0-eaf8dedd5999",
    "text": "It wasn't Gramps... So frustrating! Guess we'll\njust take this as a consolation prize."
  }
]