[
  {
    "label": "0dafca74-963e-4a1f-9dd5-575470fb3706",
    "text": "One more! Stamp it out!"
  },
  {
    "label": "3c65a63b-c4be-45e3-8689-f3fac4decb67",
    "text": "So far away! You won't make it unless you hurl\nthat thing with everything you've got..."
  },
  {
    "label": "6eea0bb5-ca15-40fc-96d7-089b0a55d933",
    "text": "If you can hit that middle ball, I bet you'll\nsplat 'em in one shot."
  },
  {
    "label": "efbc349f-6b3f-4f1f-a4a0-329616bc2f0d",
    "text": "Don't forget to throw it with {{icon id=\"10\" arg=\"0x0000803F00000000\"}}!"
  },
  {
    "label": "f7aa1475-cea1-4667-a720-548521c813f5",
    "text": "You can hold {{icon id=\"12\" arg=\"0x0000803F00000000\"}} down for rapid stamp smashin'.\nIf the enemy is far away, hurl it with {{icon id=\"10\" arg=\"0x0000803F00000000\"}}!"
  },
  {
    "label": "ff2651e2-b51a-4ec6-8bd4-71519ca4871e",
    "text": "The countdown will start as soon as you splat\none of these bowling-ball bozos."
  }
]