[
  {
    "label": "0bb83321-9f48-4d79-bd3b-e3f096d8bfbd",
    "text": "Das war der letzte!\nJetzt musst du nur noch auf die Surfschiene!"
  },
  {
    "label": "101d4c85-869d-4450-b5d7-d8e789c7139b",
    "text": "Richtig Klasse!"
  },
  {
    "label": "11093102-d31c-4298-a518-74fd1b2c923f",
    "text": "Ein einfacher Sprung reicht hier wohl nicht."
  },
  {
    "label": "150de615-8f3c-4817-abe1-67f3b36099f0",
    "text": "Oh, das war schlau. Gut gemacht, Nr. 3!"
  },
  {
    "label": "1e6e0414-c755-41f1-b1a7-243b8c14ef11",
    "text": "Drücke {{icon id=\"1\" arg=\"0x0000803F00000000\"}}, um auf einer Surfschiene zu springen."
  },
  {
    "label": "353ce7bd-212b-4905-adb2-d694700ca498",
    "text": "Na los, Alterna!\nDann zeig mal, was du zu bieten hast!"
  },
  {
    "label": "3e70151e-e3fa-4cf7-bf53-697dafb378d7",
    "text": "Der erste {{color id=\"1\"}}Container{{color id=\"65535\"}} ist offen!"
  },
  {
    "label": "3fa81dec-0396-48ea-a530-35e27911a8c1",
    "text": "Drücke {{icon id=\"12\" arg=\"0x0000803F00000000\"}}, um auf einer {{color id=\"1\"}}Surfschiene{{color id=\"65535\"}} zu feuern."
  },
  {
    "label": "48a50b15-8b20-49d2-89c2-c4242b52821d",
    "text": "Da drüben ist ein {{color id=\"1\"}}Sepiadukt{{color id=\"65535\"}}.\nOb Salmini das aktivieren kann?"
  },
  {
    "label": "5b67909c-4ff0-4341-8711-e6acef1c371e",
    "text": "Oh! Eine Konserve!\nMach die mal auf und setz den Inhalt ein!"
  },
  {
    "label": "685b1c8b-b21a-47c5-99ca-0f838dca1725",
    "text": "Uuund das war der dritte!\nAlle {{color id=\"1\"}}Schlüssel{{color id=\"65535\"}} gehören dir!"
  },
  {
    "label": "750c4a94-c7e8-498f-bb24-a929203fc0fe",
    "text": "Das war {{color id=\"1\"}}Schlüssel {{color id=\"65535\"}}Nr. 1! So kann’s weitergehen!"
  },
  {
    "label": "79b54a22-d07f-4da2-99b5-07e0b894ac88",
    "text": "Eine {{color id=\"1\"}}Hupfmatratze{{color id=\"65535\"}}! Halte {{icon id=\"1\" arg=\"0x0000803F00000000\"}} gedrückt, um superhoch\nzu springen. Voll lustig! ...Äh, listig. Im Kampf."
  },
  {
    "label": "8142aab4-21ca-413d-bcc1-816e57def6cd",
    "text": "Der zweite Container ist offen!"
  },
  {
    "label": "8f55f1cb-6c05-4775-adfb-482273a5c884",
    "text": "Mit dir haben wir Alterna im Nullkommanix\nerforscht, Nr. 3!"
  },
  {
    "label": "9149a031-393b-40c6-86b5-2a8de05907ef",
    "text": "Ah, eine {{color id=\"1\"}}Trizooka{{color id=\"65535\"}}! Mach sie mit {{icon id=\"8\" arg=\"0xCDCC4C3F00000000\"}} einsatzbereit\nund drücke dann {{icon id=\"12\" arg=\"0x0000803F00000000\"}} für einen ordentlichen WUMMS!"
  },
  {
    "label": "93a66f83-c9d6-4209-97f5-db582a03e051",
    "text": "Du kannst zwischen Surfschienen hin- und herspringen.\nNeige den Stick in eine Richtung und drücke {{icon id=\"1\" arg=\"0x0000803F00000000\"}}!"
  },
  {
    "label": "a258a141-a865-4775-9092-1c4b2b4ecad2",
    "text": "Du hast es geschafft!"
  },
  {
    "label": "b31225e7-1c5a-4fc3-990a-5740cca3429b",
    "text": "Ich sehe drei {{icon id=\"27\" arg=\"0x0000803F00000000\"}} {{color id=\"1\"}}Container{{color id=\"65535\"}} und drei {{icon id=\"26\" arg=\"0x0000803F00000000\"}} {{color id=\"1\"}}Schlüssel{{color id=\"65535\"}}\nvoraus!"
  },
  {
    "label": "bddf4324-8069-4c4a-bc6b-2c1186857d47",
    "text": "Dieses kleine Kerlchen ist ein {{color id=\"1\"}}Tintenkiller{{color id=\"65535\"}}. \nDer entfernt Tinte, sobald er sie sieht!"
  },
  {
    "label": "ce9c53ab-5568-453f-9a93-6ba19591feeb",
    "text": "Kein Problem, Nr. 3. Du hast ’ne Menge Tinte UND\n’nen Salmini. Färb einfach drauflos!"
  },
  {
    "label": "d0bc97c5-2b3e-4db7-bfe7-ca3b3074494d",
    "text": "Wow. Hier wird echt ganz schön was geboten."
  },
  {
    "label": "dea53ff1-d9ff-4e2d-8b44-287648fe3296",
    "text": "In Schwimmform ist dieses {{color id=\"1\"}}Gitter{{color id=\"65535\"}} kein Problem.\nHalte {{icon id=\"11\" arg=\"0x0000803F00000000\"}} gedrückt und flutsche einfach durch!"
  },
  {
    "label": "f091c212-cf5c-4970-b04b-3cac1c9de4bb",
    "text": "Spürst du den Wind?"
  },
  {
    "label": "fe499a3f-63a3-49bd-a15d-3d158c211078",
    "text": "Das waren zwei, bleibt noch einer..."
  }
]