[
  {
    "label": "0a5c19e2-9f91-49b5-b5e4-90c29ec4eab0",
    "text": "Er hat sich umgedreht!\nDas ist die Gelegenheit!"
  },
  {
    "label": "24fb0647-9323-490c-b6d7-dc9c7726b60a",
    "text": "Das war ja mal seltsam.\nNicht übel, Nr. 3. Gar nicht übel."
  },
  {
    "label": "25db09c5-5b56-4ac9-b73d-696bf360b76d",
    "text": "Ich hab kein gutes Gefühl bei der Sache.\nSei bloß vorsichtig..."
  },
  {
    "label": "397f308b-7886-4e80-b83c-29d7bd0beb77",
    "text": "An diesem Tor waren wir doch schon, oder?"
  },
  {
    "label": "39bbf6a5-365f-4552-9b65-ebfffed7fef2",
    "text": "Prima!"
  },
  {
    "label": "47b6bbc1-96d2-4d10-8197-cad144897c88",
    "text": "Jetzt gibt’s kein Zurück mehr!\nAber das wird schon passen. Wahrscheinlich."
  },
  {
    "label": "57bdf9ac-0a0b-4945-9519-de38c37027b0",
    "text": "Schlechte Sicht und Oktoschützen...\nPasst ja bestens..."
  },
  {
    "label": "6b36bb04-79e9-4aba-9021-7862bafaa4cf",
    "text": "Was für eine Klettertour!\nIch bin nur vom Zuschauen ganz fertig!"
  },
  {
    "label": "7058210c-9e71-4d55-9163-58f63d94282b",
    "text": "Ha! Nimm das!"
  },
  {
    "label": "7d893147-6fb4-4fff-b83b-893ed68f65f9",
    "text": "Du willst gern hoch hinaus, was?"
  },
  {
    "label": "a818f6d9-18bf-4d35-b048-f2b90d400723",
    "text": "Nettes Tor!\nEinladend und doch mysteriös!"
  },
  {
    "label": "a82eda97-74ec-4ea3-9448-5d1c87e8623d",
    "text": "So viel zu unserem Weg zurück..."
  },
  {
    "label": "aa965b63-386b-4a89-81a3-435ffb918ab9",
    "text": "Diese Oktarianer sind aber auch wirklich gründlich!"
  },
  {
    "label": "d5abfcdd-3bd9-42b0-9b79-eaa797756d1b",
    "text": "Ist das... ein {{color id=\"1\"}}Oktoschütze{{color id=\"65535\"}}?"
  },
  {
    "label": "fb9168da-4df9-41da-8ac6-a0a4b64d7a63",
    "text": "Igitt! Alles voller gegnerischer Tinte!"
  }
]