[
  {
    "label": "2656ff55-cea7-461a-a1a8-5fcf530f7f65",
    "text": "{{color id=\"1\"}}Oktoschützen{{color id=\"65535\"}}! Sei vorsichtig!"
  },
  {
    "label": "2919dd76-3ed3-438f-aa3d-616d50565ba9",
    "text": "War mir klar, dass du es schaffen würdest!"
  },
  {
    "label": "345c74fc-c01e-4e74-a1d0-0f7b1435d0fd",
    "text": "Denk dran: Du kannst {{icon id=\"1\" arg=\"0x0000803F00000000\"}} drücken,\num etwas zusätzlichen Schub zu bekommen!"
  },
  {
    "label": "599cbc08-e944-48f8-98c2-08a9a99ca644",
    "text": "Halte {{icon id=\"11\" arg=\"0x0000803F00000000\"}} gedrückt, um zu schwimmen!\nDen {{color id=\"1\"}}Tintendüser{{color id=\"65535\"}} verlierst du dabei nicht!"
  },
  {
    "label": "77ac6a55-e1cb-405a-90f6-c8f0b22b504a",
    "text": "Du musst einen Weg finden, um an diesen\n{{color id=\"1\"}}Wirbelbürsten {{color id=\"65535\"}}vorbeizukommen."
  },
  {
    "label": "7bac03f2-c848-4220-a6a7-284640847259",
    "text": "Nr. 1, Nr. 3 hat einen Tintendüser.\nDamit sollte das doch gehen!"
  },
  {
    "label": "83a40641-78bb-45ff-b8ba-9a20ff3e4a6e",
    "text": "Da sind Plattformen unter uns. Schau lieber nicht\nrunter! Oder vielleicht doch? Könnte ja helfen..."
  },
  {
    "label": "8eca937e-4583-4917-8ee9-45bd280eaba3",
    "text": "Das in der Mitte sieht aus wie ein {{color id=\"1\"}}Ballonfisch {{color id=\"65535\"}}..."
  },
  {
    "label": "ea4e4c69-7f6c-407d-83d6-142be67fb87d",
    "text": "Das waren alle!\nDa müsste doch jetzt irgendwo ein {{color id=\"1\"}}Sprungfeld{{color id=\"65535\"}} sein..."
  },
  {
    "label": "f5d2bf5c-a3ef-417f-b0b2-cc9f46b0484a",
    "text": "Tief einatmen...\nDu kriegst das schon hin!"
  },
  {
    "label": "f7ee40f1-715e-441b-b899-7791b54a586f",
    "text": "Wunderbar!"
  }
]