[
  {
    "label": "324b2f3e-bfde-49ca-813a-3d92214fe9f2",
    "text": "Prima gemeistert!"
  },
  {
    "label": "4613feb0-962c-4d73-bbe0-61d0bded0463",
    "text": "Endlich! Du warst richtig gut!"
  },
  {
    "label": "5a6a3c20-f1f6-4f8c-bd44-40195e2d92d0",
    "text": "Zack, das war’s!"
  },
  {
    "label": "7f43ba32-3855-4ab2-8b2d-95525be3e540",
    "text": "Und es geht wieder mal abwärts!"
  },
  {
    "label": "8104e11f-0a53-426f-b932-04d7f15730ac",
    "text": "Ich will dir keine Angst machen, aber ich sehe da\nein paar fiese Gestalten auf uns zukommen."
  },
  {
    "label": "951a2fc9-f77d-43a1-9a2a-9be6526565de",
    "text": "Das... Das sind aber viele Propeller-Plattformen."
  },
  {
    "label": "a5f75457-2dc9-4f8e-834b-a6acde24e5aa",
    "text": "Pass auf, wo du hintrittst."
  },
  {
    "label": "d9f9b9a0-ffcf-408b-91d5-a0613b92110e",
    "text": "{{color id=\"1\"}}Oktokommandanten{{color id=\"65535\"}} nerven einfach nur.\nAber immerhin hast du die Säulen als Deckung."
  },
  {
    "label": "db61f4fe-0f4b-49dc-a66f-1af41c6dbe2a",
    "text": "Nicht anhalten!\nWeiter, weiter!"
  },
  {
    "label": "dd38eaf8-e732-47b4-a445-4d2679e56c8e",
    "text": "Hui! Wie komisch..."
  },
  {
    "label": "e6266e66-9bc8-4469-a20f-8dc0df997e2a",
    "text": "Tja, da ist das Ziel...\nAber das wird wohl warten müssen."
  },
  {
    "label": "ec162189-120e-40f7-b6e2-d3b0914fa097",
    "text": "Okay! Dann färb mal die Wand ein\nund schau, was da oben auf dich wartet."
  }
]