[
  {
    "label": "0a9d310e-8350-4d13-a89e-3378fdd824fc",
    "text": "Oktario hat’s vom Mischpult gehauen!\nVersohl ihm die Tentakel!"
  },
  {
    "label": "1b50089b-6729-4737-898e-8dbabc3285a2",
    "text": "Hoppla! Deinen Salmini hat’s weggeschleudert!"
  },
  {
    "label": "20e00358-2d70-4e53-b886-12196866f89a",
    "text": "GAH! Kann nicht... saugen!"
  },
  {
    "label": "31f6178d-068e-4884-a7bd-b9520c03685e",
    "text": "Deine Tinte kann seine Schläge zu ihm zurücklenken!"
  },
  {
    "label": "350e080d-7231-4b58-9af2-89f0267f3745",
    "text": "Oktario ist wieder draußen! Gib ihm den Rest!"
  },
  {
    "label": "3a4faa82-9da1-49b3-84c9-4b1f63f1b40a",
    "text": "Greif nach seinen Bohrschlägen an,\n{{color id=\"1\"}}wenn die Bohrer im Boden feststecken{{color id=\"65535\"}}!"
  },
  {
    "label": "3dc6c00e-575f-4910-8a37-9529eb2cb5e2",
    "text": "Oktario ist draußen! Los, ordentlich drauf!"
  },
  {
    "label": "4d2e5620-2c5f-496b-98ad-bc114c0183d7",
    "text": "Er benutzt einen Tintegrator!\nLass ihn nicht {{color id=\"1\"}}deine Tinte aufsaugen{{color id=\"65535\"}}!"
  },
  {
    "label": "533502e7-7c74-4223-829d-b5229185026e",
    "text": "Irgendwie tut’s mir ja leid für deinen Salmini,\naber es funktioniert!"
  },
  {
    "label": "5b9c54f6-9344-41b8-862f-c9a855b9ddfc",
    "text": "Sein Schlag löst {{color id=\"1\"}}Schockwellen{{color id=\"65535\"}} aus.\nSpring am besten über sie drüber!"
  },
  {
    "label": "6f5473f2-0437-47ee-b5c4-25f38508d1dc",
    "text": "Oha, jetzt steht er voll unter Dampf!\nSei vorsichtig!"
  },
  {
    "label": "76f1d0cd-fa9d-4988-8d34-c8b44a502c13",
    "text": "Er steckt fest! Schön mit der Tinte draufhalten!"
  },
  {
    "label": "7887e2dc-181c-4046-9500-aa9df15888a3",
    "text": "Ein Bohrschlag! Weich schnell aus!"
  },
  {
    "label": "80e8b4bc-8969-430a-93fd-24606263e891",
    "text": "Hm, hm, hm... Siehst du hier nicht irgendwas,\ndas man an den Tintegrator verfüttern könnte?"
  },
  {
    "label": "8b9f8af8-a662-4b27-a05a-faa0d828c886",
    "text": "Der blöde Tintegrator bringt mich echt zum Kochen!\nOb man den nicht irgendwie verstopfen kann?"
  },
  {
    "label": "96b0725e-ddea-4e31-ad25-8a98b74957c2",
    "text": "Halt deinen Fischabfall von meinem Equipment fern!"
  },
  {
    "label": "9a93a54c-b8eb-4eb3-954a-63a8ca1b17cb",
    "text": "Hallo zurück, Salmini!\nUnd danke, dass du dich so reinhängst!"
  },
  {
    "label": "ae5c60c8-9a45-4ab3-a4c1-92c378c87f30",
    "text": "Oho! Dein Salmini-Kumpel scheint perfekt zu passen!"
  },
  {
    "label": "f7e1a1d3-0d85-4a76-ba6a-c80198cfb9e9",
    "text": "Er schlägt zu! Schick den Schlag zurück zu ihm!"
  }
]