[
  {
    "label": "0031c3f3-5ff7-4173-8ebe-fb7b256d5bad",
    "text": "Sieht aus, als könnte man hier einfach\n{{icon id=\"12\" arg=\"0x0000803F00000000\"}} gedrückt halten und losrollern!"
  },
  {
    "label": "0246f8bb-0946-4641-9a7e-f30e36a9ddba",
    "text": "Das war knapp! Hätte ja nicht gedacht,\ndass sich hier einer versteckt!"
  },
  {
    "label": "1d2bc628-c906-42f8-923e-dce35fb70169",
    "text": "Vielleicht kannst du dich noch hinter ihn schleichen..."
  },
  {
    "label": "2478b2de-513f-45f4-a4a8-a21badd86842",
    "text": "GAH! Jetzt schon Oktarianer?!"
  },
  {
    "label": "2c40e1ec-2778-4719-adf3-84cd091bc06c",
    "text": "Oktoschützen, Schilde und was-weiß-ich noch alles...\nAber dafür hast du uns. Und deinen Roller!"
  },
  {
    "label": "302c9e68-bcc4-417a-8018-c82edcd034c0",
    "text": "Ist doch immer wieder schön, wenn man als Lohn\nfür den ganzen Ärger {{color id=\"1\"}}Fischeier{{color id=\"65535\"}} findet."
  },
  {
    "label": "3251ace2-7f86-4e7a-873b-30454f524f01",
    "text": "Drücke {{icon id=\"12\" arg=\"0x0000803F00000000\"}}, um {{color id=\"1\"}}waagrecht{{color id=\"65535\"}} Tinte zu schleudern.\nIm Sprung schleuderst du sie {{color id=\"1\"}}senkrecht{{color id=\"65535\"}}."
  },
  {
    "label": "456b24b9-25e1-4291-8e86-37d6dcc39a34",
    "text": "Rock ’n Roller, Nr. 3!"
  },
  {
    "label": "5991f815-2dda-443e-b078-d5ebad7c64e7",
    "text": "Ah, du hast einen versteckten Weg gefunden!"
  },
  {
    "label": "7faa22cb-e043-4e1a-a16d-6d88967fca1c",
    "text": "Tja, jetzt die Sache schon gleich ganz anders aus."
  },
  {
    "label": "831b4ad9-1bd5-41e5-bdef-0f4c4a93e7d1",
    "text": "Geschafft!"
  },
  {
    "label": "8692e390-0b96-4c93-a497-d2896189b50e",
    "text": "Sehr gut."
  },
  {
    "label": "aa3cb97b-e1da-4d1c-8020-85dccb4bd61e",
    "text": "Das war super!\nSind Roller jetzt deine Lieblingswaffen?"
  },
  {
    "label": "ac0a4804-2fbb-45a4-9931-7ea5aee8f8c9",
    "text": "Pass auf, wo du hintrittst!"
  },
  {
    "label": "c28934ae-e86d-4e2c-b82e-36eac6828edc",
    "text": "Gleich zwei auf einmal erwischt!"
  },
  {
    "label": "ceaad6a7-c669-4398-8ba3-aacf9b1b68be",
    "text": "Spring und schwing den Roller, um sie zu erwischen!"
  },
  {
    "label": "cf8987a8-a96d-4006-aef1-d993522ff40e",
    "text": "Denk dran, auf {{color id=\"1\"}}Hupfmatratzen{{color id=\"65535\"}} kannst du\n{{icon id=\"1\" arg=\"0x0000803F00000000\"}} gedrückt halten, um besonders hoch zu springen!"
  },
  {
    "label": "d9f2e6ae-db2a-4ad7-91ac-dd06bd2cf2b9",
    "text": "Das passiert, wenn man nicht auf der Hut ist!"
  },
  {
    "label": "dfebb4e2-a395-4285-a22f-92c247040f27",
    "text": "Öh... War ja klar, dass das da ist...\nOder, Nr. 1?"
  },
  {
    "label": "f906fe63-b376-4151-bf3f-3550000d8364",
    "text": "Jupp. So was von klar."
  }
]