[
  {
    "label": "1bef1742-e641-43bd-b6b8-91996e07de4b",
    "text": "Sie sind schwer zu schnappen,\naber wenigstens ist nur noch eines übrig."
  },
  {
    "label": "2ff46da6-802e-43cf-bbba-e922a0b0eb6a",
    "text": "Färbe den Boden ein, wo {{icon id=\"60\" arg=\"0x0000803F00000000\"}} sie herumlungern.\nDas sollte sie bremsen."
  },
  {
    "label": "3cc92024-c9b0-4a0b-b289-d87aff48eb4c",
    "text": "Eine Rüstung ist eine gute Versicherung dagegen,\nzerkleckst zu werden."
  },
  {
    "label": "71d1ebe6-2d88-418b-a8bf-31f5acc6cafd",
    "text": "Ich hätte noch erwähnen sollen, dass du den Käfig\ndurch Bewegen von {{icon id=\"75\" arg=\"0xEC51383FFEFFFFFF\"}} beschleunigen kannst."
  },
  {
    "label": "880f8768-74e2-426b-9592-08caa8f30d82",
    "text": "Super!"
  },
  {
    "label": "a6335c97-396f-4633-ac23-781c83b5712b",
    "text": "Ich sehe eine {{icon id=\"65\" arg=\"0x0000803F00000000\"}} {{color id=\"4\"}}Rüstung{{color id=\"65535\"}}!"
  }
]