[
  {
    "label": "Start",
    "text": "Zwingende Grauskalierung wird ausgeführt. Fehler.\nNeuer Versuch... Fehler besteht weiterhin."
  },
  {
    "label": "PortalAttack",
    "text": "Wusst ich's doch!\nDie Farbchips stecken in den Portalen!"
  },
  {
    "label": "PotalBreak01",
    "text": "Wahnsinn... Die ganze Farbchip-Energie\nist direkt in die Palette übergegangen!"
  },
  {
    "label": "PotalBreakSupport",
    "text": "Ui! Diesmal hast du {{color id=\"4\"}}Unterstützungs{{color id=\"65535\"}}-Chips bekommen!"
  },
  {
    "label": "PotalBreakMove",
    "text": "Das waren Chips mit {{color id=\"4\"}}Beweglichkeits{{color id=\"65535\"}}-Farbton, oder?"
  },
  {
    "label": "PortalBreakLucky",
    "text": "{{color id=\"4\"}}Glücks{{color id=\"65535\"}}-Chips! Das Schicksal meint es gut mit dir!"
  },
  {
    "label": "PortalBreakRange",
    "text": "Scheinen Chips mit {{color id=\"4\"}}Reichweiten{{color id=\"65535\"}}-Farbton zu sein!"
  },
  {
    "label": "PortalBreakDrone",
    "text": "Heiß! Wir haben {{color id=\"4\"}}Drohnen{{color id=\"65535\"}}-Chips gekriegt!\nGenau, was ich wollte!"
  },
  {
    "label": "PortalBreakPower",
    "text": "Chips im {{color id=\"4\"}}Kraft{{color id=\"65535\"}}-Farbton. Ausgezeichnet."
  },
  {
    "label": "PortalBreak01_02",
    "text": "Wow! Die Farbe der Chips ist intensiver als sonst!"
  },
  {
    "label": "PortalBreak02",
    "text": "Nanu, ein {{color id=\"4\"}}neues Portal{{color id=\"65535\"}}!\nDort stecken sicher noch mehr Farbchips drin."
  },
  {
    "label": "PortalBreak03",
    "text": "Unbekannte Vorgänge.\nBeginne Analyse... Fehler!"
  },
  {
    "label": "PortalBreak04",
    "text": "Grauskalierung läuft umgekehrt.\nUnmöglich."
  },
  {
    "label": "PortalBreakAll",
    "text": "Damit hättest du die letzten Chips!"
  },
  {
    "label": "LastMegaPhone01",
    "text": "Hrrrg. GAH. Farbkapazität... überschritten..."
  },
  {
    "label": "LastMegaPhone02",
    "text": "Klasse so! Und nun VOLLER STOFF!"
  },
  {
    "label": "LastMegaPhone03",
    "text": "Jetzt kriegt der Kerl jeden Farbchip auf einmal ab!\nNr. 8, drück bitte auf den {{icon id=\"76\" arg=\"0xEC51383FFEFFFFFF\"}} rechten Stick, okay?"
  },
  {
    "label": "LastMegaPhoneAttack01",
    "text": "Wollt ihr mal 'ne Heulboje in bunt sehen?"
  },
  {
    "label": "LastMegaPhoneAttack02",
    "text": "Ha! Das rüttelt ihm die Platinen durch!"
  },
  {
    "label": "LastMegaPhoneAttack03",
    "text": "Lass krachen, Perla!"
  },
  {
    "label": "LastMegaPhoneAttack04",
    "text": "Programmkompatibilität... nicht gefunden..."
  },
  {
    "label": "LastMegaPhoneAttack05",
    "text": "%∞？≠&∴♭⇔♪★＠#△Ⅲ...!"
  },
  {
    "label": "LastOdako100",
    "text": "Grrraaahhhhhh. Warum.\nWarum gebt ihr nicht auf."
  },
  {
    "label": "LastOdako075",
    "text": "Du willst's ihm richtig zeigen?\nNur zu, Nr. 8!"
  },
  {
    "label": "LastOdako050",
    "text": "Repariere fatalen Fehler... Vorgang gescheitert.\nExistenz unmittelbar gefährdet. Gefahr. GEFAHR."
  },
  {
    "label": "LastOdako025",
    "text": "Es fehlt nicht mehr viel, Nr. 8!"
  }
]