[
  {
    "label": "08aad450-bd01-444b-94e6-46c36ae2df7f",
    "text": "’tschuldigung, wir müssten hier mal durch!"
  },
  {
    "label": "15d1da38-d26f-46d3-9ec5-e9566ed37226",
    "text": "Oh, hallo, ihr {{color id=\"1\"}}Oktorekruten{{color id=\"65535\"}}!\nNa, ihr hängt einfach nur ’n bisschen ab, was?"
  },
  {
    "label": "36ddbfb0-ddcc-479b-8207-80ecaf3d0b7a",
    "text": "Da geht’s weiter!\nWarum finde ich das nur so spannend?!"
  },
  {
    "label": "3b2613fe-9923-4e54-867a-4a91fc50ec5f",
    "text": "Ooooh! Die Wand hat sich geöffnet!"
  },
  {
    "label": "3d650305-a5df-40c7-989f-450671c8ea3b",
    "text": "Der erste Schritt sieht einfach aus.\nFärb diesen {{color id=\"1\"}}Schalter{{color id=\"65535\"}}!"
  },
  {
    "label": "4893ab24-4312-4e08-9f07-85fcc9ef4a18",
    "text": "Der hatte vielleicht Nerven!\nDir deinen souveränen Auftritt so zu ruinieren..."
  },
  {
    "label": "8bb1eff4-235b-4e79-bf88-1406c84ac45f",
    "text": "Da geht’s weiter. Auf nach oben!"
  },
  {
    "label": "905733b6-0b22-4c1d-a311-91526c3f0a25",
    "text": "Die Plattform bewegt sich!"
  },
  {
    "label": "9a97c1d4-417f-4e89-b998-f69234b3b88d",
    "text": "Ja, aber Nr. 3 muss noch die ganzen Oktarianer aus\ndem Weg räumen... Und das sind ganz schön viele!"
  },
  {
    "label": "a27feb12-31ff-4bae-847d-a2e78517d477",
    "text": "Keine Kiste ist vor dir sicher!\nNicht mal die ganz oben!"
  },
  {
    "label": "aab6bdd7-82fa-4a24-8747-1d30d7b9c4f1",
    "text": "Da hast du die Reichweite deiner Waffe\ngut ausgenutzt!"
  },
  {
    "label": "e3d54a3c-ee1e-4113-b007-1f9df96bd5e5",
    "text": "Wir sind oben! Gut gemacht!"
  },
  {
    "label": "ea80c3ca-4f62-4c40-b604-37804b2d3db6",
    "text": "Schlabber Tinte, {{color id=\"1\"}}Oktoschütze{{color id=\"65535\"}}!"
  },
  {
    "label": "ed7f6d5b-9be4-4a74-804b-801112cba8e9",
    "text": "Nur noch die Rampen hoch, dann sind wir da!"
  },
  {
    "label": "f0209afe-bba2-4175-bbf3-3ef41f1fca60",
    "text": "Der nächste {{color id=\"1\"}}Schalter {{color id=\"65535\"}}ist hinter dem Glas.\nTriffst du ihn von hier?"
  },
  {
    "label": "fcf97cb4-b5f1-46cb-bfbd-83c3da309690",
    "text": "Das war sehr direkt, hehe!"
  }
]